{
    "kraje2020": {
        "name": "Kraje 2020",
        "slug": "kraje2020",
        "type": "regional"
    },
    "kraje2016": {
        "name": "Kraje 2016",
        "slug": "kraje2016",
        "type": "regional"
    },
    "pres2018-1": {
        "name": "Prezident 2018 / 1.kolo",
        "slug": "pres2018-1",
        "type": "presidential"
    },
    "pres2018-2": {
        "name": "Prezident 2018 / 2.kolo",
        "slug": "pres2018-2",
        "type": "presidential"
    },
    "psp2017": {
        "name": "Sněmovna 2017",
        "slug": "psp2017",
        "type": "psp"
    },
    "euro2019": {
        "name": "Euro 2019",
        "slug": "euro2019",
        "type": "euro"
    }
}