A7,A9,A997,A998,A999,B166,B687,B344,B720,B1468,B768,B997,B998,B999
129,82,0,0,111,4,11,14,15,12,29,22,10,205
82,70,0,17,47,4,9,22,23,10,11,20,0,117
133,56,0,12,46,7,8,10,15,15,48,25,0,119
43,45,0,0,28,3,6,15,2,4,9,13,1,63
147,105,0,10,84,23,16,8,13,9,34,21,0,222
59,46,0,11,56,12,6,7,12,5,22,18,0,90
478,298,0,0,518,22,52,35,42,58,76,65,17,927
158,58,0,0,86,11,9,7,6,39,23,35,11,161
39,34,0,8,36,2,8,11,9,7,11,12,0,57
92,27,0,0,52,13,4,3,3,15,15,15,0,103
37,17,0,0,14,1,5,11,1,2,1,2,3,42
100,47,0,0,73,4,3,8,19,2,20,31,10,123
143,131,0,0,89,9,17,59,18,34,28,17,2,179
25,45,0,4,25,7,10,9,2,3,13,1,0,54
80,78,0,4,35,15,16,19,22,2,10,19,0,94
92,45,0,9,24,6,7,6,12,15,24,14,0,86
39,28,0,0,32,2,0,9,2,3,6,12,6,59
36,42,0,0,40,7,6,8,9,6,8,10,0,64
73,64,0,7,61,17,6,7,9,5,21,12,0,128
120,100,0,3,95,16,11,25,9,13,40,8,0,196
276,176,0,28,186,2,12,20,23,129,63,36,0,381
34,10,0,4,16,4,3,1,2,6,4,4,0,40
70,75,0,4,48,5,14,24,17,17,14,12,0,94
34,18,0,7,26,2,3,2,5,7,10,13,0,43
169,87,0,0,114,6,7,4,16,25,31,27,13,241
31,17,0,3,32,2,4,2,5,7,3,7,0,53
404,348,0,24,276,15,44,55,43,182,69,58,0,586
44,74,0,0,30,10,14,13,15,3,10,11,4,68
194,239,0,12,196,17,37,29,33,47,63,51,0,364
136,151,0,21,81,10,43,22,33,36,30,28,0,187
138,260,0,46,146,23,76,18,43,21,33,61,0,315
115,124,0,0,108,21,21,9,14,15,19,28,7,213
124,96,0,0,69,8,10,21,8,14,13,16,17,182
89,70,0,0,73,9,9,8,7,25,8,9,2,155
185,119,0,5,178,5,5,11,13,95,22,25,0,311
69,63,0,7,38,10,8,13,12,5,15,11,0,103
155,190,0,12,102,24,36,24,51,18,54,26,0,226
251,346,0,15,212,31,67,63,87,23,76,51,0,426
272,310,0,116,218,29,71,96,44,22,72,65,0,517
229,188,0,0,126,23,49,22,35,13,63,34,9,295
232,240,0,5,163,26,40,41,44,17,84,45,0,343
175,167,0,0,184,12,24,26,25,13,45,41,33,307
218,149,0,0,131,13,28,26,26,11,44,33,7,310
29,27,0,0,40,0,11,6,9,0,6,15,1,48
59,72,0,9,29,6,10,43,6,3,18,23,0,60
177,152,0,22,119,13,30,25,37,14,40,34,0,277
227,239,0,30,134,22,54,52,46,32,52,46,0,326
64,29,0,10,30,3,4,14,9,6,11,14,0,72
211,168,0,0,117,13,20,34,16,18,54,26,19,296
414,354,0,0,352,18,67,79,55,42,70,54,24,711
343,347,0,0,374,12,51,69,65,32,68,54,44,669
242,164,0,6,164,9,33,38,36,26,67,44,0,323
218,267,0,10,171,12,46,50,39,15,82,34,0,388
298,327,0,0,274,23,47,89,51,22,77,73,31,486
165,256,0,0,136,24,60,56,25,22,45,32,11,282
320,241,0,0,242,16,28,39,38,29,67,54,37,495
226,318,0,0,194,41,65,53,47,19,49,51,43,370
166,196,0,0,144,11,40,29,41,5,30,33,33,284
207,228,0,0,186,13,44,50,43,24,56,37,13,341
298,450,0,0,206,28,106,98,64,37,75,56,4,486
194,162,0,0,169,11,36,31,33,12,59,24,15,304
181,183,0,0,141,8,41,37,34,10,42,45,21,267
227,162,0,1,162,9,23,39,24,17,65,37,0,338
211,149,0,0,296,11,28,23,25,18,42,41,21,447
174,197,0,23,192,17,38,45,40,17,36,31,0,362
234,305,0,51,771,16,83,59,48,12,60,51,0,1032
181,123,0,0,142,13,19,12,22,9,41,34,6,290
225,186,0,0,126,15,29,40,25,26,22,28,19,333
63,36,0,0,57,5,9,11,8,3,8,9,0,103
88,37,0,4,47,12,3,6,8,6,13,10,0,118
143,87,0,24,72,12,13,21,27,6,29,34,0,184
106,42,0,3,66,3,4,5,11,0,34,23,0,137
92,69,0,0,111,11,5,13,13,6,20,10,16,178
42,31,0,5,16,2,6,9,6,8,14,4,0,45
62,25,0,4,30,9,0,9,3,20,7,10,0,63
89,44,0,0,63,7,12,3,2,14,18,10,10,120
148,128,0,0,126,8,20,21,18,28,35,19,2,251
195,264,0,0,347,10,46,54,31,36,43,37,13,536
119,91,0,3,68,5,14,10,16,37,32,16,0,151
282,243,0,0,173,17,36,56,31,36,87,69,4,362
187,206,0,32,228,15,37,44,31,43,42,40,0,401
208,173,0,0,163,8,21,27,17,36,32,36,18,349
203,153,0,0,192,19,28,21,19,40,42,40,7,332
261,172,0,4,206,8,31,34,28,88,33,31,0,390
298,219,0,0,411,6,25,66,27,83,40,28,11,642
359,262,0,0,205,14,54,35,27,144,50,57,4,441
186,138,0,23,163,6,28,36,13,78,18,23,0,308
245,197,0,0,151,7,32,36,21,82,39,34,11,331
37,20,0,2,27,5,0,6,1,11,2,4,0,57
114,45,0,5,38,3,10,4,4,38,21,17,0,105
100,29,0,6,68,3,5,11,5,41,14,7,0,117
357,230,0,0,211,8,26,32,14,141,32,30,14,501
241,114,0,4,155,8,14,16,12,107,35,15,0,307
202,137,0,0,142,3,12,29,25,79,24,21,13,275
209,186,0,3,132,4,19,16,13,111,28,20,0,319
282,116,0,0,143,10,16,15,9,111,44,22,22,292
277,135,0,0,139,5,13,22,9,106,33,26,17,320
232,148,0,0,166,8,19,25,14,102,23,16,3,336
80,41,0,0,35,1,1,23,11,11,19,6,5,79
290,159,0,0,197,14,31,24,19,68,58,46,8,378
22,12,0,8,17,0,2,0,5,7,2,4,0,39
28,23,0,0,39,1,2,10,0,1,11,3,4,58
24,3,0,0,25,0,1,4,0,2,6,3,1,35
106,104,0,17,54,3,24,20,9,9,34,42,0,140
177,122,0,0,103,8,16,7,12,42,24,43,40,210
48,31,0,0,36,4,1,7,8,6,22,7,5,55
31,48,0,0,22,1,11,11,0,5,13,2,8,50
217,121,0,0,131,7,15,27,34,11,53,39,11,272
330,296,0,0,350,28,34,72,46,30,66,68,5,627
113,74,0,0,99,7,22,2,14,8,26,26,10,171
29,17,0,3,13,1,1,7,1,1,5,2,0,44
93,37,0,8,48,2,4,11,8,6,17,22,0,116
128,37,0,10,87,1,1,9,7,8,22,31,0,183
397,271,0,0,340,15,43,46,22,24,56,125,0,677
389,279,0,8,281,18,34,53,39,29,67,115,0,602
62,42,0,2,71,9,6,4,1,6,16,13,0,122
350,217,0,0,264,17,46,23,22,35,70,72,9,537
31,30,0,0,26,6,5,10,1,2,3,6,5,49
102,84,0,5,73,5,9,17,14,24,21,24,0,150
20,41,0,9,36,1,5,27,2,5,2,1,0,63
234,167,0,15,119,19,11,76,16,73,58,24,0,258
117,48,0,0,38,3,4,16,6,27,4,8,1,134
206,156,0,12,133,22,44,15,39,11,47,64,0,265
83,105,0,16,85,6,26,11,17,16,30,20,0,163
74,38,0,0,14,3,1,3,2,16,8,7,2,84
35,30,0,1,22,5,0,3,6,6,5,3,0,60
35,26,0,0,32,4,6,3,4,4,8,8,3,53
82,52,0,4,34,12,6,18,7,17,21,14,0,77
292,263,0,7,219,61,32,68,29,41,49,47,0,454
95,69,0,2,89,16,3,10,18,15,20,22,0,151
49,49,0,0,29,7,1,4,4,5,12,7,1,86
34,36,0,0,10,3,5,6,5,6,14,6,10,25
63,41,0,0,16,4,4,12,3,6,14,13,2,62
62,38,0,0,32,3,3,0,13,12,9,14,5,73
318,191,0,23,170,25,32,40,44,28,98,61,0,374
57,67,0,12,65,1,11,24,8,6,18,23,0,110
105,41,0,11,76,3,4,10,3,6,23,23,0,161
325,323,0,0,220,18,33,32,21,19,39,25,167,514
221,233,0,0,291,13,38,70,34,18,57,60,8,447
29,46,0,0,41,0,3,16,8,1,7,8,3,70
37,54,0,7,13,0,3,26,4,4,5,4,0,65
117,36,0,0,87,9,3,4,4,3,30,29,3,155
119,61,0,0,62,5,11,7,14,20,18,15,4,148
315,225,0,22,255,20,28,31,42,66,78,37,0,515
122,86,0,10,61,9,9,28,14,13,17,23,0,166
107,77,0,0,74,7,6,11,17,31,15,17,0,154
43,14,0,0,10,1,8,5,4,1,19,8,2,19
68,72,0,3,47,7,12,10,13,12,6,13,0,117
22,24,0,4,13,2,1,5,4,0,7,8,0,36
41,19,0,0,39,2,2,8,3,2,7,7,2,66
161,90,0,32,117,15,16,10,13,26,43,31,0,246
55,25,0,0,26,3,8,2,3,8,12,4,4,62
586,418,0,0,344,19,56,81,60,49,132,110,33,808
81,86,0,0,89,19,13,7,15,7,9,14,9,163
278,190,0,6,147,16,35,45,29,21,70,49,0,356
110,46,0,0,49,10,6,15,10,10,24,15,7,108
95,44,0,0,90,6,6,2,5,15,32,16,3,144
96,46,0,12,56,4,5,7,7,30,13,7,0,137
425,179,0,1,511,49,22,16,31,21,86,47,0,844
37,28,0,0,21,3,0,5,5,10,5,4,3,51
70,59,0,8,46,4,4,9,7,30,12,15,0,102
195,131,0,0,103,5,13,23,20,50,46,21,10,241
350,383,0,0,299,39,43,73,40,141,69,50,4,573
276,188,0,16,173,4,20,31,33,34,47,31,0,453
121,121,0,0,131,2,9,57,11,11,20,13,51,199
71,46,0,2,64,1,7,12,6,1,7,31,0,118
31,21,0,0,9,0,1,12,0,6,1,1,4,36
34,11,0,0,13,1,2,6,2,7,5,10,1,24
94,51,0,0,29,4,8,21,7,23,17,12,0,82
58,38,0,12,57,4,15,5,4,1,17,3,0,116
289,151,0,0,183,45,24,11,24,26,52,28,2,411
230,138,0,2,190,27,24,9,19,15,43,35,0,388
37,24,0,0,42,6,2,2,1,1,13,7,7,64
36,23,0,0,32,4,1,6,2,0,8,11,0,59
58,24,0,0,23,1,1,5,6,3,11,8,6,64
310,225,0,0,263,30,21,49,40,29,62,64,5,498
16,7,0,7,6,0,0,1,3,8,1,7,0,16
13,17,0,0,9,3,4,0,2,5,3,7,2,13
83,60,0,12,93,6,2,7,12,4,11,18,0,188
19,9,0,0,9,3,4,2,2,3,6,3,2,12
166,93,0,14,118,7,14,16,20,16,61,37,0,220
82,58,0,0,55,6,8,3,13,13,12,9,7,124
108,40,0,2,80,3,10,3,1,12,14,16,0,171
426,284,0,0,379,9,53,23,49,76,104,69,33,673
13,32,0,0,13,5,10,4,6,2,1,3,1,26
275,216,0,15,415,10,39,27,15,37,64,72,0,657
106,63,0,6,86,3,7,22,8,10,31,26,0,154
15,21,0,0,11,1,2,8,1,0,0,4,5,26
15,9,0,0,11,0,3,0,2,0,2,2,3,23
32,3,0,8,9,0,1,6,0,1,12,5,0,27
19,13,0,2,17,0,2,12,1,0,1,4,0,31
44,19,0,3,28,0,5,6,6,2,4,14,0,57
45,26,0,0,27,1,5,1,5,1,21,4,0,60
48,28,0,6,17,4,4,18,2,1,6,5,0,59
51,46,0,4,36,1,6,6,2,5,8,15,0,94
87,56,0,4,39,2,14,15,3,19,29,10,0,94
297,175,0,0,236,12,24,28,20,25,64,67,23,445
272,164,0,0,231,3,20,43,18,21,27,66,36,433
324,282,0,19,286,14,51,54,46,26,76,71,0,573
47,28,0,0,31,1,4,15,4,20,1,12,3,46
49,52,0,20,23,0,18,13,20,9,11,19,0,54
65,67,0,6,48,4,12,9,12,5,22,11,0,111
152,140,0,0,94,21,22,26,36,4,37,39,5,196
297,231,0,10,321,24,38,99,33,14,64,74,0,513
327,252,0,0,371,17,54,55,46,14,76,78,12,598
357,287,0,0,204,16,58,44,49,23,81,77,14,486
223,293,0,13,197,28,59,73,53,35,48,62,0,368
24,19,0,0,7,0,5,2,6,2,9,3,6,17
22,22,0,1,11,2,5,4,5,11,3,4,0,22
76,22,0,0,59,11,10,1,4,3,13,11,1,103
50,54,0,0,47,8,7,16,4,4,8,7,2,95
183,96,0,6,99,4,6,32,8,41,31,20,0,242
136,109,0,7,114,12,29,17,32,8,38,37,0,193
317,226,0,13,157,24,27,63,38,38,74,54,0,395
63,158,0,1,48,40,13,31,13,20,17,19,0,117
88,161,0,0,78,43,9,42,10,10,16,19,3,175
109,189,0,31,65,101,20,39,14,15,19,9,0,177
113,69,0,0,91,5,8,14,10,21,16,19,1,179
359,190,0,7,205,103,24,22,12,50,59,38,0,453
57,47,0,0,52,4,10,12,7,5,4,15,7,92
257,192,0,0,209,21,34,22,35,18,61,28,4,435
234,132,0,0,185,12,13,4,31,13,62,21,17,378
394,296,0,12,312,54,53,40,39,28,85,50,0,665
107,34,0,0,82,5,9,9,4,5,26,11,7,147
211,137,0,0,139,5,31,13,26,19,49,33,2,309
25,14,0,2,16,4,4,2,4,0,5,8,0,30
141,112,0,0,138,20,17,18,8,13,49,20,13,233
104,43,0,11,45,9,2,5,8,8,22,19,0,130
194,120,0,0,139,7,18,16,13,110,25,20,15,229
112,74,0,0,74,20,7,15,18,3,31,16,7,143
53,22,0,0,31,17,1,9,1,6,17,10,2,43
178,88,0,0,113,9,8,15,10,33,25,14,8,257
144,92,0,4,96,11,11,39,2,53,18,20,0,182
188,78,0,8,107,2,18,14,9,98,7,16,0,217
98,41,0,0,65,4,7,12,6,23,15,13,10,114
138,76,0,9,67,2,18,21,12,21,31,37,0,148
80,34,0,0,18,8,3,2,3,20,16,18,2,60
47,56,0,2,27,59,5,4,0,2,5,4,0,53
43,26,0,0,39,36,1,3,0,4,3,6,15,40
36,12,0,0,28,19,1,4,0,0,7,2,2,41
171,57,0,0,61,55,11,8,9,31,18,11,0,146
110,66,0,0,86,3,4,24,5,22,16,10,14,164
399,195,0,0,262,18,21,27,30,23,121,52,8,556
203,78,0,0,131,9,16,16,12,21,40,24,8,266
30,23,0,2,11,4,6,10,5,2,4,1,0,34
84,50,0,15,46,24,8,8,8,3,16,16,0,112
39,63,0,0,43,15,6,7,11,3,5,6,3,89
90,60,0,19,73,4,12,5,18,41,15,17,0,130
82,29,0,0,33,2,3,0,11,15,6,15,3,89
101,78,0,10,44,13,23,11,17,8,29,22,0,110
84,25,0,0,59,2,4,1,7,9,19,15,8,103
569,240,0,30,528,14,35,54,56,111,84,63,0,950
141,88,0,14,86,7,21,29,13,20,35,30,0,174
197,160,0,33,178,8,30,46,21,36,34,51,0,342
67,41,0,1,42,5,11,12,7,5,8,11,0,92
135,53,0,19,145,8,5,9,10,6,12,35,0,267
34,34,0,0,15,8,0,1,7,1,6,2,2,56
48,63,0,10,53,18,11,9,14,8,15,10,0,89
46,32,0,6,23,12,5,5,6,6,5,14,0,54
57,26,0,0,33,7,10,1,14,2,8,12,2,60
32,22,0,1,29,5,8,2,4,3,15,5,0,42
78,60,0,0,68,4,18,4,15,11,17,14,15,108
96,244,0,57,101,37,61,38,42,21,29,62,0,208
45,45,0,10,55,8,7,11,9,5,13,15,0,87
122,137,0,90,113,23,26,19,33,22,30,43,0,266
75,69,0,15,36,7,18,14,15,11,43,28,0,59
37,25,0,0,13,9,2,3,6,1,12,9,0,33
58,48,0,0,31,8,12,1,22,5,6,13,8,62
88,81,0,19,36,12,28,15,24,15,29,15,0,86
56,66,0,11,51,8,8,9,15,5,11,25,0,103
22,13,0,3,13,5,2,4,2,5,1,11,0,21
53,18,0,2,33,3,1,3,9,5,7,12,0,66
48,5,0,2,20,3,0,4,1,3,17,11,0,36
57,35,0,4,40,14,4,1,10,1,2,15,0,89
45,21,0,0,85,1,4,7,3,7,9,12,7,101
82,99,0,7,75,13,19,22,20,4,22,37,0,126
130,91,0,9,77,14,12,9,23,19,20,33,0,177
36,39,0,0,22,4,6,5,5,7,9,10,1,50
92,99,0,12,38,9,14,28,12,16,26,17,0,119
26,9,0,7,17,2,4,2,2,2,8,2,0,37
75,25,0,0,31,6,2,4,2,0,12,13,13,79
36,35,0,10,34,7,9,9,2,8,13,11,0,56
77,20,0,6,59,7,11,2,0,3,25,17,0,97
126,198,0,20,79,52,59,32,32,9,35,40,0,164
80,55,0,0,41,1,10,10,9,33,14,5,12,82
85,40,0,7,46,6,4,3,8,14,12,15,0,116
57,13,0,1,28,1,1,0,3,5,18,8,0,63
174,134,0,16,140,13,21,27,16,19,48,44,0,276
45,48,0,1,43,3,6,5,4,15,7,19,0,78
69,56,0,37,49,7,4,40,16,5,11,10,0,118
84,90,0,4,73,17,13,13,11,4,27,18,0,148
280,238,0,0,193,27,50,31,42,19,44,50,8,440
384,367,0,0,275,44,52,62,73,26,96,68,27,578
443,454,0,0,342,22,126,46,57,28,93,65,152,650
83,83,0,17,48,24,32,9,18,3,24,16,0,105
79,75,0,0,43,8,5,12,14,8,31,16,7,96
348,240,0,20,238,19,55,42,47,24,74,77,0,508
78,65,0,0,46,5,9,6,15,3,22,14,1,114
39,14,0,4,15,1,4,3,5,2,8,6,0,43
104,128,0,15,66,13,19,22,24,9,52,26,0,148
38,22,0,0,15,9,5,6,14,7,8,7,0,19
65,119,0,1,45,22,22,10,31,4,16,32,0,93
59,81,0,0,37,20,12,5,21,7,9,16,2,85
173,338,0,45,162,57,89,30,54,15,31,48,0,394
299,365,0,35,218,33,55,21,81,45,80,94,0,508
130,117,0,10,93,14,21,6,22,23,22,23,0,219
268,190,0,0,222,25,38,18,29,25,56,48,12,429
68,114,0,6,68,22,38,15,15,6,16,15,0,129
264,171,0,0,262,23,23,10,29,17,41,84,5,465
143,79,0,4,87,5,18,10,16,6,30,15,0,213
62,41,0,11,45,3,7,11,10,11,8,12,0,97
89,58,0,5,61,3,3,12,8,6,13,16,0,152
198,137,0,0,145,8,7,29,25,22,48,29,2,310
264,215,0,0,289,11,28,37,31,43,35,62,10,511
266,249,0,23,206,27,28,31,38,35,49,60,0,476
113,117,0,49,108,10,42,14,28,15,26,37,0,215
111,52,0,0,64,13,16,8,7,2,22,22,12,125
55,69,0,12,66,0,8,14,6,4,6,13,0,151
91,85,0,4,66,6,12,11,16,7,14,33,0,147
212,196,0,15,202,10,44,47,33,22,51,52,0,366
219,215,0,8,194,19,28,38,31,18,49,64,0,389
299,278,0,20,415,11,42,55,42,48,71,84,0,659
200,173,0,0,140,6,27,31,41,16,63,54,0,275
218,222,0,0,177,11,39,30,46,30,36,57,24,344
221,316,0,18,229,23,53,65,44,29,42,71,0,457
232,206,0,0,218,6,35,28,33,26,60,63,38,367
49,24,0,0,46,2,2,6,0,2,7,16,13,71
597,470,0,29,462,30,78,59,57,57,137,237,0,903
260,310,0,9,227,37,53,22,54,30,43,59,0,508
73,55,0,5,41,21,12,7,14,2,20,17,0,81
313,276,0,35,290,74,32,25,76,30,79,57,0,541
120,78,0,11,61,16,26,4,9,16,26,15,0,158
498,298,0,0,381,56,45,17,54,33,97,81,39,755
430,227,0,0,542,42,27,22,41,23,118,65,37,824
40,15,0,1,22,6,1,2,4,7,4,5,0,49
180,201,0,11,161,37,36,23,46,16,43,24,0,328
72,57,0,8,42,14,6,11,16,2,22,16,0,92
114,59,0,1,73,18,11,4,14,9,32,16,0,143
75,68,0,0,48,9,6,21,5,7,13,28,5,97
52,28,0,0,53,9,1,2,14,2,12,8,6,79
90,50,0,2,44,9,4,13,6,7,30,19,0,98
116,112,0,1,84,12,21,27,17,1,31,23,0,181
67,34,0,10,56,2,7,4,11,6,13,17,0,107
42,25,0,7,24,6,1,12,4,5,7,5,0,58
19,11,0,0,24,3,2,7,2,2,0,3,0,35
44,22,0,0,24,0,4,9,0,1,14,9,2,51
135,59,0,0,97,20,4,19,6,9,26,23,17,167
136,87,0,8,124,8,16,6,11,30,36,11,0,237
140,165,0,1,113,21,40,20,34,20,34,47,0,203
64,42,0,15,52,18,5,1,5,3,13,10,0,118
193,104,0,0,147,12,11,4,30,4,40,33,8,302
137,105,0,0,96,28,12,13,12,10,34,27,4,198
56,33,0,5,29,9,7,4,6,2,12,17,0,66
339,334,0,29,269,44,89,36,52,59,90,60,0,541
66,39,0,2,39,12,8,6,9,5,14,11,0,81
51,32,0,0,32,2,8,5,7,1,18,5,4,65
82,67,0,0,60,11,11,4,10,7,17,20,10,119
55,20,0,2,9,2,4,4,7,5,22,4,0,38
444,300,0,0,349,22,42,38,61,62,116,86,10,656
12,10,0,1,8,0,2,0,3,9,3,3,0,11
185,130,0,0,94,18,14,8,31,21,46,33,5,233
230,254,0,15,250,42,48,10,56,12,37,53,0,491
230,326,0,32,263,81,45,19,56,24,60,66,0,500
294,303,0,28,241,40,53,38,57,20,80,94,0,484
55,50,0,0,27,12,11,1,6,2,18,11,1,70
246,186,0,12,191,68,30,19,31,11,66,37,0,373
79,72,0,11,55,3,21,9,22,5,20,24,0,113
39,22,0,1,19,0,12,0,3,18,14,3,0,31
28,11,0,7,9,5,4,0,4,0,8,8,0,26
50,47,0,13,37,3,10,8,12,5,10,21,0,78
39,32,0,10,23,4,1,1,5,3,6,14,0,70
63,40,0,0,51,10,5,5,6,7,12,11,4,94
90,50,0,20,41,7,20,9,12,10,20,21,0,102
78,53,0,1,75,15,5,7,14,10,22,6,0,128
328,311,0,26,208,60,69,35,55,38,79,70,0,467
322,265,0,0,271,38,38,29,40,25,65,65,25,533
228,161,0,0,188,36,29,22,16,11,58,29,7,369
320,253,0,0,282,46,42,26,45,23,62,68,34,509
296,259,0,0,354,36,69,24,36,33,61,53,9,588
443,345,0,0,577,65,60,34,81,26,90,98,8,903
402,259,0,0,238,39,51,24,50,25,83,60,13,554
78,53,0,5,48,5,7,15,6,5,19,22,0,105
45,16,0,0,9,10,0,4,1,8,10,17,5,15
145,172,0,0,164,19,45,21,31,16,35,40,1,273
59,41,0,0,43,1,2,15,6,10,18,9,12,70
165,152,0,12,149,42,16,19,31,7,40,31,0,292
104,64,0,0,56,10,11,7,10,7,24,16,5,134
50,49,0,10,39,11,3,15,9,5,12,8,0,85
153,190,0,29,189,35,31,16,42,9,43,49,0,336
398,261,0,0,462,21,24,89,44,28,89,86,45,695
81,50,0,0,42,46,4,5,8,1,11,8,6,84
335,291,0,0,302,184,28,27,44,43,76,70,6,450
55,10,0,0,33,18,0,2,1,1,7,19,1,49
190,130,0,4,156,8,2,255,7,8,16,11,0,173
65,123,0,35,28,25,27,21,31,5,19,34,0,89
62,46,0,5,40,5,8,5,14,8,12,15,0,86
28,7,0,3,13,6,2,5,1,0,2,8,0,27
49,57,0,1,32,15,8,6,13,6,4,14,0,73
42,24,0,0,28,10,9,6,1,1,11,6,12,38
335,284,0,44,225,104,52,36,49,12,85,74,0,476
256,233,0,18,207,79,35,27,38,11,52,55,0,417
238,277,0,53,262,87,61,23,63,15,66,45,0,470
142,111,0,4,96,13,18,15,25,16,29,22,0,215
77,47,0,0,96,14,0,6,11,8,15,14,10,142
316,422,0,15,236,34,138,61,50,27,89,89,0,501
91,77,0,21,51,3,9,5,12,16,28,35,0,132
125,148,0,15,124,20,27,17,27,9,22,41,0,249
315,424,0,56,268,50,108,44,71,35,88,133,0,534
107,128,0,14,70,15,28,17,24,29,35,50,0,121
213,122,0,0,147,14,26,10,16,14,39,32,6,325
158,179,0,105,97,16,26,48,44,19,60,47,0,279
76,40,0,0,65,7,9,1,12,3,27,12,6,104
89,100,0,5,70,31,14,52,18,6,11,13,0,119
135,107,0,9,112,10,14,19,15,15,30,30,0,230
98,54,0,4,55,12,13,5,10,14,25,18,0,114
70,32,0,0,40,11,6,8,6,5,18,14,0,74
85,39,0,7,45,6,6,1,8,13,41,14,0,87
82,50,0,0,88,11,6,4,13,1,24,14,0,147
58,29,0,1,44,9,8,0,4,6,14,15,0,76
93,69,0,3,55,2,29,10,14,5,12,8,0,140
109,50,0,0,63,3,6,8,7,14,35,29,8,112
79,33,0,13,37,7,5,16,8,7,20,7,0,92
27,24,0,0,12,5,6,0,3,9,3,5,3,29
174,114,0,0,106,14,9,5,17,17,32,35,21,244
41,22,0,0,41,7,1,2,2,3,14,5,0,70
137,119,0,5,120,7,27,33,31,10,26,36,0,211
122,84,0,5,77,24,15,9,21,9,25,39,0,146
130,57,0,0,67,9,8,8,0,4,37,21,5,162
113,113,0,0,69,16,17,28,16,9,40,11,11,147
139,89,0,2,95,11,20,13,10,13,21,24,0,213
70,75,0,0,64,13,12,6,16,7,13,12,2,128
67,16,0,2,30,8,7,8,4,0,9,10,0,69
154,89,0,17,127,28,10,15,24,10,18,48,0,234
61,26,0,0,24,4,3,5,2,5,14,10,8,60
47,36,0,14,29,7,4,9,8,6,15,15,0,62
274,171,0,0,202,16,36,33,35,23,52,69,11,372
26,32,0,22,527,2,1,0,8,1,1,5,0,589
177,259,0,28,154,11,60,88,38,35,19,32,0,335
296,141,0,0,246,8,10,40,20,17,88,47,26,427
268,136,0,0,191,4,26,51,32,18,56,29,8,371
292,199,0,4,223,12,21,54,38,30,42,63,0,458
291,154,0,0,330,8,12,51,20,20,34,31,35,564
436,246,0,0,412,9,45,89,49,22,60,58,17,745
291,234,0,0,313,14,32,86,24,17,56,48,2,559
341,254,0,0,330,10,47,88,38,17,77,34,46,568
328,271,0,31,324,14,47,108,46,25,60,43,0,611
289,216,0,92,104,7,38,77,30,21,70,55,0,403
306,194,0,0,234,17,24,73,28,26,53,42,33,438
258,184,0,9,188,7,17,87,20,23,46,44,0,395
331,281,0,15,154,22,44,125,36,32,61,52,0,409
383,265,0,8,288,17,47,131,34,24,57,61,0,573
298,182,0,0,261,9,26,72,30,18,50,48,20,468
264,183,0,0,225,15,25,88,35,19,46,33,19,392
167,113,0,2,257,3,25,23,18,21,24,37,0,388
79,126,0,23,76,15,41,17,15,16,7,17,0,176
62,44,0,0,25,7,3,17,5,1,8,10,10,70
41,25,0,9,28,10,4,5,8,4,2,11,0,59
320,289,0,0,197,14,44,42,40,115,44,35,10,462
463,216,0,0,388,10,16,29,39,75,115,63,10,710
153,51,0,0,92,2,6,5,1,29,37,29,13,174
58,40,0,0,26,1,6,6,2,20,5,12,7,65
120,156,0,0,96,43,23,14,26,9,38,14,1,204
340,594,0,0,318,20,128,194,73,65,79,58,67,568
241,239,0,0,167,42,60,18,32,23,70,31,7,364
278,233,0,17,255,32,45,37,43,32,37,43,0,514
104,60,0,11,91,4,6,25,6,12,21,18,0,174
227,51,0,0,164,6,10,4,11,40,37,24,3,307
201,348,0,28,170,79,47,101,28,20,44,31,0,397
226,402,0,0,204,97,58,72,39,34,41,37,3,451
84,105,0,0,60,4,6,40,13,31,22,7,12,114
35,42,0,7,14,27,10,5,5,5,7,9,0,30
289,182,0,0,250,4,9,35,32,69,19,41,3,509
30,45,0,0,31,13,7,6,3,8,9,6,4,50
30,57,0,8,24,9,7,35,4,2,4,5,0,53
86,39,0,4,59,7,2,10,15,12,23,11,0,108
227,264,0,0,267,23,62,26,33,41,54,44,2,473
28,11,0,0,7,2,0,2,0,3,4,11,1,23
408,240,0,0,318,5,36,46,24,95,81,53,1,625
59,57,0,4,21,17,12,12,6,13,7,17,0,57
277,214,0,0,349,2,33,21,34,116,48,23,13,550
435,300,0,5,419,3,43,101,39,115,72,35,0,751
519,319,0,0,303,14,30,84,31,113,66,64,86,653
30,10,0,1,16,1,1,0,0,0,7,7,0,41
147,141,0,6,133,11,29,37,27,16,37,23,0,247
124,25,0,10,104,2,1,6,3,7,33,10,0,201
242,130,0,6,195,16,15,34,18,32,46,43,0,369
242,212,0,0,192,13,63,28,25,31,49,30,15,392
61,17,0,2,32,2,3,2,5,5,8,12,0,75
146,63,0,13,110,7,7,9,13,34,16,27,0,219
121,66,0,0,105,6,15,3,13,27,11,19,7,191
309,171,0,23,320,1,23,11,26,90,42,29,0,601
121,74,0,6,118,3,5,15,22,31,20,10,0,213
54,14,0,0,30,0,0,3,0,5,13,10,1,66
203,150,0,5,145,5,24,15,21,26,47,46,0,319
56,80,0,0,57,12,12,20,12,4,16,27,0,90
43,11,0,2,16,3,3,0,3,5,9,1,0,48
42,27,0,5,31,4,5,0,7,11,8,5,0,65
67,97,0,9,63,12,16,28,8,7,11,20,0,134
99,226,0,0,103,18,81,33,23,22,26,21,15,189
202,292,0,117,194,33,97,38,40,45,65,37,0,450
198,317,0,0,191,29,104,43,44,37,47,38,11,353
75,97,0,0,88,14,37,8,7,11,16,18,4,145
128,264,0,0,113,28,73,47,22,13,40,21,24,237
277,363,0,0,243,38,98,46,35,34,77,46,46,463
276,523,0,0,189,57,162,73,31,50,109,46,26,434
162,339,0,16,201,48,112,66,42,36,44,34,0,336
31,31,0,4,30,4,13,4,4,6,3,7,0,55
29,57,0,1,35,4,14,9,6,3,8,7,0,71
278,345,0,0,168,55,45,99,45,35,49,48,1,414
82,126,0,8,42,48,4,30,12,3,19,18,0,124
37,15,0,5,25,0,0,0,2,3,8,11,0,58
29,11,0,0,16,3,0,0,0,6,1,1,9,36
28,11,0,0,5,1,0,2,3,0,5,1,3,29
36,18,0,0,27,0,3,6,2,3,5,3,7,52
19,9,0,2,10,1,2,0,1,3,7,4,0,22
20,10,0,0,24,0,0,1,2,9,4,1,6,31
297,230,0,0,230,4,31,21,34,96,37,50,12,472
44,33,0,0,37,3,0,5,2,5,4,10,3,82
17,11,0,0,12,0,0,1,0,8,6,4,5,16
120,28,0,11,40,10,1,8,7,3,18,14,0,138
152,65,0,0,136,1,3,6,5,41,27,26,5,239
195,133,0,2,116,88,11,24,11,18,40,24,0,230
45,63,0,5,25,25,6,10,16,10,9,8,0,54
174,113,0,2,164,7,21,7,16,29,33,33,0,307
225,151,0,12,238,5,40,5,13,31,37,52,0,443
320,247,0,0,210,5,49,24,24,93,45,79,10,448
106,18,0,0,56,1,0,9,1,15,18,21,15,100
118,57,0,0,58,4,9,3,7,18,11,27,2,152
282,189,0,19,210,9,45,22,18,78,52,47,0,429
344,182,0,0,312,7,34,19,16,50,77,62,9,564
353,228,0,0,340,5,27,29,21,80,70,56,36,597
280,240,0,1,179,3,51,15,19,70,49,54,0,439
239,150,0,1,653,3,29,18,15,33,27,48,0,870
273,170,0,20,222,3,36,13,22,63,40,75,0,433
243,145,0,0,254,6,22,30,21,44,39,52,30,398
245,78,0,0,241,4,4,8,7,43,47,49,26,376
66,77,0,0,38,3,13,15,4,20,16,6,0,104
182,219,0,0,148,14,30,60,23,59,28,21,10,304
366,199,0,30,370,25,30,30,36,38,48,59,0,699
269,352,0,0,193,49,89,61,41,48,49,56,1,420
136,35,0,0,87,6,2,1,11,8,25,12,2,191
429,477,0,0,232,21,172,70,63,49,127,54,13,569
264,260,0,11,186,15,65,43,28,32,56,49,0,433
160,220,0,8,287,14,78,26,36,18,38,23,0,442
178,151,0,0,131,3,50,16,10,11,34,19,58,259
222,191,0,0,182,7,54,18,25,33,64,28,6,360
266,284,0,0,231,9,99,38,29,27,59,29,30,461
230,261,0,7,195,12,94,35,25,24,62,33,0,408
280,219,0,84,200,14,92,32,39,29,59,47,0,471
55,49,0,2,45,3,4,12,13,2,19,3,0,95
57,56,0,6,56,6,19,22,12,5,17,9,0,85
64,26,0,0,42,4,5,5,4,5,4,7,7,91
330,316,0,29,296,21,103,44,47,30,49,59,0,618
210,178,0,8,155,10,55,22,24,32,47,29,0,332
174,83,0,19,162,1,22,10,20,20,23,26,0,316
63,50,0,0,22,40,2,8,8,8,20,10,2,37
99,103,0,0,63,14,14,16,15,46,18,12,1,129
45,56,0,0,35,4,7,3,20,8,10,6,6,72
377,205,0,40,314,19,39,39,50,28,52,52,0,657
242,138,0,0,162,5,15,20,25,25,44,39,11,358
111,77,0,13,68,5,19,19,8,8,34,16,0,160
115,33,0,3,44,1,4,4,2,19,27,19,0,119
75,14,0,0,41,3,0,4,4,7,2,7,11,92
212,88,0,0,199,8,14,21,11,12,38,34,8,353
135,166,0,23,89,11,34,40,22,42,20,19,0,225
192,369,0,24,175,37,55,112,43,17,32,39,0,425
74,62,0,4,55,10,9,5,12,6,31,13,0,109
83,31,0,8,73,1,4,4,3,4,11,10,0,158
52,34,0,9,35,6,2,11,6,15,12,11,0,67
348,141,0,36,281,5,22,14,43,62,68,63,0,529
87,49,0,0,75,4,10,6,6,2,19,15,6,143
59,70,0,10,57,21,9,2,9,6,10,15,0,124
28,35,0,0,14,28,4,4,2,17,2,0,3,17
51,43,0,0,21,0,9,10,5,6,2,2,9,72
38,25,0,7,27,1,10,8,0,3,6,9,0,60
40,42,0,0,30,2,5,4,9,5,12,8,4,63
77,155,0,0,91,15,37,32,16,20,22,7,8,166
53,18,0,0,39,2,3,1,5,6,6,11,15,61
122,115,0,12,84,12,19,14,13,34,25,9,0,207
133,135,0,15,70,7,16,56,12,65,11,15,0,171
159,141,0,5,98,33,23,21,20,19,35,16,0,236
262,108,0,11,365,3,12,3,13,32,42,41,0,600
42,18,0,4,18,2,10,3,11,3,8,2,0,43
331,162,0,4,253,14,27,33,30,26,40,34,0,546
84,104,0,0,47,24,14,16,11,10,17,9,1,133
58,17,0,2,62,0,1,5,3,16,0,8,0,106
160,57,0,0,114,1,7,12,7,11,26,27,10,230
161,66,0,0,140,6,12,2,14,30,15,18,2,268
10,16,0,1,9,1,4,11,1,0,0,4,0,15
183,251,0,0,180,11,40,63,20,50,49,44,9,328
218,303,0,82,546,12,48,67,49,60,39,63,0,811
129,102,0,7,130,2,11,10,26,31,9,24,0,255
108,73,0,7,60,3,16,11,22,28,29,18,0,121
237,231,0,1,240,7,45,31,23,51,51,49,0,452
286,341,0,37,312,12,44,69,69,80,47,51,0,604
312,339,0,61,224,19,60,63,49,96,92,57,0,500
218,188,0,0,161,9,27,20,31,44,51,40,21,324
228,187,0,12,127,4,37,34,29,48,62,40,0,300
223,173,0,0,164,3,32,38,23,48,48,29,24,315
310,244,0,0,197,12,36,47,27,65,92,50,1,421
277,285,0,10,214,10,43,57,35,74,79,51,0,437
195,277,0,0,144,10,64,44,37,58,50,44,0,309
232,200,0,0,276,10,20,32,29,61,47,47,9,453
172,210,0,1,218,12,31,40,22,47,36,39,0,374
215,260,0,21,250,8,37,38,41,63,48,50,0,461
164,267,0,0,154,11,47,47,37,66,47,39,11,280
413,441,0,0,300,26,47,44,49,108,73,94,99,614
60,81,0,11,46,24,19,13,19,13,10,16,0,84
322,362,0,13,204,18,61,64,46,90,79,57,0,486
89,77,0,0,154,3,3,5,10,22,10,18,15,234
35,28,0,0,28,2,8,0,4,7,4,4,12,50
140,76,0,0,273,1,8,4,5,13,15,30,0,413
172,132,0,0,193,11,47,9,16,26,27,48,9,304
68,23,0,0,56,3,9,0,2,2,14,11,3,103
126,74,0,0,132,3,19,5,13,15,21,18,13,225
278,225,0,0,319,13,51,20,16,26,55,45,48,548
132,73,0,0,95,9,4,18,15,11,22,27,2,192
260,327,0,0,236,6,34,62,38,179,62,32,0,410
326,209,0,0,206,3,27,23,28,162,55,21,14,408
333,263,0,9,246,4,37,55,33,140,78,55,0,449
311,282,0,0,260,10,30,41,41,173,54,31,12,461
397,371,0,0,275,15,48,49,50,228,85,56,15,497
298,322,0,9,315,11,35,51,48,134,43,40,0,582
405,308,0,0,277,12,29,40,28,171,64,52,27,567
363,425,0,11,274,13,51,62,57,246,62,53,0,529
100,59,0,0,361,1,8,12,7,25,10,17,15,425
45,42,0,0,21,0,0,8,4,31,8,7,10,40
44,39,0,3,7,0,13,3,4,37,4,8,0,24
70,49,0,1,60,2,3,5,4,26,6,6,0,128
358,297,0,0,360,16,32,33,39,122,72,56,6,639
153,132,0,0,95,3,14,26,25,61,16,14,4,217
347,226,0,0,241,8,23,43,15,129,62,41,13,480
388,298,0,11,275,5,38,58,27,206,55,65,0,518
321,254,0,24,611,5,44,28,36,96,32,40,0,929
144,191,0,21,113,78,17,32,15,18,33,20,0,256
184,152,0,28,132,13,18,27,27,44,44,38,0,285
243,124,0,1,175,16,10,7,16,35,37,49,0,373
154,128,0,26,97,20,19,21,23,16,51,27,0,228
24,19,0,10,49,3,0,3,1,7,1,8,0,79
272,474,0,0,228,28,55,97,53,167,49,51,6,468
98,37,0,0,72,4,5,10,9,5,17,12,1,144
287,426,0,4,257,15,41,116,57,77,49,63,0,556
262,337,0,31,160,22,43,96,49,70,42,52,0,416
44,25,0,0,14,0,2,6,5,14,3,20,0,33
246,185,0,17,112,9,45,39,32,37,54,49,0,295
287,290,0,17,203,25,42,54,71,63,49,75,0,418
102,93,0,0,80,10,11,8,23,9,25,27,1,161
54,80,0,0,38,6,9,7,7,19,17,14,5,88
227,251,0,4,204,22,30,32,39,61,56,44,0,402
244,387,0,0,202,25,40,70,58,102,60,47,8,423
141,127,0,0,124,16,15,21,16,37,18,28,9,232
235,293,0,9,211,85,25,70,24,40,45,32,0,427
246,189,0,4,200,54,31,36,29,32,45,22,0,390
183,203,0,11,115,12,44,35,36,57,42,40,0,246
130,95,0,1,81,18,15,11,13,12,33,30,0,175
37,61,0,0,38,10,27,9,4,5,6,9,1,65
508,704,0,0,663,53,172,65,117,63,112,110,36,1147
426,412,0,17,318,23,107,48,67,62,123,83,0,660
336,332,0,0,250,20,60,30,55,52,80,62,10,549
267,264,0,0,235,17,43,23,41,33,69,56,2,482
286,304,0,15,276,15,62,27,47,35,61,62,0,572
274,322,0,41,239,26,60,69,38,30,76,55,0,522
37,28,0,0,31,2,11,2,5,2,1,5,4,64
49,92,0,3,30,4,14,15,9,12,11,8,0,101
176,246,0,4,167,14,67,32,46,42,48,33,0,311
217,268,0,4,154,13,53,38,69,41,70,36,0,323
189,194,0,18,115,10,35,20,43,49,38,35,0,286
172,224,0,7,163,13,37,34,32,42,43,40,0,325
191,242,0,1,117,13,28,46,33,40,47,32,0,312
91,66,0,8,51,5,16,1,20,10,22,9,0,133
93,94,0,0,72,9,6,13,12,15,26,33,0,145
80,102,0,9,79,16,22,7,26,31,17,10,0,141
244,251,0,9,221,75,30,42,26,41,47,47,0,417
102,105,0,0,81,9,25,6,15,13,24,15,2,179
54,27,0,0,34,3,1,0,5,17,13,8,3,65
31,27,0,0,36,1,1,2,1,9,8,8,5,59
69,44,0,0,55,0,6,3,5,29,5,7,5,108
51,13,0,0,17,0,0,2,0,5,4,19,10,41
423,299,0,0,291,39,56,16,35,115,93,68,32,559
383,153,0,0,436,9,23,10,28,70,67,62,29,674
322,200,0,14,232,22,32,12,17,84,60,72,0,469
29,28,0,0,11,6,2,2,9,1,1,2,6,39
41,31,0,0,32,0,9,3,6,5,5,5,18,53
42,35,0,6,41,3,10,8,5,10,12,5,0,71
118,39,0,0,96,3,6,4,3,15,20,18,3,181
218,374,0,0,212,38,56,57,50,71,44,50,31,407
399,368,0,0,266,16,73,58,52,81,127,42,25,559
445,502,0,0,369,29,81,55,80,115,98,83,4,771
322,315,0,18,219,8,67,37,36,85,88,61,0,492
265,294,0,0,220,24,51,53,44,70,61,51,4,421
334,288,0,3,243,9,73,53,38,60,76,57,0,502
263,215,0,0,460,12,52,31,24,37,49,45,6,682
327,349,0,3,298,27,48,51,61,63,98,51,0,578
281,297,0,0,256,7,54,41,36,54,89,31,17,505
354,549,0,50,345,28,57,86,80,262,54,88,0,643
345,427,0,30,229,18,54,43,45,255,76,57,0,483
219,418,0,0,315,18,51,50,42,200,50,41,14,486
40,53,0,1,25,0,4,3,4,26,6,4,0,72
209,401,0,6,135,10,46,98,61,117,56,48,0,315
208,480,0,0,170,15,54,121,61,149,46,34,6,372
71,26,0,0,37,5,5,13,3,10,15,11,0,72
189,81,0,0,149,6,12,6,6,48,23,32,0,286
169,260,0,20,166,36,42,40,50,45,36,36,0,330
108,83,0,16,65,2,13,14,12,13,23,15,0,180
267,390,0,13,232,21,54,57,52,156,58,37,0,467
258,107,0,13,219,9,3,24,23,39,51,46,0,402
148,200,0,0,119,9,25,57,30,33,31,40,0,242
29,42,0,0,28,3,1,5,5,25,0,8,15,37
148,105,0,0,120,4,7,10,12,81,23,18,37,181
79,55,0,3,56,11,8,11,18,20,25,9,0,91
42,36,0,9,26,5,7,9,5,4,14,5,0,64
222,333,0,14,182,22,34,123,43,50,54,40,0,385
73,67,0,14,58,9,9,14,13,29,16,16,0,106
253,151,0,11,151,39,43,21,27,27,33,51,0,325
24,36,0,0,8,5,5,1,6,8,3,4,3,33
57,83,0,0,43,8,3,4,6,34,18,17,2,91
91,91,0,0,79,14,22,17,8,15,20,23,16,126
98,105,0,4,62,5,16,40,17,21,15,18,0,137
71,93,0,0,82,2,4,14,22,18,20,15,15,136
191,110,0,9,221,14,16,17,19,28,20,29,0,388
50,89,0,0,48,3,10,7,11,32,11,21,8,84
93,108,0,1,82,17,24,34,15,20,13,17,0,144
57,108,0,3,35,9,7,30,14,17,13,14,0,99
98,215,0,24,96,13,22,33,50,55,33,28,0,199
27,16,0,0,18,3,4,0,2,3,5,7,3,34
52,112,0,2,55,20,29,19,10,14,16,9,0,104
109,111,0,0,63,4,4,2,4,115,7,19,13,115
21,23,0,0,17,7,4,9,4,1,5,4,4,23
487,280,0,52,614,22,49,31,49,75,82,84,0,1041
229,196,0,9,131,17,23,37,19,70,49,44,0,306
70,80,0,15,62,6,7,19,10,36,21,24,0,104
32,71,0,4,22,5,5,7,6,16,14,12,0,64
131,108,0,0,96,13,22,8,9,8,23,33,8,211
149,120,0,8,72,17,15,15,32,15,33,49,0,173
296,219,0,5,198,17,22,25,41,59,55,49,0,450
165,177,0,0,125,20,25,22,29,12,27,33,4,295
42,24,0,0,26,2,3,4,5,5,5,4,13,51
32,75,0,0,42,6,9,10,12,19,5,16,1,71
22,43,0,2,39,3,7,4,11,11,5,8,0,57
53,56,0,0,45,8,8,10,3,9,6,14,1,95
49,89,0,3,19,4,9,41,9,26,10,12,0,49
279,190,0,27,213,7,26,34,23,50,43,32,0,494
185,145,0,0,102,13,16,7,17,39,51,43,30,216
38,26,0,0,24,1,5,2,4,11,10,4,7,44
160,190,0,0,110,37,18,37,31,14,37,38,4,244
260,150,0,15,218,5,15,13,15,62,42,27,0,464
71,80,0,0,115,7,18,6,7,7,5,19,10,187
58,96,0,1,76,12,8,15,15,10,13,9,0,149
194,244,0,4,130,7,30,57,45,61,42,27,0,303
36,26,0,0,18,6,5,9,4,4,6,8,3,35
46,37,0,0,11,3,8,12,4,7,6,15,4,35
60,76,0,9,52,11,10,4,12,26,18,20,0,96
61,30,0,0,45,16,0,4,5,2,12,12,4,81
153,176,0,34,120,87,32,10,39,17,31,33,0,234
317,256,0,0,224,1,22,25,35,165,44,32,43,430
278,348,0,0,537,31,74,53,56,25,54,89,11,770
406,299,0,0,279,21,51,51,75,36,94,87,22,547
153,168,0,11,99,11,39,16,24,20,30,50,0,241
288,301,0,0,350,27,60,55,41,35,82,63,5,571
370,446,0,4,246,39,111,80,64,47,79,92,0,554
518,362,0,0,585,44,60,32,60,54,84,105,11,1015
244,350,0,12,178,29,86,47,53,20,50,74,0,425
332,412,0,0,259,40,82,63,53,47,68,76,15,559
347,316,0,0,239,39,47,41,47,48,70,97,8,505
332,271,0,0,300,28,59,43,47,40,48,84,24,530
37,25,0,2,16,4,0,2,4,10,13,8,0,39
181,203,0,8,181,26,30,13,32,36,45,40,0,351
69,63,0,0,57,6,6,14,14,11,10,21,0,107
242,174,0,6,180,63,22,7,30,19,65,52,0,344
53,61,0,0,41,5,13,11,12,8,20,9,2,75
353,470,0,0,295,36,86,46,86,67,111,69,8,609
332,456,0,0,317,43,108,50,76,69,87,62,21,589
196,328,0,3,350,25,66,34,65,36,50,57,0,544
299,472,0,0,287,37,120,87,69,61,112,71,30,471
257,301,0,6,184,21,69,20,56,41,61,34,0,446
64,64,0,5,114,9,17,4,19,20,15,18,0,145
269,268,0,16,220,11,36,34,43,62,56,44,0,487
