OBEC,OKRSEK,VOLICI,HLASY,HLASY_53,HLASY_1206,HLASY_7,HLASY_794,HLASY_47,HLASY_1220,HLASY_659,HLASY_1114,HLASY_768,HLASY_715,HLASY_1,HLASY_600,HLASY_1223,HLASY_720,HLASY_1177,HLASY_1179,HLASY_1390,HLASY_1219,HLASY_1052,HLASY_40,HLASY_1178,HLASY_1200,HLASY_785,HLASY_1440,HLASY_1125,HLASY_1119,HLASY_1438,HLASY_1209,HLASY_759,HLASY_1224,HLASY_762,HLASY_764,HLASY_1222,HLASY_1439,HLASY_98,HLASY_83,HLASY_123,HLASY_1190,HLASY_1218
500101,1,172,22,1,1,1,3,2,1,1,4,5,2,1,,,,,,,,,,,,,,,,,,,,,,,,,,,,
500127,1,131,37,4,5,,,3,1,2,2,14,,,2,1,3,,,,,,,,,,,,,,,,,,,,,,,,,
506486,1,200,81,9,,,,,3,22,3,18,,4,,,16,1,1,1,2,1,,,,,,,,,,,,,,,,,,,,
506494,1,286,98,11,4,4,,6,7,8,3,29,,,8,,11,1,,,,,1,1,1,2,1,,,,,,,,,,,,,,,
506621,1,146,40,6,1,,,6,,,14,2,,1,,,5,,,,,2,,,,,1,1,1,,,,,,,,,,,,,
511587,1,312,67,5,1,5,,3,3,8,8,19,1,,,,8,,,,,,,2,1,,1,2,,,,,,,,,,,,,,
537845,1,94,37,5,,,,1,1,4,4,13,,,,,6,,,1,,1,,,1,,,,,,,,,,,,,,,,,
537870,1,438,118,16,6,2,,6,3,6,20,28,2,3,1,,15,1,,1,,1,,,,,1,,,2,2,1,1,,,,,,,,,
537918,1,1599,416,70,14,11,,18,8,55,42,101,1,6,1,,66,1,,,2,4,,1,2,4,,2,,6,,,,1,,,,,,,,
537926,1,695,218,46,6,2,,6,6,32,19,38,6,9,1,,42,1,,,2,1,,,,1,,,,,,,,,,,,,,,,
537934,1,268,78,13,2,3,,1,2,11,11,15,,,,,17,,,1,,,,,1,,,,,1,,,,,,,,,,,,
537969,1,704,263,36,5,5,,12,8,34,20,75,5,1,1,,40,,,1,2,2,,,,4,2,,,6,,1,,,1,1,1,,,,,
538001,1,297,119,19,4,2,,9,3,12,10,29,1,3,,,20,,,,2,1,,1,,1,,,,,1,,,,,1,,,,,,
538019,1,264,68,6,2,,,6,2,2,18,21,,,,,3,,,,,,2,,,4,,,,1,,,,,,,,1,,,,
538027,1,152,57,20,,2,,1,,3,7,12,1,,1,,4,,,,,,1,1,,1,,,,1,,,,,,,,2,,,,
538116,1,325,112,10,2,4,,6,5,12,4,32,5,,3,,11,1,,5,3,1,1,,2,1,,,1,3,,,,,,,,,,,,
538159,1,464,175,27,8,7,,4,3,24,18,32,,7,,,26,1,,2,,,,1,3,1,8,,,1,,1,,,,,,1,,,,
538337,1,560,147,22,2,3,,12,4,19,18,29,,1,,,18,2,,1,,1,,1,3,1,2,,,8,,,,,,,,,,,,
538396,1,267,90,19,4,1,,8,4,7,9,18,,1,,,14,,,,,,2,,1,,,,,1,,,,,,,1,,,,,
538434,1,1333,284,36,3,13,,18,2,25,34,70,5,15,,2,34,3,1,1,3,,3,1,,3,1,3,1,5,1,,,1,,,,,,,,
538591,1,1059,246,34,6,10,,18,4,29,26,67,2,8,1,,24,2,,,3,1,,3,,,2,1,1,1,,,,,,,2,,1,,,
538663,1,142,33,4,,1,,,1,4,2,16,,,,,3,,,,,1,,1,,,,,,,,,,,,,,,,,,
538795,1,472,134,2,7,6,,11,4,15,10,44,2,1,,,17,,1,,,1,,1,1,8,1,,,,,1,,,,,1,,,,,
538817,1,155,40,2,1,4,,,2,7,4,10,,,,,4,,,,,,,,,4,,,,2,,,,,,,,,,,,
538868,1,229,58,6,,1,,5,2,11,10,9,,,,,10,,1,,,,,,1,1,,,,,,,,,,1,,,,,,
538906,1,223,64,17,3,2,1,6,2,3,13,13,,,,,2,,,,,,,,,1,,,,1,,,,,,,,,,,,
538922,1,201,50,2,1,1,,5,1,4,14,9,1,,,,6,2,,,,,,,,,,,,2,,,,1,,,,1,,,,
539023,1,327,83,5,1,2,,10,2,8,12,26,1,,1,,9,1,,1,,,,,2,,,,,2,,,,,,,,,,,,
539074,1,187,44,7,,,,12,,6,1,12,,,,,5,,,1,,,,,,,,,,,,,,,,,,,,,,
539112,1,396,93,5,6,7,,10,1,17,12,12,2,2,,,13,,,,1,1,,,1,,,,,,,1,1,1,,,,,,,,
539279,3,472,131,18,2,11,,11,5,11,15,34,,,,,16,,2,,,,,,2,1,,2,,1,,,,,,,,,,,,
539279,2,583,157,28,4,9,,5,2,14,18,38,1,5,,,25,,2,,,,,,2,,1,,,2,1,,,,,,,,,,,
539279,1,800,213,34,7,26,,9,1,8,25,55,2,10,,,21,,4,1,,1,,2,2,3,,,,1,,,,,,,1,,,,,
539376,1,100,20,1,2,1,1,,,2,,9,,2,,,2,,,,,,,,,,,,,,,,,,,,,,,,,
539431,1,263,97,17,2,5,,5,5,9,21,16,1,4,,,8,,,,1,,,,1,,,,,,,,,,,,1,,,1,,
539473,1,96,38,8,1,1,,4,,6,5,3,,,,,5,,,,1,,,2,2,,,,,,,,,,,,,,,,,
539481,1,373,122,22,3,16,,8,1,8,16,22,2,3,,,12,,,,,,,,4,,,2,,,,1,,,,2,,,,,,
539538,1,95,43,2,,1,1,1,,5,7,19,,,,,4,,,,,,,,,,,,,3,,,,,,,,,,,,
539554,1,191,28,2,,1,,4,,2,4,7,,1,1,,4,,,1,,,,,,,,,,,,,,,1,,,,,,,
539619,1,115,36,2,1,1,,1,,10,4,7,,,,,6,,,,1,1,,,,,,,,2,,,,,,,,,,,,
551651,1,222,68,10,,6,1,4,,5,13,8,1,,,,14,,,,1,,,,,,3,,,2,,,,,,,,,,,,
554481,24,245,63,5,1,1,,6,,9,6,20,,1,,,12,,,,1,,,,,,1,,,,,,,,,,,,,,,
554481,23,216,47,5,,3,,,,,9,15,,,,,10,1,,,,,,,2,,1,,,,,,,,,1,,,,,,
554481,22,448,86,8,,1,,6,3,10,18,18,,3,,,16,,,,,1,,,,,,,,1,,,,,,1,,,,,,
554481,21,749,175,14,,7,,24,7,10,26,54,3,7,,,16,,,,,1,,2,1,1,,1,1,,,,,,,,,,,,,
554481,20,687,182,9,1,10,,14,3,9,30,63,2,8,1,,20,2,,,1,,,,2,3,2,,1,,1,,,,,,,,,,,
554481,19,749,143,19,1,6,,13,6,20,14,24,3,2,,,25,1,1,,1,,,,1,1,,,,1,,1,1,,,,,,2,,,
554481,30,1035,239,20,4,5,,28,2,30,46,62,3,4,,,28,1,,,2,1,,,1,,,,,2,,,,,,,,,,,,
554481,29,551,144,13,3,9,,17,1,12,14,44,1,4,,,11,,,,,2,,2,3,2,1,,,3,,1,,,,1,,,,,,
554481,28,139,18,1,1,1,,5,,,7,2,1,,,,,,,,,,,,,,,,,,,,,,,,,,,,,
554481,4,1029,111,15,1,6,,7,5,11,13,25,3,4,,,12,,,,,1,,1,,1,1,,1,2,,,,1,,,,1,,,,
554481,3,681,199,23,2,7,,12,7,20,21,38,4,3,1,,44,1,2,,1,,,,3,,,,,7,,,,,,2,,1,,,,
554481,2,762,196,16,2,4,,13,7,28,29,26,3,4,,,50,2,,,3,2,,,1,2,,1,1,2,,,,,,,,,,,,
554481,1,1628,164,27,4,7,,3,11,12,18,46,,2,3,,21,1,,,,3,,1,,,2,,,3,,,,,,,,,,,,
554481,13,864,200,18,2,6,,18,2,19,31,53,3,3,1,,31,,,,1,,,2,4,3,,,,3,,,,,,,,,,,,
554481,12,699,164,11,5,11,,16,6,10,22,55,4,4,,,10,,,,2,1,1,1,1,1,,1,,1,,,,1,,,,,,,,
554481,11,552,114,12,2,3,1,11,6,6,11,36,,3,,,13,,,,,2,,2,,4,,2,,,,,,,,,,,,,,
554481,10,657,147,15,4,5,,9,4,17,24,38,1,2,1,,22,,,1,,,,,,,,,,1,,1,,,,1,,1,,,,
554481,9,626,174,24,,7,,20,2,14,21,42,2,11,,,15,,,2,1,,,2,3,1,2,,,4,,,,,,,,1,,,,
554481,8,729,179,22,3,6,,10,8,14,37,40,2,10,2,,16,,,,1,1,,,1,2,1,1,1,,,,,,,,,1,,,,
554481,7,889,201,13,4,5,2,24,4,17,26,69,2,3,,,22,,,1,1,2,,,1,1,1,,,1,1,1,,,,,,,,,,
554481,6,583,146,10,6,4,,9,1,19,17,45,1,2,,,21,2,,,1,,,1,4,1,,,2,,,,,,,,,,,,,
554481,5,694,119,7,5,4,,11,2,5,23,33,1,6,,,13,1,,,,,,4,1,,1,,,1,1,,,,,,,,,,,
554481,18,588,149,14,5,9,,16,5,16,17,27,2,3,,,20,,2,,,,,,4,7,,,,1,,,,,,,,1,,,,
554481,17,773,211,19,1,6,,14,9,27,34,48,1,6,,,30,1,,,1,,,1,2,2,2,,2,2,,,,1,,1,,1,,,,
554481,16,1038,277,20,5,8,,23,10,42,29,64,3,6,,,46,5,,1,1,,1,1,3,2,1,1,,2,,,,,1,1,1,,,,,
554481,15,1489,340,28,7,18,1,25,8,42,41,71,3,9,6,,60,1,1,,,1,,1,4,6,,1,2,1,,,1,,1,,,,1,,,
554481,14,1271,286,19,7,7,1,22,10,32,34,84,3,9,1,,34,,,1,1,1,2,,1,2,2,1,2,3,2,,,3,,2,,,,,,
554481,27,839,277,32,4,12,,17,7,29,38,69,5,13,1,,36,,1,,2,3,,,7,,,,,,,,,,,,,1,,,,
554481,26,675,185,22,3,13,,24,7,8,8,59,2,3,2,,21,,1,,1,4,,,5,1,,,,,1,,,,,,,,,,,
554481,25,762,172,10,4,3,,8,2,17,26,69,,4,,,19,1,,,,2,1,,,1,1,,1,2,,,,,,1,,,,,,
554481,32,920,218,7,3,14,,33,4,9,29,64,2,8,1,,23,2,1,1,1,1,1,1,4,2,,1,,,,,,,3,,,1,,,1,1
554481,31,169,40,1,1,1,,4,,,4,19,1,,,,7,,,,,,,,,,,,2,,,,,,,,,,,,,
554499,8,668,215,16,6,13,,19,3,18,18,62,5,5,,,35,2,,,,1,,,1,5,,,,4,,2,,,,,,,,,,
554499,7,801,222,20,,6,,15,4,18,13,79,5,10,,,38,2,,,,1,,,1,7,,,,1,,,,,,,,1,,,1,
554499,6,826,134,14,3,2,,11,2,4,18,40,1,,2,,18,,1,,2,2,,1,,10,,1,,2,,,,,,,,,,,,
554499,5,510,74,8,3,4,,7,2,5,9,14,,,,,11,,,,,,,,1,5,,,1,4,,,,,,,,,,,,
554499,4,700,126,11,1,8,,9,,6,8,48,,3,1,,19,1,,,1,,1,,2,5,,,,1,,,,,,,,,,1,,
554499,3,1039,168,15,6,4,,15,2,6,26,56,4,1,2,,23,,,,,,1,,,5,,1,,1,,,,,,,,,,,,
554499,2,558,104,8,2,3,,16,1,5,11,29,,1,,,21,1,,,,,,,,4,,,1,,,,,,,,,1,,,,
554499,1,770,157,11,7,6,,11,4,13,19,42,3,8,,,22,1,1,,,,1,,3,3,,,,,,1,,,,,,1,,,,
554499,14,164,35,7,1,2,,3,,,5,11,,1,,,2,,,,,,,1,1,1,,,,,,,,,,,,,,,,
554499,13,263,61,4,3,,,7,2,9,6,12,,1,,,14,,,,1,1,,,,,,,1,,,,,,,,,,,,,
554499,12,461,113,13,1,2,,5,3,5,18,38,1,3,,,17,1,,,,,,,,5,,1,,,,,,,,,,,,,,
554499,11,1490,168,12,1,4,,15,2,9,21,59,1,8,,,16,2,,,,,2,1,1,10,1,,1,2,,,,,,,,,,,,
554499,10,615,142,4,4,2,,12,2,15,14,55,,3,,,6,,,,2,,1,,4,6,6,1,,2,,,,,,2,1,,,,,
554499,9,803,169,8,7,7,,12,5,10,15,58,2,6,1,,17,1,,,,,,,,15,,,1,2,,1,1,,,,,,,,,
554502,1,951,217,22,6,5,,29,2,6,29,69,1,4,,,33,,1,,,,,,,1,1,1,2,4,,,,1,,,,,,,,
554511,1,799,219,32,8,5,,13,2,18,35,48,1,11,1,,26,,3,1,1,1,,,2,2,,4,,4,,1,,,,,,,,,,
554529,5,1005,381,69,9,15,,26,3,49,34,88,2,17,,,37,1,,5,1,2,2,3,3,5,,1,,4,1,,,,1,1,,1,,,,1
554529,4,840,237,36,1,6,,9,8,32,29,63,3,8,,1,30,,,,2,,1,,1,1,,1,,3,,,,,,1,,1,,,,
554529,3,964,243,21,6,9,,16,5,16,29,85,1,3,,,29,,,,1,,1,2,2,8,,1,,4,1,,,,,2,,1,,,,
554529,2,997,274,27,8,6,,18,6,37,19,65,2,11,,,49,1,2,,,,,,7,6,,,2,3,,1,,,1,,1,2,,,,
554529,1,291,101,6,4,,,11,4,13,9,29,,5,,,14,,,2,,,,1,,,1,,2,,,,,,,,,,,,,
554529,6,410,121,18,,5,,7,1,12,17,33,1,1,,,14,,,,1,,1,1,2,4,,,,2,,1,,,,,,,,,,
554545,1,1228,264,23,8,10,,27,3,23,26,79,1,13,1,,32,,1,,,2,1,,1,2,2,,,7,,,,,,1,1,,,,,
554553,3,293,51,1,1,12,1,3,1,6,2,13,2,1,,,3,,,1,,,,,,4,,,,,,,,,,,,,,,,
554553,2,556,103,10,1,5,,12,5,2,19,22,,,1,,15,,,1,,,1,,2,1,,,,2,,,1,,,,1,1,,,1,
554553,1,814,105,6,,7,,11,,6,17,39,2,,,1,9,,,,,,2,,1,2,,,,2,,,,,,,,,,,,
554596,1,215,61,1,1,4,,6,3,1,4,36,,,,,3,,,,,,,,,1,,,,1,,,,,,,,,,,,
554600,1,1197,250,30,5,16,1,21,2,15,27,67,5,5,1,,37,,2,,4,,,1,3,1,,2,2,2,,1,,,,,,,,,,
554618,1,602,133,16,1,7,1,6,3,7,30,34,1,,1,,17,2,,,,1,,,1,,1,,,2,,,,,,,,1,,,,1
554626,1,593,128,12,4,5,,15,3,12,22,32,1,,,,18,,,,,1,,,,3,,,,,,,,,,,,,,,,
554634,2,1153,227,13,8,11,,25,,14,32,69,1,11,3,,23,1,,,1,2,,1,1,4,,,,5,,,,,,2,,,,,,
554634,1,651,108,17,6,4,,4,2,5,15,31,2,3,,,15,,,,,,,,,1,,,,1,,1,,,,,,1,,,,
554642,5,847,75,21,2,1,,1,1,7,10,17,,5,,,9,,,,1,,,,,,,,,,,,,,,,,,,,,
554642,4,475,170,39,4,4,,6,3,23,19,34,,6,,,25,,,,1,,,,1,,,,,2,,,1,2,,,,,,,,
554642,3,32,21,9,1,1,,4,,,1,3,,1,,,,,,,,,,,,,,,,,,,,,,,,1,,,,
554642,2,633,196,21,,5,,8,6,20,18,53,4,16,,,41,,2,,,,,1,,,1,,,,,,,,,,,,,,,
554642,1,615,217,23,,9,,7,4,30,13,86,,4,,,36,,,,3,,,,2,,,,,,,,,,,,,,,,,
554642,17,569,181,19,,7,,26,8,6,14,53,,12,,,17,1,,,1,1,,2,5,2,1,,,6,,,,,,,,,,,,
554642,16,722,201,12,4,5,,17,1,11,34,58,,15,,,33,,,,2,2,,,3,1,,,,1,,,,,,,,1,,,1,
554642,15,797,242,35,4,11,,12,9,27,24,64,1,6,,,37,3,,,,1,,,,2,,,,5,,,,1,,,,,,,,
554642,14,624,200,25,2,9,,16,4,23,15,49,2,9,,,33,1,,,,5,,,2,,2,,,2,1,,,,,,,,,,,
554642,13,713,177,18,1,14,,9,3,26,21,46,1,4,1,,25,1,,,1,,,1,,,1,,2,1,,,,,,,,1,,,,
554642,12,531,107,7,5,11,,18,2,4,5,32,2,3,1,,13,,,1,,,,,1,1,,,1,,,,,,,,,,,,,
554642,11,684,219,37,1,11,,17,3,24,23,58,1,5,,,27,1,,,,,,3,3,,1,1,2,,,,,,,,,1,,,,
554642,10,801,207,20,5,10,2,10,5,17,24,51,3,6,,,40,3,,,,2,,,1,1,1,1,3,1,1,,,,,,,,,,,
554642,9,739,215,37,1,5,,21,3,31,13,45,1,10,,,35,,,,,1,1,1,2,1,2,,,5,,,,,,,,,,,,
554642,8,559,164,37,1,9,1,13,3,19,14,27,,9,,,21,,,,1,1,,,2,,1,1,,,,,,1,,2,,1,,,,
554642,7,597,145,26,1,5,,7,3,20,12,27,2,13,,,22,,,1,,,,1,2,1,,,,1,,,,,,,,1,,,,
554642,6,485,126,18,1,1,,6,1,18,16,26,,8,,,27,1,,,1,1,,,,,,1,,,,,,,,,,,,,,
554651,1,245,22,,1,,,2,,,6,11,,,,,,,,,,,,,,1,,1,,,,,,,,,,,,,,
554677,1,333,45,4,,,,8,,3,6,5,4,4,,,8,,,,,,,,2,,,,,,,,,,,,,1,,,,
554693,1,274,73,6,,1,,13,,10,8,17,,2,,,6,1,,,,1,,,1,1,,1,2,2,,,,,,1,,,,,,
554707,1,437,110,7,5,22,1,5,1,2,6,34,,5,,,14,1,,,,1,,3,1,,,,,1,,,,,,,,,,,,1
554740,1,1543,252,18,5,18,1,33,1,14,34,67,3,3,2,,22,,3,5,2,3,,3,1,3,1,1,,6,,,,,,1,,2,,,,
554812,1,1487,286,23,4,11,,27,8,14,47,87,1,7,,1,39,,,,2,2,,1,2,2,,1,,2,,,,1,,2,,,1,,,1
554855,1,307,62,4,1,,,7,,4,10,23,1,3,,,8,,,,,,,,,,,,,,,1,,,,,,,,,,
554880,1,758,208,41,,3,,16,2,13,24,51,1,5,1,,40,,,,2,1,,1,,,,5,,1,,,,,,,,,,,,1
554961,50,712,241,37,6,6,,7,5,26,23,71,2,6,,,34,1,1,1,4,1,,,4,1,2,1,,1,,,,,,1,,,,,,
554961,49,243,51,9,,2,,,2,2,6,19,1,,,,8,,,,,,,,1,,,,,1,,,,,,,,,,,,
554961,48,1050,312,39,7,12,,26,7,37,37,94,4,9,,,29,,,,1,3,,1,3,,,,,1,,,,,,,,1,,,1,
554961,47,982,285,29,6,11,3,13,8,29,31,91,,2,1,,37,1,2,2,2,,1,1,1,,3,1,,3,2,,,,,1,,4,,,,
554961,46,884,305,34,4,14,,24,4,24,36,102,,5,,,31,3,,2,2,,,1,2,5,,1,1,7,,1,1,,,,,1,,,,
554961,45,1064,290,31,2,15,,16,5,31,26,99,5,2,1,,39,2,,2,1,1,,,3,1,1,,1,3,,,,,,,,2,1,,,
554961,44,862,262,39,5,10,,19,3,36,18,83,,7,,,29,1,,1,,1,1,,7,,,1,,,,,1,,,,,,,,,
554961,43,892,295,41,7,9,,24,7,15,34,90,3,2,1,,34,2,1,,4,6,,2,3,1,3,,,3,,1,,1,,,,,,,1,
554961,42,1123,316,52,4,13,,12,3,35,44,74,,11,,,42,1,1,,4,1,,1,3,4,3,,,3,1,,,1,,,,3,,,,
554961,41,809,219,20,8,9,,17,3,26,17,66,1,1,,,32,2,1,3,1,,,2,3,2,,1,1,,,,1,,,,,1,1,,,
554961,40,894,273,45,4,3,,21,10,35,21,79,2,9,,,33,1,,,1,3,,,2,1,1,,,1,,1,,,,,,,,,,
554961,39,621,209,22,2,11,,28,5,15,19,66,3,,2,1,13,2,,,1,2,,,4,1,1,2,,7,,,1,,,,1,,,,,
554961,38,638,190,21,3,9,,11,9,19,14,69,1,6,1,,16,,1,,,1,,,,1,1,1,,4,,1,,,,,,,,,,1
554961,37,703,207,28,2,4,,19,5,27,24,54,,4,1,,20,1,1,2,1,4,,,5,1,1,,,2,,,,,,,,1,,,,
554961,36,683,209,30,1,12,,20,1,33,19,56,2,5,,,19,1,,,2,,,,3,2,1,1,,1,,,,,,,,,,,,
554961,35,637,176,20,4,5,,2,4,23,22,50,2,1,,,26,1,,,3,,,,3,4,,,,2,1,,,2,1,,,,,,,
554961,34,538,102,10,6,3,,8,,10,20,16,,3,,,19,1,,,3,,,,2,1,,,,,,,,,,,,,,,,
554961,19,575,193,22,1,8,,15,7,30,18,48,1,3,1,,25,3,,,,,,,1,1,2,,2,3,,1,,1,,,,,,,,
554961,18,745,256,37,1,8,,7,3,37,28,47,4,14,,,51,,,2,1,2,,,4,2,,,1,6,,,,,,1,,,,,,
554961,17,456,150,26,1,8,,6,4,32,9,24,,6,,,22,2,,,,2,,,3,,,,,1,,,1,,,1,1,1,,,,
554961,16,471,129,18,3,9,,3,9,9,6,39,2,4,,,18,1,,,,,,,4,,1,,,2,,,,,,,,,1,,,
554961,15,810,223,34,8,15,,20,2,25,18,64,3,4,,,23,1,,,1,1,,,1,1,,,1,1,,,,,,,,,,,,
554961,14,800,280,41,3,6,,20,4,29,28,78,,12,1,,37,2,2,,1,,2,1,,1,3,2,,2,,,1,2,,,1,1,,,,
554961,33,647,206,18,4,7,,15,7,27,28,56,1,6,,,26,2,,1,2,2,,,2,1,,1,,,,,,,,,,,,,,
554961,32,1097,271,36,6,8,,16,4,31,41,73,1,2,2,1,38,,,1,1,2,,,1,1,,1,1,2,,,,1,,,,,1,,,
554961,31,965,244,30,12,9,2,17,11,30,25,62,3,4,,,28,,,,,,1,,6,2,,,,2,,,,,,,,,,,,
554961,30,1002,263,31,2,19,,31,11,22,41,56,,8,,,28,1,1,2,1,,,,,7,,,,,,1,,1,,,,,,,,
554961,29,834,201,38,4,6,,13,1,21,19,44,2,5,,,41,,,1,,1,1,,1,,2,,,1,,,,,,,,,,,,
554961,5,363,87,18,,3,,5,7,9,11,19,2,4,,,6,1,,,,1,,,,,,,,,,,,1,,,,,,,,
554961,4,472,137,9,1,5,,13,10,17,15,32,,2,1,,27,,,,1,1,,,,,2,,,1,,,,,,,,,,,,
554961,3,321,100,13,1,3,,4,2,13,12,27,,,,,18,1,,,,1,,1,1,,1,,,1,,1,,,,,,,,,,
554961,2,648,215,37,3,5,,6,11,30,16,40,7,2,,,46,,,,,1,,,2,,5,,,1,,2,,,,,,1,,,,
554961,1,2592,201,41,5,4,,6,,34,31,33,,4,,,31,,,,1,1,1,,2,1,1,1,,,,,,2,,,,2,,,,
554961,9,620,173,24,1,14,,6,4,22,15,32,,6,,,36,1,,,3,,,1,5,,,,,,,1,2,,,,,,,,,
554961,8,681,195,35,1,6,,8,1,36,20,40,2,2,,,39,,,,1,1,,,,,1,,,1,1,,,,,,,,,,,
554961,7,329,96,12,2,3,,9,,20,9,19,1,3,,,12,1,,,,,,,3,1,,,,,,,,,,,,,1,,,
554961,6,667,182,25,3,9,,12,7,31,20,35,3,5,,,23,,,,2,3,,2,1,,,,,,1,,,,,,,,,,,
554961,13,619,229,32,3,9,,6,6,30,26,68,3,5,,,27,3,1,1,,1,,,,1,3,,,2,,,,,,,,1,,,,1
554961,12,360,162,24,2,10,,9,10,37,14,24,,5,,,21,2,,,1,,,1,,1,,,,,,,,,,,,1,,,,
554961,11,544,195,35,2,4,,12,14,31,23,27,,5,4,,31,,,1,2,2,,,,1,,,,1,,,,,,,,,,,,
554961,10,299,107,31,1,4,,7,3,21,8,17,,3,,,5,,,,2,1,,2,1,,1,,,,,,,,,,,,,,,
554961,25,714,171,21,3,8,,11,1,22,18,60,,1,,,18,2,,1,,,,1,,1,,,,2,,,,,,,,,,,1,
554961,24,747,297,52,13,13,,15,3,49,17,85,2,5,,,30,,,2,,2,1,,1,2,2,1,,2,,,,,,,,,,,,
554961,23,712,190,19,3,6,,14,12,37,17,45,1,2,,,23,,,,1,1,,2,1,,3,1,,,1,,,,,,,1,,,,
554961,22,957,295,24,9,14,,18,5,37,28,86,1,10,2,,36,1,1,,5,2,1,1,3,2,1,1,,3,,2,1,,,,1,,,,,
554961,21,891,244,37,4,15,,8,8,20,33,63,4,3,,,34,,,,5,1,,1,3,1,1,,,,,,,,,,1,2,,,,
554961,20,856,189,34,2,7,,9,1,36,13,48,2,2,,,22,,,,3,1,,,4,,1,,2,1,,,,,,,,1,,,,
554961,28,667,136,11,2,2,1,6,1,18,9,43,4,2,,,28,1,,,1,,,1,2,1,,1,1,,,1,,,,,,,,,,
554961,27,515,156,28,3,3,,5,5,24,21,35,,1,,,17,,1,2,,1,1,2,2,,1,,,3,1,,,,,,,,,,,
554961,26,825,255,34,6,7,,17,11,24,29,75,5,2,1,,27,1,,1,2,3,,2,2,2,,,,4,,,,,,,,,,,,
554979,1,761,130,15,2,7,,9,3,20,8,27,3,1,,,25,,1,1,,2,,,2,,1,,,1,,,,,,,,2,,,,
554995,1,775,217,27,3,15,1,10,7,22,35,49,1,14,1,1,16,,,,2,2,,1,,,1,,,2,1,,,,,,5,,,,,1
555029,1,1606,327,58,8,12,,34,3,27,46,72,,9,1,,34,,,,1,,,,1,1,2,,2,12,,,,1,,,,3,,,,
555045,1,477,72,4,1,,,9,,8,10,21,,1,,,9,1,1,,,,,1,2,,1,,,3,,,,,,,,,,,,
555169,1,317,107,32,,2,,6,2,5,13,11,,5,,,22,,,,1,2,,,3,,,,,3,,,,,,,,,,,,
555185,1,1577,377,34,7,15,,31,6,36,59,103,2,5,,,46,2,,2,,,1,2,6,3,1,,1,10,,,,1,,1,1,2,,,,
555207,1,470,162,12,3,2,,18,,12,20,60,,,1,2,15,1,,1,,2,,,,2,1,1,1,4,1,1,,,,,2,,,,,
555215,3,793,263,29,1,12,,31,5,28,32,58,5,7,,,31,1,,,1,,,,3,,2,,,4,,,,,,,9,2,2,,,
555215,2,643,131,12,1,14,,19,2,7,9,36,2,8,,,9,,,,1,,,2,1,,,,,1,,,,,,,6,1,,,,
555215,1,723,116,20,2,2,,1,6,20,2,19,1,14,,,24,1,,,,,,1,,,1,,,,,,,,,,1,,,,,1
555258,1,588,206,42,2,4,,3,10,51,18,32,2,5,,,27,,,1,,,,2,1,,,,1,4,,,,1,,,,,,,,
555304,1,337,81,11,,1,,9,,4,12,23,2,3,,,7,,2,,,,,,,,,,1,4,,,,,1,,1,,,,,
555347,1,642,139,12,4,1,,9,2,19,19,34,,1,,,27,,1,,,,,2,2,2,,,1,2,,,,,,,,1,,,,
555363,1,777,181,22,5,5,2,10,3,15,22,47,1,5,3,,27,,,,2,,,,2,3,1,,,,,,1,1,,,2,,2,,,
555380,13,119,43,7,1,,,1,3,3,4,6,,2,1,,9,,,,,,,,,4,,,,,1,,,,,,,,,,,1
555380,12,656,123,23,5,4,,6,3,5,12,36,,6,3,,11,,,,,2,,,1,1,,,,4,1,,,,,,,,,,,
555380,11,385,80,7,,7,,2,,5,12,21,,6,,,8,,,1,1,3,,,2,3,,,,1,,,,1,,,,,,,,
555380,10,101,23,1,2,1,,1,,,3,5,,2,,,6,,,,1,,,,,,,,,,,1,,,,,,,,,,
555380,9,229,42,5,1,4,,3,,5,6,10,,,2,,5,,,,,,,,,,1,,,,,,,,,,,,,,,
555380,8,435,113,15,1,9,,6,5,5,11,27,1,3,1,,14,1,,1,3,,,2,,,1,1,,5,1,,,,,,,,,,,
555380,7,596,120,6,3,7,,11,6,6,12,40,1,3,,,11,1,,2,1,,,,,6,2,,,2,,,,,,,,,,,,
555380,6,530,137,13,7,1,1,11,7,11,12,35,1,3,1,,20,1,,8,2,,,,1,1,1,,,,,,,,,,,,,,,
555380,5,411,83,11,3,3,,3,1,8,17,17,,3,1,,9,,,2,,1,,,,,1,,,3,,,,,,,,,,,,
555380,4,654,139,16,,3,,5,11,8,9,43,1,9,1,,21,,,2,2,1,,,4,3,,,,,,,,,,,,,,,,
555380,3,1064,134,20,8,5,,7,2,12,10,28,5,12,,,9,,,5,1,1,1,,,2,1,,,4,1,,,,,,,,,,,
555380,2,418,67,3,1,3,,5,2,6,5,32,,,,,3,,,,1,1,,,1,2,1,,,1,,,,,,,,,,,,
555380,1,553,109,7,3,3,,3,4,11,6,41,1,8,1,,8,,,2,,,,,,8,,,,2,,,,,,,,1,,,,
555398,2,1363,266,23,9,19,1,21,3,29,27,74,2,2,2,,32,,,2,1,2,,2,1,3,1,,1,4,1,2,,,,,,2,,,,
555398,1,800,195,23,10,7,,20,2,19,17,38,3,4,,1,22,3,,1,1,,3,1,4,,1,1,1,8,,,,,1,,,3,,,,1
555398,4,398,112,35,3,3,,5,3,7,7,27,,4,,1,9,,,,2,,,1,3,,,,,2,,,,,,,,,,,,
555398,3,827,218,17,5,12,,12,3,26,20,87,1,5,,,19,,,,1,1,,,2,2,,1,,2,,,,,,,,1,,,1,
555428,9,993,295,37,5,13,,23,5,39,40,74,1,2,,,33,4,,,,,1,2,5,4,1,,,4,,,,,1,,,1,,,,
555428,8,1125,260,24,10,12,,27,7,29,26,76,2,11,,,25,1,,,1,,1,3,1,,,,1,1,,,,,,,1,1,,,,
555428,7,706,216,18,4,10,,12,6,24,25,65,1,9,1,,22,2,1,1,5,,,,3,1,,,,3,,1,,,2,,,,,,,
555428,6,648,150,14,6,8,2,6,1,10,22,42,2,6,,1,14,1,,,1,,,3,,3,1,,,3,,,,,,2,1,1,,,,
555428,5,768,210,17,4,6,,18,1,12,26,78,2,3,,,19,1,1,1,,2,,,4,2,1,2,,5,1,2,,2,,,,,,,,
555428,4,793,189,15,4,11,1,16,3,11,29,55,,4,1,,28,,,,,1,,,4,,,,,3,,1,1,1,,,,,,,,
555428,3,735,191,12,3,8,,15,3,19,36,48,2,9,2,,22,,1,,1,1,,1,2,1,,,,3,,,2,,,,,,,,,
555428,14,926,317,21,7,10,22,20,6,11,35,60,4,5,4,,48,3,1,3,2,4,2,2,1,8,1,5,,7,,1,,,2,2,7,9,4,,,
555428,13,941,212,20,2,8,,12,2,22,32,70,1,6,,,23,,,,,2,,1,2,,2,1,1,2,,,,,,,1,2,,,,
555428,12,969,221,37,11,14,,17,1,21,18,51,1,4,1,,27,,,,3,4,,2,1,3,1,,,1,,,,3,,,,,,,,
555428,11,984,245,24,8,17,,20,1,27,22,75,1,7,,,26,,,,1,,,1,,2,2,,1,8,1,,1,,,,,,,,,
555428,10,1046,313,44,6,11,,21,6,28,36,77,5,12,1,,35,2,,3,1,5,,1,2,4,3,,,7,,2,,,,,1,,,,,
555428,2,1082,230,35,4,6,,17,4,20,22,66,1,7,1,,30,,,,1,1,2,1,2,2,1,,,6,,,,,,,,,1,,,
555428,1,1859,288,57,9,13,,14,3,35,31,50,,12,,,49,1,,1,2,,,,4,1,,,,,,,,1,4,,1,,,,,
555444,1,381,91,1,1,1,,15,,8,14,19,,18,,,7,2,,,,,,,,,,,,1,,,2,,2,,,,,,,
555452,1,527,161,26,1,3,1,4,7,24,8,35,1,7,,,36,1,,,,1,2,1,,,,,,1,,2,,,,,,,,,,
555479,1,248,61,17,1,6,,14,,3,6,3,,1,,,3,,,,,,1,,3,1,,,,1,,,,,,,,,,1,,
555525,1,464,69,4,3,5,,5,,3,13,23,,5,,,5,,,,,1,,,,,,,2,,,,,,,,,,,,,
555533,2,242,41,6,3,2,,5,,3,2,9,,2,,,6,,,,,,,1,2,,,,,,,,,,,,,,,,,
555533,1,767,215,38,3,7,,9,8,22,23,57,1,3,,1,14,1,,1,3,3,1,1,4,,3,1,,7,,1,1,,1,,,,,,1,
555550,1,487,117,17,3,2,,13,4,13,6,21,1,7,2,,18,1,,,,,,,1,3,,1,,1,,,2,,1,,,,,,,
555584,1,407,81,4,,5,,8,,10,14,14,4,,4,,5,1,1,2,2,1,,,1,2,1,,,2,,,,,,,,,,,,
555584,2,85,17,1,1,,,1,,1,,7,,,,,4,,,,,,,1,,,1,,,,,,,,,,,,,,,
555592,1,468,114,13,5,3,,4,4,16,12,20,,2,1,,23,,,1,,,,,1,1,1,1,4,2,,,,,,,,,,,,
555614,1,528,143,31,7,1,,12,3,15,15,22,3,2,,,14,,,,,,,1,1,2,6,,2,2,,,1,,,3,,,,,,
555622,1,446,66,7,2,1,1,6,,5,9,16,1,3,,,10,,,,,2,,,,1,,1,,,,,,,,,,1,,,,
555631,3,775,149,13,2,6,,14,4,12,21,48,1,10,,,10,1,,1,,2,,,2,,,,,,,,,,,1,,,,,1,
555631,2,873,127,16,1,4,,15,2,10,11,32,1,7,,,14,1,,,,2,1,2,,3,,2,,1,,,,1,,,,1,,,,
555631,1,685,101,7,2,3,,7,,5,24,28,,10,,,12,,,,,,,,,,,,,2,,,,,,,,1,,,,
555657,3,774,156,43,4,8,,13,,2,12,29,,14,,,15,,,1,1,,,3,,3,,,,1,1,,,,3,,,3,,,,
555657,2,935,165,23,2,8,,17,1,9,17,48,1,3,,,19,2,,2,2,1,,1,,7,,,,1,,1,,,,,,,,,,
555657,1,1240,239,17,7,17,1,30,3,13,32,74,3,4,,,22,,1,,1,,,,5,4,1,,1,,,,1,1,1,,,,,,,
555681,1,444,129,9,2,6,,24,,14,18,25,1,2,1,,15,,,,,2,,,1,3,,,,2,,1,,,1,,,2,,,,
555690,1,284,69,5,,2,,11,,4,1,24,,,,,18,,,,,,,,,,,,,2,,,,,,,,2,,,,
555703,1,429,128,12,3,4,,7,3,9,26,33,,3,1,,17,2,,,,,,2,,1,,1,1,,,,,,,1,1,1,,,,
555711,1,380,71,2,3,2,,18,,4,11,18,,5,,,1,,,1,,,,,1,,,,1,2,,,,,1,,,,,,1,
555738,2,176,44,,5,,,2,,3,8,9,,,1,,11,,,,,,,,1,1,,,,2,,,,,,,,1,,,,
555738,1,333,80,13,3,4,,9,1,6,5,20,,1,,,7,,,1,,,,2,2,1,,,1,1,1,,,,,1,,,1,,,
555762,2,1029,209,19,9,5,1,16,2,16,29,52,1,19,,,26,1,,,2,2,,6,,1,,,,,,,,,,,,1,,,1,
555762,1,910,191,14,,8,,21,5,18,44,54,2,4,,,15,,,1,,,,,1,,,1,,1,,,,1,,,1,,,,,
556947,1,419,102,12,4,6,,6,,11,9,27,2,5,,,16,,,,,,,,1,,,,,3,,,,,,,,,,,,
560286,3,934,134,20,,5,,8,1,19,14,32,2,3,4,,20,,,,1,1,,,,1,,1,,2,,,,,,,,,,,,
560286,2,1615,220,23,6,13,,12,10,20,31,63,1,10,,,22,1,,,1,1,,1,2,,,1,,,,,,,,,,1,,,1,
560286,1,904,256,33,5,18,,13,2,27,48,61,,5,1,,27,1,1,1,1,4,,,1,,,2,,,,,1,,2,,1,,1,,,
560286,19,1144,243,16,2,10,,23,1,20,31,91,2,3,2,,23,1,1,,,1,2,1,3,2,2,2,,1,2,,,,,,,,,,1,
560286,18,1001,172,10,8,11,,9,3,18,22,56,2,5,1,,13,2,,,,1,1,1,3,1,2,1,,2,,,,,,,,,,,,
560286,17,699,148,8,,7,,13,,9,19,57,1,1,,,22,1,1,,,2,1,,1,3,,,,,,,,,,,1,1,,,,
560286,16,1091,219,31,1,9,,27,2,21,28,60,,3,1,1,24,,,,,1,,,2,1,3,,,2,,,,,,1,,,,,,1
560286,15,1155,239,18,5,15,,17,1,11,40,83,,,1,,28,4,,1,1,3,,,1,2,5,,,2,,,,,1,,,,,,,
560286,14,1436,336,26,9,24,,33,5,30,56,76,1,6,4,,41,1,3,1,3,4,1,1,4,1,3,,,,,,,,1,,,1,1,,,
560286,13,1095,172,14,6,12,,16,5,8,24,55,,3,,,16,,,,,2,1,1,3,1,1,,1,1,,,1,,,1,,,,,,
560286,12,981,194,16,2,9,3,20,3,17,34,54,3,3,1,,22,,,,1,2,,,,1,,,,2,,,,,,1,,,,,,
560286,11,993,156,20,4,11,,13,1,13,23,48,,2,,,8,,1,,,2,,2,2,1,,,,4,,,,,,,1,,,,,
560286,10,981,184,12,2,8,,10,4,21,29,50,,5,,,28,1,,,5,1,,1,2,1,,,2,1,1,,,,,,,,,,,
560286,9,935,115,12,2,2,,8,1,10,20,34,1,4,3,,15,,,,,1,,,,,,,1,1,,,,,,,,,,,,
560286,8,821,144,26,4,15,,10,3,11,15,32,2,2,,,11,2,,,,,,,,2,4,,,2,,,,,,,,3,,,,
560286,7,886,220,33,3,8,,16,1,32,20,45,2,6,,,36,3,,,2,2,2,2,,,1,,,3,,1,,,,1,,1,,,,
560286,6,691,178,27,5,6,,13,2,24,21,36,1,9,,,22,,,,1,,,4,3,,2,,,,,,,,,1,,1,,,,
560286,5,678,171,28,1,7,,13,3,16,21,51,,3,,1,15,,,,,1,1,,,2,2,,,3,,,1,,,1,,1,,,,
560286,4,802,220,20,7,5,1,16,7,25,30,65,4,2,1,,20,,1,,1,,1,2,3,2,,,,1,,,,,,,5,1,,,,
560294,2,1157,234,19,7,17,,22,3,22,27,63,,5,,,27,1,,2,1,,1,,3,,1,1,,7,2,,,,,1,,1,1,,,
560294,1,1079,215,13,9,9,,26,2,30,29,54,3,2,,,24,,,,1,,2,,1,2,,2,1,4,,,,,,,,,1,,,
560308,1,338,88,12,2,4,,2,5,11,13,19,,1,,,12,,1,1,2,,,,,,1,,,,,1,,,,,,1,,,,
560316,1,1233,170,10,15,8,,8,2,8,27,58,3,3,3,,13,,,,1,3,1,,,,,2,1,1,,,,1,,2,,,,,,
560324,1,724,131,18,5,7,,6,,5,26,38,3,,1,,17,,,,,,,,1,,,,1,2,,1,,,,,,,,,,
560332,1,230,43,4,3,2,,7,,9,4,4,,1,,,6,,,,,,,,,,,,,1,,,,,,,1,1,,,,
560341,1,280,63,11,,4,,3,1,6,6,20,,,,,3,1,,,,2,2,,,1,1,,1,,1,,,,,,,,,,,
560359,5,509,131,18,4,6,,6,4,16,19,31,2,,,,16,,3,,,1,,,1,,1,,,1,1,,,,,,,,,1,,
560359,4,512,104,8,9,7,,11,2,12,11,29,,1,,,9,,,,1,,,,,,1,,1,2,,,,,,,,,,,,
560359,3,990,99,2,4,3,,6,,3,20,44,,,,,11,,,,,,,,,,,1,1,3,,,,,,1,,,,,,
560359,2,863,157,11,15,18,,12,3,7,14,47,,1,2,,16,,,1,,2,,,1,,,,1,4,1,,,,,,,1,,,,
560359,1,1131,140,13,7,13,,6,2,7,19,51,3,3,1,,4,1,,,,3,,2,1,,,3,,1,,,,,,,,,,,,
560367,3,1250,202,13,7,11,,20,7,20,32,53,,2,,,17,,1,,1,,,,3,1,2,,1,9,,1,,1,,,,,,,,
560367,1,930,233,36,7,4,4,19,8,7,25,57,1,3,2,,29,,,5,1,3,,2,,,3,,,3,,1,,2,,1,,7,,1,1,1
560367,4,1202,226,16,7,11,,15,1,27,19,75,1,3,1,,30,,,,2,2,1,1,2,,5,,,2,,1,,,,1,,3,,,,
560375,1,239,46,5,,7,,1,,4,12,11,,3,,,2,,,,,1,,,,,,,,,,,,,,,,,,,,
560383,10,922,193,9,4,12,,11,1,12,39,57,1,3,1,,18,1,2,1,,,7,,2,5,,,,4,,1,,,,,,1,1,,,
560383,9,995,140,15,3,4,,5,2,6,19,55,1,2,4,,15,,,,,2,2,1,,1,,,1,2,,,,,,,,,,,,
560383,8,1056,196,12,4,12,,11,1,18,31,61,,4,,,19,1,,,2,3,3,1,2,3,1,1,1,4,,,,,,,,1,,,,
560383,7,1154,142,10,4,5,,11,3,11,29,31,1,3,2,,9,1,2,2,,4,3,1,1,1,1,2,,4,,,,1,,,,,,,,
560383,6,1020,195,20,2,12,,19,2,20,27,65,,3,,,11,1,1,,2,,3,1,1,1,,,,4,,,,,,,,,,,,
560383,5,875,149,6,3,6,,6,2,12,24,36,6,6,1,,21,,,,,1,4,,3,5,1,1,,3,,,2,,,,,,,,,
560383,4,1324,296,17,4,12,,20,6,32,45,91,2,7,,1,35,,,1,1,,9,2,3,,,1,,5,,,,1,,,1,,,,,
560383,3,1440,201,17,4,10,,14,11,18,17,63,3,4,2,,21,1,,6,,,4,1,1,2,,,,1,,,,,,,,1,,,,
560383,2,938,199,18,6,4,,14,6,19,32,59,1,5,,,21,,,1,,,3,,5,1,1,,,3,,,,,,,,,,,,
560383,1,893,183,19,3,7,,12,5,16,26,58,1,2,1,,13,,,,1,5,9,,1,1,,,,2,,,,,,,,1,,,,
560383,11,244,48,4,,,,4,4,11,3,11,3,,,,5,,,,1,,1,,,,,,,,,,,,,,,1,,,,
560413,1,407,109,11,4,2,,4,3,9,11,39,1,4,,,12,1,,,1,,,,3,,,,,1,,,,,,,2,1,,,,
560421,1,356,68,9,5,1,,4,3,2,11,26,,,1,,,,1,,,,,,2,,,,2,,,,,1,,,,,,,,
560456,1,768,182,18,7,2,,12,4,9,39,33,1,7,,1,29,3,2,,1,2,,,3,3,1,1,,1,,1,,,,,,2,,,,
560464,1,643,159,19,6,8,,12,2,20,17,44,1,3,,,12,,,1,1,,1,,,1,4,2,,3,1,,,,,,,1,,,,
560472,8,460,96,6,3,2,,14,2,8,9,34,,,,,11,,,,,,,,3,,,,,2,,,,1,,,1,,,,,
560472,7,429,93,13,1,5,,2,2,8,8,27,1,2,,,7,,,2,,2,,1,,,2,,3,1,3,1,,1,,1,,,,,,
560472,6,695,156,10,1,5,,11,3,11,16,64,4,2,,,18,,,,1,,1,1,1,3,,,1,1,,1,,1,,,,,,,,
560472,5,600,126,8,4,4,,11,4,12,21,41,,2,3,,14,,,,,,,,,,,1,,,,,1,,,,,,,,,
560472,4,935,141,16,2,3,,9,4,11,21,47,1,3,,,6,1,,1,3,,,,2,1,2,1,,2,1,,,,,2,,,,,,2
560472,3,746,139,8,5,2,,11,4,8,13,49,,6,2,,15,1,,,,,,1,6,5,1,,,,1,,,1,,,,,,,,
560472,2,765,145,8,4,,,14,2,5,19,63,3,3,1,,12,2,,,,,,,2,4,,2,,,1,,,,,,,,,,,
560472,1,794,204,31,1,4,,10,2,18,30,57,3,5,1,,18,3,,1,2,,,,3,2,2,4,,2,,1,1,,,1,,2,,,,
560499,5,238,47,10,1,2,,,2,1,2,11,,,,,13,,2,,,,1,1,1,,,,,,,,,,,,,,,,,
560499,4,941,213,26,3,11,,13,7,9,37,72,1,2,,,15,,,1,,1,,4,1,1,3,,1,,1,,,1,1,,,1,1,,,
560499,3,729,170,15,5,8,,17,,12,18,61,,4,,,15,,1,2,2,,,,2,3,1,1,,,,,,2,,,1,,,,,
560499,2,1084,190,16,6,10,,9,1,14,31,58,2,3,2,,25,,,1,1,,,1,,,5,,,2,,,,,2,1,,,,,,
560499,1,1011,215,22,1,11,,16,4,16,31,71,1,6,,,13,,,,,2,3,2,1,,1,,,5,1,,1,,,1,2,1,,1,1,1
560502,1,468,97,5,3,2,,15,,6,11,35,,1,,,10,,2,,,,,3,1,,,,,3,,,,,,,,,,,,
560537,2,1280,313,41,3,11,1,21,19,46,41,64,2,8,2,,45,,,,,1,,,2,2,,1,1,1,,,,,1,,,,,,,
560537,1,1232,340,61,6,13,,18,7,47,39,64,2,6,,,56,,,,8,,,,2,,2,1,1,1,,,1,,1,1,,3,,,,
560545,1,1072,242,27,2,8,,17,10,18,30,60,,1,,2,31,4,1,1,,3,,1,9,1,1,3,1,3,,,,1,,2,3,,,1,1,
560561,1,179,19,,1,,,,,,12,2,,,,,4,,,,,,,,,,,,,,,,,,,,,,,,,
560570,4,502,124,13,,5,,7,1,12,20,44,,1,,,15,,,,,1,,,,1,,,,3,1,,,,,,,,,,,
560570,3,190,30,1,3,2,,,,2,1,9,,,1,,8,,,,,,,1,2,,,,,,,,,,,,,,,,,
560570,2,789,83,6,3,8,2,8,,5,13,17,1,,1,4,7,,,1,1,,,1,1,,,,,3,,,,,,,,1,,,,
560570,1,576,99,9,6,7,,4,,13,14,28,,4,,,8,,,,,1,1,1,1,,1,,,1,,,,,,,,,,,,
560588,2,422,85,1,1,2,,8,3,5,10,33,,,,,9,1,1,,1,,4,1,,1,2,,,2,,,,,,,,,,,,
560588,1,935,139,9,5,6,,12,1,10,26,44,1,1,2,,9,1,,,4,,1,1,1,1,,1,,,,,,,1,1,,1,,,,
560596,1,63,35,10,,1,,5,1,7,,8,,,1,,,,,,,,,1,,,,,,1,,,,,,,,,,,,
560600,3,214,31,5,1,2,,1,,1,4,10,,,,,5,,,,,,,,,1,,,,1,,,,,,,,,,,,
560600,2,895,127,,4,14,,17,1,4,22,40,2,6,,,10,,,,,,,1,,,1,,,3,,2,,,,,,,,,,
560600,1,1300,195,10,3,26,2,20,10,4,25,46,,14,1,,22,,,,,,,1,2,1,,1,3,,,3,,,,,,1,,,,
560618,1,256,53,1,1,2,,12,,2,7,22,,1,,,1,,,,,,,2,,,,1,,,,,,,,,1,,,,,
560642,1,682,168,22,2,9,,7,2,16,22,55,2,4,2,,15,3,,3,,,,,,1,,1,,,,,,1,,1,,,,,,
560651,1,387,89,2,1,2,,2,1,7,10,39,3,2,,,13,1,,,,,1,,,1,2,1,,,1,,,,,,,,,,,
560677,1,258,59,8,1,4,,6,,2,7,18,1,4,,,5,,,,,,,,,,1,,,2,,,,,,,,,,,,
560685,1,920,148,12,3,18,1,18,2,14,16,37,2,,1,,9,1,,,1,,3,1,3,2,1,,,,,,,,1,2,,,,,,
560707,1,313,27,1,3,,2,1,,2,2,5,,1,,,2,,,,,1,2,1,1,1,1,,,,,,,,,,1,,,,,
566675,1,147,25,,1,2,,6,,2,,10,,1,,,1,,,1,,,,1,,,,,,,,,,,,,,,,,,
577979,1,123,43,2,,2,,4,,10,5,11,2,,,,4,,,,,2,,1,,,,,,,,,,,,,,,,,,
578002,1,126,31,3,,5,,4,,1,5,7,,2,,,3,,,,,,,,1,,,,,,,,,,,,,,,,,
578011,1,94,26,1,,5,,1,,,3,10,1,1,,,2,,,,,,,,,,,,,1,,,,1,,,,,,,,
578029,1,284,82,11,,2,,3,3,15,5,20,,6,,,9,,,,1,,,,3,1,,,,2,,,,,,,,1,,,,
578045,1,259,79,10,4,4,,2,2,6,6,22,,1,,,12,1,,,,,,,1,1,1,,,6,,,,,,,,,,,,
579360,1,200,59,3,2,1,,,2,3,12,25,,1,,,3,,,,,1,,1,3,1,,,,1,,,,,,,,,,,,
