A53,A47,A659,A720,A1114,A768,A997,A998,A999,B166,B1114,B720,B53,B1478,B768,B47,B1456,B997,B998,B999
22,4,15,15,4,26,29,8,169,21,3,14,22,1,41,6,11,16,0,157
6,6,1,4,5,10,4,0,149,10,6,2,5,0,17,2,0,5,4,134
5,2,19,8,8,9,9,0,58,24,7,6,2,1,8,4,1,4,13,48
11,0,10,7,4,9,5,0,145,13,3,6,17,0,8,3,10,13,7,111
2,4,0,4,1,14,11,0,79,5,9,3,0,3,9,5,1,5,9,66
2,0,0,3,4,6,4,0,53,4,10,1,1,1,5,2,4,4,0,40
11,3,1,6,9,10,6,0,206,8,5,10,7,0,22,3,2,11,9,175
7,5,9,10,14,32,16,0,344,16,20,6,12,1,44,10,2,26,2,298
0,2,0,0,5,6,5,1,58,0,3,0,2,0,8,2,0,5,0,57
25,8,9,11,12,27,26,18,219,45,14,11,25,3,42,10,10,20,0,175
14,17,9,14,7,25,17,6,208,14,13,21,25,1,29,19,5,24,0,166
25,6,11,15,1,17,8,0,170,17,0,17,22,3,21,8,6,10,3,146
2,7,1,9,0,2,6,4,49,13,0,7,2,0,2,12,1,0,0,43
6,1,6,7,4,5,8,0,113,3,9,5,13,2,9,0,0,11,3,95
4,1,6,10,5,13,7,0,79,8,4,8,6,1,16,5,3,3,6,65
6,1,6,6,1,17,14,0,132,8,3,9,10,1,24,3,7,7,3,108
9,8,6,13,2,18,15,10,199,7,5,14,17,7,21,6,9,8,0,186
3,3,4,3,13,9,7,3,65,6,7,8,1,5,12,4,1,3,0,63
49,11,13,36,27,68,53,0,608,27,16,44,45,97,66,14,21,26,18,491
17,7,14,13,13,31,27,14,211,15,19,22,27,13,33,2,17,25,0,174
25,50,23,27,29,75,60,22,782,40,29,42,43,22,103,42,20,46,0,706
0,5,2,1,1,11,8,0,68,1,2,3,2,10,15,7,3,3,3,47
6,13,7,9,2,19,8,7,95,6,3,7,8,7,13,11,0,28,0,83
18,22,10,15,23,48,31,33,628,17,25,30,23,7,78,14,8,42,0,584
8,1,4,11,7,8,14,0,207,17,14,13,8,0,15,5,2,13,7,166
11,12,11,6,10,33,19,0,199,16,8,6,15,10,35,5,2,15,5,184
8,3,4,9,2,21,14,6,122,6,4,8,7,3,22,2,0,10,0,127
4,2,1,1,3,14,13,0,140,8,4,7,1,1,14,3,1,7,1,131
11,12,14,9,14,34,20,0,443,28,28,12,18,4,34,7,19,19,0,388
9,1,1,7,8,25,28,7,270,13,8,10,17,3,30,4,2,11,0,258
6,0,7,22,7,16,5,0,109,11,1,18,6,2,14,2,7,5,7,99
5,12,9,7,23,30,17,0,371,11,21,12,9,4,34,10,5,20,5,343
7,5,7,7,5,41,15,0,235,15,6,12,9,0,52,6,2,9,0,211
7,13,3,5,11,39,24,0,241,19,11,3,10,1,42,10,3,14,3,227
7,14,5,8,21,23,13,0,254,6,16,11,7,9,31,10,3,7,16,229
3,12,11,15,9,23,9,15,282,14,13,10,10,12,46,20,6,21,0,227
4,5,5,2,4,6,8,25,89,5,4,8,6,9,16,4,12,12,0,72
5,9,6,5,7,27,12,0,263,6,8,7,21,0,37,2,4,25,5,219
7,14,0,10,2,9,11,12,138,7,6,16,8,3,21,12,1,7,0,122
1,2,1,0,3,9,3,5,46,5,4,0,1,0,11,4,0,3,0,42
0,11,3,12,9,12,20,0,111,16,20,7,1,2,18,10,2,8,18,76
7,4,4,15,5,12,11,6,140,26,6,13,10,0,15,4,7,10,0,113
6,11,8,11,7,24,12,0,136,19,13,10,10,0,26,6,4,7,9,111
3,12,7,3,4,15,12,2,135,16,9,8,4,0,17,5,2,8,0,124
19,14,24,28,30,40,30,5,549,30,36,25,29,5,57,6,10,32,0,509
6,1,8,1,3,4,3,4,74,4,2,2,29,0,9,1,4,4,0,49
14,5,2,2,5,7,6,3,133,5,6,8,13,5,18,5,0,11,0,106
6,0,2,7,3,9,0,3,40,3,1,8,7,3,8,0,0,0,0,40
6,1,3,3,5,10,12,1,40,4,2,1,3,0,12,5,4,4,0,46
11,3,3,5,6,14,7,2,90,9,3,4,12,0,10,3,2,18,0,80
7,11,7,6,6,12,11,0,193,2,8,20,3,2,23,11,3,11,4,166
7,0,0,1,0,0,0,0,24,1,1,3,4,0,0,0,0,0,1,22
8,2,7,19,7,12,12,1,109,8,5,26,17,2,9,4,3,16,0,87
10,11,5,11,10,42,14,8,271,11,7,12,4,26,55,13,7,16,0,231
1,16,6,10,5,19,7,2,139,3,7,9,6,9,36,14,3,7,0,111
4,3,2,4,1,16,6,3,34,4,0,2,3,4,10,3,0,6,0,41
0,0,3,3,6,23,1,4,78,4,5,4,2,0,17,1,3,10,0,72
5,4,8,4,7,11,11,7,160,8,10,7,8,4,6,6,1,31,0,136
13,12,21,14,24,35,43,19,1089,47,37,11,12,12,59,40,22,29,0,1001
26,14,22,34,34,51,50,0,892,70,30,27,21,9,73,22,20,24,3,824
11,8,6,14,3,30,18,4,329,15,16,16,10,2,47,9,3,17,0,288
7,12,6,7,4,11,13,8,151,5,6,10,9,4,18,9,11,10,0,137
9,17,7,10,3,17,17,5,364,11,11,20,15,6,33,13,7,17,0,316
50,14,13,32,34,64,45,0,519,65,43,39,35,14,70,13,14,33,24,421
32,7,32,29,22,33,36,8,325,65,30,35,22,8,38,5,12,23,0,286
28,9,27,23,20,40,43,9,336,50,16,30,31,6,44,9,14,38,0,297
28,12,20,32,29,43,49,9,1947,38,54,44,22,0,60,8,8,46,0,1889
16,9,20,31,31,42,28,5,660,37,30,30,13,7,45,7,13,35,0,625
16,10,20,16,15,42,24,0,503,31,23,21,13,3,45,14,20,24,9,443
11,8,16,26,22,52,35,16,602,35,25,49,20,0,62,11,16,26,0,544
25,16,16,25,35,97,46,0,975,42,48,35,26,5,135,17,17,43,16,851
18,18,15,5,12,50,40,0,556,29,31,11,17,4,54,16,13,28,25,486
23,9,14,13,19,48,24,0,556,22,28,24,25,9,69,8,7,21,5,488
11,14,10,9,9,46,16,0,447,19,15,17,20,3,44,12,8,24,16,384
39,19,22,41,39,65,68,0,892,72,37,52,32,19,107,18,15,55,20,758
29,23,13,29,29,73,64,0,764,62,34,45,30,10,78,9,12,50,6,688
33,21,18,27,26,77,32,0,690,41,43,36,29,17,71,13,9,38,12,615
17,15,15,13,14,52,21,0,474,35,24,22,18,2,64,12,7,37,14,386
17,17,6,22,32,76,40,0,603,26,31,24,20,5,92,22,7,42,27,517
18,30,4,10,20,67,42,22,656,16,39,20,17,1,84,16,3,42,0,631
18,25,19,13,18,69,35,0,657,50,22,20,20,3,84,13,11,26,13,592
17,16,16,33,15,47,31,13,370,55,22,35,41,4,45,14,12,20,0,310
26,15,20,31,26,61,35,0,668,34,32,40,28,5,68,11,8,38,3,615
50,13,29,45,45,59,80,1,593,75,44,52,67,11,110,8,19,60,0,469
26,14,34,23,18,57,51,0,639,52,31,40,33,11,53,5,13,22,7,595
10,11,6,28,25,66,38,0,418,26,25,23,18,3,73,18,4,27,21,364
22,16,19,37,33,79,62,0,621,42,30,45,39,10,83,19,13,46,14,548
28,18,23,22,19,46,43,0,558,39,33,24,29,13,49,18,30,36,16,470
7,2,0,9,2,14,4,2,186,9,9,8,8,0,12,1,6,7,0,166
9,2,7,8,6,20,12,0,74,10,9,5,5,1,16,2,3,9,9,69
7,1,0,3,3,13,7,0,121,8,6,2,3,0,15,5,0,6,7,103
13,15,10,13,21,41,38,4,338,40,24,32,19,2,41,7,0,15,0,313
7,5,8,13,11,16,7,0,295,15,9,12,7,4,21,3,1,14,27,249
1,2,3,5,9,12,7,9,147,11,4,2,2,1,10,1,0,3,0,161
7,4,3,4,11,13,18,6,242,17,15,7,18,2,29,5,5,23,0,187
8,5,4,16,17,36,33,24,792,28,37,17,12,4,36,4,3,36,0,758
11,8,8,13,17,30,72,0,962,30,20,17,12,4,37,9,5,66,13,908
13,8,9,14,22,46,23,0,573,27,21,20,15,2,54,7,10,33,16,503
12,12,6,22,23,57,26,0,660,46,28,38,15,2,70,11,8,27,4,569
16,5,9,27,22,64,21,0,461,16,25,34,23,4,70,5,6,34,7,401
21,10,14,33,19,58,42,0,717,44,35,33,26,5,56,11,11,49,4,640
18,25,15,22,33,67,41,2,742,39,44,39,19,11,89,30,9,44,0,641
6,3,5,6,14,11,24,1,440,12,14,14,7,2,17,4,4,21,0,415
27,26,21,41,25,62,36,0,786,65,34,53,26,3,60,22,8,52,1,700
8,15,3,10,24,52,31,1,736,28,31,18,8,6,64,15,9,36,0,665
11,12,10,15,19,44,29,5,463,38,34,25,22,3,44,9,6,20,0,407
14,7,11,26,11,60,47,0,612,44,33,29,25,10,67,9,9,26,20,516
25,11,16,24,17,57,47,0,712,51,42,34,34,11,61,17,17,35,19,588
15,6,8,10,11,32,37,15,266,39,18,15,16,4,42,8,11,17,0,230
15,5,17,7,7,35,25,0,340,30,13,21,31,10,39,1,4,12,6,284
7,0,5,2,6,6,6,0,56,8,4,5,4,3,6,3,6,8,1,40
43,11,16,19,22,62,36,12,256,65,23,24,31,5,62,9,16,23,0,219
14,5,5,15,5,27,25,1,242,22,7,26,6,6,38,4,2,18,0,210
13,29,15,19,18,70,35,0,729,70,18,28,22,5,106,22,9,28,21,599
12,16,7,19,31,39,46,0,768,54,35,25,16,8,50,20,2,27,8,693
24,18,23,17,25,63,61,0,863,66,45,45,34,5,80,14,8,34,15,748
15,11,13,14,4,16,17,18,311,43,12,14,12,0,22,10,3,8,0,295
26,28,18,19,31,72,47,14,606,67,32,19,33,8,73,24,11,34,0,560
33,27,20,20,30,91,73,15,779,65,35,28,40,3,85,23,10,38,0,761
27,22,15,28,16,53,32,0,777,74,29,22,28,2,65,15,6,25,5,699
11,10,8,13,21,46,36,12,385,23,33,10,13,4,64,7,2,25,0,361
25,26,19,27,28,62,43,0,717,75,29,31,22,3,89,19,12,33,11,623
4,5,8,6,6,15,8,0,232,22,9,7,3,1,14,3,1,5,22,197
25,18,20,18,14,33,35,0,828,167,20,15,18,1,51,16,4,14,4,681
3,9,2,2,20,26,20,0,195,5,18,3,4,1,31,8,0,13,12,182
4,5,1,6,0,10,3,0,90,1,1,3,3,0,7,3,1,9,0,91
16,15,17,23,14,51,27,4,491,62,32,18,6,2,58,10,4,30,0,436
17,1,12,4,10,15,11,0,154,8,9,5,15,3,13,2,1,6,29,133
5,0,8,2,2,15,4,0,50,7,3,4,5,3,10,3,0,9,5,37
5,0,2,2,2,4,12,14,129,7,1,2,7,1,8,0,0,3,0,141
10,11,1,13,8,20,11,3,314,21,21,8,7,2,37,8,0,12,0,275
21,22,21,34,25,78,48,0,851,80,26,28,25,15,96,9,10,27,23,761
21,16,14,21,22,29,20,0,246,25,9,17,15,0,39,13,4,26,22,219
5,8,9,14,15,33,24,9,362,30,20,11,9,2,38,9,2,24,0,334
11,31,18,31,40,73,54,0,1075,67,54,46,22,2,119,23,7,66,19,908
29,21,29,37,28,90,42,39,727,64,37,40,61,5,133,17,19,52,0,614
31,22,18,38,24,97,50,0,1087,74,41,33,41,2,98,17,15,53,29,964
18,12,18,25,10,26,36,0,363,62,12,21,16,0,38,6,18,22,5,308
6,9,11,15,15,21,10,0,419,50,11,8,4,1,24,5,3,19,8,373
19,17,13,14,22,87,41,39,978,106,27,15,25,11,89,13,4,27,0,913
9,20,11,17,34,66,40,0,979,89,31,12,18,3,82,20,5,29,6,881
7,15,23,17,10,54,34,0,725,102,13,11,9,2,61,12,8,30,22,615
3,3,17,3,5,16,17,0,97,53,3,4,2,0,15,4,1,8,8,63
9,6,6,11,5,7,21,0,258,32,4,11,6,2,21,5,7,10,18,207
15,10,20,17,16,32,29,8,595,122,11,16,11,0,49,14,7,25,0,487
12,1,22,22,10,23,25,0,308,73,6,23,14,1,27,3,4,13,8,251
12,11,15,8,4,28,35,10,352,118,9,8,3,2,24,8,2,20,0,281
7,10,11,14,15,29,14,4,261,20,12,12,8,3,31,13,3,23,0,240
8,8,24,10,29,64,40,42,532,35,37,18,33,4,68,7,8,25,0,522
5,12,6,6,9,13,5,12,259,33,16,1,10,1,20,5,1,8,0,232
26,24,21,20,7,49,28,0,796,107,14,17,24,10,42,18,2,35,19,683
9,11,6,20,1,14,14,0,361,47,4,7,5,2,23,9,1,8,10,320
34,19,16,33,29,78,35,0,729,88,37,37,39,8,90,14,3,42,6,609
15,34,12,21,28,69,39,5,730,65,51,25,28,2,89,26,2,36,0,629
20,16,19,23,27,53,38,0,682,68,17,17,37,4,76,9,6,44,6,594
32,22,36,13,45,55,48,0,992,89,31,20,46,6,87,15,2,40,12,895
19,12,13,33,30,59,37,0,801,89,29,22,27,9,84,16,2,45,10,671
16,10,16,29,22,51,27,17,598,76,34,24,15,8,80,7,4,29,0,509
24,12,18,19,32,69,46,0,649,94,31,16,28,3,64,10,10,39,9,565
38,14,32,31,24,80,41,0,823,116,27,36,47,4,102,18,8,57,4,664
16,9,21,5,12,48,18,0,415,60,12,19,20,2,53,9,13,19,12,325
1,5,6,2,9,8,9,0,167,5,3,5,0,1,18,5,0,14,4,152
11,5,16,22,18,53,33,0,665,52,22,19,14,3,59,7,2,47,17,581
14,4,3,25,9,24,14,10,332,25,10,15,10,17,32,5,2,10,0,309
22,22,18,27,32,107,63,20,1041,105,30,20,29,44,100,25,4,27,0,968
8,12,7,1,11,50,39,44,895,43,11,9,7,23,39,7,5,18,0,905
16,17,26,26,37,120,56,0,1210,118,25,13,16,53,126,14,9,62,1,1071
22,19,25,16,28,59,34,0,778,67,33,25,21,4,97,12,9,37,9,667
7,13,9,18,18,26,27,20,828,49,24,20,9,0,27,11,5,32,0,789
26,25,29,24,32,55,37,0,857,64,36,31,27,2,85,26,14,46,14,740
28,24,24,20,31,96,36,2,802,97,33,34,31,2,97,23,9,46,0,691
41,13,12,40,48,76,52,7,877,107,48,34,33,3,102,10,6,48,0,775
22,26,16,16,17,62,41,0,713,53,29,18,19,3,95,18,6,38,11,623
15,6,4,11,25,28,20,8,878,29,28,11,15,2,46,7,5,23,0,829
30,34,24,22,19,57,44,2,771,78,39,19,23,1,69,23,10,51,0,690
47,26,21,31,37,82,56,39,861,129,36,32,26,5,106,18,12,50,0,786
34,26,26,38,44,64,28,0,824,112,43,33,28,2,89,12,8,41,1,715
16,10,7,10,19,35,31,0,399,40,22,18,22,0,35,4,4,30,1,351
15,12,5,10,11,23,14,6,312,31,6,15,12,5,33,9,2,13,0,282
30,19,23,22,33,83,66,0,1311,147,28,21,20,13,89,24,2,29,10,1204
16,10,17,24,17,58,25,13,737,28,16,19,23,11,86,11,6,17,0,700
9,1,5,6,12,25,27,4,208,14,7,13,12,1,34,1,4,14,0,197
27,9,20,16,16,59,33,0,568,190,25,4,5,0,52,9,3,11,23,426
18,10,25,16,23,43,31,0,604,21,21,27,24,9,68,14,31,28,4,523
29,10,26,31,28,75,42,36,632,39,19,24,43,10,73,11,30,39,0,621
28,17,18,23,18,54,38,0,699,26,19,28,42,12,73,22,22,25,6,620
15,6,9,17,13,20,19,0,665,12,10,23,34,7,56,12,7,32,12,559
10,8,10,15,16,27,20,8,587,22,16,27,34,4,41,10,13,16,0,518
7,10,5,5,19,56,29,13,664,2,17,11,9,1,68,13,9,15,0,663
7,15,1,14,26,53,37,0,836,5,37,22,12,8,74,14,5,29,14,769
5,19,4,11,24,50,32,0,828,7,39,20,14,14,79,19,2,34,7,738
4,16,9,8,16,35,23,7,843,6,38,10,17,7,64,13,9,19,0,778
3,17,2,16,28,58,21,0,864,4,40,15,13,15,52,21,7,25,25,792
24,18,13,22,12,42,28,24,1059,15,41,24,37,10,76,17,15,27,0,980
5,18,5,12,25,56,35,0,954,5,40,21,14,3,66,20,10,33,14,884
14,11,10,17,27,25,34,11,562,27,38,19,20,8,63,12,10,25,0,489
29,13,27,43,28,48,31,11,567,28,29,29,52,10,62,14,43,36,0,494
43,34,34,34,38,93,53,0,871,39,26,38,85,14,126,44,22,52,15,739
17,18,18,13,26,70,34,0,832,20,24,29,27,9,78,23,10,39,17,752
27,20,26,24,28,55,50,0,958,18,38,34,56,15,86,26,32,62,7,814
38,24,14,28,26,51,34,0,2265,10,25,38,53,4,87,21,12,30,47,2153
34,18,28,26,16,47,46,12,546,29,12,18,48,7,58,18,32,34,0,517
4,17,4,6,18,43,22,0,832,9,28,8,8,9,78,16,3,13,27,747
5,20,4,12,24,58,16,0,715,8,26,10,9,5,58,18,5,24,34,657
11,9,13,10,20,41,27,0,710,9,25,17,17,18,70,11,6,22,14,632
9,13,6,9,20,53,23,13,608,15,23,28,22,6,69,5,10,37,0,539
11,14,5,11,8,27,22,0,692,4,13,15,24,9,51,18,6,12,13,625
37,24,23,32,30,89,42,5,699,39,26,30,61,16,112,27,30,50,0,590
29,22,16,21,22,78,45,0,701,33,28,28,47,8,76,27,11,42,17,617
23,20,18,24,22,62,53,0,623,23,21,43,29,7,97,25,21,45,14,520
25,22,13,28,34,63,53,0,678,28,40,32,50,5,104,16,11,33,7,590
22,22,6,12,21,65,45,0,684,13,21,22,41,7,122,25,9,34,9,574
46,13,16,22,24,42,43,0,580,11,27,28,62,10,63,25,21,26,8,505
28,16,16,37,19,51,44,12,552,24,27,30,47,15,77,18,26,25,0,486
21,29,21,34,33,53,41,16,613,20,24,30,51,14,90,33,16,43,0,540
40,21,29,18,22,77,49,8,717,32,39,37,86,11,111,23,39,40,0,563
1,16,4,8,21,42,24,11,780,8,25,10,5,5,58,8,10,44,0,734
6,10,7,2,21,25,23,0,696,3,24,14,11,5,59,13,10,21,9,621
23,15,19,18,35,73,33,0,896,16,31,27,43,13,89,20,19,42,16,796
1,2,2,5,12,12,15,2,147,8,11,3,5,1,22,4,2,14,0,128
19,11,16,19,22,32,21,19,299,21,19,11,23,0,43,11,51,21,0,258
8,6,13,5,9,9,10,7,176,9,8,6,15,15,12,5,17,11,0,145
13,26,15,28,31,59,38,32,868,22,35,42,30,23,76,37,10,35,0,800
10,7,4,8,15,36,12,32,388,9,12,21,34,5,62,2,6,31,0,330
1,5,3,9,5,7,5,2,109,3,3,9,4,1,12,6,4,5,0,99
4,10,1,6,8,14,13,1,195,5,11,8,5,5,15,2,1,10,0,190
2,11,4,8,9,22,15,5,334,5,12,6,14,4,39,18,6,13,0,293
11,16,0,2,14,38,19,9,415,2,11,4,19,3,50,14,4,10,0,407
38,24,27,37,17,114,46,0,671,29,24,51,79,24,110,14,18,38,20,567
15,16,7,15,28,59,44,0,1048,17,30,37,38,18,91,17,7,60,21,896
26,14,17,35,40,32,42,20,1679,15,50,35,62,29,65,12,18,47,0,1572
16,20,2,15,25,64,28,0,900,8,47,15,16,13,105,21,4,37,0,804
15,16,4,21,34,36,44,6,1406,14,48,26,33,19,53,20,4,42,0,1323
33,24,14,21,30,58,37,14,1115,19,34,31,55,14,82,30,19,39,0,1023
11,13,11,14,17,36,34,0,1115,14,27,22,25,25,67,13,11,37,14,996
19,10,3,3,16,29,24,0,878,12,29,18,25,23,49,8,4,22,18,774
29,11,23,22,8,29,13,26,295,15,14,33,53,19,33,7,14,29,0,239
21,13,12,11,24,45,29,4,1305,13,17,14,42,9,60,12,7,23,0,1267
57,24,25,38,28,107,70,0,1128,19,36,37,221,9,121,22,14,45,29,924
44,12,38,27,15,66,50,0,1261,20,15,42,203,9,94,14,4,26,29,1057
38,17,15,29,11,61,48,18,811,11,33,32,169,5,70,13,3,20,0,692
25,11,4,18,16,63,44,0,818,10,14,24,129,6,72,8,7,25,15,689
34,17,21,21,29,74,47,2,910,7,30,32,168,5,98,14,8,28,0,765
33,12,20,34,26,78,25,0,872,8,22,24,125,4,103,20,5,17,10,762
17,13,12,21,20,56,32,0,847,6,23,22,112,3,86,9,5,24,24,704
14,18,6,18,13,52,33,0,723,4,10,22,77,3,65,14,0,25,14,643
6,6,6,9,24,57,33,0,998,3,14,13,84,4,67,8,3,16,3,924
16,10,5,17,25,45,29,0,1085,6,20,26,100,8,51,6,8,24,11,972
17,7,20,11,25,34,20,31,1002,10,26,17,100,3,67,11,2,15,0,916
12,5,4,4,6,8,13,0,159,8,3,6,8,0,15,5,8,8,7,143
10,15,14,16,14,44,29,0,830,31,17,16,36,1,62,20,6,25,10,748
28,27,8,34,32,85,61,26,903,107,24,24,87,6,97,28,6,23,0,802
29,19,12,22,37,78,35,0,913,61,29,30,70,3,93,20,3,22,4,810
16,16,4,25,15,60,29,0,868,48,12,18,34,5,59,15,3,20,0,819
16,18,8,18,27,44,30,0,787,24,24,17,36,4,60,21,4,23,32,703
8,6,9,15,30,54,35,0,863,30,25,17,28,6,74,8,9,21,20,782
36,22,30,49,37,85,53,0,1292,119,23,27,88,8,78,21,32,35,7,1166
12,9,10,15,16,44,20,2,736,34,19,16,46,3,54,10,7,20,0,655
12,8,3,12,32,65,45,0,865,39,28,14,39,5,90,17,5,27,12,766
16,8,14,29,21,55,35,0,885,43,18,20,50,4,71,9,8,28,5,807
19,21,9,12,34,40,40,0,689,15,33,10,31,6,77,23,2,25,52,590
5,2,5,9,11,10,12,4,264,12,5,4,11,3,22,4,5,11,0,245
6,11,2,5,4,8,24,0,155,4,2,6,20,3,10,14,5,9,0,142
21,17,17,7,28,27,38,22,552,14,30,20,55,11,88,36,12,31,0,432
8,19,3,2,9,33,36,3,361,8,8,10,21,3,55,16,2,16,0,335
5,3,2,9,10,11,7,0,79,7,5,5,15,1,9,4,1,2,6,71
7,12,5,14,4,39,19,3,252,16,10,11,18,4,60,11,4,16,0,205
7,7,6,5,6,18,20,10,235,13,7,8,13,3,33,7,4,14,0,212
8,7,11,17,14,32,18,3,441,20,22,26,20,7,61,12,7,32,0,344
1,4,2,3,7,11,2,0,140,0,5,3,9,1,10,5,0,1,6,130
2,2,9,3,1,12,3,4,78,1,3,1,13,4,14,4,3,4,0,67
5,40,9,13,12,69,23,17,763,13,36,18,35,5,79,52,7,25,0,681
2,7,1,5,8,13,11,36,185,5,11,10,20,1,20,7,0,5,0,189
23,25,22,40,24,68,54,12,913,45,46,48,56,17,87,25,26,58,0,773
18,16,16,7,22,73,37,33,568,51,30,18,27,11,85,23,9,38,0,498
39,26,26,15,31,48,40,0,766,28,31,24,73,11,81,32,21,54,7,629
7,20,4,3,14,55,23,0,589,1,13,10,66,1,60,14,4,23,9,514
15,13,3,3,18,48,15,20,605,7,15,5,96,1,55,13,1,17,0,530
13,3,7,11,11,24,17,0,855,11,10,11,88,2,25,3,3,21,36,731
7,4,3,1,2,11,4,5,218,3,8,5,25,1,21,4,0,19,0,169
6,15,3,2,10,30,13,4,398,8,16,7,22,0,65,21,0,10,0,332
4,4,5,6,6,19,9,4,197,8,6,8,4,5,31,7,5,14,0,166
2,0,1,4,4,26,18,0,102,12,4,5,5,1,29,0,2,4,3,92
7,4,4,8,8,10,10,11,172,4,6,6,15,5,16,9,6,21,0,146
36,17,28,33,19,78,43,6,636,68,31,49,56,25,93,19,19,46,0,490
21,20,10,33,12,42,40,2,618,24,20,49,29,0,65,21,25,49,0,516
17,15,18,36,14,57,31,0,420,19,29,43,29,4,68,12,19,32,0,353
16,28,7,21,14,30,25,0,543,15,21,31,20,3,40,23,9,46,20,456
65,9,30,47,16,56,44,0,468,47,7,55,90,3,63,7,22,45,2,394
31,38,12,29,15,66,32,0,449,22,11,44,42,3,79,31,14,53,11,362
34,33,9,44,12,74,45,4,485,21,22,60,56,0,83,24,13,54,0,407
63,15,25,45,30,64,42,16,699,34,21,57,108,7,92,15,21,73,0,571
17,18,9,17,14,37,25,0,559,12,22,31,24,3,52,11,14,38,4,485
54,17,26,33,11,51,48,0,317,34,8,31,43,2,82,22,21,57,1,256
24,3,5,17,17,45,25,0,429,8,15,28,20,1,50,10,10,32,6,385
18,22,14,12,14,37,33,0,471,8,22,28,21,1,65,12,10,57,12,385
44,12,33,36,11,41,25,0,417,32,16,61,46,2,42,15,33,39,19,314
46,10,26,32,4,41,32,0,420,31,9,43,54,1,44,9,24,39,6,351
48,8,25,45,20,47,82,0,394,22,14,44,70,7,47,2,16,36,110,301
47,23,37,54,19,52,24,16,384,29,24,59,47,6,59,16,37,55,0,324
18,21,15,21,9,54,23,0,364,9,12,32,30,4,53,11,20,37,18,299
35,20,20,36,15,47,34,0,414,34,11,48,44,3,44,14,13,59,10,341
63,20,36,51,24,48,48,7,537,38,13,64,74,7,62,25,36,69,0,446
31,27,17,23,12,54,34,10,350,16,22,33,46,4,65,25,22,52,0,273
30,27,10,15,18,38,30,0,422,9,17,22,39,3,52,19,13,38,9,369
28,21,16,10,14,45,31,0,293,15,21,19,18,0,61,23,10,24,17,250
19,21,8,14,4,28,20,20,358,11,17,22,17,4,35,17,14,30,0,325
21,21,11,28,14,37,36,0,477,14,21,32,26,3,43,10,14,44,21,417
15,7,11,31,7,13,20,0,270,11,10,29,30,0,17,8,4,27,3,235
0,2,1,1,1,5,1,0,65,2,2,2,1,1,1,1,1,5,2,58
12,15,4,9,1,27,25,6,115,7,3,6,12,0,34,8,6,21,0,117
24,19,13,42,5,49,20,0,540,20,19,38,25,2,55,22,12,49,17,453
20,2,8,14,8,20,14,10,291,7,12,15,18,5,54,7,9,27,0,233
7,20,4,21,7,43,31,1,475,11,17,16,18,10,59,12,12,24,0,430
27,21,8,12,15,50,31,0,549,20,30,33,42,5,59,18,4,39,16,447
25,32,29,30,26,57,36,0,783,35,14,68,44,11,91,35,11,55,2,652
10,9,6,11,3,25,20,7,165,9,5,15,13,4,33,5,0,24,0,148
9,11,3,10,3,19,18,0,276,13,12,9,12,3,26,4,7,15,3,245
53,14,32,33,20,46,54,15,759,36,19,67,61,5,66,20,19,59,0,674
11,10,7,8,4,12,8,0,283,8,2,13,15,0,23,11,5,20,11,235
0,3,2,1,1,5,6,1,55,2,2,5,5,4,9,2,2,0,0,43
5,2,0,6,0,9,4,4,44,0,1,4,5,0,3,4,8,3,0,46
14,8,0,9,3,10,10,0,52,0,3,12,12,1,11,8,1,12,6,40
1,2,3,3,1,5,7,0,115,1,4,5,3,1,8,3,0,10,2,100
5,4,0,1,1,10,2,2,61,3,2,3,2,3,12,4,0,5,0,52
10,6,3,6,5,11,12,0,78,4,3,7,10,1,10,4,13,4,2,73
46,47,27,33,23,61,44,0,838,21,19,63,54,11,69,33,46,33,3,767
7,3,2,15,8,22,10,21,203,10,6,23,8,1,23,10,6,16,0,188
2,3,2,3,3,8,8,3,95,8,0,3,3,0,10,2,0,5,0,96
2,6,3,1,3,32,6,8,256,8,5,3,7,3,34,1,4,6,0,246
2,4,1,2,5,13,7,0,70,2,5,1,3,1,23,5,0,4,1,59
15,4,5,6,6,3,25,7,279,3,6,22,31,0,24,0,8,12,0,244
5,8,3,5,7,10,8,0,171,1,10,11,6,3,17,12,4,8,0,145
15,6,8,11,7,16,30,8,210,18,5,10,12,0,19,8,5,56,0,178
8,9,2,7,1,16,11,3,189,2,4,4,7,0,30,10,3,15,0,171
18,4,11,19,6,19,9,6,140,18,8,19,14,1,26,4,8,18,0,116
1,0,2,10,3,19,5,13,132,6,1,15,2,0,20,1,1,11,0,128
28,3,7,11,6,19,16,4,253,17,6,11,27,1,17,6,4,33,0,225
19,9,8,8,11,12,13,4,171,16,5,14,11,0,16,10,1,22,0,160
0,4,3,2,5,16,18,0,88,2,5,3,4,0,14,6,1,6,9,86
15,10,3,12,4,21,17,15,298,13,6,15,9,2,29,12,13,19,0,277
6,3,10,10,2,18,18,0,163,14,5,9,11,3,34,9,3,6,1,135
6,5,2,7,10,19,11,0,248,23,7,16,4,0,26,8,3,9,5,207
11,10,7,9,8,43,11,0,305,10,3,17,12,1,52,10,9,9,3,278
18,21,6,11,10,29,15,0,320,16,6,20,24,2,36,13,8,29,10,266
9,3,2,10,4,13,12,0,299,4,3,16,5,2,28,6,2,10,8,268
11,2,13,9,11,14,14,10,231,12,4,15,18,2,21,4,12,26,0,201
15,17,4,7,4,21,21,6,184,4,4,18,16,1,20,19,4,15,0,178
1,2,1,1,2,4,4,2,74,2,0,5,3,0,14,5,1,5,0,56
17,10,5,18,7,35,22,0,425,9,14,28,18,2,52,15,8,37,0,356
3,12,1,5,4,9,13,11,204,10,5,2,7,1,18,12,9,12,0,186
10,7,4,20,13,11,10,0,202,8,22,14,12,4,9,4,11,16,5,172
11,9,4,3,2,23,5,0,64,7,1,4,8,0,13,17,2,9,4,56
8,3,1,9,5,14,13,0,197,19,3,10,6,4,30,1,3,26,1,147
8,7,5,8,10,12,13,5,179,9,12,15,6,1,12,12,2,13,0,165
21,10,14,21,13,72,26,0,846,14,27,35,35,10,82,13,2,32,20,753
13,8,8,16,12,13,25,0,344,17,12,19,14,1,25,7,6,35,5,298
19,9,13,20,8,34,27,5,326,16,16,23,34,10,40,12,14,33,0,263
9,4,9,10,6,19,6,0,264,12,3,25,12,4,32,4,4,19,6,206
38,18,23,20,10,61,55,0,503,21,14,22,42,4,100,20,32,59,17,397
10,16,8,24,15,64,32,4,771,18,19,29,27,2,86,20,6,45,0,692
18,17,16,10,7,46,42,0,555,24,16,25,25,5,60,13,11,39,1,492
10,7,15,10,5,36,15,1,243,48,6,18,6,0,52,8,8,12,0,184
17,27,8,13,7,20,25,10,335,15,9,27,16,2,36,73,7,21,0,256
33,16,22,22,8,105,54,14,553,36,13,46,49,11,131,17,17,45,0,462
24,22,12,29,13,96,26,0,525,24,7,19,16,3,112,32,9,25,4,496
15,16,14,12,12,68,30,0,480,9,13,38,28,5,101,16,10,20,10,397
42,21,21,19,12,58,35,0,546,28,14,25,37,7,79,17,9,18,20,500
16,4,1,4,7,30,10,0,244,11,6,5,18,2,45,7,6,13,11,192
7,13,8,7,5,28,24,0,375,12,4,5,7,4,44,12,9,18,10,342
19,7,3,18,8,41,13,0,447,10,6,21,22,3,64,8,4,23,22,373
23,27,18,12,14,76,37,0,1007,22,17,26,35,9,95,17,14,21,10,948
11,13,18,16,5,55,32,0,433,18,14,26,10,0,72,6,18,15,24,380
5,8,3,1,6,26,10,0,222,20,7,6,11,2,44,8,5,13,2,163
21,18,14,26,13,60,20,9,414,80,10,30,22,8,99,11,2,19,0,314
7,2,3,7,1,13,4,2,155,2,6,8,11,0,13,5,11,9,0,129
6,9,15,12,4,14,12,4,115,9,2,17,13,5,16,10,4,9,0,106
22,4,3,6,5,20,13,13,176,9,3,17,29,1,26,3,7,10,0,157
4,2,4,2,5,14,4,8,138,9,4,6,3,8,13,8,1,8,0,121
47,14,10,24,6,20,32,0,287,25,10,27,33,3,20,9,6,36,3,268
5,8,2,5,0,8,12,20,139,1,5,8,4,0,12,9,3,6,0,151
47,37,22,47,21,49,34,0,680,21,10,49,52,2,87,39,17,38,11,611
5,19,2,13,3,32,5,0,79,4,3,15,1,1,25,17,0,9,1,82
5,8,2,3,0,9,3,7,65,2,3,8,4,1,9,7,2,3,0,63
3,6,4,2,1,9,2,0,62,4,2,4,5,0,15,5,1,3,1,49
3,4,1,4,4,9,11,0,79,0,2,6,2,3,13,1,0,18,1,69
10,3,2,11,3,22,8,0,152,7,0,12,6,1,18,10,1,25,1,130
11,3,0,7,0,16,8,6,105,4,3,9,11,2,30,6,1,11,0,79
24,34,17,23,29,56,44,6,842,22,34,40,29,7,79,34,15,54,0,761
6,6,2,3,7,11,5,5,146,10,12,9,4,2,19,5,5,14,0,111
7,15,3,9,9,29,22,0,240,14,11,14,4,3,48,13,3,21,5,198
16,11,7,7,6,25,13,0,199,10,9,12,15,6,31,11,6,25,5,154
12,12,12,9,13,21,27,4,351,12,6,15,20,6,36,14,6,27,0,319
10,11,3,8,2,36,11,1,298,8,1,11,9,4,39,10,5,23,0,270
6,4,3,1,3,7,4,9,60,1,2,3,6,0,14,3,0,4,0,64
75,18,51,37,27,39,65,16,494,25,24,40,108,2,37,7,45,86,0,448
49,16,22,40,22,47,36,10,505,13,18,37,58,6,49,10,26,83,0,447
41,19,39,32,19,51,60,9,528,27,14,45,67,3,68,13,27,96,0,438
33,10,16,30,9,21,32,2,466,19,9,32,42,1,35,9,21,87,0,364
42,9,23,41,24,23,40,54,879,19,25,43,50,3,45,6,26,49,0,869
33,16,14,18,10,32,23,0,441,12,11,37,43,6,28,6,16,63,24,341
66,11,24,34,25,39,44,0,623,18,15,43,62,9,35,7,35,120,3,519
16,17,15,33,13,42,48,1,617,18,8,26,15,0,56,17,17,105,0,540
18,24,19,30,14,48,40,0,603,21,16,16,18,3,49,13,14,70,24,552
48,23,30,22,12,73,46,3,589,18,12,24,52,5,81,25,17,119,0,493
6,7,5,8,1,14,14,0,172,16,6,6,5,0,34,7,2,11,9,131
10,4,7,4,5,12,6,3,168,10,6,4,13,1,31,5,2,8,0,139
7,2,2,10,5,23,11,0,195,5,9,11,6,2,30,2,1,7,1,181
10,7,3,9,5,22,12,0,324,4,9,13,16,7,29,9,2,13,15,275
27,28,29,14,10,48,30,2,637,30,20,24,33,6,74,29,72,48,0,489
17,18,7,10,6,56,30,0,429,15,9,24,19,3,81,14,7,25,3,373
32,38,13,22,35,65,31,1,811,11,32,24,37,44,91,30,5,33,0,741
28,16,5,21,18,56,28,0,614,12,22,25,33,36,67,14,5,22,28,522
27,16,12,15,18,53,43,0,758,19,26,34,28,50,66,18,4,45,30,622
6,2,1,3,5,8,6,1,141,2,1,4,7,8,11,7,0,5,0,128
6,7,2,4,0,21,7,0,195,12,9,2,5,13,22,9,1,12,0,157
1,1,2,3,3,8,5,1,75,2,3,4,3,9,10,3,0,5,0,60
3,8,2,5,3,2,14,2,103,0,6,13,3,15,10,3,0,14,0,78
5,3,0,4,2,7,11,0,57,2,1,8,3,15,12,2,0,6,5,35
34,13,13,24,12,39,42,0,617,11,17,36,46,36,55,15,7,35,1,535
31,29,13,19,29,62,38,0,802,13,30,29,37,47,74,21,3,30,3,736
4,2,5,11,2,5,6,3,75,4,3,15,6,6,11,1,3,8,0,56
13,10,8,17,7,25,24,0,348,9,21,16,28,8,47,12,8,24,0,279
4,9,1,9,7,19,16,3,193,6,8,9,13,2,38,8,5,15,0,157
15,22,16,39,11,25,29,0,657,20,16,46,28,12,33,17,10,27,35,570
28,17,15,38,24,27,34,0,559,36,25,42,30,12,56,26,5,23,33,454
39,5,12,19,9,30,13,0,375,30,6,36,56,4,43,5,10,31,2,279
9,3,8,8,2,13,10,4,116,10,3,10,6,2,20,4,4,17,0,97
35,25,17,27,16,43,37,0,479,24,12,35,36,4,54,8,9,50,11,436
22,19,7,13,16,63,29,0,443,11,10,25,26,7,58,19,4,48,7,397
3,4,1,2,1,26,10,0,49,8,1,6,5,0,19,3,2,12,4,36
17,13,6,18,9,63,25,1,434,14,10,25,17,3,82,19,3,26,0,387
13,9,7,27,8,29,15,0,346,16,7,29,11,3,34,17,5,22,5,305
11,4,1,8,6,13,7,1,160,5,4,15,10,4,26,8,2,10,0,127
28,34,21,25,13,29,34,13,509,39,19,21,35,3,48,36,16,32,0,457
24,9,18,25,10,38,25,0,672,36,18,24,31,2,51,30,19,25,6,579
3,4,3,2,3,10,1,0,116,6,9,4,2,0,9,4,1,3,2,102
1,1,0,0,3,2,4,0,106,2,1,0,1,0,9,9,0,2,2,91
0,6,2,6,7,9,8,0,98,3,2,1,3,5,13,2,3,1,1,102
5,5,4,5,5,10,6,2,146,9,0,3,5,0,11,6,3,10,0,141
2,7,5,11,6,7,5,0,108,6,2,7,3,0,13,12,1,3,2,102
51,9,49,31,14,58,46,0,454,18,12,31,71,8,52,3,16,121,14,366
2,6,0,1,0,3,2,2,72,2,1,2,2,0,5,12,0,6,0,58
3,7,4,2,1,5,4,0,52,4,1,4,2,0,18,5,0,7,3,34
6,0,4,4,2,5,9,6,55,3,2,11,8,0,6,1,0,5,0,55
4,1,3,6,4,11,9,4,125,11,3,8,9,0,14,4,8,15,0,95
19,19,13,12,7,28,13,0,406,21,7,11,27,4,65,20,1,20,7,334
28,4,9,13,8,37,16,0,280,25,14,23,18,7,62,6,2,26,0,212
10,4,7,9,7,19,17,0,186,18,5,11,4,3,22,5,7,11,3,170
7,7,8,3,2,15,4,2,100,12,4,3,9,0,12,7,5,11,0,85
6,15,6,11,6,18,10,5,247,14,5,13,7,2,27,9,2,46,0,199
24,16,1,9,9,30,25,0,296,4,11,15,20,57,24,13,5,28,1,232
1,1,2,1,5,17,10,0,219,2,4,3,2,2,30,4,0,9,9,191
10,13,4,4,5,6,15,3,192,6,6,10,16,5,15,12,1,5,0,176
11,2,12,12,8,18,19,4,123,6,5,9,17,2,28,3,2,12,0,125
14,25,7,10,10,28,15,11,292,11,15,17,20,3,38,22,14,26,0,246
26,3,7,16,6,30,12,0,196,12,7,7,24,2,32,5,7,19,1,180
13,8,5,6,6,2,10,5,186,3,18,9,8,4,12,5,1,15,0,166
16,27,20,48,25,28,24,9,472,19,34,57,35,4,55,15,21,32,0,397
6,3,0,3,1,11,2,0,49,0,2,0,1,5,11,5,2,4,0,45
34,21,24,16,25,47,36,0,736,23,19,40,29,17,53,28,31,27,26,646
10,22,12,18,21,47,33,0,597,18,15,30,15,22,64,29,13,28,8,518
23,3,17,3,14,40,25,0,432,15,12,23,28,22,43,11,15,23,8,357
17,14,15,15,17,43,31,2,441,18,10,16,20,11,50,20,10,19,0,421
17,19,15,19,17,54,28,0,528,34,15,35,30,12,74,16,17,32,0,432
53,16,20,20,17,80,29,0,523,36,25,24,61,10,86,13,18,24,14,447
26,13,18,18,19,47,22,5,509,20,6,33,46,17,50,24,20,29,0,432
64,8,38,37,13,94,42,10,487,49,6,32,90,24,104,6,51,23,0,408
28,37,26,22,24,66,45,0,662,24,21,38,34,23,98,30,29,34,3,576
58,26,22,35,26,41,45,0,593,31,18,33,68,14,65,19,51,31,4,512
39,29,20,25,28,60,46,8,478,30,13,32,54,11,99,27,26,35,0,406
35,16,18,28,26,58,40,0,532,24,19,39,55,11,71,14,16,30,16,458
27,14,20,25,15,49,29,0,462,11,10,28,32,12,62,20,46,40,3,377
44,11,27,12,16,23,33,0,980,12,16,42,67,12,25,10,25,22,21,894
19,17,7,11,16,28,30,0,502,12,12,20,19,14,53,14,16,25,11,434
13,19,8,13,13,49,17,0,581,13,15,29,19,14,63,27,12,14,14,493
17,18,12,15,15,46,19,0,475,14,15,22,15,20,65,8,22,31,6,399
13,20,12,26,25,56,35,0,584,19,8,38,22,19,75,22,13,28,17,510
8,15,9,12,3,21,28,6,327,12,11,12,11,3,40,26,6,18,0,290
10,4,6,10,8,9,11,2,145,6,10,8,12,13,18,4,6,10,0,118
1,3,0,3,0,15,6,7,92,1,2,4,5,1,10,1,1,4,0,98
0,5,0,2,4,15,5,0,37,3,2,0,1,0,14,2,0,0,1,45
6,6,1,1,3,6,2,0,70,3,3,4,2,0,12,0,2,2,3,64
0,4,2,1,7,27,3,0,91,2,5,5,2,0,23,3,0,7,5,83
9,7,7,5,6,33,9,0,313,7,10,11,9,2,51,6,0,14,4,275
0,5,1,3,5,11,23,3,212,2,11,3,0,32,17,5,3,14,0,176
1,1,3,7,2,14,7,11,116,15,7,7,2,0,11,4,0,5,0,111
3,3,3,3,0,3,19,9,108,5,3,3,5,1,5,4,0,9,0,116
12,6,6,6,6,28,10,19,300,4,8,9,33,2,37,6,3,11,0,280
1,3,2,0,4,6,6,0,86,5,3,3,2,0,5,10,1,4,1,74
10,9,3,9,15,31,30,7,277,16,14,12,17,3,38,13,7,16,0,255
0,4,1,0,0,5,8,0,38,0,0,2,0,1,5,5,0,2,1,40
3,1,4,4,1,13,5,3,18,2,3,5,3,7,12,1,2,0,0,17
4,8,6,8,1,8,11,2,111,10,1,6,7,5,16,8,4,9,0,93
8,8,13,3,1,19,15,0,253,16,9,6,10,9,26,14,3,16,7,204
19,9,11,18,15,24,25,3,334,15,7,16,17,21,39,11,16,18,0,298
1,0,1,3,4,3,3,0,29,0,0,1,3,0,7,1,2,7,1,22
9,30,9,12,10,25,30,0,345,25,13,27,15,6,43,19,8,17,3,294
27,8,4,21,8,22,28,0,420,13,9,14,28,1,46,12,8,33,7,367
14,26,8,23,19,55,16,0,610,16,30,24,23,1,71,23,12,13,18,540
0,3,0,9,0,4,3,0,75,0,1,7,0,0,9,3,1,3,6,64
11,1,4,5,6,11,7,0,72,1,2,7,8,1,13,3,6,10,5,61
3,5,0,2,9,16,6,2,118,4,18,1,4,0,16,3,3,4,0,108
18,30,15,16,17,49,30,0,585,35,33,16,44,11,59,28,7,22,3,502
35,35,15,26,24,86,40,0,872,22,19,51,46,21,114,29,17,34,10,770
16,14,6,15,30,35,23,0,592,19,22,22,23,14,42,11,5,68,10,495
1,3,1,2,2,13,7,7,53,5,7,0,1,0,22,5,0,7,0,42
2,3,0,3,6,7,8,0,84,0,7,5,5,0,16,4,0,4,2,70
8,5,0,5,1,18,4,9,70,11,8,4,4,0,12,4,0,11,0,66
3,6,2,2,6,23,42,0,209,7,7,6,8,1,45,3,0,4,9,203
2,1,1,3,1,5,4,0,31,5,4,3,1,0,5,1,0,6,2,21
5,2,5,4,4,10,16,9,103,1,8,6,5,17,11,0,1,10,0,99
3,0,5,3,2,27,16,10,190,14,5,2,5,4,35,3,3,27,0,158
0,3,0,5,8,17,10,0,86,6,10,4,0,2,14,6,0,4,1,82
4,4,0,3,3,9,5,0,52,0,2,2,2,1,6,2,1,9,15,40
29,61,10,23,22,97,59,0,814,31,35,24,23,2,100,54,12,21,84,729
5,5,2,8,1,18,9,0,147,11,3,9,5,0,29,5,0,8,0,125
1,6,0,6,1,8,10,0,135,7,5,7,5,1,22,6,1,4,1,108
12,7,3,5,8,19,11,0,379,11,12,5,18,7,21,12,0,14,1,343
12,10,7,2,8,19,9,11,242,8,7,1,20,5,33,10,5,9,0,222
2,3,0,0,6,12,5,3,84,4,8,3,4,0,9,2,0,6,0,79
10,12,4,11,4,30,21,0,300,8,14,1,3,1,39,17,0,16,65,228
2,13,5,15,7,31,8,8,214,10,3,7,2,4,33,3,1,13,0,227
23,12,16,17,8,25,26,8,229,9,5,6,16,0,20,8,2,90,0,208
6,2,8,12,8,16,10,0,231,18,4,16,18,2,17,1,2,8,0,207
11,12,7,7,8,32,11,0,87,27,8,5,5,2,32,4,7,4,2,79
4,1,1,6,5,24,8,2,102,5,3,9,3,5,26,3,0,6,0,93
11,3,2,1,3,19,7,2,127,3,3,1,13,3,22,2,4,12,0,112
4,8,3,3,3,11,19,6,96,7,1,9,7,8,20,4,7,12,0,78
50,28,12,27,18,43,42,2,527,50,18,39,41,10,49,22,15,25,0,480
12,12,11,14,24,38,28,12,389,20,28,16,13,0,56,18,5,18,0,366
0,1,0,2,6,7,10,2,71,3,3,2,2,2,6,7,0,4,0,70
8,9,4,2,1,23,15,1,140,2,4,4,15,2,21,10,2,7,0,136
1,6,2,8,1,7,2,1,33,2,1,6,1,3,7,0,0,8,0,33
0,6,1,3,5,8,3,0,51,5,3,3,0,3,10,4,3,5,2,39
8,6,5,5,6,11,8,0,60,6,3,6,6,1,18,8,4,2,1,54
6,5,2,1,1,8,8,0,100,1,3,0,10,1,11,6,1,2,3,93
1,0,0,0,4,9,11,0,87,1,6,1,0,5,6,0,0,2,3,88
3,7,0,3,3,8,0,0,189,0,5,3,3,0,18,5,1,3,6,169
6,5,0,1,4,17,7,1,246,0,3,10,3,4,32,6,0,5,0,224
9,6,3,13,11,31,24,19,346,6,12,17,20,11,38,6,7,18,0,327
17,20,8,12,13,55,36,0,466,8,11,16,34,5,61,24,0,12,4,452
7,23,7,11,11,53,24,0,500,8,9,7,18,11,63,23,6,9,18,464
19,29,9,11,21,69,34,0,892,8,33,13,30,22,80,21,6,22,4,845
11,18,6,15,11,35,24,16,606,4,17,23,22,11,68,15,4,26,0,552
23,21,11,18,20,79,39,29,625,22,13,19,51,13,86,23,4,33,0,601
0,1,0,0,0,3,2,0,36,0,0,0,0,0,2,1,1,0,1,37
9,10,3,10,15,54,41,1,943,9,17,14,11,7,65,15,4,74,0,870
31,15,11,22,29,89,43,0,878,19,25,43,26,10,107,16,5,88,1,778
11,11,14,12,16,66,18,3,506,14,15,14,6,5,95,10,2,50,0,446
0,3,3,1,1,8,3,0,75,1,4,4,1,0,12,3,2,9,4,54
2,3,1,0,6,6,7,0,84,3,7,3,0,0,7,5,0,7,5,72
0,4,1,0,5,4,1,0,46,3,5,1,1,0,4,2,1,3,3,38
2,1,2,0,7,7,0,9,112,0,0,6,5,0,13,0,1,3,0,112
2,0,0,0,0,13,0,4,80,3,5,5,2,0,14,0,0,0,0,70
0,1,2,0,1,3,6,11,64,0,2,0,0,0,7,4,0,2,0,73
7,2,6,5,11,16,43,0,123,1,4,9,5,58,28,5,7,8,9,79
1,3,0,3,1,6,2,2,21,1,2,1,3,2,7,3,0,2,0,18
7,0,1,1,5,2,2,2,25,2,5,5,7,0,6,0,1,2,0,17
21,11,12,7,12,29,36,0,269,10,4,13,29,11,37,11,5,25,16,236
14,9,13,13,9,35,15,14,338,17,9,20,13,11,41,14,9,25,0,301
14,11,10,3,1,34,39,9,234,16,4,11,17,10,54,6,11,20,0,206
9,9,2,2,8,11,3,0,200,7,6,3,4,7,29,10,0,8,1,169
1,7,4,0,4,8,7,4,47,2,2,0,4,4,13,8,1,4,0,44
2,4,1,2,6,16,6,1,48,0,3,7,0,3,17,5,0,8,0,43
7,6,6,8,4,40,24,10,297,17,9,13,9,9,37,8,2,12,0,286
5,6,2,4,7,18,5,5,229,5,15,3,3,1,17,6,5,9,0,217
2,1,4,3,1,21,7,0,288,3,7,16,6,6,29,6,2,8,4,240
8,5,6,4,5,27,11,2,150,9,6,6,18,12,22,4,1,2,0,138
8,3,5,3,2,25,15,2,101,6,2,8,10,3,24,3,1,12,0,95
16,12,6,19,18,61,24,0,629,7,14,28,30,5,88,9,0,25,9,570
7,21,3,13,18,68,22,1,581,13,26,14,15,4,109,17,2,19,0,515
1,0,0,4,0,4,0,0,77,0,0,8,1,1,8,2,0,6,7,53
3,6,4,9,6,18,27,2,255,14,7,10,3,3,40,10,2,28,0,213
2,1,4,3,6,5,8,4,50,5,3,2,0,10,6,1,5,9,0,42
6,2,4,9,6,17,4,0,95,5,3,9,2,5,19,7,4,6,0,83
3,1,3,2,1,7,12,1,49,0,4,2,4,3,8,4,3,6,0,45
9,17,7,25,10,44,16,0,553,22,24,20,17,9,66,16,3,14,31,459
22,29,11,19,11,69,25,0,505,31,21,28,32,2,87,18,6,15,3,448
26,10,27,38,16,40,28,23,1037,32,34,40,36,2,52,8,15,14,0,1012
38,9,15,13,26,46,25,0,667,36,35,33,50,4,61,7,11,30,3,569
16,28,19,15,14,54,34,0,725,27,26,32,35,5,99,28,5,20,6,622
16,29,19,35,26,47,34,0,774,35,26,34,33,2,97,30,8,33,20,662
15,20,11,18,30,56,22,0,733,33,31,26,16,5,84,25,7,38,40,600
23,6,13,12,10,37,18,30,633,22,10,26,24,1,41,11,14,20,0,613
23,34,11,23,24,57,38,0,718,19,16,34,37,1,84,30,6,28,35,638
37,23,15,21,26,56,36,0,679,45,29,40,47,5,70,26,23,34,8,566
61,30,24,29,30,106,47,19,598,79,36,41,62,6,99,30,5,47,0,539
19,38,10,9,16,42,38,0,720,32,26,28,23,4,62,33,8,35,1,640
14,25,4,9,13,42,19,0,589,13,31,16,18,2,50,21,3,33,3,525
26,10,12,9,19,42,32,0,528,15,23,19,27,4,54,8,7,19,15,487
25,11,18,18,22,41,20,0,562,24,39,24,43,2,74,14,11,9,14,463
40,23,17,15,19,41,28,0,587,33,21,36,62,0,57,14,5,23,0,519
20,20,10,26,11,57,33,0,589,19,23,24,30,4,66,24,9,28,21,518
3,3,1,8,9,21,14,0,282,8,13,21,6,1,17,4,2,12,2,255
19,12,10,19,25,60,31,0,869,15,31,26,31,66,69,5,8,28,31,735
10,6,10,12,22,45,20,0,520,13,25,12,11,50,50,13,7,18,8,438
14,17,5,17,18,60,26,10,603,10,22,19,13,44,60,18,4,22,0,558
18,10,12,10,11,29,12,2,290,24,3,19,17,30,27,12,5,25,0,232
23,11,7,8,21,52,14,4,544,10,18,13,18,41,48,12,8,12,0,504
13,10,7,15,16,41,27,0,605,13,18,13,8,33,58,13,4,30,10,534
68,34,33,40,31,71,47,20,715,60,16,30,67,109,72,22,17,33,0,633
15,10,17,19,17,45,20,0,467,7,14,15,18,44,46,9,12,23,19,403
23,12,14,24,10,41,22,22,358,20,16,20,25,56,42,9,14,21,0,303
49,19,19,23,26,46,31,0,550,36,23,24,42,85,42,20,11,38,5,437
24,10,16,24,16,33,21,0,400,25,16,23,28,53,31,9,13,16,2,328
16,10,11,12,15,34,28,5,328,43,17,16,23,36,29,15,11,17,0,252
17,18,7,20,20,67,21,0,657,22,19,9,8,67,63,17,6,24,16,576
16,30,5,13,17,48,32,0,588,13,19,13,15,68,49,24,2,20,5,521
13,12,8,15,22,42,29,0,730,16,25,25,12,57,48,18,10,31,9,620
15,22,8,24,16,59,31,0,780,16,19,33,9,57,68,15,6,25,24,683
26,13,21,29,22,79,40,18,818,24,20,27,30,77,67,12,13,46,0,750
19,9,12,16,34,54,33,0,896,15,33,14,15,57,70,9,12,36,17,795
25,19,19,17,16,79,15,0,809,30,20,20,11,44,69,16,15,24,10,740
17,21,11,20,23,75,46,0,895,31,31,24,18,70,65,27,18,35,103,686
7,27,12,14,11,40,17,0,731,11,20,9,16,48,50,23,9,9,9,655
18,17,15,31,21,47,24,0,1080,21,38,19,10,94,52,24,9,35,58,893
10,14,9,12,31,52,20,0,836,15,41,17,8,47,56,12,6,22,42,718
11,27,9,18,21,52,40,0,855,15,17,21,29,75,72,18,15,24,31,716
9,13,2,10,24,29,30,10,874,7,19,14,12,40,44,20,6,30,0,809
0,3,1,0,1,1,1,0,783,0,0,30,1,2,0,1,0,2,21,733
8,6,2,9,3,22,7,15,122,2,8,5,13,33,27,1,0,9,0,96
15,13,9,18,20,49,25,0,1136,18,29,20,15,64,51,10,6,33,19,1020
27,29,18,32,34,76,54,0,1029,23,28,24,31,108,73,24,11,40,45,892
62,19,31,31,45,66,38,38,835,57,39,28,74,160,55,21,21,39,0,671
9,27,5,16,28,89,29,0,803,22,20,18,6,72,115,19,10,15,5,704
15,12,8,15,21,97,30,0,660,11,27,18,10,77,78,5,7,25,27,573
21,13,3,15,33,65,40,0,861,9,42,15,17,68,78,10,10,39,7,756
16,25,6,9,36,61,28,0,726,12,30,15,10,57,51,19,8,26,16,663
5,16,4,13,16,66,20,0,632,10,13,9,7,53,79,16,2,22,4,557
8,12,3,11,17,32,14,0,767,3,18,13,2,35,28,16,4,18,2,725
16,15,8,22,7,42,18,0,710,19,14,19,16,53,40,14,18,31,18,596
7,11,5,14,19,38,19,0,756,13,14,21,15,45,43,13,4,31,21,649
10,14,13,23,14,53,28,6,573,11,16,16,20,60,68,14,10,23,0,496
16,11,14,20,12,52,31,0,665,27,22,25,25,54,49,11,6,29,2,571
19,7,17,21,13,44,29,6,596,17,18,27,16,40,48,10,14,28,0,534
23,11,15,23,12,50,20,0,618,18,13,19,21,56,48,11,7,20,8,551
6,5,5,10,10,24,13,0,704,10,6,7,9,20,36,3,2,17,2,665
17,12,7,13,11,25,19,10,902,13,20,23,14,41,26,13,10,36,0,820
9,9,4,8,6,20,7,2,609,5,13,4,7,14,9,2,5,7,0,608
22,2,14,20,6,23,16,11,772,18,14,13,21,49,22,3,13,16,0,717
49,4,20,22,10,48,21,0,380,46,13,30,47,78,33,4,12,33,0,258
31,6,18,14,13,38,21,0,333,24,7,10,29,42,42,6,7,14,7,286
29,18,14,22,19,70,35,2,723,23,23,21,20,94,63,13,9,37,0,629
15,18,11,17,20,51,25,23,748,24,22,13,11,35,43,23,17,34,0,706
12,7,9,22,21,52,38,0,933,16,29,17,7,53,56,15,8,21,22,850
8,9,17,5,6,47,10,0,548,11,19,10,13,26,65,10,11,16,17,452
11,21,5,15,18,62,22,0,822,19,20,25,15,33,96,25,6,25,6,706
3,2,7,10,9,23,12,11,143,17,6,7,7,16,25,6,3,7,0,126
5,4,7,4,6,18,15,0,26,12,2,3,7,3,10,4,0,5,4,35
0,0,0,3,4,8,2,6,34,1,4,2,1,5,6,2,0,1,0,35
4,3,1,5,6,41,23,0,347,9,10,5,8,37,37,4,5,13,0,302
4,7,6,4,1,18,1,6,162,1,2,3,4,6,24,3,15,8,0,143
12,6,9,11,16,43,22,2,610,7,8,8,13,18,63,12,34,9,0,559
17,7,14,9,12,67,31,23,646,35,10,16,18,48,77,11,46,19,0,546
4,3,2,9,4,9,8,0,90,7,8,10,11,12,5,4,4,2,0,66
7,6,6,12,5,17,11,21,104,10,14,18,8,22,17,2,4,16,0,78
9,3,2,8,3,12,16,6,121,2,0,3,13,13,19,3,1,5,0,121
18,22,5,9,21,48,25,2,354,25,18,13,14,23,58,15,4,25,0,309
1,0,8,0,3,7,7,5,189,19,7,3,2,9,16,0,0,3,0,161
7,19,5,3,12,29,12,0,517,6,16,8,12,34,28,10,5,15,12,458
11,17,10,7,19,47,20,0,541,8,20,6,12,32,63,10,13,13,12,483
25,21,23,11,21,57,37,0,623,40,25,15,26,44,63,21,18,22,15,529
8,20,7,7,19,55,21,26,459,26,20,12,7,26,60,21,10,12,0,428
16,15,13,16,15,68,32,0,511,30,20,12,16,31,66,11,14,22,4,460
22,10,13,31,15,81,29,1,546,32,19,19,17,26,87,11,16,40,0,481
7,13,5,10,9,55,15,0,399,12,17,10,10,16,65,13,10,11,4,345
12,20,4,15,22,53,28,29,651,30,16,14,21,33,59,15,16,21,0,609
7,22,10,9,14,67,22,19,615,28,22,9,8,16,86,27,5,19,0,565
17,27,13,16,26,52,30,79,1616,17,23,27,17,25,57,25,13,10,0,1662
10,27,12,11,20,81,34,0,613,31,17,14,23,16,87,32,8,23,0,557
14,13,4,9,13,47,24,0,493,25,14,7,9,24,57,15,7,17,0,442
4,10,5,6,15,26,15,0,943,6,16,9,10,17,29,11,7,7,5,907
0,0,0,0,2,3,1,0,346,0,1,0,0,2,0,0,0,3,44,302
0,1,3,0,0,3,4,0,328,0,1,0,1,2,3,3,1,0,24,304
3,3,4,1,9,21,14,0,438,9,14,1,5,29,31,2,1,10,74,317
7,9,5,14,5,26,13,0,376,17,15,12,6,18,26,12,6,13,3,327
41,21,21,25,25,61,39,0,593,41,18,23,42,51,88,13,23,22,1,504
22,4,27,14,14,45,28,0,511,28,17,24,22,32,59,6,24,36,0,417
21,18,18,23,33,77,43,0,594,41,25,34,22,49,111,15,25,24,7,474
30,15,19,29,29,70,31,0,600,55,26,30,29,40,87,20,29,35,12,460
16,26,16,12,32,54,34,0,579,18,18,22,28,26,31,14,10,154,6,442
5,4,16,9,18,39,15,0,702,8,11,12,6,14,38,8,10,89,2,610
40,17,20,22,25,48,29,0,491,31,25,20,46,46,42,24,16,77,0,365
10,18,12,11,28,64,29,11,557,12,27,9,18,43,66,17,10,86,0,452
1,2,10,5,8,27,8,0,115,14,10,0,5,7,20,1,1,5,8,105
6,18,3,8,5,15,17,7,287,11,12,19,16,6,30,15,2,10,0,245
17,18,5,18,44,57,56,34,918,26,34,22,25,44,78,18,10,45,0,865
24,25,17,17,24,72,58,10,699,35,25,32,31,45,88,21,12,57,0,600
14,31,2,15,33,42,39,58,722,15,31,15,16,41,78,30,12,40,0,678
13,30,7,15,31,70,51,4,711,37,19,22,17,38,93,20,14,47,0,625
4,7,6,8,11,16,0,4,146,2,9,10,7,18,14,5,1,7,0,129
13,16,2,1,6,18,13,74,798,1,5,2,37,15,24,23,1,12,0,821
5,1,3,2,6,12,3,0,506,1,4,5,13,4,14,4,0,11,33,449
29,10,5,8,7,31,13,0,275,11,9,4,30,18,59,9,3,26,8,201
6,1,5,1,4,20,6,2,140,8,5,3,7,17,24,2,2,4,0,113
3,6,3,6,3,25,10,19,153,13,8,7,3,21,25,1,2,2,0,146
23,14,9,24,16,45,30,0,803,16,26,32,31,11,67,15,24,29,4,709
26,15,26,35,17,47,41,6,702,10,13,27,40,3,67,6,52,30,0,667
23,18,12,13,15,58,25,0,1553,4,20,12,33,7,63,14,21,25,9,1509
59,12,40,25,27,62,56,0,542,11,22,20,78,5,75,9,88,30,24,461
46,23,39,42,28,72,39,46,842,23,49,22,82,4,84,16,67,110,0,720
33,10,29,20,17,39,44,3,548,15,20,21,53,7,45,4,57,38,0,483
35,14,26,15,26,41,48,0,614,14,35,22,45,13,59,8,56,29,5,533
45,5,35,26,35,81,59,0,568,14,42,29,58,6,86,9,56,52,1,501
26,5,15,22,18,15,30,6,724,13,19,16,43,0,34,1,48,21,0,666
25,9,15,31,21,31,36,0,652,21,29,34,30,5,41,4,48,17,14,577
37,13,28,26,24,49,43,0,506,18,15,14,27,5,60,9,47,26,32,473
31,12,10,21,46,55,41,7,646,10,25,23,26,6,87,14,26,36,0,616
19,9,19,16,22,50,27,0,523,7,14,14,37,6,59,7,29,17,25,470
13,13,6,21,20,39,27,6,717,1,15,18,22,7,57,9,24,30,0,679
16,12,8,11,16,54,30,0,525,8,16,13,22,4,47,14,20,37,23,468
18,22,16,21,20,60,31,0,515,7,7,13,28,2,73,23,30,33,17,470
37,12,11,24,23,70,40,7,565,12,29,15,48,7,64,10,47,18,0,539
18,1,5,12,16,30,19,2,329,4,7,15,40,5,49,2,12,15,0,283
35,15,20,29,27,57,46,0,638,10,26,28,62,6,59,13,54,38,28,543
31,13,21,14,17,86,34,0,549,8,14,13,40,3,73,17,25,29,14,529
28,4,23,28,9,32,26,44,350,5,12,26,37,8,45,7,47,20,0,337
34,11,18,31,17,27,29,0,736,9,20,33,50,1,39,9,45,19,13,665
48,11,35,34,14,51,30,15,444,13,14,28,75,5,42,9,79,30,0,387
44,16,35,31,14,50,31,3,469,24,12,23,63,2,60,14,53,23,0,419
37,16,14,27,19,50,26,0,861,7,22,27,49,2,64,12,34,22,21,790
9,23,8,15,19,40,18,14,680,10,17,24,15,0,57,23,16,25,0,639
53,20,15,28,30,64,29,0,711,18,34,36,58,8,91,18,47,35,2,603
29,15,12,16,10,42,20,1,427,11,14,15,34,10,52,9,29,22,0,376
38,12,24,19,27,74,31,0,451,10,15,21,55,5,85,13,49,18,19,386
18,8,15,29,13,26,36,0,604,7,15,31,35,3,44,1,44,8,3,558
38,13,32,35,20,51,37,5,472,16,24,31,54,7,55,10,67,21,0,418
25,14,8,19,13,43,19,14,579,12,15,27,37,2,60,16,21,24,0,520
20,13,5,17,14,56,27,0,697,6,32,16,28,5,85,8,15,20,3,631
17,11,11,27,24,42,41,0,709,16,33,24,38,6,57,14,29,40,14,611
14,17,8,17,25,63,27,2,872,3,35,23,29,10,71,17,24,41,0,792
27,17,15,10,18,47,26,31,742,8,15,14,42,4,48,14,28,19,0,741
39,10,16,35,19,47,35,0,944,18,25,38,53,9,59,6,29,34,9,865
17,12,8,29,18,42,27,0,783,8,23,27,27,12,50,4,36,41,24,684
22,19,18,33,16,65,30,0,851,16,38,17,30,8,89,17,29,38,5,767
20,10,10,13,15,32,20,0,906,5,20,19,44,7,26,6,22,37,11,829
30,19,17,24,15,58,28,27,507,12,21,23,50,5,66,20,39,33,0,456
19,13,14,16,23,68,46,0,536,11,17,35,28,2,83,12,25,25,11,486
26,21,12,9,29,59,33,0,446,7,26,10,32,3,88,15,24,26,5,399
32,21,14,14,26,52,46,13,615,13,19,19,44,7,67,17,32,38,0,577
0,7,1,1,5,18,10,3,742,1,9,7,3,3,31,9,0,21,0,703
9,27,2,16,24,47,17,0,652,10,19,14,14,7,55,23,7,14,13,618
31,13,12,15,21,40,40,0,578,16,20,25,49,8,57,17,16,31,4,507
13,15,14,15,17,42,18,0,451,11,9,12,21,11,67,12,14,20,21,387
11,26,9,21,34,72,25,0,755,13,31,30,18,7,108,21,22,22,1,680
29,17,18,16,32,68,39,0,759,17,24,22,48,4,91,13,22,33,0,704
9,14,2,4,15,31,7,0,513,4,26,5,15,5,44,12,5,22,19,438
4,13,1,11,30,36,19,9,616,4,21,8,6,10,43,17,3,15,0,612
14,8,9,5,25,57,26,0,573,6,16,16,9,8,71,8,16,20,20,527
6,16,5,15,9,42,12,0,548,8,23,9,5,8,48,13,7,18,0,514
23,34,11,18,31,48,39,0,747,12,32,10,34,16,90,27,22,53,18,637
3,11,3,2,8,10,5,17,634,0,4,5,2,2,16,10,2,9,0,643
21,7,14,12,11,23,16,12,223,11,11,13,10,5,28,5,17,13,0,226
17,17,12,7,22,46,30,8,465,11,18,16,24,6,55,13,26,42,0,413
21,7,13,16,20,53,38,0,818,24,26,29,36,5,78,13,37,49,5,684
6,2,5,5,5,17,8,7,139,3,4,7,12,0,29,2,9,10,0,118
12,14,12,17,9,41,28,11,389,16,20,16,18,2,40,17,18,37,0,349
14,8,12,21,20,35,31,10,413,11,16,13,21,3,43,5,29,71,0,352
16,8,4,16,12,42,32,0,907,2,16,11,15,5,54,7,13,54,2,858
29,15,17,27,41,60,23,17,567,15,24,24,28,1,76,14,30,74,0,510
20,34,15,25,32,83,45,0,903,9,29,20,19,5,68,32,34,72,20,849
13,14,19,23,33,42,50,13,624,13,30,26,31,4,50,22,41,52,0,562
5,26,14,15,20,70,29,14,689,12,22,27,23,29,74,17,10,27,0,641
17,6,14,8,24,42,12,0,1045,1,23,13,26,37,51,9,10,27,4,967
9,6,8,6,9,32,25,62,953,8,12,12,18,22,52,6,13,59,0,908
14,23,13,7,17,72,35,7,775,7,25,14,36,46,77,18,10,32,0,698
12,12,7,6,26,59,28,0,727,7,28,12,18,22,55,12,3,24,13,683
29,34,16,12,18,76,38,0,679,5,32,16,30,52,99,15,17,34,6,596
23,15,26,20,24,56,43,40,778,48,29,28,29,12,67,12,21,38,0,741
8,27,10,9,25,59,39,2,789,14,22,18,10,11,74,22,13,25,0,759
23,7,5,15,10,23,16,0,288,10,6,7,21,3,30,9,9,21,0,271
21,23,16,6,18,54,31,8,481,38,27,28,32,0,61,16,12,34,0,410
6,23,19,9,8,40,15,0,467,23,16,12,14,4,53,17,9,17,0,422
10,16,12,19,29,38,28,25,726,83,30,19,21,1,57,16,14,20,0,642
24,10,15,25,26,32,17,0,590,13,22,21,36,13,52,7,20,32,9,514
9,8,13,3,2,18,16,18,223,9,10,13,16,2,26,2,10,16,0,206
12,25,13,10,31,62,33,15,574,20,36,16,20,6,67,22,19,41,0,528
13,13,5,15,7,38,35,1,538,6,18,25,24,3,38,7,10,26,0,508
7,6,8,12,9,28,21,3,396,22,19,5,9,0,33,7,13,25,0,357
13,10,6,9,13,40,13,9,419,6,16,12,26,10,50,14,17,24,0,357
8,0,2,3,8,15,7,0,164,2,10,6,6,0,13,1,9,6,2,152
49,24,28,32,35,87,47,21,784,21,27,35,66,54,100,23,45,44,0,692
8,6,0,9,15,22,16,21,961,1,15,16,15,15,31,2,7,12,0,944
9,11,3,23,17,21,33,0,920,7,23,23,23,18,39,5,20,34,7,838
10,13,6,10,37,69,42,0,768,12,39,21,13,32,90,11,11,35,16,675
15,13,10,17,27,71,30,6,836,19,30,18,29,27,80,12,25,31,0,754
19,23,6,17,40,62,38,0,845,10,42,26,22,59,72,23,32,37,8,719
39,29,17,30,35,64,71,21,1209,33,35,40,58,82,80,15,47,45,0,1080
33,15,17,16,33,55,41,0,823,18,24,28,45,34,84,17,28,37,2,716
18,17,9,18,15,42,41,3,556,13,24,19,38,23,62,12,20,17,0,491
20,13,11,15,24,33,25,0,510,16,25,23,28,27,39,7,30,27,14,415
8,6,7,5,12,31,18,0,451,21,9,16,8,5,50,6,13,20,3,387
1,5,2,2,6,22,20,1,377,7,16,8,2,8,19,6,2,16,0,352
11,3,4,4,4,20,11,4,204,3,2,7,4,0,9,1,0,41,0,198
32,8,17,28,35,58,43,25,588,16,47,27,37,1,72,2,53,41,0,538
15,19,15,29,33,44,30,11,791,13,27,35,38,7,65,16,23,35,0,728
28,23,15,18,26,54,43,0,575,21,32,25,38,8,57,17,24,39,2,519
10,8,8,9,2,28,20,0,302,8,1,13,10,2,34,7,5,26,3,278
18,25,9,24,27,74,32,0,947,16,30,34,24,15,96,18,15,55,2,851
26,27,23,37,31,70,33,0,1024,24,27,40,46,14,102,16,17,45,15,925
9,38,5,15,17,55,24,0,633,21,17,19,11,3,57,27,9,27,15,590
8,27,2,16,23,78,28,0,556,12,24,13,5,4,104,15,5,38,23,495
12,7,16,10,9,11,14,8,109,8,4,5,19,0,20,4,22,11,0,103
42,15,29,30,27,58,42,1,622,22,27,25,64,6,83,19,45,40,0,535
49,19,34,33,51,63,39,0,817,25,55,43,74,4,85,12,43,66,5,693
11,9,14,18,21,29,35,1,504,14,22,18,15,0,40,16,19,29,0,469
11,4,7,6,15,20,16,21,247,7,24,13,15,1,35,5,11,19,0,217
14,29,6,9,27,36,34,0,640,7,24,21,25,14,52,24,8,53,1,566
21,15,9,12,9,22,28,0,628,9,10,13,30,7,55,22,15,24,10,549
26,14,10,11,25,68,28,28,746,12,26,23,38,9,78,11,21,36,0,702
19,10,9,8,10,17,18,15,324,15,11,11,26,3,41,9,9,21,0,284
3,1,4,4,3,12,1,3,129,4,7,7,6,0,30,1,5,5,0,95
17,19,15,14,22,50,27,17,304,25,17,15,29,8,47,19,8,38,0,279
15,13,6,13,7,32,19,0,209,11,8,12,13,3,40,12,4,10,17,184
28,11,17,15,17,68,40,0,567,26,19,27,49,7,80,9,26,27,9,484
17,19,14,19,26,60,68,20,791,25,29,29,49,10,57,21,44,42,0,728
6,8,4,4,7,10,10,6,168,10,3,10,10,1,27,4,15,11,0,132
5,3,0,7,2,10,8,0,179,7,1,8,16,6,20,4,6,5,1,140
20,12,28,30,18,51,37,11,703,43,27,37,17,10,77,20,21,37,0,621
21,21,20,15,29,63,51,1,772,31,23,34,26,13,82,33,22,47,0,682
42,24,35,42,24,62,93,0,1108,67,38,44,58,9,99,20,42,66,28,959
10,4,8,5,6,8,4,4,121,7,6,4,15,4,11,4,14,8,0,97
40,15,30,21,22,54,34,13,481,44,27,32,54,12,70,11,26,33,0,401
53,37,18,53,40,90,50,31,1158,62,53,75,58,11,129,31,31,61,0,1019
3,1,0,4,1,9,1,0,93,0,1,8,1,0,13,0,1,3,1,84
7,11,8,8,6,22,14,0,257,11,10,13,21,9,41,8,0,10,8,202
1,0,1,1,2,1,6,3,72,3,2,2,2,0,5,0,1,3,0,69
18,4,15,19,10,26,18,8,296,21,12,24,19,6,41,8,14,26,0,243
7,3,1,2,2,4,2,2,62,4,4,4,6,0,10,1,1,2,0,53
1,2,4,0,4,6,1,0,77,1,1,6,0,1,13,4,5,5,7,52
2,1,1,6,3,8,8,8,71,2,10,2,2,2,14,0,1,5,0,70
3,0,6,7,2,11,7,9,241,6,4,7,6,1,26,0,4,5,0,227
9,10,11,8,22,33,14,0,383,17,22,17,7,8,41,11,12,9,2,344
39,20,18,26,17,63,32,29,821,48,15,34,47,14,94,19,35,38,0,721
15,11,15,9,18,28,33,0,434,19,18,17,14,7,36,22,19,32,2,377
13,6,7,8,8,24,27,24,226,22,21,8,13,8,33,4,14,30,0,190
10,2,4,6,5,17,11,9,177,13,7,9,11,4,33,12,4,13,0,135
3,2,2,5,0,8,9,0,81,4,3,5,2,1,15,2,2,14,0,62
11,17,24,23,13,60,21,3,407,21,21,25,10,5,74,17,12,57,0,337
57,15,57,57,12,49,32,5,471,27,13,32,59,4,55,20,141,34,0,370
30,4,14,13,15,41,24,11,358,23,16,14,37,5,59,8,16,41,0,291
37,31,39,37,32,99,51,9,984,52,44,43,77,20,154,27,22,50,0,830
6,9,6,7,8,16,15,0,134,8,5,12,6,2,16,23,2,10,6,111
