A7,A9,A997,A998,A999,B1,B1114,B720,B687,B7,B768,B47,B997,B998,B999
581,376,0,69,359,57,27,63,64,42,165,30,61,0,876
592,510,0,0,526,122,38,87,47,41,132,18,71,22,1050
243,262,0,23,165,52,13,45,59,18,60,12,49,0,385
321,302,0,0,193,43,27,35,74,23,94,19,62,12,427
332,286,0,0,225,21,23,47,64,13,96,10,44,0,525
272,149,0,9,131,15,19,15,53,5,90,4,17,0,343
573,395,0,16,448,45,31,54,106,14,151,11,49,0,971
70,11,0,9,57,0,3,3,0,1,5,2,16,0,117
341,150,0,5,252,4,10,11,20,15,54,5,94,0,535
104,54,0,1,40,14,4,6,8,3,36,9,21,0,98
105,59,0,0,70,18,7,10,10,1,17,12,15,1,143
84,25,0,0,22,10,7,1,2,4,18,1,11,0,77
59,10,0,4,13,4,0,3,0,2,23,0,7,0,47
193,103,0,5,131,20,4,17,13,2,66,2,29,0,279
320,129,0,0,567,6,23,18,84,2,67,16,18,30,752
383,198,0,27,406,23,21,12,91,7,90,21,28,0,721
69,15,0,7,61,0,4,0,11,5,18,3,2,0,109
37,12,0,3,18,2,1,1,5,2,8,3,0,0,48
65,15,0,4,43,5,2,3,10,2,14,2,6,0,83
258,127,0,3,199,17,14,20,23,10,65,1,24,0,413
454,168,0,0,293,28,11,21,23,16,108,4,25,2,677
369,262,0,19,271,48,12,40,71,10,103,8,26,0,603
355,252,0,2,343,41,17,24,58,16,106,8,48,0,634
502,437,0,31,238,61,54,68,113,23,185,14,76,0,614
247,165,0,11,99,29,8,15,34,14,80,19,19,0,304
213,107,0,22,127,17,17,31,29,9,69,19,26,0,252
241,247,0,0,231,34,13,37,54,10,92,17,51,14,397
344,232,0,22,168,36,26,50,54,12,90,33,44,0,421
116,90,0,0,66,7,8,11,22,6,31,8,10,2,167
341,86,0,0,381,10,18,19,22,7,74,9,27,22,600
308,96,0,0,391,11,11,16,11,4,78,12,22,33,597
347,183,0,0,207,28,13,25,38,19,83,3,49,6,473
531,411,0,20,302,65,26,55,67,16,175,9,128,0,723
460,322,0,21,289,71,15,39,47,23,122,15,57,0,703
383,204,0,0,239,47,30,27,28,12,95,15,35,11,526
369,227,0,0,779,46,22,39,53,11,79,8,57,16,1044
343,242,0,31,240,53,21,30,30,22,69,14,38,0,579
295,259,0,0,287,34,10,27,36,26,69,10,23,26,580
305,301,0,0,222,56,13,24,56,8,116,1,51,8,495
26,33,0,0,16,2,1,8,10,3,4,2,11,1,33
78,22,0,0,23,1,7,6,3,3,28,2,16,3,54
149,66,0,1,122,5,2,12,4,6,33,10,36,0,230
256,131,0,0,206,5,12,20,20,6,75,7,52,0,396
284,241,0,94,254,54,20,38,45,12,58,17,71,0,558
436,339,0,53,276,75,19,45,45,24,127,16,53,0,700
283,212,0,6,164,20,23,40,35,20,84,14,52,0,377
356,281,0,22,153,30,18,58,68,7,101,13,56,0,461
107,63,0,9,69,15,6,4,6,2,40,1,8,0,166
262,186,0,0,168,48,9,30,33,15,77,10,25,5,364
212,98,0,0,109,17,10,16,24,14,36,5,16,6,275
135,90,0,4,57,21,4,11,10,5,33,5,21,0,176
401,311,0,24,243,49,22,44,76,22,96,8,75,0,587
221,143,0,3,219,12,10,27,33,12,50,7,43,0,392
455,272,0,0,403,44,16,18,49,9,99,14,43,101,737
57,7,0,12,34,0,4,2,3,3,12,3,8,0,75
77,21,0,0,69,7,2,1,5,0,7,7,9,8,121
117,37,0,12,106,0,6,9,5,4,33,7,12,0,196
137,55,0,0,128,7,2,17,12,17,29,12,11,5,208
119,94,0,8,52,14,2,9,14,5,28,5,31,0,165
104,90,0,0,102,18,5,7,10,5,10,0,5,2,234
564,357,0,0,453,59,23,25,39,8,138,9,64,7,1002
557,351,0,28,367,60,28,41,58,11,117,10,89,0,889
333,404,0,29,324,83,16,28,27,42,101,14,40,0,739
459,407,0,13,456,97,28,45,68,13,111,6,43,0,924
465,347,0,0,387,82,19,31,56,14,98,2,49,1,847
404,288,0,25,372,66,22,24,29,5,87,11,40,0,805
367,294,0,0,466,49,6,29,48,7,101,3,39,13,832
277,179,0,0,230,40,7,14,29,7,82,6,18,0,483
306,215,0,16,203,46,10,21,30,6,76,15,61,0,475
174,127,0,7,101,17,11,10,22,45,33,11,22,0,238
527,323,0,38,323,35,23,63,67,126,133,22,39,0,703
686,416,0,84,469,76,29,63,103,51,155,13,59,0,1106
388,309,0,6,209,63,12,55,48,19,131,13,71,0,500
471,312,0,65,296,33,15,47,74,13,110,9,52,0,791
503,334,0,36,274,23,20,33,73,15,87,15,232,0,649
370,204,0,0,286,25,13,20,42,10,114,3,35,12,586
404,209,0,0,288,27,15,36,40,8,111,10,38,1,615
365,271,0,64,205,15,11,72,76,22,102,6,49,0,552
113,70,0,0,48,8,5,6,9,2,33,6,21,0,141
270,135,0,0,174,13,8,15,28,12,52,7,44,18,382
624,510,0,39,430,158,27,54,90,32,160,20,84,0,978
93,30,0,2,65,6,10,3,4,1,14,3,24,0,125
103,63,0,1,51,10,8,15,18,8,32,3,15,0,109
280,276,0,34,173,97,19,32,25,10,82,14,60,0,424
200,123,0,7,185,14,12,16,14,5,61,3,21,0,369
583,281,0,4,422,55,37,29,189,6,108,13,31,0,822
535,278,0,28,428,48,22,28,62,12,118,4,79,0,896
360,316,0,0,309,34,9,35,66,11,87,13,81,14,635
646,547,0,14,356,36,20,75,133,26,278,45,83,0,867
30,10,0,3,24,1,2,0,6,0,11,1,2,0,44
33,11,0,0,27,0,3,1,1,0,7,0,5,9,45
110,36,0,0,88,7,6,10,0,4,26,6,13,12,150
93,16,0,7,38,1,5,4,0,2,24,7,9,0,102
299,196,0,39,274,18,16,33,21,10,61,9,56,0,584
461,200,0,0,533,26,19,27,36,14,96,26,47,48,855
69,26,0,0,73,3,8,4,3,1,13,2,2,8,124
175,75,0,0,148,12,4,9,10,6,43,6,29,24,255
388,174,0,4,396,26,12,23,31,10,95,20,27,0,718
364,183,0,0,407,24,16,20,35,4,94,16,39,33,673
451,162,0,3,341,22,15,32,29,12,98,21,38,0,690
147,146,0,8,120,16,2,15,34,6,26,5,27,0,290
106,145,0,23,110,48,1,8,9,12,13,1,12,0,280
300,423,0,12,317,169,14,19,21,27,30,10,82,0,680
229,273,0,9,218,64,16,25,28,13,57,7,22,0,497
118,111,0,0,108,30,1,2,0,4,30,1,13,37,219
381,576,0,44,497,115,22,41,29,47,104,12,38,0,1090
590,411,0,3,389,88,40,73,68,48,113,35,82,0,846
259,185,0,58,215,60,24,43,38,14,49,10,49,0,430
303,211,0,0,194,42,7,32,36,12,84,7,43,7,438
288,217,0,0,215,59,6,19,20,10,91,8,30,6,471
83,23,0,0,78,0,3,0,5,1,12,0,8,20,135
263,211,0,29,200,61,8,27,30,64,62,8,14,0,429
346,299,0,16,274,43,11,31,35,15,82,4,158,0,556
316,86,0,0,166,16,15,16,23,9,63,3,28,5,390
18,25,0,0,7,1,1,2,9,0,12,0,7,4,14
215,92,0,5,139,9,14,13,14,4,62,13,29,0,293
240,118,0,0,163,64,17,32,18,10,67,14,11,5,283
98,28,0,0,90,5,8,6,9,1,12,9,6,1,159
342,178,0,0,214,73,19,12,33,11,66,2,24,3,491
316,240,0,6,251,83,17,31,33,16,77,3,35,0,518
128,39,0,0,37,13,1,11,3,1,33,0,51,2,89
279,219,0,25,225,20,22,40,50,14,80,38,24,0,460
379,139,0,19,256,32,25,38,22,9,102,44,24,0,497
230,177,0,0,179,23,13,22,13,11,54,12,29,6,403
155,49,0,0,89,0,8,6,11,4,34,6,18,3,203
47,10,0,0,16,0,8,2,6,0,12,3,7,1,34
209,73,0,31,162,4,17,23,9,4,46,7,17,0,348
323,154,0,6,263,4,26,36,42,6,73,13,43,0,503
105,26,0,4,71,0,9,1,2,1,8,2,14,0,169
87,19,0,0,55,2,4,3,4,0,16,7,22,4,99
34,16,0,0,26,1,0,2,8,0,6,5,10,5,39
68,25,0,0,39,3,3,5,0,3,21,2,14,6,75
55,30,0,0,34,9,1,1,0,1,27,1,4,5,70
100,30,0,0,112,6,11,7,2,0,30,6,7,6,167
60,18,0,9,66,0,2,1,0,0,19,5,2,0,124
59,23,0,1,32,1,3,8,1,1,5,7,13,0,76
194,139,0,0,130,4,9,12,19,13,38,5,19,46,298
138,61,0,6,108,8,5,8,3,9,37,6,14,0,223
108,91,0,0,121,8,2,9,9,1,21,15,25,16,214
108,78,0,0,92,0,12,20,12,5,31,13,11,21,153
113,47,0,1,103,5,8,10,15,0,14,5,25,0,182
237,160,0,53,121,20,23,37,22,16,53,14,41,0,345
83,69,0,7,77,30,4,8,1,3,17,4,2,0,167
415,205,0,17,213,29,18,25,29,17,121,21,46,0,544
84,67,0,12,66,19,5,16,10,9,18,5,15,0,132
390,350,0,26,254,63,22,63,43,13,84,24,61,0,647
436,392,0,27,346,63,29,53,77,31,126,19,73,0,730
801,400,0,49,526,56,47,57,68,35,177,16,109,0,1211
289,246,0,60,230,36,20,65,56,16,58,15,78,0,481
204,263,0,25,108,36,20,36,87,12,63,6,46,0,294
120,70,0,6,91,19,9,13,11,9,25,2,15,0,184
85,86,0,0,43,19,4,12,15,2,21,3,16,0,122
351,266,0,23,207,63,29,26,53,20,66,9,63,0,518
220,85,0,46,161,20,8,18,15,6,34,3,46,0,362
209,104,0,20,134,15,14,13,13,9,33,11,76,0,283
217,237,0,40,153,45,12,28,33,5,56,2,70,0,396
335,240,0,17,237,41,19,28,25,14,59,11,75,0,557
358,172,0,2,181,21,13,37,23,21,88,21,32,0,457
284,178,0,44,183,22,22,29,43,15,95,10,52,0,401
348,146,0,0,470,21,15,9,17,4,82,22,79,20,695
356,315,0,0,238,39,21,44,37,23,74,25,95,3,548
433,158,0,8,330,10,29,21,25,36,63,33,70,0,642
269,62,0,9,477,7,13,7,8,6,33,4,21,0,718
68,19,0,0,40,6,2,1,1,0,14,1,12,11,79
345,258,0,0,273,59,15,32,38,4,60,12,65,7,584
208,127,0,7,172,11,3,11,21,9,53,8,39,0,359
63,24,0,0,39,5,3,4,4,1,13,3,6,3,84
71,39,0,4,60,5,3,7,13,2,12,1,10,0,121
355,188,0,8,197,8,17,21,54,16,113,17,91,0,411
248,93,0,0,126,24,8,14,12,5,40,1,35,1,327
125,219,0,0,134,32,6,13,27,14,35,2,11,6,332
429,527,0,0,478,69,18,57,43,45,94,17,47,0,1044
373,433,0,0,360,62,12,30,33,28,55,9,22,26,889
224,184,0,40,134,31,24,36,61,8,56,4,28,0,334
240,120,0,0,180,23,10,30,26,4,60,9,28,11,339
636,499,0,16,535,35,46,65,111,42,146,24,98,0,1119
439,227,0,12,207,17,16,61,40,18,89,20,99,0,525
195,153,0,48,141,14,14,46,54,15,82,9,39,0,264
408,385,0,0,431,34,26,64,80,23,122,14,48,129,684
504,420,0,158,329,35,36,70,115,17,142,25,74,0,897
266,97,0,0,490,5,16,16,25,18,105,20,16,22,610
2,6,0,0,107,0,0,0,0,0,2,0,2,0,111
420,289,0,23,324,19,31,42,73,38,136,21,39,0,657
152,55,0,0,378,1,13,17,7,18,35,9,16,4,465
123,65,0,0,50,5,7,5,19,2,46,3,11,7,133
94,42,0,0,268,2,6,12,3,2,21,3,10,18,327
140,184,0,147,815,11,8,37,95,17,48,6,31,0,1033
264,99,0,46,221,2,16,23,30,14,74,11,22,0,438
222,103,0,0,237,10,10,38,18,7,84,14,16,20,345
282,110,0,4,232,12,14,23,34,14,67,17,11,0,436
488,385,0,97,450,53,34,68,90,17,157,31,63,0,907
165,105,0,4,164,8,7,17,29,5,44,2,20,0,306
320,249,0,34,247,12,30,46,84,15,95,15,41,0,512
134,89,0,26,160,7,9,22,22,9,45,12,18,0,265
197,162,0,0,152,8,17,26,41,6,85,8,24,17,279
251,152,0,0,266,10,29,32,27,9,73,24,19,7,439
115,36,0,0,482,5,9,4,10,10,24,1,5,68,497
237,82,0,0,227,16,22,23,18,3,60,15,17,0,372
204,99,0,0,268,11,11,31,12,8,59,17,18,63,341
166,176,0,8,163,15,11,33,45,8,60,8,26,0,307
176,131,0,0,155,9,9,21,45,11,70,15,23,14,245
519,275,0,0,357,14,23,50,59,20,177,43,63,19,683
430,303,0,0,616,37,36,46,65,29,109,10,60,49,908
451,235,0,0,549,28,31,67,43,20,106,27,60,3,850
349,164,0,0,634,17,28,30,27,17,101,30,31,15,851
372,253,0,12,384,33,21,47,55,21,118,15,42,0,669
229,115,0,0,495,9,13,25,26,9,39,0,20,75,623
161,79,0,0,431,8,13,21,21,11,42,5,17,0,533
410,175,0,0,682,5,38,26,36,16,114,7,37,11,977
394,255,0,17,261,13,35,54,48,25,133,20,47,0,552
433,313,0,28,230,73,30,69,73,40,141,30,43,0,505
454,344,0,6,478,32,32,56,86,38,159,26,68,0,785
605,384,0,64,342,29,32,54,57,22,181,46,202,0,772
386,320,0,65,215,40,25,56,94,47,134,26,78,0,486
429,403,0,51,348,55,22,85,96,33,130,30,72,0,708
657,559,0,100,415,106,46,90,172,43,205,41,89,0,939
384,142,0,0,753,8,30,30,21,17,72,32,35,24,1010
627,376,0,58,360,20,39,81,102,12,183,36,72,0,876
417,237,0,33,289,29,29,27,79,21,141,23,59,0,568
481,407,0,48,281,63,24,81,133,27,149,53,70,0,617
133,217,0,0,164,9,5,56,62,10,42,7,40,27,256
150,233,0,0,173,22,12,46,62,16,44,7,33,4,310
118,199,0,1,185,21,7,59,53,14,36,10,34,0,269
232,278,0,0,252,16,14,44,98,16,85,22,40,16,411
145,142,0,0,158,10,16,36,36,8,42,8,16,8,265
148,131,0,0,178,12,8,27,25,7,57,9,18,15,279
168,197,0,0,234,12,6,31,56,5,56,6,41,12,374
155,221,0,29,142,13,8,44,82,6,49,8,38,0,299
271,228,0,0,401,20,21,54,65,8,83,20,44,53,532
314,138,0,0,301,7,22,25,32,22,86,18,31,15,495
175,98,0,0,202,7,11,32,14,16,52,8,19,8,308
314,152,0,0,279,6,18,29,18,10,96,19,30,35,484
294,110,0,6,270,6,25,24,15,3,82,7,25,0,493
249,137,0,1,249,8,13,26,30,10,89,15,22,0,423
190,159,0,12,263,7,20,37,42,6,70,10,28,0,404
270,195,0,0,287,4,19,36,51,12,94,13,36,26,461
241,162,0,0,358,10,11,29,40,3,43,6,35,80,504
59,35,0,95,595,1,7,3,6,0,11,6,0,0,750
311,226,0,0,435,15,23,34,56,6,62,21,37,26,692
349,194,0,0,387,2,23,42,38,15,110,24,28,7,641
219,121,0,10,234,10,24,23,23,6,67,11,19,0,401
212,128,0,3,204,8,18,30,18,8,65,13,25,0,362
283,145,0,0,328,8,17,39,16,7,85,19,31,31,503
290,189,0,0,289,4,25,42,45,10,75,14,44,12,497
201,82,0,30,304,6,16,25,9,9,42,14,19,0,477
176,93,0,6,273,6,20,12,18,8,52,12,19,0,401
249,138,0,3,516,9,21,20,33,4,54,12,21,0,732
79,52,0,12,328,9,4,5,5,6,17,5,11,0,409
254,120,0,10,196,9,21,19,29,8,68,10,19,0,397
241,148,0,0,221,7,23,10,28,9,78,14,23,20,398
305,171,0,36,408,5,19,37,54,6,82,13,38,0,666
87,38,0,48,522,3,7,5,4,7,16,4,6,0,643
293,145,0,0,377,16,26,30,26,11,90,29,40,14,533
220,138,0,0,176,9,32,17,24,23,76,10,29,11,303
195,154,0,0,151,11,14,45,28,11,62,9,22,3,295
77,145,0,31,114,4,3,33,55,3,32,3,23,0,211
41,78,0,10,82,2,2,18,19,2,12,2,12,0,142
82,138,0,12,198,8,3,28,41,6,31,6,20,0,287
179,237,0,0,1561,16,22,42,72,2,51,6,28,26,1712
150,82,0,0,123,7,17,21,8,3,39,3,14,0,243
245,151,0,0,242,6,8,36,38,2,75,13,25,27,408
240,166,0,0,334,19,20,32,30,7,75,13,21,23,500
316,205,0,0,289,11,23,36,49,10,92,19,18,23,529
215,221,0,0,286,20,16,54,58,6,75,14,30,6,443
398,274,0,0,416,23,24,43,60,25,126,19,59,22,687
447,218,0,0,429,19,38,45,37,11,91,12,44,32,765
386,202,0,0,467,11,36,56,35,9,74,13,30,19,772
343,167,0,0,328,9,28,34,20,9,102,19,25,10,582
321,117,0,0,341,3,22,19,19,6,68,10,17,23,592
337,143,0,0,309,6,33,32,19,11,77,7,20,13,571
343,142,0,0,315,6,25,27,21,12,69,9,40,31,560
322,80,0,5,266,6,16,15,16,19,83,17,23,0,478
348,166,0,0,339,10,33,25,42,15,89,20,24,17,578
349,148,0,0,323,16,19,27,36,12,79,16,27,20,568
342,160,0,0,284,19,22,23,28,13,101,12,27,20,521
373,171,0,4,315,18,29,33,30,17,90,24,32,0,590
347,192,0,0,260,19,42,37,38,11,95,11,39,6,501
413,162,0,0,385,9,26,34,29,14,101,27,33,63,624
320,245,0,0,287,20,26,39,58,23,100,18,38,25,505
365,242,0,0,268,31,23,45,49,25,95,11,37,2,557
337,167,0,0,269,13,20,25,33,18,89,18,32,29,496
327,166,0,0,270,15,28,32,38,16,86,23,31,28,466
326,170,0,0,322,16,24,37,17,11,86,10,20,46,551
313,128,0,0,269,2,22,25,25,17,90,19,25,19,466
313,165,0,1,257,5,11,42,32,19,103,27,31,0,466
313,138,0,0,342,13,8,32,21,16,85,11,22,6,579
328,139,0,0,350,5,28,25,33,18,97,11,21,10,569
354,139,0,0,321,6,25,32,16,13,87,16,26,24,569
332,117,0,0,317,10,27,25,13,8,82,15,30,7,549
303,158,0,0,248,14,26,41,36,20,104,19,23,4,422
367,201,0,0,339,18,29,41,40,18,87,12,43,16,603
323,200,0,0,290,13,12,36,41,14,67,9,41,3,577
304,172,0,10,287,17,24,29,38,14,70,16,41,0,524
291,188,0,0,299,7,25,30,29,17,65,9,44,26,526
333,170,0,0,362,9,21,30,43,8,55,11,38,25,625
280,135,0,0,242,10,22,30,27,7,82,12,19,15,433
370,270,0,18,289,23,23,39,61,17,144,16,48,0,576
345,146,0,0,308,5,17,37,28,10,100,12,25,0,565
330,161,0,0,271,2,23,28,26,15,97,18,24,20,509
336,137,0,0,263,6,21,17,22,5,106,16,25,19,499
309,117,0,0,343,7,27,25,29,11,77,14,19,7,553
329,174,0,0,282,14,30,43,35,13,96,20,19,0,515
345,148,0,0,288,10,34,24,32,18,94,22,26,22,499
304,134,0,0,283,8,26,28,20,17,76,18,13,11,504
305,96,0,0,283,6,27,27,24,8,77,10,10,18,477
228,115,0,0,297,13,18,20,17,10,67,15,11,3,466
339,127,0,0,427,2,27,31,34,13,100,13,36,33,604
398,225,0,0,287,13,23,38,36,23,127,15,30,40,565
349,144,0,0,312,16,27,23,32,21,93,17,31,14,531
360,190,0,0,249,11,27,32,37,13,110,21,34,16,498
318,135,0,0,378,7,28,27,28,12,54,11,23,34,607
371,175,0,11,292,24,26,25,38,11,96,24,38,0,567
369,172,0,0,309,13,21,31,28,23,109,16,22,6,581
379,159,0,0,258,11,25,24,33,18,124,28,28,12,493
363,119,0,0,413,6,30,32,35,13,62,12,34,0,671
333,261,0,0,251,18,25,47,74,15,113,13,36,28,476
364,272,0,11,450,7,37,44,35,21,87,8,49,0,809
377,169,0,0,422,11,29,42,37,13,75,16,34,3,708
331,165,0,0,339,7,24,41,30,9,86,5,42,9,582
428,249,0,0,429,10,29,52,51,21,78,19,35,30,781
378,265,0,0,377,19,27,82,54,18,90,9,47,3,671
381,227,0,0,394,7,35,45,52,9,111,26,47,27,643
288,157,0,0,339,15,16,33,16,5,78,10,21,40,550
272,94,0,0,606,9,16,11,14,11,46,10,21,18,816
220,113,0,0,483,5,17,19,18,6,54,7,18,14,658
79,28,0,0,62,2,3,0,5,10,23,10,8,23,85
267,242,0,0,175,22,23,39,55,17,90,11,30,3,394
257,186,0,0,331,9,19,42,35,10,59,7,26,71,496
205,113,0,0,245,11,12,21,19,6,59,15,21,25,374
308,99,0,3,416,4,21,17,19,14,69,10,28,0,644
359,138,0,1,309,14,37,29,25,12,81,16,36,0,557
261,142,0,0,356,12,16,18,26,12,67,7,20,27,554
428,139,0,0,442,9,35,32,10,12,89,12,46,33,731
434,172,0,27,453,7,32,47,30,16,95,11,58,0,790
461,148,0,0,400,8,45,40,32,17,91,9,45,10,712
349,149,0,0,396,6,33,33,25,19,73,9,31,32,633
273,124,0,0,347,4,21,23,21,10,69,8,30,2,556
383,160,0,0,509,8,31,23,25,14,73,21,23,16,818
366,118,0,0,196,9,27,22,12,15,106,22,20,0,447
338,175,0,2,244,6,28,39,34,10,98,23,24,0,497
365,148,0,8,269,4,29,40,32,17,100,18,35,0,515
330,143,0,0,245,16,28,41,25,21,102,19,26,0,440
114,41,0,0,76,1,5,7,5,4,27,7,7,8,160
275,149,0,0,247,9,24,29,34,13,70,14,19,14,445
384,151,0,0,333,16,11,31,27,21,107,25,33,8,589
579,255,0,0,4918,7,49,46,55,27,100,17,50,108,5293
344,154,0,0,332,12,24,37,35,15,89,16,30,1,571
433,223,0,0,452,13,27,46,63,18,134,20,31,35,721
254,152,0,2,353,10,28,31,28,14,55,7,39,0,549
374,185,0,2,320,13,22,31,33,11,95,21,37,0,618
307,180,0,0,188,17,12,14,41,40,85,33,28,48,357
250,139,0,0,154,8,18,33,30,20,60,12,30,13,319
244,129,0,0,192,14,18,25,30,23,63,21,31,12,328
264,139,0,0,184,14,14,32,30,33,77,16,29,22,320
296,139,0,0,244,5,13,16,13,29,93,11,25,3,471
311,204,0,0,209,14,17,37,37,54,58,13,29,10,455
217,89,0,12,359,11,13,15,13,19,37,10,13,0,546
253,104,0,0,208,7,22,21,19,13,60,17,19,7,380
341,144,0,0,266,9,27,30,37,15,79,15,42,36,461
193,83,0,0,137,2,17,19,9,8,49,7,7,25,270
384,244,0,0,2245,25,18,40,42,11,79,10,46,124,2478
341,438,0,0,259,52,23,72,154,11,124,16,77,10,499
346,181,0,0,287,6,23,36,30,16,85,12,33,42,531
281,153,0,0,246,8,30,28,30,13,73,17,19,30,432
267,217,0,0,212,16,17,52,55,8,77,14,29,13,415
313,149,0,0,259,5,10,32,18,16,95,16,19,34,476
233,159,0,0,116,10,8,18,34,17,82,10,21,16,292
220,173,0,0,205,15,10,28,50,47,66,10,35,17,320
235,165,0,0,183,7,11,18,36,32,71,11,33,32,332
180,107,0,6,135,10,10,16,18,18,50,10,21,0,275
225,124,0,5,161,8,15,32,16,27,50,16,27,0,324
196,124,0,0,228,8,6,15,29,14,48,15,23,27,363
229,113,0,0,249,7,14,35,31,8,42,12,38,12,392
171,75,0,1,208,7,15,10,11,14,36,7,13,0,342
227,122,0,0,200,4,13,14,29,16,63,13,16,9,372
241,166,0,0,350,11,21,39,34,17,70,14,35,13,503
308,156,0,0,386,13,25,31,31,7,73,6,21,43,600
214,106,0,0,331,3,15,26,16,7,44,9,20,30,481
238,125,0,0,447,11,18,30,21,7,58,10,25,35,595
180,131,0,0,156,19,13,21,28,12,60,5,28,0,281
194,139,0,9,123,19,13,27,29,12,44,21,37,0,263
220,95,0,0,287,3,13,18,18,9,60,13,14,32,422
244,140,0,0,309,16,19,26,35,7,69,7,25,5,484
271,142,0,0,274,13,7,42,29,8,53,13,23,14,485
206,202,0,0,163,17,6,32,47,15,81,4,41,7,321
224,144,0,0,261,11,13,28,25,12,48,8,23,42,419
255,97,0,0,230,2,11,25,21,9,59,12,29,27,387
204,66,0,0,301,10,8,10,18,8,47,9,14,28,419
167,90,0,0,527,5,12,23,17,6,42,8,23,22,626
222,85,0,0,483,8,7,14,20,8,47,15,13,31,627
275,151,0,0,233,9,11,34,36,13,88,19,24,46,379
294,118,0,0,256,20,19,18,26,12,88,11,21,38,415
263,127,0,0,196,7,24,20,16,13,60,11,25,18,392
197,106,0,4,154,16,14,16,27,6,62,8,29,0,283
263,155,0,0,253,12,13,30,26,9,71,10,40,16,444
253,214,0,0,250,17,18,30,52,18,85,19,34,28,416
318,202,0,0,293,14,17,39,45,11,83,19,23,4,558
336,159,0,0,271,12,13,28,26,19,112,15,28,22,491
270,175,0,0,259,6,11,24,36,14,84,12,24,65,428
243,150,0,0,345,3,20,28,32,11,51,17,29,51,496
329,169,0,3,283,15,14,33,33,23,111,19,37,0,499
223,120,0,0,146,16,10,16,16,11,66,12,18,26,298
230,128,0,27,191,11,22,36,25,8,47,8,17,0,402
281,130,0,0,189,7,27,26,33,17,74,14,28,26,348
301,278,0,0,254,15,19,53,66,23,112,17,48,4,476
249,137,0,8,215,15,15,40,21,10,80,6,20,0,402
243,150,0,22,239,13,22,23,48,5,73,6,25,0,439
263,150,0,18,291,10,13,27,23,14,71,10,29,0,525
137,122,0,0,131,13,6,30,13,12,43,8,14,7,244
250,137,0,0,180,17,18,26,38,6,64,14,25,1,358
200,202,0,0,143,19,8,37,50,8,82,7,35,16,283
226,128,0,0,217,6,8,19,29,11,48,9,34,22,385
345,177,0,0,256,14,11,32,39,22,82,15,43,24,496
198,122,0,9,135,8,5,33,30,12,59,15,23,0,279
213,116,0,4,150,8,13,22,23,21,40,11,17,0,328
310,192,0,8,252,19,20,22,30,22,100,18,37,0,494
280,188,0,0,187,14,13,25,34,24,62,9,34,12,428
244,130,0,0,196,9,15,17,20,9,56,18,25,13,388
209,161,0,0,117,15,7,26,31,36,59,14,18,15,266
271,200,0,0,211,7,17,35,47,34,74,22,45,9,392
293,166,0,0,203,14,14,35,33,26,76,23,29,7,405
274,168,0,0,188,10,14,26,22,24,61,13,26,22,412
421,303,0,0,326,20,34,61,53,36,102,12,58,29,645
333,239,0,0,305,19,23,55,50,19,66,18,51,31,545
259,96,0,10,662,9,25,17,25,4,44,14,15,0,874
136,72,0,0,234,5,15,22,16,7,38,4,19,5,311
259,124,0,0,860,12,27,24,24,5,53,23,31,12,1032
432,209,0,26,549,19,33,45,55,30,94,33,51,0,856
215,80,0,35,775,6,12,14,10,7,48,6,10,0,992
358,80,0,18,371,5,20,16,15,6,117,17,22,0,609
310,228,0,25,269,28,31,44,59,11,116,16,37,0,490
322,224,0,0,283,12,39,43,68,13,82,15,40,1,516
241,228,0,14,156,19,23,34,48,15,68,18,32,0,382
329,267,0,35,196,33,28,49,81,11,117,13,41,0,454
371,162,0,37,193,23,19,30,52,12,130,25,45,0,427
214,104,0,0,230,16,11,24,24,9,66,13,20,29,336
367,206,0,5,452,15,34,35,46,24,117,16,45,0,698
594,196,0,0,402,24,28,34,36,23,157,36,45,24,785
362,169,0,0,365,7,28,26,68,22,91,21,33,1,599
427,352,0,26,290,35,32,38,118,27,145,16,92,0,592
208,115,0,10,246,10,14,7,21,9,39,5,72,0,402
371,350,0,18,251,26,27,65,98,22,123,21,76,0,532
496,337,0,3,511,22,29,55,85,18,136,15,60,0,927
487,398,0,32,331,44,44,46,126,27,138,18,60,0,745
386,401,0,49,275,43,13,56,115,67,153,27,67,0,570
416,385,0,26,267,81,37,43,113,19,99,35,51,0,616
338,369,0,12,260,121,25,34,71,31,124,22,46,0,505
427,389,0,16,345,49,27,77,108,15,158,30,51,0,662
620,563,0,31,363,88,53,103,148,44,199,47,101,0,794
292,146,0,23,236,27,25,28,9,3,57,11,28,0,509
380,391,0,11,251,93,25,44,54,28,94,6,31,0,658
327,352,0,28,285,73,9,32,54,23,99,12,36,0,654
227,170,0,36,120,43,9,20,22,10,59,3,19,0,368
169,89,0,13,95,6,6,13,17,13,31,9,48,0,223
347,173,0,0,248,18,28,38,31,20,77,22,44,5,485
340,135,0,0,263,11,26,18,13,30,93,29,22,56,440
408,160,0,0,275,28,25,30,27,18,115,21,26,19,534
269,126,0,0,241,14,24,33,14,14,72,17,26,45,377
333,156,0,0,317,10,20,21,20,19,90,9,34,12,571
365,146,0,0,303,9,25,25,20,25,103,26,36,24,521
337,166,0,0,310,28,23,41,23,23,96,21,41,4,513
300,98,0,0,243,7,13,25,14,7,71,15,24,11,454
327,89,0,0,318,8,25,14,15,17,70,16,18,36,515
272,83,0,25,279,4,18,25,17,18,72,13,13,0,479
323,113,0,10,395,11,17,17,14,32,73,16,20,0,641
320,99,0,0,316,14,18,26,21,21,83,20,14,3,515
333,160,0,12,305,10,28,28,16,18,90,30,29,0,561
130,115,0,0,133,24,7,14,29,7,30,4,15,21,227
290,115,0,14,297,14,12,26,17,16,75,18,24,0,514
339,114,0,0,316,21,18,22,17,18,61,25,24,11,552
285,96,0,0,277,7,14,22,9,13,64,8,14,15,492
322,103,0,3,317,10,16,20,18,22,67,15,28,0,549
261,98,0,5,249,16,11,15,10,13,64,19,10,0,455
298,114,0,0,302,9,20,30,21,24,81,21,13,2,493
306,161,0,17,333,13,21,27,34,21,78,26,22,0,575
280,112,0,5,333,4,29,17,18,13,71,13,16,0,549
176,55,0,0,284,5,11,18,10,16,30,10,13,0,402
291,85,0,12,355,9,13,18,13,14,56,16,22,0,582
311,169,0,0,287,10,12,26,20,6,43,23,34,23,570
402,164,0,0,2193,13,24,29,23,17,87,17,18,111,2420
253,82,0,17,346,9,16,9,12,11,54,11,18,0,558
229,128,0,0,320,10,10,32,15,8,58,12,22,24,486
462,165,0,0,554,14,38,30,20,20,64,12,46,62,875
283,82,0,7,284,12,28,9,16,8,68,15,19,0,481
373,131,0,0,263,21,19,18,23,6,100,16,22,16,526
391,192,0,0,415,18,32,42,23,20,76,17,28,18,724
423,226,0,0,306,35,17,34,36,27,142,18,37,10,599
366,107,0,0,344,13,31,16,15,16,83,13,15,32,583
272,78,0,0,342,9,19,11,8,10,52,3,13,35,532
267,144,0,10,207,20,28,25,25,19,74,15,22,0,400
362,263,0,0,186,27,18,41,60,21,97,23,37,17,470
375,222,0,10,204,28,20,30,26,28,102,24,30,0,523
166,172,0,38,96,18,13,35,31,12,58,20,34,0,251
357,143,0,7,213,20,25,31,18,35,115,23,26,0,427
323,169,0,11,220,7,29,24,34,20,92,21,33,0,463
270,131,0,0,197,26,27,31,23,19,80,14,23,5,350
325,130,0,0,216,15,15,29,16,21,81,18,25,14,437
328,147,0,0,260,19,23,25,21,14,84,13,22,13,501
289,150,0,12,241,25,13,36,19,10,76,14,18,0,481
366,178,0,0,229,21,25,43,26,15,112,18,27,8,478
234,113,0,0,211,19,17,18,9,19,66,13,25,1,371
305,107,0,3,265,3,19,22,19,9,100,12,30,0,466
427,355,0,52,250,44,33,78,84,16,118,11,115,0,585
334,170,0,43,174,59,23,34,33,22,83,19,35,0,413
345,138,0,0,388,6,31,37,11,14,58,6,27,33,648
353,124,0,0,455,9,31,28,11,12,83,17,22,54,665
310,143,0,0,257,7,14,36,15,15,97,24,29,7,466
331,123,0,0,192,9,21,18,17,26,112,26,28,9,380
476,300,0,12,297,48,25,40,44,27,144,34,65,0,658
330,143,0,78,460,14,19,26,18,12,90,11,11,0,810
454,173,0,34,453,10,38,58,27,14,95,16,36,0,820
348,129,0,0,402,9,35,20,16,11,66,12,30,34,646
361,180,0,0,214,29,27,39,30,22,130,17,20,18,423
370,152,0,0,248,19,14,26,23,18,131,24,27,10,478
335,169,0,8,221,11,22,27,24,18,100,27,31,0,473
362,176,0,0,256,22,12,29,30,18,112,26,36,19,490
416,147,0,0,392,33,15,19,13,21,101,28,17,25,683
116,18,0,0,519,4,11,3,5,2,16,10,4,68,530
77,8,0,0,456,2,4,3,4,1,13,3,5,42,464
257,52,0,0,356,7,19,1,10,9,47,9,12,50,501
103,30,0,0,441,1,5,4,3,3,10,4,1,74,469
266,52,0,0,538,11,25,8,7,7,39,12,12,50,685
414,313,0,50,276,94,32,41,52,22,91,6,68,0,647
162,90,0,0,181,14,11,24,12,3,30,10,4,10,315
329,151,0,51,223,17,18,27,18,7,51,19,45,0,552
504,376,0,40,382,103,31,46,50,18,98,13,64,0,879
222,344,0,21,186,65,16,38,34,32,65,3,21,0,499
117,58,0,20,80,4,13,3,16,3,26,4,15,0,191
78,39,0,0,99,4,4,2,6,3,19,3,18,6,151
68,22,0,0,38,3,4,1,7,1,18,3,1,10,80
459,287,0,0,393,64,16,31,44,1,95,6,34,34,814
459,321,0,5,290,82,12,34,49,25,124,5,49,0,695
303,162,0,19,131,17,15,12,66,7,104,11,39,0,344
533,370,0,38,344,82,20,57,58,23,132,17,60,0,836
207,209,0,41,139,38,15,31,60,14,69,12,42,0,315
85,78,0,2,61,9,2,16,9,0,21,2,37,0,130
249,113,0,9,169,14,6,8,14,7,53,13,58,0,367
147,66,0,27,71,6,5,2,5,1,20,2,66,0,204
216,107,0,13,121,23,8,14,22,13,58,10,39,0,270
199,112,0,6,153,25,1,10,20,5,34,1,32,0,342
262,166,0,7,164,20,8,22,49,17,66,12,29,0,376
424,161,0,40,313,10,14,44,38,24,117,16,49,0,626
224,151,0,8,108,27,9,28,20,11,70,12,19,0,295
208,170,0,0,121,40,10,18,39,9,67,11,33,0,272
283,343,0,35,160,104,23,41,56,21,76,10,44,0,446
264,323,0,22,172,94,24,63,51,13,93,9,58,0,376
252,217,0,15,148,41,18,22,40,14,69,21,24,0,383
641,303,0,0,543,40,35,70,66,19,118,25,63,0,1051
118,73,0,4,75,21,9,14,5,5,37,9,7,0,163
234,130,0,23,157,12,25,15,36,19,62,10,39,0,326
303,100,0,8,185,16,52,23,22,5,69,24,20,0,365
293,140,0,37,179,15,35,30,26,13,65,21,37,0,407
342,217,0,17,308,46,25,37,32,10,64,13,51,0,606
178,220,0,16,158,40,8,35,36,10,52,5,29,0,357
383,214,0,18,195,19,18,48,60,18,80,57,56,0,454
314,228,0,24,212,34,22,59,46,21,72,15,56,0,453
344,182,0,0,230,54,25,37,22,14,78,22,35,2,467
582,496,0,64,360,56,43,64,107,40,171,44,90,0,887
145,62,0,17,117,4,12,6,7,8,39,5,27,0,233
297,88,0,0,302,6,16,9,4,15,38,14,23,13,549
80,35,0,10,71,5,4,6,12,1,6,1,7,0,154
83,31,0,0,84,6,3,5,3,0,15,4,8,4,150
184,148,0,4,88,26,9,19,27,16,64,15,23,0,225
337,173,0,18,169,19,29,31,46,17,96,21,36,0,402
131,34,0,0,143,4,8,3,7,1,26,4,24,23,208
166,50,0,23,99,1,10,12,5,6,37,11,19,0,237
62,26,0,0,43,0,1,2,8,1,18,5,10,1,85
617,480,0,180,429,58,47,110,114,46,147,24,106,0,1054
97,33,0,15,44,5,5,6,5,2,21,5,29,0,111
254,165,0,24,169,15,21,26,23,16,81,16,56,0,358
248,219,0,5,152,20,8,35,51,17,70,14,70,0,339
297,130,0,2,124,15,8,18,23,15,75,11,25,0,363
89,35,0,13,158,3,3,4,5,0,25,5,5,0,245
270,178,0,11,163,68,9,39,35,10,54,10,28,0,369
190,88,0,6,655,6,20,16,13,3,41,11,23,0,806
262,115,0,0,234,3,15,14,15,4,44,14,14,24,464
321,164,0,0,353,4,23,25,37,7,92,15,33,8,594
376,194,0,0,309,7,21,28,39,11,118,25,53,15,562
265,102,0,0,177,7,19,10,15,14,74,16,20,20,349
182,85,0,0,234,6,25,11,23,6,45,9,16,21,339
279,174,0,10,173,9,8,19,52,5,98,19,24,0,402
297,190,0,2,224,7,16,22,29,10,84,14,36,0,495
300,168,0,0,391,13,24,29,25,9,61,15,48,13,622
312,145,0,0,390,6,23,18,15,9,52,16,47,6,655
311,143,0,0,334,9,18,31,17,9,78,9,26,37,554
244,80,0,0,287,2,17,10,14,7,35,18,11,29,468
233,106,0,0,329,8,16,17,21,3,69,15,28,17,474
252,98,0,0,212,4,17,15,17,5,73,18,32,10,371
262,110,0,0,324,7,15,17,21,13,57,17,16,0,533
282,129,0,0,264,1,20,24,13,10,87,20,36,3,461
102,22,0,0,79,3,6,1,3,1,13,3,16,6,151
112,66,0,2,141,13,3,3,15,0,25,4,6,0,252
66,39,0,6,57,8,3,11,3,0,23,11,5,0,104
435,184,0,30,302,9,39,29,22,12,91,21,41,0,687
351,89,0,9,341,4,32,12,15,10,103,13,26,0,575
331,132,0,0,310,4,17,23,26,18,79,17,31,19,539
382,149,0,0,454,7,25,16,25,10,98,6,54,16,728
83,18,0,0,69,1,1,2,1,3,8,1,4,8,141
148,60,0,0,144,3,5,7,1,6,38,10,18,0,264
410,176,0,0,497,6,33,27,19,6,77,27,56,19,813
145,40,0,0,97,6,5,9,8,2,42,5,10,9,186
309,73,0,8,225,4,28,8,16,10,56,30,20,0,443
112,30,0,0,93,2,5,8,18,2,31,6,8,8,147
339,115,0,0,357,6,26,19,19,12,68,26,22,16,597
364,125,0,0,353,10,18,17,26,7,81,18,37,26,602
88,25,0,0,66,0,3,4,5,1,12,11,4,18,121
201,99,0,0,227,14,7,10,16,3,37,15,15,9,401
101,53,0,17,62,5,6,9,7,5,22,11,20,0,148
131,50,0,5,108,1,3,14,3,8,30,11,12,0,212
128,32,0,0,115,4,6,4,5,1,36,15,8,29,167
440,158,0,0,451,10,14,10,26,13,85,19,25,24,823
73,43,0,5,119,1,9,16,6,4,17,9,10,0,168
372,167,0,0,348,9,21,14,23,8,90,12,53,35,622
114,50,0,9,116,4,8,6,5,0,24,7,15,0,220
62,78,0,0,53,2,4,15,16,2,14,5,9,1,125
250,183,0,0,210,21,15,14,39,14,78,28,27,0,407
341,175,0,0,327,13,24,31,38,9,72,33,36,15,572
91,48,0,0,85,3,3,13,4,1,19,7,8,9,157
292,162,0,18,297,9,22,27,23,6,57,20,22,0,583
325,144,0,1,272,23,15,21,30,4,74,30,32,0,513
381,156,0,0,268,11,17,13,21,10,84,38,24,15,572
318,204,0,0,243,19,30,25,53,14,86,20,32,4,482
277,110,0,11,203,14,10,13,20,12,72,22,8,0,430
363,99,0,0,306,3,30,22,12,10,91,27,19,13,541
318,100,0,8,305,10,15,9,18,11,100,21,15,0,532
247,87,0,19,206,5,20,8,10,11,65,19,14,0,407
271,112,0,0,214,15,18,21,19,5,64,9,20,12,414
279,118,0,0,203,11,25,19,17,10,54,26,19,18,401
439,309,0,15,347,22,25,42,66,21,102,34,55,0,743
342,159,0,0,260,25,23,17,25,9,84,18,38,8,514
299,165,0,0,164,18,17,17,34,7,76,31,33,4,391
316,211,0,29,309,15,19,27,43,5,60,26,52,0,618
228,127,0,0,414,14,10,17,24,6,58,28,24,40,548
221,130,0,7,240,17,10,20,31,11,56,15,15,0,423
242,113,0,0,244,7,14,9,18,12,64,21,22,6,426
360,222,0,14,328,28,17,35,37,17,92,33,33,0,632
116,20,0,0,89,2,8,6,5,5,29,11,5,5,149
175,44,0,3,151,4,10,3,9,5,34,4,31,0,273
376,121,0,0,329,9,20,16,25,2,75,20,34,1,624
214,46,0,0,132,3,11,6,6,11,44,18,19,1,273
175,65,0,11,162,6,11,14,25,1,44,5,19,0,288
171,36,0,0,162,1,9,4,3,4,35,13,15,7,278
90,53,0,26,104,5,4,7,8,0,28,7,13,0,201
458,193,0,8,344,8,18,23,25,18,94,34,29,0,754
553,278,0,0,488,47,23,40,41,27,157,40,48,60,836
300,98,0,12,434,5,16,14,23,11,52,16,20,0,687
165,67,0,16,181,8,12,13,15,4,35,10,48,0,284
89,33,0,0,67,4,8,5,7,5,24,7,20,9,100
43,35,0,0,51,4,5,2,7,4,13,5,3,0,86
249,142,0,0,215,14,11,15,20,16,57,16,24,14,419
365,160,0,0,275,9,12,28,18,39,81,18,46,23,526
209,101,0,27,482,12,9,25,16,13,26,2,31,0,685
294,176,0,0,329,20,8,25,33,29,73,8,18,12,573
183,90,0,0,181,2,10,29,18,12,42,14,22,9,296
288,148,0,7,288,11,17,36,21,24,48,7,31,0,536
227,109,0,3,253,8,12,31,18,16,52,5,18,0,432
253,179,0,11,220,10,10,22,34,28,53,7,27,0,472
209,95,0,0,219,11,6,19,16,7,44,4,22,0,394
49,19,0,3,42,0,3,3,2,1,10,6,9,0,79
267,103,0,4,241,10,12,26,23,13,78,11,22,0,420
61,20,0,13,93,6,1,10,3,4,7,8,10,0,138
227,53,0,11,209,3,18,6,2,1,51,8,43,0,368
187,39,0,0,205,13,7,5,4,5,43,4,8,9,333
179,41,0,3,107,2,10,6,6,1,45,12,30,0,218
199,51,0,7,176,2,6,9,12,2,34,17,15,0,336
242,82,0,0,147,1,14,29,2,14,53,4,23,12,319
380,100,0,11,282,10,15,15,19,16,124,29,27,0,518
395,149,0,25,275,7,21,12,20,5,71,18,62,0,628
125,77,0,22,152,6,4,16,10,2,30,10,16,0,282
218,95,0,0,150,6,13,19,16,4,75,13,9,4,304
161,84,0,0,187,1,7,14,14,14,40,11,12,27,292
204,66,0,0,183,2,10,13,21,9,44,8,10,13,323
324,85,0,0,446,3,22,9,11,14,69,19,16,73,619
286,134,0,0,245,6,15,19,28,16,83,14,22,6,456
259,108,0,0,351,3,15,17,13,14,92,16,19,18,511
114,43,0,0,107,4,3,2,8,2,35,18,10,3,179
401,208,0,0,374,20,15,21,32,8,84,10,91,6,696
358,207,0,4,289,27,26,29,26,31,73,23,35,0,588
328,260,0,3,194,37,17,50,52,21,91,18,24,0,475
266,132,0,0,265,14,20,25,21,26,67,10,18,35,427
229,186,0,0,213,25,14,33,22,30,72,9,26,19,378
289,147,0,35,337,24,34,18,16,30,68,25,23,0,570
193,93,0,0,313,12,7,9,17,18,31,9,17,29,450
249,206,0,0,215,12,15,33,32,26,61,15,25,12,439
278,149,0,13,368,23,7,18,19,29,46,17,21,0,628
272,145,0,0,274,16,20,23,21,28,39,11,33,48,452
295,145,0,0,235,28,24,33,20,48,55,10,21,20,416
511,297,0,74,336,41,22,59,62,43,131,23,47,0,790
521,336,0,82,323,72,36,82,47,50,138,33,50,0,754
271,217,0,11,175,56,13,32,26,28,89,14,34,0,382
194,181,0,25,118,32,17,34,20,20,67,10,32,0,286
278,219,0,4,291,27,25,52,35,26,63,8,40,0,516
217,205,0,0,225,21,15,36,33,26,54,9,30,41,382
276,140,0,0,246,23,14,29,14,35,62,9,18,5,453
413,178,0,39,451,19,38,39,30,30,83,22,28,0,792
282,116,0,0,250,17,20,23,13,18,77,6,27,6,441
265,218,0,0,241,34,21,39,39,29,62,18,32,6,444
320,207,0,0,228,30,23,43,20,38,61,17,37,20,466
271,144,0,0,211,29,18,28,12,18,72,14,39,11,385
307,172,0,0,259,25,16,27,30,30,84,13,39,20,454
229,170,0,5,131,55,14,31,22,19,99,11,33,0,251
251,158,0,0,153,48,10,31,22,18,65,16,25,56,271
230,124,0,0,191,12,11,15,10,27,31,7,28,21,383
283,188,0,0,279,31,15,36,37,29,60,9,32,4,497
342,115,0,0,208,18,17,19,18,45,80,43,17,10,398
224,161,0,0,169,27,13,31,28,30,46,10,16,35,318
251,137,0,0,184,14,14,34,13,27,51,8,23,9,379
225,113,0,0,191,17,11,15,8,16,42,10,29,38,343
253,132,0,0,301,13,11,24,27,15,49,14,24,23,486
282,195,0,0,258,28,18,33,31,33,70,11,27,25,459
259,134,0,11,210,19,15,26,31,23,78,7,31,0,384
250,150,0,3,296,29,15,24,18,28,50,6,14,0,515
497,476,0,69,368,83,45,105,112,30,163,23,68,0,781
293,134,0,0,387,20,21,21,25,21,42,7,19,18,620
358,200,0,0,350,32,33,38,25,25,61,9,36,29,620
344,240,0,0,304,26,16,47,42,25,79,16,33,10,594
220,140,0,0,169,13,12,27,11,23,55,10,17,25,336
418,344,0,34,248,74,24,72,97,38,137,13,65,0,524
458,232,0,0,523,22,41,47,21,31,64,13,28,45,901
397,207,0,0,456,22,30,40,23,30,69,10,33,29,774
438,224,0,7,388,39,38,43,22,34,100,19,29,0,733
485,261,0,0,515,20,33,43,21,32,82,11,50,17,952
190,181,0,19,140,23,8,29,38,19,67,9,29,0,308
205,125,0,3,99,24,5,18,15,26,76,13,24,0,231
136,104,0,0,218,7,8,15,13,5,25,5,25,17,338
326,159,0,0,180,31,14,30,17,40,99,30,24,6,374
139,54,0,0,337,1,13,10,8,7,22,5,10,69,385
408,215,0,39,419,35,29,34,34,32,100,22,44,0,751
306,207,0,21,289,30,20,37,31,31,62,14,42,0,556
383,352,0,39,248,49,35,80,57,24,100,32,39,0,606
229,190,0,4,157,39,26,26,47,17,58,16,33,0,318
646,434,0,31,437,50,36,80,88,44,141,36,65,0,1008
397,310,0,41,261,35,24,45,80,26,123,37,61,0,578
467,320,0,41,262,52,42,48,62,42,108,28,56,0,652
483,359,0,42,295,55,39,50,83,29,158,31,77,0,657
304,166,0,33,236,47,20,37,37,16,58,12,39,0,473
109,79,0,0,62,10,3,9,5,6,25,3,7,5,177
387,322,0,11,298,30,14,43,48,44,75,11,31,0,722
429,468,0,33,396,54,31,52,86,38,83,5,58,0,919
268,310,0,9,367,32,9,32,69,21,49,14,29,0,699
224,168,0,0,126,30,20,32,42,6,51,13,30,42,252
476,357,0,71,371,117,42,59,74,30,126,26,108,0,693
531,408,0,24,294,125,32,71,45,39,130,35,53,0,727
543,384,0,21,357,124,37,62,45,17,134,33,60,0,793
452,268,0,27,346,41,49,36,56,10,105,26,67,0,703
503,240,0,0,291,45,35,32,40,22,110,30,79,0,641
382,267,0,26,233,36,16,28,53,14,82,26,47,0,606
353,245,0,0,458,25,27,39,27,23,79,26,84,14,712
498,351,0,0,370,47,30,50,50,44,100,25,82,38,753
324,211,0,51,135,27,26,44,48,15,91,15,69,0,386
395,323,0,27,275,52,14,47,54,15,137,22,71,0,608
426,296,0,0,288,27,29,41,57,28,104,25,68,24,607
367,297,0,7,224,50,28,47,57,36,99,26,94,0,458
126,83,0,0,90,11,6,9,14,20,19,5,27,0,188
444,301,0,20,267,47,21,57,82,25,124,26,70,0,580
217,147,0,8,131,30,11,26,20,13,58,8,43,0,294
508,367,0,2,334,92,19,31,53,17,110,23,77,0,789
352,274,0,49,256,32,14,50,39,15,84,47,82,0,568
439,312,0,24,293,33,36,49,55,12,102,54,67,0,660
84,59,0,0,66,6,6,4,5,3,30,1,9,3,142
226,416,0,0,247,130,8,16,21,45,48,9,23,12,577
316,542,0,0,291,106,16,31,31,63,68,8,22,107,697
190,472,0,0,373,65,20,25,31,60,54,5,14,25,736
260,452,0,11,300,103,6,22,40,66,65,6,17,0,698
109,85,0,0,62,18,11,6,18,7,36,4,19,2,135
300,196,0,2,186,43,15,30,35,8,83,11,36,0,423
523,428,0,0,320,108,32,41,57,34,100,25,59,1,814
173,150,0,3,118,34,9,17,20,14,50,7,15,0,278
298,310,0,46,158,31,34,56,94,19,98,22,49,0,409
417,365,0,19,280,81,28,59,101,23,136,17,65,0,571
317,268,0,30,247,24,21,43,39,12,70,12,85,0,556
435,311,0,1,311,51,24,43,61,12,87,11,100,0,669
189,133,0,10,110,17,7,23,37,12,53,4,23,0,266
488,337,0,53,297,34,38,57,60,27,132,15,77,0,735
391,280,0,20,286,37,26,47,45,16,114,21,51,0,620
356,462,0,0,335,147,23,45,26,46,138,21,57,54,596
319,395,0,35,290,134,30,41,67,38,151,15,53,0,510
280,302,0,0,350,89,24,52,27,38,121,15,35,14,517
498,352,0,0,386,88,21,53,44,23,112,24,68,88,715
386,245,0,0,241,58,21,29,52,17,78,18,32,3,564
183,125,0,9,99,34,14,24,34,21,50,14,22,0,203
440,419,0,35,255,57,22,76,102,43,162,38,87,0,562
444,351,0,41,330,55,44,70,79,33,105,44,84,0,652
357,237,0,0,345,24,20,40,45,13,58,38,36,31,634
370,198,0,9,330,15,18,38,45,20,79,36,32,0,624
433,272,0,17,402,20,17,41,58,24,106,36,67,0,755
515,396,0,71,312,109,35,69,67,32,122,25,87,0,748
441,338,0,39,239,74,27,44,72,25,88,26,72,0,629
272,208,0,6,169,26,20,27,32,18,81,10,50,0,391
135,78,0,0,75,12,13,10,10,3,34,5,30,11,160
383,320,0,30,295,38,23,46,81,32,102,38,105,0,563
413,293,0,30,247,20,24,50,71,17,86,23,80,0,612
188,143,0,0,155,22,6,19,16,26,32,10,26,23,306
395,359,0,20,349,49,27,52,87,22,132,13,45,0,696
576,291,0,56,390,47,55,50,48,43,166,31,58,0,815
572,445,0,1,341,95,27,80,84,29,146,37,58,0,803
133,119,0,2,136,16,10,14,27,4,38,6,17,0,258
216,188,0,20,204,31,7,14,34,8,56,6,17,0,455
316,273,0,20,232,34,24,31,30,24,51,13,18,0,616
390,332,0,0,401,30,30,29,32,25,81,11,34,91,760
188,95,0,29,239,17,8,10,9,5,45,11,11,0,435
332,281,0,0,245,53,23,46,36,22,71,10,18,7,572
284,205,0,23,265,64,21,29,25,21,75,10,20,0,512
145,77,0,0,253,10,6,7,15,4,36,3,12,39,343
277,348,0,13,255,62,22,44,42,18,68,3,37,0,597
309,354,0,0,268,49,10,29,52,18,87,5,35,3,643
205,207,0,33,207,23,4,21,32,16,71,6,19,0,460
322,225,0,0,438,40,15,19,32,10,102,8,20,46,693
129,73,0,22,92,19,11,11,8,3,32,6,10,0,216
85,98,0,1,78,15,1,5,15,3,34,3,12,0,174
345,178,0,0,348,23,17,17,19,16,66,18,21,45,629
291,199,0,30,247,34,15,24,32,9,54,3,21,0,575
269,172,0,20,201,42,14,27,10,18,70,1,32,0,448
319,252,0,4,278,15,23,40,40,27,77,22,24,0,585
383,254,0,22,1423,40,27,29,27,15,76,17,29,0,1822
318,260,0,0,256,25,20,28,33,20,93,8,40,7,560
299,234,0,0,240,17,16,25,17,28,91,13,21,7,538
287,181,0,0,269,11,15,17,16,18,99,12,28,28,493
273,206,0,34,251,11,15,35,22,14,66,13,29,0,559
303,200,0,0,308,15,13,15,27,18,94,10,22,35,562
326,194,0,0,489,17,10,34,17,15,84,12,23,50,747
273,197,0,0,311,12,19,22,20,16,79,8,33,26,546
213,353,0,56,183,27,13,43,70,14,71,7,33,0,527
232,245,0,0,191,17,7,22,34,11,83,7,27,13,447
199,213,0,28,191,56,8,36,31,13,68,10,24,0,385
338,184,0,1,315,24,16,19,17,15,77,6,38,0,626
305,146,0,0,380,24,37,26,10,23,55,9,26,7,614
291,173,0,0,289,17,12,21,24,23,80,5,23,4,544
192,81,0,18,260,14,14,8,14,8,51,5,15,0,422
231,106,0,0,335,17,23,16,8,5,59,7,12,16,509
161,95,0,19,330,12,13,6,5,9,28,9,7,0,516
647,523,0,82,380,68,45,96,107,30,225,38,141,0,882
574,298,0,11,342,32,31,39,56,23,155,30,85,0,774
480,230,0,0,573,15,24,34,29,21,88,30,62,35,945
353,230,0,0,324,14,27,43,34,16,82,14,54,37,586
535,335,0,38,328,40,26,72,91,36,173,27,90,0,681
530,356,0,66,352,35,46,57,48,37,161,17,111,0,792
272,92,0,26,323,4,15,15,12,30,59,7,19,0,552
325,108,0,1,273,12,19,18,13,44,79,11,18,0,493
348,100,0,0,280,2,18,18,7,54,83,12,18,7,509
372,177,0,0,206,13,6,29,19,52,56,16,17,104,443
486,164,0,0,381,14,35,28,14,58,129,26,26,23,678
259,102,0,0,198,2,17,8,13,25,53,13,27,7,394
117,24,0,0,639,1,5,1,0,7,19,8,9,65,665
249,102,0,5,352,14,15,15,13,35,51,12,21,0,532
357,111,0,0,334,0,18,28,10,41,85,18,23,8,571
276,75,0,0,348,4,21,13,14,33,60,14,20,15,505
275,69,0,10,365,4,20,14,8,17,63,18,15,0,560
301,107,0,19,282,12,16,15,13,37,85,9,24,0,498
340,75,0,42,313,6,22,22,10,25,65,11,28,0,581
327,80,0,5,252,4,13,15,19,44,74,22,31,0,442
372,103,0,0,379,7,21,24,13,40,61,25,19,53,591
394,127,0,0,332,4,23,20,14,66,78,21,29,32,566
325,96,0,0,319,6,9,20,15,42,83,21,15,12,517
314,83,0,0,315,3,14,15,15,33,64,15,19,26,508
288,79,0,0,231,7,17,15,5,30,51,11,16,10,436
257,82,0,0,370,3,19,11,10,27,54,11,15,25,534
332,81,0,0,229,4,19,19,12,55,63,19,21,3,427
283,126,0,0,283,11,14,17,25,47,56,17,22,9,474
351,104,0,5,216,10,16,28,15,34,65,27,23,0,458
397,267,0,26,220,21,18,59,54,82,118,26,37,0,495
358,105,0,0,440,5,27,22,16,55,64,13,22,11,668
297,107,0,0,270,3,20,24,8,30,58,20,15,40,456
294,86,0,8,240,1,20,26,11,33,56,19,15,0,447
317,72,0,0,433,3,17,10,7,29,53,12,14,25,652
259,78,0,0,351,8,13,14,17,28,46,14,12,14,522
269,81,0,0,171,4,30,17,7,27,57,12,20,0,347
313,86,0,0,343,2,21,15,8,28,57,13,8,9,581
300,152,0,10,339,9,19,20,17,36,74,22,16,0,588
340,87,0,0,335,6,16,8,11,24,50,26,13,29,579
342,94,0,0,267,6,17,12,11,40,80,15,24,36,462
299,92,0,0,335,6,16,22,5,27,51,21,18,22,538
275,112,0,18,356,6,21,18,13,29,36,13,18,0,607
328,90,0,0,338,4,22,12,11,34,58,16,16,14,569
366,158,0,0,368,7,18,28,16,47,84,29,30,25,608
301,67,0,0,269,4,20,15,7,26,58,11,14,17,465
357,97,0,0,353,5,20,24,10,43,56,23,10,63,553
316,78,0,0,336,2,25,15,6,36,53,28,15,15,535
311,78,0,0,345,3,11,7,7,30,50,14,24,30,558
326,63,0,0,411,4,19,15,4,27,65,21,21,52,572
505,243,0,47,295,28,17,33,50,68,110,19,43,0,722
459,213,0,82,224,25,22,42,48,83,103,14,40,0,601
233,80,0,0,181,9,11,18,12,27,55,15,9,22,316
112,69,0,0,59,12,5,12,16,20,33,8,3,9,122
218,51,0,0,548,11,13,5,2,17,46,14,7,73,629
217,38,0,0,332,3,7,10,2,13,19,6,8,91,428
164,42,0,0,485,2,16,8,2,8,27,13,6,76,533
301,85,0,4,279,7,9,21,10,40,54,13,18,0,497
448,149,0,0,412,16,31,14,21,25,85,23,40,24,730
477,297,0,6,290,36,25,49,48,26,85,18,60,0,723
438,289,0,18,341,56,25,27,48,32,93,16,61,0,728
405,260,0,19,254,66,19,35,49,7,102,21,33,0,606
287,204,0,24,204,37,19,29,63,5,68,1,25,0,472
190,161,0,23,120,42,8,34,31,17,47,11,18,0,286
284,189,0,24,182,45,16,13,61,6,71,11,31,0,425
348,364,0,29,260,96,18,38,78,16,78,7,22,0,648
268,181,0,0,208,44,11,15,37,18,58,12,25,16,421
174,208,0,0,271,45,15,34,55,5,47,4,25,33,390
367,297,0,0,345,68,24,20,64,18,95,15,36,28,641
338,179,0,0,479,36,20,34,20,6,54,16,25,14,771
384,135,0,0,554,15,26,18,21,6,77,15,26,31,838
384,169,0,3,486,27,27,24,19,8,64,11,13,0,849
370,358,0,0,330,64,20,52,58,18,94,18,37,78,619
309,251,0,1,316,47,18,33,52,19,104,7,36,0,561
321,236,0,11,255,58,11,38,45,17,76,12,22,0,544
369,204,0,0,303,40,22,26,29,17,116,13,16,35,562
329,184,0,0,326,38,19,21,31,10,87,13,25,24,571
362,162,0,0,436,18,42,20,19,12,80,15,20,32,702
173,158,0,20,169,29,14,14,45,16,52,3,15,0,332
266,199,0,0,326,43,12,29,42,14,60,7,17,1,566
319,244,0,0,1071,41,25,38,41,6,69,11,16,67,1320
200,190,0,0,240,28,15,36,52,11,46,9,32,3,398
251,93,0,22,158,7,21,18,15,3,41,22,26,0,371
223,80,0,33,112,7,20,10,20,7,37,13,26,0,308
498,195,0,21,351,5,47,40,27,26,122,19,37,0,742
678,337,0,21,495,26,49,40,45,32,147,51,54,0,1087
308,106,0,0,152,23,22,10,17,13,78,12,27,10,354
380,190,0,23,203,15,35,28,37,38,77,20,40,0,506
355,140,0,12,268,17,23,26,25,25,72,8,33,0,546
361,120,0,13,230,12,48,12,21,26,72,9,32,0,492
658,286,0,22,513,23,34,43,42,34,149,38,64,0,1052
478,241,0,0,366,32,39,37,56,66,99,17,33,29,677
428,134,0,8,378,8,27,24,23,53,64,10,31,0,708
476,297,0,14,357,19,29,51,55,97,108,15,31,0,739
491,295,0,28,427,10,28,35,62,92,69,17,36,0,892
435,157,0,0,471,3,31,34,22,51,54,9,21,15,823
327,85,0,0,370,3,8,11,16,57,54,13,10,69,541
331,119,0,0,477,5,21,28,19,36,71,18,7,22,700
335,172,0,18,341,9,21,23,20,57,71,16,16,0,633
397,143,0,0,474,3,26,34,9,56,90,27,22,41,706
386,104,0,0,336,1,32,26,18,42,55,12,10,22,608
350,156,0,3,335,9,34,27,25,40,77,8,27,0,597
341,125,0,4,273,3,29,22,18,41,77,12,24,0,517
389,171,0,0,319,13,35,25,19,67,75,13,17,1,614
373,167,0,0,1330,10,31,23,18,56,51,12,20,71,1578
328,126,0,31,307,10,26,31,17,67,59,10,14,0,558
368,233,0,3,287,15,35,33,48,71,70,15,21,0,583
189,77,0,7,115,9,17,7,15,36,50,20,3,0,231
234,111,0,0,152,24,15,18,23,36,27,7,12,5,330
286,73,0,9,607,10,32,18,8,13,29,13,23,0,829
343,110,0,27,498,5,24,12,19,26,55,17,29,0,791
277,132,0,13,158,4,41,19,21,25,56,11,34,0,369
366,137,0,13,375,7,42,24,40,16,83,25,46,0,608
335,123,0,0,332,2,29,13,13,22,56,17,25,35,578
145,77,0,19,230,4,10,25,26,9,23,8,9,0,357
222,68,0,8,215,6,18,14,9,11,45,9,15,0,386
482,158,0,0,557,2,56,29,9,26,41,11,44,44,935
388,95,0,0,447,3,23,18,11,16,55,20,34,23,727
430,127,0,0,520,3,35,24,13,15,53,17,41,46,830
333,89,0,0,328,0,31,26,11,24,52,19,23,22,542
343,85,0,0,335,5,41,23,4,9,44,8,23,14,592
431,100,0,0,472,4,36,25,14,31,70,24,30,27,742
358,108,0,0,328,1,30,20,22,30,71,12,37,8,563
355,136,0,11,315,11,49,28,16,24,50,20,33,0,586
406,119,0,0,366,8,35,24,15,31,71,24,16,15,652
369,100,0,0,359,8,28,10,12,24,49,30,28,30,609
283,56,0,0,445,7,26,7,6,16,37,12,10,27,636
396,128,0,0,384,5,21,31,19,25,63,20,38,11,675
359,100,0,0,306,6,31,16,12,13,56,17,28,44,542
343,86,0,0,296,4,22,11,5,15,49,12,29,19,559
361,163,0,62,245,19,35,25,31,23,65,17,41,0,575
349,81,0,0,261,1,23,15,12,16,61,25,21,114,403
283,74,0,0,401,7,19,21,6,12,38,17,22,25,591
299,106,0,0,302,8,14,25,10,13,65,27,22,19,504
436,89,0,0,406,12,17,18,19,31,90,35,35,25,649
410,128,0,6,301,7,19,27,19,20,71,23,34,0,625
375,141,0,5,191,10,29,26,18,18,68,25,47,0,471
482,280,0,16,349,21,43,47,58,44,119,18,44,0,733
591,319,0,11,506,56,47,55,39,52,137,25,61,0,955
178,144,0,20,166,24,11,22,23,23,59,5,23,0,318
334,139,0,0,194,9,13,23,30,33,86,7,33,21,412
337,143,0,0,296,4,28,18,28,17,76,18,20,17,550
432,174,0,49,470,14,39,35,36,42,99,43,42,0,775
541,198,0,70,334,12,36,42,60,32,102,38,45,0,776
482,181,0,5,303,20,35,31,39,23,106,50,32,0,635
436,209,0,4,432,9,34,30,26,34,100,50,20,0,778
315,101,0,0,448,10,21,15,16,14,58,23,12,64,631
417,232,0,29,292,5,35,50,54,15,112,31,50,0,618
357,196,0,28,207,11,33,48,40,13,100,30,36,0,477
236,70,0,5,263,1,21,12,18,7,45,17,10,0,443
274,116,0,31,184,4,34,27,17,11,88,13,18,0,393
384,175,0,5,344,10,41,21,33,29,122,19,27,0,606
468,276,0,40,311,16,56,50,52,34,101,28,43,0,715
319,185,0,55,213,48,16,33,34,10,69,19,62,0,481
195,131,0,29,123,32,15,13,13,9,45,11,21,0,319
495,333,0,70,252,44,29,54,50,26,100,20,97,0,730
630,374,0,4,402,54,30,58,68,23,122,28,111,0,916
350,183,0,0,319,28,27,28,26,26,81,8,37,3,588
315,187,0,18,285,17,23,21,44,33,79,11,51,0,526
350,242,0,0,370,13,35,56,46,22,76,7,48,30,629
272,168,0,0,205,8,19,31,30,22,63,8,42,42,380
371,203,0,0,301,27,33,28,25,15,104,18,69,5,551
302,228,0,58,291,20,25,41,37,12,69,12,70,0,593
384,288,0,0,409,57,27,37,55,21,109,24,58,19,674
327,254,0,0,414,30,39,50,47,26,59,18,50,22,654
249,197,0,7,1211,14,33,34,46,28,39,9,38,0,1423
467,273,0,0,318,27,48,45,48,27,122,15,73,60,593
331,374,0,46,239,34,19,57,93,32,125,18,81,0,531
314,348,0,8,191,35,26,54,109,17,113,14,47,0,446
235,254,0,5,202,16,27,39,47,14,77,12,53,0,411
255,140,0,0,304,22,31,18,18,18,50,11,35,3,493
378,340,0,5,367,29,25,51,59,30,95,15,91,0,695
421,338,0,0,416,33,35,82,55,33,102,16,63,7,749
382,299,0,24,336,90,33,51,62,31,94,9,58,0,613
383,238,0,0,513,11,40,58,27,27,54,14,47,25,831
64,41,0,15,41,12,5,18,10,4,13,5,25,0,69
170,69,0,0,83,10,8,13,5,12,37,7,14,9,207
349,192,0,0,321,14,22,32,32,26,86,23,41,8,578
128,57,0,9,80,2,16,11,6,7,33,15,9,0,175
88,54,0,0,43,7,2,10,14,1,33,4,18,2,94
144,117,0,24,133,9,14,24,41,4,43,5,22,0,256
117,57,0,9,66,10,11,15,16,3,26,8,10,0,150
378,254,0,0,332,20,15,37,51,19,116,7,47,33,619
368,290,0,12,330,25,32,28,78,14,112,22,59,0,630
410,351,0,37,664,37,26,53,107,25,107,25,62,0,1020
368,268,0,0,337,20,23,47,43,23,125,13,30,40,609
213,174,0,28,311,14,13,33,50,6,45,2,23,0,540
225,146,0,0,157,13,13,21,37,9,72,13,10,4,336
417,304,0,12,408,32,28,68,67,18,105,11,39,0,773
514,396,0,1,815,35,28,97,75,17,112,20,48,0,1294
325,319,0,27,187,35,16,71,75,20,72,17,50,0,502
222,216,0,23,163,27,11,42,61,15,60,8,26,0,374
454,365,0,4,346,37,25,91,77,23,125,23,38,0,730
92,130,0,0,90,53,1,23,12,18,17,4,17,1,166
173,102,0,6,91,13,6,18,27,8,53,6,19,0,222
52,20,0,0,35,3,5,1,0,3,9,3,4,16,63
104,43,0,7,96,8,4,5,8,8,26,5,6,0,180
155,122,0,0,92,37,5,18,13,17,24,7,23,13,212
53,23,0,0,21,4,4,5,4,4,7,2,0,5,62
218,161,0,0,208,27,6,27,43,16,62,15,23,5,363
166,160,0,0,148,22,7,17,36,15,54,6,26,5,286
251,86,0,25,372,10,7,20,18,12,51,14,19,0,583
364,129,0,0,356,11,14,17,35,21,95,32,14,31,579
202,84,0,4,184,6,23,17,19,5,32,6,20,0,346
62,22,0,1,70,1,3,5,2,1,10,3,12,0,118
75,41,0,1,58,4,7,11,9,4,16,6,17,0,101
122,96,0,0,71,34,6,19,12,9,24,4,15,7,159
377,250,0,1,359,43,17,42,39,15,82,8,34,0,707
557,318,0,68,376,13,43,46,81,18,115,30,253,0,720
141,71,0,0,70,6,3,19,17,5,43,11,10,4,164
432,371,0,63,380,46,27,60,147,32,139,16,50,0,729
488,408,0,55,339,37,32,67,140,36,148,31,70,0,729
328,166,0,0,244,11,21,28,37,7,53,10,67,6,498
295,193,0,0,307,24,22,23,20,4,60,13,61,4,564
272,175,0,0,306,18,24,40,16,10,77,14,55,34,465
334,291,0,0,1222,38,17,43,47,15,74,13,61,26,1513
256,191,0,0,173,40,6,21,19,14,71,18,52,11,368
326,246,0,0,227,43,24,35,44,11,98,11,57,6,470
296,195,0,0,211,23,22,32,27,8,78,9,53,3,447
271,225,0,18,127,48,17,34,35,12,103,29,53,0,310
248,135,0,0,284,16,21,25,23,8,64,13,34,7,456
323,237,0,24,236,44,20,42,46,15,99,17,49,0,488
397,244,0,20,503,21,23,37,39,19,93,27,53,0,852
248,167,0,30,119,57,15,13,38,15,52,13,35,0,326
252,207,0,27,142,66,15,30,36,9,65,8,46,0,353
215,171,0,0,108,27,19,27,36,16,54,24,30,1,260
317,372,0,43,170,124,20,44,61,24,86,20,78,0,445
328,199,0,0,355,9,29,39,30,16,68,17,57,27,590
438,235,0,0,396,34,32,51,41,19,107,17,54,17,697
366,251,0,0,262,23,23,25,41,18,75,14,74,46,540
117,91,0,1,101,38,9,14,6,2,19,4,11,0,207
390,328,0,0,288,299,17,35,24,11,59,14,24,4,519
357,351,0,2,300,297,17,44,24,15,69,11,18,0,515
110,26,0,0,40,5,6,0,6,2,23,3,6,8,117
72,42,0,3,55,14,8,7,13,2,21,2,12,0,93
45,51,0,7,56,4,3,18,12,1,14,2,12,0,93
49,32,0,1,50,4,3,5,4,2,15,4,4,0,91
54,24,0,0,43,8,1,4,3,7,22,2,7,3,64
158,114,0,8,142,26,9,10,18,4,34,10,13,0,298
81,36,0,0,64,25,2,10,9,1,20,4,3,3,104
39,30,0,10,44,14,2,3,6,2,11,5,4,0,76
434,249,0,0,463,55,27,37,33,14,114,27,28,29,782
422,198,0,0,319,29,16,31,24,12,144,27,30,36,590
292,208,0,0,353,30,13,33,24,7,74,13,30,19,610
425,328,0,11,711,28,25,48,80,9,101,20,43,0,1121
57,69,0,1,39,12,6,9,8,3,23,7,18,0,80
542,411,0,0,342,83,43,56,77,29,140,43,79,21,724
266,271,0,24,165,70,26,36,67,18,65,5,39,0,400
251,239,0,0,236,35,20,32,52,8,61,21,36,11,450
302,160,0,16,229,34,22,38,35,17,68,37,26,0,430
315,199,0,3,258,32,17,49,34,22,65,23,34,0,499
335,292,0,0,233,61,31,35,58,15,90,12,47,26,485
274,222,0,2,490,60,21,34,51,10,72,13,27,0,700
98,72,0,0,44,20,3,12,13,1,28,7,14,1,115
154,133,0,13,68,57,7,17,23,7,44,13,30,0,170
296,206,0,29,162,21,23,39,44,17,64,10,30,0,445
365,163,0,0,305,15,27,39,42,14,94,15,26,6,555
368,327,0,26,233,94,35,46,73,23,96,26,59,0,502
111,129,0,5,66,14,7,28,16,10,31,1,33,0,171
73,67,0,0,35,31,5,6,11,3,9,0,7,4,99
98,53,0,2,30,5,2,10,9,8,29,5,10,0,105
91,74,0,10,46,24,6,7,16,14,30,3,16,0,105
65,91,0,20,41,21,11,13,8,1,21,2,9,0,131
38,38,0,1,34,12,6,7,0,2,7,2,9,0,66
55,18,0,0,28,8,4,0,0,12,6,6,5,6,54
74,38,0,0,76,11,7,4,6,2,22,11,6,15,104
476,251,0,0,773,19,37,50,45,15,134,24,45,43,1088
418,185,0,0,399,20,36,30,33,18,106,23,30,26,680
347,238,0,47,290,36,28,44,57,13,101,31,26,0,586
303,222,0,0,388,27,36,27,52,18,66,20,27,10,630
475,352,0,1,360,35,25,66,88,17,127,39,71,0,720
319,135,0,42,356,20,18,29,21,11,68,13,25,0,647
533,340,0,5,412,56,30,55,39,20,103,26,50,0,911
310,213,0,6,176,37,20,38,45,11,79,27,73,0,375
294,322,0,0,267,103,15,36,74,10,71,8,55,10,501
239,174,0,27,171,27,22,30,46,8,53,11,43,0,371
239,133,0,0,234,11,30,30,24,3,57,8,54,1,388
576,440,0,30,378,87,37,68,108,37,141,27,84,0,835
349,193,0,0,226,44,18,34,39,18,81,34,35,10,455
606,528,0,69,375,49,38,109,118,30,181,24,70,0,959
193,163,0,9,123,22,12,45,33,1,49,7,23,0,296
