OBEC,OKRSEK,VOLICI,HLASY,HLASY_1,HLASY_2,HLASY_3,HLASY_4,HLASY_5,HLASY_6,HLASY_7,HLASY_8,HLASY_9
503916,1,441,219,10,20,8,1,5,0,129,18,28
506664,1,225,151,3,6,4,0,1,1,116,6,14
530085,1,58,40,2,5,3,0,0,0,21,0,9
530123,1,89,69,7,9,6,0,2,0,26,9,10
530131,1,188,130,6,13,10,5,1,0,45,9,41
530140,1,155,113,4,11,3,0,0,1,62,7,25
530182,1,353,215,2,21,30,6,1,1,87,20,47
530221,1,87,55,0,3,1,0,0,0,29,9,13
530239,1,59,34,1,0,1,0,0,0,17,2,13
530247,1,122,93,3,1,1,2,0,1,38,9,38
530271,1,70,31,2,1,3,1,0,0,16,1,7
530280,1,195,132,5,5,7,1,2,0,65,13,34
530328,1,154,89,5,1,3,1,1,0,53,9,16
530336,1,217,151,6,9,18,2,0,0,64,16,36
530361,1,42,36,3,7,5,0,0,3,8,6,4
530379,1,103,77,9,8,2,2,0,1,40,5,10
538183,1,86,59,4,4,2,0,0,3,35,1,10
539716,1,180,117,4,9,8,0,1,1,48,9,37
539741,1,430,312,14,24,27,4,0,0,123,18,102
539783,1,263,182,3,8,6,5,2,0,98,21,39
539821,1,339,222,16,15,14,5,1,2,91,14,64
539929,1,37,31,0,2,3,0,1,0,16,2,7
539937,1,187,104,6,7,3,1,0,0,56,5,26
539945,1,239,147,8,15,6,1,1,0,79,12,25
540056,1,116,70,3,5,2,0,0,0,36,5,19
540064,1,99,56,0,4,8,0,0,0,36,0,8
540102,1,91,62,3,8,6,0,0,1,23,7,14
540137,1,43,32,3,6,1,0,0,0,13,2,7
540200,1,84,58,3,8,2,0,0,1,34,0,10
540251,1,103,66,5,7,2,1,2,0,31,0,18
540269,1,218,152,7,14,13,3,0,0,62,7,46
540293,1,135,91,3,8,1,1,2,1,58,1,16
540307,1,89,69,3,4,4,0,1,0,40,4,13
540340,1,279,186,10,7,12,2,0,0,90,20,45
540412,1,189,147,7,24,6,2,0,0,60,12,36
540421,1,82,52,3,1,6,0,0,1,24,5,12
540463,1,47,37,1,1,0,0,0,0,29,1,5
540528,1,121,66,1,5,3,0,0,0,33,4,20
540561,1,506,391,23,51,35,8,2,1,111,39,121
540617,1,134,80,3,7,5,0,0,0,39,2,24
540633,1,242,140,5,14,8,3,0,0,50,22,38
540641,1,189,141,7,10,9,4,0,2,49,19,41
540668,1,196,110,4,6,4,1,1,0,53,10,31
540676,1,141,97,1,5,12,6,0,0,57,10,6
540692,1,92,67,3,3,3,0,0,2,38,7,11
540706,1,73,50,1,5,8,0,0,0,19,7,10
540722,1,208,157,12,23,7,4,0,1,40,18,52
540803,1,39,33,1,2,3,2,0,0,7,1,17
540927,1,20,20,1,0,5,0,0,0,4,2,8
541001,1,28,23,1,2,0,0,0,0,6,3,11
541061,1,174,80,2,7,5,1,0,0,37,8,20
541095,1,103,76,1,5,4,0,0,0,37,10,19
541141,1,53,43,0,3,0,0,0,0,36,2,2
541150,1,642,435,24,36,54,3,5,4,163,44,102
541176,1,346,226,14,21,17,3,4,2,84,23,58
541192,1,138,97,2,7,7,1,0,0,60,3,17
541290,3,39,17,2,0,3,0,0,0,10,0,2
541290,2,68,46,1,0,0,0,0,0,41,1,3
541290,1,105,46,0,1,4,1,2,0,28,2,8
541362,1,206,104,5,8,5,0,0,0,57,6,23
541401,1,101,76,4,8,5,0,1,0,28,17,13
541435,1,102,68,2,4,1,2,0,0,37,5,17
541443,1,111,79,0,4,11,1,0,0,33,5,25
541460,1,130,35,1,2,0,0,0,0,24,5,3
541486,1,125,67,3,4,2,0,5,0,26,13,14
541494,1,202,110,7,13,8,1,3,0,57,13,8
541532,1,202,90,0,12,1,2,0,0,51,11,13
541559,1,153,71,2,9,4,1,2,2,41,3,7
541605,1,203,115,0,16,2,3,1,1,79,6,7
541621,1,367,181,3,21,5,2,4,0,111,8,27
541664,1,302,142,0,12,4,2,3,1,103,6,11
541681,1,135,58,3,1,0,0,0,1,35,8,10
541702,1,331,184,1,19,8,2,1,1,106,10,36
541745,1,101,74,1,7,7,2,0,0,30,10,17
541753,1,186,119,5,12,15,2,0,0,49,11,25
541788,1,225,131,1,7,2,1,0,0,86,6,28
541796,1,136,94,4,9,5,0,1,0,49,10,16
541826,1,87,71,1,3,2,0,0,0,36,8,21
541842,1,141,76,4,9,6,0,1,0,29,13,14
541851,1,95,63,3,2,3,1,0,0,26,7,21
541869,1,57,45,2,6,3,1,0,0,21,4,8
541885,1,264,162,3,13,8,1,0,0,86,19,32
541915,1,156,102,7,11,7,0,1,0,49,8,19
541923,1,156,98,1,2,17,0,1,1,56,7,13
541931,1,112,84,1,10,15,1,1,0,21,14,21
541958,1,179,143,3,19,8,0,4,1,74,8,26
542024,1,173,107,1,10,10,2,0,0,45,10,29
542059,1,48,29,0,13,1,0,0,0,9,0,6
542083,1,86,56,2,1,1,1,0,0,41,0,10
542091,1,124,105,5,12,23,0,0,0,11,5,49
542148,1,238,224,20,24,26,1,2,5,35,15,96
542156,1,182,120,13,7,6,3,1,1,50,5,34
542172,1,196,112,1,9,13,0,1,0,46,10,32
542296,1,175,108,2,3,13,0,0,1,58,5,26
546372,1,184,134,1,14,8,2,0,0,78,10,21
546399,1,98,73,4,6,2,1,3,1,32,9,15
546411,1,279,166,7,19,15,8,0,0,64,12,41
546488,1,106,80,10,4,0,0,1,0,36,10,19
546526,1,258,187,5,14,19,2,0,1,97,12,37
546534,1,172,135,2,9,19,1,0,1,57,11,35
546551,1,205,130,5,11,11,1,1,0,68,9,24
551686,1,121,83,3,1,10,1,0,0,39,12,17
553425,12,152,106,4,8,5,2,5,0,38,9,35
553425,11,790,460,24,57,43,4,2,4,198,21,107
553425,10,995,433,16,55,48,5,0,8,148,34,119
553425,9,644,401,15,29,34,7,2,1,158,34,121
553425,8,848,514,12,49,54,3,7,2,230,29,128
553425,7,757,465,15,54,45,3,5,1,186,48,108
553425,6,644,372,15,34,22,5,2,2,163,37,92
553425,5,740,479,18,47,47,6,0,5,188,39,129
553425,4,578,379,13,30,29,3,5,0,203,18,78
553425,3,634,390,12,33,25,4,1,2,208,25,80
553425,2,857,519,17,52,45,5,2,1,219,45,133
553425,1,856,621,30,57,51,5,1,5,204,51,217
553433,1,237,160,4,20,13,2,5,2,67,16,31
553441,2,527,271,6,24,12,3,0,0,154,17,55
553441,1,869,428,16,32,22,3,4,1,222,31,97
553450,5,92,55,2,4,4,0,3,0,27,9,6
553450,4,60,34,3,5,0,0,0,1,17,3,5
553450,3,126,78,1,6,5,1,0,0,32,12,21
553450,2,93,59,5,5,2,1,3,0,25,4,14
553450,1,755,388,15,35,31,1,8,0,185,28,85
553506,1,77,44,3,2,0,0,1,0,28,2,8
553514,1,210,144,8,9,10,4,2,0,57,15,39
553522,1,73,66,0,2,7,1,0,1,37,1,17
553531,2,119,71,1,2,5,0,1,1,43,6,12
553531,1,168,90,2,8,1,1,1,0,44,16,17
553549,3,79,34,1,2,0,0,0,0,15,5,11
553549,2,105,65,4,3,0,0,0,1,27,5,25
553549,1,354,189,4,13,8,0,4,0,100,13,47
553557,1,304,227,5,18,13,0,0,1,98,23,69
553565,1,36,26,1,0,0,0,1,0,13,2,9
553573,1,154,67,0,2,7,3,1,0,31,7,16
553581,1,327,213,7,23,25,2,1,0,102,18,35
553590,1,184,137,6,9,7,2,1,2,61,19,30
553603,1,35,26,0,2,3,0,0,0,8,1,12
553611,1,425,269,9,28,17,5,2,4,96,21,87
553620,1,217,126,1,9,7,0,0,0,56,11,42
553654,6,99,66,1,5,5,2,0,0,25,6,22
553654,5,788,473,16,35,34,4,6,4,205,56,113
553654,4,636,357,11,21,11,2,3,1,202,44,62
553654,3,792,509,19,35,20,11,6,1,257,41,119
553654,2,809,455,16,28,21,7,5,3,211,42,122
553654,1,841,395,23,32,17,1,1,2,188,26,105
553662,1,200,132,8,8,7,0,0,1,61,16,31
553671,7,125,71,1,12,1,0,0,0,40,6,11
553671,6,134,60,1,4,4,3,0,0,45,1,2
553671,5,142,67,0,11,2,2,1,0,37,5,9
553671,4,861,476,12,39,34,1,6,1,234,37,112
553671,3,841,532,23,56,31,2,5,2,239,31,143
553671,2,855,509,26,44,43,6,1,1,228,42,118
553671,1,965,468,33,46,22,9,1,1,193,29,134
553689,2,252,98,3,3,3,0,3,0,59,6,21
553689,1,745,383,8,32,31,4,4,5,184,29,86
553727,1,99,62,0,7,6,0,0,0,37,4,8
553735,1,612,407,21,51,18,6,1,2,196,22,90
553743,1,330,212,10,9,37,1,1,2,77,22,53
553751,1,299,224,4,19,29,3,1,4,67,15,82
553778,1,27,22,0,0,5,0,0,0,9,1,7
553786,10,70,48,2,3,11,0,1,0,15,8,8
553786,9,58,47,0,3,4,3,0,0,23,3,11
553786,8,290,208,15,18,25,1,4,2,83,24,36
553786,7,94,64,3,2,4,3,0,1,36,7,8
553786,6,53,29,1,1,1,0,1,0,15,3,7
553786,5,323,208,11,19,21,2,4,2,98,12,39
553786,4,741,442,15,30,39,3,3,2,218,33,99
553786,3,826,552,21,28,76,4,7,4,231,38,143
553786,2,653,425,13,37,22,8,5,1,215,36,88
553786,1,944,424,26,42,50,7,6,0,144,40,109
553794,1,1017,640,22,55,40,10,2,6,268,58,179
553816,1,801,503,26,21,37,2,8,5,265,31,108
553824,1,911,624,21,66,55,8,5,3,270,48,148
553832,1,122,90,3,5,6,2,1,0,33,12,28
553841,1,306,195,6,15,7,1,1,4,86,13,62
553859,1,87,57,4,8,7,0,1,2,12,7,16
553867,1,105,80,5,5,10,0,0,0,29,10,21
553891,2,113,87,9,3,12,0,1,1,29,7,25
553891,1,183,139,5,9,18,0,0,1,76,5,25
553913,2,255,153,3,13,6,1,0,0,85,22,23
553913,1,621,340,11,27,27,8,0,3,172,29,63
553921,1,86,66,5,3,2,0,0,0,46,6,4
553930,1,97,61,4,2,4,0,0,3,35,4,9
553948,2,121,73,1,4,10,1,0,2,31,10,14
553948,1,356,255,3,18,18,3,2,0,110,28,73
553956,1,221,104,3,6,7,1,0,0,65,8,14
553981,1,907,603,10,50,88,8,2,3,247,39,156
553999,1,208,107,4,2,2,2,1,0,67,4,25
554006,1,191,79,2,4,2,0,0,1,50,1,19
554022,1,118,85,2,2,8,3,0,0,46,9,15
554031,1,153,121,3,9,17,5,1,1,35,8,42
554057,1,179,110,2,7,7,1,0,0,77,2,14
554073,1,488,310,9,18,18,8,1,2,159,43,52
554081,1,176,118,4,14,13,4,1,0,46,15,21
554090,1,197,133,11,10,5,6,0,1,55,14,31
554111,2,718,370,5,26,24,9,1,0,191,26,88
554111,1,554,289,1,21,20,3,4,0,156,23,61
554120,1,470,333,7,43,26,3,3,2,125,35,89
554138,1,936,616,16,44,34,4,4,2,261,51,200
554154,1,270,135,6,5,9,1,3,0,64,10,37
554189,1,143,64,5,6,0,3,0,0,35,4,11
554201,1,144,61,1,9,2,1,3,0,35,1,9
554251,1,151,125,2,8,14,0,0,0,44,15,42
554260,3,67,46,2,3,0,1,0,0,31,4,5
554260,2,112,79,1,6,10,4,0,4,41,1,12
554260,1,156,107,1,11,3,4,0,0,53,10,25
554278,1,352,180,4,20,7,0,1,0,109,15,24
554294,5,106,70,2,10,4,3,0,0,28,7,16
554294,4,69,56,0,11,2,1,1,0,24,6,11
554294,3,211,151,1,7,9,3,3,0,66,12,50
554294,2,992,606,29,52,32,8,4,2,263,47,169
554294,1,1234,696,22,42,47,5,10,4,359,56,151
554316,1,193,138,12,15,28,1,0,0,39,12,31
554341,1,348,242,6,17,27,2,1,3,83,27,76
554359,1,431,266,11,24,7,2,5,3,143,19,52
554383,1,322,223,3,26,10,2,1,0,91,15,75
554391,1,88,66,2,2,0,0,0,2,35,5,20
554405,1,118,71,0,7,5,0,1,1,31,7,19
554413,1,197,87,4,9,3,2,2,0,45,9,13
554421,1,131,76,1,6,2,0,0,0,53,6,8
554448,1,40,31,0,8,0,0,0,0,17,1,5
554456,1,640,293,12,22,22,6,6,2,133,31,59
554464,5,359,187,3,28,29,1,1,1,71,21,32
554464,4,109,78,2,13,7,1,1,1,32,12,9
554464,3,115,82,0,12,6,1,0,0,39,7,17
554464,2,55,49,2,3,4,2,1,0,15,4,18
554464,1,151,104,2,7,12,2,0,0,54,4,23
554472,1,121,89,5,6,8,0,0,0,33,10,27
545970,1002,818,506,38,59,79,5,6,1,108,48,162
545970,1001,324,200,30,27,19,2,0,4,32,19,67
545970,1012,404,235,7,18,20,5,1,1,108,11,64
545970,1011,451,247,16,27,20,1,0,0,118,16,49
545970,1010,650,415,20,36,30,1,2,1,203,33,89
545970,1009,544,362,13,37,34,2,4,0,165,35,72
545970,1008,538,357,15,42,30,2,2,4,144,32,86
545970,1007,322,174,12,11,8,2,2,3,103,2,31
545970,1034,540,335,22,27,34,7,3,1,142,26,73
545970,1033,536,332,14,28,41,3,3,0,146,25,72
545970,1032,551,388,9,36,63,5,0,0,145,26,104
545970,1031,475,283,7,27,12,3,2,0,139,20,73
545970,1030,607,386,15,35,46,5,1,4,149,32,99
545970,1029,490,313,13,26,25,2,3,1,148,14,81
545970,1028,592,397,13,33,40,3,4,3,174,34,93
545970,1027,497,340,15,25,31,2,2,1,145,39,80
545970,1026,691,448,22,33,29,0,3,0,216,28,117
545970,1025,477,277,13,23,33,5,0,2,129,15,57
545970,1024,439,284,14,24,30,2,0,1,125,18,70
545970,1023,968,594,37,64,67,8,2,2,162,62,190
545970,1022,987,748,36,84,117,5,3,3,210,69,221
545970,1021,381,231,6,27,14,1,1,0,126,9,47
545970,1020,703,467,12,68,38,3,0,0,199,34,113
545970,1019,496,341,15,29,39,6,3,2,132,23,92
545970,1018,382,247,9,24,31,4,0,1,91,20,67
545970,1017,694,429,20,43,36,5,3,2,173,49,98
545970,1016,722,437,16,42,41,4,3,3,176,57,95
545970,1015,698,422,11,41,28,6,5,1,172,44,114
545970,1014,717,403,12,36,35,3,0,0,192,31,94
545970,1013,830,520,31,55,36,7,3,2,227,41,118
545988,2034,843,588,35,48,78,7,0,6,198,42,174
545988,2033,510,358,14,42,31,3,3,0,131,32,102
545988,2032,1324,948,62,98,99,11,4,3,268,80,323
545988,2031,1219,926,67,106,131,11,2,6,218,90,295
545988,2030,584,430,25,48,51,6,2,2,106,42,148
545988,2029,991,716,59,68,93,14,4,4,191,58,225
545988,2028,873,603,38,55,61,5,3,10,216,70,145
545988,2017,613,384,11,35,37,5,3,5,139,36,113
545988,2016,704,468,14,43,55,5,2,0,192,35,122
545988,2015,1848,509,22,43,50,9,4,4,212,45,120
545988,2014,754,537,33,53,56,8,9,3,184,43,148
545988,2013,733,504,25,56,64,11,4,1,153,45,145
545988,2012,973,686,37,75,71,10,1,3,191,78,220
545988,2011,810,563,19,66,65,18,2,4,175,45,169
545988,2010,927,662,37,68,93,13,5,4,189,51,202
545988,2009,705,451,25,48,42,7,5,1,128,50,145
545988,2008,659,408,10,37,31,7,1,2,197,32,91
545988,2007,885,523,27,69,62,11,1,1,130,64,158
545988,2006,779,436,25,53,46,2,1,6,130,46,127
545988,2005,738,428,28,49,54,10,1,1,138,46,101
545988,2004,588,312,13,33,27,2,0,0,117,26,94
554731,5001,1653,992,46,113,89,9,5,7,347,103,273
545970,1056,1272,874,70,136,98,17,6,2,179,96,270
545970,1055,1291,739,21,72,93,11,3,7,242,76,214
545970,1054,972,491,23,39,63,7,5,2,172,52,128
545970,1053,1228,726,47,79,64,10,10,2,255,78,181
545970,1052,1042,570,29,69,59,11,4,4,197,58,139
545970,1051,790,494,16,43,52,7,1,7,170,62,136
545970,1050,710,415,24,35,35,8,2,0,148,65,98
545970,1049,583,349,13,33,37,4,3,2,112,52,93
545970,1048,496,298,17,26,31,6,0,5,112,27,74
545970,1047,590,380,16,42,34,4,0,2,160,36,86
545970,1046,631,395,18,42,38,7,3,2,142,40,103
545970,1045,581,368,14,39,32,5,1,2,154,37,84
545970,1044,598,400,11,50,34,11,4,0,134,30,126
545970,1043,631,410,14,30,34,7,0,2,192,43,88
545970,1042,630,407,10,48,55,11,1,1,133,30,118
545970,1041,713,431,12,49,35,6,2,0,181,42,104
545970,1040,528,310,6,30,28,2,3,1,149,21,70
545970,1039,535,341,13,48,27,4,0,1,144,25,79
545970,1038,588,403,16,32,37,7,5,2,178,25,101
545970,1037,578,348,16,28,35,12,4,2,139,30,82
545970,1036,601,371,10,44,39,5,2,0,136,28,107
545970,1035,672,397,17,42,44,9,3,4,165,30,83
545970,1006,1339,875,53,85,101,11,5,5,256,83,276
545970,1005,2679,622,41,65,78,8,2,3,198,45,182
545970,1004,932,620,31,72,100,8,3,1,168,47,190
545970,1003,839,632,47,53,65,9,1,3,198,69,187
545988,2003,676,324,28,41,38,6,2,5,96,30,78
545988,2002,818,446,30,45,47,12,3,6,144,37,122
545988,2001,535,248,8,26,26,5,4,2,77,34,66
559199,9001,640,399,19,53,37,7,3,0,129,31,120
545988,2027,791,513,22,37,65,5,4,3,199,37,141
545988,2026,620,422,17,32,59,6,1,1,145,38,123
545988,2025,631,425,17,47,50,5,1,0,166,24,115
545988,2024,905,557,21,40,63,2,3,3,198,52,175
545988,2023,559,343,19,33,45,5,1,2,99,23,116
545988,2022,546,395,11,35,45,3,2,3,161,31,104
545988,2021,454,304,7,32,30,1,1,3,123,26,81
545988,2020,782,461,15,51,59,5,4,0,169,36,122
545988,2019,493,338,29,47,37,3,2,0,100,25,95
545988,2018,698,401,16,40,41,9,3,4,147,23,118
546003,3025,605,405,18,40,48,5,1,1,118,35,139
546003,3024,597,361,16,46,44,6,1,1,144,27,76
546003,3023,578,389,19,38,47,6,4,0,140,33,102
546003,3022,431,308,17,41,40,2,0,1,72,21,114
546003,3021,804,478,17,42,56,6,1,2,183,33,138
546003,3020,674,445,16,37,40,4,2,4,194,34,114
546003,3019,505,248,16,29,29,10,2,2,54,26,80
546003,3018,331,201,11,21,33,5,2,1,48,16,64
546003,3017,462,297,13,35,42,5,0,2,72,29,99
546003,3016,606,368,15,42,48,5,1,1,109,41,106
546003,3015,894,572,32,77,63,12,1,1,176,55,155
546003,3014,572,261,10,31,51,4,1,0,62,30,72
546003,3049,415,254,5,31,23,3,1,0,115,17,59
546003,3048,722,405,14,29,24,4,2,4,228,21,79
546003,3047,572,385,15,31,39,2,2,2,172,39,83
546003,3046,656,419,18,34,40,6,2,3,191,33,92
546003,3045,1014,668,34,67,66,5,6,1,258,56,175
554758,6001,1574,1055,53,120,111,18,10,6,357,66,314
546208,4020,1433,544,18,60,52,7,4,2,225,44,132
546003,3013,620,329,27,37,25,6,3,2,86,32,111
546003,3012,467,218,10,35,21,1,0,3,74,17,57
546003,3011,457,244,9,24,28,6,0,0,73,18,86
546003,3010,505,262,15,32,26,8,1,1,79,24,76
546003,3009,763,386,18,32,55,8,2,1,109,49,112
546003,3008,679,364,19,41,34,4,5,1,131,31,98
546003,3007,504,273,27,24,39,2,3,0,63,35,80
546003,3006,415,133,13,18,9,1,2,0,39,16,35
557978,10001,994,685,39,92,83,8,3,6,198,67,189
546208,4010,806,551,41,54,62,11,5,0,181,39,158
546208,4009,637,418,11,33,44,3,2,1,177,37,110
546208,4008,694,443,24,41,38,6,3,1,164,44,122
546208,4007,907,542,19,48,39,6,5,0,215,51,159
546208,4006,601,279,18,33,25,3,2,2,92,30,74
546208,4005,780,483,19,55,38,11,5,2,173,47,133
546003,3005,848,340,20,49,48,4,4,2,86,30,97
546208,4004,721,522,27,67,65,3,3,3,169,41,144
546208,4003,619,361,9,41,27,5,1,2,167,24,85
546208,4002,606,401,8,33,40,4,2,3,193,26,92
546208,4001,697,468,20,51,41,10,2,0,191,24,129
546003,3004,2283,312,36,42,30,3,3,0,84,30,84
546003,3003,539,284,12,37,50,5,2,0,60,43,75
546208,4014,913,615,34,61,56,2,2,4,262,36,158
546208,4013,739,504,15,45,37,4,1,2,228,38,134
554766,7001,801,553,31,64,57,11,0,8,193,40,149
546003,3063,825,597,32,89,67,10,1,3,165,49,181
546003,3062,740,530,18,68,57,8,4,3,150,70,152
546003,3061,1778,1072,161,225,54,6,7,0,317,49,253
546003,3060,806,521,13,56,41,5,4,2,225,45,130
546208,4012,778,531,28,53,51,4,2,2,206,40,145
546208,4011,864,563,19,66,60,9,2,1,198,47,161
546208,4019,801,567,34,44,52,1,8,3,229,50,146
546208,4018,549,349,8,38,30,7,3,0,137,21,105
546208,4017,646,412,14,40,43,5,4,0,129,31,146
546208,4016,567,336,15,33,34,5,0,0,135,24,90
546208,4015,750,457,14,47,39,3,4,1,175,39,135
546208,4023,757,563,29,79,72,6,3,2,175,58,139
546208,4022,1107,819,38,94,124,11,1,7,247,73,224
546208,4021,800,508,19,51,50,4,1,1,177,50,155
546003,3002,276,112,8,17,13,3,2,0,26,10,33
546003,3001,686,380,25,61,53,3,4,1,86,44,103
546003,3059,486,249,27,27,19,2,3,1,97,12,61
546003,3058,673,402,14,40,34,6,4,1,188,29,86
546003,3057,727,452,22,33,42,10,3,2,211,28,101
546003,3056,739,511,18,43,52,10,2,4,204,38,140
546003,3055,671,425,16,24,36,3,2,4,205,33,102
546003,3054,346,234,12,22,15,2,0,0,107,21,55
546003,3053,963,662,27,77,67,13,2,1,242,58,175
546003,3052,394,247,15,29,28,3,1,0,107,17,47
546003,3051,685,445,25,39,26,4,4,1,205,39,102
546003,3050,449,282,5,20,35,1,2,0,139,19,61
554774,8001,1262,928,38,100,108,10,5,6,289,97,275
546208,4025,1088,810,62,89,86,6,5,5,209,73,275
546208,4024,425,277,17,35,23,2,0,0,103,19,78
546003,3044,394,272,14,25,28,4,0,0,98,32,71
546003,3043,145,73,6,5,10,0,2,0,27,7,16
546003,3042,582,386,24,43,40,4,2,1,121,27,124
546003,3041,505,291,13,30,25,2,0,1,98,28,94
546003,3040,542,335,13,53,31,2,2,2,101,21,110
546003,3039,404,289,8,30,33,4,0,2,92,20,100
546003,3038,381,263,14,33,43,2,1,2,86,18,64
546003,3037,384,246,12,17,44,3,0,2,86,21,61
546003,3036,753,433,19,60,54,8,1,1,116,49,125
546003,3035,362,215,16,24,26,2,3,0,60,29,55
546003,3034,584,285,24,27,34,4,0,0,98,24,74
546003,3033,590,401,14,28,35,4,1,0,179,23,117
546003,3032,392,254,16,21,14,1,1,0,103,24,74
546003,3031,409,240,5,27,15,4,0,2,106,25,56
546003,3030,529,338,13,38,28,3,2,2,136,21,95
546003,3029,620,412,18,39,32,3,3,4,179,32,102
546003,3028,360,259,10,16,28,4,3,7,112,22,57
546003,3027,457,305,7,22,19,4,2,0,149,21,81
546003,3026,332,234,13,21,24,2,2,3,62,10,97
555771,22,46,35,3,1,4,0,0,0,19,4,4
555771,21,249,190,6,16,21,1,1,2,71,21,51
555771,20,232,150,4,13,15,2,0,1,72,13,30
555771,28,91,53,1,2,2,0,0,1,26,8,13
555771,27,112,61,1,0,6,0,0,0,20,9,25
555771,26,135,83,1,10,6,0,1,0,45,9,11
555771,25,234,160,5,13,16,1,2,1,52,20,50
555771,24,109,67,2,12,7,0,0,1,27,6,12
555771,23,80,60,4,5,4,0,0,0,35,7,5
555771,1,988,645,36,66,68,6,5,3,247,69,145
555771,19,80,51,0,1,8,0,0,0,27,6,9
555771,18,75,46,0,0,1,0,0,0,34,5,6
555771,17,101,66,1,7,11,2,0,1,22,9,13
555771,16,231,139,6,13,12,0,1,0,52,20,35
555771,15,908,598,30,65,73,4,2,6,226,49,143
555771,14,992,686,16,42,44,2,1,2,361,45,173
555771,13,1065,629,26,48,68,3,4,2,310,47,121
555771,12,1502,539,20,66,49,5,0,1,239,41,118
555771,11,1151,797,30,73,82,12,4,3,294,73,226
555771,10,856,557,26,78,52,8,3,4,172,55,159
555771,9,512,329,13,27,23,7,4,0,141,23,91
555771,8,427,235,13,24,18,3,2,2,90,14,69
555771,7,1350,944,45,108,102,9,2,3,281,87,307
555771,6,1693,1095,49,108,103,13,7,4,439,100,272
555771,5,1034,652,17,67,74,10,5,3,255,49,172
555771,4,1406,867,34,69,83,16,2,1,380,70,212
555771,3,989,644,26,54,66,9,3,1,285,44,156
555771,2,1073,625,32,57,61,7,3,2,277,46,140
555797,3,55,36,1,3,3,0,1,1,13,4,10
555797,2,92,64,0,7,12,0,1,1,24,9,10
555797,1,512,318,8,21,33,3,3,0,139,24,87
555801,2,180,99,1,12,14,1,2,0,44,10,15
555801,1,550,366,9,37,33,5,3,3,148,27,101
555835,4,48,36,2,2,4,3,0,1,18,2,4
555835,3,50,44,0,1,2,0,1,0,28,4,8
555835,2,52,42,3,3,3,2,1,0,15,4,11
555835,1,373,232,4,24,36,6,2,1,79,27,53
555835,5,82,58,1,5,2,0,0,0,26,0,24
555894,2,55,45,1,1,3,1,0,0,24,5,10
555894,1,182,134,5,4,8,0,1,1,75,19,21
555941,3,73,51,2,3,3,0,2,1,26,2,12
555941,2,112,73,0,14,5,0,2,1,28,10,13
555941,1,247,142,4,15,9,6,1,0,43,13,51
556041,3,133,79,1,16,2,1,1,0,23,9,26
556041,2,82,52,6,3,3,0,1,0,28,6,5
556041,1,361,194,3,10,13,1,3,0,106,23,35
556068,1,378,211,4,23,9,5,1,0,99,25,45
556076,1,650,420,12,22,30,10,2,2,193,41,108
556084,1,146,101,1,13,12,1,0,0,24,6,44
556106,1,723,459,23,33,45,7,7,0,191,37,116
556181,1,857,483,10,38,48,5,3,3,221,34,121
556203,1,387,277,6,15,32,7,0,3,101,34,79
556254,11,97,61,3,3,1,0,0,0,30,10,14
556254,10,141,96,2,5,16,1,4,0,22,35,11
556254,9,70,48,3,2,4,0,0,0,22,4,13
556254,8,68,55,1,5,6,3,0,0,20,9,11
556254,7,78,47,2,2,1,0,0,0,31,3,8
556254,6,47,31,2,2,3,0,0,0,11,4,9
556254,5,141,100,6,4,15,1,0,1,30,10,33
556254,4,791,549,17,42,40,7,1,4,253,37,148
556254,3,932,629,12,57,58,5,9,2,239,75,172
556254,2,855,527,20,48,57,6,10,2,195,65,124
556254,1,1121,667,24,68,58,8,1,3,225,90,190
556301,5,151,100,7,12,7,0,1,0,34,13,26
556301,4,62,46,0,1,1,0,0,0,26,7,11
556301,3,133,83,2,5,12,1,1,0,40,9,13
556301,2,131,84,3,5,5,0,0,1,29,14,27
556301,1,616,380,12,26,64,4,2,1,152,41,78
556319,3,70,50,1,0,4,2,1,0,21,4,17
556319,2,68,48,2,5,2,0,0,0,26,4,9
556319,1,203,121,0,10,16,2,0,0,40,13,40
556335,5,69,58,2,9,4,1,0,0,26,4,12
556335,4,62,36,1,2,5,0,0,0,15,5,8
556335,3,78,54,2,4,6,0,3,0,28,4,7
556335,2,53,44,1,7,2,2,1,0,26,0,5
556335,1,304,185,12,9,20,2,1,0,76,22,43
556343,1,115,83,2,10,4,0,2,0,40,6,19
556378,1,603,345,9,21,32,3,3,5,171,34,67
556386,2,195,127,9,8,11,0,2,0,53,14,30
556386,1,294,167,7,17,10,2,3,0,82,17,29
556394,2,479,316,13,25,23,3,0,0,138,39,75
556394,1,1256,681,14,76,47,8,7,1,251,97,180
556432,1,1244,764,17,62,73,8,8,0,364,58,174
556467,8,33,14,0,0,0,0,0,0,10,4,0
556467,7,21,16,0,5,1,0,0,0,9,0,1
556467,6,37,32,0,3,8,0,0,0,9,3,9
556467,5,71,44,5,6,0,0,0,0,19,2,12
556467,4,108,58,2,5,9,0,0,2,24,6,10
556467,3,83,59,1,9,8,0,0,0,21,4,16
556467,2,139,89,1,14,3,1,2,1,46,8,13
556467,1,663,397,11,33,33,3,5,1,165,50,96
556505,1,171,112,9,7,4,0,0,2,49,12,29
556629,2,164,113,6,7,19,1,0,0,47,14,19
556629,1,290,175,5,18,20,2,2,0,55,30,43
556637,6,60,37,0,4,3,0,1,0,18,6,5
556637,5,69,57,3,4,0,0,0,0,39,5,6
556637,4,99,43,3,3,1,0,0,1,24,4,7
556637,3,122,72,0,2,0,2,0,0,45,9,14
556637,2,65,49,0,1,1,0,2,0,29,3,13
556637,1,471,281,9,14,16,2,2,2,155,33,48
556718,5,80,43,0,6,3,0,1,2,18,7,6
556718,4,95,66,0,4,4,0,2,0,35,2,19
556718,3,105,69,4,3,1,0,0,0,36,2,23
556718,2,150,85,1,7,2,2,0,0,40,5,28
556718,1,385,261,7,22,24,4,0,4,104,25,71
556726,1,104,87,4,5,12,1,0,0,24,8,33
556734,1,232,132,3,7,17,1,0,2,60,11,31
556734,3,45,32,0,0,0,0,0,0,22,3,7
556734,2,79,49,1,0,4,0,0,0,25,4,15
556751,7,117,78,2,8,11,0,1,0,38,9,9
556751,6,86,63,0,4,2,4,2,1,27,10,13
556751,5,73,44,0,7,6,0,0,0,19,3,9
556751,4,34,27,0,5,2,0,0,0,12,0,8
556751,3,35,22,0,4,9,0,0,0,3,1,5
556751,2,178,124,1,5,14,3,1,0,59,10,31
556751,1,454,225,8,13,17,6,2,1,117,15,46
556815,1,281,181,6,15,11,3,1,1,100,18,26
556831,6,139,106,2,18,12,5,0,1,34,11,23
556831,5,86,49,3,4,1,1,0,0,17,3,20
556831,4,201,119,8,11,11,1,1,0,44,12,31
556831,3,1060,706,20,80,70,16,7,7,253,73,180
556831,2,1048,606,23,87,39,4,8,2,268,42,133
556831,1,1223,648,20,63,54,7,2,1,282,43,176
556912,4,83,53,2,6,1,0,0,0,25,3,16
556912,3,60,41,0,3,2,0,1,0,20,4,11
556912,2,130,69,1,3,7,1,0,0,37,2,18
556912,1,365,227,7,29,19,0,3,1,97,19,52
556921,2,82,66,2,1,11,1,2,0,27,4,18
556921,1,419,272,22,23,27,2,2,0,96,25,75
556955,8,53,45,0,5,2,2,0,0,25,1,10
556955,7,75,56,2,8,3,0,0,0,32,4,7
556955,6,81,62,3,6,2,0,0,0,35,5,11
556955,5,70,46,0,5,1,0,0,0,31,4,5
556955,4,113,72,1,3,2,1,0,0,36,7,22
556955,3,65,57,4,4,6,0,2,0,27,2,12
556955,2,90,61,1,7,2,0,0,0,32,3,16
556955,1,798,486,11,58,38,1,5,2,204,62,105
557005,3,100,79,7,2,2,3,0,1,42,6,16
557005,2,114,75,3,3,2,0,0,1,32,10,24
557005,1,230,149,1,14,6,1,1,0,77,13,36
557005,5,111,83,3,8,5,0,0,0,36,8,23
557005,4,63,51,4,7,8,2,0,0,24,2,4
557013,3,65,56,1,10,3,0,1,1,33,4,3
557013,2,55,42,0,1,2,0,0,0,17,6,16
557013,1,287,157,2,10,31,0,2,0,62,16,34
557021,1,199,131,10,14,10,2,1,3,50,7,34
557081,1,236,114,2,4,3,0,3,0,59,19,24
557099,1,344,213,7,10,27,2,1,0,119,9,38
557111,1,238,156,13,14,19,2,1,0,42,24,41
557129,1,265,161,10,13,8,0,0,0,83,17,30
557137,1,1083,681,17,40,57,3,1,3,293,79,188
557153,7,919,572,16,49,45,4,1,1,273,63,120
557153,6,1026,689,14,52,88,8,1,2,297,60,167
557153,5,1191,569,31,50,70,13,6,3,169,62,165
557153,4,1048,727,27,81,70,7,4,1,287,74,176
557153,3,145,88,1,5,10,0,0,1,31,9,31
557153,2,321,231,12,16,36,4,2,0,99,23,39
557153,1,96,64,0,1,5,1,0,0,38,9,10
557153,11,848,534,19,48,58,5,3,5,239,68,89
557153,10,1273,787,14,64,98,12,5,4,300,90,200
557153,9,1071,684,27,42,65,5,5,2,306,52,180
557153,8,1119,745,20,63,107,9,5,6,248,95,192
557161,1,272,185,8,18,13,2,0,0,81,18,45
557200,6,57,35,0,2,4,1,0,0,14,1,13
557200,5,42,35,0,0,1,0,0,0,15,6,13
557200,4,1018,675,26,64,66,9,2,3,288,45,172
557200,3,135,80,2,3,6,5,0,0,47,1,16
557200,2,74,59,2,2,4,0,1,0,33,6,11
557200,1,35,27,1,1,6,0,0,0,8,4,7
557366,4,335,214,5,16,37,1,1,2,62,26,64
557366,3,144,74,0,4,7,0,0,0,32,6,25
557366,2,114,97,2,6,17,1,0,0,24,6,41
557366,1,108,72,1,13,9,0,1,0,19,8,21
557374,1,205,120,1,12,8,0,1,0,49,11,38
557382,3,62,48,0,8,0,0,1,0,28,4,7
557382,2,94,70,1,7,5,3,0,0,20,8,26
557382,1,290,191,6,16,14,0,0,3,78,22,52
557455,3,265,177,8,7,18,7,0,0,81,14,42
557455,2,240,182,11,20,23,4,1,1,54,24,44
557455,1,216,155,5,18,11,0,1,3,50,16,51
557463,2,42,31,4,1,5,0,0,1,16,1,3
557463,1,322,179,6,7,19,1,1,0,78,14,53
557528,3,111,84,3,10,8,0,0,0,24,13,26
557528,2,260,200,9,22,37,1,0,1,37,25,68
557528,1,1328,914,67,138,102,16,3,12,216,73,287
557536,4,122,86,2,8,6,0,0,3,34,6,27
557536,3,57,45,2,4,6,0,0,0,16,5,12
557536,2,72,59,0,5,4,0,0,1,30,10,9
557536,1,223,141,1,5,12,1,2,1,74,17,28
557544,1,550,330,11,13,33,2,2,1,185,24,59
557587,8,53,44,1,2,2,1,0,1,23,2,12
557587,7,215,135,8,8,14,0,1,1,68,9,26
557587,1,1368,801,28,69,66,12,11,5,303,81,226
557587,6,87,60,1,15,5,0,0,0,20,7,12
557587,5,68,42,0,6,4,2,0,0,18,3,9
557587,4,36,22,0,3,2,0,0,0,9,3,5
557587,3,354,260,12,31,14,3,0,0,109,20,71
557587,2,1131,711,40,52,40,7,3,1,339,60,169
557641,1,439,323,22,18,28,9,0,1,141,22,82
557650,5,62,49,1,2,3,0,1,0,30,5,7
557650,4,140,91,8,5,13,2,0,0,42,3,18
557650,3,134,90,0,5,1,0,0,2,50,5,27
557650,2,46,29,0,1,1,0,0,0,15,3,9
557650,1,133,73,5,3,6,1,0,0,34,8,16
557668,2,90,53,2,6,1,0,0,0,29,1,14
557668,1,561,338,17,39,18,0,1,3,157,41,62
557676,4,991,523,18,62,37,10,3,0,226,46,121
557676,3,894,520,21,58,26,6,1,0,243,45,120
557676,2,1626,1005,49,123,70,11,8,10,398,105,231
557676,1,1336,702,28,66,61,6,8,3,315,69,146
557676,5,277,184,0,22,19,7,4,0,77,21,34
557684,4,58,40,0,3,1,1,2,0,22,1,10
557684,3,81,47,2,3,3,0,0,0,19,3,17
557684,2,143,88,7,7,8,1,0,0,35,6,24
557684,1,483,292,9,24,19,3,3,0,143,36,55
557722,2,90,54,2,3,2,3,0,0,37,0,7
557722,1,255,141,3,10,12,0,2,0,80,10,24
557731,1,443,264,16,29,15,1,3,1,120,21,58
557749,2,88,61,7,3,6,0,1,1,20,4,19
557749,1,93,60,1,7,3,1,0,0,24,3,21
557773,1,188,119,1,8,7,0,0,0,57,16,30
557781,4,107,79,4,11,6,0,1,0,35,2,20
557781,3,96,46,0,6,1,1,0,0,28,5,5
557781,2,869,405,11,33,23,4,4,2,206,31,91
557781,1,830,543,18,63,44,10,4,6,210,54,134
557803,1,440,284,8,24,19,5,1,0,152,22,53
557838,2,775,475,25,48,33,5,5,3,198,35,123
557838,1,890,468,19,35,23,12,3,7,237,37,95
557838,5,108,71,2,16,2,0,1,0,37,3,10
557838,4,65,37,1,3,1,0,2,0,17,3,10
557838,3,321,194,5,15,9,1,3,0,101,17,43
557846,3,47,39,3,4,2,0,0,0,11,5,14
557846,2,58,45,0,5,3,0,0,0,13,4,20
557846,1,467,307,19,22,28,11,3,3,97,37,87
557862,7,27,22,0,3,0,1,0,0,13,2,3
557862,6,53,48,0,3,6,3,0,1,16,2,17
557862,5,55,43,0,4,1,0,0,0,23,7,8
557862,4,54,36,0,1,3,0,0,1,24,1,6
557862,3,52,39,3,2,7,0,0,0,16,4,7
557862,2,45,35,2,3,2,0,1,2,17,4,4
557862,1,723,425,18,44,32,2,0,3,164,39,123
557871,2,99,71,5,2,3,1,0,1,34,5,20
557871,1,146,94,2,12,4,1,2,0,51,4,18
557897,1,161,97,2,19,8,2,0,0,34,4,28
557943,1,95,62,1,0,13,1,0,0,24,7,16
557951,5,39,32,0,0,0,0,0,1,17,5,9
557951,4,66,45,1,1,0,2,3,0,25,2,11
557951,3,80,64,1,3,5,3,0,1,29,6,16
557951,2,31,19,1,2,2,2,0,0,10,0,2
557951,1,372,222,12,18,9,0,3,1,100,17,62
558001,1,1057,734,40,84,66,11,5,2,278,57,191
558010,1,82,59,2,4,2,3,1,0,27,6,14
558028,3,77,56,0,0,3,0,0,0,39,5,9
558028,2,76,59,3,0,6,1,0,0,27,8,14
558028,1,381,255,5,22,7,4,3,1,107,20,86
558044,2,90,59,5,0,3,0,0,3,29,1,18
558044,1,809,474,18,33,39,9,2,5,216,40,112
558052,5,66,44,0,3,4,1,0,0,22,8,6
558052,4,47,31,5,3,2,0,1,0,13,2,5
558052,3,52,42,3,9,2,0,0,0,19,1,8
558052,2,45,35,0,3,1,1,0,0,20,1,9
558052,1,96,53,4,1,7,0,1,0,24,2,14
558061,5,93,71,0,10,5,0,0,1,32,11,12
558061,4,91,58,1,3,0,0,1,0,29,11,13
558061,3,50,38,4,0,6,0,0,0,12,7,9
558061,2,162,99,2,5,9,0,2,1,46,9,25
558061,1,175,93,6,9,3,0,2,0,42,9,22
558079,1,51,31,4,0,0,6,0,0,14,1,6
558095,1,153,100,0,6,7,2,0,0,55,10,20
558109,3,611,373,15,19,31,10,1,3,182,30,82
558109,2,961,599,14,40,62,6,1,3,301,50,122
558109,1,1241,740,26,76,84,15,3,7,294,65,170
558117,1,152,106,2,8,4,2,4,1,52,11,22
558125,2,69,37,1,4,1,0,0,1,19,4,7
558125,1,247,137,7,12,10,0,1,0,71,10,26
558125,7,54,46,2,4,1,0,4,1,26,1,7
558125,6,96,66,2,3,8,0,0,2,30,8,13
558125,5,52,30,1,6,1,1,0,0,9,4,8
558125,4,45,26,2,4,1,0,1,0,8,3,7
558125,3,57,39,0,3,2,1,0,0,20,3,10
558141,1,1160,784,29,72,70,6,9,6,330,61,201
558176,1,280,181,8,5,6,0,0,0,96,22,44
558184,2,101,58,0,2,7,0,1,0,36,2,10
558184,1,195,116,4,8,4,4,0,1,56,12,27
558231,1,173,111,7,13,11,0,1,1,39,15,24
558249,8,99,67,1,3,6,2,0,0,34,5,16
558249,7,203,120,3,15,2,2,1,1,41,17,38
558249,6,323,189,7,19,12,1,2,2,88,10,48
558249,5,764,524,28,42,48,5,6,3,232,54,106
558249,4,1194,782,39,78,64,9,4,4,333,82,169
558249,3,1112,584,26,48,62,2,3,1,260,46,136
558249,2,871,485,6,42,25,5,2,1,257,39,108
558249,1,853,521,26,57,50,2,2,4,207,61,112
558257,2,93,64,1,4,3,1,0,0,33,6,16
558257,1,704,470,18,60,44,4,2,4,188,41,109
558257,3,74,52,5,4,6,0,0,0,29,0,8
558265,1,156,108,1,12,2,0,0,0,61,8,24
558290,1,215,136,3,10,11,3,2,1,75,14,17
558303,5,96,69,0,5,5,1,0,1,29,12,16
558303,4,68,48,0,2,4,0,0,0,23,4,15
558303,3,164,106,1,7,5,0,1,1,51,5,35
558303,2,134,102,2,5,10,2,3,0,42,12,26
558303,1,280,182,3,13,11,2,3,1,85,18,46
558311,1,250,152,5,19,8,2,1,0,70,12,35
558346,2,173,116,1,11,7,1,2,0,78,6,10
558346,1,319,183,7,13,11,4,1,3,101,12,31
558362,4,114,65,5,4,3,2,0,0,35,1,15
558362,3,146,93,4,8,4,0,0,0,44,4,29
558362,2,114,72,2,3,3,1,0,0,29,8,26
558362,1,1383,797,23,60,97,20,9,3,325,79,181
558362,8,50,36,1,1,0,1,1,0,24,3,5
558362,7,149,101,3,6,2,2,0,0,53,2,33
558362,6,154,102,5,8,7,2,0,1,56,8,15
558362,5,90,59,5,4,4,1,0,0,30,3,12
558371,5,821,539,30,57,42,6,3,4,204,63,130
558371,4,399,255,13,28,25,4,0,2,112,23,48
558371,3,1037,774,28,85,97,7,3,8,245,73,228
558371,2,853,580,25,59,67,5,5,2,211,42,164
558371,1,910,564,30,70,68,13,1,1,185,55,141
558389,4,88,43,1,3,3,0,0,4,23,4,5
558389,3,938,560,24,59,33,6,4,3,255,41,135
558389,2,822,505,15,37,25,6,6,3,272,40,101
558389,1,1035,551,18,48,31,11,6,1,248,49,139
558401,1,336,231,3,24,17,0,2,1,100,17,67
558427,2,956,650,26,80,51,12,3,1,231,61,185
558427,1,755,489,24,51,44,3,6,3,187,36,135
558427,3,409,291,13,31,41,5,3,1,104,20,73
558435,1,1549,1048,48,124,123,15,10,6,352,90,280
558460,1,746,523,26,61,53,12,2,3,197,44,125
558486,2,135,99,2,15,8,1,1,0,30,17,25
558486,1,413,270,8,40,30,4,4,1,92,21,70
558494,1,275,143,2,6,8,2,0,0,93,10,22
558559,1,258,165,4,14,20,7,2,2,71,18,27
558567,1,432,251,2,25,11,1,0,0,118,26,68
558583,1,480,318,4,37,26,5,5,2,138,29,72
558591,2,78,63,1,8,7,1,0,0,30,2,14
558591,1,158,96,2,6,6,0,1,1,55,7,18
558605,1,371,237,5,19,12,1,0,2,130,19,49
558630,3,83,64,3,3,3,0,0,0,28,10,17
558630,2,110,85,7,4,2,4,0,0,50,3,15
558630,1,532,315,19,27,13,5,4,1,143,42,61
558656,1,547,281,3,34,20,0,0,2,151,14,57
558672,1,673,407,8,39,28,6,2,2,194,26,102
558699,1,132,94,6,20,13,1,0,0,32,6,16
558711,1,222,132,11,14,12,1,0,0,71,6,17
558745,1,452,306,12,25,26,6,1,4,122,18,92
558770,2,49,31,2,2,1,1,0,0,17,3,5
558770,1,295,202,8,21,8,2,3,2,84,20,54
558788,1,217,142,6,17,14,1,0,1,42,17,44
558796,1,362,252,9,9,24,4,6,1,110,17,72
558800,1,51,34,1,5,7,1,0,0,12,0,8
558834,1,594,408,22,56,35,3,3,1,141,38,109
558851,2,307,216,23,19,19,4,2,2,66,25,56
558851,1,1016,660,24,59,76,5,6,3,222,60,205
558869,2,585,271,6,30,5,1,7,1,154,25,42
558869,1,860,447,11,29,31,3,1,0,211,47,114
558877,3,96,72,0,6,4,0,0,0,47,2,13
558877,2,132,103,6,3,8,0,0,0,43,7,36
558877,1,240,179,5,10,18,1,0,0,82,20,43
558885,4,1026,514,24,42,36,7,6,1,230,47,121
558885,3,755,516,27,52,34,9,2,1,244,46,101
558885,2,1163,667,26,74,37,18,3,3,278,76,152
558885,1,571,305,6,37,15,4,2,1,158,13,69
558915,4,164,104,7,9,11,1,0,0,35,8,33
558915,3,109,93,1,7,3,3,0,3,40,15,21
558915,2,324,209,13,19,14,3,3,1,65,26,65
558915,1,429,277,5,15,22,7,3,0,99,18,108
558931,1,200,148,4,17,19,0,0,2,61,9,36
558940,1,905,616,39,57,67,3,2,2,226,57,163
558966,2,679,498,22,41,42,7,1,5,210,45,125
558966,1,764,505,25,50,41,13,1,3,196,41,135
558974,1,192,94,0,6,13,2,1,0,44,6,22
558982,1,122,91,4,3,23,1,1,1,32,11,15
558991,1,108,75,4,10,5,1,0,0,26,8,21
559008,4,742,400,14,42,35,9,2,1,148,43,106
559008,3,477,321,15,40,25,5,1,1,127,24,83
559008,2,639,399,12,35,12,8,4,5,214,37,72
559008,1,564,367,11,35,28,8,2,1,169,35,78
559024,1,119,82,1,9,3,1,0,0,39,3,26
559032,1,108,77,2,7,4,0,0,0,31,7,26
559041,1,511,328,12,41,30,11,1,1,146,34,52
559059,1,844,502,18,51,31,14,1,5,203,37,142
559067,1,1161,651,22,45,38,12,2,3,286,69,174
559075,6,102,74,3,3,6,0,4,1,38,5,14
559075,5,105,70,4,3,5,0,0,0,32,6,20
559075,4,692,453,15,51,39,7,7,1,158,66,109
559075,3,767,496,13,46,28,5,5,4,175,61,159
559075,2,624,392,14,25,28,4,0,1,183,47,90
559075,1,565,315,12,36,25,0,0,0,103,37,102
559083,1,314,191,0,4,9,2,2,1,104,16,53
559091,1,211,119,2,8,7,1,1,1,69,11,19
559105,1,196,112,11,12,1,3,1,2,52,20,10
559121,1,139,60,4,8,3,0,0,0,30,6,9
559130,1,736,497,22,49,61,11,1,5,153,65,130
559148,1,673,436,26,55,44,5,1,7,161,25,112
559164,3,411,289,11,23,13,6,4,0,167,24,41
559164,2,817,484,13,47,36,8,4,4,206,48,118
559164,1,840,485,29,48,31,11,3,0,196,36,131
559172,1,588,299,8,38,24,1,0,0,147,19,62
559202,3,113,61,2,5,4,0,1,1,27,6,15
559202,2,85,47,0,2,0,1,1,0,30,3,10
559202,1,734,502,13,58,50,9,1,4,225,37,105
559211,2,704,387,8,33,41,2,2,0,169,30,102
559211,1,961,602,22,49,44,10,3,2,244,61,167
559237,1,441,293,3,18,17,6,1,0,152,19,77
559245,1,270,211,4,24,18,2,0,0,85,14,64
559253,1,99,73,5,14,8,2,0,0,16,7,21
559261,1,511,322,12,20,14,5,2,0,174,27,68
559270,1,410,291,12,35,28,5,1,0,116,36,58
559288,1,232,161,9,22,5,1,1,0,64,20,39
559300,1,217,129,6,12,3,1,0,0,71,6,30
559300,9,429,233,6,19,18,2,5,0,96,15,72
559300,8,683,358,16,33,19,6,0,1,170,29,84
559300,7,676,240,9,18,20,3,6,3,83,38,60
559300,6,436,283,10,24,24,6,0,1,109,23,86
559300,5,851,432,15,41,19,3,9,0,211,26,108
559300,4,845,503,17,47,25,5,6,4,258,36,105
559300,3,894,530,22,43,28,6,3,2,269,41,116
559300,2,449,254,12,23,17,4,1,0,104,37,56
559318,1,438,309,9,25,23,4,2,0,140,31,75
559326,1,169,93,4,5,5,0,1,0,68,3,7
559334,1,622,352,13,45,22,5,2,4,165,24,72
559351,5,146,101,4,10,4,2,1,0,42,9,29
559351,4,162,88,1,10,6,1,2,0,32,16,20
559351,3,479,355,9,56,31,3,1,0,119,37,99
559351,2,483,315,16,31,34,6,0,0,109,26,93
559351,1,578,324,5,30,29,8,1,1,131,38,81
559351,8,136,109,8,8,8,1,1,0,35,14,34
559351,7,142,105,1,11,6,2,0,0,55,6,24
559351,6,66,48,2,0,1,1,3,0,29,4,8
559369,1,217,138,9,12,16,0,0,0,47,19,35
559377,1,358,221,11,10,15,4,2,2,119,20,38
559393,1,445,229,12,18,8,1,3,0,136,6,45
559423,1,231,144,2,8,21,4,1,0,77,6,25
559431,1,429,275,16,17,16,8,0,1,122,34,61
559482,1,91,54,1,6,0,0,2,0,35,5,5
559491,1,1380,833,35,84,65,14,2,3,324,83,223
559491,2,1137,732,38,78,64,17,0,2,255,68,210
559504,1,759,493,15,42,32,3,4,2,235,35,125
559521,5,589,406,29,57,49,4,0,4,93,32,138
559521,4,853,538,30,35,41,9,2,4,212,38,167
559521,3,889,581,24,67,55,6,3,4,196,48,178
559521,2,923,541,22,55,41,8,3,2,255,40,115
559521,1,741,498,29,57,29,9,1,2,216,36,119
559555,1,374,221,12,18,7,1,3,0,111,28,41
559563,1,477,284,18,16,12,2,1,1,157,20,57
559571,1,384,219,3,16,7,1,1,0,105,32,54
559580,2,940,654,37,74,50,7,6,3,217,70,190
559580,1,961,641,31,75,66,8,6,1,226,67,161
559580,3,1180,805,57,111,90,9,6,4,238,82,208
559601,1,711,446,25,49,40,6,5,3,171,46,101
559628,1,1113,682,26,66,62,4,5,3,298,61,157
559661,3,316,197,8,23,7,4,2,3,79,10,61
559661,2,663,410,21,50,25,5,4,1,176,27,101
559661,1,748,361,17,42,22,7,4,1,189,20,59
559679,2,1199,803,56,94,82,9,4,4,265,72,217
559679,1,1348,972,48,93,101,11,3,3,349,86,278
559695,2,523,348,11,41,14,5,2,0,149,45,81
559695,1,553,287,15,39,11,4,4,1,133,30,50
559709,1,359,228,5,22,31,1,3,2,71,21,72
559717,5,737,490,20,45,36,9,5,2,222,46,105
559717,4,1060,686,29,62,60,8,3,2,261,68,193
559717,3,858,531,21,65,38,3,2,2,229,49,122
559717,2,702,411,15,43,29,4,2,0,187,30,101
559717,1,1539,523,23,44,47,14,1,3,205,57,129
559717,12,347,252,12,27,19,3,0,1,99,26,65
559717,11,759,498,31,49,42,5,5,3,169,49,145
559717,10,1279,857,40,75,79,15,3,1,325,66,253
559717,9,949,622,24,60,69,4,3,1,216,54,191
559717,8,633,400,24,37,27,3,2,0,177,40,90
559717,7,1110,602,25,70,37,5,4,2,281,45,133
559717,6,869,452,22,55,25,8,1,2,206,37,96
559725,2,491,257,16,26,14,3,0,3,123,23,49
559725,6,151,93,6,7,2,2,0,3,38,8,27
559725,5,196,126,3,11,8,0,0,0,58,9,37
559725,4,201,124,5,10,12,2,0,0,50,11,34
559725,3,291,173,11,13,12,1,0,1,72,12,51
559725,1,482,293,5,32,13,4,2,0,149,32,56
559733,1,285,190,8,20,6,0,0,0,90,22,44
559741,1,54,42,3,0,4,1,0,2,24,1,7
559750,3,71,62,2,4,12,0,0,0,32,3,9
559750,2,149,103,2,14,10,0,0,0,45,5,27
559750,1,265,189,6,15,20,2,0,1,84,16,45
559768,1,111,79,3,18,4,1,0,0,20,14,19
559776,1,994,605,24,55,37,9,9,3,273,63,132
559792,1,526,376,16,37,34,8,2,4,136,42,97
559806,4,35,27,1,2,1,0,0,0,19,0,4
559806,3,34,33,0,3,1,2,0,0,17,3,7
559806,2,64,40,1,1,4,0,0,0,30,2,2
559806,1,148,93,6,9,3,0,3,0,54,7,11
559814,1,1171,743,29,63,67,6,2,5,336,53,182
559822,3,748,432,9,37,21,8,10,1,220,32,94
559822,2,788,313,9,26,22,7,1,0,179,26,43
559822,1,710,445,16,49,37,5,3,0,194,39,102
559849,1,206,140,4,5,11,6,0,0,67,3,44
559857,1,583,344,8,17,29,2,5,2,167,31,83
559903,1,522,321,9,30,19,3,1,0,140,30,89
559911,1,382,274,6,26,27,1,0,2,109,15,88
559920,1,156,86,0,7,2,0,0,1,46,6,24
559946,1,50,37,0,0,1,0,0,0,31,2,3
559954,1,195,124,5,5,3,1,0,0,75,14,21
559962,1,140,95,3,6,5,0,1,0,26,11,43
559997,3,391,244,7,14,25,2,1,1,120,21,53
559997,2,831,508,14,40,28,6,3,1,272,38,106
559997,1,646,386,19,26,32,8,3,5,165,37,91
560006,2,59,42,2,4,1,0,0,0,23,2,10
560006,1,189,116,10,13,8,0,0,1,47,12,25
560014,1,1201,736,40,59,49,10,7,6,310,69,186
560057,2,139,112,6,6,2,1,0,0,54,15,28
560057,1,877,598,23,54,41,3,4,7,277,44,145
560081,1,211,126,3,9,7,1,1,0,80,6,19
560111,1,175,122,10,7,3,2,0,0,64,5,31
560120,1,1437,856,46,63,58,11,5,3,375,88,207
560146,1,73,50,4,1,2,1,0,0,28,1,13
560162,3,514,346,14,20,21,3,7,0,149,29,103
560162,2,1166,574,38,48,33,6,4,2,284,35,124
560162,1,222,163,7,18,11,4,1,0,65,13,44
560189,1,248,147,4,10,15,0,1,2,81,7,27
560227,1,189,117,4,17,6,0,0,1,53,14,22
560235,1,212,133,8,6,11,0,0,1,60,12,35
560251,1,916,650,29,54,62,11,3,2,248,75,166
560260,5,25,20,0,2,0,0,0,1,7,2,8
560260,4,47,34,0,3,2,2,0,0,20,0,7
560260,3,21,17,0,3,2,1,0,0,7,1,3
560260,2,765,507,30,63,36,2,6,0,187,39,144
560260,1,1166,672,23,68,41,7,6,7,310,51,159
560715,10,584,335,13,44,19,3,5,0,148,27,76
560715,9,706,395,12,48,19,7,6,4,191,26,82
560715,6,1167,452,19,70,24,5,1,1,180,29,123
560715,5,810,433,7,52,38,3,2,1,192,41,97
560715,4,757,439,8,54,34,4,0,0,192,42,105
560715,3,890,556,17,64,39,5,5,3,212,37,174
560715,2,756,435,15,49,32,7,3,3,195,32,99
560715,1,796,500,19,64,32,6,3,5,219,41,111
560715,14,55,36,1,3,1,0,0,1,18,3,9
560715,13,205,121,3,7,9,1,1,1,44,8,47
560715,12,767,507,12,62,21,4,5,1,267,39,96
560715,11,840,444,12,62,26,7,2,1,195,34,105
560715,8,718,393,12,41,28,2,0,0,177,24,109
560715,7,523,272,9,26,7,5,1,1,134,18,71
560723,1,174,96,0,10,6,1,0,0,49,8,22
560740,1,744,408,8,23,25,6,0,1,214,39,92
560758,3,1131,423,18,45,23,7,2,0,233,30,65
560758,2,1023,503,11,40,24,2,2,2,253,45,124
560758,1,1017,542,10,37,22,6,5,2,302,36,122
560782,1,230,90,3,2,9,0,3,1,58,8,6
560804,1,275,193,12,18,3,5,0,2,102,20,31
560812,1,891,463,20,30,28,4,5,2,257,35,82
560839,1,292,190,6,30,5,1,0,2,77,18,51
560855,1,284,182,3,17,8,3,4,0,102,10,35
560863,1,746,379,9,54,32,4,3,2,171,29,75
560898,2,72,42,0,5,3,1,0,2,17,2,12
560898,1,234,103,3,1,2,2,0,0,65,6,24
560901,1,1435,749,23,83,36,3,3,2,387,42,170
560910,2,106,64,2,2,2,0,1,0,44,4,9
560910,1,489,274,5,31,18,2,1,0,156,11,50
560928,3,89,57,1,10,0,0,1,0,33,6,6
560928,2,62,42,1,1,2,1,0,0,23,5,9
560928,1,1061,608,12,54,44,5,3,3,297,63,127
560952,2,163,82,1,5,3,0,1,0,50,9,13
560952,1,628,412,18,34,40,1,1,1,179,36,102
560979,1,152,80,0,6,7,0,0,0,50,5,12
561002,1,365,183,5,33,5,0,0,2,102,7,29
561011,1,314,166,8,13,5,0,0,4,100,8,28
561134,5,710,391,6,28,20,6,0,0,225,35,71
561134,4,871,501,13,42,31,6,6,2,223,63,115
561134,3,896,493,15,44,25,6,1,2,261,23,116
561134,2,1098,542,17,57,40,5,4,0,246,41,132
561134,1,754,376,15,36,22,6,0,0,192,30,75
561151,4,208,93,2,5,6,2,0,0,52,6,20
561151,3,97,64,1,4,2,1,0,0,41,5,10
561151,2,111,49,0,4,2,1,0,0,26,3,13
561151,1,522,247,6,26,7,1,1,0,111,30,65
561169,1,581,334,10,41,35,3,1,0,146,22,76
561185,1,894,411,6,48,24,3,2,1,195,37,95
561193,1,203,124,1,12,4,0,0,0,91,5,11
561207,1,911,475,12,56,27,4,3,3,204,42,124
561215,4,1155,734,21,62,58,10,7,0,329,68,179
561215,3,1169,661,18,66,37,8,2,0,295,58,177
561215,2,1427,588,19,58,47,9,9,5,237,58,146
561215,1,579,337,11,41,33,3,0,1,128,26,94
561215,6,928,511,12,39,31,8,3,3,260,50,105
561215,5,791,458,15,37,44,7,3,4,215,44,89
561223,1,390,244,5,30,17,5,2,0,111,16,58
561231,1,169,119,3,15,4,0,0,2,64,9,22
561258,1,345,165,8,18,9,2,1,2,92,9,24
561291,1,184,98,3,8,2,0,2,0,46,13,24
561304,1,313,178,2,14,10,4,2,1,99,14,32
566055,1,249,153,8,16,17,2,0,2,50,18,40
566071,1,82,62,1,2,3,0,2,0,20,7,27
566080,1,68,26,0,4,1,0,1,0,14,2,4
566098,1,155,89,1,11,8,0,2,2,54,2,9
566101,1,69,48,1,2,6,0,0,3,25,4,7
566136,1,295,169,9,20,15,4,1,0,62,23,35
566144,1,159,128,4,6,8,3,2,0,54,10,41
566161,1,92,64,2,2,4,2,0,1,38,2,13
566179,1,128,84,7,2,4,0,0,1,33,9,28
566209,1,88,38,2,3,3,0,0,0,27,1,2
566250,1,99,58,2,5,1,3,0,0,27,9,11
566276,1,67,44,3,4,4,1,1,1,9,1,20
566292,1,173,74,3,11,2,0,0,0,45,2,11
566331,1,29,18,0,1,0,3,0,0,5,0,9
566365,1,215,136,7,19,3,5,1,4,68,12,17
566373,1,72,52,0,7,3,0,1,0,17,11,13
566390,1,62,44,0,5,3,0,0,0,18,4,14
566420,1,175,108,5,5,3,2,1,1,66,9,16
566446,1,211,141,5,9,7,1,0,0,74,14,31
566462,1,99,58,0,3,2,0,0,0,35,10,8
566471,1,99,59,4,3,6,0,1,0,20,10,15
566489,1,60,36,0,4,4,0,0,4,18,3,3
566497,1,47,33,0,4,1,0,0,1,15,3,9
566543,1,168,96,10,9,4,2,0,0,28,17,26
566594,1,77,58,1,6,2,0,0,0,41,3,5
566632,1,65,49,3,5,3,0,0,0,26,3,9
566641,1,155,95,1,10,2,1,0,0,64,4,13
566683,1,128,87,0,5,5,0,1,0,56,9,11
566691,1,50,34,1,3,1,1,0,0,21,5,2
566705,1,77,61,0,7,7,1,1,1,33,0,11
566730,1,55,42,0,4,4,1,0,0,19,3,11
566748,1,52,41,0,1,3,1,0,0,23,2,11
566756,1,519,374,13,30,42,3,1,2,157,27,99
566764,1,51,27,0,0,0,0,0,0,17,1,9
566781,1,61,48,3,7,0,0,1,0,24,1,12
566799,1,212,166,7,10,21,0,2,2,74,15,35
566802,1,141,82,2,5,10,0,5,0,30,2,28
566811,1,51,33,1,1,0,0,1,0,20,4,6
566837,1,121,76,4,2,6,2,0,0,32,11,19
566845,1,172,119,1,6,6,1,3,0,59,9,34
566861,1,97,82,8,7,8,0,0,1,29,13,16
566888,1,53,36,0,10,4,0,0,0,15,3,4
566942,1,191,131,4,17,16,0,0,2,57,14,21
566969,1,375,233,5,17,20,1,2,1,109,26,52
566993,1,97,82,4,8,3,1,0,0,29,7,30
567001,1,248,166,3,11,9,1,5,1,77,19,40
567086,1,258,168,11,10,14,6,0,1,74,18,34
578061,1,54,43,3,5,7,0,0,0,14,4,10
578070,1,103,70,4,8,7,1,0,1,32,3,14
578088,1,102,66,4,2,2,0,0,0,30,6,22
578177,1,72,36,2,2,2,0,0,0,22,2,6
578223,1,60,41,0,8,4,0,1,1,19,4,4
578240,1,110,66,1,12,2,0,0,0,30,4,17
578312,1,97,75,3,5,4,0,1,2,32,7,21
578321,1,96,65,2,5,2,1,0,0,31,9,15
578410,1,46,30,0,9,2,0,0,0,14,2,3
578436,1,90,80,0,4,7,1,0,0,33,13,22
578461,1,49,30,4,4,3,1,0,0,6,4,8
578495,1,126,94,3,9,5,0,0,0,53,10,14
578517,1,49,34,1,1,1,0,0,0,26,3,2
578525,1,80,66,3,3,8,1,0,0,26,8,17
578533,1,184,120,7,2,12,0,0,0,79,7,13
578541,1,199,141,4,14,4,0,3,1,77,9,29
578568,1,105,72,3,7,0,1,0,0,35,5,21
578592,1,65,46,1,5,2,0,0,0,20,6,12
578606,1,142,112,7,7,12,2,0,0,58,1,25
578614,1,83,50,0,4,4,2,2,1,27,4,6
578665,1,116,80,4,6,15,1,0,0,32,7,15
578771,1,103,59,3,4,3,3,0,1,25,8,12
578797,1,99,83,1,6,14,2,0,1,24,9,26
578827,1,126,76,1,3,3,1,0,0,47,10,11
578924,1,54,40,0,6,1,0,2,0,26,2,3
578983,1,197,137,4,15,15,2,0,0,55,13,33
579009,1,198,139,6,17,3,0,0,0,59,15,39
579017,1,80,59,1,2,1,0,0,0,30,7,18
579033,1,147,108,10,6,7,1,0,0,43,10,31
579084,1,71,49,1,6,2,0,0,0,25,4,11
579131,1,333,234,5,10,17,3,1,0,111,29,58
579246,1,93,65,4,3,3,0,0,1,42,8,4
579289,1,41,29,0,1,2,0,1,0,15,6,4
579343,1,49,42,4,1,1,1,0,0,30,2,3
579459,1,254,166,2,23,5,0,0,0,86,16,34
579467,1,82,30,1,2,0,0,0,0,17,7,3
579491,1,139,80,3,7,0,1,0,0,39,8,22
599131,1,119,92,12,6,2,0,0,0,51,6,15
599166,1,108,72,6,1,3,1,0,1,34,11,15
599174,1,48,32,3,1,0,1,0,0,12,2,13
599182,1,130,96,12,5,5,1,2,0,34,15,22
