A2,A3,A7,A8,A9,A997,A998,A999,B1114,B1350,B53,B768,B1450,B997,B998,B999
32,32,185,52,88,25,30,284,29,48,25,69,33,32,0,492
10,11,85,9,38,6,7,104,10,18,5,19,6,13,0,199
2,1,36,4,2,1,0,34,1,4,0,11,0,5,0,59
5,4,46,1,4,0,3,35,2,3,3,18,5,3,0,64
0,1,25,2,12,1,0,43,0,5,1,6,1,11,4,56
45,56,224,32,121,30,0,417,15,45,39,108,60,70,7,581
36,76,133,42,118,36,0,326,20,80,27,54,59,45,6,476
29,60,163,47,147,39,0,254,16,50,39,91,73,47,58,365
32,45,272,42,103,20,0,322,28,53,21,99,44,63,56,472
23,49,146,34,114,25,0,316,22,52,12,36,45,34,27,479
35,32,182,29,112,28,2,254,22,44,19,92,53,44,0,400
30,51,201,63,144,36,0,368,31,60,17,58,57,49,43,578
54,92,275,62,165,41,0,453,31,75,39,69,72,91,56,709
15,24,99,21,72,10,0,148,18,34,13,39,35,15,13,222
34,38,162,42,127,45,3,314,19,78,50,70,60,58,0,430
18,27,95,11,52,23,18,134,13,24,21,42,22,38,0,218
50,56,255,63,148,44,28,263,35,80,58,87,86,109,0,452
62,78,186,60,149,37,124,398,38,111,55,92,97,89,0,612
45,84,234,43,183,43,0,277,15,81,43,113,84,81,45,447
54,103,129,40,208,46,13,210,10,104,66,80,134,56,0,353
36,59,269,44,109,28,0,434,30,67,24,99,76,54,30,599
77,137,319,101,276,72,160,458,44,186,73,150,198,102,0,847
33,67,120,40,135,32,2,211,19,73,41,62,71,44,0,330
41,67,229,34,108,27,0,303,24,72,21,99,52,68,26,447
53,55,210,44,124,44,0,363,30,76,26,72,59,65,53,512
79,73,278,68,193,64,102,454,49,133,66,101,110,96,0,756
25,72,74,28,96,16,0,183,8,50,17,27,76,33,23,260
30,101,65,49,136,27,0,217,15,63,27,22,106,27,88,277
40,65,214,47,136,35,0,272,42,72,23,79,60,57,18,458
92,114,323,76,246,64,0,577,36,136,38,109,113,128,54,878
47,54,265,32,143,39,0,402,15,59,22,116,55,63,29,623
37,68,253,34,132,20,0,360,33,57,27,116,74,48,7,542
45,50,225,33,143,36,0,326,16,63,17,110,92,46,24,490
50,50,238,47,130,21,94,374,25,71,28,106,58,75,0,641
49,56,222,38,114,23,0,265,17,51,16,111,43,55,27,447
29,34,178,38,102,20,0,343,22,51,20,66,47,55,8,475
19,21,60,16,51,22,0,100,2,26,18,24,30,19,3,167
63,92,273,52,180,49,0,345,44,104,48,137,101,70,17,533
34,72,135,34,138,50,0,292,13,69,45,50,102,45,9,422
21,89,45,30,103,29,0,182,4,46,11,15,81,27,52,263
68,84,138,63,124,51,0,3415,39,90,32,32,57,59,34,3600
33,55,107,37,103,32,0,339,20,49,17,24,50,41,62,443
54,76,177,44,158,48,38,366,13,86,55,94,115,55,0,543
54,115,219,58,185,49,0,303,24,92,48,102,122,71,6,518
31,39,262,32,89,17,0,326,27,44,21,108,33,55,15,493
56,97,162,55,191,43,27,263,26,121,56,82,135,62,0,412
24,75,97,28,105,41,0,240,14,62,30,33,60,39,44,328
42,67,266,48,164,33,0,347,23,90,45,102,76,56,71,504
38,49,194,40,119,40,2,303,16,69,23,98,52,52,0,475
32,65,178,30,115,32,20,209,14,51,38,86,72,59,0,361
32,81,298,37,175,42,0,357,26,85,38,118,85,68,42,560
71,102,211,46,231,57,23,396,21,141,68,98,127,51,0,631
29,43,176,35,118,33,0,244,20,54,17,72,47,51,35,382
23,47,129,23,82,30,0,235,14,50,20,59,35,40,13,338
40,86,160,57,161,29,0,276,15,84,25,83,121,44,57,380
39,66,137,36,152,25,0,261,17,55,26,50,94,43,46,385
60,83,150,43,169,48,20,277,14,103,58,62,122,65,0,426
74,84,128,53,184,80,0,268,19,97,51,52,131,39,107,375
44,76,213,57,160,51,0,304,22,89,40,107,90,59,13,485
30,57,175,32,134,23,0,260,16,82,28,55,99,27,7,397
38,54,171,41,127,28,46,304,20,80,36,56,103,39,0,475
32,58,161,28,91,40,0,201,12,59,21,67,68,53,6,325
34,106,200,44,175,56,0,260,13,100,35,84,116,81,41,405
49,75,161,42,190,41,15,261,27,98,53,76,117,65,0,398
72,81,223,50,182,55,9,398,25,113,45,103,124,67,0,593
58,98,254,65,193,40,0,839,30,135,39,81,111,64,19,1068
45,105,195,54,175,37,0,391,22,80,25,72,99,59,45,600
51,90,155,42,159,51,0,336,16,100,30,62,96,47,26,507
30,50,244,35,142,17,0,341,27,70,20,119,59,48,19,497
52,77,273,59,156,43,55,363,27,109,48,105,89,59,0,641
19,22,104,22,81,20,0,118,12,46,14,59,32,21,9,193
78,66,187,81,124,52,0,284,26,106,48,65,82,62,11,472
15,47,48,17,52,14,32,75,14,25,7,33,42,34,0,145
40,51,141,47,111,24,2,160,23,43,31,67,65,45,0,302
41,79,156,20,135,37,0,155,14,81,40,60,79,45,12,292
42,86,207,60,213,38,33,364,31,96,66,116,123,69,0,542
53,54,176,51,131,36,49,420,12,80,29,99,72,50,0,628
19,21,91,22,52,11,1,159,8,32,9,41,22,32,0,232
32,53,127,14,71,31,6,215,18,51,29,61,56,29,0,305
33,80,169,40,105,20,0,230,26,59,23,70,78,46,8,367
56,102,158,54,159,35,0,278,38,88,33,55,123,51,7,447
47,72,211,61,139,43,37,447,36,112,45,63,82,81,0,638
45,75,260,48,159,31,0,384,31,92,24,98,67,78,68,544
41,95,204,45,155,39,0,290,28,73,32,99,87,58,20,472
46,87,210,55,214,51,0,312,28,110,59,105,125,76,13,459
41,75,129,36,132,39,8,255,16,65,45,60,93,41,0,395
38,53,132,33,120,32,0,272,17,66,26,55,71,38,13,394
31,72,114,46,109,34,0,241,22,64,28,48,70,27,56,332
41,64,247,28,126,21,0,334,20,60,24,101,61,60,45,490
23,49,108,31,72,29,0,188,18,45,19,56,49,38,11,264
26,54,159,31,105,32,0,216,23,48,20,63,66,34,14,355
50,90,153,53,184,62,0,333,15,106,39,57,104,64,26,514
35,67,154,24,120,27,0,187,19,66,29,64,72,40,10,314
58,82,196,54,153,48,0,392,23,107,47,67,95,77,13,554
56,89,270,41,159,58,0,383,51,92,45,122,88,83,49,526
45,66,191,42,130,34,0,365,32,61,37,65,102,62,13,501
107,103,457,101,253,73,12,684,41,120,57,142,140,102,0,1188
3,4,35,3,9,6,2,35,0,7,2,5,2,7,0,74
8,8,54,10,17,3,13,61,10,14,4,16,7,18,0,105
8,15,66,10,40,7,12,82,4,27,2,28,9,20,0,150
0,0,20,2,13,3,0,37,3,5,0,8,1,9,6,43
4,4,47,5,22,2,0,29,1,10,5,8,18,10,2,59
0,10,27,3,32,3,0,37,3,9,0,9,7,7,3,74
4,5,36,13,17,0,0,72,1,10,1,12,13,11,3,96
45,30,136,34,67,24,1,171,16,56,16,54,30,45,0,291
92,164,540,132,376,96,24,636,30,172,88,212,157,160,0,1241
6,0,29,4,16,2,0,34,2,7,3,6,2,9,9,53
4,4,13,6,10,5,0,15,1,2,2,4,8,6,1,33
21,45,113,45,72,23,0,194,11,34,14,34,72,60,4,284
5,9,34,3,18,2,0,22,2,3,1,8,17,14,3,45
8,4,38,11,14,4,5,28,5,9,0,24,5,5,0,64
9,0,22,11,11,5,0,11,1,8,1,9,6,14,0,30
10,9,25,6,18,5,1,37,4,15,5,7,7,14,0,59
3,6,19,5,13,1,0,19,2,5,3,7,8,10,1,30
11,7,40,6,27,1,2,51,11,15,17,12,3,6,0,81
36,30,186,39,80,26,22,388,15,59,43,69,23,53,0,545
46,32,160,30,59,19,0,278,12,41,24,39,13,39,9,447
4,19,63,12,25,3,8,53,3,16,3,24,22,27,0,92
16,11,81,8,19,5,0,80,8,14,4,28,20,6,7,133
91,195,330,121,280,66,50,589,50,197,117,144,185,95,0,934
3,2,51,3,14,3,0,45,1,6,1,24,3,8,3,75
15,12,69,8,30,11,0,78,7,15,1,44,17,19,3,117
15,29,120,15,33,12,0,92,5,17,0,27,31,30,0,206
27,55,177,43,87,36,46,315,23,67,11,78,43,66,0,498
51,95,333,69,179,44,0,503,33,55,17,129,172,69,13,786
61,84,345,65,185,48,39,400,45,98,35,132,82,96,0,739
10,7,51,9,33,9,0,101,3,14,3,19,12,16,9,144
52,48,323,48,149,40,0,596,40,56,33,122,39,85,36,845
11,24,136,23,50,18,0,330,13,27,12,49,26,32,2,431
55,88,409,86,189,49,5,589,32,100,35,173,107,75,0,948
63,78,334,71,252,56,21,498,46,122,49,125,149,89,0,793
26,39,123,19,68,33,0,176,22,27,22,48,27,24,17,297
43,82,266,59,149,54,14,320,30,89,52,131,79,69,0,537
50,68,289,51,121,36,12,349,33,90,24,138,66,50,0,575
27,38,191,31,82,13,0,200,18,40,12,60,72,44,4,332
17,29,144,35,57,12,0,177,14,35,11,45,26,27,2,311
12,19,92,32,50,35,0,163,4,25,16,29,17,42,14,256
41,37,244,39,123,35,0,720,32,62,37,82,39,82,15,890
3,4,29,6,16,3,0,52,4,2,1,12,20,6,0,68
8,7,57,11,24,4,1,43,5,21,5,15,5,20,0,84
50,78,342,67,140,29,0,416,19,90,33,96,64,100,29,691
41,60,262,35,131,29,0,406,18,51,31,87,44,92,17,624
31,27,209,28,99,26,0,254,9,44,21,69,25,68,15,423
8,22,98,21,58,11,0,104,2,36,8,43,31,12,0,190
7,19,54,5,15,7,18,59,2,12,2,19,24,31,0,94
10,8,48,7,29,3,0,72,3,17,4,16,9,16,9,103
6,44,73,18,57,4,0,93,1,36,6,30,40,21,5,156
12,6,56,8,24,6,0,75,7,21,4,12,14,19,6,104
52,69,311,92,154,31,0,545,31,84,42,106,67,97,41,786
15,32,115,21,50,18,0,141,10,23,11,59,31,21,6,231
12,8,54,9,31,5,0,99,10,13,6,14,15,13,0,147
5,14,76,8,56,6,1,80,8,19,7,43,18,26,0,125
3,10,45,12,16,1,0,30,3,6,0,8,19,12,2,67
13,20,162,26,48,14,29,152,14,23,14,49,24,37,0,303
0,8,26,2,7,11,0,28,4,6,7,8,7,4,6,40
3,2,23,1,11,1,1,15,1,6,4,2,2,4,0,38
18,32,194,34,92,15,24,168,15,46,14,40,57,36,0,369
20,40,174,47,66,15,0,329,23,39,11,55,24,53,2,484
22,27,173,25,48,11,0,191,10,28,5,82,13,32,12,315
38,38,213,26,121,24,0,362,13,52,19,76,49,45,9,559
32,44,258,69,140,37,20,368,28,82,29,96,89,78,0,566
14,27,117,8,25,19,0,217,6,32,8,31,21,26,47,256
4,6,27,8,15,2,0,40,3,18,1,11,3,2,5,59
10,20,92,21,33,4,0,94,9,55,5,39,11,20,9,126
30,83,224,42,83,27,7,306,18,132,14,103,60,53,0,422
5,5,32,2,16,5,4,33,1,15,1,7,8,7,0,63
47,67,208,50,123,34,7,327,21,61,32,64,74,64,0,547
51,57,292,51,160,33,0,479,10,65,46,75,58,50,107,712
41,57,179,45,134,35,6,306,12,108,27,75,48,67,0,466
10,19,51,13,21,5,2,54,0,26,8,25,16,5,0,95
41,98,294,56,166,31,0,413,23,138,36,77,80,69,10,666
3,9,75,5,21,6,0,81,2,5,14,19,9,16,4,131
19,19,110,17,35,11,13,92,6,18,11,39,15,43,0,184
39,73,376,63,159,40,0,326,44,69,28,107,88,76,68,596
10,18,114,20,55,8,0,137,20,23,8,29,29,18,6,229
42,55,235,54,109,32,27,530,44,88,15,84,45,46,0,762
56,57,322,64,156,26,10,274,28,95,27,110,62,72,0,571
29,18,148,36,33,12,0,182,11,35,9,61,28,22,10,282
58,76,389,69,179,47,0,500,42,59,74,144,64,98,11,826
66,57,240,45,149,42,0,413,21,70,77,113,41,44,30,616
34,66,272,40,101,28,0,359,35,52,42,93,32,56,6,584
28,29,226,37,99,21,0,519,28,50,32,97,20,32,46,654
78,95,261,39,176,35,2,449,22,76,82,96,83,44,0,732
5,5,34,5,19,6,0,42,8,4,11,11,5,5,0,72
54,92,281,50,146,60,0,531,38,90,55,95,56,85,22,773
85,79,325,74,219,68,0,509,43,106,120,117,71,81,13,808
70,97,334,68,170,64,113,1052,45,103,107,116,73,82,0,1442
35,52,220,35,116,25,0,259,26,38,31,68,49,63,54,413
4,7,36,10,10,7,0,76,3,7,3,19,1,12,3,102
2,9,17,4,13,2,0,28,5,9,2,7,5,2,4,41
4,4,32,5,10,0,0,26,2,3,1,11,1,8,4,51
10,8,87,15,19,8,8,106,6,11,21,38,12,7,0,166
57,54,269,78,128,39,0,481,22,51,106,109,44,43,20,711
18,52,122,26,94,19,0,239,7,38,26,52,38,30,3,376
8,28,86,13,45,18,12,87,12,24,11,36,39,11,0,164
4,9,53,3,47,4,14,43,5,17,7,16,29,11,0,92
6,6,63,10,31,1,3,56,1,21,16,19,6,10,0,103
38,109,330,75,175,27,0,425,31,93,55,103,61,80,17,739
3,2,34,3,13,3,0,44,5,7,0,9,13,11,6,51
0,7,37,0,4,1,2,20,6,0,0,14,5,1,0,45
5,5,30,4,24,9,4,30,2,7,0,18,13,5,0,66
42,53,234,53,109,33,20,320,13,61,19,91,57,59,0,564
1,5,24,6,8,8,7,39,4,10,6,7,5,6,0,60
43,53,320,59,134,29,15,517,21,75,46,120,46,58,0,804
4,5,25,6,21,5,0,47,1,7,17,11,6,6,6,59
2,2,36,2,12,1,0,40,5,6,2,7,1,5,0,69
7,5,59,13,23,7,0,87,7,2,19,24,8,17,0,124
46,46,250,37,120,19,0,358,29,61,83,98,22,53,6,524
53,79,276,57,194,33,5,311,23,106,138,93,73,51,0,524
22,36,117,26,70,13,38,604,10,48,78,35,14,39,0,702
18,51,86,11,55,11,0,117,5,22,29,22,33,17,10,211
13,13,74,16,48,6,5,71,3,16,39,35,5,12,0,136
4,3,21,4,11,2,0,54,0,3,10,6,1,5,3,71
6,12,53,2,18,2,3,59,2,5,12,8,10,13,0,105
38,70,252,56,129,23,0,440,22,63,72,95,37,63,46,610
30,27,202,30,103,19,5,296,20,38,52,86,31,64,0,421
18,34,114,27,67,6,0,168,6,35,38,57,24,30,4,240
20,40,199,44,132,17,3,336,20,64,73,71,22,50,0,491
42,31,196,48,84,29,3,311,15,42,57,87,20,53,0,470
39,43,210,42,103,15,1,472,34,48,73,67,14,52,0,637
65,148,283,98,238,71,52,404,19,112,82,122,187,75,0,762
54,104,270,71,205,57,40,497,17,90,62,106,148,83,0,792
16,5,57,12,41,8,12,76,7,16,14,20,26,21,0,123
5,23,80,13,55,14,13,67,16,34,2,47,23,21,0,127
99,145,431,96,278,80,77,585,55,147,57,165,170,117,0,1080
48,62,273,60,162,37,0,409,31,74,28,94,90,69,5,660
20,46,74,14,70,16,0,136,7,30,15,14,47,30,12,221
7,13,65,18,28,11,2,62,8,21,15,23,10,18,0,111
28,22,123,19,83,16,0,124,0,42,26,59,26,42,8,212
35,67,272,46,101,31,0,299,25,51,40,83,71,63,21,497
34,66,294,50,128,50,0,296,32,59,67,112,69,54,21,504
22,15,150,20,49,20,0,408,14,17,23,76,21,23,32,478
23,51,197,33,87,32,0,259,23,46,50,73,37,36,10,407
25,19,167,24,100,32,19,227,36,48,46,68,26,29,0,360
20,9,152,21,61,17,0,217,8,19,18,53,11,46,10,332
23,23,102,12,52,8,0,393,14,27,22,32,23,34,8,453
5,18,74,15,31,7,1,96,5,10,2,15,17,16,0,182
47,28,208,37,102,38,2,194,22,46,46,94,35,55,0,358
12,5,63,5,29,5,15,61,4,17,19,16,10,24,0,105
38,38,149,37,98,25,0,258,25,55,41,54,29,28,25,386
24,33,210,39,94,28,0,1978,34,37,41,66,27,40,20,2141
38,45,244,44,94,46,0,485,35,39,73,90,42,42,11,664
28,44,240,47,102,38,0,312,26,52,47,73,40,64,21,488
43,97,277,59,139,51,0,389,37,65,77,98,77,70,3,628
51,42,267,34,131,31,0,284,26,60,48,103,34,59,37,473
20,26,165,22,97,17,39,251,23,26,35,78,33,43,0,399
19,36,202,22,89,27,0,275,18,25,24,74,24,29,40,436
25,25,215,25,75,14,0,275,22,33,17,76,16,37,14,439
33,32,262,31,88,42,0,317,34,43,40,86,27,54,10,511
25,33,225,32,80,29,0,260,26,26,38,72,25,33,62,402
29,30,219,39,77,29,0,270,30,27,44,76,30,28,19,439
12,32,170,26,70,24,0,205,21,23,13,73,30,32,11,336
48,40,261,53,105,43,0,273,35,51,47,108,50,68,15,449
24,37,234,27,90,26,1,236,27,33,35,88,39,59,0,394
21,14,162,18,71,16,0,229,20,25,23,54,19,22,4,364
50,46,363,55,128,40,0,349,30,59,59,124,39,71,15,634
29,45,341,46,106,41,0,386,28,53,45,137,33,67,28,603
18,45,267,41,112,20,0,313,29,34,55,79,35,55,11,518
32,30,270,33,74,22,0,308,40,37,19,93,42,59,32,447
37,29,255,37,99,20,0,293,39,33,33,100,37,44,16,468
27,31,260,50,74,39,0,283,27,46,32,94,43,54,25,443
27,40,307,38,107,20,0,253,29,48,29,99,37,61,23,466
35,23,191,44,95,48,41,193,27,41,74,59,42,44,0,383
30,30,141,28,78,17,2,161,10,52,56,54,30,26,0,259
13,22,128,27,63,20,0,154,19,25,25,38,20,30,3,267
14,26,140,19,50,14,0,346,15,16,13,49,19,20,21,456
23,25,227,26,77,15,0,239,16,27,21,80,21,41,22,404
24,36,209,36,66,13,0,263,25,25,19,61,29,29,51,408
28,15,189,19,53,22,0,323,32,25,23,73,11,37,2,446
19,28,136,25,74,16,0,252,16,29,29,47,31,34,7,357
7,8,55,10,14,4,0,57,9,10,9,23,6,15,1,82
20,30,137,28,54,13,0,158,7,30,16,57,40,39,19,232
27,34,190,36,63,42,0,174,17,30,27,82,45,47,10,308
32,32,239,44,90,31,0,430,20,49,52,72,24,45,72,564
6,6,34,5,6,2,0,62,5,3,5,11,3,10,2,82
15,8,64,13,24,7,0,77,5,7,4,20,11,13,10,138
43,56,280,34,99,39,13,498,23,42,21,74,59,49,0,794
36,27,198,38,63,24,10,160,14,39,20,72,30,41,0,340
6,9,40,13,27,6,9,45,2,11,9,8,22,15,0,88
33,28,252,32,103,34,5,309,15,38,29,71,45,39,0,559
0,6,51,3,18,2,1,71,2,4,6,17,12,14,0,97
27,41,221,40,88,33,0,238,18,51,23,98,43,47,6,402
29,69,200,33,90,24,0,320,21,53,10,69,66,37,14,495
17,19,112,13,36,8,3,108,9,11,9,58,18,14,0,197
16,32,110,25,41,12,1,80,7,18,7,37,22,23,0,203
15,54,111,29,57,14,0,178,11,51,6,50,45,19,20,256
6,3,35,6,8,4,5,29,2,4,2,21,2,11,0,54
19,31,132,24,81,12,5,151,19,33,10,39,52,26,0,276
9,17,45,9,33,9,7,61,5,36,10,10,13,10,0,106
13,11,73,12,38,14,10,65,8,16,5,20,13,14,0,160
11,9,119,15,27,4,1,113,18,16,5,38,17,18,0,187
25,13,132,25,70,16,0,176,11,22,17,35,52,23,4,293
19,20,140,25,61,28,4,146,19,11,14,38,30,56,0,275
12,37,201,22,75,25,0,200,22,28,17,49,47,43,11,355
35,39,221,55,115,23,31,288,31,41,53,68,48,54,0,512
9,23,87,12,44,9,13,59,12,13,9,32,23,30,0,137
8,25,75,20,33,8,7,67,5,11,9,27,34,18,0,139
42,58,192,34,143,56,11,259,25,64,51,83,86,48,0,438
52,77,261,56,129,25,0,471,32,64,18,70,49,65,20,753
31,67,256,49,108,31,0,322,22,71,26,100,53,59,20,513
3,4,34,2,11,7,5,38,8,3,3,12,1,8,0,69
9,14,80,14,16,6,1,84,13,14,5,20,16,18,0,138
8,6,34,6,13,11,0,45,3,9,6,6,3,13,2,81
58,107,354,74,169,59,3,429,43,65,43,106,94,82,0,820
29,49,257,39,127,24,0,356,25,66,23,98,24,66,26,553
30,31,203,35,85,25,0,209,28,46,18,74,36,43,8,365
21,29,155,22,42,21,15,207,18,23,15,49,21,23,0,363
23,40,232,27,119,22,0,445,29,49,24,72,46,56,81,551
28,52,251,44,100,16,0,406,17,72,13,86,31,54,31,593
29,61,196,41,124,27,10,359,23,51,36,71,53,45,0,568
13,25,150,27,61,16,5,164,12,41,10,38,25,33,0,302
31,66,176,37,142,28,0,291,17,39,36,92,62,57,5,463
22,32,117,26,86,19,18,781,20,42,24,37,32,25,0,921
58,39,240,44,101,25,0,531,23,61,14,65,26,65,20,764
30,61,254,41,115,28,0,316,23,40,21,82,38,47,73,521
48,93,205,36,187,56,0,304,17,100,43,87,66,71,15,530
11,36,43,14,27,2,2,31,7,13,6,14,54,8,0,64
3,24,43,15,28,13,0,43,4,11,5,12,31,9,4,93
54,101,255,75,190,33,15,347,10,87,26,92,169,51,0,635
5,55,91,34,70,14,14,104,6,38,13,42,59,25,0,204
10,26,65,21,31,5,0,51,8,34,9,23,7,13,1,114
1,2,49,5,8,0,3,52,7,4,1,6,1,9,0,92
6,6,35,3,15,9,0,56,3,2,6,8,4,2,11,94
36,32,176,21,70,20,0,633,29,19,16,41,28,51,16,788
28,32,251,49,75,27,0,320,23,29,21,93,16,46,3,551
28,28,186,17,55,21,0,254,15,26,18,52,23,22,22,411
32,36,194,42,74,18,2,389,16,35,26,43,22,31,0,614
15,28,164,24,67,24,0,299,24,18,18,69,22,31,13,426
33,64,268,65,108,40,0,343,19,38,18,90,92,35,58,571
10,7,60,9,21,7,0,65,8,16,5,10,9,14,5,112
19,17,145,33,51,12,0,190,21,39,17,40,9,28,12,301
17,8,99,10,35,9,0,92,5,13,4,36,20,21,7,164
0,2,12,4,9,3,5,18,2,9,4,4,4,6,0,24
4,4,18,5,15,4,0,39,0,4,3,3,10,5,1,63
1,12,62,6,16,10,9,61,13,6,2,16,15,18,0,107
10,19,83,13,27,15,0,92,11,7,5,25,15,22,10,164
27,35,126,27,66,20,0,219,24,31,20,34,40,41,4,326
46,67,231,46,123,34,0,395,18,35,36,63,81,85,47,577
49,38,187,30,99,27,0,307,20,33,19,60,57,78,25,445
45,35,293,43,146,32,0,332,32,39,41,74,74,103,19,544
31,24,247,32,95,19,0,395,24,37,23,73,47,61,43,535
25,31,110,28,88,29,85,674,23,33,26,31,33,45,0,879
9,21,72,4,33,7,0,88,9,13,2,17,22,14,3,154
24,16,178,23,74,11,0,281,11,25,9,52,18,20,14,458
15,45,94,19,37,10,6,78,16,20,2,35,43,12,0,176
9,32,109,12,29,12,10,139,13,19,8,32,18,31,0,231
15,21,55,9,40,8,13,46,8,13,7,18,33,13,0,115
8,6,62,6,16,5,0,54,6,6,2,25,22,5,2,89
3,1,29,3,11,0,0,43,4,2,2,7,9,4,1,61
24,51,157,30,100,34,12,262,23,44,30,45,36,38,0,454
6,3,28,8,6,5,0,17,1,4,4,19,6,6,3,30
46,63,300,48,154,37,15,339,40,56,34,104,89,65,0,614
27,36,75,17,36,11,11,114,7,27,13,25,37,15,0,203
11,26,105,30,83,20,1,123,3,28,10,39,42,27,0,250
20,47,210,43,84,15,0,176,26,42,12,34,53,37,17,374
16,15,111,22,54,18,0,176,10,21,12,34,21,18,17,279
6,3,66,3,17,1,20,108,11,6,1,15,10,9,0,172
5,4,24,0,3,2,0,35,0,4,4,12,2,4,0,47
3,5,42,0,12,3,4,51,4,7,1,12,1,1,0,94
3,3,40,3,17,5,0,27,1,11,1,15,5,3,5,57
5,3,19,2,14,3,3,29,0,4,2,9,3,2,0,58
23,35,171,29,61,20,0,282,2,30,25,39,21,34,6,464
25,22,242,24,92,26,0,243,13,52,19,80,49,45,10,406
9,18,35,1,13,3,14,29,3,1,1,14,19,21,0,63
7,20,78,6,21,4,0,89,5,11,5,18,13,26,1,146
12,4,72,7,20,5,16,70,4,3,8,35,16,17,0,123
1,7,52,5,12,3,0,49,10,10,2,11,11,5,7,73
7,14,46,6,24,4,0,47,4,11,5,30,25,10,0,63
45,45,269,53,126,35,6,346,28,34,31,87,68,40,0,637
8,9,93,27,45,16,8,123,7,34,11,28,19,16,0,214
13,30,50,12,31,2,0,76,5,26,8,21,9,15,2,128
8,24,114,15,40,11,0,181,14,23,7,33,22,27,0,267
35,36,90,31,75,19,23,204,10,43,19,51,38,16,0,336
5,1,43,5,29,0,6,48,2,9,5,30,10,10,0,71
21,43,184,23,60,6,0,151,20,23,7,45,41,23,7,322
21,36,143,16,56,12,7,212,23,25,14,31,34,29,0,347
40,63,195,33,101,29,12,219,16,61,25,56,72,29,0,433
9,15,95,19,39,20,0,74,11,9,10,44,25,19,4,149
27,31,96,23,75,12,3,40,17,38,16,35,27,19,0,155
30,45,276,49,121,35,0,446,22,44,35,80,75,46,13,687
49,62,314,61,132,49,0,370,30,48,50,100,82,46,5,676
21,51,272,43,108,37,0,284,12,73,18,125,46,29,3,510
45,60,250,42,98,42,0,307,10,59,16,92,47,46,19,555
16,26,120,21,47,19,7,99,13,32,19,59,21,18,0,193
17,71,102,30,64,15,6,140,8,42,4,43,70,32,0,246
13,38,43,11,11,7,0,70,2,9,3,20,36,12,11,100
13,15,68,4,15,11,1,58,9,7,9,23,14,9,0,114
16,21,163,26,62,25,5,139,9,32,18,79,15,46,0,258
40,50,171,54,128,38,0,214,19,70,72,82,36,28,4,384
33,41,195,40,79,13,0,296,21,45,17,85,29,26,20,454
43,60,172,35,82,24,0,371,20,59,30,71,31,54,25,497
53,46,201,41,131,44,15,341,27,84,38,77,45,59,0,542
50,61,221,39,114,17,0,393,29,73,30,61,26,45,1,630
23,38,160,23,110,16,0,185,14,45,25,70,30,24,31,316
52,69,209,44,165,35,0,256,31,75,73,90,35,56,21,449
33,63,161,39,77,22,0,251,25,52,39,80,29,50,0,371
28,74,143,32,95,23,0,232,15,51,41,64,55,30,28,343
38,53,200,26,117,16,1,265,19,67,35,89,37,30,0,439
36,56,163,19,94,25,6,310,29,51,35,70,37,21,0,466
43,37,209,44,89,26,0,301,33,60,17,80,21,28,11,499
20,37,113,32,78,11,0,301,18,47,16,27,21,31,17,415
38,91,192,46,126,48,0,233,24,71,63,108,76,33,29,370
31,25,228,35,104,29,0,293,38,61,24,93,23,38,1,467
32,69,203,29,125,31,0,331,34,59,41,73,37,33,27,516
38,65,154,42,95,29,0,328,20,57,46,54,53,32,31,458
55,47,202,45,116,32,4,302,34,74,40,93,39,45,0,478
39,42,224,43,73,22,0,312,33,47,23,86,22,33,23,488
51,67,155,23,90,34,0,1178,29,85,43,63,51,36,14,1277
38,43,186,27,69,24,0,309,27,39,19,71,19,32,6,483
29,49,187,32,84,30,0,294,26,40,26,72,38,35,8,460
20,34,190,20,74,13,0,277,17,35,14,72,27,41,20,402
46,46,215,40,105,27,0,294,23,80,14,92,28,45,24,467
22,24,206,19,77,16,0,262,14,38,15,92,19,26,21,401
31,53,193,26,75,13,6,219,19,34,29,73,25,45,0,391
21,28,81,27,63,20,0,149,5,32,17,35,16,7,66,211
38,33,212,32,86,9,0,219,26,31,26,81,50,35,15,365
20,17,219,21,61,8,0,351,26,38,11,83,23,28,37,451
54,76,247,41,142,41,0,231,24,63,81,97,43,43,4,477
42,69,246,49,94,24,11,322,18,59,58,80,47,33,0,562
46,69,236,30,137,33,0,283,19,64,88,86,45,31,12,489
8,3,30,14,13,6,0,41,2,12,5,7,3,4,4,78
18,29,171,29,65,18,0,241,17,29,10,70,24,32,1,388
9,23,46,11,46,17,0,103,2,17,13,14,11,13,30,155
27,33,156,23,64,10,4,217,8,38,11,46,36,51,0,344
16,33,107,11,59,11,0,91,6,34,1,43,25,19,7,193
18,17,138,27,42,19,0,213,6,32,6,34,11,19,17,349
20,26,121,23,52,11,37,145,12,16,9,45,15,24,0,314
43,68,277,47,104,36,14,274,22,88,32,90,95,52,0,484
29,26,285,36,90,16,0,372,14,33,7,130,14,45,31,580
38,33,293,29,63,23,0,594,27,29,15,104,22,40,46,790
27,26,172,13,65,16,0,372,14,31,6,64,13,22,26,515
12,23,65,11,53,19,6,99,2,17,44,24,27,11,0,163
7,40,117,19,45,7,0,93,8,23,4,49,36,26,0,182
26,31,215,21,88,24,0,298,23,35,14,69,23,38,18,483
2,1,54,5,7,6,7,81,4,12,3,15,4,3,0,122
8,4,91,12,20,4,0,114,12,5,3,37,3,18,18,157
36,30,275,38,93,32,6,422,40,33,16,131,36,45,0,631
31,36,315,46,92,32,0,522,22,48,35,142,34,40,19,734
31,44,128,24,96,11,0,218,10,55,21,43,39,22,4,358
24,33,150,24,72,30,0,244,26,44,16,54,21,22,16,378
52,64,330,61,154,55,0,371,32,82,34,136,96,37,16,654
46,70,253,44,133,39,0,468,38,86,34,83,88,56,14,654
49,43,243,40,117,33,0,360,30,55,28,97,63,35,18,559
52,35,268,40,120,20,0,498,22,61,23,94,61,53,45,674
31,30,133,29,74,16,0,234,22,48,16,46,35,25,47,308
49,44,261,29,100,39,0,938,25,73,33,94,75,33,9,1118
49,50,337,51,133,35,0,517,36,61,37,129,63,46,84,716
42,52,150,26,106,43,0,244,17,49,30,55,58,48,11,395
2,7,32,7,12,3,0,58,4,1,2,6,8,7,17,76
23,26,221,19,53,12,0,419,19,28,7,74,17,13,37,578
9,15,153,13,51,12,0,185,11,15,5,38,7,59,10,293
6,2,30,4,17,4,1,31,1,10,10,17,3,14,0,40
19,38,194,28,108,20,0,199,20,49,20,84,37,32,20,344
22,24,56,14,34,3,0,97,4,18,10,20,18,10,0,170
31,48,167,23,63,18,0,179,7,36,9,62,48,37,8,322
58,70,304,54,153,30,0,370,18,88,15,110,64,53,16,675
7,3,59,7,10,4,0,84,3,10,1,18,1,11,15,115
27,25,128,32,46,17,0,160,6,40,27,47,20,23,5,267
40,20,132,41,66,15,9,263,9,27,19,41,15,38,0,437
35,45,269,52,121,29,0,501,26,62,40,94,33,54,33,710
33,25,169,23,52,23,0,219,21,30,32,41,19,25,18,358
75,70,360,77,154,46,0,604,35,99,53,113,55,57,93,881
15,10,102,20,40,9,19,99,11,30,12,26,9,30,0,196
4,2,43,1,11,0,5,54,3,10,4,10,3,9,0,81
43,37,206,43,105,16,4,295,14,58,26,92,37,44,0,478
11,8,32,12,22,6,4,61,4,25,8,8,12,22,0,77
27,41,208,54,115,30,23,271,14,66,28,86,38,51,0,486
49,30,174,33,76,19,0,256,12,44,22,61,47,40,5,406
55,76,254,61,158,38,0,430,27,47,29,100,23,67,131,648
13,5,69,9,11,5,2,51,3,27,3,27,4,10,0,91
28,30,163,19,46,13,5,242,10,42,6,55,31,31,0,371
5,2,50,3,9,12,0,36,6,13,4,9,5,17,3,60
4,2,31,2,6,3,0,40,2,12,1,10,1,5,6,51
8,1,28,7,13,6,0,37,2,3,5,22,1,3,0,64
14,4,107,7,23,7,10,150,7,19,9,33,4,17,0,233
20,7,98,11,24,13,0,142,15,16,7,23,12,15,53,174
73,48,568,27,175,30,49,848,58,100,27,181,88,120,0,1244
12,10,49,8,47,4,2,70,4,8,7,36,17,9,0,121
22,13,64,10,47,5,7,126,7,26,6,16,14,20,0,205
53,51,243,58,126,28,0,339,19,61,19,120,26,47,39,567
49,48,289,42,127,31,0,365,21,64,32,104,41,53,8,628
66,44,291,60,136,37,44,894,14,102,29,111,40,54,0,1222
56,47,265,53,127,42,0,422,26,86,36,104,44,76,13,627
67,63,350,70,163,49,33,398,29,99,49,152,66,80,0,718
2,1,50,1,12,6,0,55,0,3,2,3,10,5,6,98
3,7,36,3,21,1,6,42,7,17,1,18,5,8,0,63
10,3,43,11,18,3,2,37,3,13,6,11,5,5,0,84
10,16,40,12,11,14,1,36,2,11,7,18,27,8,0,67
9,3,52,4,32,6,0,67,3,16,3,16,10,8,3,114
47,62,234,23,167,34,1,308,19,108,22,90,72,41,0,524
12,3,54,4,27,4,0,58,9,8,3,19,7,9,2,105
75,110,319,48,237,59,56,418,43,150,60,107,91,43,0,828
52,112,297,45,170,52,85,457,40,121,67,134,70,53,0,785
10,10,65,7,32,3,0,65,3,14,6,21,9,6,11,122
36,58,180,27,74,15,0,314,33,56,13,62,50,40,4,446
2,4,35,5,21,1,4,38,5,5,1,12,8,5,0,74
3,4,45,9,11,2,0,37,4,12,7,21,4,5,7,51
10,11,43,8,29,2,0,52,0,18,9,14,5,5,3,101
37,21,220,30,72,10,0,327,17,31,24,69,15,54,4,503
5,9,102,9,45,11,0,100,10,10,9,42,10,21,0,179
3,2,20,3,7,2,3,30,6,5,2,11,4,2,0,40
2,5,25,7,8,3,2,24,6,5,2,8,2,7,0,46
4,8,29,4,22,7,0,39,1,0,13,13,7,6,3,70
5,12,102,17,25,7,15,76,4,16,4,30,11,38,0,156
2,2,31,3,10,2,0,37,1,2,7,13,1,0,3,60
15,21,171,25,51,12,2,186,17,14,15,46,55,30,0,306
44,23,242,36,73,27,29,363,40,65,25,59,57,44,0,547
8,13,55,6,15,7,0,71,8,15,4,18,3,8,6,113
69,108,331,63,190,27,0,506,24,144,18,124,92,55,46,791
74,97,370,66,165,41,0,391,36,125,28,144,97,62,13,699
30,43,280,43,81,31,32,355,18,69,24,143,25,50,0,566
8,3,18,2,9,3,0,28,2,5,1,8,7,1,4,43
9,5,35,6,11,3,0,43,2,11,4,12,4,9,14,56
14,29,70,16,34,7,0,194,4,30,4,26,22,32,8,238
44,53,196,32,97,16,3,211,24,93,14,62,49,30,0,380
5,15,26,11,26,9,1,83,2,15,7,9,15,9,0,119
20,18,119,12,47,14,0,115,9,17,4,38,26,18,5,228
28,41,147,28,73,18,0,224,14,45,15,55,29,34,12,355
39,63,243,31,100,27,9,402,23,51,22,90,57,35,0,636
46,39,224,28,89,23,0,427,19,46,22,81,16,30,8,654
18,13,181,13,31,14,2,220,10,12,13,40,31,16,0,370
3,0,9,1,4,4,0,14,1,0,0,2,2,2,1,27
53,46,332,48,144,31,0,654,23,46,19,122,43,64,59,932
32,37,242,42,106,21,14,434,21,53,21,111,36,41,0,645
13,11,180,23,35,60,4,225,11,23,7,51,31,22,0,406
13,56,87,17,69,11,9,84,7,26,9,44,50,36,0,174
20,14,120,16,52,11,11,164,10,22,10,42,16,11,0,297
39,45,294,50,103,35,0,409,19,70,29,97,39,53,17,651
32,20,334,40,86,30,0,504,23,41,19,115,48,36,9,755
3,2,45,2,4,3,0,62,7,4,0,8,1,7,15,79
62,68,254,40,139,20,0,417,36,55,18,91,44,70,59,627
36,59,297,34,152,26,0,401,25,50,23,98,37,65,82,625
5,9,45,4,17,6,0,54,5,4,4,14,6,18,5,84
28,15,303,48,99,18,0,521,28,49,16,89,19,49,9,773
12,26,104,22,26,10,0,140,8,17,0,33,29,13,1,239
52,59,213,36,122,35,0,306,18,73,24,97,60,46,17,488
47,55,302,59,147,24,0,411,26,93,26,150,58,66,7,619
40,62,339,42,126,26,0,396,27,69,23,139,60,65,22,626
6,19,42,5,21,1,0,68,3,7,3,10,24,9,3,103
2,10,24,0,6,0,0,18,3,0,0,12,12,3,0,30
8,21,42,8,20,3,0,79,4,17,0,19,27,2,5,107
32,83,252,49,109,34,0,280,11,86,23,85,62,31,39,502
43,72,155,45,101,27,0,372,21,81,19,47,73,24,24,526
18,55,137,22,72,19,3,140,11,25,8,61,53,29,0,279
32,88,164,43,103,20,28,234,21,63,22,70,82,32,0,422
47,78,189,36,155,38,0,751,17,81,39,63,81,44,9,960
72,128,351,54,183,45,0,368,35,129,50,134,130,75,18,630
41,42,240,34,101,26,0,351,22,44,18,99,55,40,27,530
60,54,250,50,118,28,47,423,23,87,15,79,60,52,0,714
37,53,210,46,93,14,0,232,19,58,16,91,41,34,12,414
5,6,75,6,11,4,0,64,4,9,0,20,5,16,12,105
40,26,272,30,99,20,0,375,22,50,19,87,25,69,23,567
5,7,64,3,12,11,0,90,12,3,2,24,4,4,2,141
10,10,27,9,16,9,0,26,4,11,4,13,13,5,5,52
10,8,160,6,23,5,13,190,30,18,2,33,6,24,0,302
5,14,33,6,14,1,5,44,4,12,1,7,5,19,0,74
18,28,153,14,84,15,11,164,12,58,9,58,38,36,0,276
65,82,180,29,126,38,0,266,18,69,49,88,92,53,8,409
57,134,216,37,236,51,27,316,44,137,64,103,140,75,0,511
8,0,9,0,8,1,0,17,1,4,0,5,3,4,5,21
4,13,67,10,25,5,0,52,8,7,9,17,8,10,1,116
18,52,224,19,88,27,0,149,31,41,24,101,50,33,0,297
18,15,58,9,33,8,2,89,9,18,3,12,22,12,0,156
9,7,43,10,21,6,10,42,4,6,8,22,13,23,0,72
33,39,151,25,84,22,55,216,16,65,22,54,45,62,0,361
34,62,127,42,131,26,29,210,21,72,44,35,71,121,0,297
8,8,35,11,29,5,0,76,3,23,5,18,16,10,5,92
2,30,46,14,21,9,2,49,6,30,2,16,33,12,0,74
37,40,106,32,94,32,14,149,11,54,35,56,53,44,0,251
58,54,329,51,153,29,24,429,28,53,42,111,98,64,0,731
48,66,237,53,122,42,9,366,33,96,22,83,60,57,0,592
30,40,215,37,105,15,23,309,32,69,23,61,57,57,0,475
15,18,106,14,59,29,0,136,13,15,13,30,99,19,9,179
45,89,344,66,149,30,0,470,31,81,30,141,89,84,48,689
3,13,43,5,21,7,0,63,2,15,5,12,20,8,5,88
30,27,102,23,73,18,24,117,8,31,17,46,30,31,0,251
21,38,148,29,105,24,0,172,12,53,16,59,52,46,6,293
6,10,71,9,16,8,1,67,5,14,4,26,12,21,0,106
10,33,112,17,23,11,2,82,11,34,13,28,23,21,0,160
8,10,40,2,21,0,0,59,4,9,3,11,5,8,2,98
15,15,64,20,35,8,9,104,5,19,15,36,12,13,0,170
12,17,35,9,28,6,4,59,4,16,7,11,23,17,0,92
27,20,151,39,72,10,5,239,26,43,26,44,23,28,0,373
22,17,117,19,64,15,3,112,10,37,16,66,14,25,0,201
7,4,41,6,10,1,1,73,0,8,4,27,3,7,0,94
4,0,56,9,26,2,7,91,1,11,4,31,4,27,0,117
38,62,231,47,87,18,0,372,13,49,37,140,49,44,18,505
30,52,167,35,90,14,0,254,13,104,17,68,19,24,13,384
8,11,59,13,44,5,0,46,6,19,8,16,26,11,3,97
35,71,121,36,98,21,0,152,12,63,26,38,86,36,8,265
12,6,58,6,22,3,13,55,6,14,6,18,11,9,0,111
16,36,127,9,48,15,3,131,5,36,15,47,34,40,0,208
14,27,148,40,74,16,10,168,14,43,9,49,34,21,0,327
3,5,79,11,21,4,0,60,8,12,6,23,12,13,3,106
19,14,88,18,33,18,0,93,3,11,7,20,31,31,17,163
6,23,121,18,35,12,0,117,15,21,7,38,43,19,1,188
8,2,46,7,14,5,0,55,2,5,5,6,9,9,4,97
5,20,54,11,15,6,6,80,4,8,3,13,17,10,0,142
24,21,117,19,60,19,25,119,20,25,16,35,31,15,0,262
9,16,156,22,44,20,1,186,19,14,12,54,19,21,0,315
14,39,117,11,53,19,0,252,11,25,12,36,13,30,20,358
4,5,80,5,14,2,5,67,8,9,5,24,7,10,0,119
7,20,45,7,19,1,6,27,4,14,4,21,9,12,0,68
7,6,19,0,9,1,6,6,2,5,2,5,5,5,0,30
8,7,100,13,23,1,16,109,9,17,2,34,13,20,0,182
0,0,24,5,2,2,0,38,3,1,0,9,3,5,5,45
1,0,19,2,4,2,0,9,0,3,1,7,3,8,2,13
22,30,145,18,100,19,17,165,15,61,19,40,33,29,0,319
9,5,58,9,25,8,14,98,8,11,3,18,6,7,0,173
3,2,39,3,12,5,0,52,5,5,3,8,4,6,3,82
3,16,41,9,26,6,0,86,8,11,18,12,9,5,7,117
10,17,105,16,53,15,0,97,5,34,4,45,18,12,5,190
12,5,57,9,20,5,13,52,7,10,3,28,15,5,0,105
10,20,90,16,33,9,0,90,8,28,8,45,12,9,5,153
78,73,349,47,153,43,25,359,46,194,27,151,33,62,0,614
8,17,27,5,20,9,16,27,5,12,13,6,20,10,0,63
2,10,51,4,16,5,4,63,7,3,6,24,6,8,0,101
22,18,185,15,34,17,0,314,18,23,10,64,13,30,9,438
41,59,125,21,96,14,15,175,15,68,18,54,41,24,0,326
22,20,201,32,43,6,0,290,11,19,6,46,31,49,2,450
6,8,62,13,22,7,0,49,2,12,9,24,7,7,3,103
14,6,38,7,36,9,14,51,5,9,9,28,18,10,0,96
56,102,271,67,210,64,35,422,43,123,44,132,120,78,0,687
40,53,145,26,53,22,0,217,11,45,16,67,44,37,10,326
22,46,165,23,61,19,5,212,15,17,22,63,45,38,0,353
10,14,75,6,21,5,0,102,6,17,8,29,10,14,14,135
6,10,93,9,27,14,0,174,1,12,7,34,26,15,1,237
61,70,328,59,196,35,1,401,49,90,94,135,66,48,0,669
48,91,265,57,172,52,19,366,27,93,41,107,118,63,0,621
37,65,189,32,91,25,12,239,18,47,8,72,98,31,0,416
11,30,41,8,30,9,2,84,2,10,3,21,44,13,0,122
5,40,115,19,51,18,5,102,4,22,8,33,48,33,0,207
18,32,126,38,71,14,0,213,23,53,17,45,24,19,2,329
6,6,38,2,20,3,2,53,5,9,3,10,9,8,0,86
4,15,101,11,28,9,0,82,7,10,6,25,25,9,0,168
19,21,86,28,43,15,7,147,11,18,10,29,33,18,0,247
9,7,104,16,22,11,3,92,3,7,4,25,21,28,0,176
7,4,43,4,15,7,0,52,1,9,5,10,3,6,4,94
6,8,72,13,27,9,0,72,7,6,2,17,22,21,2,130
5,23,69,4,22,3,0,58,6,11,5,28,20,23,1,90
5,11,54,19,21,1,3,67,5,13,4,17,22,8,0,112
4,2,39,7,17,4,1,43,6,2,4,11,13,8,0,73
25,66,116,17,70,17,0,149,13,44,17,52,65,12,6,251
58,25,264,32,117,34,0,342,28,73,19,120,47,35,99,451
2,3,43,6,6,3,0,88,3,8,3,8,2,9,1,117
35,31,136,26,65,13,24,194,12,43,23,49,18,17,0,362
64,82,243,40,158,43,0,303,32,104,47,101,59,45,23,522
68,72,198,57,131,40,4,371,22,113,54,105,45,40,0,562
12,5,187,14,31,16,0,191,13,14,9,47,10,34,7,322
14,25,134,25,55,20,7,80,15,25,6,43,48,15,0,208
5,17,30,13,22,6,0,48,3,13,6,13,23,9,1,73
3,5,75,10,31,9,8,135,11,13,2,26,19,15,0,190
15,17,71,15,36,8,7,148,9,21,24,29,18,15,0,201
6,18,85,8,47,5,0,61,3,11,4,30,28,16,8,130
36,47,195,37,93,20,8,257,25,37,46,54,55,56,0,420
4,24,52,12,30,9,1,56,9,5,8,11,12,5,0,138
0,4,7,0,7,0,4,12,3,4,2,2,6,1,0,16
14,20,113,7,45,8,0,74,9,18,5,61,21,13,12,142
6,4,41,5,11,2,0,44,4,6,3,12,0,4,5,79
7,29,39,8,36,9,0,50,0,13,15,21,14,10,3,102
63,47,241,62,206,47,43,286,40,113,83,103,81,59,0,516
56,70,362,63,155,40,0,347,58,58,49,154,75,60,0,639
37,63,312,65,145,41,0,414,40,70,41,63,38,35,193,597
79,75,215,57,179,46,52,377,45,101,77,66,100,49,0,642
23,26,213,27,65,22,0,443,25,43,28,60,24,50,19,570
67,50,275,51,139,39,0,308,27,64,71,114,53,74,8,518
32,36,196,31,72,19,0,280,35,50,26,67,33,49,4,402
14,20,137,15,65,8,2,208,15,18,13,47,24,30,0,322
24,32,199,48,82,22,0,286,15,33,19,68,45,47,14,452
26,36,203,21,94,28,0,200,27,28,28,93,26,49,5,352
18,34,203,26,95,34,0,324,21,33,25,81,21,51,2,500
30,59,218,40,141,35,61,285,42,62,55,106,58,58,0,488
38,40,196,33,99,31,0,283,28,62,25,80,38,49,18,420
60,44,227,52,152,39,0,374,25,70,52,106,46,45,16,588
44,52,232,29,112,30,0,292,32,46,42,99,30,56,7,479
42,39,227,31,82,28,23,319,51,52,24,65,38,66,0,495
47,42,283,60,107,29,0,372,18,46,20,84,44,59,22,647
15,30,198,35,84,29,0,256,21,28,19,61,20,38,6,454
42,59,225,51,109,31,9,333,39,56,31,73,64,37,0,559
37,37,244,53,129,17,0,379,33,47,21,72,33,59,41,590
32,45,232,42,89,29,0,325,42,49,19,66,30,51,10,527
34,54,288,56,114,25,0,326,35,57,26,107,40,51,74,507
49,53,214,37,133,36,10,407,28,76,50,94,45,43,0,603
34,39,156,35,91,15,0,219,12,55,45,52,38,46,3,338
52,50,243,35,151,32,43,463,39,65,47,103,48,66,0,701
29,40,232,30,112,37,0,350,15,54,36,73,32,46,50,524
35,30,172,22,84,25,0,218,24,47,27,108,31,36,7,306
38,42,151,53,95,26,0,264,21,66,26,51,50,37,21,397
57,43,242,39,152,41,0,226,33,89,49,94,50,37,4,444
24,38,263,38,95,20,10,264,34,46,29,110,30,62,0,441
51,53,191,39,142,29,0,377,23,86,42,57,64,40,23,547
41,58,194,39,120,26,0,307,45,71,49,90,36,58,15,421
36,31,164,33,115,21,0,333,24,43,38,58,37,25,23,485
47,45,202,47,97,23,0,419,42,51,48,51,45,37,11,595
24,35,148,23,76,20,15,263,16,30,23,70,34,31,0,400
31,29,201,32,118,23,0,291,24,30,28,76,41,45,32,449
32,28,255,45,85,22,0,244,27,48,30,92,42,45,7,420
29,27,291,34,97,24,27,329,40,47,33,105,30,65,0,538
19,9,103,11,44,5,4,103,7,8,1,42,24,23,0,193
9,5,63,6,42,10,4,105,13,13,13,22,14,14,0,155
7,6,34,7,15,4,0,33,3,2,3,12,6,20,0,60
3,2,24,2,13,3,0,23,2,4,0,10,0,8,3,43
20,44,218,38,83,9,0,215,14,48,13,63,38,42,5,404
7,6,30,5,5,11,21,37,7,3,7,12,4,1,0,88
31,56,328,57,140,36,0,467,23,63,33,101,48,46,7,794
4,10,49,14,26,10,0,64,2,11,6,18,26,8,2,104
10,12,126,14,48,9,6,108,8,24,5,39,25,19,0,213
5,19,91,11,42,7,4,89,1,11,5,29,20,13,0,189
21,15,155,11,63,24,6,133,12,28,22,56,15,35,0,260
24,47,286,52,122,20,12,261,23,56,17,97,50,96,0,485
6,11,182,24,48,15,0,149,13,32,19,50,11,46,4,260
10,2,39,11,18,3,6,43,8,14,9,11,9,4,0,77
3,6,31,2,13,2,0,47,0,7,1,6,7,4,5,74
41,29,265,43,87,19,14,340,29,54,24,121,32,48,0,530
19,27,130,13,83,13,0,141,14,23,18,72,42,29,11,217
13,17,77,16,40,9,4,95,4,31,6,40,17,16,0,157
33,29,156,14,65,7,2,323,31,23,8,31,47,22,0,467
5,11,139,20,47,12,0,223,18,14,11,45,10,36,4,319
20,16,179,34,39,11,0,134,17,22,2,43,22,39,14,274
11,25,122,19,33,2,6,166,13,26,5,56,23,23,0,238
4,16,76,9,28,2,0,77,2,12,2,24,21,12,16,123
10,4,102,17,30,10,2,115,3,24,4,25,13,19,0,202
3,3,30,1,9,1,3,21,2,0,0,4,3,14,0,48
28,46,260,20,67,16,0,243,11,33,9,70,53,62,33,409
9,9,41,5,23,6,0,67,9,9,1,15,5,7,5,109
7,11,45,8,14,7,0,72,7,6,4,25,8,9,1,104
4,3,64,10,33,5,0,62,12,11,7,16,3,9,5,118
25,28,182,37,85,21,27,232,28,45,30,56,46,42,0,390
4,0,32,0,9,2,4,22,2,2,1,5,3,7,0,53
30,6,129,16,45,10,0,149,13,17,10,49,36,20,11,229
9,22,80,6,32,7,4,79,6,9,5,20,22,25,0,152
8,15,74,14,48,5,0,125,8,16,1,15,26,16,2,205
17,24,183,30,73,18,0,325,20,26,11,66,37,40,0,470
5,11,84,19,38,5,2,74,7,16,8,20,22,47,0,118
2,4,42,5,14,4,0,36,4,7,3,8,5,12,6,62
2,6,45,5,9,4,0,42,8,6,2,8,3,12,2,72
0,13,41,7,18,7,0,61,8,10,2,9,10,17,6,85
5,10,50,9,13,3,0,38,1,13,1,18,12,6,4,73
45,66,250,30,102,23,16,330,7,84,23,70,88,53,0,537
32,73,293,35,123,37,0,355,32,73,21,82,85,64,15,576
5,24,95,3,26,6,0,76,7,4,6,24,15,21,9,149
51,57,389,60,193,42,16,486,28,84,90,114,76,80,0,822
27,28,157,21,65,9,19,159,17,42,5,33,37,29,0,322
1,4,28,1,14,6,0,24,1,4,1,20,3,8,1,40
21,37,132,18,53,19,10,121,17,24,9,48,55,29,0,229
16,9,103,13,42,10,0,119,9,21,4,39,29,10,8,192
2,12,24,3,16,3,5,16,3,7,2,5,13,6,0,45
28,38,105,13,69,5,0,116,5,18,20,49,45,20,11,206
3,13,22,5,10,3,5,55,2,3,1,9,26,3,0,72
3,2,16,1,5,5,0,33,5,3,2,6,2,4,7,36
3,1,32,1,13,2,0,21,2,2,0,10,10,7,6,36
4,13,63,15,20,6,0,104,5,7,6,15,14,7,9,162
12,24,103,9,50,12,1,98,9,21,10,34,31,31,0,173
18,16,135,24,41,8,0,175,14,43,3,44,13,26,2,272
66,41,444,64,177,61,27,418,49,83,78,164,67,82,0,775
14,8,36,11,29,18,0,40,2,16,2,14,0,27,16,79
7,6,39,17,8,6,0,22,2,10,1,11,3,20,8,50
17,18,100,13,31,14,0,119,10,25,10,42,11,26,8,180
25,33,249,46,132,30,23,408,22,47,34,58,43,78,0,664
17,28,255,24,50,17,0,270,32,19,14,68,26,66,18,418
35,58,326,41,137,30,19,495,42,72,30,80,61,78,0,778
13,3,99,14,33,7,4,90,2,10,4,20,18,31,0,178
7,4,54,6,24,1,14,108,0,6,2,16,11,13,0,170
16,46,109,17,69,13,13,103,25,32,25,40,52,20,0,192
13,24,36,4,25,4,0,40,1,16,8,14,42,8,4,53
8,0,54,3,14,1,3,52,3,11,1,25,11,11,0,73
64,63,369,71,143,58,17,487,44,77,37,131,80,72,0,831
10,24,88,15,33,7,0,111,4,19,4,28,21,16,8,188
40,50,341,35,134,48,19,369,48,53,73,116,72,46,0,628
9,12,63,17,45,2,0,78,7,16,1,26,26,12,0,138
21,43,163,27,82,45,6,184,25,66,14,80,71,28,0,287
10,8,39,5,5,0,0,48,4,4,6,10,6,4,6,75
8,11,51,6,31,4,0,64,6,14,7,9,18,10,0,111
11,14,78,12,34,14,0,80,7,20,9,34,21,17,7,128
31,37,172,30,110,31,58,292,22,46,24,76,67,55,0,471
43,58,158,40,101,34,0,233,10,52,30,66,59,33,43,374
10,6,55,17,40,13,4,102,6,15,9,18,13,11,0,175
35,95,262,58,96,27,12,231,28,42,23,60,103,56,0,504
3,16,30,4,21,0,0,39,1,10,2,12,12,8,4,64
27,72,287,45,105,34,0,344,28,45,27,92,64,72,11,575
19,14,64,17,24,4,0,48,5,21,3,17,15,10,6,113
23,70,187,33,89,14,27,264,18,31,11,53,82,31,0,481
10,16,47,9,19,0,5,60,3,22,2,13,19,4,0,103
3,8,32,6,12,3,0,19,3,10,0,21,4,9,0,36
2,1,31,2,14,7,0,23,0,6,1,20,3,10,0,40
19,18,134,31,53,14,3,145,12,14,19,36,24,22,0,290
20,10,61,18,31,11,4,59,11,17,8,35,18,12,0,113
29,29,121,30,91,19,13,136,12,43,27,39,47,38,0,262
87,49,365,71,171,46,0,524,28,85,54,158,84,83,12,809
0,1,19,6,5,3,0,37,4,7,0,6,1,8,0,45
3,4,38,15,21,10,1,36,6,14,2,13,13,7,0,73
9,15,113,10,40,8,0,118,10,5,10,43,20,22,4,199
13,15,142,19,42,8,8,105,11,25,6,45,28,27,0,210
0,7,17,7,10,0,0,12,2,3,4,3,10,8,7,16
2,27,55,15,28,5,0,38,5,12,1,10,24,15,5,98
10,28,82,14,58,10,0,70,5,21,9,26,55,27,1,128
10,3,60,8,26,3,10,91,3,7,7,18,8,16,0,152
12,10,153,9,38,8,0,153,36,11,9,42,14,18,4,249
26,22,138,13,90,13,0,256,25,38,17,34,29,20,5,390
26,18,152,34,80,12,10,207,11,32,24,51,37,53,0,331
6,14,118,19,31,8,0,163,22,17,6,41,9,33,4,227
28,18,132,22,51,16,4,139,14,21,14,39,24,21,0,277
5,9,39,9,14,11,3,53,1,4,25,8,9,4,0,92
14,13,75,8,45,9,3,95,8,24,9,40,20,15,0,146
12,21,71,18,27,17,1,72,10,13,2,41,27,17,0,129
16,7,79,16,27,11,9,78,10,25,4,21,22,7,0,154
16,28,102,18,62,17,27,138,10,30,22,41,30,30,0,245
18,31,151,23,40,22,0,191,21,29,8,54,18,31,9,306
17,46,104,13,81,16,0,148,20,20,21,46,72,29,8,209
18,34,93,29,67,21,3,134,8,21,19,51,48,31,0,221
12,10,114,13,34,9,9,96,8,22,3,28,20,17,0,199
18,21,161,17,50,18,11,145,14,33,9,50,16,43,0,276
8,0,41,2,3,4,0,63,3,6,2,8,1,5,18,78
5,5,102,14,37,3,0,192,9,13,5,19,14,20,5,273
0,0,24,4,6,0,0,46,1,1,2,4,0,9,7,56
33,26,260,39,95,24,0,400,14,48,24,94,14,70,30,583
34,14,236,27,59,21,0,492,23,37,9,60,8,56,28,662
1,3,16,1,4,2,0,10,1,2,1,5,1,2,2,23
1,6,22,4,5,1,0,53,4,3,1,1,3,3,4,73
1,2,31,2,9,2,0,67,1,0,3,13,2,5,6,84
4,3,44,4,3,2,0,61,7,3,1,21,3,8,5,73
32,20,230,24,50,18,0,332,21,38,8,69,18,43,12,497
23,36,195,32,79,20,0,324,19,47,19,43,20,38,10,513
26,16,176,25,65,30,0,557,17,24,12,60,15,47,19,701
8,13,21,2,12,8,0,22,3,7,8,11,5,1,17,34
19,18,175,23,52,16,0,275,15,26,14,49,23,27,22,402
