OBEC,OKRSEK,VOLICI,HLASY,HLASY_715,HLASY_1474,HLASY_1114,HLASY_720,HLASY_7,HLASY_768,HLASY_1475,HLASY_47,HLASY_1227,HLASY_687,HLASY_137,HLASY_1179,HLASY_1231,HLASY_716,HLASY_1453,HLASY_55
503916,1,454,153,6,1,9,12,12,33,30,31,2,15,2,,,,,
506664,1,219,79,,2,12,1,3,38,2,6,3,8,2,1,1,,,
530085,1,54,23,,1,3,2,1,7,6,,,1,,,,2,,
530123,1,86,42,,1,,7,8,8,2,,,16,,,,,,
530131,1,187,86,2,1,4,3,3,28,12,6,5,17,,,2,,2,1
530140,1,171,78,,2,3,3,3,27,30,2,1,5,,,,,1,1
530182,1,351,121,,8,7,11,18,24,21,2,1,24,1,,,,2,2
530221,1,93,37,,,5,5,2,17,3,3,,2,,,,,,
530239,1,60,30,1,2,,1,3,10,,3,,10,,,,,,
530247,1,112,58,,8,2,1,10,9,4,2,1,20,,,,,1,
530271,1,91,22,1,,1,2,3,7,,,,7,,,,,1,
530280,1,187,86,2,,3,14,16,12,11,8,3,17,,,,,,
530328,1,165,53,2,,4,2,2,19,6,1,1,14,,1,,1,,
530336,1,210,92,1,17,3,2,4,20,15,10,,19,,,,1,,
530361,1,40,25,,,1,1,2,6,10,,,5,,,,,,
530379,1,107,50,,1,1,6,2,14,3,10,,11,,,1,,1,
538183,1,94,43,1,1,3,10,1,10,3,2,2,6,,1,,1,2,
539716,1,181,76,,3,5,9,4,17,16,1,2,18,,1,,,,
539741,1,447,237,4,7,15,24,3,40,84,6,3,47,,,1,2,,1
539783,1,262,127,1,2,9,16,5,26,19,23,3,17,2,1,,1,1,1
539821,1,358,151,,5,3,34,11,38,17,11,2,28,2,,,,,
539929,1,42,28,,,,3,5,4,2,2,,12,,,,,,
539937,1,175,64,,1,2,6,4,30,8,2,1,7,,,,3,,
539945,1,236,90,3,2,6,8,3,30,8,4,1,23,,,1,1,,
540056,1,122,38,1,3,1,4,5,6,4,1,1,11,,,,1,,
540064,1,102,49,4,1,4,8,1,16,2,5,,7,,,,,1,
540102,1,90,32,,3,1,2,3,9,7,1,,5,,,,,1,
540137,1,43,24,1,1,,4,,5,6,1,,6,,,,,,
540200,1,81,26,,,,2,1,11,8,,2,2,,,,,,
540251,1,112,36,,,4,5,2,5,13,4,1,2,,,,,,
540269,1,225,108,1,4,4,25,8,27,16,4,1,13,3,,,1,1,
540293,1,138,62,,2,7,5,3,18,4,11,,8,1,,,,3,
540307,1,88,32,,,2,2,3,13,9,2,,1,,,,,,
540340,1,279,110,1,2,5,8,9,22,24,11,,26,,1,,1,,
540412,1,205,93,2,3,1,15,3,22,20,1,3,19,2,,,2,,
540421,1,86,47,1,4,1,4,6,14,4,5,,7,,,,,1,
540463,1,44,22,1,,2,,6,5,,5,,1,,,,,,2
540528,1,119,50,1,2,3,3,1,16,9,1,2,12,,,,,,
540561,1,577,356,1,12,10,53,14,53,64,7,9,128,,,1,4,,
540617,1,135,36,2,,3,1,,14,9,2,1,3,,,,1,,
540633,1,233,67,1,3,1,17,,17,3,1,2,17,1,1,,1,2,
540641,1,200,100,2,2,3,18,4,20,11,2,1,31,2,1,,,2,1
540668,1,209,60,,3,,4,13,15,6,4,,10,2,,1,,,2
540676,1,137,64,,1,7,7,3,17,7,8,1,11,,,,,1,1
540692,1,94,56,,,13,6,,26,3,4,3,1,,,,,,
540706,1,73,36,1,,3,1,1,12,9,1,1,6,1,,,,,
540722,1,222,115,1,1,14,13,,17,27,1,5,34,1,,,1,,
540803,1,40,21,1,1,,2,,3,2,7,,5,,,,,,
540927,1,17,16,1,,,2,,3,4,,,5,,,,,,1
541001,1,25,14,,,1,6,,4,,1,2,,,,,,,
541061,1,173,33,,1,1,7,,3,16,,,5,,,,,,
541095,1,114,49,2,1,3,3,3,21,4,1,2,9,,,,,,
541141,1,53,31,,,3,2,1,6,15,3,,1,,,,,,
541150,1,672,280,5,28,15,42,12,60,39,12,1,64,,,1,1,,
541176,1,355,160,4,6,15,16,9,49,18,3,3,36,1,,,,,
541192,1,139,49,1,2,2,5,1,20,9,4,,3,,,,,,2
541290,3,53,16,,,,,4,7,1,,2,,,,,,2,
541290,2,68,25,,,5,1,,8,,10,,1,,,,,,
541290,1,87,20,,,3,2,1,5,1,2,2,1,,1,1,,,1
541362,1,211,41,,2,2,4,3,16,3,3,1,6,,,,,1,
541401,1,99,38,2,,2,6,1,8,10,,5,1,1,1,,,,1
541435,1,101,43,3,1,1,5,3,11,6,4,,5,2,1,,,1,
541443,1,129,57,,,,16,3,11,8,5,1,12,,,,,1,
541460,1,122,25,,,3,3,1,8,6,3,,1,,,,,,
541486,1,125,53,1,1,2,12,10,16,8,2,,1,,,,,,
541494,1,199,48,,3,7,8,3,7,5,8,,7,,,,,,
541532,1,204,51,,1,5,5,3,14,11,1,2,6,,3,,,,
541559,1,168,38,,,1,5,3,12,6,2,3,2,1,1,,,2,
541605,1,198,61,,,6,,3,17,17,8,2,2,,6,,,,
541621,1,354,96,1,1,7,19,3,23,12,9,1,14,1,4,,,1,
541664,1,300,95,1,1,8,9,7,37,9,7,,16,,,,,,
541681,1,115,33,,,3,3,1,12,1,4,1,6,1,1,,,,
541702,1,354,97,,,17,6,16,22,7,8,5,11,1,2,,,2,
541745,1,104,39,,,1,6,3,12,7,7,,,,1,,1,,1
541753,1,182,64,,,9,13,2,7,15,2,1,13,,1,1,,,
541788,1,228,67,,3,9,9,7,18,6,9,2,4,,,,,,
541796,1,132,40,2,1,3,9,4,11,3,2,,5,,,,,,
541826,1,88,44,,6,2,8,4,7,2,7,,5,3,,,,,
541842,1,140,64,1,3,5,5,6,18,11,1,1,13,,,,,,
541851,1,86,33,,2,4,3,4,5,8,1,1,4,,,1,,,
541869,1,58,36,,1,,5,2,8,9,2,,9,,,,,,
541885,1,272,100,,,3,11,9,37,7,4,2,25,1,,,,,1
541915,1,163,58,1,,8,10,1,13,7,3,2,11,1,,,1,,
541923,1,159,56,,1,4,5,3,17,15,7,1,3,,,,,,
541931,1,111,60,,,4,10,,9,21,,1,15,,,,,,
541958,1,170,86,,1,4,11,,12,35,,2,16,4,,,,,1
542024,1,179,67,,2,5,13,2,16,9,,,16,1,,,,3,
542059,1,43,15,,,,3,,6,3,,,3,,,,,,
542083,1,85,41,,,3,3,4,13,2,1,5,10,,,,,,
542091,1,58,37,,,,12,,5,4,,,16,,,,,,
542148,1,74,53,,,3,3,,3,6,1,5,30,,,1,,,1
542156,1,180,77,1,1,2,8,,19,11,8,1,24,,,,,,2
542172,1,201,80,,1,3,6,4,29,11,6,4,10,,2,,1,,3
542296,1,174,82,1,5,2,5,5,12,14,14,,19,1,,,2,,2
546372,1,197,90,,2,5,15,5,19,10,7,1,23,1,,,1,,1
546399,1,97,44,1,1,,4,3,12,8,6,,9,,,,,,
546411,1,287,120,1,2,8,18,5,31,9,8,4,31,,,2,1,,
546488,1,119,50,,2,3,10,,8,5,8,,13,,1,,,,
546526,1,268,107,1,2,11,5,4,28,15,10,5,22,,,,4,,
546534,1,180,79,,2,7,3,3,26,24,5,1,3,,,1,2,2,
546551,1,198,77,,1,11,7,1,24,8,4,,18,1,,,1,1,
551686,1,111,47,,,3,9,,12,9,6,,5,,,,,,3
553425,12,168,63,4,3,4,9,2,14,3,8,2,14,,,,,,
553425,11,793,308,5,31,18,37,18,66,38,19,9,64,2,,,1,,
553425,10,1016,315,8,25,20,50,11,40,52,18,3,83,,1,2,,1,1
553425,9,640,274,1,19,11,31,22,51,27,22,9,78,1,,,1,1,
553425,8,811,288,7,19,19,40,28,65,27,28,4,44,2,4,,,1,
553425,7,764,275,6,14,18,43,21,51,39,18,7,51,2,4,,1,,
553425,6,599,201,1,11,23,34,20,34,17,18,5,36,1,,,,,1
553425,5,704,294,3,32,11,36,9,63,33,21,10,71,3,1,,,,1
553425,4,573,243,9,16,18,21,17,80,23,25,6,25,,1,,1,,1
553425,3,596,201,3,18,13,19,18,54,19,19,4,34,,,,,,
553425,2,853,285,3,25,16,44,24,56,24,23,9,60,,1,,,,
553425,1,845,400,11,26,23,53,17,77,61,22,16,86,3,2,,2,,1
553433,1,244,118,1,4,5,16,3,32,18,7,5,25,,1,,,,1
553441,2,484,137,2,,13,12,4,31,46,15,2,7,1,,,3,,1
553441,1,898,254,2,6,22,28,7,68,74,19,4,22,,1,,,,1
553450,5,96,30,1,1,4,3,,7,6,1,,7,,,,,,
553450,4,60,19,,5,2,4,,3,1,,1,2,,,,,1,
553450,3,128,61,,3,8,8,5,8,9,9,2,8,,,,1,,
553450,2,91,43,1,,4,3,5,7,7,3,1,11,1,,,,,
553450,1,794,228,2,2,22,35,13,53,31,20,13,33,2,,,,2,
553506,1,87,16,,1,,,6,4,,1,,3,,1,,,,
553514,1,204,88,5,7,7,7,15,8,8,7,1,20,,,,,,3
553522,1,72,42,1,3,3,5,5,11,5,4,,3,,,,,1,1
553531,2,116,40,,2,8,2,4,12,5,,,6,,,,1,,
553531,1,171,53,,2,12,5,4,9,1,3,,14,,,,2,1,
553549,3,87,27,1,,1,2,1,4,5,3,2,6,,,2,,,
553549,2,104,47,1,1,1,5,7,10,12,1,,8,,,,,1,
553549,1,343,130,,7,17,15,17,32,8,8,3,19,,,,1,2,1
553557,1,307,158,2,15,8,16,8,46,17,15,3,26,1,,,,1,
553565,1,35,20,,,2,,6,5,5,1,,1,,,,,,
553573,1,153,29,,,2,2,9,9,4,1,,1,,,,,,1
553581,1,321,150,3,17,14,14,12,43,22,5,1,17,1,,1,,,
553590,1,192,103,1,3,8,17,6,23,10,7,6,13,3,,,2,4,
553603,1,33,23,,1,,2,3,8,3,,,6,,,,,,
553611,1,429,180,3,7,25,23,13,31,38,7,4,26,1,1,,1,,
553620,1,228,85,2,2,13,7,9,20,8,3,,20,1,,,,,
553654,6,103,62,1,1,8,12,5,10,6,3,4,11,,,,1,,
553654,5,756,259,4,3,10,43,12,65,52,23,2,42,,,,1,1,1
553654,4,635,196,3,1,24,18,17,51,20,14,12,34,1,,,,1,
553654,3,777,259,3,2,19,39,17,65,45,10,4,53,1,,,,1,
553654,2,803,236,1,3,32,48,11,47,37,7,6,40,,,,,4,
553654,1,834,235,1,4,22,31,12,59,24,18,1,58,,,,1,2,2
553662,1,188,82,1,,4,5,26,14,12,4,3,13,,,,,,
553671,7,131,25,,,3,3,2,8,2,1,,6,,,,,,
553671,6,138,34,,,2,1,3,15,4,7,,2,,,,,,
553671,5,139,36,,,4,8,,9,4,6,1,3,,,,1,,
553671,4,837,243,1,12,25,22,15,60,31,17,8,46,1,1,1,,,3
553671,3,845,304,1,14,19,27,21,72,35,31,7,73,2,1,1,,,
553671,2,860,306,,10,26,39,13,66,22,16,8,100,,3,2,1,,
553671,1,929,256,2,14,16,36,10,47,39,14,5,68,3,,,2,,
553689,2,242,52,,,1,7,9,13,2,6,1,12,,,,,,1
553689,1,728,162,1,6,13,30,11,36,22,18,11,13,,,,1,,
553727,1,101,37,,4,,5,4,12,5,2,,4,,,,1,,
553735,1,604,234,19,7,16,24,30,45,25,26,4,34,1,1,,,1,1
553743,1,327,147,3,14,5,15,4,23,28,7,5,41,,,,1,,1
553751,1,300,168,4,28,12,19,13,26,23,6,5,29,,,2,,,1
553778,1,28,24,,1,,4,2,7,5,,,4,,,,,,1
553786,10,72,41,1,2,3,10,5,8,3,1,1,7,,,,,,
553786,9,61,43,,1,5,7,1,13,4,1,,11,,,,,,
553786,8,289,140,3,4,3,16,13,34,16,17,2,31,,1,,,,
553786,7,92,37,1,3,3,5,4,12,3,2,,4,,,,,,
553786,6,59,23,1,1,,3,2,7,6,,1,2,,,,,,
553786,5,315,131,2,5,12,11,9,36,27,2,2,25,,,,,,
553786,4,724,269,2,12,22,21,14,76,25,11,6,77,,,1,1,1,
553786,3,811,365,3,22,23,35,17,63,36,19,8,133,1,,2,,1,2
553786,2,631,242,2,7,13,13,15,60,24,24,10,69,2,,,1,1,1
553786,1,929,293,1,13,28,31,16,37,38,10,8,105,,,1,,5,
553794,1,1039,441,21,22,20,50,18,59,53,107,5,78,,2,1,2,3,
553816,1,800,276,3,16,23,24,30,77,23,12,3,61,,,3,1,,
553824,1,901,343,8,27,27,48,25,65,51,13,10,59,1,2,2,1,2,2
553832,1,123,58,1,,7,5,21,10,5,3,,5,,,,,1,
553841,1,309,132,,5,5,14,9,20,52,12,2,13,,,,,,
553859,1,85,26,1,4,,6,,1,7,1,1,5,,,,,,
553867,1,103,52,,3,4,,3,5,8,4,1,23,1,,,,,
553891,2,117,67,,15,3,5,3,13,7,4,5,8,1,1,,2,,
553891,1,195,107,,21,4,13,3,27,8,4,3,18,,,,5,,1
553913,2,254,94,,,8,13,11,19,12,10,3,13,1,1,,3,,
553913,1,642,147,1,4,13,20,14,54,11,8,4,16,2,,,,,
553921,1,89,50,1,,12,2,10,6,4,,3,10,,2,,,,
553930,1,96,31,,4,1,2,6,6,2,3,,3,,1,,3,,
553948,2,119,47,,4,2,5,2,9,3,5,3,14,,,,,,
553948,1,357,157,,31,2,20,21,43,16,12,,12,,,,,,
553956,1,227,66,4,,8,3,6,23,4,6,3,8,,,1,,,
553981,1,902,351,5,55,21,19,31,61,69,20,8,61,,,,,1,
553999,1,220,42,1,1,9,4,1,8,,9,1,5,,,,1,1,1
554006,1,195,62,1,2,2,6,9,21,3,4,1,10,1,,,,2,
554022,1,118,59,,3,1,4,21,12,10,,2,5,,,,,1,
554031,1,159,82,1,15,3,17,8,5,11,,1,18,1,,,,2,
554057,1,174,61,,2,9,4,14,6,9,8,,6,,1,,,2,
554073,1,507,168,7,5,11,19,17,41,28,10,11,14,2,1,,1,1,
554081,1,178,67,1,7,2,12,15,8,11,,4,7,,,,,,
554090,1,200,60,,4,8,5,4,8,3,3,3,22,,,,,,
554111,2,691,198,1,13,5,15,9,57,25,26,4,40,,1,1,,1,
554111,1,559,148,1,8,12,17,9,43,10,22,1,20,1,,,4,,
554120,1,475,196,,14,8,23,22,33,27,5,7,54,1,,1,1,,
554138,1,936,349,4,53,16,47,25,48,48,29,7,67,3,1,,,,1
554154,1,273,82,3,3,8,8,7,32,9,1,1,6,,,2,,2,
554189,1,140,41,1,1,2,4,6,6,8,4,2,6,,,1,,,
554201,1,167,27,,,12,4,,6,,2,,3,,,,,,
554251,1,150,91,2,14,4,10,7,13,13,7,1,20,,,,,,
554260,3,64,29,1,1,2,,6,12,,2,1,3,,,1,,,
554260,2,96,54,1,,5,6,8,19,8,,,4,,,2,1,,
554260,1,160,52,,1,4,7,7,13,4,5,1,10,,,,,,
554278,1,366,99,2,2,13,12,2,29,5,17,3,13,,,,1,,
554294,5,105,47,2,,4,6,9,5,6,2,,13,,,,,,
554294,4,67,47,2,,4,5,15,14,4,1,1,1,,,,,,
554294,3,216,94,2,3,2,14,24,20,7,2,1,14,2,1,1,,1,
554294,2,984,401,3,10,27,53,74,110,38,9,10,60,3,,,1,3,
554294,1,1221,412,6,23,39,36,99,101,26,21,5,49,1,,,3,3,
554316,1,181,96,,22,6,15,6,15,5,3,2,22,,,,,,
554341,1,344,170,2,22,4,16,38,16,38,3,3,27,,1,,,,
554359,1,440,148,8,2,14,20,16,33,8,12,2,29,1,,1,,2,
554383,1,330,141,,20,3,19,22,24,17,10,2,24,,,,,,
554391,1,86,40,,1,2,2,6,15,2,2,,9,,,,,,1
554405,1,108,42,1,,2,4,7,13,3,1,,8,,,,,,3
554413,1,197,86,4,,9,4,,20,40,5,,2,,1,,,1,
554421,1,136,50,2,,6,6,7,14,7,5,,3,,,,,,
554448,1,41,26,,,1,4,3,8,4,2,,3,1,,,,,
554456,1,656,217,2,2,11,25,3,39,86,19,1,24,1,,,1,,3
554464,5,371,151,5,13,2,13,9,30,32,15,5,26,,1,,,,
554464,4,107,55,,3,8,9,5,14,5,3,1,6,,,,,1,
554464,3,119,53,,3,6,2,11,5,6,8,2,10,,,,,,
554464,2,60,34,,11,,7,3,5,,,,8,,,,,,
554464,1,151,76,1,4,3,10,6,18,8,,3,21,,,,1,1,
554472,1,120,54,1,6,1,10,5,7,4,11,3,6,,,,,,
545970,1002,853,382,3,20,18,64,5,45,59,3,11,142,4,1,1,6,,
545970,1001,346,177,,9,6,22,2,18,46,1,5,53,2,1,,9,,3
545970,1012,417,139,1,4,5,28,8,32,24,7,2,27,,,,1,,
545970,1011,438,147,1,8,14,17,8,33,17,9,6,29,1,1,2,1,,
545970,1010,617,238,,8,22,25,17,74,34,19,5,28,4,,1,,,1
545970,1009,521,221,1,16,4,32,7,80,30,15,9,23,1,,,1,1,1
545970,1008,435,198,1,5,11,42,7,50,26,13,3,36,2,,,2,,
545970,1007,163,86,5,3,,8,20,21,2,7,2,6,1,7,2,,2,
545970,1034,522,156,1,11,7,19,12,36,21,8,3,33,4,,,1,,
545970,1033,520,217,,3,5,29,8,48,55,18,2,45,,3,1,,,
545970,1032,539,248,4,7,10,39,17,55,40,18,9,45,2,,,,1,1
545970,1031,466,183,5,7,14,21,12,46,35,7,4,31,,,,,1,
545970,1030,599,242,3,8,15,30,7,59,34,10,6,62,1,,,5,1,1
545970,1029,501,182,,12,9,29,8,42,30,11,3,36,,,,2,,
545970,1028,593,268,1,13,24,34,7,62,44,14,8,59,,,,1,1,
545970,1027,489,204,1,14,12,21,7,67,22,10,3,40,,,,2,2,3
545970,1026,685,258,2,10,21,27,13,73,38,14,5,48,2,2,,1,2,
545970,1025,465,184,,5,15,23,7,52,21,10,3,41,1,4,,,,2
545970,1024,419,183,2,5,7,27,8,59,32,15,1,25,,,,2,,
545970,1023,1061,473,4,22,13,83,18,92,77,13,18,121,2,,,6,2,2
545970,1022,981,525,2,25,25,78,17,93,83,20,15,155,1,,1,4,3,3
545970,1021,381,149,2,4,12,18,7,63,14,10,4,14,,,,,,1
545970,1020,692,274,2,11,15,31,9,63,44,14,9,67,2,3,,3,,1
545970,1019,464,206,2,15,9,24,11,44,38,15,9,34,1,1,,2,,1
545970,1018,377,164,1,9,9,27,12,38,26,12,1,28,,,,,,1
545970,1017,685,262,5,9,16,44,8,70,42,19,4,41,,,,2,1,1
545970,1016,701,295,2,8,15,52,16,90,47,16,4,45,,,,,,
545970,1015,687,281,5,10,18,34,12,62,47,28,11,50,2,,,,1,1
545970,1014,685,245,3,7,11,35,11,77,24,21,9,37,3,,,5,1,1
545970,1013,818,361,3,15,28,39,16,94,48,23,8,81,,,,3,3,
545988,2034,820,400,,24,12,50,15,75,61,24,11,120,2,,,3,2,1
545988,2033,534,272,3,4,11,44,13,64,48,8,11,64,,,,1,1,
545988,2032,1327,664,6,19,20,103,36,130,89,11,13,227,1,,2,4,2,1
545988,2031,1253,681,6,30,20,88,11,99,124,18,22,248,4,,1,5,3,2
545988,2030,584,326,,14,13,53,14,56,50,7,10,102,,2,,3,2,
545988,2029,1023,528,3,33,25,86,11,87,82,11,11,163,1,,2,7,2,4
545988,2028,876,454,3,23,24,80,15,87,58,14,15,117,5,,,1,5,7
545988,2017,608,235,4,13,15,31,11,61,40,8,1,47,1,1,,,1,1
545988,2016,651,273,5,9,9,40,6,55,38,18,8,75,3,2,2,,,3
545988,2015,1830,319,3,14,28,52,9,62,47,16,9,68,3,2,,4,1,1
545988,2014,744,358,4,24,15,50,16,66,60,13,10,93,1,,1,1,3,1
545988,2013,738,334,1,17,16,43,14,66,52,15,5,96,5,1,,,1,2
545988,2012,990,533,4,26,23,89,13,67,103,14,20,163,,,2,4,3,2
545988,2011,796,362,1,16,15,51,20,67,71,9,13,88,3,1,,6,,1
545988,2010,926,487,4,28,18,52,9,87,89,10,13,166,1,,,6,2,2
545988,2009,709,338,1,25,23,50,6,60,59,8,8,87,,,1,6,1,3
545988,2008,627,215,,14,11,20,11,66,23,10,7,44,5,,,,1,3
545988,2007,891,355,3,30,25,72,8,52,67,8,9,74,3,,,1,,3
545988,2006,753,275,3,11,19,45,9,42,43,8,13,76,2,,,1,3,
545988,2005,727,284,5,14,23,35,8,56,35,10,8,85,1,,,3,,1
545988,2004,570,184,2,12,4,30,6,34,30,6,3,48,1,2,,,6,
554731,5001,1694,651,14,28,31,112,29,127,111,19,15,142,3,3,3,3,3,8
545970,1056,1286,620,5,25,21,82,29,79,136,8,27,187,1,,3,15,1,1
545970,1055,1278,489,4,23,31,97,31,58,96,24,19,97,2,,,3,3,1
545970,1054,950,310,2,16,24,55,9,58,63,7,9,56,1,1,3,5,1,
545970,1053,1248,503,4,24,33,74,20,97,93,16,13,124,2,,,,2,1
545970,1052,1009,332,10,16,11,68,19,46,57,17,13,62,4,,,4,4,1
545970,1051,833,333,1,8,24,40,17,57,71,9,13,86,,,,3,3,1
545970,1050,682,244,,14,21,42,19,44,36,5,6,49,2,2,1,,2,1
545970,1049,566,197,2,8,10,38,11,30,40,11,6,36,,1,,1,1,2
545970,1048,475,189,4,13,14,24,6,26,31,9,8,49,1,2,1,,1,
545970,1047,579,222,2,16,14,37,8,47,37,9,6,40,1,1,1,,2,1
545970,1046,598,200,1,6,7,42,13,40,26,8,4,47,,1,1,1,1,2
545970,1045,558,234,4,8,15,53,8,53,35,17,9,24,3,,,1,3,1
545970,1044,582,245,1,11,8,48,9,46,46,15,11,45,2,1,,,1,1
545970,1043,609,246,2,5,15,28,15,59,51,19,12,39,1,,,,,
545970,1042,578,200,,15,7,28,5,46,43,5,2,42,,1,,3,3,
545970,1041,670,260,5,12,17,24,16,60,43,14,6,56,3,1,,2,,1
545970,1040,523,203,2,7,17,15,12,50,43,13,7,32,,,1,1,2,1
545970,1039,511,226,3,9,13,39,8,65,26,12,4,41,1,1,,3,1,
545970,1038,553,215,3,9,17,32,12,55,24,19,5,36,,,,,3,
545970,1037,569,223,4,16,16,28,13,63,31,14,8,29,,,,,1,
545970,1036,592,219,1,17,12,38,13,43,37,10,4,41,,,1,,,2
545970,1035,629,238,3,11,18,43,10,50,42,12,4,39,1,1,1,1,1,1
545970,1006,1340,611,3,48,30,88,20,96,122,19,5,151,10,,,12,6,1
545970,1005,2679,399,2,5,32,42,22,92,68,5,5,112,,1,1,9,2,1
545970,1004,886,447,3,24,13,86,15,73,82,23,5,119,,1,,2,1,
545970,1003,902,506,7,31,29,66,20,88,76,20,14,139,5,,2,7,1,1
545988,2003,678,190,,1,7,43,5,24,33,9,3,61,1,,,,3,
545988,2002,759,273,6,10,11,49,11,49,39,20,8,59,2,1,,1,3,4
545988,2001,526,167,4,8,14,26,6,26,30,8,6,37,,1,,,1,
559199,9001,680,312,4,15,17,46,8,61,56,5,12,83,1,,,4,,
545988,2027,739,328,,15,19,42,14,65,71,21,6,62,3,1,,4,4,1
545988,2026,607,286,,18,11,35,15,66,41,9,9,74,,,,3,2,3
545988,2025,582,294,3,11,8,20,11,80,56,12,7,82,1,,1,2,,
545988,2024,832,353,1,15,33,59,16,60,59,18,2,85,2,,,1,2,
545988,2023,543,242,2,15,10,39,12,32,42,9,3,76,,,,1,,1
545988,2022,505,243,1,15,7,29,11,51,43,8,6,63,3,1,,1,3,1
545988,2021,444,196,2,6,10,32,12,35,38,13,3,42,,,1,1,1,
545988,2020,795,302,4,16,21,46,20,61,47,7,8,61,1,,,4,3,3
545988,2019,484,233,,22,14,28,3,45,26,7,4,79,,,,3,1,1
545988,2018,678,252,3,12,14,28,7,60,34,16,10,61,,1,2,2,2,
546003,3025,566,257,1,11,18,36,4,46,54,5,7,68,,,,5,1,1
546003,3024,600,223,1,6,11,30,9,48,37,10,4,64,,,,1,1,1
546003,3023,546,247,4,16,17,35,12,63,27,11,3,57,,,,1,1,
546003,3022,408,209,,11,4,41,5,28,46,2,7,64,,,,,1,
546003,3021,814,315,2,15,21,54,16,63,47,10,8,72,1,,,3,2,1
546003,3020,559,227,3,9,18,29,10,43,27,7,7,69,,,,4,1,
546003,3019,479,175,2,6,7,23,16,24,31,8,4,48,2,,,1,1,2
546003,3018,305,135,,7,10,24,5,14,23,3,1,47,,,,,,1
546003,3017,462,191,2,8,4,43,7,21,34,7,6,57,,,,2,,
546003,3016,610,250,2,11,10,48,6,41,42,5,11,72,1,,1,,,
546003,3015,921,446,3,26,17,69,12,102,80,10,12,105,3,,,1,3,3
546003,3014,568,183,6,19,18,31,5,32,30,3,1,38,,,,,,
546003,3049,406,134,,3,8,28,8,36,19,12,1,17,,,,,2,
546003,3048,712,237,1,8,12,14,9,89,27,17,8,45,2,1,1,1,2,
546003,3047,548,235,2,9,14,27,8,84,33,14,2,35,1,,1,,5,
546003,3046,649,275,,16,17,31,13,83,30,20,3,54,2,,,4,,2
546003,3045,1025,397,2,22,15,65,31,82,53,13,10,91,3,2,,5,2,1
554758,6001,1686,763,11,54,22,128,25,172,117,28,20,175,2,,2,1,2,4
546208,4020,1380,325,4,23,27,44,16,84,32,15,7,64,1,,,1,5,2
546003,3013,623,239,2,13,12,45,7,30,48,2,8,63,4,,1,3,1,
546003,3012,450,125,1,5,9,26,3,21,21,4,,32,,1,,2,,
546003,3011,445,155,2,11,5,24,8,22,29,2,4,46,1,,,,1,
546003,3010,524,193,4,9,10,25,7,24,31,6,6,63,,,,5,2,1
546003,3009,722,235,1,16,18,43,9,32,46,6,4,54,2,,,,2,2
546003,3008,648,221,2,10,11,35,7,40,27,8,7,71,,1,,1,,1
546003,3007,478,182,2,16,6,32,8,25,39,3,4,44,1,,,2,,
546003,3006,445,107,1,8,9,13,6,15,11,2,,39,1,,,,2,
557978,10001,1156,579,2,36,26,105,22,80,92,11,14,179,3,,3,3,2,1
546208,4010,770,353,2,15,16,44,16,54,56,14,15,106,2,,,7,1,5
546208,4009,604,262,1,16,11,36,11,61,32,30,1,58,1,,,2,,2
546208,4008,689,262,,14,13,44,18,58,43,10,6,55,,1,,,,
546208,4007,888,319,5,15,17,52,16,67,44,19,4,69,3,,,5,2,1
546208,4006,565,183,1,6,17,22,4,42,27,8,8,45,1,,1,,,1
546208,4005,767,316,4,22,13,35,24,71,45,15,8,65,3,,2,6,2,1
546003,3005,938,256,2,16,17,37,5,32,45,5,8,81,2,,,2,2,2
546208,4004,732,343,,18,17,32,14,77,63,8,7,100,,,,6,1,
546208,4003,632,231,1,10,23,26,12,65,34,8,8,39,2,,,,1,2
546208,4002,598,239,1,12,12,21,16,80,32,6,12,42,2,,,1,1,1
546208,4001,681,275,,16,11,31,18,67,55,11,11,50,1,,,,1,3
546003,3004,2316,203,3,6,16,50,3,16,28,5,5,62,1,1,2,1,3,1
546003,3003,495,181,3,9,7,32,5,25,36,1,7,51,1,1,,3,,
546208,4014,915,394,6,14,27,51,18,101,51,33,7,81,,,,4,1,
546208,4013,708,290,3,6,17,44,18,81,38,21,3,54,2,,,1,2,
554766,7001,846,388,4,35,28,47,19,78,48,5,13,104,,1,,4,1,1
546003,3063,938,478,5,20,21,70,12,74,68,12,13,166,6,,1,6,3,1
546003,3062,940,477,5,30,18,111,18,58,65,15,12,136,1,,,2,1,5
546003,3061,703,296,1,6,26,37,7,56,47,5,4,97,5,1,1,,,3
546003,3060,812,365,2,61,18,37,14,80,35,20,7,80,2,,1,4,4,
546208,4012,768,332,1,10,17,49,20,87,46,10,2,84,1,,,3,1,1
546208,4011,835,370,4,13,21,59,18,76,64,8,12,85,1,,1,4,3,1
546208,4019,773,378,6,16,16,52,22,101,42,21,5,81,5,,,8,,3
546208,4018,538,214,1,16,10,27,14,45,35,10,8,44,,1,,3,,
546208,4017,616,287,1,17,16,41,20,57,40,10,6,76,,,,2,,1
546208,4016,533,205,2,6,10,28,14,50,28,10,13,40,1,2,,1,,
546208,4015,730,293,2,17,13,46,16,91,31,10,2,55,6,,,3,1,
546208,4023,795,440,1,28,15,77,21,63,63,25,10,130,2,,,5,,
546208,4022,1131,635,4,39,24,97,16,102,121,14,13,195,3,1,,4,2,
546208,4021,736,303,,18,13,55,20,58,45,10,8,71,1,,1,3,,
546003,3002,267,73,2,1,4,18,,9,8,,4,23,,,1,1,2,
546003,3001,685,272,5,11,13,45,9,30,59,3,10,75,,1,,9,1,1
546003,3059,419,134,,9,12,15,3,30,19,8,2,34,2,,,,,
546003,3058,660,224,3,12,20,21,12,58,41,11,7,33,,,1,3,1,1
546003,3057,708,256,1,6,15,22,23,77,47,19,3,37,,1,1,3,1,
546003,3056,716,309,2,19,12,32,19,98,48,12,8,55,,,,2,1,1
546003,3055,649,256,3,8,15,34,24,72,33,22,4,39,,,,,,2
546003,3054,345,146,,8,8,22,2,39,21,16,2,24,,,1,,3,
546003,3053,937,396,2,16,17,42,18,108,62,12,5,109,,,,1,1,3
546003,3052,390,165,2,9,11,26,4,38,33,12,,27,,,,2,1,
546003,3051,663,250,3,13,11,36,16,67,42,16,5,37,1,,,3,,
546003,3050,434,177,2,8,10,17,11,50,30,9,5,27,1,1,,5,,1
554774,8001,1306,693,4,28,34,105,30,108,152,15,15,190,2,,2,4,,4
546208,4025,1124,656,8,23,24,115,14,110,105,7,17,212,3,,1,14,3,
546208,4024,445,216,1,13,12,42,5,51,28,6,4,52,,,,1,1,
546003,3044,384,198,2,9,10,35,12,42,29,6,1,44,1,,,2,2,3
546003,3043,123,47,,2,7,3,1,9,10,,1,14,,,,,,
546003,3042,590,288,1,12,13,45,6,58,63,7,8,74,,,,,,1
546003,3041,493,193,1,13,11,33,7,35,34,6,2,49,,,,1,,1
546003,3040,547,242,,18,14,36,8,41,36,7,9,66,,,,1,2,4
546003,3039,366,189,1,3,4,28,10,44,38,4,2,52,,,,1,1,1
546003,3038,369,174,7,6,11,25,9,37,33,5,2,38,1,,,,,
546003,3037,366,187,,11,7,22,10,50,31,5,3,45,1,,,,1,1
546003,3036,712,282,2,14,10,58,11,47,42,6,5,81,,,,1,2,3
546003,3035,353,147,,13,5,18,13,29,18,8,3,37,,,1,1,1,
546003,3034,598,182,2,9,8,34,1,24,43,5,3,48,,,,4,,1
546003,3033,574,260,,13,11,31,14,85,37,20,4,44,,,,,,1
546003,3032,369,182,,6,14,21,8,51,27,15,2,36,,,,,2,
546003,3031,391,152,1,13,13,31,5,29,10,13,2,34,,1,,,,
546003,3030,505,199,2,9,8,27,13,48,29,11,2,45,1,,,3,1,
546003,3029,588,246,1,14,12,29,12,65,34,19,10,47,1,,,1,1,
546003,3028,364,179,1,11,9,21,21,32,30,11,3,35,1,,,,2,2
546003,3027,397,145,2,5,13,18,7,38,11,14,2,30,1,1,1,,2,
546003,3026,333,172,,6,8,26,6,32,40,7,1,43,,,1,,,2
555771,22,47,33,1,2,3,5,3,6,1,3,,9,,,,,,
555771,21,269,145,2,11,6,20,5,16,13,18,1,46,1,,1,2,3,
555771,20,220,99,2,1,5,8,2,26,7,8,10,26,,,1,1,2,
555771,28,96,32,1,2,3,5,,2,4,4,,4,2,1,,2,2,
555771,27,116,58,,1,4,11,8,7,4,8,5,10,,,,,,
555771,26,133,65,1,1,6,11,9,9,11,4,1,12,,,,,,
555771,25,248,126,,4,9,21,3,21,11,3,2,47,,,,4,,1
555771,24,111,36,,2,1,,1,13,5,,1,12,,,,,,1
555771,23,84,42,,,3,1,5,17,5,1,2,8,,,,,,
555771,1,981,386,2,10,21,50,8,80,48,13,5,143,2,,,3,1,
555771,19,74,32,,1,2,1,,14,2,5,1,5,1,,,,,
555771,18,82,30,,,3,2,3,9,3,4,2,4,,,,,,
555771,17,97,43,1,,1,6,1,9,4,3,1,17,,,,,,
555771,16,236,87,,1,10,9,4,16,8,4,3,29,,2,,1,,
555771,15,875,365,3,18,22,41,10,75,22,10,5,155,2,,,,,2
555771,14,975,357,2,5,25,28,23,116,25,31,5,90,,,1,1,5,
555771,13,1042,406,7,14,30,41,21,105,37,35,14,96,,,1,3,2,
555771,12,1517,313,2,14,35,35,16,78,19,19,7,79,2,2,1,1,1,2
555771,11,1158,503,3,13,46,64,19,108,36,35,19,150,5,1,1,1,1,1
555771,10,903,364,2,10,21,46,16,73,42,12,6,132,2,,,,1,1
555771,9,521,201,3,4,12,21,13,43,15,14,7,67,,,,,1,1
555771,8,412,157,1,5,10,9,7,35,10,7,7,64,,,,,2,
555771,7,1351,631,4,12,28,59,27,124,64,16,6,287,2,,,1,1,
555771,6,1718,694,9,17,40,101,32,156,60,32,13,229,,,3,1,1,
555771,5,1002,374,2,8,24,37,16,81,37,18,14,135,,2,,,,
555771,4,1354,480,5,19,40,50,20,121,46,31,12,124,2,,3,,2,5
555771,3,961,342,2,5,,38,14,98,29,22,11,115,5,,,1,2,
555771,2,1014,346,8,12,22,38,19,77,22,26,4,107,6,1,,,2,2
555797,3,54,27,,2,3,4,,7,1,1,,7,,2,,,,
555797,2,93,52,1,3,10,10,6,5,3,4,,9,,,,,1,
555797,1,504,152,1,13,13,10,4,47,13,5,5,37,,,,,4,
555801,2,175,58,1,,2,10,3,15,3,8,1,15,,,,,,
555801,1,565,254,1,7,16,41,9,70,35,11,5,57,,,,1,1,
555835,4,50,26,,1,,,,13,4,,,8,,,,,,
555835,3,51,22,1,2,3,1,1,6,2,2,2,2,,,,,,
555835,2,51,32,,,,4,1,5,6,1,1,10,,,,4,,
555835,1,358,127,,17,10,16,4,21,21,2,8,25,1,1,1,,,
555835,5,82,44,,1,8,8,,8,7,1,3,8,,,,,,
555894,2,61,29,,,6,3,1,9,3,,,3,4,,,,,
555894,1,190,74,,3,4,14,7,18,10,1,3,8,,,,1,5,
555941,3,68,31,,3,2,3,2,7,3,2,,9,,,,,,
555941,2,115,55,1,3,4,10,2,13,2,4,,15,,,,,,1
555941,1,244,64,1,3,9,8,7,12,4,7,1,12,,,,,,
556041,3,133,44,,4,2,8,1,10,6,5,2,6,,,,,,
556041,2,75,32,,,2,4,,8,,6,,12,,,,,,
556041,1,359,120,1,4,9,3,4,31,13,34,1,18,,1,,,,1
556068,1,382,121,,6,13,15,7,34,17,9,4,13,2,,,,,1
556076,1,672,258,1,8,15,58,11,73,27,15,4,36,2,,1,2,3,2
556084,1,130,64,1,1,1,21,1,6,10,,6,16,,,,1,,
556106,1,734,243,4,7,26,25,15,58,17,17,6,63,1,,,1,1,2
556181,1,805,238,2,19,11,29,19,79,24,14,4,33,2,1,,,,1
556203,1,392,141,1,20,4,25,13,32,13,6,3,18,6,,,,,
556254,11,90,37,,3,,5,3,14,6,,,6,,,,,,
556254,10,133,52,,6,5,10,3,9,9,,2,8,,,,,,
556254,9,67,14,,1,,3,1,4,1,,,3,,,1,,,
556254,8,72,49,,3,3,5,2,11,10,1,2,12,,,,,,
556254,7,85,18,,1,6,,1,3,4,2,,1,,,,,,
556254,6,53,21,,3,1,4,2,3,4,,,4,,,,,,
556254,5,137,54,,2,2,4,5,14,13,4,3,5,1,,,1,,
556254,4,773,316,2,10,18,41,30,106,49,20,5,31,1,,,,,3
556254,3,922,337,,17,15,43,25,70,77,10,7,69,1,,,1,1,1
556254,2,832,276,4,15,23,23,7,89,41,15,1,56,,,,1,1,
556254,1,1113,371,,16,19,52,19,81,82,10,9,73,4,,,3,1,2
556301,5,148,56,,1,8,6,8,13,5,,1,12,,,,,,2
556301,4,63,37,1,1,1,3,4,18,3,1,,5,,,,,,
556301,3,136,69,,5,9,9,7,22,7,1,5,4,,,,,,
556301,2,131,54,,6,2,9,1,10,12,1,,13,,,,,,
556301,1,639,257,1,36,6,46,27,51,39,6,2,35,3,2,,1,1,1
556319,3,63,34,,3,2,2,5,5,8,4,,4,,,,,,1
556319,2,61,22,,4,,3,2,3,3,1,,6,,,,,,
556319,1,211,82,,7,6,7,10,10,25,,3,12,,,,,1,1
556335,5,70,37,,3,2,2,1,6,17,3,,2,,,1,,,
556335,4,56,23,,,5,4,,1,11,,2,,,,,,,
556335,3,74,26,,2,2,1,,6,12,1,,2,,,,,,
556335,2,54,32,,2,,,1,15,8,,4,2,,,,,,
556335,1,308,117,,9,11,14,4,24,33,3,2,17,,,,,,
556343,1,119,50,,2,1,4,3,16,8,4,,10,1,1,,,,
556378,1,591,184,,11,12,34,12,45,21,6,7,30,,,3,1,,2
556386,2,191,71,,3,1,5,8,20,6,16,,11,,,,1,,
556386,1,271,102,,,9,11,24,26,10,4,2,15,1,,,,,
556394,2,477,183,1,13,12,14,16,51,16,17,2,41,,,,,,
556394,1,1237,353,3,6,33,48,14,99,41,16,7,78,1,1,,2,1,3
556432,1,1231,406,2,16,24,78,20,118,52,18,9,58,5,3,,1,2,
556467,8,42,18,1,,,6,,1,1,6,,2,1,,,,,
556467,7,23,18,,,7,4,1,4,1,,,1,,,,,,
556467,6,39,21,,1,,1,,9,5,,,5,,,,,,
556467,5,69,24,,,5,1,,6,8,1,,2,,,,,1,
556467,4,106,34,1,1,3,9,2,2,7,1,3,5,,,,,,
556467,3,87,44,,,1,6,5,11,12,3,1,5,,,,,,
556467,2,145,48,,1,,7,3,13,6,3,,13,,,,,2,
556467,1,659,208,1,7,17,19,9,61,47,23,2,19,,,,3,,
556505,1,157,51,1,1,4,5,,12,5,3,4,15,,,,,,1
556629,2,155,60,,11,,5,3,17,7,3,3,11,,,,,,
556629,1,290,109,,5,,24,1,28,24,4,4,18,1,,,,,
556637,6,53,18,,,1,3,,12,,1,,1,,,,,,
556637,5,72,36,,2,14,7,,5,1,4,,3,,,,,,
556637,4,105,26,,2,6,2,1,10,,3,,2,,,,,,
556637,3,123,46,,1,3,3,2,24,1,6,1,5,,,,,,
556637,2,64,32,,,2,2,1,14,1,2,3,7,,,,,,
556637,1,469,151,5,4,17,14,10,35,10,8,3,38,2,,,1,3,1
556718,5,103,36,1,,2,3,5,6,2,,1,16,,,,,,
556718,4,108,49,,,5,3,,17,1,9,3,11,,,,,,
556718,3,106,42,2,,3,4,,15,3,5,,10,,,,,,
556718,2,157,47,,,2,10,,14,2,1,4,13,,,,,1,
556718,1,401,168,2,5,3,18,9,38,19,14,2,56,,,,2,,
556726,1,108,68,,1,,25,4,7,15,2,,13,,1,,,,
556734,1,221,65,2,6,3,9,5,18,14,1,,6,,,,,1,
556734,3,44,25,,1,2,3,,6,7,5,,1,,,,,,
556734,2,83,37,,,4,4,2,8,13,3,,3,,,,,,
556751,7,118,36,,1,4,7,3,4,3,1,,13,,,,,,
556751,6,90,29,,1,,7,,9,2,,,9,1,,,,,
556751,5,67,30,,1,,5,1,11,4,5,1,1,,1,,,,
556751,4,29,19,,2,,1,,5,8,,,3,,,,,,
556751,3,31,15,2,,,,2,1,5,,,5,,,,,,
556751,2,179,56,,4,2,5,4,15,14,2,,10,,,,,,
556751,1,465,91,1,2,5,17,4,16,15,3,6,20,2,,,,,
556815,1,280,83,,1,5,20,10,27,10,3,1,4,,,,2,,
556831,6,146,82,1,4,5,14,9,12,11,8,3,15,,,,,,
556831,5,87,33,1,3,2,4,3,4,8,,2,6,,,,,,
556831,4,203,69,1,6,7,13,8,5,8,4,1,15,,,,,,1
556831,3,1047,440,3,6,14,54,32,94,75,23,5,124,3,1,,4,2,
556831,2,1059,373,6,5,10,63,27,97,47,39,7,67,,1,,3,,1
556831,1,1226,409,3,8,15,71,28,114,57,28,13,67,1,,,1,1,2
556912,4,82,40,,1,,1,1,3,30,,,4,,,,,,
556912,3,60,26,,,4,2,,6,12,,,2,,,,,,
556912,2,137,60,,1,,3,4,7,35,4,2,2,,,,,,2
556912,1,337,148,2,1,4,7,,19,99,4,,10,1,,,1,,
556921,2,87,52,,3,,9,4,12,6,6,,10,1,,,1,,
556921,1,412,139,,12,8,25,9,28,18,3,5,27,1,,2,,1,
556955,8,52,29,,,,3,2,10,4,1,,,,,,9,,
556955,7,85,28,,2,4,1,,10,6,3,1,1,,,,,,
556955,6,84,39,,6,2,1,2,5,7,4,3,7,,,,1,,1
556955,5,74,28,3,,,1,1,12,9,1,,1,,,,,,
556955,4,112,43,,2,2,8,1,15,2,3,,8,1,1,,,,
556955,3,61,30,1,1,1,4,1,6,7,1,1,5,1,1,,,,
556955,2,93,49,,,6,4,7,15,2,4,,11,,,,,,
556955,1,794,222,8,5,13,15,9,51,35,8,9,53,1,2,1,11,1,
557005,3,103,23,,,2,3,,8,,1,1,5,1,2,,,,
557005,2,111,40,,,3,1,2,10,13,,,9,,,,,2,
557005,1,239,102,1,4,8,8,4,36,8,4,1,27,1,,,,,
557005,5,115,60,,3,3,10,4,16,2,1,4,13,2,,,1,1,
557005,4,60,30,,,5,3,3,7,2,1,,9,,,,,,
557013,3,58,22,,4,3,5,1,8,,,,1,,,,,,
557013,2,54,25,,2,,7,,6,7,,1,2,,,,,,
557013,1,280,83,3,7,7,11,6,21,11,6,1,8,1,,,,,1
557021,1,194,79,,3,9,14,5,12,11,5,1,17,1,,,,,1
557081,1,224,61,,1,8,8,2,19,11,1,3,7,,,,,1,
557099,1,327,110,2,23,4,15,7,38,3,8,3,6,1,,,,,
557111,1,188,77,,3,7,7,3,19,9,6,3,18,,1,,,,1
557129,1,265,100,1,2,1,11,8,37,15,11,3,9,,,,,1,1
557137,1,1069,391,4,15,31,42,40,91,34,19,6,97,2,1,2,4,2,1
557153,7,916,368,2,5,21,94,51,81,30,21,3,56,1,,,2,,1
557153,6,1009,365,1,25,15,99,46,65,24,23,5,56,1,,,2,,3
557153,5,1134,343,3,15,9,83,30,56,37,8,4,88,5,,1,3,,1
557153,4,1034,457,2,20,20,123,37,92,49,21,4,83,,2,2,,1,1
557153,3,145,66,1,4,1,25,10,6,8,4,1,6,,,,,,
557153,2,315,133,1,8,6,23,10,29,24,4,,22,6,,,,,
557153,1,103,39,,,2,8,5,13,3,1,2,5,,,,,,
557153,11,842,316,8,29,18,97,18,76,18,15,1,34,1,1,,,,
557153,10,1268,469,2,8,23,162,40,85,28,26,11,78,3,,1,1,,1
557153,9,1063,431,3,15,33,119,30,90,31,27,12,66,2,1,,,1,1
557153,8,1098,495,3,21,17,147,32,68,49,19,9,125,3,1,,,1,
557161,1,273,132,2,7,8,8,3,50,35,2,4,11,1,,,1,,
557200,6,55,27,1,,,3,1,6,9,,,5,,,,,1,1
557200,5,48,40,,1,7,2,2,6,,5,,16,,,,,1,
557200,4,1000,430,4,22,31,61,20,107,57,33,7,80,1,,,,5,2
557200,3,133,59,,1,11,2,5,13,14,3,,10,,,,,,
557200,2,71,35,,,3,1,6,9,1,7,,7,,,,,1,
557200,1,32,22,,,3,2,,1,3,,,9,,,,3,1,
557366,4,337,122,2,13,10,12,2,30,18,6,1,26,,,,1,,1
557366,3,138,61,,5,,7,5,18,7,3,,15,1,,,,,
557366,2,112,45,1,11,,4,3,14,3,,,9,,,,,,
557366,1,108,41,1,8,,7,,5,5,1,,14,,,,,,
557374,1,206,64,,4,2,16,9,16,6,3,,7,,1,,,,
557382,3,65,27,,,,6,6,9,,2,,4,,,,,,
557382,2,91,44,,1,1,8,4,3,24,,,3,,,,,,
557382,1,279,93,,3,8,10,5,21,24,3,4,13,,,,,2,
557455,3,253,105,1,1,9,11,8,26,11,7,4,26,1,,,,,
557455,2,248,128,,,12,22,3,28,25,3,1,34,,,,,,
557455,1,221,103,1,1,1,15,7,20,7,4,1,44,1,,,,1,
557463,2,40,22,,2,,1,2,5,1,3,5,2,,,,,1,
557463,1,314,98,1,6,10,14,11,23,19,3,,11,,,,,,
557528,3,99,59,4,3,2,3,3,14,9,,1,20,,,,,,
557528,2,170,73,,2,6,14,1,2,8,,,38,,1,1,,,
557528,1,1017,383,3,24,30,58,36,59,43,9,13,107,,1,,,,
557536,4,128,58,,2,3,9,6,19,10,,1,7,,,,,1,
557536,3,53,30,,3,,4,4,12,1,1,,5,,,,,,
557536,2,68,33,,4,,9,3,11,,2,,4,,,,,,
557536,1,232,100,,7,6,14,14,24,11,6,1,17,,,,,,
557544,1,548,167,1,9,16,25,15,32,33,9,1,23,1,,,1,,1
557587,8,50,25,,,5,1,3,5,3,1,,7,,,,,,
557587,7,220,88,2,2,3,9,9,20,20,10,1,11,,,1,,,
557587,1,1324,478,4,20,32,61,29,96,95,22,15,93,3,,3,,3,2
557587,6,87,44,,10,1,4,,11,7,1,,9,,,1,,,
557587,5,70,28,,,3,1,,12,4,3,,5,,,,,,
557587,4,39,25,,2,,4,1,9,2,1,,6,,,,,,
557587,3,383,185,2,7,9,19,13,38,33,9,11,42,2,,,,,
557587,2,1109,414,2,7,32,52,34,80,85,22,8,83,1,,,3,1,4
557641,1,459,239,,6,14,28,10,45,59,7,8,57,,1,,1,1,2
557650,5,66,36,1,1,2,3,6,11,7,,,4,1,,,,,
557650,4,133,50,,6,6,3,,9,14,5,,6,,,,,,1
557650,3,138,71,2,1,1,8,7,20,24,4,,2,,,,2,,
557650,2,47,26,,2,3,1,3,5,5,4,1,,,1,,1,,
557650,1,137,45,1,1,5,1,4,10,3,6,1,13,,,,,,
557668,2,84,22,,,3,,3,7,,3,,4,,,,2,,
557668,1,577,200,1,3,22,19,11,43,33,24,2,37,1,,1,2,1,
557676,4,1014,365,5,7,32,44,27,75,33,24,14,98,1,2,,1,2,
557676,3,850,283,7,8,25,22,23,63,32,16,5,74,3,1,1,,2,1
557676,2,1335,536,1,15,21,73,35,92,74,33,7,175,,,1,2,3,4
557676,1,1319,434,5,19,41,46,16,96,47,17,18,116,3,1,1,4,2,2
557676,5,292,127,,8,9,18,4,44,15,5,5,11,1,,,3,3,1
557684,4,63,30,,6,,1,1,7,1,5,4,3,1,,,,1,
557684,3,84,41,2,2,4,3,3,13,3,6,,4,,,,,,1
557684,2,146,68,1,5,11,11,5,11,9,,2,11,1,,,1,,
557684,1,513,199,,19,22,15,10,43,35,6,7,40,,,,,2,
557722,2,97,39,,1,7,,,15,8,3,2,2,,,,1,,
557722,1,252,89,4,2,14,11,6,19,7,11,3,11,1,,,,,
557731,1,465,173,,2,9,33,20,36,26,2,14,29,1,,,,1,
557749,2,92,43,,10,1,1,4,7,6,3,,10,,,,,1,
557749,1,96,45,1,,3,5,,10,14,4,2,4,2,,,,,
557773,1,185,84,,1,3,10,8,37,8,1,5,9,,1,,,1,
557781,4,104,47,,2,,6,5,14,5,1,,13,,,,1,,
557781,3,92,17,1,,2,3,,4,3,1,,2,,,,,1,
557781,2,838,207,7,3,21,19,22,48,14,27,3,36,2,1,,,4,
557781,1,844,313,2,7,17,43,15,73,39,14,13,82,2,2,3,,1,
557803,1,463,176,2,12,8,41,8,42,18,14,7,18,,,,4,2,
557838,2,770,256,2,16,12,46,8,58,40,10,12,45,1,,1,2,3,
557838,1,894,295,6,6,21,41,19,72,50,16,6,50,3,,,2,3,
557838,5,106,42,2,,,6,3,11,5,2,4,9,,,,,,
557838,4,61,19,,1,,5,1,4,1,,,7,,,,,,
557838,3,343,116,,,5,13,4,36,13,12,2,29,,,,1,1,
557846,3,47,27,,7,,3,1,,10,,,5,,,,1,,
557846,2,63,30,,4,3,5,2,8,5,1,1,,,,,1,,
557846,1,477,219,2,9,13,37,5,36,40,7,9,56,2,1,1,1,,
557862,7,27,22,,,2,3,2,10,4,,1,,,,,,,
557862,6,57,30,1,1,2,4,2,7,5,1,,6,,,1,,,
557862,5,53,30,1,5,1,3,3,12,2,,,1,,,,2,,
557862,4,54,29,1,1,3,,,11,6,5,,1,,,,1,,
557862,3,65,25,2,1,,3,1,7,5,3,,3,,,,,,
557862,2,44,21,,,,3,1,8,5,2,1,1,,,,,,
557862,1,712,275,1,11,13,38,7,64,63,13,6,52,3,,,,3,1
557871,2,96,37,2,,5,4,5,7,6,2,1,4,,,,,,1
557871,1,143,56,,5,8,6,1,16,,9,1,8,,,,,2,
557897,1,177,75,1,4,4,7,6,9,20,15,3,6,,,,,,
557943,1,95,56,,1,1,9,4,14,14,1,4,6,,,,,2,
557951,5,43,27,,,2,1,,10,2,,2,8,,,,,2,
557951,4,65,24,2,,1,1,1,12,3,1,1,1,,,,,1,
557951,3,82,46,,4,3,4,7,13,5,2,1,5,,,,1,1,
557951,2,34,14,1,,1,2,4,3,1,,,2,,,,,,
557951,1,300,104,1,6,6,9,8,17,11,14,1,26,1,1,1,1,,1
558001,1,1074,447,2,9,26,51,10,92,70,23,18,138,2,1,,1,2,2
558010,1,79,38,,2,7,1,4,9,8,3,2,1,,,,1,,
558028,3,77,30,1,,4,3,4,7,2,5,,4,,,,,,
558028,2,87,36,,,2,5,2,9,7,,,10,1,,,,,
558028,1,378,154,5,1,3,16,13,37,20,12,9,36,1,,,1,,
558044,2,90,34,,,2,10,5,5,9,2,,1,,,,,,
558044,1,824,283,,5,32,39,20,60,39,14,11,56,1,,3,1,1,1
558052,5,60,21,,4,1,5,1,5,2,,,1,,,,,,2
558052,4,51,27,,2,,3,2,5,7,1,,6,,,,,,1
558052,3,50,34,1,8,2,6,2,6,4,1,1,3,,,,,,
558052,2,49,29,,1,10,4,,6,1,2,,4,,,,1,,
558052,1,89,35,,9,3,7,1,7,2,5,,,1,,,,,
558061,5,93,54,,,,4,4,37,5,1,,3,,,,,,
558061,4,87,21,,2,,,1,7,3,5,,1,,1,,1,,
558061,3,52,27,,1,,2,5,10,1,5,,2,,,,,1,
558061,2,153,61,,,4,3,,28,1,6,3,15,,,,,,1
558061,1,172,53,,,4,1,4,17,6,3,,17,,,,,1,
558079,1,53,23,,,,,,6,5,5,2,4,1,,,,,
558095,1,151,71,,10,6,8,4,21,6,9,1,4,,,1,1,,
558109,3,634,215,1,9,24,28,11,41,44,16,7,30,,,,2,2,
558109,2,945,336,4,5,29,25,26,79,80,27,11,44,1,,3,,1,1
558109,1,1275,445,5,16,27,46,13,101,112,21,13,84,4,,,2,1,
558117,1,150,70,,1,11,7,7,16,9,5,3,8,1,,,1,1,
558125,2,70,24,,,,2,2,7,5,2,,6,,,,,,
558125,1,240,78,,1,4,12,5,31,13,2,,9,,,,,,1
558125,7,58,28,,,3,,3,8,4,5,,5,,,,,,
558125,6,97,42,1,2,3,7,2,14,6,3,,4,,,,,,
558125,5,57,21,2,,1,2,3,6,2,2,,1,,1,,,1,
558125,4,42,16,,,2,3,4,2,1,1,,2,,,,,,1
558125,3,60,33,,1,2,7,,14,5,1,,2,,,,,1,
558141,1,1146,459,7,11,15,49,40,124,87,13,9,96,1,1,2,1,3,
558176,1,282,127,1,12,10,13,4,38,21,6,6,12,2,,,2,,
558184,2,97,33,,,2,5,3,13,5,1,2,2,,,,,,
558184,1,187,56,1,3,7,,2,14,15,4,1,8,1,,,,,
558231,1,167,82,,2,1,17,4,7,19,9,6,14,1,,1,,1,
558249,8,98,52,,,3,7,5,12,11,8,,4,,,,,1,1
558249,7,213,89,5,4,8,11,5,19,7,1,2,26,1,,,,,
558249,6,313,117,2,1,5,23,8,27,13,6,,29,,2,,1,,
558249,5,750,336,3,9,9,27,15,78,70,25,12,83,,,3,1,1,
558249,4,1197,487,7,12,35,55,26,103,101,19,14,103,4,1,2,1,3,1
558249,3,1073,353,4,16,29,20,24,96,35,21,11,87,2,,1,1,4,2
558249,2,851,292,2,8,28,34,18,65,31,26,4,64,,,1,2,4,5
558249,1,868,343,1,8,37,31,24,67,50,17,7,97,,,2,,1,1
558257,2,93,42,1,4,3,4,5,12,3,1,,5,,1,,,2,1
558257,1,732,311,,2,13,49,21,55,54,19,,92,3,,,2,1,
558257,3,74,13,,,,1,3,3,2,,,4,,,,,,
558265,1,163,73,1,3,2,12,1,16,10,13,,14,,,,,1,
558290,1,221,113,,4,7,8,3,39,10,11,3,19,,,,,,9
558303,5,96,38,1,3,5,11,,11,1,1,1,1,1,,1,1,,
558303,4,68,30,,1,,4,,14,6,4,1,,,,,,,
558303,3,165,60,2,4,2,4,4,7,19,2,4,11,,,,1,,
558303,2,132,72,,,2,11,9,19,6,6,2,13,3,,,,1,
558303,1,266,109,1,2,6,19,4,29,8,7,3,30,,,,,,
558311,1,244,99,2,2,4,19,7,31,10,3,1,16,,,2,,2,
558346,2,172,80,2,1,7,10,5,23,3,12,6,9,,,,1,1,
558346,1,314,140,,2,11,14,19,29,16,17,1,25,1,1,1,1,2,
558362,4,111,45,,3,7,,1,10,12,1,,10,,,,,1,
558362,3,138,58,,3,8,7,1,9,10,5,3,12,,,,,,
558362,2,130,57,,4,,,4,19,17,1,2,9,1,,,,,
558362,1,1365,480,4,32,17,38,31,85,201,29,6,31,2,,1,1,2,
558362,8,54,17,,1,,,2,6,4,,,2,,,1,,,1
558362,7,155,68,1,7,1,1,3,17,20,7,5,6,,,,,,
558362,6,160,66,2,3,9,4,3,12,25,3,1,4,,,,,,
558362,5,89,46,,2,6,5,2,9,19,,,1,,,,2,,
558371,5,878,354,7,8,14,55,9,70,72,16,17,80,,,,3,3,
558371,4,405,147,,10,14,21,2,25,27,4,6,33,,,2,2,,1
558371,3,1076,487,5,16,29,66,12,83,125,18,14,110,,2,,2,2,3
558371,2,836,383,2,29,14,50,16,69,68,7,16,101,1,,1,6,1,2
558371,1,928,387,10,16,24,58,14,62,72,11,15,98,,,2,,,5
558389,4,81,18,1,,4,2,2,7,,,2,,,,,,,
558389,3,957,309,2,3,22,52,20,88,42,11,7,57,2,1,1,,,1
558389,2,771,258,4,6,21,36,15,79,29,13,8,40,2,1,1,,3,
558389,1,1022,316,1,2,22,41,24,89,51,15,6,60,2,,,2,1,
558401,1,320,119,1,4,8,10,14,35,16,6,5,17,1,,,2,,
558427,2,1017,408,10,3,19,54,16,96,95,6,20,75,4,1,1,2,5,1
558427,1,770,303,3,7,16,39,11,66,61,12,11,65,2,,1,7,,2
558427,3,434,203,2,5,9,19,19,41,57,13,2,31,1,,,,4,
558435,1,1611,739,9,38,46,106,31,124,151,17,19,183,4,,1,5,4,1
558460,1,798,352,2,14,27,51,14,80,58,11,7,79,2,,1,6,,
558486,2,144,73,,,3,13,2,14,9,,8,23,,,,1,,
558486,1,420,178,4,6,7,22,10,50,20,,5,48,2,2,,1,1,
558494,1,282,57,,1,6,9,5,12,11,2,2,7,1,,,1,,
558559,1,259,111,3,7,8,20,2,19,23,13,5,9,,1,,1,,
558567,1,440,174,2,5,9,27,5,54,33,11,7,18,1,,,1,1,
558583,1,496,203,3,8,23,22,8,50,45,6,5,30,1,,,,2,
558591,2,77,41,1,,2,6,6,12,7,2,1,3,,,,,,1
558591,1,167,63,1,3,7,6,2,16,10,5,,9,2,,,1,1,
558605,1,378,159,,2,12,14,17,50,21,16,2,22,,,,,1,2
558630,3,78,47,,1,1,5,4,8,9,7,,11,,1,,,,
558630,2,114,39,2,2,3,1,2,10,7,5,,6,,,,1,,
558630,1,497,145,3,3,7,13,9,53,17,9,3,20,1,,1,3,,3
558656,1,551,127,,8,4,13,5,52,17,6,1,17,,,,2,2,
558672,1,683,258,1,5,31,33,16,55,53,10,2,43,,1,1,3,4,
558699,1,141,66,,7,1,14,5,13,9,,3,13,,,,1,,
558711,1,233,110,,2,10,19,11,36,10,5,2,13,,,1,,,1
558745,1,466,213,2,6,13,36,8,51,39,3,8,44,,,,,3,
558770,2,53,22,1,3,4,4,2,4,,1,1,2,,,,,,
558770,1,277,100,,9,3,6,7,13,11,8,8,25,4,1,1,1,3,
558788,1,223,99,,2,1,17,7,25,19,3,2,23,,,,,,
558796,1,382,181,1,6,14,23,10,41,15,18,5,43,3,1,1,,,
558800,1,54,28,1,2,1,3,5,6,7,,,3,,,,,,
558834,1,626,295,4,10,18,43,10,56,54,15,9,68,2,1,,2,2,1
558851,2,302,141,,5,2,27,2,34,22,3,5,35,1,,,2,,3
558851,1,1060,445,4,19,31,71,14,85,88,4,10,101,1,1,4,4,4,4
558869,2,594,154,,2,13,21,2,45,36,9,1,16,,1,,,8,
558869,1,864,262,5,2,10,39,9,74,62,11,7,39,2,,,,2,
558877,3,98,51,,2,5,6,9,17,5,3,,4,,,,,,
558877,2,137,80,2,4,9,16,5,18,8,,2,16,,,,,,
558877,1,233,104,,13,6,11,13,18,19,5,2,16,,,,1,,
558885,4,979,325,2,7,20,25,24,98,62,13,6,57,3,1,,2,4,1
558885,3,745,311,1,13,27,31,13,65,47,16,16,73,1,2,,,3,3
558885,2,1119,376,5,6,27,66,26,85,57,9,15,67,4,1,,2,4,2
558885,1,547,170,1,4,10,14,11,46,31,14,9,26,,,,2,2,
558915,4,170,73,,,2,3,3,10,16,4,2,30,3,,,,,
558915,3,116,65,1,,3,10,11,12,9,2,3,13,,,,,1,
558915,2,314,134,4,5,8,16,8,21,24,8,,36,1,,,2,,1
558915,1,423,159,5,7,10,23,3,45,20,14,5,23,,,2,1,1,
558931,1,202,105,,19,6,1,8,25,5,15,1,21,1,,2,,1,
558940,1,965,424,6,21,25,58,17,74,80,9,7,120,2,,,3,1,1
558966,2,670,320,3,12,22,29,16,75,37,19,7,84,2,,,11,2,1
558966,1,783,331,7,16,21,44,10,83,43,9,3,85,,,,6,3,1
558974,1,193,65,,,3,13,2,20,15,4,,5,2,,,,1,
558982,1,113,63,,2,7,4,2,19,8,,3,14,,,,4,,
558991,1,118,55,2,3,5,6,3,7,5,,3,19,,,,1,1,
559008,4,727,245,2,4,10,35,29,56,26,14,7,49,3,2,1,3,4,
559008,3,466,197,1,6,14,26,17,48,25,10,9,36,3,,,1,1,
559008,2,618,220,3,3,17,23,21,82,27,13,4,19,1,,,1,5,1
559008,1,616,244,,6,14,26,25,72,21,10,8,54,1,,1,3,3,
559024,1,110,47,,1,,2,7,18,3,3,1,11,,,1,,,
559032,1,114,61,,6,,7,14,13,8,,,8,1,,3,1,,
559041,1,502,227,2,1,13,19,22,59,32,12,8,52,1,,1,4,,1
559059,1,855,366,5,14,22,27,12,61,158,13,9,37,,,2,3,1,2
559067,1,1145,403,6,8,11,58,32,124,53,19,10,70,3,,3,1,4,1
559075,6,95,63,3,2,2,4,7,12,4,11,,15,,1,1,,1,
559075,5,103,47,,1,2,4,3,9,10,3,1,10,,,3,,1,
559075,4,666,284,2,14,13,38,23,47,64,16,5,55,1,2,,3,1,
559075,3,781,338,5,10,14,39,34,82,59,23,4,59,3,,2,2,,2
559075,2,603,239,1,3,19,27,20,75,32,19,3,32,3,,,2,3,
559075,1,580,207,3,4,7,23,25,40,36,15,2,48,,1,1,1,,1
559083,1,306,130,2,,6,15,6,33,17,24,3,24,,,,,,
559091,1,210,90,,,8,11,16,24,8,7,1,15,,,,,,
559105,1,196,55,,1,7,4,5,12,8,2,3,12,,,,,1,
559121,1,140,35,1,,3,4,4,5,3,2,,7,2,3,,1,,
559130,1,804,430,7,19,35,62,22,83,62,14,17,96,1,2,,7,1,2
559148,1,675,259,2,12,17,32,13,61,38,16,6,56,1,,,3,2,
559164,3,397,168,,8,6,13,4,76,14,8,2,36,,,1,,,
559164,2,812,276,2,29,31,30,16,58,29,29,4,42,1,,,2,2,1
559164,1,877,318,1,15,29,43,14,66,30,11,15,87,2,,,2,2,1
559172,1,580,190,3,9,12,27,8,48,24,16,2,31,2,,,5,2,1
559202,3,121,50,,8,2,9,6,7,5,3,2,8,,,,,,
559202,2,87,12,,4,,1,,4,,2,,1,,,,,,
559202,1,729,299,1,68,11,12,23,60,23,20,5,70,1,,1,,3,1
559211,2,732,237,1,9,14,24,18,50,61,12,5,37,2,,,3,1,
559211,1,937,385,3,16,16,60,17,83,89,13,10,74,2,,,1,,1
559237,1,434,166,,26,4,8,37,45,10,4,3,28,,,1,,,
559245,1,265,129,,12,7,9,10,38,10,5,1,32,1,,1,2,,1
559253,1,100,50,,,2,9,1,7,8,,,23,,,,,,
559261,1,536,176,4,20,8,7,13,57,35,10,3,13,,1,1,3,1,
559270,1,427,174,2,7,16,28,14,44,18,10,,27,,1,,6,1,
559288,1,235,98,1,3,4,19,5,11,22,4,1,27,,,,1,,
559300,1,222,78,1,2,1,15,1,28,15,4,4,7,,,,,,
559300,9,448,128,7,1,16,12,2,34,15,3,4,34,,,,,,
559300,8,648,150,2,6,10,30,16,31,19,4,1,26,,1,,,4,
559300,7,707,148,4,2,10,21,12,48,12,8,,24,,,1,,5,1
559300,6,423,186,3,7,17,23,8,30,23,14,7,49,2,,1,1,,1
559300,5,817,220,2,5,18,32,16,63,16,14,8,38,,1,,1,5,1
559300,4,837,267,2,3,12,44,9,91,23,18,6,52,,,2,1,4,
559300,3,900,329,5,7,31,55,16,93,35,21,3,59,2,,,1,1,
559300,2,457,172,2,,15,31,6,35,19,9,7,40,,,1,3,4,
559318,1,433,182,3,16,13,22,15,44,34,4,3,21,,,1,5,,1
559326,1,164,45,2,,3,5,5,10,8,4,3,1,2,,,1,1,
559334,1,614,165,,6,21,27,10,40,24,9,2,18,2,,2,,3,1
559351,5,146,71,1,5,1,2,26,19,5,6,,6,,,,,,
559351,4,185,72,3,3,4,8,5,16,11,6,,13,2,,,,1,
559351,3,480,209,2,17,5,18,33,44,26,10,3,43,4,,2,,2,
559351,2,487,223,4,19,7,27,31,44,28,8,4,51,,,,,,
559351,1,582,178,1,11,11,18,22,31,23,13,6,35,2,,1,1,3,
559351,8,133,84,1,11,,9,9,21,19,,,13,,,,1,,
559351,7,136,53,1,4,5,4,8,11,5,4,3,8,,,,,,
559351,6,57,21,,,2,,7,7,,2,,2,,,,1,,
559369,1,222,86,4,2,1,15,11,17,14,,,20,1,,,1,,
559377,1,357,148,1,2,9,14,9,47,26,11,11,17,,,,1,,
559393,1,455,133,1,1,14,21,2,43,10,16,2,19,2,,,,2,
559423,1,236,90,3,8,4,15,1,18,20,2,1,14,2,1,,,1,
559431,1,444,185,1,6,21,34,6,35,21,17,7,35,,,1,,1,
559482,1,91,29,1,,1,3,3,9,7,5,,,,,,,,
559491,1,1397,494,7,15,25,86,33,101,87,21,11,90,4,,,9,2,3
559491,2,1145,455,6,19,27,89,24,66,92,16,8,99,2,,,2,2,3
559504,1,744,257,5,2,16,38,19,70,23,11,6,62,1,,1,,,3
559521,5,609,316,5,14,14,59,10,38,50,4,8,106,2,1,1,,3,1
559521,4,869,329,5,9,17,50,12,79,46,7,4,91,2,,,3,4,
559521,3,917,392,4,23,18,66,10,62,48,15,12,125,1,2,,1,1,4
559521,2,909,312,5,7,22,38,18,93,35,15,6,62,3,,1,2,3,2
559521,1,753,308,2,16,20,47,21,58,37,10,17,74,,1,,2,3,
559555,1,355,162,1,3,18,17,6,39,26,16,2,29,,,,1,3,1
559563,1,494,155,5,3,11,7,13,53,17,21,9,16,,,,,,
559571,1,379,113,2,2,15,17,7,28,19,4,6,12,,,,1,,
559580,2,960,549,3,18,25,85,19,70,58,26,16,216,1,1,1,4,4,2
559580,1,1045,482,4,6,18,78,10,59,60,17,8,210,1,1,,1,6,3
559580,3,1211,581,3,18,19,104,27,98,62,9,9,226,2,,1,1,1,1
559601,1,929,400,4,9,29,64,11,80,81,13,16,77,1,2,2,9,,2
559628,1,1206,430,6,14,32,86,10,85,55,25,12,88,1,,7,3,6,
559661,3,312,94,6,2,7,7,5,24,10,7,3,23,,,,,,
559661,2,678,224,2,3,34,32,8,53,23,10,5,52,1,,,1,,
559661,1,832,223,5,7,21,30,9,47,29,20,10,35,2,1,,4,3,
559679,2,1291,605,6,19,35,90,16,116,125,13,17,155,1,,,8,1,3
559679,1,1366,677,2,18,43,100,23,142,133,27,14,162,,,1,10,1,1
559695,2,533,257,5,15,15,24,57,57,35,15,4,26,3,,,1,,
559695,1,554,184,1,8,11,21,33,51,18,10,5,18,1,,,,5,2
559709,1,365,158,1,4,5,20,22,29,28,9,5,33,,1,,,1,
559717,5,746,273,2,16,15,28,12,72,36,16,6,59,5,,,2,,4
559717,4,1080,437,3,34,24,59,16,87,58,32,11,108,3,,,1,,1
559717,3,845,302,1,18,14,33,15,85,40,29,3,59,,,,1,,4
559717,2,687,238,2,13,9,26,9,65,21,29,9,50,2,,1,,2,
559717,1,1546,284,2,30,22,33,8,51,41,17,17,55,4,,1,,,3
559717,12,378,170,1,36,6,22,7,35,23,3,2,35,,,,,,
559717,11,759,322,2,16,19,35,20,65,58,11,8,80,2,,,4,2,
559717,10,1274,530,10,42,29,76,24,103,78,19,17,126,4,,1,1,,
559717,9,928,390,2,30,17,40,29,76,48,29,15,99,1,,,2,,2
559717,8,609,254,4,19,16,26,9,54,25,24,8,64,1,,1,1,2,
559717,7,1069,338,7,13,35,38,14,116,32,25,7,48,,1,,1,1,
559717,6,849,231,3,13,19,35,5,60,36,9,7,38,4,,,,2,
559725,2,494,134,1,1,10,8,5,21,14,5,8,59,,,,1,1,
559725,6,149,62,,2,1,5,6,8,4,4,,29,2,,,,1,
559725,5,201,74,1,2,5,8,3,17,15,5,,15,,1,,,2,
559725,4,193,88,3,2,2,5,7,19,21,3,2,23,1,,,,,
559725,3,304,119,2,,10,19,5,13,11,11,6,40,,,,,,2
559725,1,465,159,4,7,12,10,6,48,16,4,4,42,1,2,,1,,2
559733,1,301,109,1,,6,7,1,40,16,1,4,32,,,,1,,
559741,1,56,33,2,,,7,11,4,,,,9,,,,,,
559750,3,72,43,,,7,2,2,9,5,2,2,12,,,,2,,
559750,2,137,71,,3,1,12,2,14,13,4,1,21,,,,,,
559750,1,267,110,2,5,4,15,13,27,12,2,2,25,1,,1,1,,
559768,1,122,58,1,,4,4,3,10,1,5,,23,3,4,,,,
559776,1,1042,336,5,5,28,38,11,94,50,29,9,63,2,,,2,,
559792,1,544,259,1,4,19,42,12,48,40,13,11,62,,,3,1,2,1
559806,4,34,16,,,3,1,,7,3,,,2,,,,,,
559806,3,34,28,,,3,3,1,3,13,,1,2,,,,1,1,
559806,2,60,27,,1,2,3,1,11,1,1,,4,,,,3,,
559806,1,148,69,1,,2,6,13,26,5,2,1,10,2,,,1,,
559814,1,1172,453,10,19,36,66,30,99,53,44,15,78,2,,,,1,
559822,3,731,191,3,2,15,17,12,56,17,23,8,33,3,,,2,,
559822,2,765,174,2,5,28,14,7,48,16,16,5,28,1,,,,4,
559822,1,716,285,3,3,19,29,14,60,32,31,3,85,1,1,4,,,
559849,1,186,88,,5,4,9,4,19,19,10,,14,,,2,,1,1
559857,1,576,170,4,5,7,21,11,56,21,15,3,19,,,,1,2,5
559903,1,532,200,1,8,6,25,10,48,32,10,31,25,1,2,,,1,
559911,1,381,170,1,4,6,28,7,53,27,3,1,31,,2,,4,3,
559920,1,139,40,,3,,5,4,17,5,3,,2,,,,1,,
559946,1,51,22,,2,2,1,1,11,2,1,,1,,,,1,,
559954,1,183,64,3,3,2,7,9,21,6,4,,5,,1,,1,,2
559962,1,134,65,,1,2,16,1,13,12,1,3,14,2,,,,,
559997,3,378,140,,5,15,17,6,40,17,7,5,27,,1,,,,
559997,2,751,241,2,5,21,36,13,78,28,11,3,39,1,,,,2,2
559997,1,644,185,3,6,20,25,2,31,35,13,8,33,1,,,7,1,
560006,2,52,23,,,1,1,7,5,2,4,,2,,,,,1,
560006,1,186,73,,3,3,14,5,16,7,5,1,18,,,,1,,
560014,1,1186,474,6,16,36,78,22,113,51,26,19,99,1,,2,1,3,1
560057,2,137,76,,4,2,9,3,22,10,6,2,16,,,,1,1,
560057,1,925,341,3,3,32,55,18,92,35,21,8,63,2,,1,4,2,2
560081,1,199,89,1,1,4,6,4,29,14,15,2,11,,,,1,1,
560111,1,172,86,1,4,2,9,2,22,9,11,1,23,,,,2,,
560120,1,1428,542,8,6,22,72,25,123,161,26,9,80,1,,,5,1,3
560146,1,63,34,,,1,1,2,14,4,4,,8,,,,,,
560162,3,509,232,3,8,17,39,9,59,21,16,10,42,2,,1,5,,
560162,2,1186,357,1,8,34,66,10,83,32,30,23,64,3,1,,1,,1
560162,1,230,118,3,,4,17,6,35,15,5,8,24,1,,,,,
560189,1,240,71,1,4,5,9,9,16,4,5,4,12,,,,,,2
560227,1,198,85,2,2,4,14,8,12,19,5,2,15,,,,,,2
560235,1,210,68,,1,4,13,1,13,5,3,4,21,,,,1,2,
560251,1,913,380,,5,25,58,58,76,46,13,9,80,2,,,5,2,1
560260,5,26,18,1,1,1,3,,2,4,4,,2,,,,,,
560260,4,40,16,,,,3,,7,1,3,,2,,,,,,
560260,3,19,8,,2,,,1,1,3,,1,,,,,,,
560260,2,744,264,3,6,17,32,15,57,49,10,5,67,,,,2,1,
560260,1,1163,438,8,14,36,51,35,118,57,20,11,78,,,,5,5,
560715,10,577,178,1,,12,24,19,51,12,26,8,21,1,,,,3,
560715,9,671,207,3,4,22,27,23,57,19,17,2,22,,5,,2,2,2
560715,6,1136,230,2,,24,43,29,44,18,20,3,36,2,,1,,3,5
560715,5,832,267,3,2,25,37,34,54,32,15,11,44,1,5,,,3,1
560715,4,729,235,1,5,19,45,25,57,18,19,6,31,,2,2,,3,2
560715,3,883,339,4,6,13,59,29,101,30,30,10,49,2,3,1,1,,1
560715,2,702,242,1,5,22,41,12,54,23,26,8,43,1,,,4,1,1
560715,1,787,329,,7,24,36,32,102,51,33,8,33,1,,,,,2
560715,14,62,25,,3,2,5,2,4,,4,,2,2,,1,,,
560715,13,203,67,2,1,5,13,4,16,12,1,2,7,1,1,,,2,
560715,12,704,287,2,7,24,33,28,92,18,23,5,45,3,3,1,,,3
560715,11,832,244,5,1,21,49,9,56,22,28,11,35,1,2,,1,3,
560715,8,751,236,,1,18,36,17,49,33,21,9,42,2,,,3,1,4
560715,7,492,136,1,4,11,23,21,34,9,16,4,10,,3,,,,
560723,1,176,48,2,,,4,2,28,1,1,1,9,,,,,,
560740,1,739,199,,6,15,20,8,60,24,25,3,29,1,1,,6,1,
560758,3,1101,174,4,9,16,21,4,41,30,18,2,16,1,7,1,,4,
560758,2,971,248,1,2,17,45,13,66,35,28,5,24,1,5,,4,1,1
560758,1,973,235,2,7,15,31,9,64,32,37,7,19,1,9,,2,,
560782,1,231,48,,4,7,7,2,17,2,2,1,4,1,,,,1,
560804,1,256,81,1,6,10,11,8,16,5,8,2,9,,1,2,,2,
560812,1,907,224,1,15,14,12,15,83,30,19,5,24,,2,1,1,2,
560839,1,291,80,2,,7,13,3,17,16,7,1,12,,1,,1,,
560855,1,299,83,5,1,1,10,7,27,11,2,5,9,,2,,1,2,
560863,1,733,214,4,1,15,54,19,43,16,31,,19,,4,4,,3,1
560898,2,78,34,1,6,1,9,3,5,2,4,,2,,,,,,1
560898,1,236,38,,1,2,3,4,18,4,3,,2,1,,,,,
560901,1,1433,442,4,4,43,70,21,123,35,38,3,91,2,4,,,2,2
560910,2,112,36,2,1,5,3,7,8,2,4,,2,,2,,,,
560910,1,510,156,4,2,9,14,15,58,22,12,2,12,2,,1,,2,1
560928,3,84,39,,,5,10,2,12,2,5,,,1,,,,1,1
560928,2,77,39,1,,8,6,,3,14,,1,5,,,,,1,
560928,1,1084,346,8,9,21,44,10,105,55,35,7,41,1,2,2,2,2,2
560952,2,171,55,,2,4,10,1,9,6,14,1,7,,1,,,,
560952,1,611,220,3,25,18,21,6,52,27,20,5,43,,,,,,
560979,1,167,47,,,5,1,10,10,2,11,4,3,,,,1,,
561002,1,374,105,4,3,13,12,6,25,12,13,3,9,2,1,,,2,
561011,1,313,78,2,,18,7,3,16,11,11,1,7,,1,1,,,
561134,5,688,200,4,5,11,17,11,56,30,39,6,14,3,3,,,1,
561134,4,854,329,6,5,23,35,16,72,49,35,3,58,3,21,2,,,1
561134,3,903,256,,7,24,19,8,52,55,33,6,40,1,8,,2,1,
561134,2,1077,317,5,6,17,42,5,91,61,30,7,44,1,6,,,2,
561134,1,760,184,1,4,18,22,8,38,34,22,3,20,,10,,1,1,2
561151,4,213,62,,,16,9,4,15,7,5,1,4,,1,,,,
561151,3,98,36,,1,4,6,1,10,5,7,1,1,,,,,,
561151,2,113,32,,,,5,1,5,7,8,1,5,,,,,,
561151,1,497,117,,,8,18,9,19,17,23,4,17,,,1,1,,
561169,1,473,109,1,,18,12,7,28,6,17,7,11,1,,,,1,
561185,1,893,211,1,35,25,24,13,35,25,27,3,12,1,3,,,7,
561193,1,203,71,1,,2,8,13,22,4,7,,13,,,1,,,
561207,1,952,267,6,5,21,53,18,76,32,19,6,24,3,1,2,,1,
561215,4,1133,489,7,12,27,53,31,187,62,20,9,75,2,3,,,1,
561215,3,1147,398,1,9,21,51,34,138,63,19,10,43,4,,3,2,,
561215,2,1414,376,6,9,26,34,34,121,58,9,8,59,,3,1,3,3,2
561215,1,585,221,7,13,15,28,18,55,41,2,4,34,3,,,1,,
561215,6,912,340,7,21,22,42,26,100,48,12,7,48,1,,,,5,1
561215,5,778,288,3,4,18,38,25,88,43,17,6,41,4,,,,1,
561223,1,406,152,,,25,37,10,25,13,3,11,21,3,,,2,2,
561231,1,162,70,,,4,7,3,31,8,4,3,8,,,1,1,,
561258,1,333,89,1,25,5,11,2,16,11,7,1,6,2,1,,1,,
561291,1,194,76,,1,7,16,9,17,4,12,,7,,,,1,2,
561304,1,297,102,,3,13,21,8,17,9,11,2,15,1,,,,2,
566055,1,260,104,,1,3,14,11,19,13,4,1,32,,,,5,1,
566071,1,75,38,,3,,5,10,10,3,1,,6,,,,,,
566080,1,66,15,,,1,3,1,7,3,,,,,,,,,
566098,1,139,48,,5,1,5,2,8,15,4,,3,1,3,,,1,
566101,1,68,39,,1,1,4,3,10,5,7,3,5,,,,,,
566136,1,318,138,3,2,3,18,9,26,27,1,1,44,,2,,1,1,
566144,1,149,72,,1,4,9,3,19,12,2,4,18,,,,,,
566161,1,100,55,,,8,6,3,18,,1,1,16,,,,1,1,
566179,1,140,51,,4,,10,3,3,8,1,1,20,1,,,,,
566209,1,89,23,,,2,2,1,11,2,3,,1,,1,,,,
566250,1,97,29,,1,1,3,1,13,,3,,6,,,1,,,
566276,1,72,42,,6,,2,,4,11,,,15,2,2,,,,
566292,1,174,42,2,,2,12,1,14,4,5,1,,,,,,1,
566331,1,31,17,,1,2,5,1,4,1,1,,2,,,,,,
566365,1,204,85,2,2,6,8,12,22,16,3,,13,,,1,,,
566373,1,63,32,,1,2,3,6,8,5,1,,5,,,,1,,
566390,1,55,19,1,1,2,4,,4,5,1,,1,,,,,,
566420,1,186,61,1,6,5,6,5,10,7,3,2,16,,,,,,
566446,1,218,73,,6,10,7,8,15,4,4,3,15,,,,1,,
566462,1,95,38,2,1,5,6,1,10,3,2,,4,1,2,,,1,
566471,1,101,67,,2,2,13,7,17,6,3,,16,,,,,,1
566489,1,62,21,,3,1,2,2,8,1,1,,3,,,,,,
566497,1,47,22,,,,1,6,11,2,,1,1,,,,,,
566543,1,171,67,,3,3,5,2,14,17,1,5,14,,1,,2,,
566594,1,80,50,,3,7,1,1,9,7,13,2,3,4,,,,,
566632,1,75,30,1,2,1,4,1,5,,,7,7,,,2,,,
566641,1,156,57,,3,8,9,5,12,3,6,7,3,,,,,1,
566683,1,129,54,,4,9,12,9,6,5,3,,3,1,1,,1,,
566691,1,57,32,1,,2,5,2,3,3,9,,4,,1,1,,1,
566705,1,79,45,1,4,,1,1,21,10,3,,2,,,,1,1,
566730,1,47,24,,3,1,4,5,4,1,,,6,,,,,,
566748,1,52,34,,1,5,2,2,15,1,1,1,6,,,,,,
566756,1,573,302,1,2,13,35,11,79,90,7,3,48,2,1,1,4,5,
566764,1,54,11,,,,3,2,4,1,1,,,,,,,,
566781,1,51,30,,,,3,8,9,2,1,1,5,,,,,1,
566799,1,214,134,,1,7,18,10,36,14,7,4,33,1,,,1,2,
566802,1,145,63,1,1,3,9,1,14,9,,,25,,,,,,
566811,1,48,26,,,,1,5,13,1,2,,4,,,,,,
566837,1,151,64,,,5,6,12,14,6,5,,13,2,,,,1,
566845,1,171,76,1,4,7,11,4,18,9,10,6,5,,,,1,,
566861,1,97,58,1,,,6,1,19,11,1,,19,,,,,,
566888,1,54,29,,,,3,1,9,9,,1,6,,,,,,
566942,1,184,85,3,3,3,12,9,12,13,4,4,19,1,,,,2,
566969,1,370,146,1,11,17,13,11,35,18,6,5,26,,1,,,2,
566993,1,87,56,,2,3,5,3,9,14,5,1,14,,,,,,
567001,1,238,91,1,3,8,6,8,20,17,6,,19,,,2,1,,
567086,1,261,91,,2,5,8,2,18,13,6,4,24,,,,5,,4
578061,1,51,38,,,2,5,1,11,6,,,12,1,,,,,
578070,1,104,47,,2,4,3,4,11,9,,1,10,2,,,1,,
578088,1,103,36,1,1,,2,5,11,5,,,10,,,,,,1
578177,1,65,19,,,,3,,4,3,,,9,,,,,,
578223,1,58,18,,2,1,1,1,6,3,1,,3,,,,,,
578240,1,97,33,2,5,1,,,18,1,3,,3,,,,,,
578312,1,97,55,1,3,4,7,1,12,14,1,1,8,,,,,3,
578321,1,99,47,,,4,1,,21,5,3,,9,,1,1,1,1,
578410,1,42,19,,1,1,,,2,10,2,3,,,,,,,
578436,1,89,43,,1,,4,2,17,10,4,,3,,,,2,,
578461,1,51,29,,4,,7,4,,7,,1,5,,,,1,,
578495,1,131,59,,1,6,9,2,24,4,2,1,8,2,,,,,
578517,1,50,21,,1,2,3,3,5,5,1,,1,,,,,,
578525,1,80,49,,3,,9,10,11,1,,4,9,1,,,,,1
578533,1,186,81,1,3,9,4,8,28,1,8,1,17,1,,,,,
578541,1,193,81,,1,6,7,3,41,4,5,2,6,2,,,1,1,2
578568,1,102,47,,,,8,2,15,3,7,,11,,,,1,,
578592,1,73,29,,,,2,4,6,8,1,,8,,,,,,
578606,1,151,87,1,2,6,10,4,22,12,4,1,23,,,,1,1,
578614,1,83,37,,,5,6,1,12,5,4,,1,,,,2,1,
578665,1,115,52,,18,4,8,1,3,1,4,,11,,,,1,,1
578771,1,93,34,1,,1,6,6,5,4,3,,8,,,,,,
578797,1,100,58,,38,,3,3,5,2,1,,3,,,,3,,
578827,1,120,53,,3,6,6,3,16,4,5,4,2,2,,,2,,
578924,1,61,26,1,,1,2,5,10,3,1,2,1,,,,,,
578983,1,207,87,,8,1,7,2,14,12,17,3,20,2,1,,,,
579009,1,205,94,,3,4,7,3,23,15,3,6,25,1,1,,2,,1
579017,1,77,46,,,1,1,7,11,5,11,2,8,,,,,,
579033,1,175,91,1,2,4,7,4,22,18,3,3,25,1,,,,,1
579084,1,74,43,,,,8,3,14,8,4,1,4,1,,,,,
579131,1,323,151,3,7,9,23,13,34,31,12,2,17,,,,,,
579246,1,85,41,,,5,4,2,12,3,3,1,11,,,,,,
579289,1,46,31,,3,2,1,18,,2,2,,1,,,,,2,
579343,1,47,24,1,,8,,,2,2,3,5,3,,,,,,
579459,1,257,94,1,2,3,15,7,41,13,8,,2,,1,,,1,
579467,1,98,22,,,,4,1,3,5,3,4,2,,,,,,
579491,1,143,49,1,,7,3,4,12,7,2,,10,,1,,,2,
599131,1,106,65,,,2,2,5,2,38,5,3,7,1,,,,,
599166,1,111,49,3,1,7,6,3,4,7,1,2,13,,,,,1,1
599174,1,49,15,,,3,,7,3,1,,,,1,,,,,
599182,1,143,72,5,2,3,9,11,8,14,3,3,13,,1,,,,
