OBEC,OKRSEK,VOLICI,HLASY,HLASY_53,HLASY_7,HLASY_47,HLASY_600,HLASY_1438,HLASY_1222,HLASY_1200,HLASY_785,HLASY_1440,HLASY_659,HLASY_720,HLASY_1114,HLASY_768,HLASY_715,HLASY_1,HLASY_1052,HLASY_1220,HLASY_1119,HLASY_1178,HLASY_1206,HLASY_1125,HLASY_1177,HLASY_759,HLASY_1224,HLASY_762,HLASY_1179,HLASY_1390,HLASY_1219,HLASY_83,HLASY_40,HLASY_1209,HLASY_794,HLASY_1223,HLASY_1190,HLASY_764,HLASY_98,HLASY_1439,HLASY_1218,HLASY_123
505528,1,284,115,22,5,4,1,2,1,5,1,2,15,15,4,26,1,9,2,,,,,,,,,,,,,,,,,,,,,,,
530395,1,185,36,6,2,6,,1,1,,,,1,4,5,10,,,,,,,,,,,,,,,,,,,,,,,,,,
530417,1,118,60,5,,2,,,,,,2,19,8,8,9,1,4,,1,1,,,,,,,,,,,,,,,,,,,,,
530506,1,191,46,11,,,,,,,,,10,7,4,9,,1,,3,,1,,,,,,,,,,,,,,,,,,,,
530557,1,115,36,2,4,4,,,,1,1,,,4,1,14,1,1,1,2,,,,,,,,,,,,,,,,,,,,,,
530565,1,72,19,2,,,1,,,,,1,,3,4,6,,,,2,,,,,,,,,,,,,,,,,,,,,,
530581,1,252,46,11,1,3,,,,,1,,1,6,9,10,,,,,,,2,2,,,,,,,,,,,,,,,,,,
530590,1,437,93,7,2,5,,,,1,,,9,10,14,32,2,2,,,,1,1,,1,1,1,3,1,,,,,,,,,,,,,
530603,1,76,18,,1,2,,,,,,,,,5,6,1,,,,,,1,2,,,,,,,,,,,,,,,,,,
530620,1,337,118,25,5,8,,2,,1,3,2,9,11,12,27,1,1,,8,,1,1,,1,,,,,,,,,,,,,,,,,
542407,1,311,103,14,,17,2,1,,,,1,9,14,7,25,,3,,4,1,1,2,,,,,,,1,1,,,,,,,,,,,
542423,1,253,83,25,,6,1,,,2,,,11,15,1,17,1,2,,2,,,,,,,,,,,,,,,,,,,,,,
542440,1,76,27,2,,7,,1,,,,,1,9,,2,1,,,,,,2,,,,,,,1,,1,,,,,,,,,,
542482,1,150,37,6,,1,,,,1,,,6,7,4,5,,3,,,,,,,,2,,,,,,,1,1,,,,,,,,
542491,1,156,54,2,5,5,,,,4,,,6,10,4,13,,,2,2,,,,,1,,,,,,,,,,,,,,,,,
542521,1,125,46,4,,1,,1,,1,,,6,10,5,13,3,,,1,,,1,,,,,,,,,,,,,,,,,,,
542539,1,183,51,6,,1,,6,1,,2,,6,6,1,17,,,,2,,,2,,,,,,,,,,1,,,,,,,,,
542547,1,270,71,9,6,8,,,,1,1,1,6,13,2,18,,,,1,,,,1,,,,,,,4,,,,,,,,,,,
542555,1,107,42,3,1,3,1,1,,,1,,4,3,13,9,,1,,,,,,,1,,,,,,,1,,,,,,,,,,
542571,1,865,257,49,6,11,1,6,1,2,,,13,36,27,68,2,3,2,9,,1,12,1,,,,,,2,1,,,,1,1,2,,,,,
542580,1,333,122,17,5,7,,2,1,,2,,14,13,13,31,2,3,,4,,,4,,,,,1,,,2,,,1,,,,,,,,
542628,1,1071,289,25,18,50,5,2,,1,1,,23,27,29,75,1,13,1,3,,4,4,,,1,,,,,3,,,,2,,,1,,,,
542636,1,96,28,,3,5,,,,1,,,2,1,1,11,,,,,,2,1,,,,,,,,,,1,,,,,,,,,
543012,1,159,64,6,,13,,,,1,,1,7,9,2,19,,,,1,,,2,2,,,,,,,1,,,,,,,,,,,
543128,1,795,167,18,1,22,1,,,2,3,,10,15,23,48,1,1,3,3,,,9,1,,1,1,,1,,1,,,2,,,,,,,,
544647,1,260,53,8,3,1,,,,1,,1,4,11,7,8,1,,3,1,,1,3,,,,,,,,,,,,,,,,,,,
544680,1,301,102,11,3,12,,3,,1,,,11,6,10,33,1,,1,3,,,5,,,,,,,1,1,,,,,,,,,,,
544701,1,183,61,8,6,3,,,1,1,1,,4,9,2,21,,1,,2,,,1,,,,,,1,,,,,,,,,,,,,
545538,1,178,38,4,2,2,,3,,,1,,1,1,3,14,,,,,,,4,,1,,,,,,1,,,,,,,,1,,,
545678,1,557,114,11,2,12,1,3,,2,,,14,9,14,34,,3,,2,,1,1,2,,,,,1,,,,,1,,,,,1,,,
545708,1,223,57,1,1,13,1,1,,,,,6,6,11,11,4,,,1,,,,1,,,,,,,,,,,,,,,,,,
545783,1,349,79,9,2,1,,9,,,,1,1,7,8,25,,7,,2,,,3,,1,,,,,,,,,1,,,,1,1,,,
545791,1,172,63,6,,,,1,,,,,7,22,7,16,,1,,,,,1,,,,,,,,2,,,,,,,,,,,
545856,1,474,103,5,5,12,1,1,,1,1,,9,7,23,30,,1,,2,,1,1,,1,,2,,,,,,,,,,,,,,,
545899,1,322,87,7,4,5,,3,,,1,,7,7,5,41,,1,,1,,1,4,,,,,,,,,,,,,,,,,,,
545929,1,343,102,7,11,13,1,,,2,1,,3,5,11,39,1,,,3,,,2,,2,,,,,,,,1,,,,,,,,,
546011,2,345,91,7,2,14,1,1,,,,,5,8,21,23,1,,,2,,,5,,,,,1,,,,,,,,,,,,,,
546011,1,364,82,3,2,12,,1,,1,,,11,15,9,23,,1,,2,,1,1,,,,,,,,,,,,,,,,,,,
546062,1,123,34,4,3,5,,,,,,,5,2,4,6,,,,1,,,3,,,,,,,,,,,,,,,1,,,,
546071,1,334,71,5,2,9,,,,2,,,6,5,7,27,,,3,2,1,,,1,,,,,,,,,,,,,,,1,,,
546160,1,191,53,7,2,14,,,,,5,,,10,2,9,,,,,,,,,1,,,,,,2,,,,,,,,1,,,
546178,1,65,19,1,1,2,,1,,,,,1,,3,9,,,,,,,1,,,,,,,,,,,,,,,,,,,
546186,1,178,67,,3,11,5,2,,,1,,3,12,9,12,,,,,,,6,,,,,,,,,,2,,,,,,,1,,
546330,1,198,58,7,,4,,3,,,,,4,15,5,12,1,3,,1,,,3,,,,,,,,,,,,,,,,,,,
546348,1,215,79,6,1,11,1,2,,,,1,8,11,7,24,,3,,,,,3,1,,,,,,,,,,,,,,,,,,
546429,1,102,33,11,,1,,1,,,,,,,5,14,,,,,,,,,,,,,,,1,,,,,,,,,,,
546437,1,92,17,3,,3,,,,,,,1,1,2,5,,,,,,,2,,,,,,,,,,,,,,,,,,,
546453,1,191,56,3,4,12,,3,,1,,,7,3,4,15,,1,,1,,,1,,,,,,,,,,,,,,,,1,,,
546496,1,734,185,19,5,14,1,1,,2,3,2,24,28,30,40,,3,2,3,,3,3,,,,,,,1,,,1,,,,,,,,,
546518,1,100,26,6,,1,,,,,,,8,1,3,4,,,,2,,,,,,,,,,,,,,,,,,,,1,,
546691,1,143,39,12,,11,,,,,1,,1,2,2,8,,,,,,,2,,,,,,,,,,,,,,,,,,,
546721,1,174,41,14,,5,,,,,,,2,2,5,7,2,,,,,,,1,,,1,,,,,,,,,,,,2,,,
546755,1,67,27,6,,,,,,,,,2,7,3,9,,,,,,,,,,,,,,,,,,,,,,,,,,
546763,1,80,40,6,1,1,,,,,,,3,3,5,10,,3,2,,,1,3,,,,1,,,1,,,,,,,,,,,,
546771,1,139,49,11,3,3,,1,,,,,3,5,6,14,,2,,,,,1,,,,,,,,,,,,,,,,,,,
546780,1,253,60,7,1,11,1,3,,,,,7,6,6,12,,2,,,,1,3,,,,,,,,,,,,,,,,,,,
546810,1,122,43,11,,2,,,,,,,1,16,1,10,1,,,,,,1,,,,,,,,,,,,,,,,,,,
546828,1,32,8,7,,,,,,,,,,1,,,,,,,,,,,,,,,,,,,,,,,,,,,,
546852,1,176,67,8,,2,,1,,1,,1,7,19,7,12,,,,5,,2,1,,,1,,,,,,,,,,,,,,,,
546861,1,1097,316,38,8,60,1,9,,3,4,1,17,20,37,94,4,1,,7,2,1,2,,1,,1,1,,,1,,,,1,,,1,1,,,
546879,1,374,103,10,7,11,,,,2,1,,5,11,10,42,,1,,,,,,,,,1,,,2,,,,,,,,,,,,
546887,1,203,64,1,2,16,,,,,,2,6,10,5,19,1,,,,,,2,,,,,,,,,,,,,,,,,,,
546895,1,70,36,4,1,3,1,,,,,,2,4,1,16,,,,,,,2,,,2,,,,,,,,,,,,,,,,
546909,1,114,36,,,,,,,,,,3,3,6,23,,,,,,,1,,,,,,,,,,,,,,,,,,,
546925,1,407,101,8,3,9,,,,1,1,,9,14,11,36,,,,,,1,3,,1,,,,,,,,3,,,,,,1,,,
553646,1,210,50,5,2,4,,,1,,,,8,4,7,11,3,,,1,1,,1,,,,,,1,,,,,,,,1,,,,,
553697,2,1251,162,13,11,12,2,2,,,4,,21,14,24,35,1,,1,3,,1,5,,,,,,,1,,,10,,1,,,,1,,,
553697,1,1123,231,26,5,14,1,8,,4,1,,22,34,34,51,,5,,6,1,1,6,1,,1,,,2,1,1,,4,1,,1,,,,,,
555193,1,419,90,11,,8,1,,,,1,3,6,14,3,30,,,1,1,1,,4,2,1,,,,1,,,,,,,1,,,1,,,
555223,2,211,60,7,2,12,,,1,,3,,6,7,4,11,3,,,,,,3,,,,,,,,1,,,,,,,,,,,
555223,1,444,80,9,1,17,1,,1,,5,2,7,10,3,17,1,,1,3,,,1,,,1,,,,,,,,,,,,,,,,
562335,22,771,252,50,21,14,1,3,,2,1,,13,32,34,64,,2,2,7,,,4,1,,,,,,,1,,,,,,,,,,,
562335,21,516,191,32,3,7,2,5,,2,,1,32,29,22,33,3,10,4,3,,,1,,,,1,,,1,,,,,,,,,,,,
562335,20,246,13,,2,,,,,,,,1,2,4,3,,,,1,,,,,,,,,,,,,,,,,,,,,,
562335,19,526,190,28,9,9,,1,,1,1,2,27,23,20,40,1,10,3,6,,,5,,1,,1,,,,,,,,,,,,2,,,
562335,18,2160,213,28,6,12,,4,,4,2,2,20,32,29,43,,4,2,4,,3,10,2,,,,,1,1,2,1,,,,,,,,,1,
562335,17,837,177,16,6,9,,1,,2,,1,20,31,31,42,2,3,2,2,,,5,,,1,1,,,,,,,,,,,,,1,1,
562335,16,646,143,16,4,10,1,1,,,1,,20,16,15,42,2,,3,2,,,2,2,1,,2,1,1,1,,,,,,,,,,,,
562335,15,772,170,11,7,8,,,,,,1,16,26,22,52,1,5,5,4,1,1,3,,,1,,,1,2,1,1,,,,,,,,1,,
562335,14,1235,260,25,12,16,,3,2,1,1,2,16,25,35,97,2,2,1,4,,2,6,,1,,,,,,1,,1,1,2,,,2,,,,
562335,13,714,158,18,9,18,,5,1,1,,2,15,5,12,50,4,3,2,1,1,1,6,2,1,,,,,,,,,,1,,,,,,,
562335,12,706,150,23,4,9,1,4,,,1,,14,13,19,48,,2,3,5,1,,2,,1,,,,,,,,,,,,,,,,,
562335,11,562,115,11,2,14,1,,1,,,4,10,9,9,46,,2,,1,,1,4,,,,,,,,,,,,,,,,,,,
562335,10,1185,293,39,12,19,2,5,1,1,4,6,22,41,39,65,2,5,2,1,,5,12,2,,,4,,1,,1,,,1,,,,,1,,,
562335,9,1024,260,29,17,23,,3,,5,5,,13,29,29,73,3,3,6,11,,,3,,3,,,,1,,1,,,,,,1,1,1,,,
562335,8,924,234,33,7,21,,,1,2,3,,18,27,26,77,2,5,,4,,2,4,,1,,,,1,,,,,,,,,,,,,
562335,7,866,122,9,4,6,2,1,1,,,1,11,25,13,27,2,1,1,3,,2,2,,2,1,,,,,6,,,,,,,,2,,,
562335,29,621,147,17,2,15,1,3,,2,,,15,13,14,52,,3,,3,,1,2,,2,,1,,,,,1,,,,,,,,,,
562335,28,813,210,17,12,17,,5,,1,2,,6,22,32,76,,2,5,1,,,6,1,,,,,2,,,,,,1,,,,1,1,,
562335,27,847,191,18,9,30,1,4,1,,1,,4,10,20,67,1,3,4,3,,1,5,1,,,1,,,1,,,1,,4,,,,1,,,
562335,26,854,197,18,6,25,,4,,,1,3,19,13,18,69,1,4,2,6,,1,5,,1,1,,,,,,,,,,,,,,,,
562335,25,545,175,17,1,16,,2,,,,,16,33,15,47,4,5,1,8,,2,1,,,,,,1,1,4,,,,,,,,1,,,
562335,24,882,214,26,10,15,,4,,,,1,20,31,26,61,2,3,,8,,,1,,1,,,1,,,,,1,1,,,,,2,,,
562335,23,884,257,24,11,14,4,4,1,3,,1,24,26,26,86,1,6,4,8,,3,4,2,,,1,,,,1,1,,1,,,,,1,,,
562335,6,914,321,50,17,13,,2,2,6,2,2,29,45,45,59,4,14,9,9,,2,5,,2,,,,,1,,1,1,,,,,,1,,,
562335,5,583,116,20,3,10,1,,1,,,1,15,18,10,30,,,1,2,,,1,1,,,,,,,1,,1,,,,,,,,,
562335,4,862,223,26,1,14,,3,,1,1,1,34,23,18,57,5,10,4,2,,3,3,,1,,1,2,2,,6,,1,2,1,,,,1,,,
562335,3,602,184,10,4,11,1,1,,2,1,1,6,28,25,66,,2,1,9,,2,7,,,,1,,1,,2,,,,,,,,2,1,,
562335,2,889,268,22,9,16,,4,,2,5,1,19,37,33,79,3,10,3,7,,1,2,,2,,1,,2,,2,,1,1,,1,2,,3,,,
562335,1,757,199,28,3,18,,3,1,2,2,3,23,22,19,46,3,8,1,4,,2,3,,,,,3,,2,1,,,,1,,1,,,,,
562335,41,224,38,7,,2,,,,,,,,9,2,14,,2,,,,,,1,,,,,,1,,,,,,,,,,,,
562335,40,138,64,9,3,2,1,,1,1,,,7,8,6,20,,,,1,,1,3,,,,,,,1,,,,,,,,,,,,
562335,39,155,34,7,2,1,,3,,1,,,,3,3,13,,,,1,,,,,,,,,,,,,,,,,,,,,,
562335,38,489,151,13,9,15,4,2,,2,1,,10,13,21,41,1,1,2,3,1,,4,1,2,,,1,,,2,,,,,,1,,,,1,
562335,37,362,67,7,2,5,,1,,,,,8,13,11,16,1,3,,,,,,,,,,,,,,,,,,,,,,,,
562335,36,964,290,47,13,24,1,2,,3,,3,28,37,44,66,1,4,1,3,,4,4,,,,1,1,,1,,,,,,,,,1,,1,
562335,55,186,39,1,,2,1,,,2,,,3,5,9,12,1,,1,1,,,,,,,,,,,,,,,,,,,,,1,
562335,54,302,60,7,,4,1,,1,,,1,3,4,11,13,,4,,6,,1,1,2,,1,,,,,,,,,,,,,,,,
562335,53,911,119,8,2,5,,,,1,,2,4,16,17,36,1,1,3,,,1,3,,,,,,,,,,,,18,1,,,,,,
562335,52,1121,159,11,3,8,,2,,,1,,8,13,17,30,,2,2,2,,1,2,1,1,,,,,,1,,,,50,,,,1,,3,
562335,51,708,135,13,7,8,,1,,,1,,9,14,22,46,2,6,,,,,,2,,,,,1,,1,,1,1,,,,,,,,
562335,35,818,158,12,5,12,,1,,,,,6,22,23,57,2,4,4,5,,1,2,2,,,,,,,,,,,,,,,,,,
562335,34,625,164,16,5,5,1,1,,,,,9,27,22,64,1,2,4,3,1,,2,1,,,,,,,,,,,,,,,,,,
562335,33,914,197,21,9,10,,2,,3,1,2,14,33,19,58,4,6,,1,1,,9,,,,,,,2,2,,,,,,,,,,,
562335,32,963,221,18,7,25,1,3,,2,1,1,15,22,33,67,1,4,6,7,,,6,,1,,,,1,,,,,,,,,,,,,
562335,31,509,69,6,,3,1,,,2,,4,5,6,14,11,2,,2,3,,,5,1,,,,,1,,,,1,,2,,,,,,,
562335,30,1024,238,27,5,26,,2,,2,1,1,21,41,25,62,,,3,4,2,1,2,2,,,2,,,,2,,,,1,,,,,,,6
562335,50,879,143,8,7,15,,4,,1,,,3,10,24,52,1,2,4,3,,,2,,,,,,,,1,,,,3,,,2,1,,,
562335,49,603,140,11,6,12,,1,1,3,,1,10,15,19,44,,4,1,5,3,,2,1,,,,,,,,,,1,,,,,,,,
562335,48,262,69,8,5,3,,2,,,,,2,11,14,20,,2,,1,,,,,1,,,,,,,,,,,,,,,,,
562335,47,788,176,14,10,7,,6,1,1,1,1,11,26,11,60,,6,5,3,,3,5,3,,,,,,,,,,,,,,1,1,,,
562335,46,909,197,25,9,11,1,3,,4,,,16,24,17,57,2,7,6,3,,2,2,,,,,,,1,4,,,1,,1,,,1,,,
562335,45,385,119,15,2,6,,,1,,2,,8,10,11,32,3,11,3,6,,1,3,2,,,,,,1,2,,,,,,,,,,,
562335,44,451,111,15,2,5,,,,2,,,17,7,7,35,1,4,3,4,,,3,1,1,,,,,,,,,1,,1,,,,,2,
562335,43,88,32,7,4,,,,,,,,5,2,6,6,,,,,,,1,,1,,,,,,,,,,,,,,,,,
562335,42,465,209,43,6,11,,,,1,2,,16,19,22,62,,7,2,10,,1,5,,,,,,,,,,,,2,,,,,,,
562343,1,338,96,14,3,5,,1,,1,,2,5,15,5,27,,2,1,6,1,1,4,,,,1,,,,,,,,1,,,,1,,,
562351,1,928,199,13,7,29,,3,,1,,,15,19,18,70,2,6,4,,,1,7,1,,,,1,,,,2,,,,,,,,,,
562351,3,938,170,12,9,16,,2,,1,,4,7,19,31,39,1,4,,6,,,7,1,,2,1,,,1,,1,,1,,,,1,3,,1,
562351,2,1094,231,24,19,18,,1,,4,,,23,17,25,63,2,4,3,6,,1,2,,,1,,3,,,7,,,,4,1,,,,3,,
562394,5,401,90,15,1,11,,1,,,,,13,14,4,16,,6,1,,,1,3,,,,,,,2,,,,,1,,,1,,,,
562394,4,847,241,26,15,28,1,2,,2,1,1,18,19,31,72,2,5,1,3,1,2,8,,1,,,,,,,,1,,,,1,,,,,
562394,3,839,189,17,15,23,,5,,,1,,8,19,26,53,1,3,2,4,,1,7,,,,,,,1,,,1,,,,,,2,,,
562394,2,1073,294,33,19,27,1,3,1,2,1,3,20,20,30,91,5,12,,11,,1,5,2,1,,,,,,,2,,,2,1,,,1,,,
562394,1,970,193,27,3,22,1,2,,3,3,,15,28,16,53,2,2,1,2,,3,3,1,2,,,1,,,1,,,,1,,1,,,,,
562408,1,530,145,11,8,10,,5,,,,,8,13,21,46,2,3,1,3,,,5,2,5,,,,1,,,,1,,,,,,,,,
562432,1,947,230,25,8,26,,1,,4,1,,19,27,28,62,1,10,,4,,2,1,3,,,,,,2,2,1,1,2,,,,,,,,
562441,2,284,52,4,,5,,1,,,1,,8,6,6,15,,,1,,,,2,,3,,,,,,,,,,,,,,,,,
562441,1,991,163,25,6,18,3,1,1,,1,,20,18,14,33,,7,,2,,,7,1,1,,2,,,,1,1,,,,,,,1,,,
562483,2,277,82,3,4,9,,,,2,,2,2,2,20,26,,,3,1,,1,4,1,,,,,,,2,,,,,,,,,,,
562483,1,119,29,4,,5,,,,,,,1,6,,10,1,,,,,,,,,,,,,,1,,,1,,,,,,,,
562505,1,654,163,16,3,15,1,2,,3,,,17,23,14,51,1,2,5,3,,3,1,,,1,,,,,,,,,2,,,,,,,
562513,1,224,70,17,2,1,,1,,2,,,12,4,10,15,,3,,2,,,1,,,,,,,,,,,,,,,,,,,
562521,3,86,36,5,1,,,,,,,,8,2,2,15,,,1,,,,,1,,,,,,,1,,,,,,,,,,,
562521,2,156,27,5,,,,2,,,,1,2,2,2,4,,,,2,,1,3,,,,,,,,1,,2,,,,,,,,,
562521,1,388,74,10,,11,,,,,1,,1,13,8,20,2,,,2,,,3,2,,,,,,,,,,,1,,,,,,,
562530,1,1100,249,21,11,22,3,4,1,1,4,5,21,34,25,78,3,1,,2,,2,6,,,,,,1,,,,,1,,,,,2,,1,
562556,1,389,143,21,7,16,,,,,,,14,21,22,29,,3,,5,,,2,,,,,,,2,,,,,,,,,1,,,
562564,4,470,108,5,7,8,2,2,,,3,,9,14,15,33,,2,,1,,3,2,,,,,,,,,,,1,,,,1,,,,
562564,3,1333,258,11,10,31,1,5,2,,1,3,18,31,40,73,5,7,1,1,,1,8,1,,,,,1,,4,,1,,1,,,,,1,,
562564,2,1003,276,29,10,21,1,4,1,,1,1,29,37,28,90,4,8,,1,,1,8,,,,,,,,,,,2,,,,,,,,
562564,1,1367,280,31,11,22,,1,,3,1,,18,38,24,97,3,3,3,10,2,,6,,,1,1,,,,1,,,1,,,,,3,,,
562572,1,508,145,18,7,12,,,,1,1,1,18,25,10,26,2,17,1,2,,,1,,,,,,,3,,,,,,,,,,,,
562581,3,506,87,6,2,9,,1,,3,,,11,15,15,21,,1,,,,,,,,,1,,,,2,,,,,,,,,,,
562581,2,1191,213,19,8,17,,1,,1,1,,13,14,22,87,2,8,2,3,,3,7,1,,,,1,,1,,1,,,,,,,1,,,
562581,1,1176,197,9,10,20,,1,1,1,,2,11,17,34,66,3,5,1,7,,,3,3,,,,,,,,,,,3,,,,,,,
562611,1,885,160,7,8,15,1,4,,3,,,23,17,10,54,2,,,1,,1,4,2,3,2,,,,1,,1,1,,,,,,,,,
562611,5,161,64,3,,3,,,,2,1,,17,3,5,16,,5,,3,,,4,,,,,,,,,,,,,,,,2,,,
562611,4,323,65,9,5,6,2,,,,1,,6,11,5,7,1,2,1,,1,1,5,,1,,,,,1,,,,,,,,,,,,
562611,3,734,139,15,7,10,1,2,,,,3,20,17,16,32,1,2,1,5,,,1,1,1,2,,,,,,,,1,,,,,1,,,
562611,2,704,110,20,3,8,,,,2,1,1,14,6,12,31,2,1,,,,3,5,,1,,,,,,,,,,,,,,,,,
562645,1,423,115,12,4,1,,,,3,,2,22,22,10,23,1,7,,4,,,1,,2,,,,,,,,,,,,,,,,1,
562661,1,465,113,12,1,11,,4,3,1,1,,15,8,4,28,1,8,1,,,1,2,,2,,,,,1,,,1,1,,,1,,5,,1,
562700,1,361,100,7,,10,4,2,,1,,1,11,14,15,29,,1,,1,1,2,1,,,,,,,,,,,,,,,,,,,
562718,1,715,183,8,7,8,2,3,1,,1,3,24,10,29,64,1,3,,10,1,,4,,,,,2,,,,,,,,,1,,1,,,
562751,3,315,56,5,1,12,,,,1,,,6,6,9,13,,1,,,,,,,,,,,,,,,,,,,,,2,,,
562751,2,971,175,26,9,24,,4,,2,1,1,21,20,7,49,4,2,,,2,,2,,,,,,,,,,,,,,,1,,,,
562751,1,436,75,9,3,11,1,,,,,1,6,20,1,14,1,1,2,3,,1,1,,,,,,,,,,,,,,,,,,,
562777,7,964,180,18,7,22,,2,,1,,,15,24,16,54,2,7,,2,,2,3,1,,,,,,,,,,,,,,,2,2,,
562777,6,973,244,34,6,19,,6,,4,,2,16,33,29,78,1,3,,6,2,,1,,,,,,,1,1,,,,1,,,,,1,,
562777,5,948,218,15,5,34,,2,,,,,12,21,28,69,2,3,1,2,2,4,10,,,,,,2,1,,,,,2,,,2,1,,,
562777,4,878,196,20,9,16,,2,,,,2,19,23,27,53,4,2,2,5,,1,5,,1,1,,,,,2,,,,,,,,1,1,,
562777,3,1243,251,32,12,22,1,1,,1,,,36,13,45,55,2,8,,3,,2,12,1,1,,,,,,,,,3,1,,,,,,,
562777,2,1004,203,19,12,12,,3,,1,1,1,13,33,30,59,,2,,5,,,6,1,2,,,,,,2,,,,,,,,1,,,
562777,1,769,171,16,5,10,,1,,1,,1,16,29,22,51,1,4,4,2,,,4,1,2,,,,,,,,,,,,,,1,,,
562777,9,869,220,24,3,12,,2,,5,,1,18,19,32,69,2,12,,3,,,7,,2,,,1,,,1,,2,,,,,,3,,2,
562777,8,1083,260,38,10,14,1,2,,1,2,,32,31,24,80,,2,,4,2,,6,1,3,,1,,2,,,,,1,3,,,,,,,
562793,1,544,129,16,2,9,,,,1,,5,21,5,12,48,,3,,1,,2,3,,,,,,,,,,,,,,,,1,,,
562823,2,207,40,1,3,5,,,,,,,6,2,9,8,,1,,1,,,2,,1,,,,,,1,,,,,,,,,,,
562823,1,823,158,11,3,5,1,3,,4,,,16,22,18,53,2,5,,2,2,2,7,,,,,,1,,,,,,,,1,,,,,
562858,4,425,93,14,2,4,,3,,,1,,3,25,9,24,,,,1,,,6,,,,,,,,,,,,,,,,,1,,
562858,3,1332,291,22,13,22,,11,,4,1,4,18,27,32,107,4,6,,4,,2,9,1,,,,,,1,1,,1,,,,,,,,1,
562858,2,1023,128,8,12,12,,4,,3,5,,7,1,11,50,,4,1,1,,,4,1,1,,,,,,1,,,,1,,,1,,,,
562858,1,1508,298,16,16,17,,5,1,7,4,2,26,26,37,120,1,5,2,4,,1,5,,1,1,,,,,,,,,,,,,1,,,
562874,1,316,61,2,2,19,,,,,1,,1,2,6,24,,,,,,1,,1,,,,,,,,2,,,,,,,,,,
562882,1,981,203,22,9,19,,1,,5,1,,25,16,28,59,1,3,,3,1,2,4,,,,,,,2,,,,,1,,,,1,,,
562882,13,265,67,19,,2,,,,1,,,8,7,7,20,,,,1,,,2,,,,,,,,,,,,,,,,,,,
562882,12,946,118,7,8,13,1,1,,1,,,9,18,18,26,,2,,2,,1,5,2,,1,,,,,,,,1,,,,,1,,1,
562882,11,1085,228,26,7,25,,2,,,2,2,29,24,32,55,3,5,5,1,,1,1,1,2,,,,,,2,,,1,,,,1,1,,,
562882,10,1061,259,28,15,24,2,,,1,1,,24,20,31,96,,4,1,2,1,,4,,2,,2,,,,,,,,,,,,1,,,
562882,3,1159,282,41,7,13,,2,1,4,2,1,12,40,48,76,6,4,2,9,,,6,,1,2,,,,2,1,,1,,,,,1,,,,
562882,2,913,200,22,13,26,,3,,3,3,,16,16,17,62,2,,,5,,,7,,,,,1,,1,,,,1,,,1,,,1,,
562882,9,987,109,15,2,6,,1,1,,1,,4,11,25,28,,6,1,4,,,1,1,1,,,,,,1,,,,,,,,,,,
562882,5,1001,230,30,15,34,3,2,,3,1,,24,22,19,57,3,4,2,2,1,3,2,,,,,,,1,,,1,,,,,,1,,,
562882,4,1161,300,47,11,26,,4,,5,2,,21,31,37,82,3,5,1,7,1,4,11,1,,,,,,,,,,1,,,,,,,,
562882,7,1084,260,34,5,26,,4,,3,2,,26,38,44,64,,4,2,3,,3,,,,,,,,1,,,,,1,,,,,,,
562882,6,527,128,16,4,10,,,1,3,,1,7,10,19,35,2,2,,,3,1,4,,,,,,,1,5,,,,,,,2,,,2,
562882,8,1013,192,27,6,25,,1,,1,,1,8,19,33,47,1,7,,6,,1,3,,1,,,,,,4,,,1,,,,,,,,
562891,1,402,90,15,1,12,,,,,2,,5,10,11,23,,,,5,,1,4,1,,,,,,,,,,,,,,,,,,
562912,1,1587,276,30,15,19,1,5,,4,,1,23,22,33,83,2,17,1,4,1,,8,1,,,1,,,1,,,,1,1,1,,,,1,,
562921,1,904,167,16,4,10,,1,1,,,,17,24,17,58,1,4,4,,,,5,,,,,,1,1,,,,1,,2,,,,,,
562939,1,293,85,9,4,1,,6,,,,,5,6,12,25,1,6,,4,1,,3,,,,,,1,,,,1,,,,,,,,,
562947,1,748,180,27,4,9,1,2,,3,,,20,16,16,59,,5,4,4,,1,6,,,,,,,,,,,,,,,,,2,1,
562971,9,770,166,18,9,10,,,1,,3,2,25,16,23,43,1,3,2,1,,4,2,,,,,,,1,1,,,,,,,,1,,,
562971,8,873,241,29,6,10,1,3,1,3,1,1,26,31,28,75,2,5,4,2,,2,4,1,1,1,,,1,1,,,,,1,1,,,,,,
562971,7,895,196,28,6,17,,,,2,,2,18,23,18,54,1,5,1,6,,1,4,1,1,,,,1,2,2,,,1,,,,,2,,,
562971,6,870,179,39,3,15,,,,1,2,,10,21,16,44,4,5,4,3,,4,2,,1,,,1,,,2,,,,2,,,,,,,
562971,5,764,99,15,2,6,,2,,1,2,,9,17,13,20,1,,1,2,1,1,6,,,,,,,,,,,,,,,,,,,
562971,4,693,106,10,3,8,1,1,,,1,,10,15,16,27,1,5,,4,,,4,,,,,,,,,,,,,,,,,,,
562971,38,795,131,7,4,10,2,,1,,2,,5,5,19,56,,5,2,3,,,4,,,,2,,1,1,,,1,,,,1,,,,,
562971,37,989,153,7,12,15,,5,,,2,,1,14,26,53,3,3,,2,,,4,1,2,,,,,,,,,,1,1,,,1,,,
562971,36,973,145,5,4,19,,2,1,3,2,,4,11,24,50,2,6,,5,,1,5,,,,,,,,,,1,,,,,,,,,
562971,35,954,111,4,9,16,1,,1,,,2,9,8,16,35,1,2,,,1,,3,1,1,,,,,,,,,,,,,,1,,,
562971,34,1009,145,3,3,17,1,,4,1,1,,2,16,28,58,,2,,4,,,1,1,,,,,,,,,,1,1,,,,1,,,
562971,33,1218,159,24,7,18,1,2,,,2,1,13,22,12,42,,2,,4,,1,4,,,,,,,,3,,,,,,,,1,,,
562971,32,1110,156,5,12,18,,,,,2,1,5,12,25,56,1,5,,4,,1,5,,,1,,1,,,,,,1,1,,,,,,,
562971,3,1006,235,20,12,24,,1,,1,4,,30,25,28,69,3,2,1,4,,1,5,,,,1,,1,,1,,,,,,1,,1,,,
562971,2,700,138,14,8,11,1,4,1,1,3,,10,17,27,25,,2,,,1,,8,2,1,,,,,,,,,1,1,,,,,,,
562971,1,786,219,29,3,13,,2,,,2,,27,43,28,48,1,5,1,3,,2,6,,4,,,,,1,,,1,,,,,,,,,
562971,15,1200,329,43,9,34,,4,1,5,8,3,34,34,38,93,2,5,3,2,,2,3,1,,,1,,,,1,,,,,1,,,2,,,
562971,14,1028,196,17,3,18,1,1,,2,5,,18,13,26,70,,8,,1,,2,6,1,,,,1,1,1,1,,,,,,,,,,,
562971,13,1188,230,27,3,20,,,2,1,5,2,26,24,28,55,1,10,1,2,1,5,6,,2,,,,3,1,2,,1,1,,,,,1,,,
562971,12,2480,215,38,10,24,1,,,1,2,2,14,28,26,51,5,3,4,4,1,,1,,,,,,,,,,,,,,,,,,,
562971,11,761,215,34,7,18,,3,1,5,3,,28,26,16,47,1,9,,8,,2,4,1,,,,,,,,,,,,,,1,1,,,
562971,10,956,214,26,3,14,1,3,,2,1,1,21,20,33,71,,5,,3,,,7,,,,,,,2,,,,1,,,,,,,,
562971,30,946,114,4,3,17,1,,,1,2,,4,6,18,43,3,3,,2,,,2,,1,,,,,1,,,,2,,,,,1,,,
562971,29,854,139,5,2,20,,1,3,2,,,4,12,24,58,1,1,,2,,,2,1,,,,,,,,,,,,,,,,,1,
562971,28,841,131,11,6,9,,3,,1,1,4,13,10,20,41,2,,1,1,,,8,,,,,,,,,,,,,,,,,,,
562971,27,741,133,9,5,13,,1,,1,4,1,6,9,20,53,,,,4,1,,2,,,,,,,,,,,,,,,,2,2,,
562971,26,790,98,11,6,14,,2,,1,,,5,11,8,27,1,2,,2,,1,5,,,,,,1,,,,,1,,,,,,,,
562971,25,775,153,8,6,8,,2,1,1,3,,10,7,29,59,1,3,,4,,2,7,,,,,,,,2,,,,,,,,,,,
562971,24,976,277,37,10,24,1,1,1,3,1,4,23,32,30,89,2,8,1,4,,1,1,,,,,,,,,,,2,,1,,,1,,,
562971,23,934,233,29,10,22,3,1,,6,2,,16,21,22,78,2,6,1,2,,1,5,,,,,,,1,2,,,3,,,,,,,,
562971,22,845,222,23,10,20,2,4,,4,5,1,18,24,22,62,3,2,1,6,,4,4,2,2,,,1,,,2,,,,,,,,,,,
562971,21,916,238,25,11,22,,4,,3,2,3,13,28,34,63,1,4,3,3,,2,6,1,2,,3,,,,4,,,,,,,,,,1,
562971,20,877,193,22,9,22,,,,3,2,1,6,12,21,65,2,6,3,4,1,,10,1,,2,,,,1,,,,,,,,,,,,
562971,19,786,206,46,7,13,,,,5,3,,16,22,24,42,3,5,,9,,3,5,,,1,,,,1,1,,,,,,,,,,,
562971,18,763,211,28,9,16,,,,2,2,3,16,37,19,51,3,4,,8,1,,5,,,,,,,,7,,,,,,,,,,,
562971,17,845,232,21,9,29,,2,,4,3,2,21,34,33,53,2,5,1,5,,2,,1,2,,,,,1,,,1,,,1,,,,,,
562971,16,973,256,40,5,21,,,,7,3,2,29,18,22,77,1,6,3,13,,,6,1,1,,,,,,1,,,,,,,,,,,
562971,40,896,116,1,6,16,,,,4,1,3,4,8,21,42,,1,1,,,1,3,,,,,1,,1,,,,,2,,,,,,,
562971,39,790,94,6,1,10,1,,1,2,1,1,7,2,21,25,2,1,,4,,,5,3,,,,,,,,,,,,,,,1,,,
562971,31,1112,216,23,,15,1,4,,1,1,2,19,18,35,73,1,4,1,8,1,,5,,2,,,,,,,,,1,,,,,1,,,
562980,1,196,49,1,,2,1,,1,,5,,2,5,12,12,,4,1,2,,,1,,,,,,,,,,,,,,,,,,,
562998,1,439,140,19,6,11,,1,,1,,,16,19,22,32,2,4,,6,,,,1,,,,,,,,,,,,,,,,,,
563005,1,236,60,8,2,6,,,,,5,,13,5,9,9,1,,,,,,1,,,,,,,,,1,,,,,,,,,,
563013,1,1078,210,13,5,26,2,4,,,2,1,15,28,31,59,5,2,2,2,,1,4,2,2,,1,,,,,,1,,,,1,1,,,,
563021,1,480,92,10,5,7,,,,1,,,4,8,15,36,,,2,,,1,,1,,,,,,1,,,,,,,,1,,,,
563048,1,144,35,1,,5,,,1,1,,2,3,9,5,7,,,,,,,,,,,,,,1,,,,,,,,,,,,
563056,1,653,164,16,3,13,,1,,3,3,,12,32,11,43,1,4,,,,4,8,1,,,,2,,1,5,,,,,,,,1,,,
563064,1,251,56,4,,10,,1,1,,5,,1,6,8,14,1,,1,,,,3,,,,,,,,,,,,,,,,,1,,
563072,1,405,71,2,1,11,2,2,,1,1,,4,8,9,22,,2,1,,,1,1,,,,,1,,,,,,,,,,1,1,,,
563081,1,515,100,11,3,16,1,4,,,2,,,2,14,38,,,,,,2,4,1,,,,,,,1,,,1,,,,,,,,
563099,3,974,303,38,8,24,,1,,4,,3,27,37,17,114,1,6,1,8,,1,7,,2,,,,1,,,,1,1,,,,,1,,,
563099,2,1232,184,15,14,16,2,4,,1,2,,7,15,28,59,4,2,2,6,,,3,,,,,,,,1,,,,2,,,,1,,,
563099,1,1885,206,26,12,14,,2,,4,3,2,17,35,40,32,1,3,2,4,,,7,1,,,,,,,1,,,,,,,,,,,
563099,13,979,167,20,4,23,1,6,1,1,5,,7,19,15,40,2,5,2,2,,1,6,,1,,,,,,,,,,1,,,,4,1,,
563099,6,1032,188,29,6,26,,2,,4,3,,13,6,30,58,,3,,,,,6,,,,,,,1,,,,,,,,,1,,,
563099,5,1070,170,16,12,20,1,3,,,,,2,15,25,64,2,,,3,,1,6,,,,,,,,,,,,,,,,,,,
563099,4,1084,234,22,9,22,1,1,3,,9,,10,30,31,75,1,3,2,5,,1,6,,1,,,,,,,,1,,,,,,1,,,
563099,12,1576,170,15,10,16,2,4,,,2,,4,21,34,36,3,8,1,4,,,3,2,,,3,,,,2,,,,,,,,,,,
563099,7,1332,217,33,8,24,1,4,,3,1,1,14,21,30,58,2,1,1,3,,,9,,,,,,,,1,,1,,,,,1,,,,
563099,11,1251,136,11,7,13,,7,1,1,3,1,11,14,17,36,1,3,1,,,2,3,,,,1,,,,,,1,1,,,,,1,,,
563099,10,982,104,19,6,10,,2,,1,2,2,3,3,16,29,1,2,,3,,,2,1,,,1,,,,,,,,1,,,,,,,
563099,9,430,135,29,6,11,,,,1,,,23,22,8,29,1,1,,,,,,1,,,1,,,2,,,,,,,,,,,,
563099,8,1460,155,21,7,13,2,3,,,1,,12,11,24,45,1,4,1,2,,,1,,3,,,,,,,,,,2,,,,1,1,,
563102,12,1477,349,57,14,24,3,4,1,6,1,,25,38,28,107,2,7,3,9,,,13,,2,1,1,,,,,,1,,,,,,1,,1,
563102,11,1513,252,44,10,12,,4,2,3,2,3,38,27,15,66,4,3,4,3,,1,3,,2,,,1,,4,1,,,,,,,,,,,
563102,10,1102,248,43,10,10,1,2,,2,,2,28,27,27,61,2,3,,6,3,2,8,1,1,1,,1,,,,,,,1,,,2,3,,1,
563102,9,1030,219,38,8,17,,1,,2,1,7,15,29,11,61,1,9,1,2,1,,8,,1,,,2,,2,2,,,,,,,,,,,
563102,8,999,181,25,9,11,,10,,,1,,4,18,16,63,2,6,,2,,,7,,3,1,,,,2,,,,,,,,,1,,,
563102,7,1153,243,34,16,17,,4,,3,,2,21,21,29,74,1,6,1,6,,,4,,,,,,,,2,1,,,,,,,1,,,
563102,6,1100,228,33,5,12,,3,1,1,,,20,34,26,78,,3,2,2,,2,4,,,,,,,,,,,1,,,,,,,1,
563102,5,1018,171,17,11,13,,3,,2,,,12,21,20,56,2,1,,3,,,9,,,,,,,,,,1,,,,,,,,,
563102,4,877,154,14,11,18,2,4,,1,,1,6,18,13,52,1,,,5,1,,3,,3,,,,,1,,,,,,,,,,,,
563102,3,1139,141,6,4,6,1,5,,2,,1,6,9,24,57,,3,2,1,,,10,,,,2,,,,,,,,,,,2,,,,
563102,2,1232,147,16,4,10,4,1,,,,2,5,17,25,45,1,4,1,,,,8,,1,,,,,,2,,,,1,,,,,,,
563102,1,1136,134,17,2,7,,3,,,1,,20,11,25,34,,1,,3,,2,2,,,,,1,,5,,,,,,,,,,,,
563111,1,211,52,12,7,5,,,,,1,1,4,4,6,8,,1,,2,,,1,,,,,,,,,,,,,,,,,,,
563129,8,1030,182,17,4,13,,,,,1,,13,21,24,67,2,5,1,2,,,2,,1,,,2,,6,,,,,,,,,,,,1
563129,7,972,142,10,6,15,1,2,1,2,,,14,16,14,44,2,1,,5,,,6,,1,,,,,1,,,,,1,,,,,,,
563129,6,1178,275,28,8,27,1,4,,,1,1,8,34,32,85,3,2,,6,,,7,1,1,,2,1,,22,,,,1,,,,,,,,
563129,5,1145,232,29,3,19,2,4,,1,1,1,12,22,37,78,2,,1,6,,,3,,,,,,1,7,1,,,,,,,,,2,,
563129,4,1033,165,16,5,16,,,,4,,,4,25,15,60,2,,,,,3,4,,1,,,,,9,,,,,,1,,,,,,
563129,3,948,161,16,6,18,1,1,1,,,,8,18,27,44,1,2,,2,1,1,4,,1,,,1,,3,2,,,,,1,,,1,,,1
563129,2,1020,157,8,9,6,,,,3,,1,9,15,30,54,1,,,3,,,11,,,1,,,,5,1,,,,,,,,,,,
563129,1,1604,312,36,4,22,2,3,1,1,,,30,49,37,85,,8,1,2,,3,2,,3,,1,3,2,15,1,,,1,,,,,,,,
563129,11,862,126,12,2,9,,2,,1,3,,10,15,16,44,3,,1,2,,1,1,,,,,,,4,,,,,,,,,,,,
563129,10,1042,177,12,13,8,,6,,1,,2,3,12,32,65,2,3,,3,1,1,4,,1,,,1,,3,,,,,,,,,2,,,2
563129,9,1063,178,16,6,8,,2,,,,,14,29,21,55,1,3,,1,2,,8,3,,1,,1,,2,1,,,1,1,,,,2,,,
563137,1,864,175,19,11,21,,2,1,,1,,9,12,34,40,4,,1,5,,4,10,,,,,,,,,,,,,,,1,,,,
563161,1,318,54,5,2,2,,,,,,,5,9,11,10,2,,,5,1,,1,,,,,,,1,,,,,,,,,,,,
563188,1,215,60,6,9,11,2,2,,1,1,,2,5,4,8,3,,2,,,2,1,,,,,,,,1,,,,,,,,,,,
563200,1,707,155,21,2,17,,3,,,5,,17,7,28,27,,1,2,10,,1,7,,1,,,1,3,,,,2,,,,,,,,,
563218,1,471,110,8,10,19,,3,1,1,1,,3,2,9,33,2,4,,,,,7,1,,1,,,,1,,,2,,,1,,1,,,,
563226,1,126,47,5,2,3,,,,,,,2,9,10,11,,,,,,,4,,,,1,,,,,,,,,,,,,,,
563242,1,352,100,7,6,12,,,,,2,1,5,14,4,39,2,2,1,1,,,2,2,,,,,,,,,,,,,,,,,,
563269,1,304,69,7,1,7,1,,,,1,1,6,5,6,18,,2,3,,1,,5,,,,,,,2,2,,,,1,,,,,,,
563277,1,548,107,8,5,7,1,1,,1,,,11,17,14,32,,5,1,2,,,1,,,,,1,,,,,,,,,,,,,,
563285,1,932,266,40,5,22,,,,2,2,2,32,34,26,72,,1,1,6,,2,8,1,1,1,,,2,1,1,,,,,,,1,1,,,2
563293,1,170,30,1,1,4,,1,,,,,2,3,7,11,,,,,,,,,,,,,,,,,,,,,,,,,,
563315,1,110,32,2,,2,,,,,,,9,3,1,12,,,,,,,1,1,,,1,,,,,,,,,,,,,,,
563323,1,934,171,5,4,40,,3,,1,1,,9,13,12,69,1,,1,5,,1,4,,,,,,,1,1,,,,,,,,,,,
563331,1,232,47,2,4,7,,,,1,,,1,5,8,13,,,,1,,,3,1,,,,,,,1,,,,,,,,,,,
563340,1,1169,256,23,7,25,1,5,,2,2,1,22,40,24,68,,7,,11,,2,9,1,,,,,,1,4,,1,,,,,,,,,
563358,1,757,189,18,5,16,,1,,3,7,1,16,7,22,73,,3,,2,2,,11,,,,,,,,,,,,2,,,,,,,
563382,1,991,225,39,8,26,1,3,,1,1,1,26,15,31,48,2,4,,8,1,2,7,,,,,,1,,,,,,,,,,,,,
563404,3,715,126,7,3,20,,6,,,1,,4,3,14,55,2,,,3,,1,4,,,,,1,,,1,,,,,,,,1,,,
563404,2,720,115,15,4,13,,2,,,,,3,3,18,48,,1,,3,1,,4,,,,,,,,,,,,,,,,,,,
563404,1,941,86,13,1,3,,4,,1,1,1,7,11,11,24,1,,1,2,,,1,,1,,,,,,1,,,,1,,1,,,,,
563412,1,250,32,7,2,4,1,,,,,,3,1,2,11,,,,,,,1,,,,,,,,,,,,,,,,,,,
563439,1,477,79,6,3,15,,3,,,1,2,3,2,10,30,,,,,,,4,,,,,,,,,,,,,,,,,,,
563463,1,250,53,4,,4,,,1,,1,2,5,6,6,19,1,1,,3,,,,,,,,,,,,,,,,,,,,,,
563471,1,317,156,11,6,7,2,2,1,,7,,2,23,19,27,5,1,,2,,1,3,,2,2,,1,,,,,,2,23,,,,6,,1,
563480,1,157,55,2,,,,2,,2,,,1,4,4,26,,2,,,,2,2,,,,,,,,,5,,,,,,,,3,,
563498,1,223,51,7,1,4,,,,,1,,4,8,8,10,,,5,1,,,2,,,,,,,,,,,,,,,,,,,
563501,1,890,254,36,8,17,1,2,1,1,3,1,28,33,19,78,2,4,2,10,,2,5,,,,,,,,1,,,,,,,,,,,
564567,27,796,178,21,9,20,,2,,2,,3,10,33,12,42,,9,,11,,1,1,,,,,,,1,1,,,,,,,,,,,
564567,26,608,188,17,2,15,,5,,1,1,2,18,36,14,57,3,4,,5,,,1,,1,1,,3,,,,,,,,,,,1,,1,
564567,25,684,141,16,1,28,,1,,4,1,1,7,21,14,30,,,1,6,,,3,,3,1,,,1,,,,,,,,,,,,2,
564567,24,735,267,65,9,9,,2,,3,,,30,47,16,56,3,10,3,10,,1,2,,,,,,,,,,,1,,,,,,,,
564567,23,672,223,31,4,38,,,,5,1,1,12,29,15,66,3,8,1,2,1,,2,,,,2,,,,2,,,,,,,,,,,
564567,22,736,251,34,3,33,,6,,,2,2,9,44,12,74,3,16,1,2,1,2,3,,,,,,,1,2,,,,,,,,,1,,
564567,21,983,284,63,10,15,,,,1,1,4,25,45,30,64,2,9,,6,,3,5,,1,,,,,,,,,,,,,,,,,
564567,20,696,137,17,2,18,,1,1,,2,,9,17,14,37,2,3,,4,,4,3,,,,,,,1,,,,1,,,,,1,,,
564567,19,557,240,54,12,17,,4,,2,,,26,33,11,51,1,9,1,7,1,,7,,,,,,2,,1,,,,,1,,,,,,
564567,18,565,136,24,3,3,,1,,,1,1,5,17,17,45,,6,,1,,,6,,,,,,2,,3,,,,,,,,,,1,
564567,6,621,150,18,6,22,,3,1,1,,,14,12,14,37,,8,,5,,,4,2,1,,,,,,,,,,,,,,1,1,,
564567,5,619,202,44,2,12,,2,,1,1,2,33,36,11,41,2,5,,5,,,,,3,,,,,,1,,1,,,,,,,,,
564567,4,611,191,46,5,10,,,,1,1,1,26,32,4,41,1,15,,6,,,1,,,,,,,1,,,,,,,,,,,,
564567,3,669,275,48,7,8,2,3,1,6,2,3,25,45,20,47,5,22,3,6,,1,3,1,,2,,,,,,,,,5,,,,9,1,,
564567,17,640,256,47,2,23,1,,,1,,3,37,54,19,52,4,2,,5,,1,2,,,,,1,,1,,,1,,,,,,,,,
564567,16,581,194,26,8,16,,2,,2,1,1,18,33,18,49,3,7,,4,,1,2,,,,,,,,,,1,,,,1,,1,,,
564567,15,525,161,18,3,21,,,,3,1,1,15,21,9,54,1,4,,1,,,3,,,1,3,,,,,,1,1,,,,,,,,
564567,14,621,207,35,1,20,,1,,1,1,1,20,36,15,47,1,13,1,9,,,,,2,,,,,1,,2,,,,,,,,,,
564567,2,827,290,63,4,20,,2,,6,2,1,36,51,24,48,2,12,1,6,,,1,,4,2,1,1,1,,1,,1,,,,,,,,,
564567,1,1630,269,53,9,19,,5,,1,2,1,39,45,17,46,2,12,2,5,,1,3,,,,,1,,,3,,,1,,,,,,,2,
564567,13,548,198,31,3,27,,1,,1,2,,17,23,12,54,1,11,2,8,,,2,1,,,,,,,1,,,,,,,1,,,,
564567,12,592,177,23,4,12,,1,,1,1,1,27,30,13,39,3,9,,5,,1,2,,1,,1,,,1,,1,1,,,,,,,,,
564567,11,590,168,30,7,27,,2,1,2,1,1,10,15,18,38,2,4,2,3,,,3,,,,,1,,,,,,,,,,,,,1,
564567,10,458,165,28,5,21,,3,,2,,,16,10,14,45,3,4,,6,,1,2,,1,,,,,,2,,,,,,,,2,,,
564567,9,472,114,19,3,21,,,,2,1,1,8,14,4,28,,6,3,,,,,,1,,1,,1,,,,,,,,,,1,,,
564567,8,645,168,21,10,21,,3,,5,2,2,11,28,14,37,2,2,2,2,,1,,,2,,,,2,1,,,,,,,,,,,,
564567,7,374,104,15,1,7,,,,2,1,2,11,31,7,13,1,5,,1,,2,1,2,,,,,,,1,,,1,,,,,,,,
564567,30,76,11,,1,2,,,,,,,1,1,1,5,,,,,,,,,,,,,,,,,,,,,,,,,,
564567,29,208,93,12,11,15,,2,,1,1,,4,9,1,27,,,1,2,,,2,,3,,,,,,,1,,1,,,,,,,,
564567,28,712,172,24,3,19,3,1,,,1,1,13,42,5,49,1,2,,,,,4,,1,,,,,1,,,,,,,,,2,,,
564575,2,377,86,20,2,2,,,,1,2,,8,14,8,20,,1,,,,1,3,,,,,,,3,1,,,,,,,,,,,
564575,1,608,133,7,6,20,1,1,3,2,,,4,21,7,43,3,1,1,3,,,6,2,1,,,,,,1,,,,,,,,,,,
564591,2,713,164,27,6,21,,1,,,2,,8,12,15,50,3,2,1,3,,1,3,,,,,4,,2,1,,,,,,,,1,,1,
564591,1,1018,235,25,9,32,,1,,,4,2,29,30,26,57,2,5,1,5,,2,3,,,,,,,,,,,2,,,,,,,,
564591,3,249,84,10,5,9,,1,,,1,,6,11,3,25,,6,,,,,1,,,,,1,,,,1,1,,,,,3,,,,
564613,1,349,73,9,1,11,,,,1,,2,3,10,3,19,3,5,,5,,,,,1,,,,,,,,,,,,,,,,,
564621,1,1011,252,53,14,14,,3,,4,3,4,32,33,20,46,4,8,,1,2,1,5,,1,1,,,,,1,,1,,,1,,,,,,
564648,1,343,60,11,4,10,,,,2,,,7,8,4,12,,,,,,,,2,,,,,,,,,,,,,,,,,,
564656,7,73,18,,1,3,,,,,,,2,1,1,5,,3,,,1,,1,,,,,,,,,,,,,,,,,,,
564656,6,70,26,5,1,2,1,,,,,,,6,,9,,,,1,,,,,,,,,,,,,,,1,,,,,,,
564656,5,106,54,14,,8,1,5,,,,,,9,3,10,,,1,,,,2,,,,,,,,,,,,,,,1,,,,
564656,4,137,22,1,2,2,,,,,1,,3,3,1,5,,1,,1,,,,1,,,,,,,,,,1,,,,,,,,
564656,3,84,23,5,1,4,,,,,,,,1,1,10,,,,1,,,,,,,,,,,,,,,,,,,,,,
564656,2,131,53,10,,6,,1,,1,,,3,6,5,11,,8,,,1,,,1,,,,,,,,,,,,,,,,,,
564656,1,1119,281,46,3,47,1,4,,1,1,2,27,33,23,61,1,9,4,4,1,,9,,,1,,,1,,,,1,,1,,,,,,,
564672,1,270,67,7,1,3,3,1,,1,,,2,15,8,22,1,,,,,,1,,,,,1,,,1,,,,,,,,,,,
564699,1,124,29,2,2,3,,,,1,,,2,3,3,8,,2,1,,,1,,,,,,,,,1,,,,,,,,,,,
564711,1,1112,187,9,12,15,1,2,,2,4,3,14,23,21,61,1,6,,1,,3,2,,,,,,,2,2,,,1,,,,1,1,,,
564729,1,309,53,2,,6,1,,,,,1,3,1,3,32,,,,2,,,1,,1,,,,,,,,,,,,,,,,,
564737,1,104,34,2,,4,,,,,,,1,2,5,13,1,1,,,,,4,,,1,,,,,,,,,,,,,,,,
564745,1,451,112,25,8,4,,,1,,1,,8,16,6,28,1,4,1,3,,2,1,,2,,,,,,,1,,,,,,,,,,
564753,1,343,64,15,1,4,,,,,,,5,6,6,3,,14,,2,,,1,2,,,,,1,,1,1,1,,1,,,,,,,
564770,1,217,46,5,3,8,1,,,,,,3,5,7,10,,1,2,,,,,,,,,,,,,,,,,,,,1,,,
564818,1,303,93,15,2,6,1,6,,,1,1,8,11,7,16,,3,3,,,1,9,,1,1,,,,,1,,,,,,,,,,,
564834,1,243,54,8,1,9,1,,,,1,1,2,7,1,16,3,1,,,,,,,,2,,,,,,,,1,,,,,,,,
564842,1,226,86,18,,4,,,1,1,,,11,19,6,19,1,2,,,,1,3,,,,,,,,,,,,,,,,,,,
564851,1,760,166,11,7,19,1,2,,,4,,17,31,17,34,6,1,1,5,1,,5,,1,,,,1,,,,,,1,,,,1,,,
564877,1,1325,335,42,11,38,4,4,8,4,1,,17,35,42,68,,22,2,6,2,6,8,2,1,2,,1,,2,,1,,1,3,,,,2,,,
564893,2,172,40,1,,,,,,,,,2,10,3,19,,,,1,,,1,,,,,,,2,,,,,,,1,,,,,
564893,1,343,90,28,,3,,1,,2,1,2,7,11,6,19,,4,,1,,1,2,,,,,,,1,,,1,,,,,,,,,
564923,2,251,80,19,4,9,,2,1,1,1,,8,8,11,12,,1,,,,1,1,,1,,,,,,,,,,,,,,,,,
564923,1,278,51,7,5,7,,1,,,,,4,11,3,8,,,1,1,,2,1,,,,,,,,,,,,,,,,,,,
564931,1,136,48,,3,4,1,,,,,,3,2,5,16,2,4,1,2,,,2,,,,,,,,,,,,,1,,,2,,,
564940,1,380,82,15,3,10,,,,,,,3,12,4,21,,5,,,,1,2,,,,,,,,3,,2,,,,,,1,,,
564958,1,230,67,6,1,3,1,2,2,3,,,10,10,2,18,1,1,1,,,1,3,,,,1,,,,1,,,,,,,,,,,
564966,1,176,57,10,4,3,,1,1,,,3,8,4,6,11,,1,,2,,1,,,,,,,,,1,,,,,,,,,1,,
565016,1,308,60,6,3,5,2,,,,,1,2,7,10,19,1,,1,2,,,1,,,,,,,,,,,,,,,,,,,
565024,1,404,99,11,2,10,1,,,1,2,,7,9,8,43,,1,,2,,,2,,,,,,,,,,,,,,,,,,,
565032,1,430,110,18,1,21,2,,1,,,4,6,11,10,29,2,1,,1,,,2,,1,,,,,,,,,,,,,,,,,
565059,1,352,53,9,1,3,1,,,1,2,1,2,10,4,13,,1,1,1,,,,,2,,,,,,,,,,,,,,1,,,
565067,2,407,73,16,4,2,,,,1,1,1,10,9,7,15,,,,2,1,1,1,,,,,,,,,,,1,,1,,,,,,
565067,1,305,74,11,1,2,1,,,2,,1,13,9,11,14,,6,,1,,,2,,,,,,,,,,,,,,,,,,,
565075,1,273,89,15,3,17,,2,,,,,4,7,4,21,,10,,1,,,,,,,,,,,,,,3,,,,1,1,,,
565083,2,89,15,1,1,2,,,,,,,1,1,2,4,,,,1,,,2,,,,,,,,,,,,,,,,,,,
565083,1,539,114,17,9,10,,1,,,,1,5,18,7,35,1,5,,3,,,1,,,,,,,1,,,,,,,,,,,,
565083,4,251,47,3,7,12,,,,,1,,1,5,4,9,1,2,,,,,,,,,,,,,,,2,,,,,,,,,
565083,3,277,75,10,1,7,,1,,,,,4,20,13,11,,4,,,,,2,,,,,,,,,,,1,1,,,,,,,
565091,1,233,66,9,4,6,1,,,,,2,3,9,6,16,,1,,5,,,3,,1,,,,,,,,,,,,,,,,,
565105,1,121,57,11,2,9,,,,,,,4,3,2,23,,1,1,,,,,,,,,,,,,,1,,,,,,,,,
565113,1,250,53,8,2,3,,,,,,2,1,9,5,14,2,1,,2,,1,,,,,,,,1,1,,1,,,,,,,,,
565121,2,242,63,8,2,7,,1,,1,,,5,8,10,12,,5,,1,,,,,,,,,,,,,2,,,,,,1,,,
565121,1,1023,177,21,5,10,,2,2,,1,2,14,21,13,72,1,3,,3,,,5,,,,,1,,,,,1,,,,,,,,,
565148,1,439,95,13,1,8,,,1,1,,1,8,16,12,13,1,10,,2,,1,4,,,,2,,,1,,,,,,,,,,,,
565156,1,456,130,19,4,9,1,5,,4,,,13,20,8,34,1,2,1,1,,1,1,,3,,,1,,,,,,1,,,1,,,,,
565164,5,144,31,2,1,,,,,,,2,1,2,2,17,2,,,,,,1,,,,,,,,1,,,,,,,,,,,
565164,4,327,63,9,3,4,,,,,,,9,10,6,19,,,1,1,,,1,,,,,,,,,,,,,,,,,,,
565164,3,728,225,38,11,18,1,,1,2,2,2,23,20,10,61,,10,,4,,4,6,3,,,,,,3,,,2,2,,,1,1,,,,
565164,2,940,169,10,9,16,,2,,,3,,8,24,15,64,1,5,1,2,2,1,4,,,,1,,,,,,,,,,,,1,,,
565164,1,711,156,18,5,17,2,2,,4,4,1,16,10,7,46,,6,1,9,,2,2,,1,,,,,1,,,,1,,,,,1,,,
565172,1,341,98,10,1,7,,4,,1,1,,15,10,5,36,,1,,,,5,2,,,,,,,,,,,,,,,,,,,
565211,1,452,117,17,5,27,,2,,2,,,8,13,7,20,1,6,3,1,,2,2,,,1,,,,,,,,,,,,,,,,
565229,4,813,260,33,9,16,1,3,1,4,1,3,22,22,8,105,,13,,6,,2,5,,1,,,,,2,,,,,,,,1,1,,1,
565229,3,747,222,24,10,22,1,1,,2,,,12,29,13,96,,3,,2,,1,4,,,,,,,,,,1,1,,,,,,,,
565229,2,647,167,15,10,16,3,3,,1,1,,14,12,12,68,,1,1,3,,,3,,1,,,,,,2,,,,,,,,1,,,
565229,1,754,208,42,7,21,1,,,1,,2,21,19,12,58,1,3,1,6,,,11,,,,,,,,1,,,,,,,,1,,,
565229,10,316,72,16,1,4,,,1,,1,,1,4,7,30,,2,,,,,2,,,,,,,,1,,,1,,,,,1,,,
565229,9,891,148,14,5,17,,3,,2,,,11,15,13,51,,,1,,,,6,1,1,,,1,,,1,1,,,,,,,2,2,1,
565229,8,467,92,7,5,13,,,,1,1,,8,7,5,28,2,4,,3,1,2,3,,,1,,,,,,,,1,,,,,,,,
565229,7,556,109,19,2,7,,,,,,1,3,18,8,41,,2,3,3,,,1,,,,,,,,1,,,,,,,,,,,
565229,6,1214,207,23,10,27,1,1,,,,,18,12,14,76,,5,,2,1,4,8,,1,,,,,1,,,,,,,,,,3,,
565229,5,583,150,11,5,13,,2,,,1,2,18,16,5,55,1,2,4,5,,,4,1,,,,,,,2,,,2,,,,,,1,,
565237,1,281,59,5,,8,,,,,,1,3,1,6,26,,2,,3,,,2,,,,,,,,,,1,,,,,,1,,,
565245,1,586,172,21,8,18,,,,1,,,14,26,13,60,1,1,1,2,,,2,,2,,,,,,,,,,,,,1,,,1,
565253,3,192,37,7,2,2,,,,,,,3,7,1,13,,2,,,,,,,,,,,,,,,,,,,,,,,,
565253,2,187,72,6,1,9,,1,,,1,,15,12,4,14,,3,,2,,1,2,,,1,,,,,,,,,,,,,,,,
565253,1,249,73,22,1,4,,1,,,,1,3,6,5,20,1,,,1,,,5,,,1,,,,,1,,,,,,1,,,,,
565296,1,173,35,4,,2,,,,1,,,4,2,5,14,,,,2,,1,,,,,,,,,,,,,,,,,,,,
565300,1,440,153,47,4,14,,1,,2,1,1,10,24,6,20,,9,1,3,,4,3,,1,,1,,,,,,,1,,,,,,,,
565318,2,179,40,5,,8,1,3,,,,1,2,5,,8,,3,,1,,,3,,,,,,,,,,,,,,,,,,,
565318,1,937,257,47,10,37,1,3,1,1,2,,22,47,21,49,2,2,,2,2,,4,1,,1,,,,2,,,,,,,,,,,,
565318,5,158,79,5,,19,,1,,,1,,2,13,3,32,,2,,,,,,,,,,,,,,,,1,,,,,,,,
565318,4,95,30,5,1,8,,,,,,,2,3,,9,,,,,,,1,,,,,,,,,,,,1,,,,,,,
565318,3,89,27,3,,6,,1,,,,,4,2,1,9,,1,,,,,,,,,,,,,,,,,,,,,,,,
565342,2,115,36,3,4,4,,1,,,,,1,4,4,9,,,,1,3,,1,,,,,,,,1,,,,,,,,,,,
565342,1,211,59,10,4,3,,,,,,,2,11,3,22,,,,,,,1,,,1,,,,1,,,,,1,,,,,,,
565393,1,355,88,14,5,9,,,3,2,,1,11,4,7,20,,1,3,1,,,2,,2,,,,,2,,,1,,,,,,,,,
565415,2,150,45,11,2,3,,,,1,,,,7,,16,,,,1,1,1,,,,,,,,1,,,,,1,,,,,,,
565415,1,387,102,5,3,9,1,,1,,,,7,11,13,37,,2,,6,,,5,,,,,,,,1,,,,,,,,1,,,
565431,1,1069,227,24,6,34,,1,,1,1,,17,23,29,56,,7,,5,,6,4,,2,2,,,,5,2,,,,,,,,,2,,
565458,2,186,40,6,1,6,,,,,,,2,3,7,11,,,,,,1,1,1,,,,,,,1,,,,,,,,,,,
565458,1,334,94,7,7,15,,,,1,2,,3,9,9,29,,,,5,,,2,,,,,,,5,,,,,,,,,,,,
565474,1,216,49,8,1,2,,,,1,1,,4,5,6,16,,1,,,,1,3,,,,,,,,,,,,,,,,,,,
565482,1,284,85,16,1,11,,1,,,2,,7,7,6,25,1,,,4,,,,,,,,,,,1,,,,1,1,,1,,,,
565491,1,457,106,12,8,12,,1,,,1,,12,9,13,21,,4,,3,,,7,,,,,,,2,,,,,,,,1,,,,
565521,1,379,81,10,2,11,,1,,,,,3,8,2,36,4,,1,1,,1,1,,,,,,,,,,,,,,,,,,,
565547,1,88,28,6,,4,,,,1,,,3,1,3,7,,,,,,1,,1,,,,,,,1,,,,,,,,,,,
565555,7,605,184,33,10,10,,4,,2,3,3,17,25,17,43,1,4,,3,,1,1,,,,,1,1,2,2,,,,,,,,1,,,
565555,6,806,312,75,8,18,1,1,,4,3,,51,37,27,39,3,27,2,9,,3,1,,,1,,,,,2,,,,,,,,,,,
565555,9,737,232,49,9,16,,,,1,,2,22,40,22,47,1,10,,6,,,4,,1,,,,,,1,,,,1,,,,,,,
565555,8,780,149,18,3,10,,1,,,,,11,23,25,39,2,5,,1,,2,2,,1,,,,,,3,,,1,,,,2,,,,
565555,2,789,261,41,4,19,,2,,1,,1,39,32,19,51,1,16,4,6,,6,4,1,1,1,,1,1,,5,,,,,,,,2,,3,
565555,1,617,151,33,2,10,,2,1,2,,3,16,30,9,21,2,6,,7,,2,5,,,,,,,,,,,,,,,,,,,
565555,5,1081,202,42,1,9,,1,1,2,1,4,23,41,24,23,,11,1,4,,1,5,2,,,,,,,5,,,,,,,,1,,,
565555,4,619,188,45,6,22,,,,5,1,,12,21,13,41,2,8,,10,1,1,,,,,,,,,,,,,,,,,,,,
565555,3,587,146,33,2,16,1,1,,1,1,1,14,18,10,32,,1,,7,,3,1,,,,,,,,,,1,,,,,,3,,,
565555,13,866,243,66,9,11,1,3,,,1,,24,34,25,39,,7,2,8,,2,4,2,,,,,2,,2,,,,,1,,,,,,
565555,12,801,184,16,14,17,1,2,,3,1,1,15,33,13,42,,7,2,5,,,5,,,1,,1,,,2,,,,,,,,3,,,
565555,11,796,193,18,7,24,,2,,3,1,1,19,30,14,48,2,8,,5,1,1,3,1,2,,,,,,,1,,,1,1,,,,,,
565555,10,843,254,48,9,23,2,,,2,3,2,30,22,12,73,2,6,2,5,,2,4,2,1,,,1,1,,,1,,,,,,,1,,,
565598,1,227,55,6,4,7,,2,,1,,,5,8,1,14,,2,,1,,,1,1,1,,,,,,1,,,,,,,,,,,
565601,1,216,48,10,1,4,1,,,,,,7,4,5,12,,3,,,,,,,,,,,,,,,,,,,,,,,1,
565610,2,255,60,7,1,2,,1,,,2,,2,10,5,23,,,,7,,,,,,,,,,,,,,,,,,,,,,
565610,1,392,68,10,3,7,,,,,2,,3,9,5,22,2,1,,1,,,1,,,1,,,,1,,,,,,,,,,,,
565679,1,823,186,27,5,28,,,,1,2,,29,14,10,48,,5,1,8,,3,2,,1,1,,,,1,,,,,,,,,,,,
565695,1,573,144,17,2,18,,7,1,1,1,1,7,10,6,56,2,3,,2,,3,3,,,,1,,,,1,,1,,,,,,,1,,
565709,4,1047,236,32,6,38,1,,1,2,,1,13,22,35,65,2,4,,3,,2,8,,,,,,,,,,1,,,,,,,,,
565709,3,786,172,28,7,16,3,1,,,,2,5,21,18,56,,1,,5,,1,2,,1,,,2,,,,1,,,,1,,,1,,,
565709,2,1252,192,24,7,17,1,2,,2,3,,4,17,27,71,,3,,2,1,1,5,,1,,,,3,,,,1,,,,,,,,,
565709,1,942,184,27,10,16,,4,2,2,2,2,12,15,18,53,3,2,,3,1,3,1,2,,,,,,1,1,,1,,,2,,,,,1,
565709,12,172,31,6,2,2,,,,,,1,1,3,5,8,,1,,,,2,,,,,,,,,,,,,,,,,,,,
565709,11,242,47,6,2,7,,,,1,,1,2,4,,21,,,,1,,,1,,,,,,,,1,,,,,,,,,,,
565709,10,242,62,12,3,11,,,,1,,,,18,4,10,,,,,,3,,,,,,,,,,,,,,,,,,,,
565709,9,98,23,1,4,1,,,,,,,2,3,3,8,1,,,,,,,,,,,,,,,,,,,,,,,,,
565709,8,140,37,3,5,8,,3,,,,2,2,5,3,2,,,,2,,,1,,,,,,,,,,,,1,,,,,,,
565709,7,89,32,5,5,3,,,,1,1,,,4,2,7,1,,,1,,,2,,,,,,,,,,,,,,,,,,,
565709,6,794,177,34,14,13,2,1,,2,1,,13,24,12,39,6,2,,2,,3,6,1,,,,,,1,,,,1,,,,,,,,
565709,5,1023,221,31,18,29,,1,,2,1,3,13,19,29,62,2,1,1,1,1,,3,,,1,,,,,,,,,1,,,1,1,,,
565717,5,110,35,4,,2,,1,,,,,5,11,2,5,1,1,,2,,,,,,,,,,,,,,,,,,,,,,1
565717,4,452,104,13,3,10,,2,,3,,,8,17,7,25,3,9,,,,,1,,,,1,,,,,,,,1,,,,,1,,
565717,3,258,65,4,6,9,1,1,,2,,,1,9,7,19,,,,1,,,4,,,,,,,,1,,,,,,,,,,,
565717,2,814,157,15,5,22,,2,,4,3,,16,39,11,25,2,6,,2,,,1,,,,,,,,2,,,,,,1,,,,,1
565717,1,742,183,28,7,17,2,4,1,2,,,15,38,24,27,2,6,,1,,,4,,,,,,1,2,,,,1,,,,,1,,,
565741,1,502,127,39,4,5,,2,,,1,,12,19,9,30,1,1,1,,,,3,,,,,,,,,,,,,,,,,,,
565768,3,169,53,9,4,3,,,,,3,,8,8,2,13,1,,,,,,,,,,,,,2,,,,,,,,,,,,
565768,2,679,200,35,6,25,,1,,1,,4,17,27,16,43,2,8,,2,,3,2,,1,,,,1,1,5,,,,,,,,,,,
565768,1,612,169,22,2,19,,,,1,1,4,7,13,16,63,,4,2,3,,5,2,,1,,2,,,,,,,,,,,,1,,1,
565776,2,96,47,3,2,4,1,,,,,,1,2,1,26,,,,3,,2,,,,,,,,,,,,,,,,,2,,,
565776,1,585,151,17,4,13,3,3,,1,,,6,18,9,63,2,2,,1,1,3,1,,,,,,,1,2,,,,,,,,,,,1
565792,1,454,108,13,1,9,,,,,,2,7,27,8,29,,1,1,2,,2,5,,,,,,,,,,,1,,,,,,,,
565806,1,210,50,11,2,4,,1,,1,,1,1,8,6,13,,,,,,,,,,,2,,,,,,,,,,,,,,,
565814,2,693,184,28,7,34,,1,1,3,,1,21,25,13,29,4,8,2,3,,,2,,,,,,,,,,,1,,1,,,,,,
565814,1,821,149,24,2,9,,1,,1,3,2,18,25,10,38,1,1,,4,,1,2,,,,,1,,,1,,2,,,,1,1,1,,,
565814,7,142,26,3,,4,,,,,,,3,2,3,10,,,,,,,,,,,,,,,1,,,,,,,,,,,
565814,6,117,11,1,,1,,,,,,,,,3,2,,,,2,,1,,1,,,,,,,,,,,,,,,,,,
565814,5,136,38,,,6,,1,,,,,2,6,7,9,,,,3,,,,,,,,,,1,,,,,,,,,2,,1,
565814,4,186,40,5,1,5,,,,,1,,4,5,5,10,,1,,,,,3,,,,,,,,,,,,,,,,,,,
565814,3,151,43,2,,7,1,,,,,,5,11,6,7,1,,,,,,2,,,,,,,1,,,,,,,,,,,,
565831,1,712,258,51,4,9,,1,,4,,,49,31,14,58,4,9,,5,,12,3,,,,,,,3,,,,1,,,,,,,,
565849,7,100,39,9,1,2,,,,,1,,3,4,1,14,,2,,,,1,,,,,,,,,,,1,,,,,,,,,
565849,6,86,14,2,,6,,,,,,,,1,,3,,,,,,,2,,,,,,,,,,,,,,,,,,,
565849,5,78,26,3,,7,,1,,,,,4,2,1,5,,,,,,,,,,,,,,2,,,,,,,,,,1,,
565849,4,85,30,6,1,,,,,,,6,4,4,2,5,2,,,,,,,,,,,,,,,,,,,,,,,,,
565849,3,163,38,4,2,1,,,,,,,3,6,4,11,3,1,,,,,,,1,,,,,,,1,,,,,,,1,,,
565849,2,256,79,10,8,17,,1,,,2,,5,4,2,25,,2,,,,,2,,,,,,,,,,,,,,,,,,1,
565849,1,517,111,19,2,19,,1,,,,,13,12,7,28,,2,,2,,,3,1,1,,,,,,,,,1,,,,,,,,
565857,1,395,115,28,1,4,,2,,,,,9,13,8,37,1,4,,2,,,4,,,,,,,,,,,1,,,,,,1,,
565865,1,259,73,10,1,4,,1,,1,,,7,9,7,19,,6,1,1,,,4,,1,,,,,1,,,,,,,,,,,,
565873,1,146,46,7,2,7,,,,,,,8,3,2,15,1,,,,,,1,,,,,,,,,,,,,,,,,,,
565881,1,319,72,6,3,15,,,,,,,6,11,6,18,,,,,,,2,1,,,,,,1,3,,,,,,,,,,,
565890,1,410,114,24,14,16,1,,1,1,1,,1,9,9,30,,2,1,3,1,,,,,,,,,,,,,,,,,,,,,
565903,1,256,37,1,3,1,,2,1,,,1,2,1,5,17,,,,,,,3,,,,,,,,,,,,,,,,,,,
565911,1,249,57,10,1,13,,,,,2,2,4,4,5,6,,2,1,,,,4,1,,1,,,,,,,1,,,,,,,,,
565938,1,205,82,11,8,2,,,,1,,,12,12,8,18,,,,2,,,6,,,,,,,,1,1,,,,,,,,,,
565946,1,401,109,14,,25,,1,,1,1,2,7,10,10,28,2,,3,,,,3,,,,,,,,1,,1,,,,,,,,,
565954,1,296,100,26,2,3,,,1,,4,,7,16,6,30,1,1,,1,1,,1,,,,,,,,,,,,,,,,,,,
565962,3,236,50,13,2,8,,,1,,,,5,6,6,2,2,,,2,,,,,2,,1,,,,,,,,,,,,,,,
565962,2,339,83,9,,8,,,,,1,,7,14,4,24,,,,5,,,8,1,,1,,,,,1,,,,,,,,,,,
565962,1,660,188,16,3,27,,,,,1,,20,48,25,28,1,9,2,,,1,2,1,,,,,,3,,,,,,,,,1,,,
565971,21,75,26,6,,3,,,,1,,,,3,1,11,,,,,,,,,,,,1,,,,,,,,,,,,,,
565971,20,97,22,4,1,1,1,3,,,,,1,2,5,4,,,,,,,,,,,,,,,,,,,,,,,,,,
565971,19,939,203,34,7,21,1,2,,,2,5,24,16,25,47,3,6,3,2,,1,2,,1,,,,,,,,,,,,,,1,,,
565971,18,760,163,10,9,22,,5,,4,6,,12,18,21,47,1,3,,,,,2,1,,,,,1,,1,,,,,,,,,,,
565971,17,557,125,23,6,3,,4,,1,1,,17,3,14,40,,2,2,,,,6,1,,,,,1,1,,,,,,,,,,,,
565971,1,593,152,17,11,14,,1,,1,,1,15,15,17,43,3,3,1,2,,2,2,,,,1,,,,2,,,,,,,,1,,,
565971,4,697,169,17,8,19,,,1,2,2,2,15,19,17,54,,4,2,3,,,1,,1,,,,,2,,,,,,,,,,,,
565971,3,758,235,53,6,16,,,,,3,,20,20,17,80,1,5,,5,,,8,,,,,,,,,,,,,,1,,,,,
565971,2,672,163,26,3,13,1,1,,2,2,,18,18,19,47,1,4,1,4,,1,,2,,,,,,,,,,,,,,,,,,
565971,16,783,296,64,5,8,,1,,5,2,,38,37,13,94,2,4,5,11,,1,2,,,,,,,,,,1,,,,,,,3,,
565971,15,910,248,28,9,37,1,2,,5,,1,26,22,24,66,5,4,1,4,,,5,1,,,1,,2,,1,,,1,,,,,2,,,
565971,14,846,253,58,16,26,,2,,3,1,,22,35,26,41,2,2,,9,,1,8,,1,,,,,,,,,,,,,,,,,
565971,13,725,247,39,8,29,,1,,3,4,4,20,25,28,60,,3,,7,,,8,,2,1,,1,,,,,,,,,,2,2,,,
565971,12,753,221,35,14,16,,1,,1,,3,18,28,26,58,,10,,4,,,4,1,1,,,,,,,,,,1,,,,,,,
565971,11,641,179,27,8,14,1,1,,3,1,1,20,25,15,49,,3,1,3,,2,4,,1,,,,,,,,,,,,,,,,,
565971,10,903,211,27,15,19,,3,,2,5,,17,26,21,54,1,7,,2,,4,4,,,1,1,,1,1,,,,,,,,,,,,
565971,9,1146,166,44,6,11,,2,,,1,,27,12,16,23,1,9,3,1,,2,4,2,1,,,,,,,,,1,,,,,,,,
565971,8,630,128,19,9,17,1,,,,3,,7,11,16,28,3,3,1,1,1,1,,,3,,,,3,,,,,1,,,,,,,,
565971,7,713,132,13,5,19,,,,2,,2,8,13,13,49,,1,,1,,,1,,,,1,,,,2,,,,,,1,1,,,,
565971,6,617,142,17,3,18,,1,,1,,4,12,15,15,46,2,3,,3,,,,,,,,,1,,,,,1,,,,,,,,
565971,5,771,187,13,13,20,,,,5,,,12,26,25,56,3,4,,,,,5,2,,,,,,,1,,,,,,,1,,1,,
565997,1,339,73,3,3,7,,,,1,,,4,5,4,26,1,1,,2,,2,7,2,,,,,,,,,,5,,,,,,,,
566004,1,423,96,8,2,15,1,4,,,,,9,12,3,21,,8,1,1,1,1,1,,3,,,,,2,,1,,1,,,,,,1,,
566012,1,203,58,10,2,4,,,,,1,2,6,10,8,9,,1,,1,,,3,,,,,,,,,,,,,,,,1,,,
566021,5,120,28,1,1,3,,1,,,,,,3,,15,1,,1,,,,,,,,,,,1,,,,,,,,,1,,,
566021,4,68,31,,2,5,,,,,,,,2,4,15,2,,,,,1,,,,,,,,,,,,,,,,,,,,
566021,3,95,25,6,,6,,1,,,,,1,1,3,6,,,,,,,1,,,,,,,,,,,,,,,,,,,
566021,2,135,44,,1,4,1,,,,,,2,1,7,27,,,,,,,1,,,,,,,,,,,,,,,,,,,
566021,1,389,76,9,2,7,,,,1,1,,7,5,6,33,,,1,1,,,3,,,,,,,,,,,,,,,,,,,
566063,1,260,48,,7,5,1,3,,,,,1,3,5,11,5,,,1,,,5,,,,,,,,1,,,,,,,,,,,
566128,1,151,35,1,1,1,,2,,,1,,3,7,2,14,,,,,,,2,,,,,,,,,,,1,,,,,,,,
566152,2,142,34,3,5,3,,,,,7,,3,3,,3,,4,,,,1,1,,,,,,1,,,,,,,,,,,,,
566152,1,374,74,12,3,6,,,,1,1,,6,6,6,28,1,,,1,1,,2,,,,,,,,,,,,,,,,,,,
566187,2,108,22,1,1,3,,,,,,,2,,4,6,,1,,2,,,1,,,,,,,1,,,,,,,,,,,,
566187,1,384,107,10,7,9,5,1,,,,,3,9,15,31,2,,2,1,1,1,6,,,,,1,,2,,,,1,,,,,,,,
566195,2,56,18,,,4,,4,,1,,,1,,,5,,,,1,,,1,,,,1,,,,,,,,,,,,,,,
566195,1,292,87,4,2,8,,2,,,2,1,9,20,8,17,1,,2,,,,3,,1,,1,,,4,,,,,,,,1,,,1,
566217,3,49,31,3,,1,,1,,,,,4,4,1,13,,,,,,,4,,,,,,,,,,,,,,,,,,,
566217,2,157,46,4,1,8,,,,,1,1,6,8,1,8,,1,,2,,,5,,,,,,,,,,,,,,,,,,,
566217,1,320,67,8,,8,,1,,1,3,,13,3,1,19,,2,,2,,1,,1,2,,,,,,1,,,,,,,1,,,,
566233,1,455,121,19,3,9,,6,,1,4,,11,18,15,24,2,1,1,1,,1,3,,,,,,,,1,,1,,,,,,,,,
566241,1,441,89,3,7,14,2,1,,1,1,1,6,9,10,24,1,1,,2,,,2,,1,,,,,,,,,1,,,,1,1,,,
566284,2,44,15,1,,,,1,,,,,1,3,4,3,,,1,,1,,,,,,,,,,,,,,,,,,,,,
566284,1,470,125,9,3,30,1,1,1,1,,1,9,12,10,25,3,5,,6,,,5,,,,,,,,,,,,2,,,,1,,,
566306,1,538,118,27,3,8,,1,,,,,4,21,8,22,3,3,,,,2,10,1,,,1,,,,3,,,,1,,,,,,,
566314,1,771,161,14,1,26,,,,5,,,8,23,19,55,,2,1,1,1,,5,,,,,,,,,,,,,,,,,,,
566314,5,94,19,,1,3,,,,,,,,9,,4,,,,,,,,,,,,,,,,,,,,,,,2,,,
566314,4,117,45,11,1,1,2,,,,,,4,5,6,11,,,,,1,1,,,,,,,,,,,,,,,,1,1,,,
566314,3,159,41,3,,5,,1,,,,,,2,9,16,,2,,,,,2,,,,,,,,,,,,,,,,,1,,
566314,2,760,175,18,11,30,1,,,,1,1,15,16,17,49,1,4,,2,,,2,3,,,,,1,1,,,,,1,,,,1,,,
566322,1,1133,261,35,7,35,2,1,,2,3,1,15,26,24,86,3,1,1,1,,2,11,1,,,,,,,2,,,,,,,1,1,,,
566349,1,731,139,16,3,14,,6,,,,,6,15,30,35,1,1,,1,1,2,4,,,,,1,,1,1,,1,,,,,,,,,
566357,4,82,29,1,,3,,,1,1,,,1,2,2,13,,1,,1,,,2,,,,,,,,1,,,,,,,,,,,
566357,3,113,29,2,2,3,,,,,1,,,3,6,7,,3,,,,,2,,,,,,,,,,,,,,,,,,,
566357,2,111,41,8,1,5,,,,,,,,5,1,18,,,,,,2,,1,,,,,,,,,,,,,,,,,,
566357,1,290,83,11,1,6,,,,,,1,3,6,16,34,,2,,,,,3,,,,,,,,,,,,,,,,,,,
566381,1,293,84,3,1,6,,,1,,,,2,2,6,23,1,3,,,2,3,1,4,,,,,,,,,,,,,,,1,25,,
566403,3,48,17,2,,1,,,,,,,1,3,1,5,,,,,,,2,1,,,,,,,,,1,,,,,,,,,
566403,2,149,46,5,10,2,,1,,3,,,5,4,4,10,,,,1,,,,,,,,,,,,1,,,,,,,,,,
566403,1,246,56,3,6,,,,,1,3,1,5,3,2,27,,,,1,,,3,,,,,,1,,,,,,,,,,,,,
566411,1,129,43,,1,3,,1,,,,,,5,8,17,,,1,,,,4,1,,,,,,,,,,2,,,,,,,,
566438,2,80,28,4,2,4,,,,,,,,3,3,9,,,,,,1,1,,,,,,,,,,,,1,,,,,,,
566438,1,1115,301,29,6,61,2,,,,1,,10,23,22,97,7,4,2,3,,,3,,1,,1,,,,3,1,,,15,,,1,9,,,
566454,3,195,48,5,2,5,,,,,,,2,8,1,18,,,,3,,,1,,1,1,,,,,1,,,,,,,,,,,
566454,2,167,32,1,,6,,,1,,1,,,6,1,8,,,,,2,,1,2,,,,,,,,,1,,,,2,,,,,
566454,1,444,65,12,2,7,,2,,,1,,3,5,8,19,1,1,,,,,1,,,,,,,,1,,,,,,,,2,,,
566501,1,309,67,12,,10,,,,3,,,7,2,8,19,,2,,,,,3,,,,,,,,,,,,,,,,1,,,
566519,2,112,28,2,,3,,,,,,2,,,6,12,,,,,,3,,,,,,,,,,,,,,,,,,,,
566519,1,392,92,10,2,12,3,1,,,,,4,11,4,30,,2,1,1,,,3,1,,,,,,,2,,2,,2,,,,1,,,
566527,1,295,81,2,,13,,4,1,,,,5,15,7,31,,,,,,,1,,,,,,1,,,,1,,,,,,,,,
566535,1,356,127,23,8,12,,,1,1,1,1,16,17,8,25,,3,,6,,1,2,,,,1,,,,,,1,,,,,,,,,
566551,7,293,62,6,,2,,,1,1,,,8,12,8,16,,1,1,1,,,1,,,,1,,,,,,1,,,,1,,1,,,
566551,6,175,88,11,6,12,,,,,1,,7,7,8,32,,1,,1,,1,,,,1,,,,,,,,,,,,,,,,
566551,5,151,49,4,4,1,,,,,1,,1,6,5,24,,,,,,,,,,,,,,,,,,,3,,,,,,,
566551,4,171,64,12,2,12,1,3,,1,,,4,4,4,18,2,,,,,,,1,,,,,,,,,,,,,,,,,,
566551,3,173,46,11,2,3,,,,,,,2,1,3,19,1,,,,,,2,,1,,,,,,1,,,,,,,,,,,
566551,2,147,51,4,3,8,,,4,,,,3,3,3,11,2,5,,,,,,,,,,,,2,2,,,,,1,,,,,,
566551,1,747,220,50,7,28,2,1,,4,,4,12,27,18,43,,9,,6,2,1,1,,,,,,1,,1,,,1,,1,,,1,,,
566560,1,528,139,12,6,12,,1,1,,1,,11,14,24,38,1,2,1,3,,2,4,1,1,,,,3,,,,,,1,,,,,,,
566578,2,97,26,,,1,,1,,1,,,,2,6,7,,,,2,,1,4,,,,,,,,,,,,,,,1,,,,
566578,1,202,62,8,,9,2,2,,,1,,4,2,1,23,,4,,1,,,1,3,,,,,,,,,,,,,,,,1,,
566586,3,60,27,1,1,6,,,,,1,,2,8,1,7,,,,,,,,,,,,,,,,,,,,,,,,,,
566586,2,77,26,,,6,,,,,2,,1,3,5,8,,,,1,,,,,,,,,,,,,,,,,,,,,,
566586,1,109,49,8,2,6,1,,,,,,5,5,6,11,1,,,,,,4,,,,,,,,,,,,,,,,,,,
566608,1,131,31,6,3,5,2,,,,,,2,1,1,8,,,,2,,,1,,,,,,,,,,,,,,,,,,,
566616,9,112,25,1,3,,,,,,1,,,,4,9,,,,,,,1,,,,,,,,,,,,5,,,,1,,,
566616,8,213,24,3,,7,,,,,,,,3,3,8,,,,,,,,,,,,,,,,,,,,,,,,,,
566616,7,286,40,6,1,5,,2,,,,,,1,4,17,,,,,,1,3,,,,,,,,,,,,,,,,,,,
566616,6,443,97,9,7,6,1,3,,,2,1,3,13,11,31,1,2,,2,,,,,1,,,,1,1,,,,,2,,,,,,,
566616,5,627,161,17,6,20,1,5,,,1,2,8,12,13,55,2,4,,4,,2,5,,,,,,,,2,,,2,,,,,,,,
566616,4,636,136,7,12,23,,,,,,,7,11,11,53,,5,,1,,2,1,,1,1,,,,,,,1,,,,,,,,,
566616,3,1084,192,19,14,29,,1,,,,,9,11,21,69,,8,,,1,,4,1,,2,,,1,,1,,1,,,,,,,,,
566616,2,726,120,11,2,18,,4,,,2,1,6,15,11,35,,4,,1,,1,4,1,1,,,,,,3,,,,,,,,,,,
566616,1,836,211,23,7,21,,5,,1,,1,11,18,20,79,1,9,1,2,,2,9,,,,,,,1,,,,,,,,,,,,
566624,4,42,6,,1,1,,,,,,,,,,3,,,,,,,1,,,,,,,,,,,,,,,,,,,
566624,3,1085,142,9,15,10,,1,,,,1,3,10,15,54,2,2,1,3,,3,5,2,1,,,1,,2,,,,1,,,,,1,,,
566624,2,1118,240,31,6,15,,5,,1,2,1,11,22,29,89,1,9,,4,,1,5,1,,,,1,,1,,,,1,2,,1,,,1,,
566624,1,654,148,11,7,11,,,,1,,,14,12,16,66,,1,,1,1,,6,,,,,,,1,,,,,,,,,,,,
566624,5,94,19,,,3,,,,,,,3,1,1,8,,,,,,,3,,,,,,,,,,,,,,,,,,,
566624,9,60,14,2,,,,,,,,,,,3,8,,,,,,,1,,,,,,,,,,,,,,,,,,,
566624,8,109,25,2,,3,,1,,,,,1,,6,6,,1,,1,2,,2,,,,,,,,,,,,,,,,,,,
566624,7,113,22,4,,,,,,,,,2,3,1,9,1,,,,,,2,,,,,,,,,,,,,,,,,,,
566624,6,61,15,,,4,,,,,,,1,,5,4,,,,,,,,1,,,,,,,,,,,,,,,,,,
566624,12,131,19,2,,1,,,,,,,2,,7,7,,,,,,,,,,,,,,,,,,,,,,,,,,
566624,11,95,15,2,,,,,,,,,,,,13,,,,,,,,,,,,,,,,,,,,,,,,,,
566624,10,77,13,,1,1,,1,,,2,,2,,1,3,1,,,,,,,,,,,,,1,,,,,,,,,,,,
566659,1,213,90,7,38,2,,,,2,,1,6,5,11,16,,,,1,,,,,,,1,,,,,,,,,,,,,,,
566667,3,37,16,1,2,3,,,,,,,,3,1,6,,,,,,,,,,,,,,,,,,,,,,,,,,
566667,2,43,18,7,1,,,,,,,,1,1,5,2,,,,1,,,,,,,,,,,,,,,,,,,,,,
566667,1,397,128,21,21,11,1,1,,1,,,12,7,12,29,1,4,,2,,3,1,,,,,,,1,,,,,,,,,,,,
566713,1,446,108,14,4,9,,1,,2,1,1,13,13,9,35,1,,,1,,,2,,1,,,,,,,,,1,,,,,,,,
566721,1,346,112,14,10,11,,1,1,2,3,,10,3,1,34,2,,,7,,1,6,,,,,,,2,,2,1,,,1,,,,,,
566829,1,244,44,9,1,9,,,,,,,2,2,8,11,,,,,,,,,,,1,,,,,,,1,,,,,,,,
566853,3,78,31,1,,7,,1,1,,,,4,,4,8,,4,,,,1,,,,,,,,,,,,,,,,,,,,
566853,2,85,37,2,2,4,,1,,1,,,1,2,6,16,,,,,,,1,,,,,,,1,,,,,,,,,,,,
566853,1,392,95,7,2,6,,,1,1,,1,6,8,4,40,5,2,,,1,1,5,1,,1,,1,1,,,,,,,,,,1,,,
566870,1,276,47,5,,6,,2,,,1,,2,4,7,18,,,,,,2,,,,,,,,,,,,,,,,,,,,
566896,1,327,39,2,1,1,,,,,,,4,3,1,21,1,2,,,,,3,,,,,,,,,,,,,,,,,,,
566900,1,458,112,17,1,5,,2,,1,,,14,14,8,44,,1,,,,1,3,,,,,,,,,,,1,,,,,,,,
566918,1,216,66,8,,5,,,,,,2,6,4,5,27,,1,,2,,,6,,,,,,,,,,,,,,,,,,,
566926,1,162,61,8,4,3,,2,,,,,5,3,2,25,,1,,5,,,,,2,,,,1,,,,,,,,,,,,,
566934,2,785,156,16,7,12,,1,,1,1,3,6,19,18,61,1,2,,1,,,4,2,,,,,,,,,,,,,1,,,,,
566934,1,733,152,7,4,21,,2,1,1,,2,3,13,18,68,,2,1,3,,,3,,,,,,,2,,,,1,,,,,,,,
566951,2,86,9,1,,,,,,,,,,4,,4,,,,,,,,,,,,,,,,,,,,,,,,,,
566951,1,328,73,3,8,6,,1,,2,4,,4,9,6,18,1,,,1,,1,7,,,,,,,,,,,2,,,,,,,,
566977,2,79,29,2,3,1,,,,1,1,,4,3,6,5,,,,,,,1,,,1,,,,,,,1,,,,,,,,,
566977,1,143,48,6,3,2,,,,,,,4,9,6,17,,,,1,,,,,,,,,,,,,,,,,,,,,,
566977,3,78,29,3,3,1,,2,1,,,,3,2,1,7,1,,,,,,3,,,,,,,1,,,,,1,,,,,,,
566985,13,681,128,9,4,17,,3,,1,1,,7,25,10,44,,2,,3,,,,,1,,,,1,,,,,,,,,,,,,
566985,12,691,186,22,4,29,,2,,2,1,,11,19,11,69,,1,3,1,,,5,,,,,1,3,2,,,,,,,,,,,,
566985,11,1222,185,26,,10,,2,,1,6,1,27,38,16,40,,3,,7,,,5,1,,,,,,,1,,,,,,,,1,,,
566985,10,839,172,38,5,9,,3,,1,,2,15,13,26,46,1,3,,4,,2,2,1,,,1,,,,,,,,,,,,,,,
566985,9,905,180,16,7,28,1,4,,1,,,19,15,14,54,,4,1,2,,,12,,,,,,,,,,,,,,,,1,1,,
566985,8,980,206,16,7,29,,,,4,3,1,19,35,26,47,,4,3,5,,,5,,,,,,,,,,,,,,,1,1,,,
566985,7,905,172,15,1,20,,2,,1,2,1,11,18,30,56,2,5,1,2,,,1,1,,1,,,,1,1,,,,,,,,,,,
566985,6,752,119,23,3,6,,1,,2,,1,13,12,10,37,2,4,,,,,,1,,,,,2,,1,,,1,,,,,,,,
566985,5,928,210,23,7,34,,3,,2,1,,11,23,24,57,,10,3,1,,1,3,1,,,,,3,,1,,1,,,,,,1,,,
566985,4,893,214,37,11,23,1,2,,1,,1,15,21,26,56,1,7,1,5,,,5,,1,,,,,,,,,,,,,,,,,
566985,3,784,228,50,6,17,1,,1,5,5,,24,25,13,62,,8,,1,,1,3,2,1,,,,,,1,,2,,,,,,,,,
566985,2,925,327,61,5,30,1,2,,5,1,2,24,29,30,106,,6,,7,2,,9,,2,,,,1,1,2,,1,,,,,,,,,
566985,1,892,172,19,12,38,,1,1,1,,,10,9,16,42,1,5,,1,,5,5,1,1,,,,,1,2,1,,,,,,,,,,
566985,18,715,126,14,6,25,1,2,,,1,,4,9,13,42,1,2,,1,,,2,,,,,,2,,,,,,,,,1,,,,
566985,17,678,150,26,8,10,,,,2,1,,12,9,19,42,1,5,,8,,,3,,,,,,1,1,,,,1,1,,,,,,,
566985,16,717,155,25,2,11,2,,1,,,2,18,18,22,41,1,1,1,3,,1,5,,,,,,,1,,,,,,,,,,,,
566985,15,770,183,40,4,23,,1,,,,2,17,15,19,41,,8,,,,1,9,,,,,,1,,1,,,,1,,,,,,,
566985,14,766,177,20,9,20,,2,,3,2,,10,26,11,57,1,6,,1,,1,3,1,1,,1,,1,,1,,,,,,,,,,,
567019,1,341,59,3,5,3,,,,,2,,1,8,9,21,1,1,,,,,2,,2,,,,,,,,,,,1,,,,,,
567027,41,1045,176,19,4,12,1,3,,3,1,4,10,19,25,60,1,2,1,3,,1,2,2,,,,,,,2,,,,,,,,1,,,
567027,40,645,125,10,6,6,,1,,,1,2,10,12,22,45,,2,,3,1,,2,,1,,,,,,,,,,,,,,1,,,
567027,39,760,157,14,6,17,,1,,,,,5,17,18,60,1,2,,6,,,8,,,,,,,,,,,,1,,,1,,,,
567027,38,392,102,18,1,10,,3,,,,1,12,10,11,29,1,1,,,,1,2,,,,,,,1,,,,,,,,,1,,,
567027,37,680,136,23,2,11,1,1,,1,,,7,8,21,52,1,2,1,1,,,2,,,,,,,,1,,,,,,,1,,,,
567027,36,734,129,13,7,10,,2,,,,1,7,15,16,41,2,4,1,1,2,1,1,1,1,,,,,,1,,,,1,,,,1,,,
567027,35,507,98,4,4,4,2,1,,2,1,,7,4,13,45,,,,5,,1,2,,1,,,,,,2,,,,,,,,,,,
567027,6,1039,324,68,9,34,1,1,,3,,2,33,40,31,71,1,6,1,6,2,3,4,1,1,,,,1,,1,,,1,,,1,,2,,,
567027,5,610,143,15,5,10,,3,,1,,,17,19,17,45,,,1,2,,4,,,1,,1,,,1,,,1,,,,,,,,,
567027,4,504,146,23,1,12,,3,,1,1,,14,24,10,41,,4,,1,1,1,5,,1,,,,,,,,1,1,,,,,1,,,
567027,3,763,213,49,7,19,,,,1,,,19,23,26,46,2,,,7,,4,2,,1,,,,2,,4,,,,1,,,,,,,
567027,2,544,144,24,,10,,,1,,1,4,16,24,16,33,,5,2,1,1,1,4,,,,,,,,,,,1,,,,,,,,
567027,1,454,126,16,4,10,1,1,,2,,2,11,12,15,34,1,1,1,3,,2,6,,,,,,1,1,1,,,1,,,,,,,,
567027,34,761,157,19,4,17,,,,,2,1,13,17,24,44,5,,,2,,1,1,,,,,1,,,2,,1,1,,1,,,1,,,
567027,33,827,170,17,1,18,,2,,1,1,,7,20,20,67,1,3,,5,,3,2,,2,,,,,,,,,,,,,,,,,
567027,32,749,161,16,9,30,2,4,,1,,,5,13,17,48,,4,,2,,3,1,1,,,,1,,,2,,1,,,,,,1,,,
567027,31,871,141,13,4,12,,3,2,2,,1,8,15,22,42,1,1,,5,,2,1,,,,,,,1,,,,2,,,,2,2,,,
567027,30,955,175,15,7,22,,3,,,1,3,8,24,16,59,3,2,2,2,,,4,,1,,,,1,,1,,,,,,,1,,,,
567027,29,1076,233,29,3,28,1,1,,5,,1,22,20,24,78,,2,1,3,,3,8,1,,,,,,,,,1,,,,,,,2,,
567027,28,1048,230,26,9,13,1,1,,5,5,1,21,29,22,79,1,3,2,7,,2,2,1,,,,,,,,,,,,,,,,,,
567027,27,1073,177,19,10,9,1,,,4,1,2,12,16,34,54,,1,,3,,,2,1,1,,1,2,,,3,,,,,,,,1,,,
567027,26,999,190,25,2,19,,,,1,,,19,17,16,79,,,1,3,,1,2,,,1,,,,,,,1,2,1,,,,,,,
567027,25,1063,223,25,7,24,,,,1,,3,9,24,31,79,2,3,1,7,,1,3,,,,,,,,,1,2,,,,,,,,,
567027,24,1108,213,17,5,21,2,3,,3,,,11,20,23,75,6,5,1,9,1,1,3,,2,1,,,,1,,,,,,,,,3,,,
567027,23,859,128,7,,27,1,,,2,1,3,12,14,11,40,,2,,2,1,,2,,,,,,,,1,,,,,,,1,1,,,
567027,60,1253,173,18,6,17,,1,,1,,,15,31,21,47,3,2,,6,,1,,1,,,,,,1,,,,1,1,,,,,,,
567027,59,984,148,10,3,14,1,1,,2,1,,9,12,31,52,3,2,,5,,,1,,,1,,,,,,,,,,,,,,,,
567027,58,1051,171,8,8,11,6,2,,2,3,2,7,24,27,44,5,4,4,3,1,,6,1,,,,,1,,,,,1,1,,,,,,,
567027,22,1033,178,11,8,27,,1,,1,1,,9,18,21,52,,7,1,1,,4,11,,,,,,1,2,1,,,,,,,,1,,,
567027,21,991,117,9,11,13,,4,,,1,1,2,10,24,29,1,2,,2,,,3,2,,,,,,,2,,,,,,,1,,,,
567027,20,790,7,,,3,,,,,,,1,,1,1,,,,,,,1,,,,,,,,,,,,,,,,,,,
567027,19,179,57,8,3,6,,,,,,1,2,9,3,22,,,,,,,3,,,,,,,,,,,,,,,,,,,
567027,57,1285,149,15,5,13,,,,,3,,9,18,20,49,3,3,,,,1,7,1,,1,,1,,,,,,,,,,,,,,
567027,56,1299,270,27,13,29,1,5,,1,2,1,18,32,34,76,2,4,,9,,4,7,,1,,1,1,,,1,,1,,,,,,,,,
567027,55,1127,292,62,5,19,1,1,,1,1,1,31,31,45,66,2,3,,8,,6,1,,1,,,1,1,,1,,,2,,2,,,,,,
567027,54,1006,203,9,7,27,,,1,1,2,,5,16,28,89,1,2,,4,,3,6,,,,,,2,,,,,,,,,,,,,
567027,53,858,198,15,7,12,,5,,1,1,,8,15,21,97,2,4,,2,,,2,,,,1,2,,,,,1,,,1,,,1,,,
567027,52,1051,190,21,6,13,2,4,,,2,1,3,15,33,65,2,,3,4,2,2,5,,,,,,2,,2,,1,1,,,,,1,,,
567027,51,593,142,7,6,18,1,2,,2,,,3,11,20,58,,,,9,,,3,,,,,1,,,,,,,,1,,,,,,
567027,50,907,181,16,10,25,,2,,,,,6,9,36,61,2,3,,1,,1,4,,,,,1,,,2,,2,,,,,,,,,
567027,49,772,140,5,9,16,,,1,1,,,4,13,16,66,1,,,2,,,4,,,,,,,,,,1,,,,1,,,,,
567027,48,864,97,8,1,12,,,,2,1,1,3,11,17,32,,4,1,,,,3,,,,,,,,,,,,,1,,,,,,
567027,47,838,128,16,5,15,,,,2,,,8,22,7,42,1,,1,2,,4,2,,,,,,,,,,,1,,,,,,,,
567027,46,869,113,7,6,11,,1,,3,,,5,14,19,38,,1,2,2,,,4,,,,,,,,,,,,,,,,,,,
567027,18,728,155,10,5,14,1,3,,,1,2,13,23,14,53,,5,,1,2,,3,2,,1,,,,,1,,,,,,,,1,,,
567027,17,821,156,16,8,11,1,,,2,1,1,14,20,12,52,2,5,2,3,,1,2,,1,,,,,,1,,1,,,,,,,,,
567027,16,2459,127,9,8,5,1,1,,,,1,6,12,25,41,1,,2,2,,1,6,,1,,,,,,,,,2,1,,,,2,,,
567027,15,746,150,19,10,7,,3,,1,2,1,17,21,13,44,,,1,2,,1,1,,,,,,1,,1,,,,,1,,,3,1,,
567027,14,772,154,23,8,11,,,,,,,15,23,12,50,2,1,1,2,,,4,,,,,1,1,,,,,,,,,,,,,
567027,13,777,73,6,3,5,1,,,,,,5,10,10,24,1,2,,,,,4,,,,,,,,,,,,,,,,2,,,
567027,12,1006,104,17,7,12,1,1,1,1,,,7,13,11,25,2,,2,,1,,1,,,,1,1,,,,,,,,,,,,,,
567027,11,880,241,29,26,35,,1,1,4,6,2,16,22,20,44,2,7,5,3,1,1,8,,2,2,,,1,,,,1,1,,,,,,1,,
567027,10,672,63,9,,9,1,,,,,,4,8,6,20,,,,3,,,3,,,,,,,,,,,,,,,,,,,
567027,9,875,103,22,1,2,,3,,2,1,,14,20,6,23,,1,,3,,,4,,,,,,,,,,,,,,,1,,,,
567027,8,554,174,49,1,4,,,,3,1,,20,22,10,48,1,3,,6,,,1,,,,,,,3,2,,,,,,,,,,,
567027,7,474,141,31,4,6,,,,,2,2,18,14,13,38,,3,1,3,,2,3,1,,,,,,,,,,,,,,,,,,
567027,45,930,207,29,4,18,,5,3,,,2,14,22,19,70,3,3,1,2,,1,6,,1,1,,,,1,,,,,,,,,2,,,
567027,44,838,172,11,6,11,1,3,1,,3,,10,14,31,60,,7,,4,,1,5,,,2,1,,,,1,,,,,,,,,,,
567027,43,905,157,15,5,18,,,1,,1,1,11,17,20,51,1,,5,2,,,6,,,,,,,,2,,1,,,,,,,,,
567027,42,1094,161,12,12,7,1,,,1,1,1,9,22,21,52,4,,,6,,2,7,,2,,,,,,,,,,,,,,,1,,
567043,2,650,102,8,3,9,,1,,,,,17,5,6,47,1,1,,1,,,,2,,,,,,1,,,,,,,,,,,,
567043,1,579,58,1,2,5,1,2,,1,,,2,,13,24,2,1,,1,,,3,,,,,,,,,,,,,,,,,,,
567051,1,432,118,5,6,6,4,5,1,1,,,4,20,10,23,2,5,1,1,,2,7,2,,,,,,,,1,1,,10,,,,1,,,
567060,1,976,154,11,,21,,3,,2,4,1,5,15,18,62,1,1,,3,,1,3,,,2,,,1,,,,,,,,,,,,,
567078,1,209,66,3,1,2,,,,2,3,,7,10,9,23,,,,,,1,3,,,,,,,,,,,,1,,,,,,1,
567108,1,85,59,5,1,4,,,,,1,,7,4,6,18,,,,6,,2,4,,,,,,,,,,,,,,,1,,,,
567141,2,51,17,,,,,,,,,,,3,4,8,,,,,1,,1,,,,,,,,,,,,,,,,,,,
567141,1,430,83,4,8,3,1,1,,,,4,1,5,6,41,,1,,2,,2,2,,1,,,,,,1,,,,,,,,,,,
567167,1,369,92,7,2,6,,,,,1,,6,11,12,34,,6,,1,1,1,2,,,1,,,,1,,,,,,,,,,,,
567175,3,203,41,4,,7,,,,,,,6,4,1,18,,,,,,,,,,,,,,,,,,,,1,,,,,,
567175,2,729,119,12,3,6,,1,,3,2,1,9,11,16,43,1,6,,2,,1,,,1,,,,,1,,,,,,,,,,,,
567175,1,803,157,17,7,7,,2,,2,3,,14,9,12,67,,1,2,2,1,5,3,2,,,,,,1,,,,,,,,,,,,
567191,1,129,39,4,,3,,,,,,,2,9,4,9,,,1,3,,1,2,,,1,,,,,,,,,,,,,,,,
567221,1,168,64,7,2,6,,,,3,,,6,12,5,17,1,2,,,,1,,1,,,,,,,1,,,,,,,,,,,
567248,1,174,53,9,1,3,1,4,,1,2,,2,8,3,12,2,,,1,,,2,,,,,,2,,,,,,,,,,,,,
567256,12,502,148,18,4,22,5,,,1,1,,5,9,21,48,,1,2,3,,1,3,,,,2,,1,,,,,,,,,,1,,,
567256,11,215,26,1,,,,,,,1,,8,,3,7,,,,,,,4,2,,,,,,,,,,,,,,,,,,
567256,10,484,139,19,4,2,,,,3,,1,11,11,14,61,,1,1,3,,,3,,1,,,,,,2,,,,,,,,,,,2
567256,9,644,175,22,2,13,,,,1,,1,28,17,18,60,2,4,,2,,,3,,,,,,,,,,,,,,,,2,,,
567256,8,808,216,38,6,14,3,4,,2,,2,17,20,14,79,2,1,3,6,,,3,1,,,,,,,,,1,,,,,,,,,
567256,7,604,87,7,4,19,,,,,1,,5,3,12,29,,,,,1,,3,,,,,,2,,1,,,,,,,,,,,
567256,6,672,131,11,1,17,1,,,5,,,10,7,19,47,4,1,,,,,6,,,,,,,1,,,,,,,,,,1,,
567256,22,818,195,25,12,21,1,3,1,3,,3,23,11,21,57,1,5,,2,,,3,,1,,,,,,,1,1,,,,,,,,,
567256,21,596,137,8,4,20,1,,1,2,,4,7,7,19,55,,3,,2,1,,1,,1,,,1,,,,,,,,,,,,,,
567256,20,686,175,16,4,15,,6,,3,,1,13,16,15,68,,5,2,2,1,1,1,1,2,,,,,,,,,1,,,,1,1,,,
567256,19,747,201,22,7,10,,,,1,1,,13,31,15,81,,3,,8,,,6,,1,1,,1,,,,,,,,,,,,,,
567256,18,513,114,7,3,13,1,,,3,,,5,10,9,55,1,1,,2,1,,2,,,,,,,,,,,1,,,,,,,,
567256,17,805,154,12,5,20,2,3,,,2,1,4,15,22,53,1,1,,6,,,5,,,,,1,,,1,,,,,,,,,,,
567256,16,766,151,7,6,22,1,1,,2,,,10,9,14,67,,4,,1,,,2,,1,1,1,,1,,,,,,1,,,,,,,
567256,15,1797,181,17,2,27,1,4,,,2,2,13,16,26,52,1,2,,7,1,1,2,2,,1,,,,,,,,,2,,,,,,,
567256,14,808,195,10,11,27,1,1,,2,2,,12,11,20,81,3,4,2,6,,,,,,,,1,,,,,1,,,,,,,,,
567256,13,617,124,14,5,13,1,,,,2,,4,9,13,47,2,5,1,3,,,,,,,,1,,2,,,,,1,,,,1,,,
567256,5,1024,81,4,2,10,3,2,1,,,,5,6,15,26,3,,,1,,,,,,,1,1,,,,,,,1,,,,,,,
567256,4,352,6,,,,1,,,,,,,,2,3,,,,,,,,,,,,,,,,,,,,,,,,,,
567256,3,339,11,,,1,,,,,,,3,,,3,,,,1,,,,,,,,,,,,,,,1,,,1,,1,,
567256,2,493,55,3,4,3,,,,,,1,4,1,9,21,,,2,3,,,4,,,,,,,,,,,,,,,,,,,
567256,1,427,89,11,5,12,,1,1,1,,1,4,11,5,29,1,,,1,,,4,1,,,,,,,1,,,,,,,,,,,
567256,28,455,79,7,6,9,1,1,,,,,5,14,5,26,,,1,,,,,2,,1,1,,,,,,,,,,,,,,,
567256,27,826,233,41,3,21,,,,9,,1,21,25,25,61,1,3,2,4,,7,4,,,,,,,1,1,,1,,1,,,,,,1,
567256,26,665,154,22,5,4,1,1,,2,,1,27,14,14,45,,3,1,6,,2,5,,,,,,,,1,,,,,,,,,,,
567256,25,827,233,21,5,18,4,3,,7,1,1,18,23,33,77,2,2,,4,,,9,2,1,1,,,1,,,,,,,,,,,,,
567256,24,823,223,30,2,15,,1,,4,1,1,19,29,29,70,1,5,,4,,3,5,,1,,,,,,1,,,2,,,,,,,,
567256,23,684,162,14,2,16,,2,,1,,,14,20,25,51,2,6,1,3,,2,,,,,,,,,,,1,,2,,,,,,,
567264,4,769,190,16,2,26,1,5,,3,2,,16,12,32,54,3,,3,4,,1,6,,,,,,,4,,,,,,,,,,,,
567264,3,808,106,5,10,4,,,,,,,16,9,18,39,,,1,,,,2,,,,,,,2,,,,,,,,,,,,
567264,2,692,201,40,3,17,3,1,,4,1,3,20,22,25,48,2,3,,3,,,3,,,,1,,1,,,,,,,1,,,,,,
567264,1,729,172,10,3,18,,,,,3,2,12,11,28,64,,3,2,3,,2,5,,2,,,,,,,2,,,,,,,1,,1,
567272,1,572,109,17,3,6,2,,,6,,2,3,8,13,35,1,,,1,1,,8,,,,1,,1,,1,,,,,,,,,,,
567281,1,447,130,11,1,17,,3,1,,,,17,10,17,32,5,5,,3,2,,1,,1,,,,,,3,,1,,,,,,,,,
567299,1,176,61,1,1,2,,,,,,,10,5,8,27,1,,,3,,,1,,1,,,,,1,,,,,,,,,,,,
567302,1,359,72,6,2,18,,,,,,1,3,8,5,15,,3,,2,2,1,1,,,,,,,,,,,,,2,,,2,1,,
567311,4,1133,215,17,10,18,3,4,,1,1,1,5,18,44,57,1,10,5,2,,1,8,2,3,1,,,,2,,,,,,,,,1,,,
567311,3,936,237,24,14,25,1,,,5,1,6,17,17,24,72,6,6,1,7,,1,2,1,2,,,,1,,3,,,,,,,,,,,1
567311,2,898,176,14,9,31,1,3,,2,,,2,15,33,42,3,3,,3,,1,8,1,1,,,2,1,,,,1,,,,,,,,,
567311,1,928,217,13,17,30,2,2,,,,3,7,15,31,70,,2,1,8,,,9,1,1,1,,,3,,,,,,,,,,1,,,
567329,1,401,81,6,2,11,,,,3,1,1,7,15,10,23,1,,,,,,,,,,,,,1,,,,,,,,,,,,
567337,3,198,52,4,,7,,,,,,,6,8,11,16,,,,,,,,,,,,,,,,,,,,,,,,,,
567337,2,867,69,13,3,16,,1,,,,,2,1,6,18,,,1,,,,,,,,,,,,,,,,8,,,,,,,
567337,1,538,32,5,,1,,,,,,,3,2,6,12,,1,,,,2,,,,,,,,,,,,,,,,,,,,
567345,1,378,103,29,5,10,,1,,,,,5,8,7,31,1,2,,2,,,,,,,,,,1,,1,,,,,,,,,,
567353,1,183,43,6,1,1,,,,,,2,5,1,4,20,,2,,,,,,,,,,,,1,,,,,,,,,,,,
567361,1,209,56,3,,6,,1,,,,,3,6,3,25,,2,,2,,2,2,,,,,,,,,,,1,,,,,,,,
567426,1,411,83,7,1,7,,,,1,2,,3,9,3,34,1,1,,3,,,7,,,1,1,,,,,,,,1,,,,,1,,
567442,19,964,161,23,11,14,1,1,,2,,1,9,24,16,45,1,3,1,,,1,2,1,,1,,,,1,,1,,1,,,,,1,,,
567442,18,989,128,25,5,7,,,,2,1,3,6,15,13,33,2,2,,3,,2,4,1,,,,1,,,,,1,,,1,,,1,,,
567442,17,909,207,26,7,15,,3,,6,2,1,26,35,17,47,,4,2,5,,,7,,,,,,,,3,,1,,,,,,,,,
567442,16,1717,164,23,5,18,1,3,,2,1,2,12,13,15,58,1,1,1,4,,,3,,,,,,1,,,,,,,,,,,,,
567442,15,823,281,59,8,12,2,1,,2,2,2,40,25,27,62,5,19,,11,,,3,,,,,,,,1,,,,,,,,,,,
567442,14,1131,289,46,11,23,,3,1,6,,1,39,42,28,72,1,2,1,4,,,5,,1,1,,,,,1,,,,1,,,,,,,
567442,13,740,192,33,4,10,,1,,1,,,29,20,17,39,3,5,1,12,,2,11,1,1,,,1,,,1,,,,,,,,,,,
567442,12,819,205,35,7,14,,2,,5,2,2,26,15,26,41,6,4,3,9,1,1,,1,,,,1,,,,2,,1,,,1,,,,,
567442,11,854,286,45,15,5,,4,,6,2,5,35,26,35,81,,5,1,14,,,1,1,,,,,,,4,,,,,,1,,,,,
567442,10,855,131,26,5,5,2,6,,2,2,,15,22,18,15,,4,1,4,,,2,,,,,,,,1,,,,,,,,1,,,
567442,9,820,168,25,2,9,2,6,,2,,1,15,31,21,31,,1,1,18,,,2,,,,,,,1,,,,,,,,,,,,
567442,8,726,220,37,5,13,3,5,1,2,2,1,28,26,24,49,,4,,2,1,4,4,2,,,,,,,1,,,1,4,,,,,,1,
567442,7,862,216,31,6,12,,2,,3,4,4,10,21,46,55,1,12,,,,,5,,,,,,,,2,,,,,,,,2,,,
567442,6,685,162,19,5,9,1,1,,,,,19,16,22,50,2,6,1,4,,1,2,,1,,1,,,,1,,,1,,,,,,,,
567442,5,856,139,13,5,13,,2,,2,7,,6,21,20,39,1,,1,1,,,5,,,,,,,,1,1,1,,,,,,,,,
567442,4,672,147,16,6,12,,6,,3,1,,8,11,16,54,1,1,,1,,1,6,,,,,,,2,1,,,,,,,,1,,,
567442,3,703,188,18,5,22,,1,,1,,,16,21,20,60,3,6,1,5,,1,3,,,,,1,1,,1,1,,,1,,,,,,,
567442,2,782,217,37,3,12,,1,,1,4,1,11,24,23,70,,4,4,6,,2,5,,2,,,,3,,,,1,2,,,1,,,,,
567442,1,430,101,18,1,1,1,2,,1,3,,5,12,16,30,2,2,,3,,,3,,,,,,,,,,,1,,,,,,,,
567442,32,867,229,35,6,15,1,4,,4,4,,20,29,27,57,3,7,1,7,,,1,1,2,2,,,,1,2,,,,,,,,,,,
567442,31,765,216,31,9,13,,4,1,4,2,3,21,14,17,86,1,1,1,1,,1,2,,,,,,,,,,,1,,,1,,2,,,
567442,26,500,150,28,2,4,,,,,,3,23,28,9,32,,5,,9,,,4,,,,,,,,3,,,,,,,,,,,
567442,25,903,167,34,3,11,,,,2,,3,18,31,17,27,1,3,,11,,1,2,,1,,,,,1,1,,,,,,,,,,,
567442,24,667,223,48,7,11,,1,,1,,2,35,34,14,51,,6,,6,,1,3,,,,,,,,3,,,,,,,,,,,
567442,23,690,221,44,2,16,,3,,,1,,35,31,14,50,2,3,1,8,,3,2,3,1,,,,,,1,,1,,,,,,,,,
567442,22,1050,189,37,4,16,1,1,,,3,1,14,27,19,50,,2,,6,,,2,,1,,,2,,,1,,1,,,,,,1,,,
567442,21,812,132,9,3,23,,,,6,,,8,15,19,40,3,,1,,,,4,,,1,,,,,,,,,,,,,,,,
567442,47,950,239,53,5,20,,,,1,,,15,28,30,64,1,7,,6,,2,5,1,1,,,,,,,,,,,,,,,,,
567442,20,833,77,6,9,6,,2,,2,1,,5,10,13,13,2,1,,1,,,3,,1,,,,,,,,,,1,,,,1,,,
567442,30,571,144,29,6,15,,,,2,2,1,12,16,10,42,,,1,4,1,,1,,,,1,,,,1,,,,,,,,,,,
567442,29,676,225,38,3,12,,,,3,2,1,24,19,27,74,2,1,1,11,,1,3,,1,,,,,,1,,,,,,,,,1,,
567442,28,749,145,18,4,8,,1,,3,3,,15,29,13,26,3,5,1,5,1,,5,,,,,,,1,1,,,1,,,,,2,,,
567442,27,698,226,38,6,13,,5,,1,2,1,32,35,20,51,1,5,,8,,3,1,,1,1,,,,,,,,1,,,,,1,,,
567442,46,720,141,25,2,14,,2,1,1,,1,8,19,13,43,,4,,4,,2,,,,,,,,,1,,,1,,,,,,,,
567442,45,726,155,24,6,14,,2,,,1,,6,18,17,47,3,,3,6,,,7,,,,,,,,,,,1,,,,,,,,
567442,44,849,152,20,5,13,,1,,2,,1,5,17,14,56,1,3,1,3,,,8,1,,,,,,,,,,1,,,,,,,,
567442,43,882,173,17,4,11,2,3,,2,,1,11,27,24,42,2,6,3,8,,1,4,1,1,,,1,,,1,,,1,,,,,,,,
567442,42,1043,171,14,6,17,,4,1,,4,,8,17,25,63,,2,2,4,,,2,1,,,,,,1,,,,,,,,,,,,
567442,41,902,160,27,9,17,,1,,3,1,,15,10,18,47,1,7,,3,,,,,,,,,,,1,,,,,,,,,,,
567442,40,1145,201,39,3,10,,,,3,2,,16,35,19,47,6,4,2,3,,3,2,,1,,1,,1,,1,,,,,1,,,2,,,
567442,39,936,153,17,8,12,,2,,4,,,8,29,18,42,2,,1,3,,,2,1,1,,,,2,,,,,,,1,,,,,,
567442,38,1054,203,22,2,19,,1,1,3,4,1,18,33,16,65,2,1,1,6,,,5,,,,,,,,,,,2,,,,1,,,,
567442,37,1026,120,20,5,10,1,,,,1,,10,13,15,32,,2,,5,,,2,,,2,,,,,,,,2,,,,,,,,
567442,36,698,191,30,5,19,,1,,,2,1,17,24,15,58,,8,4,3,,,1,,,,,,1,,1,,1,,,,,,,,,
567442,35,735,199,19,6,13,,1,,2,3,1,14,16,23,68,1,8,2,9,,3,5,,1,2,,,,,1,,,1,,,,,,,,
567442,34,635,189,26,8,21,1,4,,2,1,1,12,9,29,59,1,4,,4,,,4,,,,,,,,1,,,,,,,,1,,1,
567442,33,820,205,32,8,21,1,2,,5,3,1,14,14,26,52,1,8,2,7,1,,3,,1,,,,,2,1,,,,,,,,,,,
567451,8,784,42,,3,7,,,,,,,1,1,5,18,1,,,1,,,5,,,,,,,,,,,,,,,,,,,
567451,7,794,142,9,3,27,,2,,1,,,2,16,24,47,,2,,,,,4,,1,1,,,,1,,,1,,,,,,,1,,
567451,6,750,172,31,6,13,3,,,,,,12,15,21,40,2,5,,5,,,10,1,1,,,,1,,,,1,,4,,,,1,,,
567451,5,773,139,14,3,20,,1,,,1,,7,5,28,42,3,2,2,1,,,3,,3,1,,1,,,1,,,1,,,,,,,,
567451,4,585,134,13,3,15,2,,,1,,2,14,15,17,42,,,1,3,,,4,1,,,,,,,1,,,,,,,,,,,
567451,3,953,198,11,1,26,3,1,,,1,,9,21,34,72,2,2,2,4,1,2,4,1,,,1,,,,,,,,,,,,,,,
567451,2,978,219,29,5,17,,4,,1,1,3,18,16,32,68,1,6,1,4,,4,3,,,3,,1,,2,,,,,,,,,,,,
567451,1,1149,135,41,3,11,1,2,,,,,6,15,15,30,1,1,2,1,,1,1,1,2,,,1,,,,,,,,,,,,,,
567451,15,777,162,12,2,13,,2,,,,2,11,10,44,56,2,,,1,,,2,1,1,,1,,1,,1,,,,,,,,,,,
567451,14,595,82,9,3,14,,,,1,,,2,4,15,31,,,,,,,2,,,,,,,,,,,,,,,,,1,,
567451,13,730,114,4,3,13,,2,,,,,1,11,30,36,1,2,1,,,1,6,,,,,,,,,,1,,2,,,,,,,
567451,12,717,144,14,2,8,3,,1,,,4,9,5,25,57,,1,1,3,,1,7,,,,,,,1,,,1,,1,,,,,,,
567451,11,653,105,6,2,16,,,,,1,,5,15,9,42,,1,,,,1,4,,1,,,,,,,,,,1,,,,,,,1
567451,10,951,204,23,5,34,4,3,,1,1,,11,18,31,48,4,,3,10,,,6,,,1,,,,,,,,,,,,1,,,,
567451,9,676,42,3,,11,,1,,,,,3,2,8,10,,,,2,,,1,,,,,,,,,,,1,,,,,,,,
567469,1,327,104,21,4,7,,,,3,,,14,12,11,23,,,,5,,,3,,,,,,,,,,,,,,,,,1,,
567477,2,616,151,17,8,17,,1,1,,,,12,7,22,46,3,5,,2,,,7,,,,,,1,,1,,1,,,,,,,,,
567477,1,986,168,21,3,7,,5,,5,3,,13,16,20,53,,6,2,2,2,3,4,,,1,,,,,1,,,1,,,,,,,,
567485,2,187,48,6,,2,,,,3,,,5,5,5,17,,1,,2,,,2,,,,,,,,,,,,,,,,,,,
567485,1,522,133,12,7,14,,2,,3,,,12,17,9,41,2,,,2,1,,5,1,,,,,,3,1,,,,1,,,,,,,
567507,7,554,141,14,1,8,3,7,,1,1,3,12,21,20,35,,4,,2,,1,3,,,,1,,,,,,2,,,,,1,,1,,
567507,6,1037,130,16,2,8,,5,1,2,,3,4,16,12,42,1,1,1,2,1,2,6,,,,,,,3,1,,1,,,,,,,,,
567507,5,1086,240,40,4,19,2,2,1,3,2,5,11,31,17,77,1,5,1,8,,,6,2,,,,,,1,,,,,,,1,1,,,,
567507,4,779,212,29,4,15,1,3,1,1,1,,17,27,41,60,,1,,4,,,2,1,,,,,1,,2,,,,,,,,1,,,
567507,3,778,180,14,8,21,2,,1,1,,1,15,12,28,54,,3,4,2,,1,10,1,,,,,1,,1,,,,,,,,,,,
567507,2,1157,254,20,5,34,4,1,,,3,5,15,25,32,83,4,2,3,5,,1,3,,,1,2,1,,,5,,,,,,,,,,,
567507,1,818,194,13,10,14,,4,,5,4,,19,23,33,42,2,6,,7,,2,4,,,,,,,1,2,1,2,,,,,,,,,
567515,3,868,179,5,7,26,2,4,,,4,2,14,15,20,70,,2,,,1,,2,,2,1,,,,,1,,,,,1,,,,,,
567515,2,1168,123,17,3,6,,1,,1,,,14,8,24,42,,1,1,3,,,1,,,,,,,,1,,,,,,,,,,,
567515,1,1048,95,9,6,6,4,1,,,1,,8,6,9,32,2,1,,,3,,3,1,,,,,,1,,,,,2,,,,,,,
567515,7,956,181,14,6,23,7,1,,1,3,1,13,7,17,72,3,2,,2,,,3,3,1,,,,1,1,,,,,,,,,,,,
567515,6,955,150,9,9,13,,3,,,1,,10,8,25,58,,1,,5,,1,4,1,,,,,,,,,,,,,,,1,,1,
567515,5,877,150,12,9,12,2,1,1,,1,,7,6,26,59,,4,,2,,,6,1,,,,,,,,,,,,,,,1,,,
567515,4,902,223,29,8,34,9,6,,,,1,16,12,18,76,,3,,,,1,5,,1,,,,,1,,,1,,,,,,2,,,
567523,1,985,207,23,8,15,2,4,1,,1,1,26,20,24,56,1,5,3,4,1,2,3,4,1,,,,,1,,,,,,,1,,,,,
567531,1,966,177,8,10,27,1,3,,2,5,2,10,9,25,59,2,1,1,5,,1,1,,2,,,,,,2,,1,,,,,,,,,
567558,3,387,99,23,4,7,,,,1,,,5,15,10,23,2,,,3,,,3,2,,,,1,,,,,,,,,,,,,,
567558,2,650,169,21,10,23,2,1,,,,5,16,6,18,54,3,3,1,3,,,1,,,1,,,,,,,,,,,,,,1,,
567558,1,587,120,6,4,23,,1,,1,1,,19,9,8,40,4,,,,1,1,1,1,,,,,,,,,,,,,,,,,,
567566,1,878,152,10,8,16,,2,1,1,,,12,19,29,38,,,,,1,3,6,3,,1,,,,2,,,,,,,,,,,,
567582,1,739,149,24,5,10,2,,,,,,15,25,26,32,1,3,,2,,1,2,,,,,,,1,,,,,,,,,,,,
567604,1,292,69,9,2,8,,,,2,2,3,13,3,2,18,2,,2,,,1,2,,,,,,,,,,,,,,,,,,,
567612,1,760,186,12,7,25,,4,,1,2,1,13,10,31,62,,3,,6,,1,6,,1,,,,,,,,1,,,,,,,,,
567621,5,664,126,13,10,13,,1,,3,4,2,5,15,7,38,1,2,1,4,,,6,,,,1,,,,,,,,,,,,,,,
567621,4,487,91,7,1,6,1,2,2,2,,,8,12,9,28,,1,,5,,2,2,1,,,,,,1,,,,,,,,,,,,1
567621,3,623,87,5,3,14,,2,,1,,,3,9,9,32,,,1,1,,,6,1,,,,,,,,,,,,,,,,,,
567621,2,523,104,13,3,10,,,1,,,2,6,9,13,40,,1,,,1,1,2,,,,,,,,2,,,,,,,,,,,
567621,1,207,43,8,,,,2,1,1,,1,2,3,8,15,1,1,,,,,,,,,,,,,,,,,,,,,,,,
567639,11,236,62,8,4,4,,1,,,1,,1,9,6,23,1,,,,,,3,,,,,,,,,,,,,,,,1,,,
567639,10,1086,302,49,10,24,,4,1,4,2,,28,32,35,87,3,7,1,8,1,2,2,1,,,,,,,,,1,,,,,,,,,
567639,9,1037,76,8,2,6,,1,,2,1,1,,9,15,22,1,1,,2,,,,3,,,,,1,,,,,,1,,,,,,,
567639,8,1037,117,9,7,11,,,,1,2,,3,23,17,21,2,3,,2,2,,8,,2,,,,,1,2,,,,1,,,,,,,
567639,7,955,187,10,9,13,2,5,,,,,6,10,37,69,,3,1,3,,,15,2,,,1,1,,,,,,,,,,,,,,
567639,6,1019,183,15,5,13,,3,,4,,1,10,17,27,71,2,5,,2,,2,4,,,,1,,,,1,,,,,,,,,,,
567639,5,1050,205,19,11,23,,5,1,1,,1,6,17,40,62,1,8,1,1,,,3,,1,,,,,,,,1,2,,,,,,1,,
567639,4,1494,285,39,21,29,1,3,,3,3,,17,30,35,64,1,12,2,9,,,6,2,1,1,,,,2,2,,,1,,,,,1,,,
567639,3,1033,210,33,6,15,1,3,1,4,2,,17,16,33,55,1,3,,4,1,2,8,2,,,,,,,1,2,,,,,,,,,,
567639,2,716,160,18,5,17,,2,,2,,,9,18,15,42,2,5,1,12,,,8,,,,,,,1,1,,1,,1,,,,,,,
567639,1,651,141,20,2,13,1,2,,1,,1,11,15,24,33,1,11,1,2,,1,2,,,,,,,,,,,,,,,,,,,
567647,1,538,87,8,4,6,,1,,1,1,,7,5,12,31,4,,,,,,1,,,,,,3,1,,,,,,,1,,1,,,
567655,1,435,58,1,1,5,,6,,1,,,2,2,6,22,,,1,2,,1,5,,,,,,,,2,,,1,,,,,,,,
567698,1,261,57,11,1,3,,,,1,,,4,4,4,20,1,1,,2,2,,2,,,,,,,1,,,,,,,,,,,,
567701,1,176,67,17,2,4,,,,1,2,2,2,5,6,17,2,1,,3,1,1,1,,,,,,,,,,,,,,,,,,,
567710,1,809,221,32,2,8,,1,2,3,3,3,17,28,35,58,5,2,1,9,,1,4,2,,1,,,,1,,,,1,,,1,1,,,,
567728,1,127,51,8,2,1,,,,,,,8,7,9,,1,8,,,,1,1,,1,,,,4,,,,,,,,,,,,,
567752,1,976,185,15,12,19,1,,,2,1,,15,29,33,44,2,1,1,,,,2,1,,,,,1,,3,,,,1,,,2,,,,
567752,2,782,207,28,11,23,1,,,3,,,15,18,26,54,1,9,2,4,,2,3,1,1,,,1,,1,,,,,,1,,,2,,,
567761,2,208,57,,2,14,,4,,,,,2,6,4,16,,1,,1,,1,4,,,,,,,,1,,,,1,,,,,,,
567761,1,387,85,10,9,8,,1,,,,,8,9,2,28,,1,1,2,,,4,,,,,,,,,,1,,,,,,,,1,
567779,4,1156,209,18,3,25,,1,,6,1,,9,24,27,74,1,5,1,1,,,6,,2,,,,,3,1,,,,,,,,,,1,
567779,3,1271,247,26,5,27,1,1,,6,2,,23,37,31,70,1,1,,8,3,2,3,,,,,,,,,,,,,,,,,,,
567779,2,796,163,9,9,38,,3,,1,1,,5,15,17,55,,3,1,,2,,,1,,,,,,1,1,,,,,,,,1,,,
567779,1,738,182,8,4,27,1,2,,1,2,,2,16,23,78,4,1,5,,,2,1,,3,,,,,1,1,,,,,,,,,,,
567787,3,188,79,12,2,7,2,,,,1,,16,10,9,11,,1,,7,,,,,,,,,,,,,,,,,,,,,1,
567787,2,865,243,42,7,15,1,1,,2,,4,29,30,27,58,3,8,,8,,,4,2,1,,,,,,,,,,,,,,,,1,
567787,1,1105,288,49,7,19,1,1,,1,1,1,34,33,51,63,2,8,,7,,1,5,1,1,,,,,,1,1,,,,,,,,,,
567809,1,641,137,11,10,9,,2,1,,,1,14,18,21,29,,3,,4,3,,3,,,,1,,1,5,,,,1,,,,,,,,
567833,1,326,79,11,2,4,,4,,,1,,7,6,15,20,1,,,,,,6,,,,,,,,,,1,,,,,,1,,,
567841,1,795,155,14,13,29,2,1,,1,,2,6,9,27,36,1,1,,1,,1,6,1,1,1,,,,1,1,,,,,,,,,,,
567850,1,744,116,21,4,15,1,3,,,1,2,9,12,9,22,1,1,,7,,,6,,,,,,1,,,,,1,,,,,,,,
567868,1,928,182,26,3,14,,3,,,,2,10,11,25,68,3,4,1,,,3,4,2,,,,,,,,,,1,,,,,2,,,
567876,1,415,91,19,2,10,,1,,4,,,9,8,10,17,,,1,5,,,4,,1,,,,,,,,,,,,,,,,,
567884,1,157,28,3,,1,,,,,,,4,4,3,12,,1,,,,,,,,,,,,,,,,,,,,,,,,
567931,1,468,164,17,2,19,1,1,,1,1,2,15,14,22,50,3,2,2,1,,,2,2,,,,1,,,,,2,1,1,,,,1,1,,
567957,1,204,41,6,,6,,2,,,,,2,4,1,12,,,,2,2,,2,1,,,,,,,,,,,,,,,,,1,
567973,1,314,105,15,1,13,1,1,,1,1,,6,13,7,32,2,,,3,,,3,,1,,,,,2,1,,2,,,,,,,,,
568007,3,763,196,28,3,11,,2,2,3,2,,17,15,17,68,2,6,4,6,,1,5,1,1,1,,,1,,,,,,,,,,,,,
568007,2,1014,223,17,7,19,,4,,5,7,,14,19,26,60,6,13,,4,,2,12,1,,,1,,,4,,,,,1,,,,,,1,
568007,1,217,49,6,,8,,1,1,1,,,4,4,7,10,,,,4,,,1,,,,,,,,1,,1,,,,,,,,,
568015,4,214,35,5,,3,,3,,,,,,7,2,10,,,,2,,,3,,,,,,,,,,,,,,,,,,,
568015,3,899,196,20,3,12,2,2,,4,,1,28,30,18,51,1,2,,8,1,3,8,,,,,,,1,,,1,,,,,,,,,
568015,2,992,220,21,11,21,,3,,3,3,,20,15,29,63,4,,1,8,1,3,6,,1,,,,,4,,,,,,2,,,1,,,
568015,1,1430,322,42,10,24,,4,,,3,2,35,42,24,62,3,4,1,13,,,31,2,,,,2,,10,2,,,1,,,,1,4,,,
568023,2,166,45,10,1,4,,,,,,,8,5,6,8,,1,,1,,,,,,,,,,,,,,,,,,,,1,,
568023,1,697,216,40,1,15,2,1,1,4,2,1,30,21,22,54,5,1,3,3,1,,2,,1,,,,,,3,,,3,,,,,,,,
568058,1,1499,341,53,10,37,,2,,2,1,,18,53,40,90,2,5,2,5,1,2,11,,2,,,1,,1,2,,1,,,,,,,,,
568091,2,112,19,3,,1,,,,,,,,4,1,9,,,,1,,,,,,,,,,,,,,,,,,,,,,
568091,1,333,76,7,4,11,,,,,1,2,8,8,6,22,1,,,1,,,,,,,,1,,,2,,,2,,,,,,,,
568104,3,84,12,1,,,,,,,,,1,1,2,1,1,1,,3,,1,,,,,,,,,,,,,,,,,,,,
568104,2,406,110,18,2,4,,2,,2,,,15,19,10,26,2,,2,2,,1,2,,1,,,,,,2,,,,,,,,,,,
568104,1,83,21,7,1,3,,,,,1,,1,2,2,4,,,,,,,,,,,,,,,,,,,,,,,,,,
568104,4,95,18,1,,2,,,,,,,4,,4,6,,,,,,1,,,,,,,,,,,,,,,,,,,,
568147,2,100,29,2,,1,,1,,2,,,1,6,3,8,,2,,,,,,1,,,,,,,,1,,1,,,,,,,,
568147,1,477,94,6,,15,,,,,1,,12,14,14,22,1,2,,3,,1,1,1,,,,,,,1,,,,,,,,,,,
568155,3,277,36,3,1,,,,,,2,2,6,7,2,11,,,1,,,,1,,,,,,,,,,,,,,,,,,,
568155,2,490,107,9,2,10,,1,,1,1,4,11,8,22,33,,,,,,1,2,1,,,,,,,,,,,1,,,,,,,
568155,1,1036,215,39,5,20,,4,1,3,4,,18,26,17,63,1,2,,6,1,1,,2,,,,,,1,,,1,,,,,,,,,
568201,1,563,129,15,4,11,1,2,,4,6,1,15,9,18,28,1,4,2,3,,1,2,,,,,,,,,,2,,,,,,,,,
568201,3,319,93,13,8,6,,,,,4,,7,8,8,24,1,2,,3,,,2,2,,,,,,,,,5,,,,,,,,,
568201,2,232,55,10,1,2,,2,,,,,4,6,5,17,1,,,1,,,3,,,,,,2,,,,1,,,,,,,,,
568287,1,110,29,3,2,2,,,,,,,2,5,,8,1,,,1,,,2,1,,,,,,1,,,1,,,,,,,,,
568295,1,576,169,11,,17,,2,,1,,,24,23,13,60,,3,1,3,1,1,3,1,,3,,,,,1,,,,,,,,1,,,
568309,1,750,279,57,1,15,2,3,,4,2,1,57,57,12,49,,4,3,2,1,2,1,,3,,,,,,,,,,,,1,,,,2,
568350,2,499,141,30,5,4,1,2,,,2,,14,13,15,41,,,,2,1,,5,1,,,,,,,2,,1,,,,,,2,,,
568350,1,1310,326,37,13,31,1,4,,1,4,2,39,37,32,99,,2,,9,,1,7,,,,,,,,,,2,,,,,,4,1,,
568384,1,201,67,6,2,9,,4,1,1,2,,6,7,8,16,,,,,,,2,,,,1,,,,,,1,,,,,1,,,,
