OBEC,OKRSEK,VOLICI,HLASY,HLASY_53,HLASY_7,HLASY_702,HLASY_1118,HLASY_768,HLASY_1102,HLASY_47,HLASY_1141,HLASY_1140,HLASY_112,HLASY_785,HLASY_1129,HLASY_5,HLASY_1137,HLASY_1138,HLASY_720,HLASY_79,HLASY_600,HLASY_1139,HLASY_98
500101,1,172,25,2,3,1,3,2,1,2,5,1,3,2,,,,,,,,,
500127,1,135,48,1,7,,4,7,,4,,2,2,,14,2,1,3,1,,,,
506486,1,180,102,3,1,11,13,16,,2,1,41,1,5,2,,,1,4,1,,,
506494,1,286,132,8,13,1,4,38,,10,1,12,5,,17,2,,4,10,,7,,
506621,1,137,58,3,8,,,4,,14,,20,2,2,4,,,1,,,,,
511587,1,306,106,9,10,,3,28,1,18,1,11,4,1,3,3,1,7,5,,,1,
537845,1,93,56,4,5,3,,10,3,4,,7,1,1,3,,1,6,3,,3,2,
537870,1,438,150,16,21,4,6,28,3,12,1,16,,8,3,1,,17,9,1,4,,
537918,1,1594,576,33,56,22,22,114,3,57,5,61,25,15,88,6,,23,37,1,7,,1
537926,1,663,297,58,24,7,16,62,3,17,9,42,11,11,9,1,,11,10,,6,,
537934,1,253,109,5,13,3,,32,1,6,5,4,18,3,6,2,,3,4,2,2,,
537969,1,678,298,34,27,11,22,58,2,14,3,32,1,5,63,,1,12,12,,1,,
538001,1,267,111,4,15,5,10,23,3,8,,19,3,12,4,,,3,2,,,,
538019,1,260,89,2,3,1,7,24,1,13,,6,6,4,2,,,12,1,,7,,
538027,1,135,56,7,6,,3,13,,3,2,5,10,2,4,,,1,,,,,
538116,1,325,132,3,15,12,9,43,,13,,11,3,2,3,2,,9,4,,3,,
538159,1,463,227,6,12,10,2,28,,8,,16,6,8,105,,2,11,11,,1,,1
538337,1,556,173,12,18,3,9,56,2,15,4,27,2,2,6,3,,5,6,1,,2,
538396,1,261,111,37,7,,,15,1,13,1,13,3,1,1,1,,10,8,,,,
538434,1,1360,450,48,56,14,12,95,8,94,2,29,14,5,11,2,4,32,13,,10,,1
538591,1,1086,363,37,41,5,21,96,4,55,7,32,9,4,12,3,,19,10,,7,,1
538663,1,143,33,,10,,5,7,1,,,1,6,,,1,1,,1,,,,
538795,1,467,198,1,7,,,15,1,13,1,2,146,,1,,1,8,2,,,,
538817,1,159,63,,3,,,4,2,10,,,40,,2,,,2,,,,,
538868,1,185,71,5,10,7,,18,,10,3,4,,1,,1,,4,8,,,,
538906,1,210,90,7,8,3,1,18,,7,1,33,,,1,1,,7,3,,,,
538922,1,200,64,5,1,,1,23,1,8,7,3,,2,,2,,6,2,,2,,1
539023,1,333,119,6,12,,1,39,,27,3,3,7,1,,1,,12,4,,3,,
539074,1,170,52,,3,,,12,,13,2,10,,4,2,,4,2,,,,,
539112,1,381,109,5,19,5,3,23,3,19,,5,2,2,2,,1,7,11,,2,,
539279,3,482,154,5,14,15,1,45,2,21,2,9,3,3,,1,,9,24,,,,
539279,2,445,157,14,28,5,4,44,2,8,1,15,2,4,,1,,7,22,,,,
539279,1,916,284,19,40,23,8,82,3,28,,18,13,3,2,2,4,6,32,,1,,
539376,1,103,37,1,14,,7,6,,2,,1,1,,,,1,2,2,,,,
539431,1,274,94,13,12,,,15,,7,,18,6,,3,,,3,14,,3,,
539473,1,94,39,4,1,1,,3,,4,,,16,,,,,2,8,,,,
539481,1,375,132,9,9,3,3,50,,9,1,8,9,,1,,1,2,25,,2,,
539538,1,95,42,2,1,,19,2,,3,,3,,,3,,,3,6,,,,
539554,1,183,54,6,4,1,3,13,1,11,,6,,,,4,,3,1,,1,,
539619,1,103,50,4,5,,,7,,16,,12,,,1,,,1,3,,1,,
551651,1,208,85,5,14,4,8,10,2,7,1,17,1,6,5,1,,2,,,1,,1
554481,24,252,80,2,15,2,4,30,,11,,5,2,,,1,1,1,6,,,,
554481,23,211,65,5,3,1,,31,,11,,7,,1,,,,3,3,,,,
554481,22,421,85,4,17,,5,14,,10,,7,,2,,5,,11,8,,2,,
554481,21,776,245,12,49,6,3,67,4,45,2,11,1,6,2,9,1,15,8,,3,1,
554481,20,728,246,8,61,3,5,75,3,36,5,17,2,1,,5,1,14,5,,5,,
554481,19,743,208,21,30,11,2,50,1,25,4,15,3,3,,10,,11,18,,4,,
554481,30,1040,299,13,31,11,8,84,5,64,4,23,,1,,5,1,31,11,,4,3,
554481,29,535,185,21,19,2,1,69,,25,5,15,6,,1,6,,9,3,,3,,
554481,28,145,24,1,3,,1,2,1,10,,,,,,,,6,,,,,
554481,4,1030,159,17,20,6,5,53,2,26,1,5,,,2,2,1,8,10,,1,,
554481,3,719,250,42,36,15,5,54,3,27,8,17,7,,2,8,,9,13,,4,,
554481,2,787,194,21,27,13,7,43,1,17,5,10,6,,2,11,,7,14,1,9,,
554481,1,1660,204,34,31,8,5,46,1,16,8,16,,1,1,4,,10,14,1,8,,
554481,13,882,227,21,35,12,7,55,2,31,4,23,,1,,2,,16,14,,3,,1
554481,12,740,208,15,43,11,4,44,2,44,1,11,3,3,,5,,12,7,,3,,
554481,11,573,139,13,19,5,3,48,3,22,3,6,,3,,,,9,3,,2,,
554481,10,662,170,22,23,5,8,38,6,26,2,11,1,2,,3,,6,15,,2,,
554481,9,691,230,21,39,3,5,73,1,28,8,19,2,4,3,3,1,10,6,3,1,,
554481,8,733,205,17,36,13,8,36,5,27,4,17,6,,1,2,2,17,8,2,3,,1
554481,7,891,256,16,32,15,6,74,2,56,2,10,1,1,1,1,1,19,14,1,3,,1
554481,6,613,196,13,48,15,4,54,2,21,5,12,1,,1,3,,12,5,,,,
554481,5,727,168,16,26,5,1,44,2,29,2,19,,4,,1,2,5,6,,6,,
554481,18,588,195,17,43,7,1,53,4,22,6,12,3,6,1,2,1,6,8,,3,,
554481,17,803,243,23,27,6,9,66,6,33,2,31,3,1,,2,2,15,15,,1,,1
554481,16,1065,304,25,58,31,5,71,3,27,9,23,1,1,,11,,14,21,,3,1,
554481,15,1476,417,26,75,18,8,117,9,41,2,36,3,2,1,7,5,29,22,4,10,1,1
554481,14,1312,312,35,50,18,11,86,7,39,2,12,1,4,1,7,,16,12,,11,,
554481,27,829,315,32,38,20,27,72,1,50,5,37,2,4,2,2,1,13,7,,1,,1
554481,26,674,233,20,57,8,3,66,2,35,2,7,1,1,,9,3,12,3,,4,,
554481,25,808,220,15,39,6,7,65,2,40,,17,2,1,2,3,1,9,5,1,4,1,
554481,32,973,287,13,53,8,5,69,2,66,5,12,4,1,1,6,1,20,11,1,8,1,
554481,31,174,61,3,3,,,35,1,7,1,4,1,,,,,4,1,,,1,
554499,8,686,219,14,17,,7,37,3,28,,2,62,6,2,19,,9,11,1,,,1
554499,7,800,269,9,14,,7,59,1,17,3,12,111,5,1,9,1,2,16,,,,2
554499,6,813,189,10,12,,3,29,3,17,,3,71,7,1,6,3,8,12,,4,,
554499,5,551,73,7,1,,2,19,1,13,,,21,1,,4,,,3,1,,,
554499,4,735,159,3,28,,1,24,3,21,,2,58,5,1,3,,4,5,,1,,
554499,3,1059,239,8,22,,1,40,4,30,,6,94,4,1,2,,12,11,,,3,1
554499,2,564,137,5,9,,5,21,1,19,1,,47,5,,7,,4,6,1,4,1,1
554499,1,756,199,9,11,3,2,27,2,20,1,3,98,2,,9,1,7,3,,1,,
554499,14,163,54,2,1,,,7,,20,,1,12,2,,2,,2,3,,1,,1
554499,13,244,58,1,1,,1,14,,10,,5,17,2,,3,,3,1,,,,
554499,12,461,132,3,13,2,3,23,1,14,,3,50,2,,4,,9,4,,1,,
554499,11,1506,227,5,23,,9,51,2,21,1,3,77,5,1,11,2,7,6,,2,1,
554499,10,640,173,6,22,,2,28,5,28,2,7,48,,,8,,9,5,,3,,
554499,9,835,239,2,19,,4,41,2,20,1,12,97,4,2,12,2,7,12,,1,,1
554502,1,954,290,14,23,2,7,70,,102,1,10,5,1,4,3,3,11,27,1,5,,1
554511,1,784,252,17,19,1,14,44,12,25,,59,5,3,1,,,11,34,2,5,,
554529,5,853,219,27,18,8,5,60,1,20,2,24,3,10,2,4,2,11,14,2,6,,
554529,4,862,273,34,26,20,2,72,2,31,4,19,3,9,1,5,,23,14,3,4,,1
554529,3,956,265,12,46,16,7,76,1,27,2,17,4,13,,4,,20,14,4,2,,
554529,2,998,317,28,49,12,,87,2,41,8,28,6,6,1,4,1,17,18,1,7,,1
554529,1,292,76,7,4,3,,34,,8,,6,,1,,1,,5,6,,1,,
554529,6,383,117,16,8,3,,40,2,13,1,8,2,3,1,1,,8,8,,2,,1
554545,1,1241,313,16,16,5,7,109,3,48,4,26,15,4,1,14,3,23,16,1,,2,
554553,3,282,64,,17,,5,9,,6,,1,18,,,1,,2,2,,3,,
554553,2,601,178,18,34,1,8,24,1,26,4,3,40,3,,2,1,9,2,,2,,
554553,1,821,141,7,7,,1,41,2,28,1,5,32,,,3,,3,8,1,2,,
554596,1,213,80,2,22,,,25,1,18,1,3,7,,,,,1,,,,,
554600,1,1203,285,13,45,1,4,75,4,58,1,15,16,3,1,2,,16,29,1,,,1
554618,1,599,181,8,28,,3,47,1,27,4,8,7,,7,4,,24,13,,,,
554626,1,595,151,23,28,5,3,33,1,26,,13,1,1,,,3,8,4,,2,,
554634,2,1171,275,8,55,1,9,82,10,32,5,34,2,1,,5,1,23,2,,5,,
554634,1,649,144,8,31,,4,41,,18,3,11,5,7,2,2,1,9,1,,1,,
554642,5,912,79,3,9,1,,13,,4,1,7,2,,,,,3,35,,,1,
554642,4,439,100,9,9,2,3,14,1,3,,17,2,,,,,2,37,,1,,
554642,3,33,19,,,,,5,,3,,5,1,1,,,,,4,,,,
554642,2,647,196,4,19,2,4,58,2,15,3,25,1,3,1,,1,5,52,,1,,
554642,1,628,253,22,18,6,7,81,1,11,1,21,4,,2,,,12,66,,1,,
554642,17,591,198,16,28,,10,38,,30,8,10,1,,1,1,1,4,48,,,,2
554642,16,756,228,14,25,3,4,49,,35,,17,2,4,1,1,1,11,57,1,3,,
554642,15,802,259,27,22,,2,51,,27,5,30,2,1,2,,,14,73,,2,,1
554642,14,661,206,16,19,2,1,44,1,20,,20,5,2,2,2,,12,56,,2,,2
554642,13,770,203,14,17,2,5,50,4,20,3,7,1,1,1,,,7,71,,,,
554642,12,574,139,8,17,2,2,36,,17,1,3,,,2,,,10,41,,,,
554642,11,742,247,21,20,6,5,59,1,26,1,15,2,,1,3,1,10,75,,1,,
554642,10,830,213,9,19,3,13,48,1,16,,13,3,1,,3,,8,76,,,,
554642,9,736,234,22,18,,2,52,,17,7,19,,,,3,1,9,83,,1,,
554642,8,583,176,14,22,8,4,26,,13,4,18,,2,1,,,4,60,,,,
554642,7,652,157,15,23,5,5,32,,7,3,22,1,,,3,,6,35,,,,
554642,6,535,147,14,17,3,1,22,1,14,3,15,2,1,3,,1,5,44,,,,1
554651,1,251,23,1,6,,3,2,,5,,4,1,,,,,1,,,,,
554677,1,338,78,2,18,,,15,,22,1,3,2,,,2,,1,11,,1,,
554693,1,282,106,9,17,,,27,,20,,2,3,4,1,,,15,3,1,4,,
554707,1,416,157,9,76,2,2,15,2,14,,18,,4,,,,11,4,,,,
554740,1,1568,464,13,138,2,1,86,2,53,3,116,2,,3,1,1,36,4,,3,,
554812,1,1518,386,27,84,5,6,96,2,51,4,24,6,1,5,4,,49,18,1,2,,1
554855,1,316,75,4,6,,2,22,,18,,10,,,,,,2,11,,,,
554880,1,750,202,14,17,8,4,62,,24,,17,7,1,,1,,12,34,,,,1
554961,50,715,326,33,49,7,17,64,4,19,2,46,20,4,6,6,,19,21,1,7,,1
554961,49,240,87,6,11,4,5,17,5,6,1,17,3,2,,1,,4,4,1,,,
554961,48,1094,417,32,48,17,6,100,4,51,2,68,7,15,16,6,1,18,23,,3,,
554961,47,1032,359,22,42,19,18,98,5,22,4,60,11,7,6,2,2,20,16,1,4,,
554961,46,944,401,26,62,19,8,103,3,47,6,52,14,5,6,2,1,23,20,,4,,
554961,45,1073,361,23,48,23,16,82,4,39,9,42,4,12,13,,2,21,17,1,5,,
554961,44,867,343,28,43,13,12,84,4,33,2,60,7,9,13,1,,14,12,2,6,,
554961,43,1001,415,26,48,18,27,90,3,33,6,89,4,10,5,9,1,22,14,,8,,2
554961,42,1066,377,12,30,26,22,86,2,38,4,54,11,9,10,7,1,27,32,1,5,,
554961,41,820,330,19,35,6,10,87,,26,4,75,12,11,6,5,2,11,18,,2,,1
554961,40,869,346,22,18,13,26,75,4,35,2,71,8,13,13,2,1,19,24,,,,
554961,39,638,277,22,44,12,15,61,3,39,3,25,3,5,8,2,2,13,15,,2,,3
554961,38,685,259,17,39,9,18,60,3,28,2,33,7,10,6,4,1,7,13,,1,1,
554961,37,743,273,16,30,10,15,65,3,40,,46,10,3,4,,1,10,17,2,1,,
554961,36,723,294,17,49,19,10,58,1,32,1,43,5,6,13,2,,14,18,2,2,,2
554961,35,661,226,11,23,7,17,53,3,12,7,34,7,5,8,9,2,10,15,1,2,,
554961,34,536,141,9,12,4,8,31,,10,1,31,2,4,6,2,1,13,3,2,1,1,
554961,19,624,282,26,35,19,21,39,2,33,3,49,3,5,5,3,,14,23,,2,,
554961,18,770,353,34,30,49,16,61,2,14,2,67,12,5,12,3,,16,26,,4,,
554961,17,491,200,20,20,23,14,22,3,9,,49,8,4,4,2,,7,14,,1,,
554961,16,506,187,9,40,14,4,41,,15,2,37,,1,5,1,1,8,7,,1,,1
554961,15,759,284,16,49,12,11,62,3,33,,43,9,4,10,6,1,7,15,1,1,,1
554961,14,826,376,32,50,25,23,72,3,43,3,55,5,3,8,4,,9,38,,1,1,1
554961,33,694,266,12,36,28,21,66,2,23,2,30,6,3,6,8,,7,9,,4,2,1
554961,32,1134,421,35,39,21,20,100,4,43,,59,14,6,13,,6,28,21,3,7,,2
554961,31,1019,351,25,46,12,9,79,7,38,1,44,10,10,7,10,,24,18,3,8,,
554961,30,1039,368,8,67,22,11,80,4,43,1,62,11,4,3,7,,19,19,1,4,,2
554961,29,857,298,47,29,16,15,57,2,25,1,43,12,7,11,7,2,10,11,,3,,
554961,5,370,111,7,6,4,5,21,2,17,,23,1,2,3,1,,8,7,,3,1,
554961,4,488,171,10,14,14,8,39,1,20,1,29,5,3,1,,,3,20,,3,,
554961,3,328,112,10,11,7,2,24,1,12,2,17,1,5,,,,4,15,,1,,
554961,2,673,290,26,32,26,11,56,1,14,6,55,8,4,5,5,,18,19,,2,1,1
554961,1,2703,255,35,19,12,12,41,2,20,8,42,10,4,9,,,18,17,1,5,,
554961,9,643,217,23,25,17,7,36,,15,,44,6,6,7,2,,7,22,,,,
554961,8,684,250,32,12,22,13,42,2,21,4,54,1,4,11,4,,4,22,,2,,
554961,7,340,126,6,11,4,6,27,4,18,1,32,3,3,1,,,9,,1,,,
554961,6,684,243,33,27,11,5,40,3,25,4,52,4,2,9,6,1,7,13,,1,,
554961,13,642,291,38,30,9,19,53,1,26,4,53,3,9,14,3,,11,14,,4,,
554961,12,382,194,15,22,14,4,25,,9,5,60,8,,,5,1,12,13,,1,,
554961,11,551,257,53,18,5,4,44,2,21,3,60,5,5,14,2,1,4,15,,1,,
554961,10,268,80,12,8,7,2,8,2,4,7,19,1,3,2,1,,2,1,,1,,
554961,25,741,249,21,34,14,11,63,6,25,2,33,5,3,7,1,,9,14,,1,,
554961,24,766,378,40,52,19,31,97,,25,1,67,10,4,7,2,,7,14,1,1,,
554961,23,741,264,15,36,19,10,67,,21,2,54,4,7,3,,1,12,9,1,2,,1
554961,22,1016,391,28,70,22,22,99,3,37,3,60,3,3,12,,,6,12,1,4,,6
554961,21,903,322,19,35,21,9,63,2,35,5,59,12,12,12,1,,18,17,1,1,,
554961,20,881,268,23,36,20,15,53,2,19,2,44,11,2,5,3,1,16,13,,2,,1
554961,28,675,167,18,20,8,15,44,3,13,5,13,8,1,2,4,,3,7,,,3,
554961,27,523,220,24,29,22,5,41,2,16,2,31,7,9,7,,1,5,16,,2,,1
554961,26,838,361,27,30,26,21,87,2,22,6,62,6,7,15,1,1,19,19,4,5,,1
554979,1,805,191,16,20,7,34,36,,13,1,6,23,1,5,5,6,10,5,1,1,,1
554995,1,789,300,7,23,6,10,57,1,28,6,70,58,2,4,4,2,8,7,1,3,,3
555029,1,1642,554,28,50,3,6,54,,48,,21,304,4,7,,1,11,3,5,9,,
555045,1,475,123,3,16,,2,23,3,15,4,15,16,1,,,3,12,4,2,4,,
555169,1,307,100,24,7,12,3,8,,13,1,9,8,,,,,9,2,,4,,
555185,1,1564,435,23,40,7,19,76,4,42,8,28,94,1,37,,,28,16,3,7,,2
555207,1,460,186,13,12,7,2,79,3,24,,16,4,2,6,3,,11,4,,,,
555215,3,713,197,12,31,7,7,32,1,34,1,29,2,5,9,4,,14,3,1,3,1,1
555215,2,670,167,12,41,3,2,30,2,24,1,27,5,,2,1,,13,2,1,,,1
555215,1,709,142,10,16,7,4,28,1,6,,45,4,1,5,,2,3,7,,2,,1
555258,1,573,237,22,43,10,10,23,3,9,5,60,13,5,10,3,1,4,16,,,,
555304,1,346,104,7,8,1,5,34,,21,1,7,3,,1,,1,3,7,3,2,,
555347,1,654,201,13,10,8,2,40,1,22,1,19,4,3,58,1,2,7,6,1,1,1,1
555363,1,819,221,8,27,6,14,46,6,20,2,15,9,1,35,3,5,11,9,2,2,,
555380,13,106,53,2,1,2,,11,,1,,6,6,,,12,,9,2,,1,,
555380,12,665,157,11,27,2,6,42,1,8,1,22,5,3,3,5,,15,4,,1,,1
555380,11,382,89,8,8,1,,27,,7,,11,2,2,2,2,,10,7,1,1,,
555380,10,105,21,3,2,,,4,,,,7,,,2,,,1,,,2,,
555380,9,225,51,,6,,1,9,,7,1,5,8,,2,,1,9,2,,,,
555380,8,436,142,14,21,3,1,34,1,7,7,15,7,1,1,3,1,20,3,,3,,
555380,7,639,157,7,26,1,6,40,,25,3,15,11,,,5,1,15,1,,1,,
555380,6,531,164,8,16,,5,41,1,18,6,18,4,2,3,6,,19,12,1,4,,
555380,5,417,115,4,11,1,1,34,5,5,5,12,6,,1,8,,15,1,,4,2,
555380,4,666,172,1,32,1,1,44,2,14,5,23,6,,6,11,,13,5,1,6,,1
555380,3,1133,202,21,14,3,5,48,1,21,4,25,4,2,3,7,,26,5,,13,,
555380,2,439,100,2,20,4,4,20,,5,4,6,6,,,10,1,16,,,2,,
555380,1,588,153,1,16,2,2,53,,7,5,25,2,1,1,11,1,16,3,,6,,1
555398,2,1414,451,19,52,10,9,91,1,48,7,122,27,7,7,3,4,16,12,3,13,,
555398,1,806,318,17,57,4,9,50,3,22,8,77,13,3,9,4,4,18,7,3,8,,2
555398,4,355,146,10,19,2,10,27,,9,1,45,7,,6,1,,3,5,1,,,
555398,3,861,315,17,46,9,6,75,4,23,2,79,9,3,12,1,1,15,6,2,4,,1
555428,9,1003,377,39,99,11,21,50,2,36,3,40,9,1,18,7,1,22,14,3,,,1
555428,8,1166,353,26,81,9,9,56,6,44,4,28,6,4,26,3,2,21,20,4,2,1,1
555428,7,730,293,27,78,4,15,55,1,24,2,17,12,1,24,2,1,15,10,1,4,,
555428,6,674,231,22,56,6,11,49,,18,,20,3,3,17,2,,14,5,2,3,,
555428,5,807,282,30,70,1,17,49,,28,2,16,4,,23,1,1,21,12,3,3,1,
555428,4,838,308,26,55,9,8,69,4,40,3,14,9,3,28,3,4,14,16,,3,,
555428,3,738,277,22,57,12,4,42,1,25,2,29,3,3,19,4,1,27,14,,12,,
555428,14,685,195,23,35,3,7,32,4,25,3,14,8,,11,3,1,16,8,,2,,
555428,13,984,307,31,64,3,21,58,1,26,4,22,8,2,32,3,,19,9,2,,,2
555428,12,979,337,41,89,6,11,63,,36,5,16,10,3,20,1,3,16,12,1,3,,1
555428,11,1028,316,27,77,9,9,65,2,40,4,30,2,1,17,1,4,18,6,2,2,,
555428,10,1033,401,46,60,11,12,68,1,41,1,47,12,2,32,7,9,29,22,1,,,
555428,2,1105,320,53,52,13,8,74,4,29,6,28,7,1,19,,,11,8,1,4,,2
555428,1,1855,394,72,59,12,13,58,3,39,3,37,11,2,36,4,2,19,20,2,1,1,
555444,1,388,121,6,10,,3,17,1,20,,46,8,1,,,,4,1,,3,1,
555452,1,529,178,15,12,9,41,38,3,8,2,25,4,,5,,1,8,5,,2,,
555479,1,247,78,11,14,4,13,2,1,7,,5,1,,6,,1,9,1,,3,,
555525,1,481,86,2,17,3,,21,,11,1,10,3,,3,,,7,5,1,2,,
555533,2,242,77,2,4,,2,12,,3,,10,,2,37,,,,3,,2,,
555533,1,753,366,26,30,18,8,43,4,18,6,32,6,6,140,2,4,9,8,1,2,,3
555550,1,505,147,15,8,8,12,32,,9,,18,16,1,4,8,,9,5,1,,1,
555584,1,385,93,4,12,5,3,17,,8,,7,3,,12,,2,9,8,,2,,1
555584,2,81,30,3,1,2,,10,,4,,,4,,2,,,,2,,2,,
555592,1,446,153,11,6,7,4,30,,14,2,37,15,,,1,,10,14,,1,,1
555614,1,509,187,19,17,10,5,16,1,22,2,19,2,,54,1,,8,5,,4,,2
555622,1,468,100,6,8,1,2,23,2,14,,3,25,1,,1,1,9,4,,,,
555631,3,773,214,15,29,7,4,55,5,55,3,17,2,1,2,4,,6,9,,,,
555631,2,896,201,13,23,2,3,36,,61,3,20,7,1,,2,,11,16,1,1,,1
555631,1,722,114,5,20,2,2,25,1,33,,4,2,,2,2,,8,8,,,,
555657,3,764,215,24,21,6,23,40,4,26,3,20,19,1,5,,1,9,9,1,2,,1
555657,2,967,191,9,25,3,17,51,1,38,,16,14,1,2,1,1,5,4,,2,,1
555657,1,1282,335,13,61,6,24,93,4,61,4,13,20,,1,4,2,13,8,,8,,
555681,1,454,148,7,22,4,,19,2,24,,7,41,2,2,2,,2,9,,3,,2
555690,1,290,85,5,1,1,,20,1,18,1,12,1,,,,,1,18,1,2,1,2
555703,1,446,179,7,11,5,5,18,,6,,6,2,1,98,,,12,6,,2,,
555711,1,409,125,,6,2,2,14,1,23,2,62,2,,1,,2,4,,1,2,,1
555738,2,181,72,,17,6,,14,,9,,,1,,16,,,1,3,,5,,
555738,1,326,111,8,11,4,4,9,1,11,,3,,2,49,1,,4,3,,,,1
555762,2,1052,259,12,27,3,4,41,3,35,2,59,42,,6,1,,11,8,,4,,1
555762,1,959,233,7,37,6,3,44,2,27,1,27,42,1,7,1,,11,5,5,5,1,1
556947,1,421,167,9,32,6,8,33,3,18,2,18,10,4,6,2,,8,5,,2,1,
560286,3,962,197,28,19,2,11,63,2,18,4,12,,2,4,,,16,11,,5,,
560286,2,1688,286,38,39,6,6,76,5,36,4,25,8,4,7,1,1,14,9,1,6,,
560286,1,905,286,35,51,3,7,72,5,33,4,24,4,1,3,2,1,17,18,,3,2,1
560286,19,814,234,15,47,2,11,70,2,32,3,9,7,2,1,2,,18,10,,2,1,
560286,18,991,307,32,57,,19,95,4,41,4,10,6,1,4,1,2,12,11,,7,1,
560286,17,801,240,24,39,4,6,66,7,43,4,6,10,3,1,,1,15,9,,1,1,
560286,16,751,154,9,31,2,4,30,2,30,1,4,8,1,3,1,,16,5,1,5,,1
560286,15,679,217,12,44,3,12,70,5,27,4,6,2,1,1,1,,16,6,,6,1,
560286,14,914,254,16,48,1,11,62,9,48,5,7,9,1,1,6,,15,12,,3,,
560286,13,677,193,13,38,3,9,52,,35,2,1,2,1,1,,1,21,12,,2,,
560286,12,707,186,19,50,,,40,5,32,2,3,6,1,,3,,20,4,,,1,
560286,11,904,258,19,44,2,12,83,6,38,6,3,5,1,2,1,1,24,5,,6,,
560286,10,979,248,20,47,2,10,60,6,35,3,11,5,,7,2,1,18,12,,5,3,1
560286,9,974,155,13,33,3,10,43,1,14,,11,1,1,3,1,,9,6,1,5,,
560286,8,860,225,46,36,4,5,50,1,28,7,8,5,4,8,,3,11,4,,5,,
560286,7,910,339,51,63,3,13,76,4,33,3,23,11,5,4,7,1,19,20,,3,,
560286,6,725,273,34,48,3,11,68,1,27,7,17,7,6,4,,2,22,13,,1,,2
560286,5,712,261,33,47,3,11,72,1,41,4,13,7,,7,2,,10,4,1,2,1,2
560286,4,814,322,42,49,3,9,104,1,36,5,7,13,3,9,1,4,16,14,2,4,,
560294,2,1196,365,29,49,,12,89,3,81,3,23,17,1,7,2,2,21,9,,14,3,
560294,1,1087,293,15,52,3,20,68,3,56,3,15,3,3,17,2,2,19,4,,4,4,
560308,1,333,91,5,6,1,9,24,2,8,1,6,18,3,2,,1,3,1,,1,,
560316,1,1289,240,9,46,,2,65,,28,,37,3,2,4,1,3,23,4,,10,3,
560324,1,728,202,21,36,,7,47,2,38,1,6,1,1,1,5,1,25,9,,1,,
560332,1,234,52,3,3,,10,4,1,7,2,5,1,,,1,2,5,,,8,,
560341,1,264,100,8,17,2,5,12,1,10,9,8,4,,,,,8,2,,14,,
560359,5,494,182,23,24,4,3,52,6,22,3,6,11,1,,2,1,14,5,1,4,,
560359,4,542,154,14,30,3,8,34,2,14,1,7,3,2,,1,1,17,12,,5,,
560359,3,996,155,11,37,,2,35,2,35,1,7,2,2,1,1,,11,4,,4,,
560359,2,884,219,20,66,,5,47,5,31,6,4,1,1,2,1,,16,4,,10,,
560359,1,1182,214,32,36,,6,46,5,28,1,8,6,3,4,2,2,17,8,,10,,
560367,3,840,246,20,30,7,9,96,2,26,4,17,2,4,1,2,,14,8,,4,,
560367,1,810,247,38,18,7,13,74,3,24,8,16,13,2,,2,,12,13,,4,,
560367,5,1023,290,24,40,,9,117,4,23,4,18,7,1,3,3,,8,19,1,9,,
560367,4,1074,215,18,24,4,8,90,3,30,1,6,3,2,3,4,,6,11,,1,,1
560375,1,252,86,4,37,,5,15,,3,,7,,,1,,,6,3,,3,2,
560383,10,948,239,15,27,4,2,56,1,20,10,12,60,1,3,2,,19,2,3,1,,1
560383,9,1035,213,14,27,5,2,55,2,18,3,9,50,1,3,1,,13,6,,4,,
560383,8,1083,288,6,32,4,9,69,1,24,8,11,70,2,4,3,2,21,13,1,7,,1
560383,7,1178,177,6,28,3,,37,4,20,,2,44,1,1,,2,17,6,2,4,,
560383,6,1067,325,14,32,3,7,72,4,28,5,17,95,5,6,2,1,17,6,2,8,1,
560383,5,909,193,7,23,7,1,44,1,16,3,10,39,1,2,2,2,24,6,1,4,,
560383,4,1347,392,20,53,3,7,64,4,34,6,16,126,2,5,1,1,25,15,,7,1,2
560383,3,1513,279,7,40,4,3,50,1,21,8,10,100,2,3,,1,17,6,1,4,,1
560383,2,971,291,12,30,2,10,58,5,14,1,18,111,6,4,1,,7,8,2,2,,
560383,1,928,274,12,33,1,2,49,1,31,4,12,87,2,3,,2,23,5,1,4,,2
560383,11,228,81,5,3,,2,15,,6,2,6,32,,,1,,4,3,,1,1,
560413,1,397,132,3,7,,4,32,1,9,4,44,6,1,6,,1,9,3,,2,,
560421,1,369,100,5,23,1,,34,5,10,,5,3,,,3,,1,2,1,7,,
560456,1,742,188,19,16,3,9,49,3,25,7,7,9,2,7,4,1,18,4,,4,1,
560464,1,650,193,19,38,1,2,57,1,17,6,16,4,1,2,,3,7,9,1,7,2,
560472,8,490,151,10,17,2,13,36,3,22,,1,14,3,1,2,3,17,2,,4,,1
560472,7,442,111,3,13,3,4,34,1,4,,10,22,,1,,2,7,4,,3,,
560472,6,714,211,20,21,4,24,69,3,25,5,5,18,,,,,11,1,,5,,
560472,5,577,146,6,22,,17,36,1,22,2,6,17,1,,,1,8,5,,2,,
560472,4,964,168,14,16,1,13,48,9,13,4,7,22,1,1,,1,13,2,,1,1,1
560472,3,785,211,4,26,,28,56,3,33,1,6,14,3,,4,2,19,4,2,6,,
560472,2,822,191,8,22,2,20,59,4,25,1,11,16,,1,,,8,2,,11,,1
560472,1,818,254,17,20,,23,69,3,33,3,15,26,2,1,1,3,16,8,,14,,
560499,5,125,17,1,1,,,6,,3,,4,,,,,,1,,,,,1
560499,4,967,297,36,55,3,6,88,2,42,8,15,3,2,3,2,,15,7,,4,5,1
560499,3,752,227,15,53,,10,60,3,37,7,10,1,2,1,4,1,8,9,2,2,1,1
560499,2,1080,208,15,33,4,9,67,5,23,4,10,4,1,3,,1,14,7,,4,1,3
560499,1,1064,351,31,75,2,10,108,5,39,4,19,7,,,2,3,26,10,3,6,,1
560502,1,495,126,6,9,,6,36,3,15,2,25,,,,3,,10,5,,3,3,
560537,2,1276,409,34,58,6,11,90,3,21,5,63,19,5,11,19,2,32,21,1,7,,1
560537,1,1211,384,52,37,8,5,66,6,25,8,94,9,1,5,11,,24,28,1,4,,
560545,1,1026,333,30,52,,22,58,2,38,6,10,66,2,3,,2,17,13,,9,2,1
560561,1,184,33,,7,2,2,9,1,1,,2,,,,,5,1,2,,1,,
560570,4,521,150,4,26,1,3,55,3,12,,13,11,1,1,1,,13,,1,5,,
560570,3,216,61,3,14,1,1,13,2,7,,5,5,1,,2,,5,,1,1,,
560570,2,759,89,3,20,2,4,15,1,14,,3,9,1,,,,5,,,11,,1
560570,1,619,147,10,21,1,11,39,2,11,3,9,18,,1,1,,14,4,,2,,
560588,2,421,110,1,21,1,3,46,1,23,2,1,4,,,,1,4,,2,,,
560588,1,980,201,9,21,5,8,81,2,32,2,8,5,2,,2,,11,5,,6,,2
560596,1,66,30,2,2,,,5,1,5,1,12,,,,1,,1,,,,,
560600,3,246,41,6,6,,2,7,,8,,2,2,,2,2,,2,1,,1,,
560600,2,940,253,3,56,,3,73,2,66,,2,17,2,1,2,1,12,5,1,7,,
560600,1,1331,372,10,96,2,3,67,2,102,3,19,23,2,1,1,4,21,9,,6,1,
560618,1,273,73,3,10,,2,6,,7,,34,2,,,1,,8,,,,,
560642,1,688,241,29,32,1,5,83,4,24,2,9,12,3,3,4,2,20,6,1,1,,
560651,1,377,108,4,7,2,9,24,,13,2,4,26,1,,,,11,2,,3,,
560677,1,268,110,7,36,1,10,26,,8,2,4,3,,,,1,3,1,1,7,,
560685,1,900,229,8,34,2,4,67,2,16,2,6,70,1,1,2,,10,1,,3,,
560707,1,326,38,,4,,,4,3,6,,11,1,,3,,,1,2,,3,,
566675,1,148,33,,4,,,11,,9,,9,,,,,,,,,,,
577979,1,125,49,2,13,1,,9,1,15,,4,,1,,,,1,1,,,,1
578002,1,127,26,4,4,,,4,,2,,3,2,,,,1,1,3,,,1,1
578011,1,88,27,,5,,,9,1,4,1,3,1,,,,,,2,,1,,
578029,1,255,94,7,3,1,2,21,1,4,2,19,3,,,13,,11,6,,1,,
578045,1,251,136,10,16,3,4,22,1,2,2,10,,,50,1,1,11,2,,,,1
579360,1,176,76,3,11,3,7,28,,4,,7,1,,5,1,,2,2,,2,,
