A53,A7,A47,A720,A768,A1,A1114,A997,A998,A999,B1,B1114,B720,B1467,B7,B768,B1457,B1445,B997,B998,B999
39,4,4,13,67,33,17,18,15,54,37,6,14,3,2,24,11,25,9,0,133
9,3,1,6,23,13,9,11,0,35,14,1,1,5,3,14,1,3,8,5,55
5,13,11,7,17,10,9,8,0,32,9,4,3,1,1,9,4,6,18,8,49
7,8,10,9,40,23,13,10,9,61,22,0,4,9,5,17,6,3,9,0,115
14,12,15,7,36,56,19,15,4,83,42,2,10,4,4,16,15,9,8,0,151
9,26,27,9,103,8,31,27,6,155,7,16,8,3,13,51,6,9,13,0,275
20,4,9,7,24,5,9,8,0,46,0,7,7,16,1,13,8,12,2,1,65
6,23,27,11,50,6,30,16,8,156,8,15,17,1,6,19,25,6,18,0,218
49,58,66,30,186,10,88,55,1,328,11,18,33,11,16,80,40,26,33,0,603
68,56,42,54,211,35,90,79,0,389,34,39,45,24,8,79,36,44,40,22,653
21,17,11,17,46,38,21,45,19,89,63,6,18,9,8,26,7,13,23,0,151
83,62,49,71,193,64,97,115,0,436,44,22,63,19,25,93,101,46,27,30,700
2,1,8,2,8,2,4,6,0,20,2,3,3,1,0,7,2,1,0,1,33
1,7,8,3,18,13,10,9,4,39,11,1,9,3,0,12,6,2,1,0,67
0,9,20,5,51,3,11,5,1,54,4,0,1,0,3,18,1,1,31,0,100
8,9,17,22,79,25,30,10,0,96,44,12,23,3,2,20,4,9,10,4,165
3,1,5,2,9,31,5,8,0,24,40,0,4,2,0,5,2,0,2,2,31
4,2,9,3,55,9,22,16,5,76,11,10,3,1,1,26,2,2,10,0,135
6,23,19,11,40,14,30,14,5,133,9,11,15,3,15,33,13,6,11,0,179
31,27,36,30,77,19,31,36,26,162,28,22,23,11,21,35,12,22,24,0,277
24,15,27,17,58,29,21,20,17,126,32,2,13,4,11,33,9,13,15,0,222
6,11,12,6,32,19,17,16,0,91,21,11,8,3,2,24,3,5,7,1,125
39,68,32,34,112,44,56,51,17,184,51,29,25,14,33,24,30,27,25,0,379
12,4,8,6,50,4,14,13,0,72,14,3,8,1,3,21,6,6,0,11,110
14,15,36,28,131,19,44,44,0,183,16,14,27,11,5,56,21,33,11,1,319
6,8,14,7,23,13,23,12,5,88,12,10,4,2,3,9,10,6,11,0,132
72,52,20,49,148,70,81,76,119,313,107,23,55,15,31,67,34,59,34,0,575
4,2,2,0,8,1,5,5,2,18,0,1,2,0,3,2,5,5,4,0,25
1,0,5,9,7,6,7,4,0,26,4,3,8,0,1,3,2,2,6,7,29
14,14,23,15,34,2,32,9,0,82,9,12,7,3,4,15,9,9,5,2,150
3,12,11,11,28,11,4,10,4,45,12,0,14,3,5,18,0,6,9,0,72
27,12,27,21,70,14,32,21,14,177,11,12,15,3,16,33,12,24,18,0,271
54,70,45,48,201,35,108,71,42,402,40,23,58,20,20,106,36,48,44,0,681
40,18,25,20,54,6,30,33,2,118,13,8,16,21,5,19,12,22,3,0,227
44,29,37,30,66,17,43,40,3,189,21,17,33,9,18,36,9,32,20,0,303
13,17,27,6,68,14,56,15,10,159,14,9,10,4,8,23,5,5,15,0,292
44,32,55,54,214,57,81,87,6,392,49,27,51,12,10,122,14,64,36,0,637
35,27,32,28,93,11,39,24,0,119,11,12,14,9,9,55,11,24,27,12,224
25,33,36,23,63,13,32,18,0,173,9,13,16,4,12,23,9,17,15,38,260
67,29,35,38,109,39,42,41,31,165,56,15,35,13,6,54,17,51,27,0,322
35,36,55,33,88,38,53,47,0,199,33,7,33,6,16,64,9,28,32,16,340
42,28,26,34,72,24,27,35,0,172,19,14,25,10,11,30,12,38,22,9,270
29,34,44,33,62,25,25,37,6,153,24,14,37,7,17,37,7,30,30,0,245
42,38,59,47,96,21,41,50,5,717,22,15,31,5,18,51,13,24,43,0,894
28,25,28,10,68,10,26,31,0,191,17,7,19,8,7,32,4,29,14,19,261
54,21,42,31,67,14,21,34,0,151,22,11,28,12,13,25,13,31,22,6,252
57,62,63,65,133,40,55,70,0,299,51,23,39,15,30,60,24,61,35,32,474
21,24,30,26,74,15,27,23,0,173,13,12,18,1,6,36,10,18,19,7,273
28,38,18,24,90,12,29,31,0,128,19,11,28,4,10,40,8,12,17,10,239
35,52,33,12,106,34,27,22,0,139,35,10,21,1,24,53,17,26,19,14,240
50,52,44,63,122,29,63,61,0,264,39,20,53,14,15,58,16,39,37,41,416
55,43,42,49,128,16,33,42,0,164,18,8,33,13,14,61,12,35,28,52,298
52,49,21,43,107,42,30,37,0,200,39,9,35,12,15,60,10,37,20,8,336
53,61,49,74,130,38,55,62,0,254,50,13,48,9,17,59,15,43,36,35,451
62,32,32,74,135,49,65,68,0,320,42,18,55,20,28,42,16,48,18,14,536
27,40,26,31,68,25,47,32,0,331,30,10,30,5,15,33,11,12,12,29,440
23,35,46,26,72,12,33,31,0,295,21,5,25,1,9,47,11,21,21,22,390
35,36,42,41,83,20,35,49,4,133,25,18,37,3,14,35,20,39,29,0,258
43,22,59,14,65,9,30,22,15,83,22,15,22,3,18,45,7,24,27,0,179
38,30,44,22,100,21,42,42,0,164,20,16,26,9,10,52,20,44,27,14,265
47,32,39,31,96,31,40,53,0,169,30,14,39,9,9,41,13,35,26,16,306
13,20,11,16,38,19,9,24,4,58,13,2,19,1,11,18,11,18,7,0,112
99,35,58,50,117,25,71,67,56,226,39,26,62,14,21,56,28,96,58,0,404
35,25,28,33,55,19,35,31,0,101,17,7,28,5,5,38,11,23,33,4,191
71,68,83,56,184,32,101,113,0,415,54,34,55,19,26,90,26,52,58,50,659
47,55,59,43,158,29,71,47,0,349,20,15,35,8,10,102,25,24,38,33,548
24,37,28,40,82,28,44,61,38,425,37,21,28,19,9,46,27,16,23,0,581
16,10,4,13,51,17,18,24,0,52,22,2,10,5,6,21,11,13,9,13,93
13,25,14,11,30,14,12,11,0,30,8,4,11,1,8,25,13,8,6,7,69
28,43,45,24,92,74,36,40,0,156,51,15,22,4,11,67,46,17,30,6,269
17,16,29,9,50,13,39,30,26,129,4,13,11,6,3,27,36,11,9,0,238
61,63,82,51,219,92,53,79,0,357,70,22,45,10,34,97,28,44,36,6,665
47,42,30,41,80,23,38,29,0,201,14,15,20,5,11,50,10,34,7,3,362
84,69,52,79,182,70,92,93,5,421,72,18,62,12,24,72,22,69,39,0,757
61,82,54,55,146,40,85,65,0,288,27,34,39,19,34,77,12,57,30,15,532
74,60,51,60,183,51,58,81,0,327,51,20,57,26,24,77,16,56,37,16,565
123,81,64,92,198,80,71,115,58,416,68,22,72,37,35,100,39,123,24,0,778
61,52,56,51,113,75,50,65,0,342,53,22,37,12,8,50,16,61,35,51,520
66,75,56,71,176,52,51,75,0,352,35,25,46,18,33,78,16,47,31,55,590
54,70,59,48,209,48,72,46,0,386,41,18,35,12,36,100,19,59,20,48,604
82,60,67,70,139,65,78,86,11,661,46,31,65,20,25,63,13,67,30,0,959
2,10,12,7,40,19,17,25,0,57,20,6,3,2,3,28,3,5,6,12,101
19,14,9,17,34,13,26,23,10,89,16,4,16,9,6,16,11,19,3,0,154
3,4,4,3,10,15,3,4,0,19,12,0,7,0,0,8,1,3,2,3,29
12,18,31,8,58,23,13,19,0,100,9,5,9,4,9,35,15,5,25,2,164
7,12,20,7,32,29,17,11,10,60,17,6,13,3,5,30,8,6,12,0,105
60,41,34,45,109,32,49,167,29,197,25,8,48,23,8,44,146,31,19,0,411
2,8,5,7,8,3,0,7,4,17,1,4,4,0,4,10,8,2,4,0,24
21,21,24,20,47,17,20,43,19,92,25,4,16,6,4,21,44,19,22,0,163
37,17,19,36,102,24,23,69,0,104,42,6,15,10,7,51,63,25,10,5,197
10,10,16,4,29,21,16,37,0,46,22,7,13,4,4,19,9,11,4,4,92
23,34,27,25,86,81,37,37,5,266,61,7,25,4,14,34,13,16,13,0,434
143,85,74,116,318,61,99,143,0,620,66,36,94,25,31,153,72,89,60,9,1024
2,13,18,14,73,32,20,12,5,111,26,8,15,3,5,24,9,5,8,0,197
4,17,19,3,53,7,16,13,0,65,3,3,3,2,7,27,5,6,6,1,134
7,10,7,3,17,6,5,8,0,38,6,1,5,1,5,11,0,2,3,4,63
5,1,14,13,32,12,20,15,3,47,9,5,4,8,1,16,8,3,7,0,101
78,73,100,58,193,46,78,90,0,396,42,23,61,15,39,63,29,36,49,16,739
77,47,36,63,188,55,92,94,52,321,54,27,75,20,17,88,20,45,29,0,650
26,20,15,20,35,16,36,44,0,108,15,12,22,8,7,19,13,25,17,2,180
3,0,6,5,16,1,5,10,9,24,1,4,3,2,3,8,10,2,1,0,45
19,4,12,6,18,12,17,13,0,35,9,2,11,3,2,9,8,12,9,14,57
16,11,7,6,48,28,18,21,4,71,18,4,6,5,4,14,6,10,4,0,159
100,66,90,67,212,96,110,143,13,433,125,28,64,22,14,98,49,61,85,0,784
5,6,3,6,33,32,6,9,2,41,23,4,3,2,2,10,2,2,7,0,88
8,25,14,14,50,35,19,20,7,90,14,3,5,5,7,18,9,9,11,0,201
19,38,56,39,160,89,51,64,7,222,86,19,42,6,22,69,25,7,24,0,445
5,5,0,12,28,19,7,6,1,14,18,0,7,0,2,17,4,5,0,0,44
34,33,25,16,49,13,26,18,30,81,19,3,16,4,8,17,18,26,16,0,198
9,7,14,5,30,4,8,14,3,37,2,7,2,1,8,20,4,6,10,0,71
2,21,32,13,94,50,31,15,0,150,36,8,6,1,16,55,6,1,11,24,244
10,3,10,5,30,22,13,12,1,73,14,3,6,3,0,16,7,12,11,0,107
10,10,13,6,15,18,10,13,0,54,14,1,10,2,2,14,5,3,8,1,89
0,2,6,7,11,8,6,3,0,9,6,2,1,0,7,6,8,1,4,5,12
5,10,3,7,24,20,6,13,5,39,23,4,10,2,1,11,6,2,1,0,72
4,17,20,14,36,13,37,14,3,65,12,14,13,0,4,22,4,3,21,0,130
3,9,1,1,3,6,1,9,0,18,9,0,0,1,1,4,3,4,0,5,24
11,9,4,8,39,17,11,11,0,59,9,2,14,2,3,9,0,8,3,0,119
28,7,3,8,32,25,17,16,0,58,18,6,9,11,21,14,8,25,5,1,76
18,15,18,15,25,30,13,9,0,80,27,1,15,1,8,16,3,8,6,0,138
116,92,61,96,239,137,85,116,3,584,131,32,82,20,102,97,43,77,34,0,911
16,8,11,14,26,4,8,12,10,36,6,5,17,19,0,14,6,5,14,0,59
16,13,13,26,64,19,24,52,4,109,14,5,24,5,4,37,67,14,4,0,166
10,3,2,6,28,3,8,13,4,43,5,2,8,8,4,11,6,6,6,0,64
5,3,4,0,14,3,5,9,3,13,4,3,1,7,1,4,0,0,3,0,36
4,0,3,1,15,3,10,6,0,34,2,1,4,3,0,3,2,1,1,1,58
1,6,5,1,14,1,17,7,0,37,0,5,1,2,2,5,2,4,4,0,64
4,7,6,5,10,11,4,9,0,22,11,0,7,1,1,10,4,1,3,3,37
3,13,9,13,33,8,13,19,9,56,12,4,10,9,2,12,4,7,10,0,106
6,10,10,5,16,8,3,4,1,24,7,0,5,7,0,7,0,4,12,0,45
5,5,4,8,18,12,9,12,0,23,12,2,9,1,3,12,0,1,3,7,46
2,5,8,7,17,3,6,9,6,33,0,3,6,0,4,8,4,3,6,0,62
84,69,54,63,192,84,74,89,6,378,74,23,45,58,19,75,23,27,44,0,705
50,77,72,53,143,37,65,66,0,323,38,19,41,29,22,49,12,42,43,3,588
50,36,52,47,143,34,41,45,0,208,28,17,18,39,13,67,6,26,27,41,374
75,47,45,54,140,63,59,70,0,263,48,19,27,51,30,51,25,49,38,42,436
39,30,55,33,105,51,63,61,0,390,48,25,23,40,20,40,7,25,35,23,541
3,5,6,4,38,4,14,14,0,33,4,6,10,4,2,9,2,5,1,2,76
32,26,19,14,67,24,22,18,0,116,15,16,17,3,18,24,5,20,18,5,197
5,15,8,7,22,13,15,4,0,24,10,10,8,0,10,7,2,2,6,3,55
2,3,1,3,9,10,0,3,0,8,8,0,2,3,1,3,1,2,4,5,10
38,61,57,35,103,111,90,50,25,384,95,38,49,8,24,50,14,20,65,0,591
73,62,58,42,190,75,95,92,28,448,69,24,40,13,25,83,47,48,29,0,785
11,1,3,7,12,17,3,11,0,22,20,2,8,0,1,10,4,5,2,2,33
1,0,5,7,3,10,2,1,0,10,7,2,1,0,0,8,0,1,2,0,18
4,4,2,5,29,7,13,10,6,48,3,2,8,8,1,17,13,6,3,0,67
1,9,12,7,32,15,11,20,0,62,6,3,7,1,4,12,16,2,13,0,105
11,11,4,6,27,7,17,12,13,30,9,4,7,2,5,17,14,8,4,0,68
10,13,9,10,23,0,8,13,0,56,0,10,2,0,4,8,17,8,5,4,84
10,25,66,11,59,29,15,25,21,122,20,4,14,2,12,30,9,8,29,0,255
5,13,9,12,22,23,6,24,0,59,15,0,7,10,2,9,6,6,6,3,109
11,12,16,14,42,12,35,23,3,94,3,10,7,2,10,28,16,17,17,0,152
13,6,10,8,15,8,13,8,6,14,8,3,3,1,5,8,17,9,9,0,38
23,42,18,25,90,64,36,38,7,145,54,4,11,7,19,55,29,14,22,0,273
83,62,90,71,211,194,79,91,0,506,172,20,85,27,21,69,33,46,62,6,846
42,47,62,30,178,37,92,81,0,256,42,18,44,10,24,84,38,17,35,8,505
1,12,2,7,25,10,5,10,0,38,7,1,3,3,9,10,9,1,3,7,57
56,64,80,47,135,57,59,56,23,346,63,22,36,9,67,59,23,39,48,0,557
3,7,6,14,37,40,11,16,4,62,30,1,15,3,2,12,13,3,1,0,120
2,4,4,13,30,12,6,8,2,31,14,1,13,4,6,13,3,1,0,0,57
28,33,26,48,92,25,26,27,0,215,15,11,44,7,15,41,12,20,29,4,322
2,10,10,6,45,35,28,9,0,86,28,17,10,2,6,22,1,6,7,5,127
9,1,5,8,14,3,14,8,0,15,2,3,9,1,2,10,1,7,6,1,35
10,8,11,8,27,5,12,15,1,65,4,0,10,2,0,13,4,3,6,0,120
56,52,46,29,138,42,66,53,25,238,27,20,41,10,9,72,20,47,55,0,444
75,73,64,59,164,77,97,73,37,322,78,32,55,12,20,95,20,51,53,0,625
67,74,82,67,205,39,89,85,25,334,47,39,44,15,121,94,25,53,46,0,583
14,23,15,8,37,17,8,11,7,58,22,10,5,0,7,14,6,12,10,0,112
5,10,16,19,55,1,10,23,0,51,3,3,9,4,2,24,25,4,7,0,109
13,38,8,29,77,94,16,31,20,107,86,5,16,1,24,15,13,14,8,0,251
3,4,10,5,32,16,7,13,4,28,14,3,4,1,3,16,3,0,3,0,75
36,61,51,31,153,42,83,66,12,210,40,25,45,8,22,65,26,21,44,0,449
31,35,32,19,94,27,39,30,4,189,30,12,13,4,6,24,14,19,22,0,356
12,20,28,26,68,69,35,28,0,162,64,9,17,4,3,31,14,9,18,2,277
14,29,25,30,103,31,33,47,0,181,24,11,31,13,17,41,14,15,23,0,304
4,6,6,0,19,8,9,8,3,28,16,2,6,5,4,7,2,2,2,0,45
63,37,51,59,122,81,44,56,6,256,71,19,51,8,21,61,49,47,32,0,416
1,5,7,10,27,18,6,7,7,23,12,3,9,4,0,11,3,2,3,0,64
11,21,26,20,64,10,38,29,24,143,14,19,14,7,5,28,41,12,9,0,237
16,29,23,12,116,15,22,17,0,119,9,8,13,1,3,22,75,9,14,2,213
9,5,2,21,36,50,14,15,4,73,41,7,12,6,1,9,2,6,15,0,130
31,22,9,19,34,33,27,36,24,51,19,4,21,11,8,17,50,31,6,0,119
34,35,40,32,142,24,51,37,13,276,23,14,33,8,13,58,49,23,14,0,449
34,30,40,26,133,18,73,54,0,352,23,29,22,7,4,48,82,15,18,5,507
3,6,13,0,17,19,7,4,2,30,27,4,0,0,0,4,9,1,6,0,50
15,33,33,20,137,38,56,52,0,341,52,8,22,3,11,61,27,21,20,1,499
12,9,6,8,32,4,14,21,10,42,9,5,10,7,3,15,7,13,12,0,77
33,18,43,30,84,36,37,65,7,133,30,17,40,11,7,28,29,23,31,0,270
31,46,26,22,88,78,37,38,0,185,68,6,27,4,18,33,13,14,13,7,348
4,9,3,17,26,24,6,9,2,43,23,0,10,1,6,16,1,1,2,0,83
2,7,4,7,8,7,4,5,1,13,8,0,6,4,8,4,6,0,5,0,17
13,19,18,12,55,22,17,16,0,88,7,10,2,0,11,39,16,3,13,4,155
10,6,6,13,46,12,18,17,8,80,10,3,7,2,4,20,28,11,3,0,128
17,3,16,14,33,3,21,23,0,66,4,5,11,3,6,14,18,8,20,6,101
10,29,28,16,90,18,24,11,9,119,18,11,10,2,7,41,10,2,10,0,243
7,36,30,29,66,47,23,22,1,101,30,12,19,6,14,35,16,8,13,0,209
5,6,6,9,16,13,4,6,0,40,9,1,9,1,0,7,3,7,5,3,60
11,23,25,11,51,13,19,23,12,162,13,2,18,5,5,17,17,13,17,0,243
12,16,18,10,44,11,15,17,1,74,7,6,8,2,14,18,6,8,11,0,138
18,19,19,13,62,35,45,22,0,118,31,10,14,0,6,28,15,10,9,3,225
12,7,8,7,37,25,17,8,0,54,22,3,6,2,2,26,16,10,9,2,77
10,11,12,5,29,6,6,8,0,45,3,2,3,0,7,15,3,4,11,0,84
1,5,6,2,18,3,10,10,8,28,0,1,2,0,2,10,7,3,5,0,61
6,3,0,4,12,2,6,2,0,11,3,0,2,1,3,8,0,0,1,3,25
2,8,7,6,24,11,6,7,0,36,1,0,6,0,5,12,5,2,7,6,63
5,2,4,0,6,2,1,2,1,16,1,0,5,0,0,2,6,0,3,0,22
55,83,126,38,258,53,104,80,0,733,35,41,33,5,27,131,33,31,71,48,1075
39,54,122,73,185,80,80,78,0,553,69,28,47,11,16,88,33,32,77,37,826
19,22,32,10,58,28,21,12,0,63,27,14,8,4,0,31,4,10,30,10,127
7,17,11,19,35,29,7,10,0,61,18,0,9,2,3,16,4,5,8,1,130
25,35,31,13,79,22,19,34,5,162,19,7,19,2,19,40,14,13,6,0,286
6,4,14,9,33,25,6,10,1,72,19,1,11,2,0,15,1,1,8,0,122
9,30,37,23,87,68,27,27,0,155,56,5,20,9,4,33,14,6,25,1,290
3,2,3,7,8,9,5,5,0,10,8,1,7,3,1,9,4,3,2,0,14
11,32,20,14,52,13,24,29,5,135,6,8,17,9,12,36,17,7,11,0,212
20,37,55,25,148,46,32,28,7,222,26,7,16,11,17,56,22,19,26,0,420
8,15,12,15,33,15,12,17,18,54,14,1,20,4,6,23,11,7,8,0,105
5,5,3,1,18,2,2,6,2,16,1,3,2,1,5,13,3,6,2,0,24
24,13,12,30,42,7,24,40,0,526,8,13,21,8,2,15,11,9,6,41,584
92,24,17,55,73,25,35,79,6,215,13,17,73,47,5,29,19,67,16,0,335
85,31,16,61,93,42,37,97,0,262,46,19,60,46,8,39,31,64,20,25,366
81,39,25,57,116,34,42,81,0,238,35,12,39,31,17,56,34,59,29,54,347
76,36,18,53,101,28,43,87,0,234,29,13,39,36,9,56,41,59,22,36,336
85,36,25,57,120,40,47,115,0,262,39,27,54,50,13,53,45,58,31,10,407
93,41,25,57,124,42,39,80,0,277,40,19,61,18,19,54,43,56,17,28,423
69,46,63,37,101,27,44,53,0,226,20,17,42,18,14,47,29,44,32,28,375
84,38,35,57,129,65,44,94,0,232,62,20,55,37,13,70,58,61,37,27,338
25,24,15,42,50,12,38,56,0,545,14,13,42,18,4,21,19,21,9,9,637
77,39,21,50,121,18,46,96,0,277,36,15,50,39,16,64,27,60,17,8,413
52,13,15,36,60,20,35,80,15,395,28,10,49,39,7,26,22,46,14,0,480
60,24,13,51,68,25,50,88,22,285,35,35,52,31,10,31,28,36,20,0,408
100,46,36,52,141,39,57,107,0,235,41,23,80,33,22,81,46,78,29,19,361
50,51,44,64,176,41,52,85,0,338,31,22,44,23,19,85,103,33,32,12,497
113,47,45,60,186,64,45,122,0,319,72,19,54,32,17,85,76,64,26,56,500
162,47,22,75,187,46,62,148,0,297,48,15,59,40,11,83,99,120,25,27,519
63,29,16,53,117,42,57,88,0,424,43,16,48,34,5,61,27,46,26,85,498
98,47,20,74,124,65,46,111,3,389,84,14,66,36,14,57,45,67,28,0,566
40,25,18,30,69,14,28,59,0,340,23,13,40,25,9,24,19,33,15,32,390
38,21,12,45,64,26,50,56,0,411,25,10,30,12,7,20,16,23,10,39,531
83,35,24,68,133,56,47,94,9,330,54,16,80,34,9,65,44,57,32,0,488
117,37,20,69,120,28,35,112,0,249,41,16,62,43,12,56,44,85,33,5,390
113,32,19,82,73,44,34,116,0,215,38,13,70,53,4,40,43,83,26,55,303
90,24,20,56,88,23,36,108,53,119,27,14,49,41,11,49,36,61,15,0,314
105,68,44,55,136,50,31,115,0,317,44,21,52,36,20,78,92,74,26,59,419
64,52,26,39,123,46,38,84,0,227,44,14,30,30,11,39,77,33,19,26,376
91,54,42,53,159,57,42,102,0,250,50,17,57,20,16,63,87,53,28,37,422
102,40,27,63,116,47,25,100,11,193,37,16,47,24,11,40,94,86,24,0,345
69,13,24,47,75,23,43,98,0,165,27,14,40,20,3,30,74,40,13,9,287
71,55,33,48,151,51,50,77,5,313,37,21,59,15,14,54,71,38,20,0,525
70,42,29,64,154,48,60,94,19,286,55,29,47,18,11,69,78,41,36,0,482
42,31,27,31,111,49,56,69,0,310,34,15,49,13,9,55,34,31,25,32,429
40,30,41,36,92,24,55,55,0,279,25,22,32,12,11,43,38,30,26,20,393
66,59,46,38,172,40,58,103,23,298,34,24,50,18,13,84,93,34,38,0,515
58,29,44,41,110,27,59,63,0,294,26,30,44,12,13,52,60,36,25,6,421
67,59,32,56,161,59,52,89,0,276,42,15,36,27,14,76,95,22,26,54,444
141,42,25,83,175,59,44,146,21,227,73,14,71,59,8,75,78,128,24,0,433
139,42,18,81,166,54,57,124,0,274,73,25,83,43,34,72,48,108,22,12,435
83,93,59,52,147,44,48,79,0,239,54,24,50,33,47,66,13,63,44,15,435
104,60,30,58,152,56,41,103,0,287,49,23,70,26,48,72,35,66,24,25,453
67,65,38,41,175,33,59,88,0,315,32,24,52,16,37,83,29,49,32,13,514
67,40,49,31,140,25,65,72,0,359,21,20,28,21,20,68,18,39,28,28,557
79,58,30,44,146,54,51,120,0,226,65,31,64,44,42,78,34,69,15,28,338
77,43,31,82,157,43,52,119,6,292,43,18,78,39,19,66,44,82,27,0,486
103,35,25,56,115,49,34,121,0,175,81,17,58,47,24,51,29,80,36,17,273
94,27,31,49,104,20,52,91,0,169,29,32,45,22,17,60,25,56,34,10,307
98,39,32,49,204,53,49,88,0,221,56,23,46,36,33,117,42,79,29,8,364
59,41,20,53,142,54,40,72,0,202,71,10,32,13,22,91,27,39,17,20,341
135,46,36,54,178,69,45,132,0,242,65,18,65,32,31,85,50,89,37,38,427
118,47,24,72,139,64,53,135,0,266,67,24,61,51,24,79,32,100,23,40,417
59,42,36,65,127,33,63,102,0,349,34,30,74,18,33,65,24,47,23,19,509
157,62,60,104,239,71,106,166,18,363,102,35,97,63,54,117,49,118,43,0,668
123,47,34,85,175,45,84,107,0,300,67,26,82,44,35,93,27,70,25,3,528
182,54,30,115,227,71,84,143,41,393,94,23,115,56,36,100,51,129,39,0,697
140,53,45,84,212,68,90,164,0,321,87,33,105,54,47,102,48,107,40,6,548
114,75,52,77,249,66,71,141,0,409,77,30,72,35,37,126,34,85,58,17,683
61,45,43,50,189,30,76,82,0,366,36,29,42,22,44,92,26,57,30,11,553
100,70,55,68,206,25,82,89,23,421,24,35,57,23,39,107,26,58,42,0,728
81,51,35,103,202,48,86,131,0,402,73,30,96,28,28,73,40,73,47,17,634
69,47,56,69,155,33,82,100,0,293,55,20,69,24,27,65,35,41,41,20,507
104,52,32,81,165,43,88,104,0,342,62,27,57,36,40,52,23,67,22,1,624
71,61,29,83,167,27,90,125,0,392,54,37,75,32,36,61,25,55,33,11,626
113,50,44,76,187,60,90,124,0,436,88,39,70,41,29,72,40,71,37,6,687
72,53,56,78,144,35,68,76,0,393,32,26,108,14,28,67,32,49,24,14,581
68,49,36,54,155,43,81,82,0,377,40,14,61,16,23,68,19,41,30,1,632
50,59,32,39,139,28,86,66,0,305,39,23,48,19,32,47,11,33,24,27,501
122,41,52,85,145,40,76,152,23,401,45,26,113,74,16,63,48,85,57,0,610
132,59,27,107,136,58,55,178,0,414,63,20,119,72,25,78,51,72,43,1,622
77,44,50,34,157,28,51,63,0,404,31,13,33,20,21,85,10,32,32,17,614
83,55,38,67,160,37,54,83,1,444,40,26,68,27,16,74,31,67,39,0,634
132,42,23,105,176,69,86,125,0,390,51,35,108,62,18,69,21,97,31,74,582
133,43,32,82,198,72,71,153,0,322,56,25,88,66,18,109,45,107,32,29,531
150,54,19,83,174,59,67,147,0,276,56,34,100,65,16,78,39,118,40,28,455
106,65,52,105,166,61,83,154,0,388,52,24,87,56,34,76,28,83,43,76,621
148,46,25,84,195,61,61,165,0,286,64,32,83,61,13,82,45,130,24,38,499
181,55,46,113,193,47,72,142,0,324,60,14,104,58,16,91,64,135,44,33,554
96,51,45,77,152,23,63,101,0,350,33,22,78,23,17,81,24,55,37,35,553
75,64,35,67,170,35,53,94,0,310,34,35,62,36,30,88,21,46,27,14,510
106,53,44,74,150,50,55,138,0,377,56,27,89,56,21,93,37,78,45,12,533
74,64,43,75,207,41,61,94,0,241,42,26,64,41,26,76,23,73,49,28,452
122,35,63,93,171,56,78,103,0,418,47,28,103,41,16,66,33,92,44,10,659
52,63,36,66,162,60,84,86,0,393,47,38,76,20,49,71,24,33,28,35,581
60,81,62,60,173,39,101,72,0,330,44,33,47,26,59,94,28,35,46,21,545
88,57,33,69,147,30,82,105,0,370,32,24,63,37,31,49,26,42,21,17,639
89,44,51,61,143,60,96,102,0,339,52,37,95,28,29,69,29,59,31,39,517
91,56,55,80,145,51,82,106,0,364,66,47,74,23,30,71,23,51,40,33,572
87,61,58,62,188,50,125,118,0,452,51,35,73,35,40,73,38,79,43,28,706
97,61,39,47,144,42,82,104,0,302,38,29,68,25,33,63,28,55,26,30,523
101,64,56,67,193,61,70,121,0,563,64,34,75,22,20,79,29,64,32,210,667
73,70,50,73,172,56,79,109,0,335,45,34,60,37,40,65,25,58,36,31,586
47,29,12,36,93,16,31,68,0,172,23,9,28,29,12,44,18,29,16,14,282
26,45,28,40,104,24,57,59,0,261,22,15,36,25,19,60,8,16,32,2,409
53,32,27,40,95,12,36,64,1,199,16,20,49,30,14,43,21,37,22,0,307
50,35,40,55,116,32,60,76,145,142,39,20,47,38,21,44,12,20,23,0,487
69,43,28,40,124,32,39,75,19,236,26,20,48,49,21,68,14,39,28,0,392
92,38,28,44,105,44,29,88,0,202,49,11,40,48,24,57,30,60,29,8,314
87,41,38,74,152,71,63,89,0,348,64,31,79,45,21,65,31,62,36,13,516
82,51,42,78,157,40,54,119,0,370,39,31,64,25,25,78,31,45,29,43,583
173,42,13,112,192,64,72,181,46,299,86,24,114,71,35,73,55,125,34,0,577
84,52,25,73,157,32,66,111,0,367,45,19,54,37,24,46,29,47,21,35,610
75,21,14,57,102,40,51,62,1,299,41,17,60,21,18,47,19,52,11,0,436
55,61,38,58,118,33,62,80,0,298,45,30,56,22,33,67,16,34,34,26,440
98,67,53,61,109,36,48,101,0,222,46,12,48,35,27,53,24,61,41,55,393
37,48,42,38,141,19,53,79,0,320,26,23,47,27,15,69,16,31,18,11,494
68,51,29,52,116,40,44,88,0,238,34,15,46,33,19,53,25,46,22,40,393
54,44,22,39,130,30,36,62,0,254,30,24,29,18,24,48,12,35,23,29,399
70,58,39,67,132,23,58,99,0,250,35,20,63,63,29,74,38,60,32,9,373
120,42,30,71,165,45,89,103,182,368,49,33,90,81,25,92,37,102,31,0,675
72,64,53,65,173,68,72,112,0,336,51,22,60,40,49,96,21,56,31,30,559
60,54,29,65,162,36,67,85,0,203,40,23,49,37,23,77,28,57,31,10,386
101,34,37,61,198,42,78,114,0,380,59,34,53,52,33,75,18,77,46,16,582
55,32,23,34,93,22,41,42,0,191,13,15,22,17,16,52,8,36,21,23,310
38,51,15,44,96,31,38,58,0,202,36,17,43,19,15,37,12,32,21,19,322
113,50,32,86,164,53,57,93,0,268,40,19,73,66,17,67,24,65,36,6,503
67,18,12,55,67,37,34,103,23,224,44,18,64,63,11,31,25,65,7,0,312
93,40,11,66,96,60,45,111,0,212,44,11,76,58,15,49,26,67,16,37,335
68,33,24,48,111,33,48,92,0,285,26,13,47,26,15,50,32,50,23,24,436
76,23,10,61,75,35,33,105,4,232,52,10,56,52,10,28,21,54,18,0,353
53,20,18,36,65,16,26,71,19,259,22,6,38,36,12,34,17,39,14,0,365
119,27,12,74,76,27,28,148,0,211,41,9,67,54,9,42,36,61,14,61,328
66,11,9,53,56,59,25,97,13,164,41,7,55,45,7,32,12,60,20,0,274
84,28,13,44,89,18,28,71,142,319,23,11,53,42,13,35,26,49,17,0,567
77,50,23,78,99,30,31,116,0,197,39,21,64,57,23,51,47,61,21,3,314
112,29,9,33,82,40,26,75,2,107,37,15,34,38,12,37,22,87,20,0,213
90,7,9,37,85,48,38,106,0,125,68,14,27,46,4,47,23,65,17,61,173
106,32,16,36,136,48,39,97,0,166,57,25,46,47,15,60,24,66,17,18,301
92,34,15,44,105,48,37,84,0,171,25,15,34,32,14,45,32,74,15,22,322
118,41,13,61,95,27,23,114,0,186,42,18,53,65,13,48,20,92,18,15,294
91,33,15,74,97,33,44,111,22,393,38,12,61,58,17,39,30,93,12,0,553
75,27,26,90,90,30,49,140,0,317,38,17,60,56,7,30,22,50,27,64,473
67,19,16,47,59,24,32,65,0,191,28,4,40,37,4,25,11,32,15,14,310
71,41,22,48,95,50,42,86,0,246,43,10,38,26,20,55,22,43,20,33,391
75,44,27,78,109,49,38,121,0,283,61,9,53,40,23,46,21,66,28,48,429
36,25,11,44,80,36,34,62,0,291,21,13,29,20,10,40,8,25,16,85,352
43,22,26,64,64,24,20,64,0,221,34,7,41,20,6,27,15,22,20,69,287
181,50,55,177,190,32,255,216,156,12860,33,82,128,55,8,58,34,108,49,0,13617
19,25,20,31,47,10,39,37,0,440,14,14,17,10,6,28,5,22,16,18,518
54,26,28,49,86,18,44,74,50,443,20,16,50,24,11,49,21,39,24,0,618
28,12,4,32,35,12,35,35,0,466,13,11,39,20,4,6,12,11,1,39,503
43,21,15,48,70,23,40,47,16,364,23,16,49,26,1,26,10,30,12,0,494
13,15,14,19,29,11,9,24,0,540,9,2,15,12,1,13,3,11,5,8,595
90,24,15,71,69,42,31,124,0,228,47,17,69,71,8,26,27,60,10,20,339
92,30,28,67,154,47,55,104,15,277,67,33,76,48,14,82,52,71,25,0,401
51,37,16,74,103,34,43,88,0,242,30,17,51,25,6,48,13,52,17,74,355
20,5,7,12,26,9,20,29,0,439,4,9,26,8,0,10,8,8,6,41,447
42,19,16,58,68,28,22,52,0,193,24,4,42,25,7,30,13,31,8,35,279
59,17,19,40,59,18,22,79,53,197,17,2,69,33,2,22,16,66,10,0,326
74,23,19,73,71,17,21,91,0,251,23,8,49,19,10,35,11,46,16,78,345
40,12,5,34,49,35,43,57,0,198,33,16,20,18,5,11,7,32,11,39,281
38,20,28,46,72,26,44,45,0,263,24,16,44,17,6,30,11,28,22,27,357
68,30,17,46,102,32,32,83,16,283,34,10,53,28,20,40,18,51,20,0,435
46,26,16,48,102,29,36,77,0,233,31,10,37,22,6,45,20,30,18,65,329
56,27,25,37,88,22,56,60,0,259,14,17,37,24,11,33,18,33,10,43,390
59,31,32,53,113,41,36,93,0,232,22,16,54,25,10,49,21,28,19,82,364
68,12,13,65,39,32,25,71,0,248,28,10,48,27,1,28,16,44,9,36,326
101,35,14,66,110,38,39,100,8,273,45,14,75,64,12,65,29,54,16,0,410
45,36,29,63,77,18,35,67,0,212,21,13,55,32,12,35,11,29,13,15,346
64,39,11,67,82,24,30,118,8,189,32,12,69,52,12,43,31,54,20,0,307
54,16,7,44,52,31,24,71,12,148,33,9,48,15,3,29,14,36,12,0,260
46,17,11,34,39,23,28,80,896,9351,30,15,39,31,10,16,12,24,15,0,10333
73,41,31,53,123,26,28,70,0,250,38,4,43,23,13,59,12,30,10,91,372
37,22,33,40,82,19,58,71,0,376,17,24,39,19,7,49,12,28,25,10,508
53,34,12,46,72,22,38,77,30,304,26,16,62,42,18,27,15,38,21,0,423
44,22,15,51,97,24,47,72,0,255,27,23,45,32,8,54,13,36,14,18,357
74,29,20,32,91,30,46,75,0,238,27,15,54,16,17,41,27,46,23,1,368
62,31,19,35,79,21,35,42,0,139,21,7,21,27,8,36,11,31,22,21,258
53,17,14,37,51,14,16,68,59,164,22,9,42,48,5,24,18,45,17,0,263
80,21,18,41,81,34,22,92,2,220,33,6,63,54,8,40,20,64,10,0,313
87,21,13,34,80,41,14,107,0,116,47,10,39,36,12,42,24,70,16,29,188
93,20,12,47,77,62,18,122,14,86,64,3,41,85,9,40,36,58,20,0,195
76,28,6,28,88,50,34,96,0,119,68,13,50,43,11,45,15,65,11,1,203
54,26,15,41,62,23,30,76,12,170,28,14,30,48,11,25,24,46,10,0,273
73,14,6,26,58,25,22,74,0,218,18,10,41,34,11,25,17,45,21,14,280
86,29,7,77,67,35,27,141,0,145,49,9,48,54,5,42,31,51,17,61,247
74,25,17,58,75,31,32,98,0,174,32,8,30,34,7,29,16,38,23,82,285
69,27,8,40,55,29,30,95,6,185,31,19,58,36,9,33,14,54,16,0,274
77,23,12,40,62,45,24,83,4,224,47,8,62,39,8,24,10,58,12,0,326
92,62,35,84,127,49,85,153,0,353,52,21,76,59,31,80,27,64,35,34,561
64,58,34,68,162,40,48,85,0,317,34,23,58,36,20,80,12,44,22,39,508
70,40,31,53,145,44,50,118,48,374,48,20,80,49,16,64,28,80,35,0,553
39,36,41,43,181,20,63,76,0,297,22,26,40,29,15,91,23,29,18,14,489
130,54,40,91,209,57,63,125,0,268,47,28,88,61,27,113,25,112,43,30,463
118,31,21,86,164,44,50,161,12,262,58,18,72,80,12,71,41,82,35,0,480
83,35,27,79,155,33,76,107,0,301,44,26,66,41,17,72,29,58,37,32,474
47,58,39,43,142,24,58,76,0,329,27,30,45,9,29,78,10,39,31,29,489
48,54,32,65,172,35,53,74,159,210,50,38,60,22,32,98,22,45,26,0,509
89,74,30,74,175,64,82,145,0,370,70,23,76,29,29,78,30,59,28,139,542
81,72,39,52,148,48,91,98,0,405,44,33,58,23,28,82,22,52,22,47,623
155,70,40,104,190,88,97,151,0,443,91,28,91,31,27,69,50,75,36,215,625
82,11,13,59,91,37,73,75,162,232,70,29,65,29,15,45,20,80,22,0,460
64,48,33,56,153,26,61,52,14,288,49,23,40,12,19,67,19,35,24,0,507
126,18,20,44,124,27,49,90,13,132,45,19,46,37,12,54,35,95,40,0,260
68,43,36,68,93,25,43,73,0,282,28,18,52,34,12,49,15,47,27,34,415
51,41,33,42,115,40,49,54,17,367,31,9,46,24,22,51,28,45,31,0,522
69,35,32,43,136,35,34,56,16,191,37,11,41,24,10,76,22,57,23,0,346
66,31,27,42,108,32,28,63,0,176,26,10,47,21,13,52,16,45,20,37,286
90,32,45,65,134,27,43,66,0,243,50,20,56,24,18,81,28,54,21,30,363
75,42,37,55,144,47,33,93,0,162,45,12,59,28,22,68,23,52,28,57,294
70,40,21,67,93,44,28,64,0,215,46,8,46,35,37,62,27,39,19,11,312
117,39,18,40,140,41,31,67,0,160,44,13,51,35,11,70,24,79,25,35,266
52,43,51,42,96,37,32,80,4,230,34,20,40,23,27,39,23,56,30,0,375
96,29,24,65,129,61,40,76,0,179,59,9,67,14,16,59,30,50,22,58,315
92,32,17,39,101,26,27,78,27,151,40,7,52,26,14,41,29,62,26,0,293
132,39,20,73,110,43,45,85,31,188,53,20,90,36,15,64,29,94,26,0,339
82,31,11,55,85,54,39,61,0,148,60,11,53,23,9,31,21,84,11,2,261
69,34,17,45,118,31,41,83,0,135,29,12,52,32,20,51,23,40,17,39,258
79,21,5,42,87,48,34,80,0,146,48,20,40,37,14,54,21,74,18,3,213
71,33,16,60,119,25,23,80,0,143,38,16,44,23,18,43,24,64,29,8,263
103,21,10,55,108,68,43,109,0,145,68,9,47,37,17,62,31,75,17,33,266
91,45,22,45,101,51,38,101,0,143,70,12,47,38,21,57,24,51,28,20,269
95,38,9,73,110,53,26,124,0,189,58,8,71,48,16,44,32,79,19,42,300
107,27,12,86,95,58,31,136,0,251,65,20,81,33,13,46,20,75,26,15,409
59,33,41,46,105,17,43,65,0,149,19,19,50,28,21,48,14,36,34,12,277
50,29,17,40,94,31,24,49,9,210,15,10,44,27,10,57,11,51,11,0,317
84,29,26,46,109,41,32,105,15,217,60,8,64,40,20,52,17,58,23,0,362
63,38,38,56,83,25,35,96,0,146,36,11,45,21,17,34,25,44,28,3,316
52,27,30,52,127,32,57,70,15,283,46,19,52,30,7,55,32,34,17,0,453
87,68,37,82,134,46,94,106,0,390,63,34,67,26,20,64,24,67,38,36,605
53,34,29,44,121,48,81,67,9,271,43,26,48,25,9,72,23,37,21,0,453
48,48,39,53,124,42,62,68,0,325,54,26,57,32,17,52,20,31,18,23,479
71,35,41,48,106,18,63,85,0,331,26,30,59,22,13,56,24,42,32,5,489
90,40,33,51,168,42,73,95,25,251,77,23,58,54,12,94,13,63,28,0,446
89,44,18,69,151,75,47,107,41,290,69,33,71,45,20,77,29,84,28,0,475
84,48,24,58,140,61,56,69,37,249,82,23,43,41,14,75,25,50,19,0,454
88,41,31,63,142,61,51,110,0,238,67,24,62,60,11,60,25,69,19,47,381
62,27,24,40,89,52,49,87,0,365,53,11,36,47,7,45,11,52,19,53,461
79,41,23,63,98,40,67,79,0,345,47,20,49,30,9,55,14,55,20,24,512
64,42,22,52,146,57,60,97,0,255,45,30,44,42,17,65,12,45,21,28,446
64,23,22,54,125,72,81,96,11,298,78,31,69,55,10,61,19,43,18,0,462
82,30,30,56,94,64,53,107,20,252,79,17,66,50,15,48,28,45,25,0,415
71,36,29,65,124,55,37,130,0,374,62,13,71,47,9,56,20,49,33,20,541
53,59,37,42,135,30,49,80,0,312,26,18,47,25,25,83,21,26,19,67,440
100,27,35,68,121,45,57,80,0,263,46,17,52,42,11,52,26,66,29,31,424
45,33,17,38,88,8,45,50,0,538,15,15,30,17,11,43,8,26,19,24,654
46,26,22,33,62,17,30,47,0,136,20,16,28,12,7,37,12,46,15,3,223
98,41,33,51,139,35,54,80,0,258,47,24,45,35,23,67,31,54,36,11,416
99,35,35,63,115,50,57,89,0,235,51,19,48,50,21,62,35,49,34,66,343
92,45,34,70,111,60,58,112,12,393,67,28,77,25,12,63,30,79,41,0,565
79,42,31,61,117,59,43,71,0,278,58,11,41,36,32,50,30,57,19,13,434
66,76,35,49,144,27,65,99,1,402,37,32,45,36,29,56,19,32,34,0,644
70,74,34,60,149,19,77,65,0,314,23,29,51,26,42,60,16,44,33,25,513
60,55,30,29,178,26,55,55,0,282,33,19,44,19,16,88,14,32,13,32,460
66,50,20,58,168,34,61,68,0,212,38,14,53,35,17,72,25,40,22,34,387
69,58,45,45,185,45,66,83,0,312,49,27,46,27,22,91,21,48,29,40,508
67,46,74,34,187,25,68,78,0,256,29,16,29,22,17,76,21,48,32,131,414
107,47,29,69,140,43,71,120,0,263,40,16,54,30,14,50,25,77,22,158,403
98,44,29,76,140,43,58,87,0,266,58,15,64,19,21,59,21,53,25,34,472
77,38,37,56,135,38,56,91,0,289,56,18,47,28,25,49,23,46,31,28,466
69,64,39,52,167,33,64,95,0,345,49,20,50,23,20,93,10,58,43,26,536
78,71,43,62,217,52,68,84,0,286,50,38,54,28,27,113,16,59,36,14,526
61,48,40,57,179,58,46,72,0,355,53,19,47,24,19,100,26,54,31,16,527
120,44,38,66,216,56,44,140,0,274,73,16,61,52,17,96,45,92,35,22,489
86,73,34,55,189,50,61,92,0,282,60,23,61,43,23,107,31,49,23,4,498
126,61,56,81,206,63,51,158,19,231,65,28,57,53,27,126,46,103,53,0,494
178,40,21,74,166,63,65,151,0,256,61,15,100,64,15,83,46,138,42,13,437
110,40,23,60,201,64,60,143,0,235,54,14,62,70,17,102,28,87,32,1,469
17,20,16,13,59,12,20,21,6,110,10,8,16,11,6,33,5,7,12,0,186
103,58,27,72,161,61,54,107,0,328,63,19,60,34,21,69,79,58,22,26,520
94,56,28,68,156,60,101,126,0,326,82,27,65,22,17,83,107,65,26,11,510
80,23,28,68,197,43,93,117,0,232,46,39,66,25,11,87,47,60,38,18,444
85,56,50,60,200,64,96,123,4,361,79,23,66,33,15,96,53,61,51,0,622
77,42,23,58,135,59,55,73,19,257,60,23,52,18,19,84,34,54,22,0,432
71,39,39,66,169,34,70,100,0,319,35,32,53,30,25,72,34,61,25,36,504
76,47,19,59,183,49,74,92,0,328,59,30,78,16,14,89,23,68,20,22,508
76,37,27,64,208,71,62,106,0,243,74,19,52,80,33,58,8,59,30,6,475
135,26,30,98,206,71,64,89,25,306,98,19,88,57,30,84,24,71,27,0,552
152,19,22,57,117,39,44,91,0,128,54,18,77,26,15,54,25,97,27,0,276
109,23,23,45,152,37,43,84,45,134,58,28,53,35,12,77,41,99,24,0,268
59,43,30,29,66,18,34,57,13,109,24,29,44,17,21,34,17,49,26,0,197
52,56,55,56,165,31,70,70,0,347,31,39,41,25,12,79,20,32,32,59,532
72,40,28,50,180,35,51,61,0,384,31,15,52,20,15,83,19,38,27,48,553
89,55,41,41,159,38,76,61,0,320,36,26,60,22,26,97,10,42,46,13,502
69,50,34,43,140,48,58,71,0,347,36,21,36,15,20,80,18,45,35,20,534
88,34,23,43,121,55,46,77,0,254,59,23,40,33,15,55,18,48,25,7,418
54,45,35,32,158,30,79,47,0,317,24,19,43,16,15,76,16,25,28,29,506
84,32,17,61,178,35,60,76,28,256,42,23,60,24,14,79,25,78,20,0,462
50,39,40,49,127,38,66,85,0,287,30,22,39,19,14,57,18,32,31,100,419
75,56,51,57,176,24,74,82,0,335,23,38,61,15,16,81,20,50,34,39,553
78,36,46,48,145,38,77,62,0,415,39,25,44,17,18,79,27,41,21,36,598
73,80,66,59,183,35,58,68,0,314,30,17,55,26,28,93,18,47,35,8,579
30,34,39,53,93,21,47,46,1,270,15,20,42,14,27,38,8,24,17,0,429
40,47,29,59,106,20,71,46,0,259,24,24,51,21,29,43,7,26,27,13,412
21,44,25,33,66,13,41,36,0,195,14,14,41,7,22,28,7,13,19,3,306
22,18,15,19,29,9,30,29,0,381,8,5,20,9,9,9,8,20,15,14,435
38,22,18,35,70,19,23,42,0,169,27,10,36,7,12,27,15,27,14,29,232
101,33,40,76,173,36,67,116,0,324,39,28,79,32,25,65,23,63,48,40,524
80,35,33,48,135,39,51,65,0,281,45,18,65,14,20,76,25,52,20,28,404
86,25,31,53,137,26,59,82,9,268,37,18,52,30,8,79,37,80,23,0,412
84,43,31,59,195,39,70,87,14,321,37,30,77,24,20,113,43,61,51,0,487
83,50,47,47,140,25,51,64,4,268,31,35,28,31,32,80,21,45,28,0,448
42,46,26,39,114,22,48,62,1,214,36,11,34,24,16,68,13,28,8,0,376
64,30,34,53,131,74,39,116,0,264,91,8,33,24,34,50,29,53,18,36,429
114,66,52,64,206,83,73,121,0,253,98,27,71,43,42,111,41,86,27,22,464
56,57,31,55,172,50,62,69,4,290,57,27,54,39,50,67,20,28,22,0,482
73,62,53,61,149,53,55,91,0,287,51,13,55,34,35,88,24,42,37,32,473
66,65,50,57,169,41,70,82,0,392,39,27,59,37,46,80,18,53,46,26,561
121,63,48,85,228,38,93,120,0,430,49,34,62,31,37,104,30,69,38,22,750
79,56,51,56,202,50,68,113,0,375,62,22,55,35,42,108,27,58,39,12,590
127,70,58,64,220,49,86,181,0,356,75,27,68,73,63,108,38,88,54,23,594
110,46,35,85,173,54,81,147,1,357,51,39,81,49,22,72,54,115,42,0,564
103,50,31,83,188,45,92,118,0,340,44,23,76,42,12,93,39,80,36,25,580
89,49,30,45,177,68,68,121,0,350,46,29,66,38,21,89,22,96,29,9,552
142,41,35,83,194,53,74,138,34,380,68,28,82,40,15,91,47,89,41,0,673
139,75,43,52,175,65,66,121,0,290,48,21,60,28,27,98,88,85,43,11,517
135,45,25,56,142,67,71,166,23,245,59,19,69,36,14,64,129,105,21,0,459
75,55,41,71,186,41,82,98,0,276,33,27,59,19,18,90,66,39,18,15,541
111,48,40,58,184,45,56,136,59,271,53,26,68,47,21,113,32,95,34,0,519
95,46,23,69,111,40,39,107,0,212,43,25,75,45,14,66,22,87,26,6,333
106,41,18,57,139,36,45,159,0,252,56,18,43,60,18,71,48,84,38,18,399
110,40,30,61,134,33,48,86,0,195,51,13,59,33,19,80,21,76,33,16,336
137,26,31,79,155,39,49,137,0,206,81,20,73,45,12,65,31,115,33,15,369
109,43,31,93,129,69,58,123,69,270,80,22,69,22,9,45,155,80,21,0,491
32,18,30,37,93,25,49,67,34,202,26,13,41,15,16,54,26,24,21,0,351
160,47,39,104,231,111,80,255,14,311,114,27,97,45,15,105,216,104,24,0,605
156,56,39,101,201,75,90,259,40,361,70,28,77,44,17,94,249,92,38,0,669
6,11,17,5,22,4,7,13,0,60,4,4,8,2,2,18,5,2,10,0,90
64,54,44,53,133,193,70,113,0,200,263,21,44,15,19,56,27,40,46,20,373
59,28,21,45,162,36,80,67,0,310,173,9,20,5,4,54,9,24,22,6,482
67,34,31,63,164,64,94,76,0,348,193,31,48,6,5,58,17,43,22,7,511
17,4,5,4,21,11,17,17,10,51,17,7,18,6,3,6,12,8,4,0,76
37,37,25,20,119,20,59,50,0,175,14,14,11,21,12,68,17,23,33,6,323
26,9,16,18,69,6,17,32,0,79,1,1,18,4,3,40,27,15,7,10,146
97,54,68,73,215,102,154,137,5,508,146,26,59,12,12,101,88,43,46,0,880
138,18,24,54,169,64,33,112,4,178,50,20,59,27,13,66,80,93,32,0,354
16,5,41,12,86,14,25,23,6,128,6,6,10,2,7,32,14,2,24,0,253
39,46,74,39,130,68,52,60,5,333,74,26,42,11,23,47,46,35,21,0,521
68,48,53,48,186,28,98,85,0,392,34,36,44,20,9,75,34,40,66,10,638
68,44,44,51,157,36,87,71,0,398,48,29,47,11,3,84,27,24,39,16,628
41,22,18,37,100,41,36,46,7,158,50,14,36,9,11,32,17,26,21,0,290
140,64,52,82,241,54,107,138,100,449,67,32,91,62,28,78,72,112,34,0,851
12,5,11,9,44,3,13,24,0,67,2,7,5,2,3,19,10,4,9,9,118
13,27,15,11,34,18,20,15,11,72,10,5,10,2,7,24,10,8,15,0,145
56,46,31,57,151,28,95,87,51,308,42,44,54,27,23,62,27,45,28,0,558
64,27,18,48,84,39,50,83,18,150,89,12,38,10,7,31,31,39,19,0,305
49,23,25,30,99,13,57,49,18,173,19,15,25,13,2,49,50,34,16,0,313
54,58,69,81,220,38,98,166,52,403,51,32,82,71,29,136,41,43,53,0,701
88,65,53,81,263,83,95,147,0,651,66,35,64,69,18,158,34,68,48,38,928
22,18,18,18,41,12,16,46,19,63,10,8,15,6,10,12,53,11,14,0,134
58,28,38,52,144,55,51,69,35,229,43,12,37,13,4,48,95,28,45,0,434
28,6,29,14,51,7,19,17,0,77,11,2,13,11,6,25,10,15,22,1,132
14,5,15,5,48,5,13,22,15,79,4,8,7,0,2,18,19,7,17,0,139
19,10,24,7,61,9,25,33,0,120,8,7,12,6,4,30,19,8,22,8,184
22,17,37,27,96,35,38,41,0,176,30,9,25,9,7,39,22,17,17,4,310
24,39,67,25,128,18,54,53,0,261,13,28,34,5,19,78,25,14,24,26,403
47,38,59,44,164,22,64,77,37,354,30,16,42,18,23,63,46,35,33,0,600
21,28,44,14,82,9,50,30,0,166,8,21,20,5,11,28,31,9,25,10,276
22,33,40,21,115,19,60,54,0,249,19,20,18,18,8,39,45,11,21,23,391
48,24,54,31,117,25,43,64,0,241,24,8,24,8,14,51,64,33,37,8,376
44,28,45,51,135,33,56,70,0,292,37,20,33,12,12,67,38,19,37,10,469
57,29,53,50,134,36,53,79,38,648,37,14,39,17,10,51,63,30,48,0,868
65,25,45,56,147,32,73,77,97,293,40,25,63,12,15,51,77,47,33,0,547
9,19,18,9,71,12,18,19,11,79,8,2,8,3,11,29,12,12,21,0,159
69,21,21,32,101,26,42,91,35,140,26,13,77,53,10,52,30,45,26,0,246
45,26,21,34,105,102,45,177,2,198,179,16,26,18,13,47,32,26,20,0,378
76,20,12,61,104,54,55,118,62,179,74,20,59,25,6,42,66,61,21,0,367
24,26,56,16,95,28,41,31,0,171,23,14,16,4,9,50,16,13,37,3,303
92,23,36,53,150,59,69,135,24,214,131,14,54,38,7,60,40,58,27,0,426
42,26,18,22,73,80,30,56,17,156,118,10,15,3,4,28,67,10,25,0,240
11,27,29,23,58,4,37,39,0,153,5,10,34,9,9,37,13,15,27,6,216
15,14,22,12,36,3,12,16,29,97,7,3,8,3,8,16,7,16,16,0,172
95,50,67,76,240,36,96,162,0,395,46,22,41,17,9,77,220,40,31,5,709
264,47,30,150,241,58,103,288,17,444,84,27,95,177,16,76,227,139,37,0,764
65,12,22,19,71,16,18,54,23,81,17,3,24,13,7,29,80,35,19,0,154
90,70,48,74,222,30,63,130,7,346,45,11,48,16,17,92,219,53,26,0,553
61,46,55,56,143,51,63,134,0,256,43,20,31,9,11,68,193,19,35,15,421
60,43,49,48,138,33,66,142,0,591,31,19,35,17,8,42,164,32,19,33,770
88,46,67,65,163,24,76,92,5,442,19,17,23,12,10,62,190,33,27,0,675
50,19,29,35,123,54,33,67,2,180,49,5,45,5,5,61,28,23,35,0,336
12,7,13,10,32,6,11,16,0,71,15,5,7,5,0,11,6,9,5,6,109
197,69,54,87,248,102,87,212,48,391,129,23,113,51,36,105,146,145,35,0,712
15,7,7,19,62,7,8,31,9,43,6,4,22,1,2,31,7,16,5,0,114
5,2,4,0,18,6,10,5,2,53,10,2,3,2,1,7,2,2,3,0,73
27,18,13,23,64,13,36,72,9,140,17,9,18,12,7,31,54,22,17,0,228
19,13,37,42,77,55,48,31,10,174,51,7,39,3,7,28,10,8,20,0,333
24,20,27,13,110,13,44,29,54,190,13,15,25,5,8,39,20,18,27,0,354
54,34,43,38,162,61,45,71,8,269,44,15,37,42,9,49,98,40,23,0,428
16,22,31,29,88,12,39,18,1,141,16,8,18,7,19,39,19,15,25,0,231
12,6,32,14,92,30,30,47,0,130,38,5,14,6,6,36,18,5,18,20,227
295,62,58,128,320,85,126,225,12,593,125,39,139,65,34,145,53,192,41,0,1071
186,79,92,77,350,74,146,159,7,605,71,45,109,55,26,178,46,132,61,0,1052
34,45,28,39,108,27,36,72,0,141,113,15,25,17,9,36,16,17,38,3,241
72,89,32,41,154,47,71,70,0,264,112,25,31,12,24,77,13,37,58,32,419
59,28,40,41,172,55,51,76,17,318,137,13,32,5,26,49,17,27,49,0,502
122,33,37,70,210,47,75,126,39,291,53,25,88,50,17,94,69,90,35,0,529
149,42,20,63,184,67,77,121,202,259,74,32,88,30,26,80,70,118,36,0,630
50,54,23,40,195,35,59,64,0,272,39,16,39,16,23,66,44,32,34,23,460
80,30,25,48,123,59,43,124,73,204,74,17,61,21,22,66,73,47,22,0,406
77,37,26,72,123,152,59,62,5,324,187,17,47,16,17,61,27,34,19,0,512
64,23,16,38,146,34,45,66,44,134,25,14,51,11,9,62,27,38,20,0,353
5,1,5,9,7,25,1,8,0,18,11,1,4,5,1,7,5,2,0,0,43
14,15,18,15,45,5,17,13,5,102,11,6,17,4,6,12,6,15,9,0,163
34,47,38,31,135,23,42,66,60,283,56,27,35,11,11,51,28,29,30,0,481
14,13,7,13,64,23,18,22,0,95,53,6,11,0,1,24,10,5,5,3,151
20,37,70,19,103,24,38,40,12,277,19,15,40,12,11,40,22,17,33,0,431
69,35,30,22,110,27,25,59,7,184,32,5,22,15,16,52,33,48,17,0,328
6,1,15,4,41,1,9,9,5,83,2,7,5,0,4,21,7,9,14,0,105
96,52,45,83,162,81,94,129,80,341,92,24,57,27,21,89,128,63,27,0,635
70,30,39,37,112,29,74,72,12,176,29,23,36,25,12,57,24,33,29,0,383
68,54,42,44,145,24,97,52,0,364,49,24,41,15,15,68,18,25,17,21,597
95,53,39,66,221,70,88,63,15,341,95,19,67,21,25,118,36,52,35,0,583
70,46,33,63,193,81,105,100,40,345,104,37,51,22,25,89,40,63,41,0,604
16,24,53,22,127,9,47,40,0,284,19,12,20,9,11,54,18,28,40,27,384
40,50,81,44,125,36,94,44,74,589,46,27,46,11,9,60,19,23,74,0,862
35,40,138,26,166,27,117,58,0,433,19,40,21,9,17,77,15,39,64,20,719
170,38,28,88,266,100,95,129,33,404,93,34,96,115,26,156,45,101,53,0,632
40,45,18,27,100,34,56,54,8,189,21,13,34,16,11,48,20,38,17,0,353
123,41,49,70,168,120,83,152,19,302,196,43,80,28,13,67,40,92,42,0,526
24,19,9,18,59,20,20,31,0,58,27,5,18,8,14,32,12,17,11,0,114
135,42,23,83,180,38,122,123,76,316,48,45,78,41,14,68,40,102,42,0,660
120,82,94,109,305,192,140,168,31,533,329,49,68,20,27,127,63,78,56,0,957
62,42,21,47,118,92,69,55,0,237,142,21,24,15,10,30,19,38,23,24,397
23,34,31,23,62,10,45,29,33,219,18,4,20,11,14,41,7,16,25,0,353
56,40,40,44,180,35,54,63,11,251,24,30,31,19,10,87,21,41,35,0,476
18,20,51,12,93,51,50,44,0,180,53,17,21,10,22,47,14,13,21,3,298
2,4,8,0,4,2,2,3,8,25,2,0,7,0,0,2,1,2,1,0,43
24,39,25,14,51,4,21,22,0,152,2,9,17,12,6,21,3,15,12,1,254
39,34,27,41,156,37,64,70,27,228,32,27,39,17,12,86,17,102,11,0,380
160,98,55,142,317,86,121,172,0,589,77,34,93,33,38,116,34,65,47,331,872
82,35,25,42,160,36,58,84,21,222,38,15,49,21,30,71,32,62,34,0,413
59,55,46,66,153,24,60,84,76,343,46,29,65,16,14,64,60,33,34,0,605
123,67,79,81,291,46,108,157,0,504,60,33,69,24,14,108,101,76,46,10,915
96,31,18,64,137,30,65,124,62,207,42,17,67,75,14,70,59,56,37,0,397
22,13,33,22,40,38,27,18,5,97,33,7,23,3,9,23,8,8,19,0,182
129,79,83,115,301,100,111,178,30,487,125,31,123,47,29,155,99,90,84,0,830
48,13,27,38,92,26,53,39,17,145,33,17,38,15,5,33,26,40,17,0,274
42,48,31,43,112,195,74,72,0,224,312,17,26,2,21,46,12,22,27,10,346
40,17,17,18,75,24,50,44,18,157,22,15,18,23,1,41,14,30,16,0,280
172,85,76,84,281,94,149,194,0,633,136,39,94,54,42,98,74,105,54,37,1035
24,14,17,9,42,33,19,29,0,112,34,6,22,3,4,19,5,8,13,3,182
123,52,34,106,230,121,60,119,10,366,118,28,98,36,16,125,37,77,29,0,657
83,40,31,74,178,201,75,104,16,315,228,23,75,25,14,88,44,55,33,0,532
13,34,29,14,70,13,23,29,0,131,10,14,21,3,17,31,27,7,8,4,214
140,74,44,82,198,96,68,129,53,388,95,22,80,35,87,90,36,91,37,0,699
15,8,12,16,36,5,21,22,27,96,4,8,14,6,6,20,29,14,8,0,149
34,13,6,20,45,34,9,34,5,80,39,9,25,2,4,22,22,18,4,0,135
99,57,36,67,173,101,90,126,0,304,106,35,62,23,21,89,61,63,46,22,525
120,52,28,70,181,91,65,135,4,228,128,17,59,22,23,76,62,70,44,0,473
107,46,35,69,166,99,75,134,0,335,111,24,62,24,22,83,69,67,41,2,561
109,64,30,73,208,59,53,130,104,329,87,18,84,22,24,112,91,69,47,0,605
120,62,44,87,220,115,92,150,14,496,165,38,98,28,27,110,77,59,55,0,743
42,24,25,31,71,38,31,38,0,118,20,11,32,1,9,29,33,28,24,2,229
100,141,42,70,185,108,123,95,32,369,189,24,65,38,29,89,25,87,30,0,689
92,47,41,56,167,26,92,79,0,293,45,26,58,23,12,86,42,50,31,13,507
67,48,51,34,159,71,88,64,31,383,214,13,14,9,8,72,15,31,19,0,601
97,50,38,68,189,66,59,152,46,308,59,26,77,29,25,91,113,57,34,0,562
4,7,6,1,26,5,4,9,9,23,4,3,2,1,3,25,7,2,7,0,40
52,59,45,40,169,36,53,81,0,384,41,18,32,14,11,62,34,29,28,45,605
88,78,52,74,193,77,69,135,0,433,70,28,65,29,24,91,104,58,48,15,667
74,57,54,94,176,54,82,115,16,645,60,19,81,25,14,93,57,57,31,0,930
79,55,50,74,173,79,71,101,11,306,72,13,71,22,13,77,103,57,26,0,545
41,47,48,20,96,30,41,64,0,240,31,21,22,20,13,46,47,21,19,22,365
60,40,23,45,155,39,59,69,0,351,35,24,41,25,7,55,54,24,13,8,555
23,8,5,11,77,39,15,28,0,94,43,11,20,7,1,28,12,9,9,3,157
21,11,7,27,98,19,32,36,2,123,13,18,25,8,5,47,12,12,10,0,226
208,48,36,90,274,96,91,139,36,410,105,31,89,80,19,113,31,131,44,0,785
83,56,42,74,143,162,89,115,25,249,319,26,53,4,18,69,31,45,37,0,436
97,96,62,71,269,101,109,123,1,444,126,26,73,19,30,108,33,57,33,0,868
2,6,27,15,51,20,8,22,8,72,14,5,28,4,3,38,9,1,7,0,122
37,38,34,40,105,36,38,56,9,204,38,10,31,24,34,57,16,21,25,0,341
7,13,9,3,20,10,12,6,0,26,3,4,7,1,8,12,9,5,7,0,50
59,23,10,32,57,133,52,60,16,127,299,10,8,5,8,21,18,31,11,0,158
101,57,62,77,221,56,107,138,27,476,75,29,64,23,27,104,113,70,31,0,786
50,27,56,48,133,18,57,73,0,285,16,14,56,18,6,57,19,52,31,11,467
92,72,55,64,150,103,87,139,13,259,188,28,51,24,22,78,59,52,27,0,505
15,4,2,6,36,4,15,12,0,53,4,5,9,1,3,8,16,6,4,6,85
129,46,35,51,162,28,68,95,22,308,53,24,54,86,21,84,28,63,20,0,511
63,37,24,49,89,48,49,73,23,176,56,23,48,30,13,27,31,56,22,0,325
36,33,41,20,127,50,37,44,1,168,44,7,34,5,10,60,11,26,24,0,336
26,26,26,32,140,44,38,36,1,257,37,20,40,6,7,59,12,29,20,0,396
0,5,3,3,18,5,2,2,2,12,8,2,5,0,0,4,0,0,1,0,32
64,35,76,47,171,28,62,55,1,326,32,18,39,12,21,82,23,31,48,0,559
59,70,86,48,221,19,62,90,0,522,33,23,46,15,30,104,50,35,31,22,788
81,46,82,59,183,62,69,82,0,354,62,17,60,16,19,86,39,61,45,29,584
46,58,107,27,175,21,58,70,0,454,22,29,31,9,18,101,21,31,34,22,698
54,50,100,50,170,38,112,65,0,534,38,33,38,9,20,94,33,33,40,9,826
125,65,66,69,295,64,91,89,1,429,47,32,53,36,20,127,21,162,72,0,724
25,19,43,37,112,124,59,45,37,198,153,24,38,12,9,41,17,23,24,0,358
145,69,53,88,236,57,115,131,36,415,74,27,90,50,14,114,42,112,49,0,773
33,17,18,26,74,15,21,75,32,92,19,2,23,10,3,33,113,15,20,0,165
132,60,41,75,268,39,88,186,17,423,59,26,49,226,15,107,31,61,40,0,715
47,38,41,48,126,9,75,54,0,393,16,6,46,5,14,51,28,33,36,24,572
37,58,43,45,144,17,103,80,0,493,15,29,63,11,21,43,22,33,43,32,708
54,33,51,48,143,57,75,73,0,320,49,34,56,8,11,75,34,29,33,24,501
81,56,45,33,182,44,76,96,0,349,44,27,43,10,21,97,29,52,33,5,601
54,40,78,48,188,40,84,53,0,397,35,31,59,15,13,102,22,30,48,22,605
86,47,52,60,193,38,61,86,40,352,27,23,76,24,18,99,41,60,41,0,606
18,28,34,3,41,11,10,20,0,107,7,3,4,3,42,23,2,15,16,16,141
33,44,64,28,201,24,67,48,0,298,29,28,27,8,18,85,14,24,43,47,484
53,40,43,42,155,24,80,51,0,438,27,25,53,12,16,75,20,33,28,14,623
81,43,62,53,178,24,81,73,22,446,31,17,65,23,15,95,24,54,44,0,695
74,60,53,57,187,31,62,88,0,289,37,25,60,17,23,90,27,55,52,29,486
70,71,45,43,183,24,51,67,67,387,27,18,68,14,23,100,40,55,28,0,635
88,52,61,60,175,29,78,75,0,1426,36,22,58,15,24,73,24,53,33,67,1639
47,48,55,38,131,22,58,67,0,285,13,21,38,4,19,69,22,35,37,22,471
47,37,34,35,194,17,52,60,0,364,13,21,44,10,14,84,27,35,33,44,515
82,52,68,52,203,38,76,92,0,488,21,32,59,10,52,83,14,52,37,125,666
57,72,35,50,197,32,73,51,0,335,31,23,60,12,29,70,19,34,20,47,557
36,24,30,38,148,23,53,34,0,300,21,13,25,8,19,44,21,19,23,11,482
40,34,46,45,178,30,71,54,0,243,37,14,38,17,18,78,22,25,34,8,450
31,36,39,48,123,12,98,76,0,500,16,25,54,18,14,37,39,23,38,16,683
42,10,22,20,66,15,18,43,0,98,9,13,20,8,2,25,9,33,8,5,202
47,25,31,30,145,72,46,87,3,254,118,11,42,18,10,44,16,23,30,0,428
93,54,64,85,142,114,78,86,0,353,103,10,77,16,14,50,50,76,43,25,605
12,8,28,19,83,9,47,25,4,213,11,8,18,6,4,40,10,10,16,0,325
100,45,97,65,285,45,78,105,0,536,32,18,57,16,24,117,31,52,51,10,948
20,32,63,22,129,8,44,34,0,296,9,20,28,2,15,60,9,9,18,26,452
19,35,39,14,99,13,31,27,2,126,18,7,11,12,25,43,5,20,23,0,241
12,13,34,16,76,3,28,21,11,146,9,3,18,5,1,30,5,6,14,0,269
52,25,33,39,111,23,74,50,4,337,13,15,26,15,8,56,19,27,16,0,553
75,26,51,40,126,18,63,68,0,250,16,19,41,13,10,32,15,28,22,36,485
38,26,40,25,133,15,31,50,18,309,9,8,29,16,6,62,15,23,10,0,507
49,17,31,21,142,17,37,49,0,404,9,13,16,22,3,37,12,20,27,9,599
49,29,54,29,115,24,38,43,6,164,19,15,33,13,15,56,27,24,29,0,320
31,27,23,19,70,4,33,28,10,153,8,5,8,7,8,34,4,28,32,0,264
31,32,61,30,134,48,51,57,0,249,35,8,21,4,8,39,17,17,45,42,457
13,20,42,16,96,47,50,42,59,255,61,15,18,5,8,57,8,17,33,0,418
94,38,61,56,224,58,63,81,0,302,53,15,48,57,9,117,25,54,44,28,527
72,28,27,101,174,32,79,91,16,340,30,27,66,77,15,70,33,44,21,0,577
73,26,28,48,136,28,64,62,29,458,30,14,45,57,7,50,5,36,14,0,694
62,48,43,56,204,27,51,61,0,372,26,15,27,46,15,66,10,35,28,27,629
124,42,45,79,258,35,56,95,0,306,34,12,54,108,22,107,18,70,32,21,562
34,34,19,20,113,37,47,64,14,227,40,20,41,27,7,61,11,21,20,0,361
11,30,25,11,61,13,30,24,36,291,11,10,17,5,9,35,7,11,11,0,416
20,34,27,24,77,16,48,24,0,192,6,14,19,7,5,31,6,18,34,53,269
8,8,13,6,25,7,23,11,4,73,24,6,4,3,2,17,6,9,10,0,97
83,47,54,48,170,47,87,78,11,341,66,16,46,12,15,83,31,49,24,0,624
41,40,33,52,129,52,62,52,0,349,68,29,41,6,8,52,21,29,16,19,521
113,77,61,114,302,156,107,114,0,659,123,21,80,37,19,146,48,62,37,44,1086
41,27,82,33,153,41,67,48,17,289,38,27,37,9,10,71,23,24,30,0,529
34,34,73,27,149,16,66,33,0,348,20,21,24,8,11,53,8,18,42,18,557
66,35,52,45,141,54,107,81,7,403,94,16,26,10,10,55,29,36,33,0,682
43,43,55,42,210,87,91,90,0,400,69,24,65,30,12,110,31,25,39,1,655
39,65,35,47,194,56,79,51,0,374,31,20,47,5,23,85,25,15,25,22,642
46,45,42,33,188,43,56,64,0,403,37,15,45,18,29,59,15,26,30,0,646
52,51,46,33,182,81,65,73,0,625,57,34,38,7,18,91,14,37,29,29,854
8,5,9,4,55,5,20,24,0,56,4,9,3,2,3,16,3,3,17,2,124
72,74,53,63,171,26,85,69,0,269,32,44,53,11,24,82,21,43,40,52,480
62,32,41,47,114,4,55,40,0,363,6,17,44,11,16,47,8,38,41,26,504
86,41,46,53,116,32,52,76,0,344,32,20,55,30,22,48,19,44,37,24,515
62,38,54,31,86,26,48,56,0,248,30,19,44,9,12,57,16,38,30,8,386
108,26,55,66,182,45,39,101,0,368,25,15,33,18,8,64,17,57,49,138,566
90,24,51,50,123,28,68,80,0,647,23,16,40,29,13,50,13,42,46,76,813
74,44,74,40,167,16,40,41,23,337,15,21,49,12,17,77,13,53,45,0,554
135,38,54,50,150,26,66,68,9,396,19,28,59,25,20,52,30,72,43,0,644
24,13,17,10,65,7,25,23,0,186,3,8,14,1,4,35,14,14,6,4,267
49,46,50,43,208,66,92,110,0,363,54,30,34,22,10,61,33,27,41,32,683
60,62,65,46,161,63,90,78,6,473,64,24,49,16,13,74,25,28,53,0,758
19,23,20,31,60,10,21,72,6,129,17,5,34,8,3,33,54,12,8,0,217
85,24,32,23,72,49,45,43,0,184,78,9,20,6,6,33,11,57,14,0,323
25,39,43,21,87,63,61,66,18,206,74,21,35,21,11,50,12,28,25,0,352
63,42,28,68,236,67,82,138,0,364,62,26,63,92,11,76,39,47,39,15,618
49,50,52,31,141,36,96,51,28,434,21,34,32,24,21,61,31,26,33,0,685
13,5,15,4,29,4,28,23,3,139,5,6,2,4,2,16,8,4,11,0,205
34,26,41,20,132,18,82,44,0,235,18,5,19,2,8,46,10,17,46,21,440
56,27,42,35,83,11,56,52,0,178,10,8,19,7,3,30,15,24,13,83,328
88,23,38,36,103,23,50,55,0,248,22,3,38,18,6,48,14,48,21,24,422
85,54,59,63,209,58,85,132,0,548,53,35,66,15,16,96,38,62,50,5,857
77,50,59,65,221,42,72,81,0,437,31,21,57,17,14,96,35,45,47,0,741
5,6,5,3,14,1,14,8,3,97,1,0,5,0,4,7,0,4,6,0,129
12,10,15,10,39,9,24,15,6,130,9,3,4,1,4,26,4,9,5,0,205
3,7,6,12,55,2,22,10,10,81,2,12,11,2,4,15,5,6,4,0,147
60,39,69,33,194,21,76,67,9,487,14,15,36,22,15,130,15,40,34,0,734
54,36,52,31,179,19,86,55,0,290,9,30,24,6,8,110,14,46,37,49,469
39,24,46,32,130,82,59,61,13,276,65,28,30,13,10,51,15,40,34,0,476
25,29,26,32,120,18,48,43,0,298,10,18,23,28,9,56,10,21,19,0,445
47,30,51,37,150,44,93,73,5,311,39,25,59,17,7,71,14,40,36,0,533
4,5,7,8,26,5,6,8,0,50,3,4,7,6,1,11,1,7,8,0,71
17,25,38,23,105,6,31,29,0,273,0,11,16,4,10,36,15,15,19,16,405
86,35,42,51,142,24,73,80,19,344,30,22,80,6,10,46,32,42,66,0,562
78,29,44,45,130,26,55,68,0,388,28,18,55,8,17,41,17,36,26,15,602
26,33,57,31,122,9,54,42,0,347,6,8,21,6,14,64,11,24,29,6,532
43,18,29,26,209,28,78,44,0,252,21,18,33,8,10,91,11,28,13,2,492
45,29,47,23,111,17,90,47,8,277,14,21,26,18,8,61,9,22,31,0,484
43,34,49,20,142,13,57,47,3,262,9,11,27,12,15,59,18,25,23,0,471
48,33,70,53,259,63,91,63,19,506,34,25,50,11,11,111,22,27,34,0,880
81,98,68,61,273,268,129,139,0,531,287,34,65,20,19,126,30,25,47,9,986
48,35,87,32,148,39,50,53,0,329,34,17,27,9,11,53,28,35,61,30,516
35,35,123,40,179,33,52,64,13,332,42,24,36,5,12,66,14,30,92,0,585
34,29,105,36,139,52,46,64,14,368,49,14,35,17,11,56,21,22,73,0,589
32,27,38,19,162,136,55,74,0,300,100,32,22,19,5,74,16,26,32,3,514
69,67,39,53,146,29,79,79,0,464,29,26,41,17,28,59,21,57,29,33,685
11,8,14,7,18,2,9,12,0,58,1,6,6,2,6,6,0,7,9,4,92
73,74,34,46,179,20,60,58,0,371,19,22,42,19,16,58,27,42,23,63,584
95,79,63,42,181,23,59,78,0,375,29,20,41,20,37,81,19,57,43,51,597
104,29,31,62,113,81,74,121,0,371,51,13,55,8,7,46,97,47,33,25,604
127,33,45,65,141,97,73,129,0,408,73,16,62,7,3,39,117,65,28,29,679
107,32,23,44,137,96,88,152,0,377,64,24,61,13,7,56,138,45,15,11,622
12,24,18,14,53,17,47,31,4,172,21,8,10,6,6,30,24,6,16,0,265
89,54,53,99,289,165,86,134,0,460,153,25,85,79,14,98,28,64,59,9,815
119,75,71,97,200,78,77,108,0,377,85,20,76,26,23,91,42,68,37,18,716
143,69,86,99,217,57,111,116,0,472,60,36,103,35,27,91,40,86,54,52,786
39,32,33,15,136,19,40,37,0,356,13,7,19,14,5,62,12,23,19,3,530
76,35,45,49,200,58,74,72,2,381,65,29,59,34,13,70,24,57,33,0,608
57,29,31,42,181,28,68,75,18,387,32,12,59,23,10,75,11,55,36,0,603
62,35,31,31,165,54,58,111,0,346,57,18,51,17,11,48,49,26,10,36,570
83,39,84,36,197,19,68,94,0,553,13,22,53,21,8,80,40,50,28,15,843
2,7,7,2,31,5,7,21,0,40,7,4,4,0,4,14,17,6,2,6,58
100,46,46,56,192,60,114,129,34,611,76,45,62,14,13,69,67,44,69,0,929
43,29,30,16,111,34,55,38,0,244,30,13,22,9,9,59,30,18,20,16,374
36,39,46,32,162,18,49,43,0,339,17,16,24,4,6,76,47,14,39,44,477
23,26,31,30,118,24,31,30,0,254,19,6,22,4,4,41,26,10,28,31,376
33,42,48,25,116,16,47,38,0,239,17,21,19,6,9,59,22,17,27,33,374
100,72,58,68,237,51,98,113,111,471,64,29,75,15,17,98,100,64,42,0,875
44,15,40,19,143,41,49,36,0,269,41,19,22,6,4,54,18,19,22,51,400
29,69,68,56,163,34,91,65,0,414,29,30,41,3,19,76,33,19,53,44,642
29,35,29,25,136,18,63,51,0,322,28,17,29,9,12,50,29,16,29,23,466
10,27,40,16,114,9,46,33,0,218,12,14,15,2,3,47,13,5,24,31,347
13,35,37,23,174,14,53,36,0,297,17,22,15,5,9,86,20,14,20,10,464
20,46,46,18,135,22,54,53,0,350,27,19,25,4,6,68,28,11,33,36,487
48,22,45,31,102,34,52,61,0,219,29,15,25,7,10,46,35,20,35,5,387
41,44,53,28,133,31,56,47,0,403,30,33,15,10,15,51,31,20,50,11,570
67,26,33,25,119,38,64,58,0,285,53,31,41,12,6,49,38,41,25,3,416
70,35,42,35,137,27,75,67,0,304,31,24,41,7,11,65,52,30,40,13,478
29,20,20,22,62,8,18,24,0,144,17,15,21,5,2,26,14,12,16,7,212
44,40,61,37,151,18,78,55,0,370,26,28,19,9,10,56,42,19,42,23,580
47,49,38,35,127,20,84,85,16,1617,26,29,30,7,8,50,31,26,46,0,1865
31,25,36,39,120,23,79,52,0,360,29,17,25,11,11,35,35,16,24,67,495
34,56,67,52,179,28,91,70,0,517,22,46,48,8,18,65,34,15,46,44,748
44,48,37,49,139,19,66,64,0,449,22,31,50,3,15,42,41,17,22,14,658
25,47,49,39,89,73,46,47,0,337,57,10,20,9,16,28,37,14,15,17,529
68,44,25,38,139,127,80,91,0,357,101,27,36,7,10,63,41,36,20,7,621
33,26,36,36,108,72,53,79,0,321,70,22,30,5,6,39,28,16,22,33,493
16,14,17,23,58,42,43,25,0,118,44,13,14,1,2,19,18,17,7,5,216
12,15,9,10,38,9,8,25,15,58,10,13,11,4,5,19,15,11,11,0,100
35,43,42,52,78,53,39,30,0,246,29,8,28,1,30,31,38,16,29,32,376
3,6,17,10,44,3,24,9,4,98,8,12,17,8,8,24,12,4,14,0,111
67,49,61,48,218,44,130,93,0,484,57,49,42,11,13,72,43,32,34,3,838
93,48,54,45,186,55,84,72,48,530,64,33,36,12,15,81,59,44,44,0,827
72,50,49,32,177,33,85,43,0,385,33,29,34,13,11,67,34,41,37,38,589
83,46,60,52,141,64,63,90,0,396,83,20,39,17,14,49,36,35,26,37,639
81,34,47,60,163,88,65,119,0,455,103,16,53,19,8,49,18,26,21,68,731
11,12,21,16,76,22,25,33,5,121,15,8,26,4,6,29,41,7,13,0,193
19,65,47,38,183,122,89,61,42,455,87,29,32,11,26,66,61,12,24,0,773
34,26,18,38,115,317,89,116,46,430,350,11,40,9,4,45,31,32,28,0,679
39,35,36,53,154,266,72,122,0,389,245,29,35,10,6,49,40,12,31,61,648
33,35,51,33,142,91,59,44,14,316,79,38,29,4,15,60,28,18,20,0,527
29,48,73,40,147,24,73,34,0,707,23,29,48,4,13,65,10,10,30,36,907
47,36,59,31,163,43,76,69,26,417,46,19,45,12,11,72,20,19,37,0,686
62,62,110,69,195,54,84,64,0,335,59,35,77,18,11,78,45,25,54,15,618
60,64,87,53,205,49,94,68,2,386,46,33,65,18,19,83,37,36,60,0,671
43,59,84,46,187,27,99,49,10,440,20,33,43,0,13,87,21,24,39,0,764
49,43,56,63,142,69,78,63,0,283,58,29,26,9,21,57,42,30,37,12,525
70,37,63,67,172,111,66,58,0,308,96,12,42,9,6,63,63,48,26,3,584
42,62,44,37,171,141,68,55,0,383,84,24,24,3,25,78,40,21,21,13,670
22,15,12,17,50,9,25,30,13,145,9,10,9,2,4,19,61,20,5,0,199
15,32,54,16,92,18,38,72,0,247,8,7,24,5,4,23,33,5,13,10,452
20,29,22,24,132,20,48,47,0,253,15,9,33,6,8,44,72,12,23,16,357
24,12,9,25,55,61,35,31,13,97,199,3,9,0,1,15,3,2,6,0,124
7,12,17,10,22,13,24,14,0,63,2,4,3,2,4,8,36,10,7,10,96
17,10,14,11,37,5,19,10,4,79,2,3,7,4,0,18,17,11,14,0,130
21,32,22,24,209,91,54,44,0,427,72,11,12,2,8,63,38,16,12,15,675
78,48,34,44,139,49,56,51,0,223,40,11,34,4,13,43,106,34,25,18,394
12,20,8,17,59,83,34,28,16,143,62,17,14,11,2,35,15,2,9,0,253
8,10,14,4,61,58,21,26,0,146,38,6,5,2,4,28,18,4,4,14,225
59,35,60,49,143,36,36,41,0,253,31,11,19,2,8,46,123,19,26,36,391
17,28,10,12,20,23,11,11,0,279,7,5,7,0,8,5,38,2,4,26,309
12,33,48,17,94,17,33,30,21,237,14,7,16,5,6,28,66,13,13,0,374
71,45,57,70,129,35,83,50,0,294,34,14,36,11,14,48,135,28,34,10,470
119,48,57,71,166,64,80,82,0,709,74,20,55,3,12,46,163,41,26,18,938
51,58,57,35,153,34,41,51,0,301,34,12,22,11,11,51,121,14,26,16,463
69,40,71,48,163,52,57,37,0,316,44,11,17,5,7,53,93,38,28,15,542
60,44,42,65,142,55,58,59,0,267,59,18,39,10,7,55,116,26,17,16,429
121,46,51,80,190,74,50,73,17,236,65,17,48,18,9,60,178,44,30,0,469
32,51,47,32,189,30,50,40,0,283,25,22,27,3,9,55,115,15,17,19,447
100,32,41,41,149,71,58,70,0,207,62,12,30,6,9,67,148,31,17,22,365
42,35,41,30,149,56,41,69,10,186,52,12,25,14,9,35,152,20,18,0,322
2,5,15,8,28,5,4,12,0,73,3,3,8,0,1,12,20,0,3,4,98
101,107,52,60,182,123,78,73,0,447,95,27,52,6,41,57,37,58,15,7,828
28,225,33,21,65,55,53,15,0,160,47,18,16,2,220,30,25,19,13,8,257
63,54,52,77,214,52,81,60,0,519,65,33,68,13,9,81,36,22,35,19,791
84,25,50,64,199,56,94,79,24,531,75,35,53,17,7,73,55,45,38,0,808
5,9,15,5,34,14,10,6,1,38,21,2,5,1,9,21,15,0,5,0,58
68,63,79,93,307,68,149,152,0,611,84,51,97,35,18,109,47,55,50,5,1039
47,30,34,28,97,96,53,50,0,279,84,9,22,6,9,34,21,23,21,29,456
47,23,30,36,117,112,54,70,0,390,113,16,22,8,12,41,28,23,17,44,555
40,21,26,17,105,58,45,42,4,257,34,9,14,8,9,53,80,21,12,0,375
7,11,15,12,42,6,13,15,0,79,11,4,7,0,11,26,12,4,5,5,115
29,49,58,33,111,53,70,41,11,246,65,20,29,2,61,65,17,20,24,0,398
27,55,36,37,143,53,72,42,0,353,45,11,40,9,73,48,15,22,22,20,513
89,43,42,53,153,61,97,115,0,394,71,37,55,5,15,61,30,51,33,34,655
85,35,28,53,176,101,79,104,0,342,129,32,59,3,7,45,34,47,23,21,603
59,44,42,25,128,106,76,89,0,431,109,28,45,9,11,49,31,28,27,24,639
24,63,24,27,126,61,65,50,0,265,51,8,33,7,28,44,79,23,23,8,401
25,20,21,10,55,44,32,27,0,147,36,7,9,3,4,24,37,8,8,3,242
15,13,23,7,71,36,37,87,0,273,26,5,4,5,4,28,71,6,10,23,380
8,11,4,13,26,10,18,7,8,62,16,6,5,0,2,13,4,6,1,0,114
11,13,25,6,23,28,12,8,0,58,21,2,2,2,7,8,20,5,14,2,101
59,50,51,61,202,76,79,68,0,477,55,35,25,9,9,67,75,32,36,24,756
57,47,37,34,138,71,76,54,0,371,125,18,29,12,7,52,14,10,27,4,587
37,50,31,61,163,69,67,95,20,334,129,29,47,7,27,60,27,20,26,0,555
24,27,42,36,128,49,50,69,0,298,35,16,29,8,9,46,51,18,21,26,464
48,39,55,43,185,217,89,69,0,351,248,21,41,8,10,88,12,28,27,13,600
68,45,47,50,168,161,57,61,5,513,190,18,30,2,10,46,16,28,33,0,802
52,40,51,51,194,147,65,71,4,393,226,22,31,10,8,46,17,23,25,0,660
22,28,37,37,144,15,55,46,0,231,23,19,21,10,8,58,17,15,15,5,424
67,61,39,35,249,55,72,71,0,422,53,17,31,2,13,73,39,29,29,19,766
61,63,41,57,240,34,96,94,10,541,36,32,44,7,14,88,24,41,36,0,915
9,5,8,7,30,5,6,5,1,62,3,1,1,1,2,17,15,3,2,0,93
22,23,16,44,52,64,34,37,13,144,53,8,25,7,5,19,45,18,9,0,260
22,42,53,25,153,44,51,52,0,274,49,17,20,3,2,38,50,13,24,8,492
20,12,31,10,42,27,30,10,4,121,20,14,10,2,3,20,25,13,8,0,192
87,47,58,111,201,153,70,97,9,385,131,17,80,17,14,90,76,51,35,0,707
58,56,43,76,132,177,67,68,0,337,148,17,59,9,9,66,56,39,20,4,587
77,57,64,84,166,84,47,70,0,479,77,16,64,10,6,66,42,43,39,26,739
108,61,58,114,186,86,62,111,0,447,91,28,91,8,17,60,62,68,36,18,754
42,39,27,19,80,37,64,25,15,140,24,17,20,8,22,28,57,14,23,0,275
39,45,57,42,151,105,80,75,0,398,114,23,57,11,11,74,35,20,36,20,591
12,15,15,9,61,23,34,21,2,225,7,6,5,0,1,21,38,5,11,0,323
23,36,28,21,94,71,66,41,0,242,67,14,27,3,8,35,23,17,22,11,395
33,26,37,26,108,75,42,43,2,233,67,15,32,7,7,26,48,16,21,0,386
24,49,69,27,133,55,61,47,6,344,54,16,19,9,22,58,60,14,26,0,537
51,41,67,35,140,77,75,55,0,295,69,27,42,8,12,61,43,31,33,20,490
10,21,24,10,53,19,16,18,0,126,12,7,14,5,9,22,19,4,10,10,185
35,59,90,33,141,47,106,45,4,345,39,22,23,10,15,62,43,11,48,0,632
48,69,102,28,118,74,92,50,0,329,67,33,30,13,18,66,42,21,36,1,583
11,13,22,17,102,45,43,24,0,179,19,6,10,1,6,37,14,5,16,7,335
28,42,26,26,165,49,56,43,9,293,55,20,25,6,13,70,32,14,15,0,487
21,26,34,35,134,93,47,55,13,299,71,11,23,7,8,49,74,13,20,0,481
27,71,24,20,81,72,32,31,8,229,71,8,16,3,54,22,31,13,20,0,357
131,33,52,28,138,80,80,35,0,317,91,29,21,11,15,64,15,90,22,23,513
125,43,31,31,131,118,51,35,15,326,125,13,38,7,14,64,16,94,16,0,519
46,67,86,50,224,63,83,85,20,507,60,23,31,11,17,116,52,29,37,0,855
61,50,94,51,170,70,82,100,0,525,54,22,38,10,18,87,44,35,32,43,820
54,69,39,76,195,79,77,72,0,381,54,40,48,13,25,79,50,41,25,50,617
77,61,43,70,160,71,55,54,0,368,55,25,44,12,10,54,27,51,29,23,629
52,58,44,44,151,100,90,60,0,378,77,20,50,11,17,66,23,39,15,21,638
41,65,48,50,145,63,78,88,9,746,58,27,66,9,24,77,39,32,41,0,960
35,37,27,27,109,87,75,34,0,317,63,9,29,4,5,48,27,29,8,15,511
28,54,58,31,153,30,57,56,22,389,31,21,35,4,9,86,21,28,28,0,615
33,51,38,33,173,29,71,30,0,440,39,13,24,4,14,68,26,12,26,54,618
37,54,66,37,143,49,80,65,0,374,42,29,33,11,10,76,23,25,40,24,592
13,52,25,23,43,62,29,28,3,137,58,2,19,3,18,14,20,5,4,0,272
32,67,40,42,142,52,70,48,0,376,33,23,35,13,22,61,70,15,23,24,550
57,56,31,58,226,156,84,76,0,431,150,21,40,15,11,85,38,39,18,11,747
43,47,44,57,243,131,92,81,11,551,116,19,54,9,17,78,48,37,25,0,897
110,57,72,56,250,47,112,92,0,453,40,41,50,15,29,96,72,64,40,31,771
58,60,75,49,205,37,105,59,13,579,38,42,40,13,29,71,50,31,43,0,883
74,51,58,46,202,61,86,76,8,582,47,25,59,10,27,67,46,32,43,0,888
16,35,33,22,88,16,28,49,0,219,17,5,30,3,9,40,36,17,11,5,333
20,22,48,26,113,37,46,39,2,280,23,16,36,1,1,34,51,9,23,0,439
52,83,38,49,98,127,48,59,12,318,102,12,30,8,27,43,52,26,16,0,568
88,92,60,47,167,59,67,76,0,437,45,22,33,10,55,77,50,32,23,4,742
58,79,80,35,150,27,104,61,10,392,37,30,34,5,65,67,60,36,42,0,620
17,23,25,21,57,59,31,44,5,151,57,12,25,4,9,42,27,5,13,0,239
54,41,53,36,181,47,47,65,12,334,48,13,44,3,9,86,85,20,26,0,536
1,18,4,5,26,31,13,7,1,62,25,4,1,1,19,16,2,2,1,0,97
93,89,49,55,232,29,111,89,74,427,27,26,70,49,25,105,49,49,38,0,810
24,21,10,10,33,14,6,14,9,45,5,2,12,1,8,9,36,1,9,0,103
31,17,30,14,57,17,23,19,0,121,16,5,9,5,8,36,6,13,29,1,201
52,48,33,47,99,38,39,47,0,261,30,20,26,10,25,37,16,29,24,22,425
49,58,46,45,133,28,47,67,2,367,34,21,32,8,30,62,17,42,31,0,565
67,59,53,48,153,48,40,86,0,289,36,28,25,11,48,56,35,38,33,18,515
36,37,33,26,81,33,38,41,0,225,34,15,21,4,18,38,8,19,15,5,373
29,76,62,57,150,44,40,43,0,275,30,20,34,10,41,65,16,26,50,18,466
23,33,50,35,90,14,28,35,0,237,12,7,13,4,23,44,17,16,25,19,365
34,61,48,38,140,35,41,42,0,317,35,8,33,10,31,78,14,26,23,24,474
29,47,45,41,93,18,57,48,0,279,19,19,36,7,30,52,13,28,19,3,431
30,40,40,23,81,34,33,40,0,298,33,10,19,6,28,48,19,16,23,21,396
41,36,39,46,92,35,34,46,0,226,41,18,35,6,26,36,12,38,30,4,349
41,18,34,27,58,18,31,36,0,897,15,16,23,3,19,27,13,32,20,22,970
62,57,58,43,140,33,34,81,0,230,37,26,33,18,33,75,21,57,21,7,410
79,89,48,68,171,56,72,84,32,320,77,20,52,11,47,88,36,53,45,0,590
39,53,49,36,117,21,47,35,0,256,23,18,28,9,20,68,16,31,23,39,378
35,70,46,30,97,24,56,32,0,255,26,18,29,4,33,42,15,18,30,10,420
21,21,28,10,59,11,22,23,9,96,16,7,6,1,14,50,10,14,21,0,161
11,24,24,15,45,2,20,28,7,128,7,10,19,6,14,21,3,11,9,0,204
18,42,29,17,64,21,44,31,24,179,20,17,19,4,17,37,17,17,21,0,300
8,14,21,25,48,22,18,22,0,126,17,2,12,12,11,17,9,6,20,4,194
35,74,68,84,147,21,81,75,0,405,27,29,55,12,39,48,24,30,40,34,652
25,88,68,40,129,28,69,45,0,337,25,20,27,6,48,71,9,17,30,60,516
4,14,9,3,48,16,10,7,4,89,15,4,4,1,4,26,2,4,9,0,135
2,4,8,1,23,13,10,7,0,46,14,5,3,1,1,13,1,1,4,2,69
8,7,7,10,21,12,31,10,3,51,17,15,8,4,2,19,1,2,11,0,81
41,34,46,42,166,73,68,78,8,394,70,21,45,13,10,61,43,15,35,0,637
46,69,81,38,125,52,82,78,23,547,136,27,29,3,19,42,13,17,54,0,801
18,40,16,18,65,20,54,37,0,176,54,17,13,4,13,33,9,6,12,7,276
29,42,43,24,93,32,53,36,0,257,90,14,13,5,11,38,9,11,20,11,387
15,24,14,11,52,23,21,14,3,92,50,7,6,2,5,21,4,1,12,0,161
43,91,75,39,94,44,72,61,0,335,107,15,21,3,23,49,13,14,46,7,556
26,59,53,29,128,53,54,38,0,253,98,16,14,6,22,64,14,14,28,6,411
42,78,61,35,126,46,79,36,0,456,127,22,27,4,28,53,14,23,38,17,606
7,8,6,8,28,28,14,7,0,73,30,4,1,0,9,9,3,5,2,3,113
83,56,59,39,173,44,87,78,19,376,48,21,36,9,39,81,17,70,40,0,653
16,15,40,15,85,11,25,29,10,215,10,17,17,5,12,44,10,6,22,0,318
40,46,34,39,122,27,53,65,20,247,35,21,44,4,20,49,24,37,25,0,434
13,25,30,12,84,10,34,33,2,149,11,14,11,2,19,57,16,20,20,0,222
30,60,44,46,136,40,65,69,0,207,31,27,36,12,46,76,43,16,33,11,366
23,26,48,21,89,29,62,29,0,177,30,16,28,9,21,35,18,19,19,10,299
22,28,38,36,100,55,54,44,0,247,37,13,21,3,4,44,157,6,14,11,314
14,46,46,16,69,15,41,13,0,215,16,20,17,2,20,32,5,11,36,8,308
13,25,30,4,22,19,10,7,0,86,17,7,7,0,12,18,3,4,14,1,133
6,32,24,12,67,18,22,18,0,183,10,3,8,3,4,26,3,6,15,4,300
48,74,68,33,148,44,66,51,0,485,47,15,33,13,15,57,21,25,39,5,747
19,30,20,21,40,15,33,19,0,126,11,6,24,3,38,14,5,15,4,5,198
18,106,41,20,60,34,31,45,8,191,29,9,19,6,149,22,15,18,22,0,265
13,11,8,14,44,11,24,18,0,154,15,5,18,1,8,20,7,14,5,6,198
24,43,26,38,99,41,52,42,9,219,42,22,39,9,18,56,19,17,14,0,357
2,9,8,0,16,5,10,2,0,44,4,3,5,2,4,5,3,2,3,1,64
15,34,22,15,41,61,20,33,0,103,85,5,9,3,16,25,8,12,10,6,165
65,51,45,58,155,55,60,89,0,303,63,16,31,21,25,65,61,41,24,75,459
37,35,55,29,114,39,49,49,0,240,54,22,20,0,20,27,29,17,29,11,418
2,18,7,3,8,3,20,13,6,39,3,5,1,2,14,10,1,5,9,0,69
34,92,104,43,180,45,124,71,0,463,67,31,35,9,29,53,30,23,60,21,798
25,37,43,23,69,58,50,43,13,181,52,15,27,8,77,44,18,23,25,0,253
3,14,22,14,35,12,19,22,1,83,6,16,9,0,8,24,5,8,7,0,142
5,9,23,7,12,11,6,13,0,38,13,5,6,0,4,6,2,1,11,15,61
21,43,21,23,67,24,46,26,17,264,32,8,28,7,26,36,19,18,20,0,358
10,13,29,9,55,25,24,16,0,104,43,12,8,0,1,24,7,0,17,0,173
17,54,47,13,49,22,34,33,6,195,7,8,14,2,26,26,11,9,24,0,343
5,21,24,8,29,7,32,18,0,116,7,15,2,0,7,18,18,3,9,4,177
38,38,36,45,103,80,36,49,0,202,67,4,45,5,18,58,26,30,24,10,340
10,28,52,2,37,3,15,5,14,76,0,7,7,0,27,21,2,5,33,0,140
32,21,23,21,105,33,49,53,30,209,34,13,32,4,13,61,20,25,23,0,351
20,48,22,3,38,14,20,15,0,171,12,5,8,1,6,30,8,9,17,11,244
48,47,85,26,119,61,70,40,14,407,64,23,36,9,9,48,23,25,34,0,646
13,17,23,14,55,25,41,24,0,134,40,18,10,3,3,32,2,3,11,12,212
55,45,50,41,79,20,55,36,12,179,33,26,25,6,27,41,20,36,24,0,334
1,3,15,5,14,3,10,11,0,28,4,5,4,0,2,5,1,2,5,9,53
7,16,19,9,42,45,17,10,5,89,43,10,8,3,10,22,6,9,5,0,143
79,56,94,52,173,60,140,103,15,482,106,42,64,13,26,78,28,48,55,0,794
1,1,7,0,7,3,7,3,7,15,3,5,0,1,1,3,0,0,6,0,32
38,71,34,36,169,34,66,46,24,314,36,29,44,5,30,84,15,21,21,0,547
43,45,49,34,129,19,41,44,14,188,29,13,34,13,17,65,17,29,52,0,337
22,25,29,27,71,8,43,32,1,129,14,15,24,8,12,37,11,20,24,0,222
20,43,42,30,108,14,44,40,0,241,21,11,30,13,31,49,11,26,25,1,364
12,38,40,17,68,49,64,28,10,213,46,10,26,8,17,32,12,5,17,0,366
9,17,12,15,61,9,33,26,0,82,22,11,10,6,4,26,11,10,5,6,153
32,24,24,19,87,39,39,36,44,151,56,8,29,4,6,33,33,24,7,0,295
42,35,27,23,96,32,44,39,0,339,37,12,34,5,12,45,30,16,8,5,473
74,44,27,33,99,27,36,65,0,164,47,16,22,5,14,38,42,38,13,28,306
62,54,47,42,126,39,72,57,0,311,33,16,29,8,19,60,50,31,41,37,486
33,22,32,24,102,42,48,43,10,159,48,13,27,6,7,43,33,18,7,0,313
12,21,22,23,52,15,31,23,0,128,22,7,16,3,17,20,12,1,18,9,202
37,27,43,19,82,49,54,31,35,176,64,22,26,4,14,50,14,22,30,0,307
25,43,43,22,63,46,39,24,0,184,41,9,23,5,20,19,9,11,22,1,329
97,117,54,63,132,43,69,105,0,388,59,18,44,14,66,59,42,71,42,20,633
64,85,31,63,133,52,93,92,0,369,61,29,59,17,51,48,29,35,20,35,598
104,104,41,63,138,44,66,84,89,571,78,33,58,27,45,51,32,55,32,0,893
66,81,35,54,109,82,85,54,66,286,101,30,67,10,57,46,35,41,25,0,506
5,40,30,10,30,8,33,18,0,108,7,10,3,0,19,31,9,2,18,9,174
42,43,42,42,105,81,95,51,7,314,82,21,31,9,33,42,43,14,20,0,527
22,72,56,28,134,115,81,30,0,253,96,26,28,3,30,65,13,25,26,5,474
9,21,23,14,39,20,23,24,11,89,20,14,11,3,9,25,15,6,11,0,159
14,31,33,16,90,13,47,22,22,178,16,16,9,2,17,46,18,12,20,0,310
9,37,15,15,48,13,21,27,2,159,22,8,17,5,17,27,13,10,5,0,222
33,41,56,24,89,40,58,36,13,186,66,14,16,4,39,32,30,13,31,0,331
44,71,71,53,136,86,79,88,5,339,102,22,66,15,25,76,30,39,35,0,562
43,22,24,24,98,7,37,66,10,175,13,15,26,6,8,38,77,20,15,0,288
8,22,17,17,54,9,15,20,10,65,10,3,16,6,7,34,4,9,18,0,130
53,33,12,38,72,38,53,43,21,239,30,21,27,28,4,38,12,46,14,0,382
79,44,32,64,192,31,93,79,16,346,41,22,60,45,13,89,28,43,29,0,606
14,23,22,11,71,26,43,13,0,120,26,14,10,5,17,24,9,19,10,8,201
96,26,40,46,190,27,58,48,79,289,45,27,45,27,11,78,23,82,34,0,527
33,61,51,34,128,14,98,43,16,393,12,26,36,13,23,64,11,28,36,0,622
13,23,5,7,62,11,29,10,8,86,9,17,15,2,12,21,7,7,9,0,155
60,46,57,58,178,34,124,62,0,381,26,39,66,16,16,93,30,50,35,7,622
35,47,53,25,147,18,88,25,0,315,15,41,32,11,8,91,11,17,31,19,477
47,66,62,32,201,39,86,72,0,366,31,37,41,23,29,111,22,36,50,22,569
46,63,47,46,127,19,64,50,0,378,22,27,52,12,16,65,12,19,38,31,546
66,55,30,49,154,69,68,57,63,304,58,18,53,26,18,77,15,56,36,0,558
72,97,47,54,214,40,77,88,19,352,35,39,63,30,31,129,19,40,40,0,634
69,46,25,51,137,26,61,63,8,324,47,30,42,25,8,66,24,43,24,0,501
32,54,41,23,133,18,74,60,0,345,14,27,31,18,18,64,17,23,26,36,506
61,50,32,33,177,29,68,89,0,311,26,25,48,25,20,83,19,26,29,21,528
42,29,13,8,68,12,28,29,0,66,13,7,24,17,13,28,6,25,17,1,144
65,44,38,34,160,17,96,83,0,365,21,31,30,46,17,55,16,40,31,127,488
55,68,70,45,211,49,97,68,0,307,42,31,37,26,21,117,19,35,46,34,562
32,34,35,22,74,16,53,21,0,223,11,17,18,9,11,47,9,14,29,1,344
64,35,31,35,120,22,39,52,1,215,30,23,27,37,13,56,9,33,26,0,360
29,50,51,35,139,20,45,42,0,247,18,17,30,22,12,67,13,22,32,16,409
38,40,43,43,115,11,42,47,0,238,19,17,35,27,20,43,10,18,40,0,388
63,43,43,33,147,24,79,69,0,305,35,36,35,26,8,53,20,38,27,41,487
47,54,38,30,176,25,58,55,0,316,23,29,41,27,17,98,14,32,28,1,489
54,59,53,24,172,49,58,89,2,274,50,14,33,36,14,90,21,51,35,0,490
28,57,54,28,152,18,42,42,0,286,17,19,17,17,12,72,16,15,33,24,465
40,62,47,39,131,28,68,56,18,327,42,29,48,26,21,73,19,23,37,0,498
32,55,27,40,138,19,66,61,11,305,11,32,34,23,20,76,20,29,28,0,481
48,30,24,48,98,19,61,54,0,302,16,18,37,32,10,46,15,22,23,10,455
43,24,19,52,83,18,62,69,31,1149,13,25,31,27,4,38,9,19,25,0,1359
60,54,36,30,154,23,63,48,33,258,29,35,38,15,20,65,23,48,39,0,447
18,43,52,27,96,12,33,31,0,201,12,17,27,10,12,62,11,20,26,23,293
51,60,38,41,183,21,61,46,0,330,20,20,45,8,19,107,23,28,33,55,473
16,19,35,12,53,11,37,30,0,92,5,13,6,12,6,36,10,19,24,2,172
1,7,6,2,24,0,10,2,0,41,0,1,3,0,6,12,0,1,6,1,63
0,10,1,3,35,4,7,1,0,37,5,3,8,2,2,12,1,1,0,7,57
3,3,7,0,26,5,3,2,5,20,9,0,0,0,1,10,2,1,5,0,46
2,7,8,9,40,19,7,6,0,53,19,1,3,0,3,18,1,3,7,4,92
0,9,12,6,25,26,14,18,13,47,28,3,5,2,8,13,2,5,5,0,99
15,8,18,7,22,12,9,16,0,34,10,1,8,5,3,10,9,9,6,14,66
1,1,7,1,24,0,10,1,5,23,0,3,0,0,0,14,2,3,0,0,51
48,52,60,52,251,46,61,54,0,350,34,9,32,11,14,85,107,17,42,8,615
20,11,28,16,149,13,39,37,32,189,13,13,10,16,8,75,16,17,9,0,357
3,5,4,1,42,5,14,5,8,74,0,4,4,3,1,18,3,1,6,0,121
6,23,23,4,49,7,30,16,12,169,8,11,5,5,6,19,10,0,13,0,262
4,8,15,9,23,6,19,11,0,36,7,4,14,0,4,12,14,2,5,7,62
42,42,65,41,174,27,116,59,3,648,16,23,35,24,14,70,68,24,55,0,888
23,15,18,19,104,19,20,83,0,181,28,8,13,15,5,40,3,12,11,16,331
17,14,19,14,131,17,45,43,0,443,14,5,2,4,10,48,13,18,11,23,595
33,27,18,24,101,38,27,35,6,153,22,14,19,18,14,47,11,12,28,0,277
11,22,18,17,49,26,10,10,0,90,20,1,9,0,5,30,4,7,9,3,165
16,11,5,2,39,1,34,3,6,70,1,8,5,5,4,29,4,3,4,0,124
1,4,11,2,38,6,6,4,0,49,5,2,3,4,2,24,5,1,7,1,67
9,12,15,18,68,3,24,6,13,128,3,6,8,2,15,34,1,4,15,0,208
5,14,21,12,42,12,24,20,6,63,12,9,16,7,4,21,8,4,3,0,135
14,11,15,13,68,36,22,31,7,108,37,5,17,10,1,22,5,6,17,0,205
5,2,21,2,31,3,13,8,0,35,4,2,2,2,8,12,3,1,15,4,67
26,10,21,11,97,55,17,37,0,121,54,1,16,19,1,44,4,13,14,9,220
17,36,39,10,116,20,42,35,3,340,23,20,13,6,8,42,10,16,22,0,498
9,13,20,14,71,20,55,35,19,170,15,13,16,2,9,43,2,4,8,0,314
11,10,40,13,77,6,41,16,26,153,13,14,18,4,9,17,10,5,26,0,277
2,3,7,2,29,10,14,5,0,49,3,12,2,2,1,5,0,2,2,7,85
5,8,4,4,37,17,12,20,0,56,6,5,12,0,0,13,6,1,10,3,107
11,21,21,5,59,4,32,16,0,107,6,8,6,3,6,29,6,9,8,24,171
29,45,70,37,237,26,65,48,0,557,15,23,47,13,9,71,10,10,31,22,863
26,40,33,22,178,22,68,28,26,222,11,11,31,8,13,71,19,28,21,0,452
9,16,18,22,45,22,33,30,0,91,7,14,21,0,9,12,2,12,2,13,194
43,65,63,54,273,61,109,100,13,638,44,39,53,29,25,98,31,29,33,0,1038
3,7,9,5,28,2,14,4,13,86,5,3,3,2,6,11,0,1,9,0,131
4,11,24,4,77,16,26,2,0,90,10,4,6,7,5,35,1,4,9,12,161
19,23,48,13,129,42,26,21,0,203,40,7,9,12,5,55,4,11,23,3,355
3,17,20,13,62,35,13,13,0,70,37,5,6,4,4,21,2,2,14,17,134
41,59,121,26,272,41,75,48,49,549,40,36,35,18,58,104,9,24,55,0,902
13,15,17,7,58,15,30,19,0,201,12,3,9,2,10,28,11,11,15,26,248
13,21,65,17,138,9,63,27,2,358,12,21,24,7,7,41,8,9,38,0,546
7,29,38,12,186,28,66,33,14,342,23,30,16,10,14,68,17,9,20,0,548
41,51,91,66,296,43,91,81,10,512,43,29,41,30,21,122,26,29,86,0,855
55,42,91,62,244,36,122,79,0,658,27,42,50,13,14,99,17,43,62,14,1008
3,9,11,10,25,3,3,3,0,25,4,3,6,0,1,14,4,4,6,3,47
15,28,32,15,89,24,53,19,7,179,22,20,12,3,11,43,12,6,17,0,315
13,14,7,13,76,54,27,17,0,153,52,3,8,3,3,19,5,9,5,16,251
24,43,57,22,188,18,87,54,0,529,7,29,42,11,14,47,13,26,29,2,802
25,21,30,26,114,70,29,47,0,258,86,8,22,12,8,59,13,19,14,0,379
17,10,41,29,64,5,48,17,0,143,2,14,15,5,13,23,0,11,30,3,258
1,3,6,0,31,7,14,2,2,53,13,4,1,2,3,15,1,3,1,0,76
11,9,7,9,21,5,7,11,1,60,0,3,5,0,2,10,3,9,8,0,101
25,17,30,11,114,10,38,24,20,176,15,19,14,5,3,43,13,7,22,0,324
11,17,49,17,86,12,32,15,21,184,5,11,8,4,1,37,3,12,27,0,336
3,2,4,7,35,10,7,7,0,22,16,1,4,1,0,16,3,5,5,1,45
3,7,14,5,39,5,27,14,0,75,6,5,6,2,2,19,7,3,6,5,128
25,27,27,13,57,10,52,21,6,170,12,8,16,6,10,23,7,14,13,0,299
5,14,18,2,43,7,22,18,0,83,11,8,2,2,5,36,1,5,8,5,129
7,4,27,5,47,8,16,13,8,51,11,6,8,6,3,42,2,2,11,0,95
11,8,31,11,61,10,39,13,15,191,5,13,8,6,1,21,6,13,13,0,304
12,14,30,21,81,15,52,23,0,170,17,21,15,7,7,46,3,10,6,23,263
0,5,10,1,12,2,4,0,0,22,1,2,5,1,2,5,0,1,4,0,35
11,16,17,8,37,5,23,21,5,75,10,8,15,6,4,20,4,18,7,0,126
9,20,17,13,76,1,29,12,4,118,1,13,17,5,11,19,5,3,6,0,219
28,6,10,32,90,23,31,35,10,159,35,13,31,6,6,34,8,16,16,0,259
5,8,8,6,36,5,28,15,4,36,5,6,3,0,1,13,8,3,8,0,104
14,7,17,3,54,0,4,10,0,67,3,1,8,0,1,14,4,8,6,8,123
26,20,25,19,141,18,28,32,0,212,13,4,8,11,62,41,12,19,13,9,329
46,28,31,16,125,10,30,44,46,203,9,11,19,28,49,37,22,17,18,0,369
25,27,29,17,120,15,44,33,13,311,6,7,21,16,51,32,12,16,6,0,467
29,43,51,10,151,5,35,30,0,225,7,8,18,16,73,54,16,14,17,8,348
3,10,10,4,30,2,10,6,2,52,0,2,2,0,8,5,2,4,3,0,103
11,6,20,7,49,24,23,24,8,120,18,2,13,4,7,27,7,8,9,0,197
2,8,17,3,47,35,16,6,0,56,28,7,5,3,1,22,0,1,13,2,108
46,65,65,30,215,54,63,97,0,328,77,17,22,57,20,112,17,34,37,36,534
20,22,21,18,80,28,31,42,11,91,20,9,18,20,5,41,8,19,16,0,208
1,4,19,10,16,11,14,12,0,52,11,5,9,2,2,6,3,2,19,2,78
31,19,56,16,113,34,56,61,0,259,49,19,14,24,8,35,10,15,32,10,429
39,30,31,31,143,33,72,68,0,312,41,25,23,39,10,79,12,19,23,9,479
41,42,39,40,89,45,48,60,3,374,62,16,29,27,22,57,4,22,23,0,519
13,5,13,6,23,0,6,14,0,91,3,2,12,2,7,6,4,4,6,10,115
3,3,2,4,18,7,4,3,0,29,8,1,5,0,2,14,4,0,6,1,32
12,19,28,9,90,17,35,20,0,181,20,10,10,3,12,35,10,4,16,3,288
29,52,42,30,165,27,95,57,0,429,32,19,40,13,7,72,21,19,20,12,671
21,32,44,15,128,12,63,18,0,223,12,17,14,4,10,60,4,4,18,21,392
1,1,6,6,22,4,5,3,0,30,5,2,2,1,0,11,6,0,1,7,43
10,24,23,7,78,60,8,30,9,139,57,11,17,6,2,39,20,11,11,0,214
9,8,18,15,61,28,18,20,1,120,33,2,13,15,2,24,9,4,16,0,180
10,25,35,17,85,30,24,17,5,143,19,12,19,10,1,41,10,5,15,0,259
3,8,8,3,9,1,7,4,0,11,1,3,3,2,4,5,3,6,4,3,20
2,20,13,2,27,9,21,8,1,40,4,5,9,3,7,12,2,4,6,0,91
5,1,14,3,12,0,3,5,3,43,0,1,0,1,1,6,0,6,4,0,70
45,26,29,14,111,59,51,35,0,266,103,19,22,10,9,40,5,28,16,5,379
6,3,5,2,19,1,6,4,0,35,0,3,6,0,0,5,1,5,2,11,48
23,37,70,20,163,28,49,43,22,255,19,14,20,6,23,89,8,22,33,0,476
12,10,18,3,73,32,20,21,0,111,27,8,7,5,1,36,5,8,8,9,186
6,3,12,2,42,5,8,16,0,64,2,4,5,1,0,26,4,4,15,7,90
4,3,11,1,15,0,6,1,5,39,0,0,1,0,1,2,3,1,3,0,74
16,9,6,9,107,25,31,30,8,114,29,8,16,15,4,41,7,8,10,0,217
2,6,28,2,46,21,9,3,0,83,11,5,7,1,2,40,3,1,7,6,117
8,20,29,8,96,8,27,27,13,161,10,13,14,1,10,29,24,9,11,0,276
4,6,9,0,5,2,7,7,2,60,4,0,7,0,0,6,10,2,1,0,72
2,1,8,6,50,11,14,11,0,82,1,9,4,1,0,23,11,2,5,4,125
2,4,21,7,38,8,29,9,20,98,4,10,13,3,3,12,1,1,10,0,179
11,24,42,38,167,12,76,30,0,429,6,24,19,7,9,80,12,8,23,18,623
27,19,19,14,67,5,24,29,5,189,9,6,15,9,9,26,17,8,17,0,282
2,2,10,5,17,2,8,10,10,60,1,2,11,0,1,16,4,1,12,0,78
42,46,58,18,177,15,125,57,0,397,13,30,25,12,10,43,18,22,55,27,680
0,7,13,12,41,1,13,15,23,109,0,6,16,9,2,20,4,4,14,0,159
17,40,32,17,96,23,48,31,0,192,16,15,20,4,19,48,11,12,17,8,326
49,55,61,40,216,56,92,68,7,475,53,34,40,14,24,86,29,31,32,0,776
2,2,4,4,26,9,2,6,0,11,7,3,1,0,0,13,4,0,1,2,35
8,12,25,9,67,35,28,19,0,238,35,3,11,5,9,16,7,4,20,13,318
23,22,27,16,94,35,40,36,0,184,48,10,25,7,3,34,6,11,18,5,310
11,6,11,6,14,6,8,7,0,28,4,2,17,2,0,10,1,7,2,3,49
14,27,39,14,118,11,45,33,17,243,9,15,20,15,11,53,11,17,18,0,392
13,17,15,12,85,47,36,30,0,204,45,13,16,11,2,47,6,6,11,3,299
5,16,14,7,30,7,11,15,4,55,14,2,6,10,4,13,6,3,9,0,97
9,17,18,14,55,6,10,10,0,183,5,4,13,3,4,27,11,11,7,10,227
2,2,9,0,14,7,2,3,5,25,8,0,4,0,0,13,7,0,5,0,32
2,15,23,6,65,16,33,15,0,161,5,9,9,2,6,24,4,3,6,8,260
21,27,53,28,144,35,78,53,5,263,40,14,26,24,11,63,21,18,24,0,466
16,38,36,13,126,29,30,46,7,244,33,6,11,12,6,56,6,8,14,0,433
2,3,5,3,16,11,5,5,0,13,9,2,1,0,3,8,2,6,6,5,21
33,33,60,33,207,77,54,58,0,360,66,10,29,15,21,77,28,28,21,3,617
3,13,10,2,49,22,19,10,0,82,22,2,6,0,4,29,3,0,4,3,137
51,61,84,29,122,31,35,41,0,242,18,14,27,8,15,54,34,21,32,27,446
11,8,17,14,58,12,21,31,5,64,18,7,30,3,5,34,4,6,6,0,128
7,23,29,7,55,9,6,11,2,96,9,1,2,4,4,24,6,10,14,0,171
31,26,47,21,134,41,57,54,3,366,25,15,31,17,10,28,15,12,21,0,606
11,11,7,1,41,3,9,10,6,45,5,0,4,0,6,7,4,2,13,0,103
2,5,11,7,13,3,10,12,1,16,4,4,5,0,2,6,1,1,8,0,49
4,14,14,2,30,4,13,4,0,63,1,1,1,0,6,18,3,2,2,7,107
9,2,4,2,6,3,3,2,3,7,2,1,3,0,2,3,3,12,2,0,13
12,12,16,8,64,4,8,13,5,92,4,2,7,4,4,22,6,7,8,0,170
9,5,13,5,65,31,29,16,5,81,21,12,3,3,0,25,8,3,2,0,182
12,4,18,7,60,10,9,16,14,72,19,2,10,5,4,40,1,11,10,0,120
24,21,15,16,52,21,30,39,0,71,27,11,10,9,7,20,25,14,7,14,145
4,5,0,4,23,16,0,9,2,20,8,0,7,2,1,10,12,4,3,0,36
74,71,66,36,207,75,59,103,6,351,54,22,47,20,35,109,64,45,30,0,622
61,54,43,34,93,73,62,50,0,224,74,23,29,9,25,47,30,42,34,27,354
7,8,9,10,19,3,7,9,1,20,4,1,13,1,2,10,4,2,5,0,51
10,10,17,19,42,35,17,19,0,89,27,3,12,4,6,22,21,4,10,8,141
10,12,13,9,54,10,19,10,0,91,7,7,16,3,5,15,24,8,1,1,141
16,11,14,12,25,14,10,11,8,54,13,3,9,4,7,14,16,7,6,0,96
3,7,11,2,23,23,4,11,0,20,5,0,3,0,1,11,42,2,1,0,39
5,9,8,6,21,22,7,16,7,28,12,2,5,2,7,12,14,11,4,0,60
4,5,2,1,7,10,1,6,0,9,12,0,2,0,2,5,7,2,1,5,9
12,14,10,13,25,32,2,28,14,36,37,3,17,1,5,11,36,5,2,0,69
17,15,10,12,46,25,32,20,15,71,22,11,15,7,1,9,32,12,6,0,148
10,9,8,6,18,28,6,12,7,49,19,2,4,1,5,18,5,9,6,0,84
6,3,1,2,5,1,1,6,5,2,2,0,4,0,2,5,8,2,2,0,7
5,5,4,6,8,14,3,5,7,21,6,3,8,1,4,3,12,2,3,0,36
5,10,28,16,40,66,13,40,3,76,41,2,12,8,6,20,26,10,9,0,163
