A2,A3,A7,A8,A9,A997,A998,A999,B166,B687,B344,B720,B1468,B768,B997,B998,B999
26,17,87,22,39,10,0,125,4,11,14,15,12,29,22,14,205
26,10,60,18,32,9,12,49,4,9,22,23,10,11,20,0,117
15,9,97,7,32,5,11,71,7,8,10,15,15,48,25,0,119
7,1,28,13,23,10,0,35,3,6,15,2,4,9,13,2,63
25,9,109,16,59,13,7,108,23,16,8,13,9,34,21,0,222
9,5,44,11,30,2,11,60,12,6,7,12,5,22,18,0,90
71,41,317,57,165,42,0,598,22,52,35,42,58,76,65,14,927
15,7,129,7,32,12,0,102,11,9,7,6,39,23,35,13,161
8,3,32,7,19,9,9,30,2,8,11,9,7,11,12,0,57
12,4,64,11,12,6,0,62,13,4,3,3,15,15,15,0,103
3,12,26,3,3,3,0,19,1,5,11,1,2,1,2,4,42
12,7,64,23,22,6,0,86,4,3,8,19,2,20,31,10,123
11,44,98,27,77,13,0,95,9,17,59,18,34,28,17,4,179
2,4,22,8,26,1,0,36,7,10,9,2,3,13,1,0,54
21,12,57,13,35,8,0,51,15,16,19,22,2,10,19,0,94
6,7,70,8,30,8,8,33,6,7,6,12,15,24,14,0,86
9,1,25,8,11,4,0,38,2,0,9,2,3,6,12,3,59
1,12,28,4,30,4,2,37,7,6,8,9,6,8,10,0,64
6,10,59,15,33,5,4,73,17,6,7,9,5,21,12,0,128
18,31,91,22,54,4,3,95,16,11,25,9,13,40,8,0,196
32,44,194,49,79,31,20,217,2,12,20,23,129,63,36,0,381
2,0,30,4,3,4,3,18,4,3,1,2,6,4,4,0,40
10,16,52,11,38,1,6,63,5,14,24,17,17,14,12,0,94
1,5,21,3,12,4,7,32,2,3,2,5,7,10,13,0,43
28,10,106,33,41,3,0,155,6,7,4,16,25,31,27,19,241
5,3,16,4,15,4,1,35,2,4,2,5,7,3,7,0,53
62,95,276,53,190,46,21,309,15,44,55,43,182,69,58,0,586
11,23,27,17,28,9,0,36,10,14,13,15,3,10,11,7,68
44,49,129,51,128,10,7,223,17,37,29,33,47,63,51,0,364
35,20,98,29,85,19,7,96,10,43,22,33,36,30,28,0,187
48,36,96,43,132,25,43,167,23,76,18,43,21,33,61,0,315
26,16,74,33,67,18,0,114,21,21,9,14,15,19,28,8,213
15,23,81,22,35,16,0,97,8,10,21,8,14,13,16,17,182
18,7,58,15,54,1,3,74,9,9,8,7,25,8,9,0,155
12,20,138,35,56,18,9,199,5,5,11,13,95,22,25,0,311
11,6,55,16,30,7,3,49,10,8,13,12,5,15,11,0,103
38,26,95,41,103,29,17,110,24,36,24,51,18,54,26,0,226
68,41,182,53,192,51,22,215,31,67,63,87,23,76,51,0,426
63,43,194,56,167,44,114,235,29,71,96,44,22,72,65,0,517
35,41,169,31,97,20,0,163,23,49,22,35,13,63,34,22,295
52,42,187,34,122,34,3,166,26,40,41,44,17,84,45,0,343
27,31,128,33,80,17,0,217,12,24,26,25,13,45,41,40,307
29,13,152,29,87,17,0,171,13,28,26,26,11,44,33,7,310
8,1,19,4,17,5,0,45,0,11,6,9,0,6,15,4,48
15,10,35,8,43,6,7,45,6,10,43,6,3,18,23,0,60
35,17,132,30,80,23,16,137,13,30,25,37,14,40,34,0,277
41,44,165,45,121,23,24,167,22,54,52,46,32,52,46,0,326
10,9,39,11,7,6,8,43,3,4,14,9,6,11,14,0,72
26,23,146,32,96,17,0,165,13,20,34,16,18,54,26,28,296
74,82,248,63,170,48,0,449,18,67,79,55,42,70,54,38,711
55,48,233,79,183,34,0,441,12,51,69,65,32,68,54,53,669
34,32,177,35,79,28,1,190,9,33,38,36,26,67,44,0,323
52,40,159,45,150,27,2,191,12,46,50,39,15,82,34,0,388
56,57,208,66,169,50,0,297,23,47,89,51,22,77,73,35,486
43,47,106,40,131,30,0,161,24,60,56,25,22,45,32,12,282
47,27,212,38,145,47,0,286,16,28,39,38,29,67,54,36,495
57,64,151,43,169,37,0,216,41,65,53,47,19,49,51,42,370
34,24,98,22,116,26,0,191,11,40,29,41,5,30,33,38,284
36,54,153,31,115,26,0,211,13,44,50,43,24,56,37,18,341
50,90,219,76,247,47,0,242,28,106,98,64,37,75,56,21,486
19,38,144,26,82,15,0,205,11,36,31,33,12,59,24,19,304
36,16,132,30,96,24,0,181,8,41,37,34,10,42,45,31,267
25,22,170,27,105,26,0,181,9,23,39,24,17,65,37,4,338
25,26,145,28,88,23,0,319,11,28,23,25,18,42,41,19,447
40,26,124,42,113,22,13,206,17,38,45,40,17,36,31,0,362
60,42,130,47,127,47,55,853,16,83,59,48,12,60,51,0,1032
16,18,133,28,70,20,0,156,13,19,12,22,9,41,34,1,290
23,41,155,39,84,25,0,162,15,29,40,25,26,22,28,11,333
5,3,39,12,21,7,3,66,5,9,11,8,3,8,9,0,103
10,5,62,5,21,6,6,61,12,3,6,8,6,13,10,0,118
15,11,111,12,44,19,26,88,12,13,21,27,6,29,34,0,184
6,17,93,11,25,6,0,64,3,4,5,11,0,34,23,5,137
14,6,65,16,32,10,0,125,11,5,13,13,6,20,10,12,178
2,4,33,4,17,6,6,22,2,6,9,6,8,14,4,0,45
4,10,44,9,12,2,5,35,9,0,9,3,20,7,10,0,63
17,6,59,8,24,8,0,74,7,12,3,2,14,18,10,10,120
16,17,110,32,72,17,0,166,8,20,21,18,28,35,19,30,251
42,52,122,41,128,42,0,383,10,46,54,31,36,43,37,17,536
19,22,89,16,42,7,5,81,5,14,10,16,37,32,16,0,151
45,52,198,42,129,23,0,212,17,36,56,31,36,87,69,7,362
38,31,128,50,119,32,27,228,15,37,44,31,43,42,40,0,401
37,31,149,36,80,14,0,195,8,21,27,17,36,32,36,16,349
38,17,165,16,80,24,0,212,19,28,21,19,40,42,40,11,332
26,44,178,43,80,24,1,247,8,31,34,28,88,33,31,0,390
38,71,220,39,102,23,0,432,6,25,66,27,83,40,28,8,642
45,60,249,54,126,37,0,259,14,54,35,27,144,50,57,8,441
17,31,132,21,83,17,19,190,6,28,36,13,78,18,23,0,308
33,43,171,28,105,34,0,180,7,32,36,21,82,39,34,12,331
3,10,25,2,15,0,0,31,5,0,6,1,11,2,4,0,57
10,8,79,6,34,8,9,48,3,10,4,4,38,21,17,0,105
3,6,76,4,20,2,6,86,3,5,11,5,41,14,7,0,117
41,50,249,46,127,21,0,259,8,26,32,14,141,32,30,9,501
22,20,178,20,78,13,4,179,8,14,16,12,107,35,15,0,307
16,48,150,9,61,16,0,179,3,12,29,25,79,24,21,11,275
32,23,166,28,115,12,0,162,4,19,16,13,111,28,20,8,319
25,27,221,21,63,11,0,180,10,16,15,9,111,44,22,29,292
26,32,213,16,80,19,0,167,5,13,22,9,106,33,26,19,320
27,38,162,24,77,9,0,215,8,19,25,14,102,23,16,9,336
2,22,59,7,30,3,0,38,1,1,23,11,11,19,6,10,79
35,19,211,33,94,21,0,238,14,31,24,19,68,58,46,13,378
10,1,16,2,3,0,8,19,0,2,0,5,7,2,4,0,39
10,6,24,3,8,0,0,39,1,2,10,0,1,11,3,4,58
0,0,19,2,3,3,0,26,0,1,4,0,2,6,3,2,35
23,7,78,27,49,15,23,59,3,24,20,9,9,34,42,0,140
27,13,136,18,56,17,0,113,8,16,7,12,42,24,43,18,210
4,2,42,8,12,2,2,38,4,1,7,8,6,22,7,0,55
9,3,18,4,25,9,0,28,1,11,11,0,5,13,2,3,50
22,23,162,31,72,17,0,149,7,15,27,34,11,53,39,18,272
48,46,213,40,166,20,0,445,28,34,72,46,30,66,68,7,627
18,8,83,4,55,10,0,108,7,22,2,14,8,26,26,10,171
0,12,17,3,11,0,4,15,1,1,7,1,1,5,2,0,44
9,7,68,8,26,4,6,58,2,4,11,8,6,17,22,0,116
4,12,77,12,25,6,6,120,1,1,9,7,8,22,31,0,183
52,30,275,57,150,42,3,399,15,43,46,22,24,56,125,0,677
48,32,272,54,161,37,0,358,18,34,53,39,29,67,115,5,602
17,1,49,7,30,4,0,69,9,6,4,1,6,16,13,0,122
40,24,232,41,136,38,0,324,17,46,23,22,35,70,72,13,537
6,4,20,7,13,1,0,35,6,5,10,1,2,3,6,4,49
17,22,62,18,40,8,7,90,5,9,17,14,24,21,24,0,150
3,14,14,5,24,2,8,36,1,5,27,2,5,2,1,0,63
35,75,157,27,75,18,12,136,19,11,76,16,73,58,24,0,258
6,18,78,5,38,10,0,50,3,4,16,6,27,4,8,3,134
38,11,152,45,79,20,21,141,22,44,15,39,11,47,64,0,265
16,13,67,13,61,15,13,91,6,26,11,17,16,30,20,0,163
9,7,48,7,29,4,0,22,3,1,3,2,16,8,7,2,84
1,10,27,4,16,0,2,28,5,0,3,6,6,5,3,0,60
4,3,26,6,19,3,0,31,4,6,3,4,4,8,8,2,53
3,20,65,7,27,3,5,42,12,6,18,7,17,21,14,0,77
58,65,207,39,126,18,9,259,61,32,68,29,41,49,47,0,454
16,13,68,19,30,11,1,97,16,3,10,18,15,20,22,0,151
12,3,33,4,26,2,0,46,7,1,4,4,5,12,7,0,86
1,9,23,8,15,4,0,18,3,5,6,5,6,14,6,8,25
5,8,48,7,24,6,0,23,4,4,12,3,6,14,13,3,62
4,7,40,8,31,4,0,40,3,3,0,13,12,9,14,7,73
40,30,233,43,120,25,17,194,25,32,40,44,28,98,61,0,374
14,14,44,9,39,6,10,65,1,11,24,8,6,18,23,0,110
12,4,82,9,21,8,8,89,3,4,10,3,6,23,23,0,161
62,58,234,46,184,27,0,239,18,33,32,21,19,39,25,149,514
28,46,139,38,134,18,0,341,13,38,70,34,18,57,60,7,447
4,5,24,6,30,1,0,45,0,3,16,8,1,7,8,2,70
4,16,27,6,27,6,7,18,0,3,26,4,4,5,4,0,65
5,9,83,7,26,8,0,100,9,3,4,4,3,30,29,1,155
13,7,88,10,40,5,0,80,5,11,7,14,20,18,15,5,148
58,32,217,32,138,27,19,294,20,28,31,42,66,78,37,0,515
8,23,77,23,61,8,2,77,9,9,28,14,13,17,23,0,166
16,18,73,11,43,5,4,88,7,6,11,17,31,15,17,0,154
3,3,35,3,7,2,0,15,1,8,5,4,1,19,8,3,19
12,2,56,8,44,6,7,55,7,12,10,13,12,6,13,0,117
4,2,16,12,8,2,3,16,2,1,5,4,0,7,8,0,36
0,9,35,4,10,3,0,36,2,2,8,3,2,7,7,0,66
16,17,115,16,44,11,34,147,15,16,10,13,26,43,31,0,246
5,2,43,4,17,3,0,32,3,8,2,3,8,12,4,4,62
68,73,412,79,222,57,0,423,19,56,81,60,49,132,110,19,808
5,18,50,10,53,18,0,102,19,13,7,15,7,9,14,9,163
32,29,207,38,124,15,0,180,16,35,45,29,21,70,49,4,356
12,9,78,19,33,2,0,53,10,6,15,10,10,24,15,8,108
5,4,72,18,32,5,0,97,6,6,2,5,15,32,16,7,144
8,7,65,6,42,0,11,71,4,5,7,7,30,13,7,0,137
38,22,295,57,111,21,0,579,49,22,16,31,21,86,47,7,844
3,8,31,4,19,2,0,24,3,0,5,5,10,5,4,8,51
4,9,44,14,31,7,5,69,4,4,9,7,30,12,15,0,102
14,26,138,15,96,7,0,133,5,13,23,20,50,46,21,10,241
42,115,230,41,251,24,0,334,39,43,73,40,141,69,50,9,573
40,27,203,41,117,10,8,207,4,20,31,33,34,47,31,0,453
21,34,83,24,58,9,0,128,2,9,57,11,11,20,13,35,199
3,1,48,9,33,8,3,78,1,7,12,6,1,7,31,0,118
4,9,24,0,9,0,0,15,0,1,12,0,6,1,1,4,36
1,3,24,5,8,0,0,16,1,2,6,2,7,5,10,0,24
4,12,76,9,27,10,0,41,4,8,21,7,23,17,12,5,82
7,8,53,3,21,2,6,65,4,15,5,4,1,17,3,0,116
23,30,209,42,78,19,0,224,45,24,11,24,26,52,28,4,411
28,25,163,38,87,24,0,198,27,24,9,19,15,43,35,3,388
7,1,24,4,19,2,0,43,6,2,2,1,1,13,7,4,64
4,2,29,5,16,2,0,36,4,1,6,2,0,8,11,3,59
6,5,36,8,8,3,0,37,1,1,5,6,3,11,8,4,64
34,38,212,37,141,27,0,309,30,21,49,40,29,62,64,5,498
1,0,12,1,5,1,7,9,0,0,1,3,8,1,7,0,16
3,0,9,2,12,5,0,8,3,4,0,2,5,3,7,2,13
17,5,62,19,39,6,11,89,6,2,7,12,4,11,18,0,188
1,2,13,2,10,1,0,8,3,4,2,2,3,6,3,2,12
26,15,126,18,52,14,16,124,7,14,16,20,16,61,37,0,220
12,8,64,19,25,9,0,63,6,8,3,13,13,12,9,12,124
4,12,89,5,22,6,0,92,3,10,3,1,12,14,16,0,171
44,45,317,55,141,41,0,438,9,53,23,49,76,104,69,25,673
3,6,7,4,17,6,0,16,5,10,4,6,2,1,3,2,26
24,45,212,32,120,23,15,450,10,39,27,15,37,64,72,0,657
5,17,80,10,43,3,5,98,3,7,22,8,10,31,26,0,154
0,0,14,1,12,4,0,14,1,2,8,1,0,0,4,3,26
2,1,10,2,5,4,0,12,0,3,0,2,0,2,2,4,23
1,3,20,3,9,0,7,9,0,1,6,0,1,12,5,0,27
1,3,12,0,8,3,2,22,0,2,12,1,0,1,4,0,31
2,5,31,3,17,4,1,31,0,5,6,6,2,4,14,0,57
5,1,32,5,15,2,0,38,1,5,1,5,1,21,4,0,60
5,5,30,8,19,2,7,23,4,4,18,2,1,6,5,0,59
4,5,34,11,35,1,8,39,1,6,6,2,5,8,15,0,94
13,20,62,14,23,6,4,44,2,14,15,3,19,29,10,0,94
25,33,230,31,104,25,0,263,12,24,28,20,25,64,67,26,445
31,34,182,28,84,18,0,267,3,20,43,18,21,27,66,13,433
36,48,234,35,170,35,20,333,14,51,54,46,26,76,71,0,573
5,3,33,17,12,4,0,33,1,4,15,4,20,1,12,4,46
9,9,32,12,25,7,17,33,0,18,13,20,9,11,19,0,54
17,11,54,12,32,7,8,45,4,12,9,12,5,22,11,0,111
45,29,103,30,60,13,0,109,21,22,26,36,4,37,39,8,196
48,33,211,47,147,24,0,351,24,38,99,33,14,64,74,2,513
43,56,252,43,139,16,0,417,17,54,55,46,14,76,78,28,598
33,56,243,61,178,43,0,239,16,58,44,49,23,81,77,19,486
55,69,172,59,139,32,18,182,28,59,73,53,35,48,62,0,368
3,0,16,3,12,3,0,8,0,5,2,6,2,9,3,1,17
7,1,13,7,8,6,0,16,2,5,4,5,11,3,4,2,22
14,4,49,8,14,8,0,61,11,10,1,4,3,13,11,2,103
11,14,34,6,21,5,0,58,8,7,16,4,4,8,7,0,95
15,28,124,21,55,7,11,123,4,6,32,8,41,31,20,0,242
19,12,107,30,68,23,7,100,12,29,17,32,8,38,37,0,193
27,48,238,38,134,37,6,185,24,27,63,38,38,74,54,0,395
11,66,47,16,74,4,4,48,40,13,31,13,20,17,19,0,117
19,61,60,32,67,5,0,83,43,9,42,10,10,16,19,3,175
12,71,65,31,83,13,28,91,101,20,39,14,15,19,9,0,177
11,18,80,6,41,12,6,98,5,8,14,10,21,16,19,0,179
23,48,274,43,104,26,8,235,103,24,22,12,50,59,38,0,453
10,5,38,7,26,7,0,59,4,10,12,7,5,4,15,3,92
46,33,166,34,99,29,0,253,21,34,22,35,18,61,28,6,435
28,17,167,34,69,20,0,226,12,13,4,31,13,62,21,27,378
53,47,280,56,172,22,6,378,54,53,40,39,28,85,50,0,665
9,3,72,8,31,9,0,91,5,9,9,4,5,26,11,7,147
31,17,165,31,81,12,0,153,5,31,13,26,19,49,33,5,309
4,5,14,4,6,4,2,18,4,4,2,4,0,5,8,0,30
9,20,109,18,54,14,0,171,20,17,18,8,13,49,20,17,233
17,10,66,12,21,5,9,63,9,2,5,8,8,22,19,0,130
18,24,141,33,67,14,0,153,7,18,16,13,110,25,20,12,229
8,9,88,10,41,16,0,90,20,7,15,18,3,31,16,9,143
2,7,39,7,13,4,0,32,17,1,9,1,6,17,10,0,43
19,22,125,18,51,19,0,117,9,8,15,10,33,25,14,0,257
17,20,113,10,72,8,0,97,11,11,39,2,53,18,20,1,182
19,15,137,18,32,23,13,124,2,18,14,9,98,7,16,0,217
9,16,71,5,22,5,0,77,4,7,12,6,23,15,13,11,114
11,22,116,8,38,11,10,74,2,18,21,12,21,31,37,0,148
4,5,62,1,17,4,3,34,8,3,2,3,20,16,18,0,60
10,14,30,10,19,6,11,32,59,5,4,0,2,5,4,0,53
5,1,34,14,14,1,0,29,36,1,3,0,4,3,6,5,40
2,2,31,0,9,4,0,28,19,1,4,0,0,7,2,2,41
6,9,128,18,42,11,0,78,55,11,8,9,31,18,11,3,146
5,16,83,11,40,5,0,98,3,4,24,5,22,16,10,10,164
35,38,291,52,116,32,0,289,18,21,27,30,23,121,52,5,556
23,21,154,18,39,7,0,152,9,16,16,12,21,40,24,10,266
5,0,18,8,18,2,1,14,4,6,10,5,2,4,1,0,34
8,20,46,17,24,5,15,60,24,8,8,8,3,16,16,0,112
6,13,31,13,26,4,0,51,15,6,7,11,3,5,6,2,89
19,9,64,15,28,11,19,77,4,12,5,18,41,15,17,0,130
4,2,61,7,15,6,2,44,2,3,0,11,15,6,15,0,89
7,14,77,15,47,12,12,49,13,23,11,17,8,29,22,0,110
1,7,74,6,18,4,0,56,2,4,1,7,9,19,15,6,103
74,43,407,58,151,40,19,575,14,35,54,56,111,84,63,0,950
21,13,107,18,47,8,13,102,7,21,29,13,20,35,30,0,174
33,23,127,36,94,26,35,194,8,30,46,21,36,34,51,0,342
15,10,38,16,26,7,0,43,5,11,12,7,5,8,11,4,92
12,9,109,15,22,9,17,159,8,5,9,10,6,12,35,0,267
7,2,22,3,18,2,0,27,8,0,1,7,1,6,2,0,56
13,9,31,19,32,7,6,57,18,11,9,14,8,15,10,0,89
9,4,33,9,15,5,2,30,12,5,5,6,6,5,14,0,54
9,6,42,5,14,4,0,37,7,10,1,14,2,8,12,3,60
3,5,20,6,10,3,2,35,5,8,2,4,3,15,5,0,42
9,7,63,3,38,14,0,73,4,18,4,15,11,17,14,16,108
37,39,59,32,135,20,61,115,37,61,38,42,21,29,62,0,208
7,4,35,5,29,8,8,59,8,7,11,9,5,13,15,0,87
9,12,57,15,38,5,13,46,7,18,14,15,11,43,28,0,59
2,9,26,5,14,1,1,17,9,2,3,6,1,12,9,0,33
13,5,37,11,32,3,0,35,8,12,1,22,5,6,13,7,62
19,8,53,12,58,12,16,46,12,28,15,24,15,29,15,0,86
10,10,36,15,44,6,11,52,8,8,9,15,5,11,25,0,103
2,2,15,5,8,3,3,13,5,2,4,2,5,1,11,0,21
8,4,36,4,12,9,2,31,3,1,3,9,5,7,12,0,66
1,0,32,1,7,2,2,30,3,0,4,1,3,17,11,0,36
10,5,35,3,24,7,4,48,14,4,1,10,1,2,15,0,89
5,5,34,3,15,5,0,82,1,4,7,3,7,9,12,5,101
25,14,55,18,48,8,9,86,13,19,22,20,4,22,37,0,126
35,16,94,18,40,11,5,88,14,12,9,23,19,20,33,0,177
4,8,24,15,18,4,0,23,4,6,5,5,7,9,10,0,50
9,17,72,10,66,3,15,49,9,14,28,12,16,26,17,0,119
3,2,19,2,5,0,7,21,2,4,2,2,2,8,2,0,37
11,2,59,4,10,3,0,39,6,2,4,2,0,12,13,10,79
11,5,28,5,10,6,17,33,7,9,9,2,8,13,11,0,56
7,4,53,6,8,8,6,70,7,11,2,0,3,25,17,0,97
33,26,93,29,100,32,20,90,52,59,32,32,9,35,40,0,164
8,11,61,10,29,0,0,57,1,10,10,9,33,14,5,12,82
12,9,66,10,19,5,5,52,6,4,3,8,14,12,15,0,116
1,2,41,3,10,1,0,41,1,1,0,3,5,18,8,0,63
14,25,122,36,84,17,16,150,13,21,27,16,19,48,44,0,276
15,11,31,7,30,8,0,35,3,6,5,4,15,7,19,0,78
10,7,45,16,37,5,41,50,7,4,40,16,5,11,10,0,118
13,15,65,31,33,13,4,77,17,13,13,11,4,27,18,0,148
33,57,191,49,128,29,0,229,27,50,31,42,19,44,50,13,440
85,63,248,50,199,36,0,360,44,52,62,73,26,96,68,42,578
91,88,241,74,181,75,0,340,22,126,46,57,28,93,65,3,650
15,10,54,24,43,13,10,62,24,32,9,18,3,24,16,0,105
15,11,60,9,38,9,0,53,8,5,12,14,8,31,16,5,96
41,36,247,52,152,34,25,259,19,55,42,47,24,74,77,0,508
16,10,55,18,32,7,0,51,5,9,6,15,3,22,14,1,114
3,4,30,2,8,2,3,20,1,4,3,5,2,8,6,0,43
24,24,78,22,57,17,7,84,13,19,22,24,9,52,26,0,148
2,7,31,4,10,1,4,16,9,5,6,14,7,8,7,0,19
23,16,51,18,56,5,4,57,22,22,10,31,4,16,32,0,93
12,17,41,10,34,14,0,47,20,12,5,21,7,9,16,0,85
73,71,106,35,161,38,44,190,57,89,30,54,15,31,48,0,394
75,50,223,72,171,30,32,264,33,55,21,81,45,80,94,0,508
15,21,99,33,49,16,17,100,14,21,6,22,23,22,23,0,219
43,36,168,47,99,24,0,263,25,38,18,29,25,56,48,12,429
18,31,50,17,49,8,5,78,22,38,15,15,6,16,15,0,129
22,24,199,30,101,16,0,301,23,23,10,29,17,41,84,1,465
27,15,97,17,35,13,4,105,5,18,10,16,6,30,15,0,213
9,9,39,11,28,7,11,45,3,7,11,10,11,8,12,0,97
5,9,59,14,36,6,3,81,3,3,12,8,6,13,16,0,152
30,8,140,20,80,17,0,189,8,7,29,25,22,48,29,6,310
41,35,168,52,116,29,0,329,11,28,37,31,43,35,62,12,511
53,27,166,51,142,24,21,260,27,28,31,38,35,49,60,0,476
25,24,59,34,47,19,63,116,10,42,14,28,15,26,37,0,215
20,7,80,8,17,13,0,81,13,16,8,7,2,22,22,11,125
23,13,44,11,29,3,10,69,0,8,14,6,4,6,13,0,151
17,18,87,7,40,11,1,65,6,12,11,16,7,14,33,0,147
47,32,148,42,100,23,11,222,10,44,47,33,22,51,52,0,366
53,16,138,52,112,36,4,225,19,28,38,31,18,49,64,0,389
59,34,207,50,159,38,18,447,11,42,55,42,48,71,84,0,659
27,27,144,32,99,13,0,182,6,27,31,41,16,63,54,11,275
38,31,148,39,138,27,0,201,11,39,30,46,30,36,57,29,344
60,65,164,44,141,23,20,267,23,53,65,44,29,42,71,0,457
36,29,171,45,135,11,0,228,6,35,28,33,26,60,63,37,367
4,5,34,9,6,6,0,49,2,2,6,0,2,7,16,7,71
91,103,381,92,245,56,34,556,30,78,59,57,57,137,237,0,903
71,44,153,58,167,22,3,288,37,53,22,54,30,43,59,0,508
9,8,43,9,27,12,6,60,21,12,7,14,2,20,17,0,81
48,44,231,51,160,43,29,308,74,32,25,76,30,79,57,0,541
20,9,78,13,45,8,10,87,16,26,4,9,16,26,15,0,158
69,45,340,71,163,58,0,431,56,45,17,54,33,97,81,39,755
51,26,303,57,156,28,0,584,42,27,22,41,23,118,65,43,824
3,3,30,7,10,1,1,23,6,1,2,4,7,4,5,0,49
33,44,122,31,109,19,16,179,37,36,23,46,16,43,24,0,328
7,11,53,12,31,9,8,48,14,6,11,16,2,22,16,0,92
10,8,88,12,31,9,0,94,18,11,4,14,9,32,16,5,143
19,2,52,11,50,12,0,45,9,6,21,5,7,13,28,5,97
3,2,36,15,15,2,0,60,9,1,2,14,2,12,8,6,79
8,8,55,7,29,4,1,74,9,4,13,6,7,30,19,0,98
22,18,98,20,52,13,3,87,12,21,27,17,1,31,23,0,181
7,6,32,8,25,4,13,72,2,7,4,11,6,13,17,0,107
3,5,32,3,14,5,5,31,6,1,12,4,5,7,5,0,58
4,5,11,1,3,2,2,26,3,2,7,2,2,0,3,0,35
6,1,33,4,11,6,0,30,0,4,9,0,1,14,9,3,51
23,6,94,7,33,9,0,121,20,4,19,6,9,26,23,19,167
21,7,84,24,55,15,6,143,8,16,6,11,30,36,11,0,237
19,23,94,30,87,15,6,145,21,40,20,34,20,34,47,0,203
12,8,38,14,17,7,14,63,18,5,1,5,3,13,10,0,118
36,12,132,27,65,13,0,155,12,11,4,30,4,40,33,4,302
20,15,85,23,54,15,3,119,28,12,13,12,10,34,27,0,198
3,2,36,8,20,4,7,43,9,7,4,6,2,12,17,0,66
76,44,236,64,181,55,18,297,44,89,36,52,59,90,60,0,541
9,7,46,7,33,4,0,42,12,8,6,9,5,14,11,2,81
7,3,41,5,14,7,0,38,2,8,5,7,1,18,5,4,65
11,14,57,16,39,6,0,65,11,11,4,10,7,17,20,9,119
6,11,37,6,15,1,1,9,2,4,4,7,5,22,4,0,38
65,45,353,71,154,37,0,379,22,42,38,61,62,116,86,21,656
4,2,5,4,8,2,0,9,0,2,0,3,9,3,3,3,11
34,24,124,20,76,15,0,115,18,14,8,31,21,46,33,4,233
60,37,140,45,106,24,15,322,42,48,10,56,12,37,53,0,491
55,59,153,68,141,34,42,299,81,45,19,56,24,60,66,0,500
72,46,203,56,157,41,25,266,40,53,38,57,20,80,94,0,484
6,12,33,15,31,3,0,34,12,11,1,6,2,18,11,3,70
37,28,164,32,117,26,1,230,68,30,19,31,11,66,37,0,373
18,10,48,17,32,11,12,69,3,21,9,22,5,20,24,0,113
2,2,30,6,12,6,2,21,0,12,0,3,18,14,3,0,31
4,2,18,2,8,3,7,11,5,4,0,4,0,8,8,0,26
9,4,30,12,27,6,14,45,3,10,8,12,5,10,21,0,78
1,2,31,2,20,5,12,31,4,1,1,5,3,6,14,0,70
13,7,35,5,26,3,0,62,10,5,5,6,7,12,11,1,94
5,10,51,7,22,13,23,70,7,20,9,12,10,20,21,0,102
10,8,65,16,32,10,0,68,15,5,7,14,10,22,6,2,128
50,54,229,45,163,30,29,273,60,69,35,55,38,79,70,0,467
56,43,202,57,118,39,0,352,38,38,29,40,25,65,65,34,533
33,24,168,27,98,19,0,206,36,29,22,16,11,58,29,5,369
54,38,217,57,126,55,0,304,46,42,26,45,23,62,68,30,509
43,34,213,64,138,37,0,387,36,69,24,36,33,61,53,16,588
65,66,288,71,174,48,0,658,65,60,34,81,26,90,98,13,903
56,38,277,51,159,44,0,280,39,51,24,50,25,83,60,19,554
8,9,53,18,21,5,13,57,5,7,15,6,5,19,22,0,105
5,0,34,5,9,1,0,14,10,0,4,1,8,10,17,3,15
34,34,106,38,74,27,13,154,19,45,21,31,16,35,40,0,273
7,12,44,6,16,6,0,47,1,2,15,6,10,18,9,7,70
45,20,111,38,73,12,13,166,42,16,19,31,7,40,31,0,292
11,2,81,12,51,4,0,65,10,11,7,10,7,24,16,7,134
7,10,38,8,32,9,1,43,11,3,15,9,5,12,8,0,85
38,25,113,32,105,22,19,207,35,31,16,42,9,43,49,0,336
76,44,292,74,125,40,0,490,21,24,89,44,28,89,86,65,695
13,5,58,9,30,6,0,51,46,4,5,8,1,11,8,5,84
60,39,242,68,169,47,0,302,184,28,27,44,43,76,70,5,450
2,2,40,1,7,4,0,44,18,0,2,1,1,7,19,3,49
31,19,136,27,85,12,0,170,8,2,255,7,8,16,11,0,173
26,10,46,17,65,9,31,47,25,27,21,31,5,19,34,0,89
5,14,34,5,31,4,8,52,5,8,5,14,8,12,15,0,86
1,1,16,4,4,3,3,19,6,2,5,1,0,2,8,0,27
11,10,30,13,29,5,1,40,15,8,6,13,6,4,14,0,73
9,2,26,8,20,1,0,29,10,9,6,1,1,11,6,13,38
53,54,223,50,168,40,34,266,104,52,36,49,12,85,74,0,476
44,26,171,58,128,31,19,237,79,35,27,38,11,52,55,0,417
48,43,179,36,153,35,38,298,87,61,23,63,15,66,45,0,470
31,12,93,27,53,16,9,112,13,18,15,25,16,29,22,0,215
11,12,43,8,33,6,0,107,14,0,6,11,8,15,14,10,142
74,63,202,88,240,72,6,244,34,138,61,50,27,89,89,0,501
22,15,72,17,33,7,22,52,3,9,5,12,16,28,35,0,132
34,20,84,18,61,36,18,141,20,27,17,27,9,22,41,0,249
89,57,225,69,225,71,55,272,50,108,44,71,35,88,133,0,534
20,21,88,32,59,20,17,62,15,28,17,24,29,35,50,0,121
31,18,150,32,37,23,0,191,14,26,10,16,14,39,32,6,325
44,20,99,34,95,18,103,126,16,26,48,44,19,60,47,0,279
13,4,55,15,20,6,0,66,7,9,1,12,3,27,12,4,104
13,11,61,21,68,8,4,78,31,14,52,18,6,11,13,0,119
15,28,103,16,56,18,6,121,10,14,19,15,15,30,30,0,230
15,9,69,21,17,9,2,69,12,13,5,10,14,25,18,0,114
9,1,59,5,19,3,2,44,11,6,8,6,5,18,14,0,74
3,4,69,7,33,1,7,52,6,6,1,8,13,41,14,0,87
13,4,47,10,34,8,0,104,11,6,4,13,1,24,14,0,147
7,3,39,11,16,10,2,44,9,8,0,4,6,14,15,0,76
17,5,63,18,46,10,0,64,2,29,10,14,5,12,8,3,140
6,7,82,10,28,8,0,82,3,6,8,7,14,35,29,9,112
8,4,50,8,24,6,14,48,7,5,16,8,7,20,7,0,92
5,2,18,3,15,1,0,18,5,6,0,3,9,3,5,2,29
29,9,110,19,75,17,0,135,14,9,5,17,17,32,35,21,244
5,2,29,3,13,2,0,50,7,1,2,2,3,14,5,0,70
28,19,84,21,76,10,3,140,7,27,33,31,10,26,36,0,211
27,5,92,21,49,17,4,73,24,15,9,21,9,25,39,0,146
8,14,106,8,28,9,0,81,9,8,8,0,4,37,21,5,162
13,15,84,26,67,8,0,76,16,17,28,16,9,40,11,5,147
12,16,87,27,56,11,0,117,11,20,13,10,13,21,24,1,213
8,13,50,14,47,8,1,66,13,12,6,16,7,13,12,0,128
3,2,49,1,13,3,2,42,8,7,8,4,0,9,10,0,69
16,21,103,24,40,10,18,155,28,10,15,24,10,18,48,0,234
4,4,54,10,13,3,0,23,4,3,5,2,5,14,10,8,60
4,7,37,8,16,5,13,36,7,4,9,8,6,15,15,0,62
40,28,188,34,111,29,0,222,16,36,33,35,23,52,69,16,372
4,3,13,5,10,2,21,549,2,1,0,8,1,1,5,0,589
38,51,114,48,122,35,27,183,11,60,88,38,35,19,32,0,335
39,23,225,20,76,9,0,293,8,10,40,20,17,88,47,28,427
32,24,187,25,74,24,0,234,4,26,51,32,18,56,29,13,371
48,37,208,36,99,36,0,256,12,21,54,38,30,42,63,2,458
32,28,172,29,86,10,0,418,8,12,51,20,20,34,31,35,564
54,55,268,53,147,43,0,472,9,45,89,49,22,60,58,15,745
39,43,200,46,118,29,0,364,14,32,86,24,17,56,48,3,559
51,64,231,44,120,32,0,391,10,47,88,38,17,77,34,54,568
54,47,220,64,116,39,36,378,14,47,108,46,25,60,43,0,611
45,40,198,42,106,28,8,234,7,38,77,30,21,70,55,0,403
33,26,233,38,120,14,0,273,17,24,73,28,26,53,42,36,438
30,29,198,34,112,17,10,209,7,17,87,20,23,46,44,0,395
49,48,262,45,133,29,4,211,22,44,125,36,32,61,52,0,409
62,46,262,60,120,39,9,346,17,47,131,34,24,57,61,0,573
32,27,209,32,101,29,0,319,9,26,72,30,18,50,48,28,468
29,49,172,32,86,26,0,272,15,25,88,35,19,46,33,13,392
27,17,103,30,57,20,1,284,3,25,23,18,21,24,37,0,388
26,28,56,23,58,21,23,69,15,41,17,15,16,7,17,0,176
13,16,32,6,19,6,0,36,7,3,17,5,1,8,10,7,70
6,4,23,7,13,6,8,36,10,4,5,8,4,2,11,0,59
39,58,242,59,159,23,7,209,14,44,42,40,115,44,35,0,462
57,27,351,44,116,20,0,464,10,16,29,39,75,115,63,22,710
7,6,126,12,38,7,0,94,2,6,5,1,29,37,29,7,174
3,16,42,8,12,0,2,34,1,6,6,2,20,5,12,0,65
21,37,86,21,84,10,5,107,43,23,14,26,9,38,14,0,204
61,167,239,98,284,47,0,340,20,128,194,73,65,79,58,51,568
35,44,171,37,117,25,0,216,42,60,18,32,23,70,31,5,364
35,65,182,43,128,23,9,298,32,45,37,43,32,37,43,0,514
18,16,73,11,28,10,6,104,4,6,25,6,12,21,18,0,174
17,15,159,17,31,10,0,191,6,10,4,11,40,37,24,1,307
38,148,128,46,130,30,27,200,79,47,101,28,20,44,31,0,397
34,101,155,65,220,26,0,246,97,58,72,39,34,41,37,18,451
10,47,59,8,37,5,1,70,4,6,40,13,31,22,7,0,114
9,11,24,4,19,9,7,15,27,10,5,5,5,7,9,0,30
26,45,203,48,89,19,0,301,4,9,35,32,69,19,41,13,509
2,11,20,11,31,3,0,29,13,7,6,3,8,9,6,5,50
12,25,20,4,18,1,8,31,9,7,35,4,2,4,5,0,53
4,7,58,7,31,14,4,63,7,2,10,15,12,23,11,0,108
43,58,137,60,122,22,1,313,23,62,26,33,41,54,44,0,473
0,6,18,2,8,1,0,13,2,0,2,0,3,4,11,3,23
36,44,329,40,133,16,0,380,5,36,46,24,95,81,53,13,625
6,10,44,5,33,8,6,29,17,12,12,6,13,7,17,0,57
33,60,197,37,109,21,0,380,2,33,21,34,116,48,23,10,550
38,77,311,46,158,42,0,495,3,43,101,39,115,72,35,8,751
45,48,364,53,186,43,0,364,14,30,84,31,113,66,64,48,653
1,0,24,5,4,2,4,17,1,1,0,0,0,7,7,0,41
22,40,105,24,81,11,2,142,11,29,37,27,16,37,23,0,247
6,5,97,3,13,4,10,125,2,1,6,3,7,33,10,0,201
24,38,182,36,64,22,7,200,16,15,34,18,32,46,43,0,369
21,44,190,45,125,27,0,192,13,63,28,25,31,49,30,13,392
8,3,35,3,8,4,2,49,2,3,2,5,5,8,12,0,75
13,11,117,15,27,7,16,126,7,7,9,13,34,16,27,0,219
10,17,90,15,35,6,0,116,6,15,3,13,27,11,19,4,191
37,32,194,60,77,36,16,371,1,23,11,26,90,42,29,0,601
17,22,87,19,34,9,1,130,3,5,15,22,31,20,10,0,213
3,2,46,4,6,2,0,34,0,0,3,0,5,13,10,0,66
25,21,152,26,80,22,0,177,5,24,15,21,26,47,46,0,319
16,23,35,20,36,3,1,59,12,12,20,12,4,16,27,0,90
4,5,30,4,7,0,3,19,3,3,0,3,5,9,1,0,48
6,10,31,4,10,2,5,37,4,5,0,7,11,8,5,0,65
15,37,44,12,52,7,9,60,12,16,28,8,7,11,20,0,134
25,60,66,17,111,35,0,100,18,81,33,23,22,26,21,1,189
37,50,143,35,172,23,116,229,33,97,38,40,45,65,37,0,450
60,88,125,49,167,19,0,209,29,104,43,44,37,47,38,22,353
21,22,48,20,48,13,0,97,14,37,8,7,11,16,18,13,145
31,66,85,32,127,22,0,151,28,73,47,22,13,40,21,33,237
56,73,200,57,198,36,0,277,38,98,46,35,34,77,46,60,463
69,141,192,66,244,41,0,236,57,162,73,31,50,109,46,27,434
50,101,105,50,160,37,30,185,48,112,66,42,36,44,34,0,336
1,8,25,2,16,5,3,36,4,13,4,4,6,3,7,0,55
12,7,10,6,25,16,0,46,4,14,9,6,3,8,7,0,71
32,136,193,50,164,26,0,210,55,45,99,45,35,49,48,21,414
23,37,62,18,55,7,9,47,48,4,30,12,3,19,18,0,124
3,1,32,6,7,1,5,27,0,0,0,2,3,8,11,0,58
1,0,16,3,7,3,0,22,3,0,0,0,6,1,1,5,36
0,2,25,0,9,1,0,6,1,0,2,3,0,5,1,2,29
1,3,28,6,12,1,0,28,0,3,6,2,3,5,3,5,52
3,2,15,0,1,5,0,14,1,2,0,1,3,7,4,0,22
6,0,14,1,7,0,0,24,0,0,1,2,9,4,1,4,31
42,37,214,41,139,23,0,255,4,31,21,34,96,37,50,6,472
9,5,34,7,24,4,0,35,3,0,5,2,5,4,10,7,82
3,2,14,1,6,0,0,13,0,0,1,0,8,6,4,4,16
15,5,86,13,11,7,13,49,10,1,8,7,3,18,14,0,138
15,14,134,17,31,4,0,139,1,3,6,5,41,27,26,6,239
18,39,125,21,86,14,0,143,88,11,24,11,18,40,24,0,230
12,11,30,11,34,5,4,31,25,6,10,16,10,9,8,0,54
49,17,119,24,64,13,0,167,7,21,7,16,29,33,33,0,307
23,23,167,22,84,26,6,275,5,40,5,13,31,37,52,0,443
41,52,238,42,136,31,0,248,5,49,24,24,93,45,79,21,448
3,7,76,5,10,7,0,73,1,0,9,1,15,18,21,16,100
19,8,85,5,22,16,0,76,4,9,3,7,18,11,27,0,152
49,31,205,51,94,24,8,238,9,45,22,18,78,52,47,0,429
45,20,273,37,96,28,0,340,7,34,19,16,50,77,62,10,564
45,45,265,44,129,28,0,372,5,27,29,21,80,70,56,43,597
45,51,197,45,110,21,0,241,3,51,15,19,70,49,54,10,439
17,22,159,35,79,30,6,695,3,29,18,15,33,27,48,0,870
43,29,193,44,76,27,16,257,3,36,13,22,63,40,75,0,433
25,33,179,26,84,17,0,286,6,22,30,21,44,39,52,38,398
16,20,180,25,49,10,0,267,4,4,8,7,43,47,49,29,376
12,27,44,10,37,4,0,47,3,13,15,4,20,16,6,0,104
14,68,124,21,104,16,13,179,14,30,60,23,59,28,21,0,304
43,32,269,36,128,19,32,406,25,30,30,36,38,48,59,0,699
61,90,189,49,178,38,0,211,49,89,61,41,48,49,56,3,420
5,7,100,6,22,7,0,113,6,2,1,11,8,25,12,4,191
69,138,288,80,224,48,0,297,21,172,70,63,49,127,54,19,569
31,63,177,48,144,24,20,214,15,65,43,28,32,56,49,0,433
29,33,95,28,111,23,14,342,14,78,26,36,18,38,23,0,442
22,32,119,24,76,26,0,152,3,50,16,10,11,34,19,49,259
30,50,169,14,109,32,0,204,7,54,18,25,33,64,28,19,360
44,85,188,42,142,24,0,255,9,99,38,29,27,59,29,29,461
45,55,157,32,142,29,10,223,12,94,35,25,24,62,33,0,408
38,69,202,39,105,31,86,213,14,92,32,39,29,59,47,0,471
2,25,43,10,18,2,0,55,3,4,12,13,2,19,3,4,95
6,22,39,15,29,3,10,51,6,19,22,12,5,17,9,0,85
5,3,37,12,15,9,0,49,4,5,5,4,5,4,7,5,91
50,86,203,56,153,35,17,371,21,103,44,47,30,49,59,0,618
30,31,151,34,95,24,5,181,10,55,22,24,32,47,29,0,332
13,29,106,18,65,7,12,188,1,22,10,20,20,23,26,0,316
8,20,36,5,35,5,0,24,40,2,8,8,8,20,10,0,37
19,11,69,11,84,10,0,66,14,14,16,15,46,18,12,6,129
5,13,35,8,27,5,1,36,4,7,3,20,8,10,6,0,72
30,44,257,53,101,25,39,387,19,39,39,50,28,52,52,0,657
19,29,185,38,66,11,0,191,5,15,20,25,25,44,39,8,358
10,25,78,8,48,17,9,74,5,19,19,8,8,34,16,0,160
8,4,91,12,18,8,3,51,1,4,4,2,19,27,19,0,119
11,4,52,3,9,3,0,49,3,0,4,4,7,2,7,12,92
29,15,141,20,50,11,0,233,8,14,21,11,12,38,34,8,353
39,46,77,24,85,19,10,113,11,34,40,22,42,20,19,0,225
35,199,139,54,121,18,7,187,37,55,112,43,17,32,39,0,425
11,23,50,20,28,2,4,57,10,9,5,12,6,31,13,0,109
4,4,57,7,16,6,6,95,1,4,4,3,4,11,10,0,158
3,5,40,8,21,4,7,42,6,2,11,6,15,12,11,0,67
24,26,262,48,64,27,35,320,5,22,14,43,62,68,63,0,529
9,6,61,14,25,3,1,86,4,10,6,6,2,19,15,0,143
14,24,33,22,39,4,5,55,21,9,2,9,6,10,15,0,124
5,3,20,1,26,1,0,22,28,4,4,2,17,2,0,4,17
5,11,37,10,28,3,0,20,0,9,10,5,6,2,2,8,72
4,6,26,7,15,9,6,24,1,10,8,0,3,6,9,0,60
7,5,27,4,29,10,0,31,2,5,4,9,5,12,8,5,63
22,49,56,29,55,12,0,110,15,37,32,16,20,22,7,18,166
2,6,39,8,13,0,0,37,2,3,1,5,6,6,11,10,61
8,27,80,25,70,10,11,102,12,19,14,13,34,25,9,0,207
14,64,101,15,58,4,9,88,7,16,56,12,65,11,15,0,171
19,36,108,29,63,8,9,131,33,23,21,20,19,35,16,0,236
26,18,178,28,74,9,11,402,3,12,3,13,32,42,41,0,600
6,2,28,9,5,8,3,21,2,10,3,11,3,8,2,0,43
42,30,212,28,92,19,0,329,14,27,33,30,26,40,34,2,546
12,20,64,17,59,9,0,57,24,14,16,11,10,17,9,4,133
6,2,48,5,6,4,4,64,0,1,5,3,16,0,8,0,106
8,12,122,15,37,14,0,120,1,7,12,7,11,26,27,7,230
18,11,121,13,39,8,0,159,6,12,2,14,30,15,18,4,268
1,4,5,1,8,2,3,12,1,4,11,1,0,0,4,0,15
49,56,133,43,116,27,0,207,11,40,63,20,50,49,44,26,328
43,94,143,46,113,32,79,599,12,48,67,49,60,39,63,0,811
18,22,86,19,43,8,3,169,2,11,10,26,31,9,24,0,255
11,3,75,16,47,10,4,82,3,16,11,22,28,29,18,0,121
31,69,142,36,119,32,1,279,7,45,31,23,51,51,49,0,452
81,85,184,53,155,31,30,357,12,44,69,69,80,47,51,0,604
62,76,258,58,163,23,35,261,19,60,63,49,96,92,57,0,500
41,40,153,21,93,22,0,199,9,27,20,31,44,51,40,23,324
43,42,174,27,92,15,2,159,4,37,34,29,48,62,40,0,300
38,38,162,25,102,20,0,183,3,32,38,23,48,48,29,32,315
44,36,242,41,136,22,0,235,12,36,47,27,65,92,50,6,421
60,76,204,34,127,36,11,238,10,43,57,35,74,79,51,0,437
49,76,141,34,127,27,1,161,10,64,44,37,58,50,44,0,309
39,64,159,25,96,18,0,308,10,20,32,29,61,47,47,10,453
37,56,108,40,95,18,6,241,12,31,40,22,47,36,39,0,374
49,56,142,45,133,24,18,279,8,37,38,41,63,48,50,0,461
49,77,121,36,132,18,0,169,11,47,47,37,66,47,39,28,280
68,84,279,78,228,49,0,340,26,47,44,49,108,73,94,71,614
15,21,34,13,51,7,10,47,24,19,13,19,13,10,16,0,84
57,107,214,68,189,22,5,239,18,61,64,46,90,79,57,0,486
18,11,61,18,36,10,0,164,3,3,5,10,22,10,18,13,234
3,7,23,7,17,0,0,26,2,8,0,4,7,4,4,4,50
16,16,79,17,47,13,5,296,1,8,4,5,13,15,30,0,413
22,18,120,26,84,13,0,210,11,47,9,16,26,27,48,5,304
5,1,25,6,28,2,0,29,3,14,1,5,3,12,7,7,44
6,3,50,8,22,5,0,67,3,9,0,2,2,14,11,17,103
9,15,88,13,33,13,0,159,3,19,5,13,15,21,18,11,225
40,37,206,26,112,25,0,356,13,51,20,16,26,55,45,28,548
15,18,84,30,39,13,0,104,9,4,18,15,11,22,27,5,192
53,85,188,56,156,24,0,270,6,34,62,38,179,62,32,9,410
37,46,239,48,109,17,0,252,3,27,23,28,162,55,21,21,408
53,57,266,37,131,30,0,277,4,37,55,33,140,78,55,0,449
61,43,226,47,162,35,0,288,10,30,41,41,173,54,31,21,461
78,87,277,87,179,43,0,323,15,48,49,50,228,85,56,46,497
86,77,181,71,136,42,0,351,11,35,51,48,134,43,40,0,582
68,49,287,59,171,42,0,311,12,29,40,28,171,64,52,24,567
67,95,251,91,195,51,13,310,13,51,62,57,246,62,53,0,529
28,14,53,15,15,4,0,392,1,8,12,7,25,10,17,16,425
4,3,41,6,23,3,0,28,0,0,8,4,31,8,7,10,40
7,6,34,7,20,4,5,10,0,13,3,4,37,4,8,0,24
18,3,46,21,17,2,1,72,2,3,5,4,26,6,6,0,128
72,61,227,68,149,33,0,411,16,32,33,39,122,72,56,12,639
37,32,100,26,57,13,0,114,3,14,26,25,61,16,14,3,217
55,48,244,44,109,20,0,300,8,23,43,15,129,62,41,19,480
66,73,248,80,146,37,10,312,5,38,58,27,206,55,65,0,518
53,41,200,61,114,41,12,688,5,44,28,36,96,32,40,0,929
47,53,95,21,88,13,17,135,78,17,32,15,18,33,20,0,256
29,34,122,22,79,25,22,163,13,18,27,27,44,44,38,0,285
7,5,34,4,50,3,0,40,15,8,10,11,7,15,13,8,56
34,12,185,22,78,8,1,203,16,10,7,16,35,37,49,0,373
25,24,114,39,66,19,19,99,20,19,21,23,16,51,27,0,228
2,5,11,3,11,2,9,59,3,0,3,1,7,1,8,0,79
70,129,175,72,243,42,0,254,28,55,97,53,167,49,51,17,468
4,11,69,10,15,9,0,89,4,5,10,9,5,17,12,1,144
45,181,177,76,194,34,0,274,15,41,116,57,77,49,63,7,556
46,111,166,49,162,37,15,204,22,43,96,49,70,42,52,0,416
4,13,30,9,10,4,0,21,0,2,6,5,14,3,20,8,33
28,42,166,41,105,26,13,139,9,45,39,32,37,54,49,0,295
62,57,220,61,118,47,20,212,25,42,54,71,63,49,75,0,418
11,24,63,18,48,11,3,96,10,11,8,23,9,25,27,0,161
17,24,36,11,39,3,0,42,6,9,7,7,19,17,14,5,88
58,57,165,46,107,23,2,228,22,30,32,39,61,56,44,0,402
69,74,181,40,203,28,0,237,25,40,70,58,102,60,47,7,423
19,28,103,24,71,10,0,136,16,15,21,16,37,18,28,8,232
63,59,175,45,162,20,3,221,85,25,70,24,40,45,32,0,427
36,44,165,45,120,18,0,212,54,31,36,29,32,45,22,1,390
45,50,114,28,100,30,10,135,12,44,35,36,57,42,40,0,246
20,11,90,17,50,16,7,96,18,15,11,13,12,33,30,0,175
5,31,24,11,23,8,0,37,10,27,9,4,5,6,9,4,65
119,160,320,96,329,91,0,792,53,172,65,117,63,112,110,68,1147
74,88,322,96,199,48,21,325,23,107,48,67,62,123,83,0,660
55,57,229,53,194,35,0,302,20,60,30,55,52,80,62,17,549
44,53,191,46,155,19,0,262,17,43,23,41,33,69,56,6,482
67,50,200,61,166,23,13,301,15,62,27,47,35,61,62,0,572
59,80,184,65,163,33,39,253,26,60,69,38,30,76,55,0,522
9,8,24,7,15,6,0,31,2,11,2,5,2,1,5,8,64
11,23,31,19,38,7,2,43,4,14,15,9,12,11,8,0,101
28,63,132,37,129,25,0,180,14,67,32,46,42,48,33,1,311
42,77,150,40,138,16,1,179,13,53,38,69,41,70,36,0,323
35,38,132,38,90,17,14,152,10,35,20,43,49,38,35,0,286
39,50,105,38,109,20,9,196,13,37,34,32,42,43,40,0,325
42,50,122,38,126,15,10,148,13,28,46,33,40,47,32,0,312
19,10,59,10,37,7,6,68,5,16,1,20,10,22,9,0,133
19,14,66,34,47,15,0,69,9,6,13,12,15,26,33,5,145
18,17,46,11,59,21,7,91,16,22,7,26,31,17,10,0,141
54,50,167,50,125,31,10,238,75,30,42,26,41,47,47,0,417
29,16,73,18,56,16,0,78,9,25,6,15,13,24,15,0,179
6,3,48,6,14,0,0,42,3,1,0,5,17,13,8,7,65
3,4,24,7,13,3,0,40,1,1,2,1,9,8,8,5,59
8,7,46,9,24,3,2,64,0,6,3,5,29,5,7,0,108
1,2,41,2,5,2,0,23,0,0,2,0,5,4,19,5,41
62,55,325,63,146,28,0,346,39,56,16,35,115,93,68,44,559
36,27,276,33,82,28,0,479,9,23,10,28,70,67,62,18,674
34,34,215,53,103,32,19,278,22,32,12,17,84,60,72,0,469
1,3,25,8,16,2,0,10,6,2,2,9,1,1,2,3,39
2,11,28,3,15,5,0,36,0,9,3,6,5,5,5,14,53
1,17,25,5,20,4,7,45,3,10,8,5,10,12,5,0,71
12,8,78,2,25,8,1,116,3,6,4,3,15,20,18,0,181
78,54,146,83,190,43,0,213,38,56,57,50,71,44,50,34,407
60,61,298,58,217,50,0,304,16,73,58,52,81,127,42,40,559
109,99,313,83,274,66,0,389,29,81,55,80,115,98,83,21,771
51,49,227,40,188,41,0,281,8,67,37,36,85,88,61,3,492
42,67,180,48,151,27,3,257,24,51,53,44,70,61,51,0,421
51,48,243,52,148,26,0,302,9,73,53,38,60,76,57,2,502
40,38,186,35,120,14,0,507,12,52,31,24,37,49,45,8,682
56,57,223,58,191,55,0,348,27,48,51,61,63,98,51,11,578
64,46,203,44,154,38,0,303,7,54,41,36,54,89,31,35,505
88,146,262,93,247,55,28,379,28,57,86,80,262,54,88,0,643
55,99,244,65,226,42,31,269,18,54,43,45,255,76,57,0,483
55,100,154,56,210,34,0,339,18,51,50,42,200,50,41,10,486
9,13,25,6,26,6,0,34,0,4,3,4,26,6,4,0,72
69,128,147,52,172,24,9,150,10,46,98,61,117,56,48,0,315
58,145,129,62,217,25,0,226,15,54,121,61,149,46,34,10,372
2,7,57,2,18,8,0,44,5,5,13,3,10,15,11,4,72
20,13,127,22,38,10,9,180,6,12,6,6,48,23,32,0,286
37,46,126,52,140,25,19,170,36,42,40,50,45,36,36,0,330
15,20,76,23,40,10,16,72,2,13,14,12,13,23,15,0,180
77,114,176,74,147,30,11,273,21,54,57,52,156,58,37,0,467
31,28,192,36,61,9,0,242,9,3,24,23,39,51,46,2,402
35,66,91,37,82,23,0,137,9,25,57,30,33,31,40,4,242
6,6,21,7,19,5,0,29,3,1,5,5,25,0,8,9,37
18,20,116,21,44,12,0,116,4,7,10,12,81,23,18,11,181
14,9,62,8,41,7,3,49,11,8,11,18,20,25,9,0,91
3,14,28,6,27,3,7,25,5,7,9,5,4,14,5,0,64
55,93,177,42,171,27,0,190,22,34,123,43,50,54,40,4,385
19,18,46,13,36,4,15,61,9,9,14,13,29,16,16,0,106
34,34,182,29,89,28,5,165,39,43,21,27,27,33,51,0,325
7,3,11,13,18,3,0,12,5,5,1,6,8,3,4,2,33
10,13,44,17,36,6,2,53,8,3,4,6,34,18,17,0,91
24,21,69,8,43,8,0,81,14,22,17,8,15,20,23,9,126
9,55,61,21,49,15,0,59,5,16,40,17,21,15,18,0,137
20,15,52,10,38,3,0,101,2,4,14,22,18,20,15,8,136
26,29,98,23,70,18,18,249,14,16,17,19,28,20,29,0,388
30,18,30,14,41,7,0,48,3,10,7,11,32,11,21,9,84
27,42,67,13,45,15,0,80,17,24,34,15,20,13,17,5,144
17,47,42,12,42,6,6,31,9,7,30,14,17,13,14,0,99
64,46,78,35,69,22,13,106,13,22,33,50,55,33,28,0,199
1,3,14,5,14,1,0,21,3,4,0,2,3,5,7,1,34
20,34,35,23,50,12,0,51,20,29,19,10,14,16,9,4,104
17,32,80,24,52,9,0,70,4,4,2,4,115,7,19,14,115
3,4,16,2,13,2,0,18,7,4,9,4,1,5,4,1,23
62,46,304,82,171,31,48,689,22,49,31,49,75,82,84,0,1041
54,58,164,28,89,23,7,142,17,23,37,19,70,49,44,0,306
13,26,48,11,48,10,0,72,6,7,19,10,36,21,24,1,104
10,7,23,14,36,8,5,26,5,5,7,6,16,14,12,0,64
10,15,77,19,77,10,2,117,13,22,8,9,8,23,33,0,211
26,31,107,33,47,11,3,91,17,15,15,32,15,33,49,0,173
32,49,194,42,121,29,0,257,17,22,25,41,59,55,49,6,450
18,40,113,38,76,42,0,140,20,25,22,29,12,27,33,4,295
9,5,32,8,9,3,0,20,2,3,4,5,5,5,4,7,51
11,16,18,12,41,12,0,45,6,9,10,12,19,5,16,7,71
13,5,13,12,17,4,2,40,3,7,4,11,11,5,8,0,57
7,15,30,21,25,7,0,50,8,8,10,3,9,6,14,2,95
9,40,33,20,27,7,0,26,4,9,41,9,26,10,12,2,49
52,43,177,31,130,24,24,228,7,26,34,23,50,43,32,0,494
21,24,139,22,81,12,2,101,13,16,7,17,39,51,43,0,216
5,10,31,8,12,4,0,24,1,5,2,4,11,10,4,13,44
35,56,107,22,89,23,0,127,37,18,37,31,14,37,38,3,244
31,28,202,43,73,15,16,235,5,15,13,15,62,42,27,0,464
12,7,46,13,57,12,0,116,7,18,6,7,7,5,19,7,187
10,20,45,14,52,13,3,74,12,8,15,15,10,13,9,0,149
24,104,141,36,98,13,7,149,7,30,57,45,61,42,27,0,303
5,3,22,4,21,4,0,20,6,5,9,4,4,6,8,2,35
2,12,29,7,22,4,0,17,3,8,12,4,7,6,15,3,35
10,14,39,20,37,12,6,59,11,10,4,12,26,18,20,0,96
6,2,42,9,17,5,0,57,16,0,4,5,2,12,12,6,81
28,35,92,39,113,19,28,129,87,32,10,39,17,31,33,0,234
38,65,223,42,126,24,0,250,1,22,25,35,165,44,32,14,430
56,68,175,75,161,47,0,595,31,74,53,56,25,54,89,25,770
34,47,292,41,191,34,0,354,21,51,51,75,36,94,87,31,547
40,25,96,31,93,14,9,123,11,39,16,24,20,30,50,0,241
46,55,189,55,180,32,0,385,27,60,55,41,35,82,63,8,571
79,81,258,88,236,51,0,277,39,111,80,64,47,79,92,4,554
87,67,344,78,195,42,0,657,44,60,32,60,54,84,105,16,1015
67,46,172,66,188,25,5,215,29,86,47,53,20,50,74,0,425
71,70,234,70,238,43,0,284,40,82,63,53,47,68,76,22,559
56,56,248,68,157,44,0,280,39,47,41,47,48,70,97,15,505
37,55,201,64,175,19,0,337,28,59,43,47,40,48,84,9,530
3,6,26,10,13,1,3,18,4,0,2,4,10,13,8,0,39
42,21,130,53,104,21,3,199,26,30,13,32,36,45,40,0,351
12,15,44,8,34,6,1,69,6,6,14,14,11,10,21,0,107
43,22,162,46,89,20,11,209,63,22,7,30,19,65,52,0,344
11,13,33,12,40,4,0,41,5,13,11,12,8,20,9,1,75
93,67,227,97,234,36,0,367,36,86,46,86,67,111,69,11,609
92,82,221,73,216,53,0,381,43,108,50,76,69,87,62,34,589
67,39,118,61,146,36,3,407,25,66,34,65,36,50,57,0,544
87,91,208,65,225,39,0,368,37,120,87,69,61,112,71,55,471
53,47,171,55,167,22,13,220,21,69,20,56,41,61,34,0,446
18,11,36,14,30,5,1,132,9,17,4,19,20,15,18,0,145
58,48,192,42,163,26,3,241,11,36,34,43,62,56,44,0,487
