A53,A7,A659,A720,A1114,A768,A1,A47,A997,A998,A999,B1458,B166,B1,B1114,B720,B53,B7,B768,B997,B998,B999
21,10,19,16,4,27,18,0,15,1,276,14,26,16,5,43,34,28,26,4,0,211
19,8,16,20,16,26,18,1,18,14,287,22,23,22,18,32,39,19,35,8,0,225
29,18,19,36,21,33,30,10,18,0,530,33,39,22,24,63,44,30,67,15,12,395
61,15,21,43,48,112,58,19,60,28,1190,26,58,148,36,113,61,23,156,31,0,1003
57,14,20,63,50,109,44,28,44,5,1005,28,49,153,25,78,69,16,122,84,0,815
49,16,22,33,68,112,33,30,48,0,959,22,60,104,67,45,49,30,123,39,10,821
6,1,4,3,2,14,18,0,11,0,114,6,13,30,0,4,3,3,17,1,0,96
1,1,18,3,3,8,19,3,3,0,182,6,19,22,5,15,5,3,7,10,1,148
44,13,29,18,30,63,50,8,27,8,768,30,138,69,29,64,48,22,85,23,0,550
32,10,12,26,33,62,22,24,21,0,653,16,32,64,20,49,24,24,66,30,8,562
31,10,24,32,31,72,28,24,21,21,773,15,69,106,24,47,45,39,81,30,0,611
26,7,33,33,40,17,51,17,32,0,728,12,61,98,31,59,44,34,33,18,11,583
53,10,36,26,24,65,26,25,34,0,504,21,65,74,36,42,65,34,53,20,11,382
12,5,14,9,16,50,15,23,14,5,468,6,34,43,7,14,31,19,41,21,0,415
32,13,16,14,31,45,26,20,17,0,541,6,27,71,14,29,45,25,57,21,12,448
26,5,26,21,39,49,30,6,30,0,664,12,52,61,29,37,32,51,50,19,0,553
31,11,24,16,19,64,17,23,24,0,611,9,28,65,16,32,43,44,60,19,21,503
37,9,28,48,53,39,37,20,34,0,662,18,62,78,25,51,38,45,50,24,12,564
40,12,19,23,17,34,34,10,29,0,732,11,45,75,23,33,41,31,34,21,12,624
24,10,17,26,27,47,18,15,19,4,696,12,48,68,16,40,30,47,58,13,0,571
37,11,17,28,42,55,45,21,29,15,654,8,53,76,30,42,59,40,76,20,0,550
46,8,27,20,28,25,37,9,23,2,393,11,46,78,24,31,45,26,38,10,0,309
32,11,17,26,17,29,20,7,17,0,600,13,44,46,24,34,24,35,35,19,6,496
47,6,13,19,38,51,21,13,29,0,642,10,38,81,23,52,42,24,38,27,20,524
57,8,31,22,31,52,42,15,17,0,523,20,44,93,18,46,59,27,62,25,3,401
21,3,11,6,15,30,5,7,13,0,300,6,21,33,15,17,19,10,22,7,5,256
15,3,11,17,22,15,15,8,19,0,207,4,29,25,19,17,16,8,21,4,3,186
16,17,9,20,32,41,28,18,14,2,1597,9,19,69,28,30,34,30,43,23,0,1509
32,21,23,16,42,45,18,14,30,0,609,8,50,61,22,33,45,23,58,14,27,509
48,16,29,26,27,69,16,19,21,5,609,26,43,64,13,56,40,38,72,20,0,513
29,7,21,22,38,64,23,18,24,0,553,6,40,70,26,32,27,24,60,13,19,482
26,15,18,32,38,71,28,18,34,8,542,13,60,61,15,33,33,40,76,23,0,476
35,15,14,26,54,64,26,34,18,9,542,8,36,89,32,34,29,42,83,27,0,457
36,17,22,24,39,47,17,19,25,0,688,6,64,59,34,38,51,35,48,20,16,563
10,13,13,28,20,43,19,16,32,10,585,13,25,43,18,43,23,9,54,31,0,530
43,9,30,29,24,59,19,12,31,5,581,12,32,67,28,45,133,7,52,12,0,454
46,11,21,32,40,62,108,18,25,0,1156,13,63,197,37,71,42,21,100,25,23,927
2,1,7,4,5,9,12,4,9,1,114,0,5,15,7,8,2,3,16,3,0,109
1,0,0,1,6,5,2,0,1,7,38,0,2,2,3,3,1,2,13,2,0,33
4,11,2,9,5,12,4,1,8,7,111,1,7,13,2,12,9,12,20,4,0,94
10,0,0,4,4,8,3,1,3,0,35,1,2,5,5,6,6,2,1,2,1,37
28,4,13,34,24,40,44,8,22,0,991,10,58,125,29,48,29,14,48,11,21,815
20,9,13,13,36,30,48,15,17,0,704,26,35,93,19,39,21,20,41,18,0,593
24,17,17,21,14,44,38,15,26,10,802,10,21,106,19,49,24,34,52,24,0,689
66,37,36,56,60,126,52,29,78,0,1511,44,51,169,49,91,45,102,126,40,27,1307
22,8,16,23,24,25,130,12,21,0,828,17,43,176,17,49,22,21,40,25,10,689
55,13,14,45,43,78,58,16,46,35,1399,30,63,92,41,85,75,61,90,27,0,1238
23,13,21,15,11,52,84,3,24,8,734,5,72,156,9,24,23,11,56,16,0,616
22,11,28,20,28,59,59,21,24,0,685,19,52,122,22,45,20,27,52,22,11,565
21,4,19,19,15,37,54,5,24,0,719,18,40,118,25,31,17,13,22,6,23,604
22,6,12,34,29,33,24,8,24,0,706,22,37,96,14,33,21,19,28,12,2,614
52,18,39,35,44,100,99,28,42,0,1193,39,71,232,30,71,44,9,137,37,9,971
10,8,3,24,9,31,30,10,22,10,468,7,16,55,12,32,16,17,52,19,0,399
77,23,44,57,59,80,32,28,62,11,1193,24,65,138,58,93,94,56,105,32,0,1001
33,11,13,26,13,53,20,14,28,4,460,9,20,54,11,41,31,22,77,23,0,387
19,9,16,13,31,38,15,10,23,0,904,6,33,105,18,33,14,27,65,13,38,726
18,10,16,20,29,43,43,21,30,0,789,15,20,110,22,39,19,17,74,22,25,656
18,9,13,36,30,31,46,7,7,11,626,18,65,95,20,46,17,14,42,11,0,506
7,2,5,0,3,11,3,1,9,0,41,0,9,19,1,3,5,0,19,1,1,24
2,0,0,3,4,12,2,2,8,4,84,1,5,11,4,13,0,2,17,4,0,64
4,0,1,5,2,7,8,0,2,2,98,1,5,25,0,7,2,3,9,2,0,75
3,1,1,7,5,14,22,5,9,2,143,5,8,36,1,5,4,1,17,6,0,129
16,11,26,18,21,62,68,13,25,0,702,8,29,112,11,36,18,18,81,19,16,614
12,2,16,15,27,41,96,9,9,0,394,3,16,146,16,15,11,4,36,12,2,360
9,3,7,5,3,23,21,5,8,8,274,12,22,41,5,15,6,5,30,6,0,224
12,4,10,20,24,38,45,17,18,10,325,3,15,89,11,34,10,6,40,17,0,298
13,0,7,18,13,31,80,2,12,1,506,6,39,101,7,33,5,7,36,8,0,441
15,2,15,12,16,13,13,8,10,0,458,4,26,46,7,17,12,4,29,12,13,392
1,0,2,10,1,8,1,4,2,0,79,0,3,12,0,6,0,4,9,1,3,70
3,0,2,16,2,11,2,0,8,0,69,0,4,10,4,7,7,1,8,4,5,63
0,3,5,11,1,9,6,5,6,0,94,2,12,14,3,10,1,4,16,6,5,67
11,3,0,14,4,19,8,4,5,0,120,4,7,14,2,14,9,7,19,4,2,106
4,4,2,7,8,18,8,7,6,3,147,4,10,27,7,11,5,2,25,3,0,120
10,5,2,17,10,25,7,6,11,0,226,3,3,24,6,20,17,5,31,5,3,202
16,5,12,17,14,35,47,9,23,2,387,8,23,82,10,28,15,8,41,11,0,341
20,4,11,35,3,37,171,13,19,13,1147,8,51,311,16,62,28,15,48,14,0,920
45,5,18,42,45,56,12,16,47,0,929,31,77,75,56,61,58,27,54,15,3,758
1,1,0,4,3,8,0,4,1,0,59,0,4,7,3,3,0,2,9,3,1,49
17,2,17,15,21,26,18,5,25,7,405,7,25,56,13,25,16,6,29,9,0,372
6,0,6,7,11,11,46,8,15,0,398,9,35,71,9,13,11,2,18,10,1,329
11,6,1,10,3,17,12,8,13,0,181,3,11,34,2,7,17,5,22,7,1,153
31,4,22,9,17,20,6,6,28,7,452,10,31,54,14,31,42,9,28,14,0,369
28,9,3,5,11,18,30,3,16,0,525,2,28,63,9,15,27,15,18,5,12,454
19,5,10,9,12,18,27,3,21,0,427,4,12,71,8,21,29,12,5,3,7,379
20,17,6,25,23,38,48,8,20,2,757,8,32,127,15,42,23,36,35,18,0,628
17,5,10,20,22,42,5,12,33,3,221,4,30,33,8,33,30,10,47,4,0,191
12,0,7,22,19,25,16,7,14,0,324,4,13,37,16,19,10,5,33,12,2,295
8,2,7,17,10,22,18,15,16,0,360,11,37,34,10,23,6,5,26,14,6,303
3,10,21,5,9,21,3,15,9,0,337,8,25,31,17,15,5,18,26,21,17,250
29,14,30,29,35,101,44,18,46,17,1078,24,39,124,41,76,46,25,154,25,0,887
25,4,12,15,17,28,15,5,24,0,377,5,20,49,8,28,35,23,30,6,8,310
60,15,26,42,38,71,34,17,47,0,1137,30,86,141,31,69,51,30,82,23,17,927
39,13,25,28,33,81,31,15,25,0,673,15,40,75,20,50,44,8,102,16,20,573
61,11,58,54,21,75,55,10,39,5,895,25,69,99,27,94,68,21,140,18,0,723
39,17,16,37,46,64,30,6,43,0,713,27,36,69,28,73,30,19,111,13,10,595
24,8,11,26,19,44,23,10,10,0,353,8,21,50,19,31,10,14,74,6,12,283
35,8,26,47,39,53,21,17,33,0,625,20,38,74,21,79,35,15,93,21,1,507
75,14,50,46,39,87,27,18,37,5,819,13,68,96,22,89,74,19,109,19,0,708
69,8,35,50,38,72,37,21,40,0,1209,20,45,94,26,67,63,8,132,16,39,1069
32,13,35,57,38,44,39,11,33,0,1041,22,50,77,33,109,48,20,101,16,3,864
30,9,16,41,49,64,27,22,37,0,735,14,27,79,28,56,30,15,100,20,15,646
29,18,18,35,30,58,32,21,22,0,750,16,25,56,26,69,33,29,88,16,16,639
66,5,22,36,26,64,29,7,10,7,575,17,36,79,21,56,62,3,91,12,0,470
14,3,6,11,8,19,35,1,14,1,213,9,11,51,8,25,11,5,30,6,0,169
35,8,45,49,22,57,49,7,30,0,557,21,63,106,18,79,46,14,102,8,6,396
42,11,16,24,13,58,16,8,35,5,497,16,42,59,19,49,42,11,64,11,0,412
22,8,12,28,18,36,27,5,33,2,560,10,22,76,12,50,42,10,33,14,0,482
18,2,10,8,5,14,3,6,7,8,179,7,20,23,1,11,11,3,13,10,0,161
15,5,9,10,14,23,29,2,12,0,364,2,11,63,6,19,9,12,23,3,8,327
33,14,24,28,16,23,24,8,25,9,483,14,51,68,8,35,19,24,63,15,0,390
7,1,5,8,10,6,47,0,5,3,331,9,16,55,9,21,2,3,16,4,0,288
52,12,27,58,39,72,103,11,40,7,878,16,41,236,24,65,45,19,96,10,0,747
14,4,4,8,15,18,69,6,15,0,368,3,22,112,10,22,9,3,37,3,7,293
27,13,26,37,29,41,85,6,21,14,881,15,127,172,30,69,29,13,67,15,0,643
31,6,21,23,14,31,26,12,20,0,527,14,29,45,13,46,22,8,76,12,13,433
4,4,3,3,1,20,32,3,5,5,122,1,12,41,2,10,6,5,22,7,0,96
16,8,8,18,14,40,11,8,23,6,268,9,17,34,11,20,17,12,58,12,0,230
8,6,9,7,10,44,5,17,26,3,339,14,1,31,9,15,18,7,59,14,0,306
13,0,10,13,7,17,18,6,9,10,188,3,8,57,13,16,13,1,21,2,0,157
45,5,38,35,16,81,51,11,28,2,862,15,52,128,18,58,52,17,131,21,0,682
31,2,12,43,10,48,37,1,31,0,561,16,25,97,15,55,27,6,75,16,5,439
17,11,16,16,30,51,18,14,12,0,423,9,22,34,12,11,29,21,80,20,4,366
43,2,36,31,19,36,30,19,16,0,528,18,43,64,18,52,51,8,57,26,10,413
25,9,9,27,30,47,6,15,13,0,1186,7,9,26,28,54,24,9,52,16,12,1130
32,11,20,42,26,71,42,18,28,0,456,12,22,75,29,36,32,13,86,16,4,421
36,12,9,37,30,44,17,10,37,0,705,11,27,47,29,64,36,18,70,21,0,614
23,22,10,42,31,81,46,22,37,0,803,20,21,89,32,59,32,27,132,26,3,676
39,25,36,44,35,60,46,17,30,0,740,19,42,99,18,63,50,14,94,26,9,638
30,9,13,21,18,48,32,14,26,0,456,9,17,60,13,34,31,17,63,15,1,407
17,8,20,13,16,55,18,11,23,2,389,13,31,47,11,27,24,13,67,12,0,327
39,13,13,23,18,29,29,19,22,0,357,9,22,66,14,44,29,17,55,14,6,286
71,15,36,62,21,82,52,7,34,2,506,18,44,119,20,69,93,14,97,11,0,403
11,4,5,17,10,22,10,3,7,10,310,6,6,28,8,19,13,4,34,8,0,283
20,4,8,7,14,48,16,9,10,0,315,6,15,27,17,24,17,4,51,13,9,268
5,8,10,22,16,43,19,15,25,0,523,14,8,32,12,25,18,11,59,18,7,482
12,14,7,18,21,49,20,9,15,0,390,13,10,41,17,17,14,6,61,12,13,351
22,7,15,32,22,41,30,10,17,10,439,16,21,52,12,40,32,12,69,12,0,379
14,1,13,29,19,46,21,15,18,0,428,6,20,42,15,34,14,6,65,19,20,363
21,9,20,23,22,65,17,14,20,0,504,13,30,44,10,41,23,9,93,19,15,418
40,7,15,27,20,43,35,8,22,0,498,20,37,50,21,28,44,4,67,16,17,411
10,5,3,6,7,9,24,2,5,0,171,7,23,21,7,8,7,3,11,4,1,150
0,0,2,5,3,14,12,1,2,0,47,3,1,21,3,4,2,0,10,0,4,38
30,3,9,16,10,24,11,7,13,0,212,22,10,45,3,13,27,3,13,5,8,186
48,8,20,26,29,66,63,14,27,0,630,14,46,149,17,34,44,19,46,19,32,511
30,5,27,41,19,53,70,16,34,0,792,8,47,166,10,38,20,17,52,28,31,670
45,21,23,36,27,53,75,17,33,14,1068,58,48,105,24,89,52,17,119,24,0,876
58,3,30,38,18,46,32,10,29,0,598,24,50,105,19,64,55,4,63,14,0,464
5,6,10,13,4,25,47,5,16,0,286,3,11,98,7,22,14,5,28,5,7,217
45,9,15,41,20,34,48,10,40,0,600,11,28,117,28,49,40,11,57,10,18,493
47,2,38,41,24,50,61,8,32,0,843,18,49,128,42,69,59,10,85,11,2,673
14,4,5,19,10,27,36,3,12,0,371,7,24,89,7,29,13,4,22,15,12,279
24,11,8,19,6,31,30,5,17,3,492,4,23,59,12,32,30,6,77,12,0,391
25,15,16,35,37,50,49,12,24,8,784,13,27,94,27,71,36,18,110,13,0,646
47,19,17,35,37,57,35,17,26,0,883,22,25,94,25,60,40,15,109,10,9,764
19,12,14,19,26,55,20,20,23,0,642,11,31,65,21,50,21,11,82,13,3,542
11,19,12,15,12,45,14,20,22,0,595,6,16,65,15,22,10,13,84,21,16,497
49,12,28,43,21,69,79,8,39,0,672,80,69,108,14,68,43,28,80,19,3,508
8,1,3,8,12,12,11,3,9,1,204,7,9,20,13,20,7,4,17,13,0,162
5,1,5,13,11,22,14,8,15,0,230,7,15,25,10,10,9,14,33,5,8,188
32,6,31,49,16,48,34,20,21,0,478,14,48,82,7,65,37,29,46,18,1,388
10,6,8,27,20,32,109,3,14,0,393,10,41,102,10,31,4,5,38,10,1,370
7,4,2,7,7,16,5,1,5,1,170,5,8,7,2,6,16,9,13,2,0,157
65,7,18,25,13,39,23,6,16,0,477,35,44,29,18,55,81,19,43,9,0,356
37,11,35,41,23,63,53,13,32,17,737,23,72,107,24,78,37,30,69,26,0,596
5,2,1,5,3,10,7,1,8,4,114,3,7,15,1,4,8,7,20,1,0,94
27,13,17,33,27,50,28,11,28,0,541,25,56,46,32,50,28,25,88,22,6,397
11,2,5,13,7,9,27,3,5,0,97,12,13,19,7,6,8,2,6,5,10,91
19,8,31,17,17,51,35,17,21,0,596,24,43,48,15,44,30,16,83,26,4,479
22,13,25,25,16,34,30,10,15,0,587,24,43,50,13,38,26,21,55,11,3,493
21,16,14,35,18,51,37,17,40,0,716,23,32,62,18,48,45,17,91,26,26,577
43,13,19,24,35,58,39,16,21,0,533,22,44,55,32,51,49,14,95,18,15,406
36,18,19,39,19,47,50,13,15,0,816,28,57,62,13,46,52,22,64,16,4,708
18,9,20,31,30,45,38,16,19,0,603,18,68,65,21,49,41,16,48,18,15,470
50,8,58,51,31,70,124,15,50,0,1029,50,168,182,20,75,89,20,73,21,8,780
30,15,37,44,16,67,45,12,23,0,750,42,119,76,24,40,37,18,83,16,2,582
54,17,22,38,31,61,76,16,37,0,720,36,120,134,28,52,36,23,74,25,27,517
39,11,21,37,36,73,62,17,30,0,670,20,123,83,23,40,24,35,87,23,18,520
5,4,10,5,7,14,36,4,8,0,273,5,6,63,8,16,4,4,16,5,13,226
4,3,7,7,15,16,8,2,6,6,155,2,8,18,17,8,6,3,25,12,0,130
10,8,11,22,22,27,10,9,29,4,475,15,35,39,27,41,31,19,40,11,0,369
13,7,11,9,12,11,11,5,7,1,191,5,10,29,9,19,16,12,16,8,0,154
0,1,1,0,0,8,2,1,2,0,39,0,1,2,0,3,0,1,6,4,2,35
15,5,11,15,8,20,21,2,13,4,333,9,24,28,9,9,10,21,27,5,0,305
7,5,5,4,2,19,13,12,9,3,236,15,14,17,2,8,20,17,29,6,0,187
18,4,13,19,25,28,8,9,17,10,223,13,22,27,22,23,26,15,35,11,0,180
7,1,8,17,7,20,9,0,11,0,262,16,14,10,14,27,13,24,28,4,2,190
3,16,7,4,11,15,5,14,7,16,184,3,12,15,10,17,4,25,32,12,0,152
4,5,1,3,11,17,15,4,5,4,138,1,0,24,7,8,4,9,25,1,0,128
33,7,6,19,26,35,16,15,25,10,419,19,41,65,17,31,33,15,41,10,0,339
31,16,12,20,16,25,11,2,19,0,367,7,36,46,15,33,32,19,38,17,8,268
19,8,10,19,16,52,81,2,23,15,458,16,44,133,10,41,29,22,41,4,0,363
76,10,41,38,40,73,48,11,35,0,602,56,71,88,18,76,84,34,87,18,5,437
77,9,44,61,52,92,43,12,49,8,811,46,94,105,32,107,94,46,111,25,0,598
45,7,29,29,30,99,24,17,39,0,623,36,67,49,23,82,60,39,119,12,1,454
67,8,39,40,28,67,22,18,45,0,730,53,93,65,29,93,96,44,91,20,1,479
19,2,9,17,5,29,8,2,19,0,204,7,19,33,7,22,22,3,22,5,3,171
61,17,51,51,33,73,40,11,34,1,558,31,82,90,22,85,87,48,83,18,0,384
27,5,15,22,29,43,25,17,28,0,421,29,40,39,32,61,30,38,59,16,0,288
35,5,28,22,19,41,33,6,22,0,379,21,38,46,15,39,34,26,43,11,49,268
33,5,31,41,30,47,11,18,37,0,621,39,62,35,24,68,53,27,58,21,18,469
36,11,28,48,30,76,22,8,31,5,705,42,77,51,18,87,46,45,115,18,0,501
20,8,21,42,38,62,16,9,27,0,716,26,56,30,26,65,41,24,74,18,1,598
29,11,18,20,39,40,32,12,24,7,362,36,25,44,14,47,41,39,66,12,0,270
25,17,9,26,34,58,12,17,20,0,466,29,41,37,26,58,17,38,75,13,7,343
20,16,11,20,29,53,8,14,19,0,455,32,40,27,22,32,18,31,69,13,20,341
29,9,19,28,33,65,13,14,26,0,456,19,48,37,32,46,33,17,73,10,25,352
36,12,25,31,24,41,21,11,15,0,594,52,50,39,22,65,61,57,90,13,11,350
36,4,20,29,34,99,26,12,32,0,544,56,46,37,27,63,57,54,114,18,12,352
30,13,29,60,18,36,21,8,21,5,467,43,53,59,20,68,50,32,59,15,0,309
4,1,5,3,5,13,3,1,6,0,123,5,9,13,8,9,6,1,9,3,6,95
40,1,35,18,22,73,19,6,29,18,503,32,79,72,12,60,59,20,62,10,0,358
19,12,16,45,37,93,25,25,26,0,615,25,43,80,18,54,31,47,90,25,24,476
74,20,54,76,50,73,36,16,47,49,788,56,103,117,52,97,75,30,97,24,0,632
74,10,43,43,44,80,32,12,49,7,596,28,88,123,23,68,93,44,65,14,0,444
39,10,21,27,35,78,15,7,27,0,558,30,65,49,25,61,44,16,72,13,9,433
18,2,19,42,17,44,35,14,15,4,324,17,53,56,15,57,29,11,41,14,0,241
14,14,7,13,23,63,10,20,39,0,389,14,39,30,8,52,18,27,80,14,12,298
51,5,23,41,29,82,25,10,29,0,498,29,51,44,15,66,50,25,90,15,16,392
25,10,25,28,29,58,16,15,34,0,470,30,49,21,20,44,43,39,97,16,9,342
28,7,23,38,42,101,15,20,29,0,619,30,40,36,22,72,49,39,98,25,0,511
39,8,23,28,23,67,34,12,30,2,477,27,69,50,20,49,49,34,80,17,0,348
22,6,29,45,43,75,25,15,45,12,536,44,52,30,26,67,36,49,127,20,0,402
13,9,24,22,19,56,13,14,28,0,459,24,42,14,14,51,31,42,75,12,15,337
39,23,25,38,26,79,12,12,36,19,482,25,60,25,18,56,46,55,102,14,0,390
39,15,31,49,29,45,32,3,33,0,586,53,51,44,32,80,72,58,77,11,3,381
23,5,12,31,16,53,15,13,26,0,385,18,33,32,9,33,27,30,63,25,26,283
66,16,50,68,24,75,67,6,50,51,886,53,164,101,33,126,108,45,98,11,0,620
19,5,24,24,12,49,32,8,18,2,456,28,49,47,11,75,43,25,48,5,0,318
75,8,68,54,59,99,54,11,51,30,771,83,118,105,35,72,104,63,127,13,0,560
20,9,13,26,26,45,28,9,23,17,308,21,30,29,26,43,39,30,49,15,0,242
12,3,5,13,10,20,2,5,11,3,169,11,12,5,5,20,11,19,34,9,0,127
23,5,12,38,14,30,43,11,9,0,333,28,33,62,7,52,20,26,38,19,4,229
18,9,20,26,38,83,49,7,21,0,520,41,41,69,21,68,22,34,85,20,1,389
29,11,24,41,18,55,25,10,38,0,513,20,58,37,21,85,45,33,77,7,24,357
26,7,34,42,22,58,15,18,22,0,450,25,52,20,25,50,48,32,79,14,21,328
40,7,32,37,23,84,18,9,29,10,513,22,69,32,12,61,59,35,99,17,0,396
20,9,16,32,16,59,14,17,23,0,523,24,39,24,11,50,30,19,79,18,7,428
72,12,57,71,44,81,37,18,41,0,3181,38,89,67,33,89,87,29,77,27,166,2912
15,6,18,22,22,82,16,6,26,1,472,14,40,50,19,47,40,26,83,12,0,355
48,10,29,38,19,57,17,9,42,15,588,40,69,67,9,63,71,41,70,5,0,437
33,4,30,19,24,45,31,8,24,15,505,25,72,61,15,63,58,38,62,8,0,336
42,8,25,55,46,42,20,5,37,5,696,38,88,41,38,91,73,45,67,19,0,481
45,5,31,54,42,41,16,7,34,0,694,40,86,42,32,86,61,53,46,11,25,487
24,14,31,50,21,46,21,8,22,0,766,30,78,35,17,81,45,37,75,12,11,582
19,8,19,24,20,47,21,11,12,11,526,47,64,35,18,50,39,38,74,14,0,339
22,13,15,31,30,68,14,12,40,5,846,30,50,37,44,52,38,33,78,17,0,717
25,6,14,13,27,31,8,4,21,0,289,23,26,23,23,31,31,17,52,4,1,207
43,7,31,47,29,54,17,6,31,10,451,31,54,46,27,65,64,34,79,16,0,310
48,7,32,43,35,62,34,10,35,18,708,44,91,65,28,77,51,44,81,16,0,535
20,11,30,43,38,63,25,19,26,0,686,33,61,51,26,63,31,43,96,14,15,528
17,4,11,9,20,47,7,10,17,0,503,29,24,19,22,44,21,23,70,10,8,375
17,6,14,16,21,56,7,13,18,0,597,32,23,39,20,51,25,38,74,17,16,430
26,11,19,44,48,65,29,16,12,5,550,34,52,65,31,54,34,31,85,14,0,425
24,19,31,30,28,79,21,21,27,0,520,17,58,35,21,52,34,38,103,29,16,397
67,9,38,49,34,80,24,19,42,0,604,50,88,52,32,85,102,45,107,20,2,383
20,8,21,48,26,68,33,13,38,2,629,34,59,41,25,87,40,34,98,19,0,469
40,10,24,48,22,76,24,8,31,5,485,35,64,52,20,59,60,31,92,15,0,345
31,6,19,24,29,77,22,24,26,1,643,41,63,48,13,29,41,43,102,19,0,503
32,10,27,17,27,80,27,14,24,0,616,44,42,74,24,43,40,49,76,22,14,446
8,7,12,11,28,46,22,14,31,10,474,14,18,31,24,30,18,30,65,17,0,416
55,7,33,28,37,82,22,22,28,0,507,34,59,59,37,60,41,38,81,14,2,396
17,12,25,30,33,72,20,17,36,0,425,28,48,39,23,41,33,26,76,15,4,354
32,9,19,24,45,60,21,10,23,7,543,17,41,39,37,62,35,36,83,20,0,423
19,3,9,11,16,74,13,12,21,0,285,19,33,17,19,32,21,18,94,10,9,191
34,6,27,30,25,57,22,12,17,0,359,35,59,40,16,49,37,27,75,14,15,222
7,4,8,14,10,44,20,10,20,0,434,14,17,62,10,34,14,10,58,21,4,327
13,1,18,11,26,36,24,11,28,0,460,17,31,64,22,27,17,31,53,17,6,343
15,10,11,22,14,30,48,21,23,5,435,29,35,60,17,36,15,23,44,27,0,348
0,0,2,2,4,16,9,0,1,0,175,1,10,16,3,4,2,10,20,6,1,136
3,4,5,3,3,6,10,0,7,0,207,1,22,22,7,6,2,7,12,3,1,165
20,14,22,24,26,43,119,10,21,0,955,14,62,127,28,48,28,87,57,12,8,783
25,18,16,31,26,65,136,24,31,11,1261,24,75,148,23,38,32,75,116,29,0,1084
21,8,9,14,21,65,61,16,17,0,933,26,54,88,10,29,23,47,70,15,1,802
5,2,6,18,4,30,31,9,15,8,265,27,23,41,8,32,9,16,47,11,0,179
5,5,13,23,25,30,14,4,10,0,450,17,25,29,30,38,12,20,42,11,15,340
2,2,12,7,6,12,7,5,5,2,105,6,16,13,3,11,2,2,16,1,0,95
4,3,1,7,6,9,14,0,5,0,170,5,14,26,3,5,9,8,20,1,4,124
5,5,12,14,10,26,78,4,7,2,353,22,11,81,8,29,18,15,41,8,0,283
24,2,11,25,10,34,9,1,11,9,312,16,34,25,13,37,29,10,47,6,0,231
6,4,46,14,6,12,29,2,3,8,206,9,21,38,6,16,4,23,20,3,0,196
13,7,3,8,5,31,8,5,7,0,207,16,7,19,4,22,8,14,23,4,0,177
18,9,6,21,9,20,3,1,19,0,224,12,10,13,7,41,26,16,22,6,3,174
34,27,20,29,43,90,69,13,40,0,824,32,61,81,45,59,72,67,110,15,3,644
2,2,0,3,2,8,7,0,6,0,104,12,2,9,1,5,6,7,6,1,5,80
9,8,5,9,14,8,3,4,9,3,201,5,22,11,9,16,12,22,15,2,0,159
47,13,24,27,37,58,64,11,40,10,774,56,73,76,24,69,70,54,73,19,0,591
27,13,15,43,53,103,23,33,42,17,1166,22,75,111,55,78,27,23,114,32,0,998
0,3,3,2,9,10,3,1,1,10,27,3,3,2,4,1,0,5,8,3,0,40
20,3,11,38,10,33,46,8,10,1,282,16,44,48,6,60,27,14,53,7,0,187
6,2,9,6,19,17,19,4,11,4,310,9,21,42,18,14,7,10,22,6,0,258
8,8,9,6,16,26,23,4,8,3,276,20,19,24,11,29,15,20,25,12,0,212
10,0,11,10,10,33,17,15,8,0,333,11,25,53,10,14,4,10,45,15,3,257
42,14,32,47,25,44,62,17,20,11,706,40,48,72,19,85,70,134,78,8,0,466
36,12,28,33,18,55,14,9,30,10,535,38,49,38,21,39,48,62,63,15,0,407
2,5,6,4,4,13,18,4,2,0,171,0,11,27,4,11,7,10,15,5,2,137
2,1,2,2,9,12,11,5,4,0,189,6,4,23,19,10,4,3,20,6,10,132
12,10,14,16,11,47,64,7,31,22,509,13,60,78,15,38,26,47,56,12,0,398
8,4,38,16,12,27,28,6,10,0,257,10,33,52,13,14,11,9,38,9,9,208
26,5,17,18,5,39,19,4,7,2,436,11,49,41,19,41,28,14,46,7,0,322
13,1,2,3,4,12,17,5,1,0,127,6,5,38,9,9,7,3,15,2,0,91
3,0,3,7,5,21,6,5,9,2,172,7,7,12,8,12,3,0,21,8,0,155
2,0,0,3,12,17,6,2,3,5,121,1,2,16,11,3,2,2,25,4,0,105
63,14,44,50,42,89,42,17,41,0,785,29,66,75,43,74,63,28,86,18,8,697
51,7,45,39,33,65,58,23,30,1,818,39,79,95,33,59,58,18,93,26,0,670
12,4,4,3,9,19,14,1,18,0,131,7,8,18,6,8,13,4,20,7,8,116
86,17,69,50,54,99,52,37,45,0,741,35,76,56,17,44,53,17,89,29,173,661
79,11,32,53,19,73,71,16,41,0,1040,59,83,105,40,84,105,42,120,30,21,746
6,8,3,8,5,25,4,8,6,9,260,1,24,8,10,22,9,27,31,12,0,198
4,8,14,7,28,32,23,9,13,8,370,10,20,49,21,14,8,13,34,11,0,336
24,4,9,19,23,24,56,10,18,6,309,15,39,102,12,22,21,10,18,12,0,251
12,7,9,18,24,58,16,11,13,0,561,15,11,50,30,24,21,10,63,19,5,481
23,12,18,21,27,76,18,15,20,0,852,19,37,67,22,40,26,20,78,26,16,731
34,9,11,40,43,66,36,13,46,0,756,14,44,106,25,64,31,18,86,21,18,627
42,9,18,37,47,66,21,7,25,15,722,15,51,61,25,88,48,25,73,22,0,601
32,6,18,58,61,96,29,28,32,0,756,16,63,111,43,73,43,15,118,32,4,598
45,9,20,36,34,82,28,26,26,0,685,13,65,86,29,74,37,24,72,34,9,548
4,7,10,14,4,32,56,7,18,6,408,3,25,84,4,17,5,26,48,9,0,345
7,10,8,13,9,29,88,3,14,4,895,7,32,107,8,33,5,27,42,5,0,814
9,1,5,4,8,32,70,2,14,1,413,2,18,84,8,16,9,14,40,2,0,366
5,0,17,8,5,22,17,3,9,0,287,15,30,17,6,18,8,9,31,4,2,233
34,9,27,30,42,72,20,5,35,0,612,14,75,79,31,54,46,39,66,11,3,468
15,12,13,22,22,78,15,14,15,0,706,14,57,41,23,46,17,24,95,21,28,546
19,22,16,42,38,74,18,22,34,11,651,14,38,40,41,64,33,64,99,26,0,528
34,19,34,57,26,64,33,7,29,0,774,30,58,57,28,109,44,56,84,16,14,581
20,13,16,35,39,72,19,18,31,0,945,16,42,48,55,67,37,46,69,28,20,780
19,21,16,31,57,94,34,27,29,0,748,21,55,83,45,58,29,60,109,15,9,592
38,17,31,43,53,81,43,16,32,0,750,28,82,92,33,72,27,52,118,16,4,580
25,20,21,28,71,74,34,20,27,20,1584,27,44,78,53,75,43,57,109,27,0,1411
16,10,17,43,54,82,33,15,24,0,1156,24,43,63,44,82,30,46,75,21,114,908
15,18,12,38,53,80,38,16,29,4,769,16,32,72,33,64,22,47,103,17,0,666
22,22,18,35,40,77,24,20,25,0,726,21,57,58,28,64,19,41,101,14,18,588
27,19,14,23,40,76,22,14,38,0,627,12,49,43,38,41,19,43,93,25,14,523
19,11,28,24,39,98,33,9,30,0,802,16,55,61,24,59,19,39,103,19,1,697
7,3,4,10,9,18,9,11,18,0,191,14,9,17,7,16,5,13,30,11,3,155
19,3,21,30,7,26,62,8,16,0,449,12,31,85,18,48,10,18,59,13,4,343
25,10,19,19,17,19,23,6,26,10,479,21,57,56,14,60,29,15,53,10,0,338
9,8,21,16,18,40,47,5,16,6,422,15,33,94,8,38,22,8,29,4,0,357
8,6,19,16,15,35,56,3,15,0,396,15,10,57,19,39,20,24,37,8,1,339
9,2,6,16,10,35,14,1,10,0,300,9,16,33,4,25,9,16,43,4,5,239
5,1,3,9,1,12,6,3,4,0,203,7,14,11,7,8,1,11,20,11,5,152
14,4,15,15,13,49,35,14,11,0,495,9,64,39,14,25,9,20,62,17,6,400
15,9,15,31,28,40,21,24,21,0,569,14,55,22,17,42,18,33,66,25,13,468
25,9,7,10,16,52,26,15,15,0,500,20,53,21,15,20,19,35,60,16,29,387
15,14,11,20,16,54,17,12,11,0,471,14,36,21,9,29,14,32,65,21,19,381
31,16,23,32,17,42,31,18,26,0,808,27,92,65,13,46,25,30,58,16,6,666
54,9,21,29,14,52,37,9,21,0,632,39,78,60,8,31,37,29,61,12,4,519
10,6,29,33,12,32,75,11,8,1,237,22,31,64,13,39,33,14,38,12,0,188
38,5,23,48,33,50,61,6,40,1,993,85,55,80,35,101,53,45,76,14,0,754
19,5,27,31,23,58,40,10,26,0,820,51,57,53,21,61,54,40,84,13,17,608
28,10,42,40,38,88,65,19,45,12,1006,26,95,152,34,60,26,19,113,28,0,840
7,4,3,8,6,8,12,6,7,0,337,8,20,22,6,17,8,6,33,18,4,256
10,0,7,18,11,14,5,5,10,0,142,6,13,15,5,14,7,5,24,6,6,121
11,8,8,11,4,13,43,5,12,5,255,6,21,48,2,11,8,22,18,8,0,231
30,14,21,30,23,88,105,14,20,9,1052,20,50,165,24,47,39,66,110,21,0,864
12,4,9,29,45,65,22,10,22,8,628,20,29,49,39,50,25,28,106,13,0,495
16,13,8,30,36,50,27,11,35,0,900,29,49,74,35,62,21,25,70,14,8,739
8,4,13,21,16,50,53,17,21,6,713,51,47,53,21,41,19,20,70,19,0,581
11,2,11,9,5,12,4,9,8,3,167,3,20,4,12,21,10,12,20,12,0,127
18,10,71,32,23,41,39,8,23,4,712,18,79,60,17,61,18,18,68,20,0,622
5,5,12,7,4,9,23,1,5,2,154,7,22,25,6,7,3,12,19,5,0,121
0,0,7,2,0,2,16,2,2,4,38,0,15,18,0,8,0,1,5,0,0,26
6,3,3,9,5,9,16,11,4,0,135,2,23,14,0,14,0,5,12,4,9,118
23,10,26,20,24,73,71,17,20,0,543,10,83,57,17,36,19,20,62,21,4,498
36,4,29,30,29,46,63,5,25,5,548,15,135,59,15,41,24,18,40,15,0,458
28,10,23,25,23,58,57,6,23,0,833,16,94,55,12,41,20,20,54,6,14,754
19,4,15,29,24,40,39,5,21,0,604,16,92,46,14,34,24,18,34,11,6,505
23,4,11,12,21,29,41,9,17,0,440,18,41,77,11,37,19,12,49,16,3,324
21,3,22,23,25,57,16,2,16,2,472,30,41,26,14,45,28,35,54,13,0,373
75,20,66,50,17,48,60,10,30,27,1083,40,96,68,32,104,107,40,86,22,0,891
7,0,4,9,8,5,8,5,8,4,94,6,14,19,5,20,7,6,5,0,0,70
37,4,40,32,19,56,30,9,36,4,686,32,65,41,21,64,52,40,67,17,0,554
53,8,43,60,18,47,57,14,29,0,987,46,86,71,14,93,80,37,74,23,24,768
6,2,16,12,3,7,23,13,8,1,205,3,30,27,5,21,11,11,17,7,0,164
11,10,36,27,13,39,56,3,24,0,690,16,76,87,10,35,22,22,56,10,2,573
7,7,1,10,9,12,8,5,8,0,269,10,17,25,7,33,3,13,35,2,4,187
21,4,13,13,19,52,58,10,19,1,687,46,40,83,16,38,31,16,89,15,0,523
0,3,58,14,6,23,35,1,10,0,517,18,57,48,8,27,7,19,41,5,1,436
5,0,4,3,3,4,2,3,6,5,121,5,8,5,3,15,2,4,20,4,0,90
38,14,22,42,29,54,11,12,25,10,760,47,70,29,33,68,55,49,80,21,0,565
41,12,10,36,21,69,31,29,30,4,662,12,39,78,14,52,56,41,88,28,0,537
5,1,3,6,11,14,19,4,6,5,214,14,11,26,13,14,6,8,31,19,0,146
6,0,11,9,8,8,10,2,10,4,137,1,28,9,9,6,11,9,10,10,0,112
1,0,5,10,7,10,13,0,10,0,83,5,17,8,3,12,5,0,5,1,0,83
5,3,5,7,4,4,3,3,7,0,144,0,17,5,1,7,7,7,7,7,7,120
2,1,1,3,7,15,6,7,3,0,152,1,9,38,0,6,7,3,15,5,6,107
7,2,4,10,3,12,5,6,7,5,63,0,15,17,5,8,3,7,5,8,0,56
3,1,3,8,8,4,15,5,4,3,143,2,9,17,0,16,6,7,7,3,0,130
2,8,3,5,9,9,13,10,3,1,138,2,3,8,3,8,4,12,11,10,0,140
60,135,45,56,40,99,30,18,41,0,914,26,53,31,31,106,65,204,95,32,73,722
53,91,27,42,55,127,120,41,34,0,864,14,24,136,35,76,58,165,114,40,1,791
33,64,17,28,41,59,43,17,32,4,630,15,23,54,25,67,40,118,77,22,0,527
39,86,24,35,35,70,30,32,31,0,608,13,39,30,19,86,38,161,75,34,16,479
37,95,19,51,45,65,21,27,29,0,725,12,40,20,39,83,44,165,82,23,15,591
13,19,7,19,15,23,10,9,6,11,309,8,10,7,19,37,27,24,51,13,0,245
7,14,4,42,11,15,10,1,11,6,218,12,11,11,14,54,16,29,30,10,0,152
16,34,6,25,13,15,7,6,18,0,339,5,14,17,10,39,15,50,21,20,0,288
17,5,3,14,6,9,6,3,3,0,123,2,3,5,7,15,16,20,17,3,2,99
7,4,0,1,2,7,9,8,5,6,78,2,4,13,1,5,3,16,6,5,0,72
29,66,30,36,32,50,65,16,26,0,668,8,37,59,22,61,33,86,42,32,29,609
43,45,27,45,30,51,21,24,18,0,1413,22,32,33,28,81,58,64,72,28,1,1298
22,64,11,42,30,68,23,31,22,0,579,8,21,33,24,48,24,105,68,31,9,521
28,72,12,27,25,76,19,39,19,0,688,15,21,22,17,35,31,96,94,32,30,612
25,61,6,23,32,93,15,23,15,0,660,6,20,15,22,50,30,107,84,22,30,567
27,60,19,34,29,69,14,33,25,0,611,22,21,17,25,58,32,122,83,19,24,498
8,10,3,10,18,17,5,5,7,9,176,5,4,10,15,33,12,16,21,5,0,147
36,94,32,60,50,86,26,26,30,11,820,18,39,42,34,95,51,131,107,37,0,717
34,85,34,41,32,51,25,21,21,0,529,11,34,24,23,68,40,141,63,27,17,425
18,60,12,20,27,52,22,44,10,2,555,7,24,19,30,52,26,89,78,33,0,464
28,82,18,35,43,57,34,26,26,0,748,12,31,22,31,70,35,141,73,37,22,623
30,92,13,52,50,72,28,31,41,22,1065,15,46,29,41,79,62,140,103,29,0,952
15,72,21,50,36,43,27,33,34,0,818,17,41,24,36,66,26,132,82,35,32,658
42,69,20,67,49,84,14,30,36,6,944,24,41,44,29,101,62,123,110,48,0,779
34,86,22,59,44,70,22,36,25,0,851,28,40,41,47,96,47,142,103,40,20,645
1,4,3,6,6,8,1,7,4,0,86,4,3,5,7,7,0,8,10,12,7,63
15,9,7,11,12,17,12,7,6,3,68,3,17,9,4,14,10,16,15,7,0,72
1,5,7,5,10,21,10,8,9,0,137,3,17,13,9,19,1,11,19,10,15,96
7,6,6,11,17,21,4,5,7,4,176,5,17,22,5,20,11,22,21,6,0,135
11,27,2,14,15,23,14,5,9,0,302,8,9,16,17,28,12,35,39,12,5,241
5,8,3,13,21,10,10,23,9,0,203,2,10,19,19,6,11,12,19,23,8,176
31,30,14,12,10,47,70,11,19,0,533,14,31,72,18,25,45,45,66,15,3,443
31,12,16,33,35,40,33,17,23,0,539,4,29,48,24,46,59,22,52,20,17,458
19,5,9,18,17,34,14,22,12,0,407,9,15,33,24,26,34,12,34,25,0,345
0,1,0,2,2,6,3,4,2,2,83,1,1,9,2,1,5,2,9,4,0,71
0,2,4,4,9,9,4,2,3,0,184,1,3,9,5,13,12,4,17,2,1,154
7,2,0,7,7,5,9,5,11,0,207,1,4,14,9,12,9,7,17,10,4,173
23,12,11,21,23,45,16,18,15,0,491,12,22,30,25,34,37,25,51,17,3,419
19,12,7,18,36,73,18,19,16,0,607,10,16,40,22,32,42,19,77,16,11,540
32,10,12,17,28,56,24,19,16,6,754,12,17,38,26,21,46,21,41,12,0,740
16,10,8,13,34,52,17,23,19,0,522,4,13,49,28,25,26,19,61,15,5,469
24,10,8,17,22,32,15,17,22,5,460,4,17,35,26,21,34,21,53,10,0,411
28,10,16,14,28,47,20,15,18,19,337,0,32,47,31,23,47,10,42,15,0,305
29,15,15,19,25,46,36,15,11,0,347,12,23,51,19,16,44,25,43,9,19,297
2,4,4,3,3,5,8,5,7,8,106,1,13,11,3,5,1,8,9,2,0,102
1,10,5,3,1,18,11,19,7,5,272,3,11,15,7,12,6,18,38,31,0,211
6,7,4,8,11,25,8,13,5,0,221,8,28,11,4,9,4,19,48,12,11,154
9,5,3,15,13,30,12,14,9,8,312,8,15,14,16,30,16,23,40,15,0,253
8,8,7,14,8,26,4,9,8,0,267,5,18,18,11,15,9,13,49,11,2,208
11,2,8,9,5,20,22,5,7,6,257,5,25,31,6,14,7,9,24,2,0,229
22,22,15,18,33,51,37,20,9,7,603,18,49,54,23,33,30,29,55,27,0,519
24,27,18,28,28,53,23,36,20,0,607,13,77,33,24,36,20,38,72,36,23,492
17,30,12,14,49,63,26,32,24,0,662,22,55,37,36,43,12,45,75,36,19,549
38,27,16,43,41,49,36,36,34,17,725,37,83,47,37,53,37,59,85,36,0,588
11,23,16,22,11,33,14,29,14,0,434,10,30,23,21,32,17,31,47,30,6,360
18,23,18,22,27,25,20,6,19,0,488,13,45,36,17,28,29,30,33,12,0,423
37,32,26,33,47,64,44,34,19,13,736,31,61,47,27,49,50,52,104,26,0,638
20,28,12,16,18,27,20,26,26,39,910,27,50,26,28,48,18,23,57,24,0,841
27,16,13,29,32,55,26,28,18,0,750,13,58,33,8,37,31,30,76,28,11,669
3,3,0,3,10,13,15,8,7,0,148,5,6,28,15,11,3,8,14,6,0,114
1,3,2,3,14,15,0,15,4,0,71,3,4,4,15,7,0,5,8,14,6,62
20,23,15,16,24,64,34,27,21,0,797,15,11,48,26,36,60,36,84,25,11,689
9,3,6,4,19,13,30,14,8,8,235,7,5,37,12,21,15,5,29,7,0,211
30,22,6,19,32,73,21,21,34,0,787,10,15,24,33,44,69,33,119,24,19,655
11,15,12,28,22,51,13,20,12,3,546,4,18,16,23,33,63,33,68,30,0,445
32,18,9,23,29,49,25,8,20,5,598,9,17,30,26,32,70,34,68,17,0,513
12,19,5,16,29,60,17,23,7,0,546,12,13,8,25,27,50,25,66,21,19,468
29,25,9,28,24,59,28,30,17,0,657,16,27,31,31,43,80,36,88,17,11,526
4,8,4,5,13,16,18,3,15,0,216,4,15,32,12,15,3,9,32,7,7,166
4,17,1,4,4,15,2,3,3,0,130,5,5,6,7,11,4,30,16,4,0,95
20,33,8,23,26,68,11,23,18,2,691,16,18,9,33,44,38,85,104,35,0,541
10,24,9,12,27,56,5,25,12,7,607,9,17,3,26,29,13,67,86,25,0,519
25,25,10,16,28,59,11,28,14,0,775,22,12,6,21,32,25,67,77,37,7,685
28,29,8,20,22,72,23,22,24,3,860,15,16,14,22,37,46,78,73,31,0,779
0,6,0,2,5,7,8,0,4,0,34,2,2,8,0,1,0,2,9,1,5,36
5,2,2,5,3,0,0,5,1,0,62,1,3,3,3,10,6,7,1,1,0,50
3,13,15,6,6,27,8,9,16,0,239,6,22,19,15,17,9,13,39,14,4,184
4,2,2,1,1,0,2,2,2,0,20,0,3,5,2,0,4,1,1,2,2,16
2,3,2,8,3,9,12,5,9,0,112,1,7,12,9,4,5,5,12,7,5,98
10,9,7,11,12,26,11,3,12,15,214,13,27,21,10,25,8,13,26,10,0,177
14,16,3,4,10,14,12,3,8,3,150,8,12,15,9,11,12,30,24,7,0,109
4,7,13,6,4,9,23,5,7,0,173,0,21,39,3,10,2,14,14,5,7,136
3,10,5,6,3,17,8,6,4,0,176,3,18,13,4,6,4,8,15,6,1,160
4,4,3,3,11,13,1,5,5,0,170,2,10,10,6,8,2,2,10,10,6,153
8,5,3,3,15,8,5,8,12,0,104,3,3,12,7,10,1,6,12,7,9,101
15,13,10,25,32,43,13,24,13,0,616,19,27,22,28,40,16,20,41,45,22,524
12,17,10,31,31,56,31,25,33,0,606,7,46,41,8,17,10,20,62,21,13,607
3,1,0,4,7,12,6,1,8,0,83,1,1,12,1,4,4,7,15,1,3,76
22,16,7,16,31,34,41,16,13,4,502,12,17,51,22,27,24,32,57,17,0,443
4,0,1,7,7,2,3,7,1,0,38,1,1,2,2,5,2,2,9,5,14,27
2,1,2,2,7,17,13,6,2,6,160,10,2,17,3,4,6,4,26,11,0,135
17,11,11,20,26,55,23,32,13,0,677,7,29,66,23,34,19,27,59,25,13,583
30,20,14,17,28,46,30,22,14,0,738,16,27,55,25,36,31,25,70,16,11,647
0,5,9,7,12,36,18,10,12,7,281,9,12,16,8,9,6,7,39,19,0,272
7,2,7,5,14,24,17,4,8,8,230,9,7,39,14,19,10,6,42,8,0,172
0,4,2,1,3,4,1,3,5,1,47,4,6,5,3,5,0,3,10,3,0,32
4,5,16,6,12,24,8,14,7,0,214,2,37,17,4,26,4,10,28,10,10,162
3,0,8,6,7,17,7,3,2,0,125,1,9,9,12,4,7,3,17,2,8,106
11,6,12,11,14,25,13,3,12,7,464,4,17,36,17,20,20,14,32,12,0,406
8,14,5,17,15,26,13,9,3,2,255,4,11,24,8,31,12,12,32,10,0,223
17,9,5,5,4,23,33,4,6,0,297,12,12,34,13,10,12,14,38,7,3,248
2,6,2,3,3,13,14,8,7,0,93,0,8,10,4,11,4,10,12,8,0,84
5,10,12,12,5,11,23,14,10,14,221,1,13,28,8,16,4,24,36,20,0,187
14,9,10,13,20,55,23,5,19,20,443,15,24,40,13,35,20,17,71,16,0,380
17,4,2,14,13,27,23,3,11,7,398,7,35,53,14,30,26,5,35,8,0,306
1,5,1,8,11,18,9,15,3,0,231,3,7,7,16,7,4,16,10,26,18,188
18,29,13,30,35,51,19,39,19,5,701,10,29,23,36,40,43,54,69,65,0,590
14,20,6,29,48,37,49,21,19,29,823,16,40,55,29,46,27,51,63,33,0,735
6,3,1,8,2,12,1,5,8,0,243,2,6,13,7,7,12,15,33,6,1,187
0,6,2,4,2,7,6,7,3,0,170,0,15,3,4,7,0,11,10,4,6,147
4,8,8,10,18,24,10,10,4,0,254,10,16,16,7,15,10,14,44,6,4,208
8,3,6,5,15,22,13,6,16,0,289,7,24,19,11,11,9,11,28,9,5,249
5,3,2,8,11,18,2,3,8,0,125,0,10,8,12,9,8,13,13,5,4,103
1,7,0,0,9,12,7,10,6,5,110,1,5,6,8,4,1,14,16,22,0,90
0,6,1,7,10,5,4,9,8,5,115,1,4,7,20,11,1,24,16,6,0,80
1,14,2,13,12,23,15,13,15,0,285,1,7,13,14,13,3,44,31,22,0,245
10,11,2,5,8,12,6,5,2,6,134,1,3,11,7,9,10,15,14,7,0,124
9,7,5,12,10,16,18,30,14,4,273,4,9,29,8,27,7,23,23,45,0,223
12,3,7,13,8,18,38,4,10,0,286,1,17,55,7,24,11,3,25,2,6,248
11,15,2,16,22,44,11,8,22,8,441,16,14,22,27,29,26,19,59,17,0,371
24,14,9,28,45,50,33,18,22,0,737,22,36,69,35,36,30,32,70,20,0,630
8,4,3,11,12,14,19,19,19,0,307,13,15,30,10,21,9,13,31,19,6,249
7,6,8,8,7,16,6,5,7,2,97,4,11,7,2,17,10,12,20,2,0,84
7,16,15,15,33,31,34,16,17,0,561,12,21,48,24,37,16,56,50,31,8,442
8,2,7,11,30,32,32,18,11,0,405,13,19,56,12,18,4,14,56,11,2,351
22,9,4,19,25,27,6,13,12,20,407,8,25,24,22,31,18,24,37,14,0,361
12,7,8,14,26,21,16,7,17,0,367,5,12,27,24,18,13,19,40,8,16,313
7,1,15,21,3,32,36,3,7,0,372,5,22,35,9,30,15,38,44,8,4,287
8,9,5,4,21,31,14,10,7,8,196,4,9,20,9,19,14,24,42,15,0,157
17,5,9,16,17,25,14,3,10,15,390,7,18,28,21,23,29,6,42,6,0,341
1,7,1,2,15,11,6,7,6,2,65,1,7,12,5,5,4,7,13,3,0,66
0,2,1,1,4,4,4,1,1,2,31,1,5,1,5,4,0,1,5,5,0,24
0,7,3,1,3,8,2,3,5,6,86,1,13,7,4,7,0,9,10,4,0,69
10,7,21,28,25,42,20,14,19,0,334,17,23,25,15,32,8,14,53,21,8,304
1,2,2,5,5,5,4,0,8,0,177,3,8,11,2,9,7,6,11,7,2,143
2,1,2,5,16,3,14,2,3,0,82,1,16,14,11,7,0,0,3,4,1,73
0,7,6,4,6,12,14,6,8,0,70,2,6,14,5,5,0,16,21,4,9,51
2,4,6,3,14,14,5,3,1,3,191,2,5,6,13,10,2,15,20,8,0,165
9,4,6,9,9,12,6,1,2,1,157,2,16,10,7,6,15,12,28,3,0,117
0,2,1,8,13,8,1,8,2,0,107,3,0,2,5,9,4,6,8,12,3,98
4,1,5,3,2,3,2,0,2,0,42,0,5,0,7,3,4,1,5,1,3,35
5,13,2,3,10,31,14,5,7,9,180,2,8,14,16,8,1,17,30,11,0,172
5,7,12,5,11,19,18,5,11,0,258,3,9,25,7,11,9,9,23,7,16,232
8,1,3,5,14,16,22,4,4,0,187,1,11,28,8,17,6,5,25,5,1,157
6,10,6,12,21,28,9,28,17,0,453,25,8,14,22,19,14,25,62,34,0,367
2,1,7,4,10,12,3,6,5,0,114,4,7,3,7,3,6,7,19,5,1,102
26,22,3,22,21,35,28,31,33,0,831,11,26,26,19,29,32,55,64,42,4,744
7,1,1,7,7,12,2,7,4,0,97,0,7,10,2,13,3,8,8,7,4,83
4,8,0,19,3,5,2,10,2,0,140,7,13,2,8,21,3,17,7,13,13,89
0,2,4,7,3,1,0,3,3,2,80,1,3,1,1,12,4,7,3,3,0,70
0,5,0,1,10,5,4,5,4,0,92,1,4,6,5,3,1,4,6,9,1,86
28,31,17,25,28,58,40,35,19,1,866,14,47,40,30,50,23,69,91,46,0,738
3,5,1,1,8,4,12,7,2,0,64,1,5,4,5,4,2,9,9,15,2,51
10,7,1,18,13,15,19,7,8,0,284,7,8,21,8,26,7,15,19,14,2,255
8,16,10,13,12,32,23,8,30,3,338,8,21,35,13,18,17,22,43,15,0,301
8,14,16,17,6,29,38,23,21,11,457,20,51,54,14,41,10,15,43,7,0,385
25,6,20,25,19,61,41,17,19,6,465,40,41,55,18,58,46,6,56,30,0,354
72,14,42,62,29,52,40,20,44,0,701,54,80,47,14,76,100,28,79,31,16,551
78,16,64,53,32,65,30,16,54,0,706,63,90,49,17,85,115,39,81,23,11,541
51,14,28,44,21,29,22,11,34,37,501,35,60,41,19,56,48,21,43,28,0,441
15,5,12,22,20,22,26,9,24,0,309,13,16,31,8,32,59,9,40,14,5,237
59,11,32,34,21,57,91,17,28,0,501,33,65,92,15,47,108,17,64,21,6,383
25,8,15,36,29,63,20,23,36,12,574,45,33,31,11,49,34,31,79,26,0,502
18,9,14,16,24,51,19,21,27,1,563,20,32,35,11,39,28,22,59,31,0,486
23,10,7,14,15,64,23,32,25,3,529,29,26,33,13,29,38,17,70,38,0,452
26,20,15,37,20,67,31,36,37,0,516,32,22,33,9,57,40,40,62,39,29,442
37,14,27,29,37,54,24,20,44,3,533,35,39,23,16,52,59,30,46,25,0,497
39,10,42,56,30,55,32,10,37,22,1304,53,79,45,16,71,64,21,60,28,0,1200
37,16,35,25,24,46,29,20,18,0,420,24,43,34,17,35,48,22,63,22,6,356
37,11,31,28,13,39,21,14,15,0,445,24,38,26,12,44,37,22,51,21,15,364
23,12,16,29,18,60,24,29,27,25,566,29,37,30,19,41,43,14,79,33,0,504
25,6,10,22,17,40,15,16,12,0,448,15,20,30,11,31,35,13,52,18,8,378
46,10,20,20,21,63,24,30,29,0,472,20,53,12,18,44,61,37,85,28,1,376
59,14,35,38,24,59,38,21,34,0,693,33,59,48,11,54,74,25,75,26,26,584
43,12,28,34,21,59,19,9,30,0,500,41,39,33,12,57,66,19,70,26,10,382
23,13,26,36,15,32,16,4,32,0,688,39,34,35,15,58,41,36,54,26,9,538
28,10,15,29,30,35,19,13,14,6,484,20,30,26,14,39,40,22,45,33,0,414
31,6,21,37,22,40,26,5,25,0,808,31,46,39,16,53,50,16,44,26,27,673
33,6,18,42,15,42,31,23,26,19,578,39,45,35,9,45,33,22,68,31,0,506
23,17,26,21,27,63,26,20,26,0,574,17,55,37,19,36,30,28,64,21,12,504
38,16,36,26,11,32,34,18,26,0,494,24,52,31,7,39,51,16,40,18,19,434
35,16,24,54,38,67,47,27,36,0,1126,19,143,91,45,85,33,43,108,33,2,868
25,16,22,13,15,52,59,11,17,21,648,10,61,78,17,32,78,14,49,13,0,547
32,6,14,14,22,39,36,9,23,0,640,14,44,45,18,24,54,11,56,12,8,549
5,2,5,14,8,18,32,5,10,5,184,14,28,46,6,16,9,7,23,7,0,132
55,11,25,44,28,41,74,16,40,0,872,23,50,115,31,71,64,21,89,32,1,709
9,0,1,2,8,12,7,1,1,0,74,8,4,8,4,5,21,3,17,7,3,35
3,2,0,6,10,7,3,8,4,0,163,0,4,3,5,4,7,5,7,12,5,154
2,1,5,2,8,13,5,7,3,1,215,3,7,7,12,3,14,4,15,11,0,186
29,18,13,20,34,83,55,29,28,0,795,27,25,66,39,45,121,26,103,35,16,601
23,17,13,29,22,34,20,20,16,0,750,32,19,36,20,31,78,23,54,16,5,630
33,23,11,28,32,70,41,19,33,0,695,38,17,47,27,37,85,23,98,29,21,563
28,4,3,18,16,41,38,24,18,0,478,32,14,60,12,26,15,12,31,29,0,437
33,12,23,27,16,46,69,25,32,0,626,31,53,92,12,37,44,31,67,26,15,501
25,8,22,18,14,40,66,15,31,0,645,19,51,89,17,34,19,20,50,23,2,560
24,6,14,28,23,45,21,12,19,0,491,24,35,31,16,42,37,17,40,22,0,419
17,10,12,24,21,41,19,12,23,3,458,20,36,39,18,38,16,27,47,20,0,379
18,14,26,27,33,30,27,15,22,10,510,34,60,42,38,44,34,27,57,21,0,375
18,2,9,13,37,33,27,13,17,0,654,9,43,56,22,11,27,2,33,15,1,604
27,12,10,25,34,73,42,32,30,0,642,18,32,85,18,40,48,33,88,39,13,513
40,19,28,60,49,81,58,28,31,0,742,33,42,92,33,67,71,28,86,32,24,628
15,6,16,7,32,34,23,13,19,0,514,13,49,54,26,21,11,10,51,15,13,416
9,7,4,9,7,22,15,8,11,0,222,3,19,38,8,12,5,10,15,6,2,196
19,12,26,25,30,76,94,15,45,0,984,27,69,139,22,37,12,8,92,30,13,877
13,15,20,21,20,61,57,9,24,0,888,22,55,102,19,35,35,20,69,15,5,751
10,2,5,9,13,24,55,2,9,0,289,11,11,111,5,17,13,9,39,11,2,189
20,7,19,21,25,43,42,24,27,3,774,24,27,82,17,44,36,7,50,40,0,678
42,19,27,24,36,87,84,29,55,0,946,49,33,112,27,52,40,15,95,46,18,862
34,12,24,36,36,81,63,21,58,0,824,35,46,111,23,40,53,20,96,31,19,715
18,7,13,14,20,37,24,16,17,5,517,22,25,55,24,27,10,14,51,17,0,443
2,0,2,2,0,4,11,1,0,0,14,0,4,10,0,5,1,2,1,1,2,10
6,0,4,4,2,14,51,0,5,0,171,4,21,62,6,7,3,0,12,2,6,134
14,2,15,13,11,42,44,14,14,0,378,30,30,85,19,17,7,13,50,12,0,284
19,8,15,25,26,64,37,20,29,0,553,28,45,99,21,40,24,28,63,24,0,424
28,11,32,41,37,81,70,31,38,5,1059,36,80,133,28,66,34,19,122,29,0,886
10,8,1,12,18,19,8,8,9,0,287,4,10,21,13,17,12,8,33,9,5,248
8,2,0,8,9,7,18,3,6,1,67,3,9,18,7,11,8,5,4,3,0,61
35,2,15,19,22,62,72,16,31,16,613,40,36,99,19,66,43,15,82,44,0,459
9,6,8,13,9,33,13,8,14,5,351,39,22,31,7,19,11,10,32,25,0,273
17,10,13,13,12,52,32,10,12,0,609,16,59,62,12,29,19,13,81,15,4,470
27,6,17,24,16,46,43,8,22,0,543,24,33,69,21,33,25,15,65,21,20,426
12,4,17,14,11,27,6,12,8,1,228,6,18,12,4,16,10,1,28,13,0,232
16,8,26,34,6,46,22,12,27,0,597,20,42,57,4,41,24,20,60,7,3,516
3,2,6,8,11,8,7,1,6,0,135,1,4,11,2,13,4,0,7,1,11,133
7,4,7,20,14,23,11,9,5,0,274,13,13,20,6,24,7,6,27,12,2,244
3,0,1,1,6,8,6,0,5,0,78,1,3,7,5,3,3,2,7,3,2,72
32,5,9,25,26,49,59,23,18,12,585,22,37,108,26,37,31,14,57,22,0,489
22,3,24,40,20,29,75,14,13,4,321,37,33,78,8,41,18,15,49,15,0,271
9,4,2,22,11,19,62,18,16,0,514,37,24,67,20,23,11,11,48,42,21,373
43,11,35,43,13,77,67,24,45,14,913,70,84,111,12,52,40,15,81,72,0,748
18,15,12,21,15,41,17,27,29,0,428,82,23,22,15,25,12,25,41,39,15,324
42,14,18,30,9,56,54,16,28,11,660,7,134,69,7,37,39,18,37,25,0,565
27,14,34,19,25,35,56,13,26,0,616,18,101,66,15,19,20,15,42,14,7,548
26,16,18,20,19,36,78,7,19,10,655,22,102,88,12,28,22,11,45,14,0,560
21,5,14,30,19,33,44,8,20,0,416,11,42,68,18,24,32,10,39,15,4,347
16,7,8,12,14,44,59,16,24,0,395,21,26,82,9,21,13,13,48,23,9,330
12,5,10,11,14,36,55,25,10,0,439,19,27,69,10,25,17,13,42,33,1,361
18,6,15,28,17,22,32,14,22,17,439,14,21,74,18,47,23,7,50,27,0,349
43,10,27,38,31,73,85,30,38,2,812,21,49,161,22,59,45,21,93,28,0,690
38,2,19,35,22,62,44,18,27,0,752,20,26,105,18,48,43,13,84,24,23,615
12,7,9,13,21,53,27,18,25,21,513,19,23,47,17,33,19,11,60,26,0,464
12,0,6,16,26,29,17,4,15,0,463,25,47,39,19,22,11,6,47,7,16,349
16,6,10,24,17,26,67,25,11,0,549,44,14,71,17,30,20,14,28,44,14,455
22,4,28,21,18,26,15,13,16,20,515,21,37,24,21,32,29,10,43,14,0,467
41,7,35,24,15,40,55,11,31,0,580,23,77,78,8,29,37,14,59,13,8,493
26,4,24,26,13,46,35,4,24,0,562,25,71,65,6,31,25,13,42,14,0,472
26,3,15,21,16,59,60,22,39,4,584,27,50,81,9,45,37,18,72,40,0,470
19,5,14,30,21,32,76,8,12,8,601,25,66,114,19,47,14,11,67,11,0,452
4,8,7,25,13,28,10,14,7,0,250,19,15,20,9,16,9,5,37,12,8,216
8,5,11,9,10,22,15,5,13,9,229,11,17,22,3,20,12,6,32,20,0,193
22,9,12,11,16,23,14,23,18,0,402,25,28,29,19,14,18,9,32,22,13,341
3,0,7,9,4,4,1,10,10,3,55,8,9,4,3,7,1,4,7,6,0,57
13,5,11,10,16,45,24,11,13,0,544,18,7,70,8,7,5,13,62,23,24,455
15,11,10,22,41,49,61,13,14,0,750,16,16,85,24,27,18,14,45,15,17,709
12,4,6,19,17,16,104,9,13,0,623,5,11,110,15,21,10,14,13,12,3,609
12,6,11,21,25,25,85,12,10,0,879,11,18,166,12,32,15,5,16,19,9,783
12,9,8,10,7,25,6,6,9,0,261,30,10,15,3,15,11,20,30,12,8,199
5,1,1,6,4,14,3,14,6,0,82,5,7,2,3,7,4,4,8,15,0,81
14,7,52,7,14,56,78,16,17,6,622,16,252,66,8,18,7,13,60,11,0,438
15,10,12,20,15,33,22,5,4,0,376,8,40,54,4,25,11,13,44,3,1,309
12,1,5,8,6,18,8,11,5,0,129,6,1,22,3,6,7,6,12,2,8,130
20,9,14,22,12,35,42,9,27,17,472,24,50,57,8,30,20,11,31,7,0,441
12,3,14,18,20,38,50,9,21,0,504,15,37,84,16,24,11,9,48,9,11,425
29,9,22,56,37,59,111,27,40,0,951,31,66,185,27,65,17,33,69,53,17,778
25,13,18,26,14,48,46,13,36,0,718,30,46,76,18,36,23,23,53,37,0,615
7,1,6,5,8,11,14,1,14,3,136,10,7,31,8,5,4,15,11,6,0,109
30,5,31,38,22,56,60,14,34,15,602,17,48,91,28,60,14,23,67,34,0,525
27,8,11,16,8,44,79,11,10,2,682,18,50,135,4,41,32,15,38,16,0,549
28,9,19,34,9,48,94,7,16,5,563,23,46,128,16,41,48,19,59,11,0,441
17,8,16,14,13,41,62,12,18,0,544,13,33,92,19,31,31,17,44,20,8,437
35,11,23,30,26,67,69,16,17,0,655,13,40,90,18,41,35,28,74,24,29,557
25,24,8,15,21,78,25,28,24,0,600,17,31,43,17,40,14,19,102,19,11,535
28,17,13,32,24,64,36,12,24,0,728,20,42,56,16,48,35,27,82,24,17,611
25,11,11,15,18,56,33,15,21,0,692,10,33,35,25,36,22,19,69,24,16,608
26,10,20,12,11,35,20,20,26,0,613,9,28,35,16,27,36,12,43,29,8,550
44,24,21,24,31,49,51,18,18,0,831,13,50,96,30,51,39,34,46,16,7,729
32,11,21,31,29,63,58,20,18,0,745,14,53,113,14,38,40,21,72,19,9,635
43,14,27,40,38,39,31,10,33,0,710,26,66,65,24,48,52,15,60,18,13,598
39,6,26,49,29,53,46,26,22,0,1039,24,56,78,17,58,43,17,59,29,10,944
71,11,34,47,24,72,67,23,39,65,834,19,104,104,23,53,96,27,60,35,0,766
32,13,33,49,33,70,41,18,36,12,638,38,74,64,27,61,63,19,68,27,0,534
20,23,12,37,33,69,50,13,38,0,898,26,36,71,21,59,25,39,82,19,21,794
13,12,1,5,9,18,13,9,12,0,381,14,11,20,7,23,25,15,28,11,13,306
27,10,12,16,35,48,43,20,17,0,654,11,22,53,17,26,30,41,57,20,4,601
23,15,14,29,37,47,31,20,29,3,778,29,25,55,14,41,26,28,71,23,0,714
2,1,3,7,8,15,6,2,6,4,139,4,3,17,2,11,5,5,14,6,0,126
3,3,6,5,9,9,12,7,5,5,94,7,2,25,3,6,5,5,7,5,0,93
16,4,18,14,7,29,27,6,13,12,210,5,35,39,6,19,19,4,36,9,0,184
39,13,24,36,19,33,112,50,44,0,611,42,47,124,11,48,32,33,48,55,37,504
9,3,13,22,8,22,41,11,12,0,323,10,19,55,20,22,24,11,28,8,9,258
46,9,31,41,19,42,66,15,33,0,951,21,76,109,28,84,49,23,61,33,13,756
59,8,22,39,28,49,73,11,28,0,915,17,66,92,27,57,53,14,59,22,29,796
4,2,2,3,5,6,1,1,1,6,85,1,3,1,4,4,2,0,2,2,0,97
25,10,6,21,30,55,36,22,27,0,628,31,31,47,20,26,36,13,54,22,9,571
7,9,5,8,9,18,21,3,10,0,165,6,5,58,7,12,5,15,10,4,1,132
21,16,23,39,45,97,67,28,37,5,956,38,77,87,22,49,38,24,138,34,0,827
3,0,2,3,4,3,12,1,6,0,104,4,1,14,16,6,4,2,1,1,8,81
