A7,A9,A997,A998,A999,B166,B720,B53,B1470,B768,B997,B998,B999
59,32,0,4,58,5,3,9,2,20,15,0,99
172,241,0,25,168,57,35,61,16,43,40,0,354
50,59,0,3,35,11,16,9,1,13,27,0,70
145,61,0,0,143,5,8,14,3,23,32,5,259
173,204,0,2,125,37,35,63,10,44,50,0,265
89,67,0,0,137,8,20,23,2,13,15,11,201
66,86,0,7,41,16,12,21,3,18,18,0,112
52,92,0,4,53,12,25,12,6,14,28,0,104
65,32,0,24,34,25,13,4,1,13,16,0,83
117,106,0,0,67,39,17,12,6,27,22,17,150
36,35,0,0,33,14,6,3,1,8,17,4,51
47,18,0,2,30,10,3,9,2,13,11,0,49
46,53,0,6,44,34,4,1,4,11,9,0,86
85,46,0,0,65,11,5,9,1,26,25,7,112
90,27,0,4,33,11,5,1,1,19,19,0,98
50,38,0,13,38,9,5,10,1,10,16,0,88
66,103,0,14,51,24,21,28,8,25,18,0,110
124,134,0,2,97,31,19,15,16,40,24,0,212
64,58,0,0,48,29,7,4,1,14,11,5,99
106,91,0,13,85,41,19,12,4,25,16,0,178
76,145,0,27,63,62,23,67,10,21,19,0,109
337,753,0,95,347,208,111,160,56,90,81,0,826
58,63,0,0,49,13,11,17,5,16,12,8,88
113,116,0,8,83,17,34,26,5,23,17,0,198
70,135,0,0,56,35,18,15,3,32,25,8,125
51,50,0,8,47,13,11,7,4,22,12,0,87
43,62,0,2,43,13,13,13,0,13,10,0,88
98,105,0,1,62,30,28,9,7,21,22,0,149
60,60,0,0,46,4,26,16,2,10,10,4,94
49,57,0,6,28,17,23,10,7,10,6,0,67
68,76,0,0,66,19,8,5,1,11,21,12,133
58,85,0,14,56,50,4,25,3,14,17,0,100
51,123,0,21,48,29,18,43,8,19,13,0,113
110,77,0,12,56,29,8,10,3,25,35,0,145
59,60,0,16,40,17,11,10,2,9,14,0,112
40,62,0,3,20,17,11,11,0,26,2,0,58
69,72,0,3,48,18,22,25,0,16,9,0,102
64,80,0,11,22,44,13,16,2,8,9,0,85
41,38,0,0,22,29,9,11,1,5,17,3,26
278,396,0,31,166,125,66,105,17,62,61,0,435
285,367,0,0,179,113,55,67,14,68,57,20,437
255,305,0,0,192,99,34,104,8,61,60,9,377
213,235,0,0,207,64,25,32,7,56,44,11,416
184,151,0,0,174,37,17,26,9,54,47,28,291
223,266,0,20,208,94,40,66,9,36,54,0,418
188,244,0,0,191,53,57,75,14,42,34,10,338
175,219,0,0,137,76,22,49,9,41,34,70,230
145,213,0,0,128,66,22,72,8,49,30,0,239
55,69,0,42,71,22,11,24,5,18,16,0,141
189,162,0,0,201,42,22,20,6,69,52,18,323
198,179,0,0,157,48,29,42,6,43,42,15,309
212,269,0,86,234,86,45,94,26,55,40,0,455
301,273,0,2,234,74,49,70,13,68,61,0,475
210,175,0,0,160,46,32,25,4,50,31,10,347
308,359,0,0,347,108,72,81,13,72,75,53,540
174,170,0,4,532,51,27,36,11,34,40,0,681
104,48,0,4,52,17,8,12,3,25,13,0,130
119,93,0,0,132,29,24,21,1,43,29,8,189
54,68,0,11,35,15,14,18,8,22,13,0,78
97,88,0,9,73,27,21,16,5,24,16,0,158
97,104,0,0,66,26,10,21,5,30,22,2,151
55,25,0,3,21,12,10,6,1,17,7,0,51
152,121,0,3,83,42,27,18,5,27,18,0,222
163,116,0,0,104,33,19,32,10,46,33,8,202
228,210,0,15,319,56,52,30,11,55,45,0,523
251,198,0,0,175,59,32,30,12,65,56,6,364
24,51,0,7,17,23,6,6,2,5,5,0,52
42,22,0,5,17,9,8,0,1,11,10,0,47
26,39,0,0,18,12,1,6,3,0,6,1,54
29,26,0,0,13,9,8,2,2,6,10,1,30
26,9,0,0,5,2,1,3,0,4,10,0,20
28,14,0,0,8,6,2,5,0,5,4,3,25
300,285,0,0,227,99,39,47,12,55,64,8,488
14,17,0,0,2,9,0,0,0,8,3,2,11
79,128,0,4,58,40,15,15,6,19,30,0,144
48,46,0,0,39,12,6,13,2,8,12,9,71
42,34,0,0,21,10,6,4,0,19,15,3,40
148,275,0,0,109,94,39,54,25,51,37,0,232
33,42,0,0,50,8,12,4,2,8,5,7,79
38,19,0,0,58,2,2,5,3,10,5,0,88
45,74,0,2,68,34,2,23,3,5,12,0,110
109,52,0,20,48,29,11,13,1,20,32,0,123
97,83,0,0,148,11,10,12,7,20,41,7,220
37,25,0,0,33,6,2,1,0,4,7,13,62
36,15,0,0,7,3,0,7,0,12,1,0,35
15,26,0,1,15,23,2,1,1,0,5,0,25
21,43,0,0,21,13,3,12,0,6,8,1,42
346,358,0,25,300,116,68,45,13,79,52,0,656
91,93,0,0,76,20,11,14,3,30,32,2,148
325,195,0,0,203,62,32,25,4,78,67,9,446
42,74,0,1,53,36,6,14,11,6,17,0,80
60,48,0,0,19,16,5,11,1,13,16,6,59
53,20,0,4,24,3,7,4,4,8,6,0,69
33,14,0,0,12,6,2,1,0,3,3,0,44
49,22,0,8,34,6,7,4,0,8,6,0,82
143,105,0,0,121,19,10,15,11,31,22,7,254
57,33,0,0,13,9,3,5,4,10,16,9,47
29,13,0,2,20,11,2,4,1,10,7,0,29
101,69,0,4,64,24,7,15,2,38,21,0,131
95,100,0,9,67,19,21,20,4,26,22,0,159
69,31,0,0,13,20,4,3,0,18,9,2,57
35,66,0,6,12,44,4,9,4,5,6,0,47
55,35,0,2,25,11,5,9,5,14,16,0,57
252,344,0,0,257,83,54,66,20,60,88,12,470
155,162,0,22,111,61,31,21,4,30,36,0,267
60,28,0,0,98,15,11,5,6,10,12,9,118
203,170,0,0,198,47,18,21,45,39,30,34,337
45,39,0,0,25,23,6,7,3,9,11,3,47
71,42,0,2,41,16,3,9,1,15,8,0,104
164,138,0,12,85,59,37,19,6,23,39,0,216
87,103,0,1,61,21,25,23,9,33,14,0,127
61,26,0,0,28,8,2,2,1,22,19,0,61
203,283,0,4,175,96,47,54,14,52,54,0,348
47,63,0,0,36,16,5,9,2,9,12,1,92
30,17,0,2,13,4,2,9,2,6,3,0,36
48,58,0,7,49,13,3,6,5,17,12,0,106
123,102,0,6,99,26,12,15,6,14,24,0,233
56,45,0,5,24,13,17,6,2,7,19,0,66
69,34,0,1,26,13,8,10,2,20,23,0,54
16,22,0,8,6,4,8,0,4,10,3,0,23
111,133,0,0,107,35,31,17,2,30,19,9,208
29,28,0,1,8,22,4,0,0,7,1,0,32
210,183,0,54,173,44,47,40,11,38,46,0,394
79,32,0,15,41,26,4,1,0,12,20,0,104
56,43,0,0,32,18,3,2,3,5,13,7,80
37,38,0,2,12,11,6,3,2,4,15,0,48
37,15,0,0,10,3,3,5,0,11,1,8,31
27,28,0,0,10,5,14,5,1,4,4,0,32
48,59,0,0,23,27,14,8,5,6,10,0,60
210,176,0,0,171,32,25,33,36,57,41,10,323
53,40,0,0,24,20,8,10,3,20,12,2,42
70,82,0,0,46,18,15,10,4,12,15,6,118
121,78,0,4,96,30,13,8,4,36,29,0,179
132,90,0,0,80,31,5,23,1,31,26,12,173
42,23,0,0,42,5,2,12,2,6,4,0,76
194,217,0,6,172,52,34,28,9,68,25,0,373
54,49,0,8,45,33,4,16,2,12,8,0,81
92,46,0,5,40,30,5,6,0,23,19,0,100
223,231,0,30,170,92,44,45,8,69,45,0,351
351,228,0,0,301,64,35,30,11,60,49,19,612
44,72,0,16,38,18,16,22,2,16,16,0,80
130,170,0,8,95,39,36,55,8,45,34,0,186
317,309,0,5,278,73,56,57,13,87,60,0,563
168,119,0,5,132,33,20,12,12,43,44,0,260
30,37,0,2,42,10,10,3,13,10,2,0,63
72,67,0,0,56,20,6,10,11,13,15,4,116
61,68,0,1,66,21,7,15,0,8,15,0,130
66,34,0,0,30,10,6,7,1,12,20,5,69
211,186,0,20,295,47,41,32,7,55,38,0,492
222,276,0,0,249,66,47,55,35,64,39,5,436
297,258,0,24,192,78,24,54,20,77,41,0,477
49,39,0,6,31,11,7,9,4,12,12,0,70
53,36,0,10,21,11,4,4,0,10,16,0,75
12,29,0,0,18,13,1,6,1,14,6,0,18
86,92,0,9,50,32,15,15,5,27,12,0,131
63,101,0,0,81,24,25,26,6,17,8,1,138
319,383,0,74,276,122,64,100,24,93,55,0,594
379,343,0,14,319,102,58,69,9,87,67,0,663
192,143,0,6,118,49,20,22,10,32,33,0,293
117,119,0,24,47,28,23,32,6,37,23,0,158
32,39,0,1,43,11,9,10,0,6,6,0,73
75,104,0,0,71,22,10,21,5,19,18,16,139
108,113,0,9,72,54,10,17,4,21,20,0,176
52,53,0,0,37,28,7,9,4,10,17,4,63
47,30,0,2,24,16,6,6,1,5,5,0,64
53,43,0,0,36,13,8,2,0,18,13,6,72
77,63,0,0,61,14,8,8,3,14,22,6,126
24,48,0,0,24,11,17,11,0,9,4,0,44
37,40,0,2,39,19,2,5,4,4,6,0,78
43,65,0,10,34,17,15,13,2,6,13,0,86
80,79,0,0,50,23,11,5,2,15,15,6,132
189,166,0,0,130,35,19,24,2,59,39,37,270
289,312,0,0,229,79,42,51,10,64,79,19,486
22,19,0,0,14,3,5,2,1,5,3,7,29
111,54,0,3,61,17,11,7,1,12,26,0,155
86,151,0,0,88,60,16,16,6,25,21,19,162
68,97,0,24,43,27,17,29,5,19,17,0,118
194,144,0,29,112,52,38,38,4,46,22,0,279
112,74,0,0,84,27,11,13,1,37,29,5,147
33,27,0,0,23,11,3,7,0,11,5,0,46
105,29,0,8,36,22,6,1,1,27,34,0,87
91,77,0,12,78,38,4,21,3,11,32,0,149
128,170,0,25,77,70,33,17,2,32,40,0,206
95,56,0,0,23,29,4,5,4,20,13,5,94
392,319,0,0,337,138,47,67,9,73,60,5,649
48,25,0,4,27,7,1,6,3,18,3,0,66
70,64,0,0,49,25,18,14,4,16,22,1,83
59,64,0,0,38,21,12,21,3,13,13,7,71
55,68,0,0,27,36,12,10,1,12,11,4,64
146,85,0,0,66,31,12,11,6,34,51,14,138
106,123,0,0,94,65,20,13,4,18,29,1,173
78,96,0,0,54,41,15,11,1,18,26,0,116
131,130,0,10,100,41,27,29,5,32,35,0,202
106,108,0,0,98,29,18,22,3,17,22,0,201
281,190,0,0,221,57,30,23,2,100,52,14,414
225,148,0,14,189,45,18,30,7,50,51,0,375
199,202,0,0,284,51,30,43,5,60,36,1,459
228,194,0,3,137,40,21,38,6,60,53,0,344
104,52,0,0,59,27,12,9,5,25,19,6,112
118,76,0,4,71,40,10,6,7,17,22,0,167
42,37,0,2,46,37,5,0,0,8,6,0,71
378,245,0,0,271,124,32,26,13,85,52,16,546
248,187,0,0,231,66,13,18,9,50,49,34,427
329,216,0,0,285,97,29,12,10,54,55,28,545
410,310,0,0,616,150,27,29,15,66,95,5,949
367,337,0,0,264,142,37,27,10,65,82,19,586
189,166,0,22,134,60,16,21,10,36,27,0,341
331,306,0,26,264,143,39,31,14,55,71,0,574
157,87,0,8,80,45,17,10,0,25,31,0,204
33,26,0,0,18,9,6,3,5,4,4,8,38
245,204,0,0,215,80,33,29,3,58,46,18,397
341,298,0,15,258,155,25,41,14,58,68,0,551
263,161,0,0,350,99,17,15,4,39,38,10,552
231,197,0,0,187,113,21,23,14,50,31,27,336
154,122,0,0,140,28,24,14,7,32,24,18,269
336,265,0,0,290,52,32,32,39,81,66,12,577
328,279,0,12,420,56,38,34,23,74,62,0,752
45,50,0,3,37,17,13,4,5,16,10,0,70
464,419,0,0,372,81,60,87,27,127,73,42,758
46,40,0,5,34,9,11,6,8,13,4,0,74
35,41,0,1,39,5,3,4,19,17,7,0,61
30,37,0,0,20,16,3,5,0,8,3,1,51
126,97,0,5,92,43,12,8,1,32,19,0,205
118,146,0,9,69,56,22,39,10,23,28,0,164
37,35,0,0,47,6,4,3,0,7,12,0,87
325,236,0,0,218,52,45,23,2,52,51,0,554
36,48,0,10,28,18,8,12,1,20,9,0,54
14,9,0,0,5,0,2,6,0,3,6,4,7
38,15,0,12,35,8,2,8,1,11,7,0,63
62,41,0,14,97,17,12,2,1,24,13,0,145
120,85,0,12,111,23,10,12,2,40,34,0,207
36,27,0,0,8,6,3,0,1,12,10,0,39
217,133,0,0,113,57,20,15,4,32,35,22,278
54,52,0,0,22,7,3,11,5,12,8,9,73
107,98,0,4,106,41,7,18,10,27,23,0,189
238,205,0,9,251,24,35,53,7,59,66,0,459
253,173,0,0,347,16,36,40,9,51,59,40,522
255,417,0,0,288,60,68,115,29,75,86,1,526
256,320,0,70,304,51,48,91,17,60,85,0,598
212,256,0,0,305,36,34,58,15,40,55,33,502
254,378,0,0,255,51,56,117,26,33,62,8,534
193,283,0,0,240,33,49,76,18,34,52,4,450
283,272,0,14,220,45,46,74,11,53,66,0,494
250,322,0,0,243,40,48,82,19,43,63,20,500
287,505,0,37,233,64,67,169,40,74,98,0,550
316,422,0,8,233,74,57,126,32,83,80,0,527
217,379,0,45,273,75,72,129,14,53,56,0,515
60,85,0,9,71,10,17,31,5,10,16,0,136
52,74,0,7,42,12,11,24,4,10,28,0,86
282,413,0,0,888,41,49,124,12,63,83,10,1201
161,153,0,25,194,24,30,35,8,31,48,0,357
24,41,0,0,17,15,6,1,2,5,10,0,43
376,474,0,0,268,92,74,139,19,88,98,72,536
303,396,0,21,213,41,72,136,24,55,70,0,535
46,41,0,5,24,17,10,3,5,4,12,0,65
94,86,0,0,80,13,19,18,1,13,27,3,166
282,270,0,25,186,47,69,48,18,70,75,0,436
89,100,0,3,59,19,18,17,4,13,22,0,158
92,177,0,43,93,34,40,59,17,25,25,0,205
68,37,0,0,54,12,7,0,0,15,8,5,112
145,107,0,15,105,14,18,22,7,29,30,0,252
333,308,0,0,268,56,48,68,16,77,82,22,540
157,324,0,102,174,85,69,74,25,49,39,0,416
250,195,0,5,147,28,33,55,13,71,99,0,298
81,62,0,0,71,20,9,22,4,29,40,1,89
168,419,0,66,153,105,104,128,36,58,56,0,319
382,335,0,0,373,36,56,65,22,50,87,36,738
448,461,0,0,328,66,58,121,16,92,113,144,627
158,175,0,11,121,54,33,36,4,20,43,0,275
86,57,0,0,72,14,14,10,3,23,18,7,126
344,371,0,31,395,55,62,115,24,64,82,0,739
117,105,0,10,78,14,18,29,4,31,42,0,172
404,308,0,0,272,34,47,87,12,60,167,1,576
96,63,0,1,50,18,13,16,1,18,42,0,102
388,557,0,154,381,107,113,169,48,77,123,0,843
153,152,0,0,123,25,34,51,4,39,37,21,217
36,19,0,6,20,14,3,3,0,2,7,0,52
48,76,0,0,44,23,12,13,5,7,15,1,92
149,91,0,0,95,28,13,31,7,29,25,9,193
506,517,0,58,429,58,103,108,36,149,126,0,930
76,42,0,0,35,5,5,10,0,17,24,6,86
181,310,0,2,176,69,52,89,13,48,45,0,353
376,244,0,0,283,43,39,28,6,91,84,31,581
391,304,0,26,325,58,40,100,10,97,82,0,659
64,78,0,17,43,12,13,34,12,9,22,0,100
168,70,0,5,90,27,13,12,1,38,32,0,210
120,91,0,0,104,17,8,34,7,23,22,16,188
50,25,0,8,32,10,13,3,1,11,11,0,66
205,176,0,0,140,36,30,35,8,38,52,1,321
31,19,0,3,21,6,7,1,2,7,8,0,43
22,21,0,3,22,16,4,7,0,11,6,0,24
53,52,0,9,46,17,3,8,2,17,15,0,98
44,25,0,0,32,8,6,2,0,19,9,9,48
35,28,0,0,18,10,1,0,0,4,18,9,39
148,77,0,0,107,16,10,13,2,32,28,16,215
153,137,0,2,138,23,25,34,8,57,37,0,246
33,51,0,20,23,9,10,5,8,8,15,0,72
247,213,0,12,310,55,40,50,18,43,61,0,515
392,538,0,17,431,78,88,133,41,115,97,0,826
338,243,0,77,331,47,61,54,13,92,77,0,645
61,36,0,0,57,3,4,9,1,13,15,6,103
74,78,0,5,85,15,17,28,4,26,23,0,129
143,97,0,4,147,10,18,26,5,37,23,0,272
95,140,0,0,170,39,28,37,13,27,35,17,209
69,76,0,0,94,11,10,11,2,12,16,0,177
113,248,0,18,73,47,48,60,10,36,38,0,213
26,31,0,1,16,8,6,7,0,4,8,0,41
165,226,0,13,150,45,46,64,22,35,32,0,310
96,74,0,0,76,12,9,45,4,26,17,0,133
214,150,0,37,193,34,29,50,7,35,61,0,378
43,70,0,0,38,6,14,15,5,10,12,6,83
138,139,0,17,155,20,16,39,9,24,40,0,301
67,94,0,17,42,19,9,36,3,12,17,0,124
75,118,0,9,78,29,24,43,3,12,22,0,147
350,403,0,16,366,53,77,126,24,90,84,0,681
209,191,0,0,139,20,26,50,18,42,54,1,328
327,766,0,0,454,176,140,163,59,95,85,5,824
167,96,0,0,87,23,26,14,7,49,27,1,203
248,194,0,35,171,28,39,56,9,86,47,0,383
95,99,0,0,77,27,23,14,12,25,29,0,141
25,26,0,0,24,5,1,1,3,6,9,1,49
161,151,0,0,98,17,25,36,6,21,57,13,235
27,40,0,1,45,6,9,14,1,13,5,0,65
202,154,0,2,169,29,33,35,7,48,66,0,309
257,228,0,14,193,43,43,61,19,53,55,0,418
50,67,0,5,42,7,22,26,2,15,9,0,83
148,144,0,0,105,16,23,24,9,39,46,1,239
319,604,0,0,356,180,102,114,36,84,67,52,644
296,513,0,0,368,142,81,87,28,64,49,14,712
208,729,0,43,235,196,104,167,39,65,65,0,579
76,30,0,4,59,4,8,1,1,21,8,0,126
120,147,0,30,119,42,32,40,9,29,37,0,227
126,205,0,13,89,38,33,43,13,37,24,0,245
120,111,0,6,126,11,28,23,11,31,20,0,239
52,30,0,4,28,3,2,7,3,17,23,0,59
152,109,0,26,104,15,21,37,9,19,27,0,263
153,147,0,0,99,17,29,37,8,33,46,11,218
31,68,0,7,28,15,5,15,10,13,12,0,64
124,317,0,10,120,73,76,71,22,30,37,0,262
177,319,0,0,254,96,75,62,16,66,39,51,345
240,271,0,11,165,50,59,94,10,60,61,0,353
296,249,0,27,187,39,40,50,15,73,75,0,467
326,222,0,40,358,51,49,65,20,69,99,0,593
66,102,0,0,59,12,21,36,0,19,10,1,128
67,71,0,11,40,24,14,14,2,8,18,0,109
56,62,0,0,38,15,11,11,2,19,22,6,70
66,119,0,12,52,26,18,21,3,17,19,0,145
184,189,0,19,139,66,35,32,10,56,43,0,289
57,69,0,7,30,11,13,7,8,7,12,0,105
57,68,0,0,52,6,11,16,7,15,6,1,115
102,76,0,1,88,12,15,15,1,25,22,0,177
61,29,0,0,38,5,6,2,5,13,15,18,64
286,346,0,21,282,62,54,73,31,68,93,0,554
103,147,0,0,102,36,32,25,8,32,26,12,181
22,38,0,11,26,5,7,10,2,2,6,0,65
43,58,0,5,46,13,6,20,4,11,18,0,80
181,336,0,36,158,90,75,93,29,57,47,0,320
29,30,0,0,16,4,5,2,4,5,8,3,44
482,334,0,12,340,107,66,58,12,164,97,0,664
175,91,0,5,131,12,14,16,3,32,50,0,275
42,57,0,10,38,9,10,11,3,16,22,0,76
51,68,0,0,38,11,11,24,5,11,16,3,76
303,361,0,0,396,39,48,74,16,72,71,39,701
303,258,0,1,249,35,29,75,14,62,82,0,514
370,368,0,0,310,36,47,101,14,102,90,3,655
606,549,0,42,479,112,108,110,44,136,167,0,999
80,57,0,0,55,34,8,17,6,15,9,7,96
81,123,0,29,78,52,28,40,13,24,26,0,128
313,286,0,0,280,39,63,44,23,62,85,37,526
226,312,0,0,237,41,63,72,26,54,77,14,428
229,319,0,15,312,49,62,67,32,52,78,0,535
422,600,0,72,3964,73,115,128,56,39,137,0,4510
272,263,0,0,284,32,74,48,19,49,83,9,505
296,325,0,0,381,46,68,44,28,51,81,31,653
167,227,0,0,201,37,51,49,21,35,47,29,326
280,204,0,0,325,31,47,37,4,58,79,33,520
365,232,0,0,278,27,36,60,10,99,76,57,510
434,516,0,0,358,88,111,115,38,102,126,31,697
403,280,0,0,326,42,52,43,9,96,81,51,635
303,277,0,6,320,38,63,27,30,55,87,0,606
314,222,0,0,375,21,48,28,20,74,90,22,608
339,289,0,30,418,46,70,36,22,63,92,0,747
336,326,0,0,256,47,62,81,19,84,105,21,499
296,272,0,0,360,33,52,64,15,78,52,169,465
221,166,0,0,213,25,32,28,12,42,65,11,385
289,389,0,0,270,72,51,84,23,76,76,0,566
261,322,0,0,269,60,63,48,18,67,80,9,507
264,239,0,0,299,39,59,45,17,53,74,1,514
273,198,0,0,395,31,49,23,8,57,57,5,636
249,223,0,0,274,37,42,43,8,66,74,20,456
219,198,0,12,416,35,38,32,14,35,59,0,632
357,337,0,0,348,31,80,66,14,56,115,35,645
256,324,0,0,232,66,56,70,33,51,84,1,451
248,238,0,0,205,36,56,47,21,69,71,23,368
219,272,0,0,264,44,39,42,20,66,56,20,468
250,190,0,0,237,19,38,26,8,59,83,7,437
252,198,0,0,252,40,47,26,8,47,57,16,461
296,282,0,14,315,49,67,48,30,48,83,0,582
301,315,0,119,356,71,88,59,22,75,100,0,676
360,399,0,0,265,68,94,123,39,81,94,11,514
356,415,0,4,319,97,69,75,41,73,119,0,620
295,276,0,5,383,25,67,55,18,54,85,0,655
385,377,0,62,339,60,75,78,34,82,125,0,709
332,224,0,0,320,24,64,62,10,57,102,14,543
191,164,0,7,220,27,41,26,15,31,62,0,380
239,158,0,8,365,29,31,21,5,32,71,0,581
138,74,0,4,110,4,27,14,5,35,36,0,205
324,264,0,0,384,34,45,35,8,50,91,29,680
289,246,0,0,360,36,39,55,13,57,72,17,606
428,275,0,161,481,42,58,49,15,100,97,0,984
265,186,0,0,345,31,31,33,14,43,70,47,527
261,219,0,10,430,37,45,32,9,63,61,0,673
377,214,0,0,337,32,59,36,9,71,74,38,609
290,196,0,0,322,29,44,27,10,55,73,22,548
288,253,0,133,293,31,50,52,24,72,83,0,655
305,181,0,0,286,38,39,39,10,42,72,21,511
325,193,0,0,401,21,41,28,10,56,70,26,667
321,210,0,0,289,18,40,25,11,72,80,37,537
393,361,0,0,547,58,65,61,19,73,125,12,888
308,192,0,0,430,26,26,23,16,65,74,61,639
297,210,0,0,302,33,42,35,7,54,75,23,540
212,195,0,0,303,37,46,25,13,33,56,19,481
246,201,0,0,290,33,52,25,7,49,77,39,455
294,219,0,0,278,29,31,33,7,79,76,21,515
283,218,0,0,245,21,34,26,5,51,76,26,507
169,139,0,18,145,50,28,37,4,43,37,0,272
44,70,0,0,24,8,20,18,6,13,18,3,52
70,100,0,15,96,20,12,27,3,23,22,0,174
32,25,0,0,14,12,2,1,0,18,3,4,31
117,56,0,2,69,18,11,7,9,18,37,0,144
535,468,0,89,452,77,104,98,31,109,142,0,983
255,378,0,27,196,69,70,99,39,79,64,0,436
42,28,0,2,32,10,7,4,3,8,4,0,68
35,45,0,0,15,10,8,26,1,8,11,3,28
225,198,0,10,219,38,42,60,9,49,69,0,385
22,34,0,1,14,16,6,6,0,10,6,0,27
187,131,0,8,159,30,20,37,11,45,35,0,307
217,179,0,12,153,26,48,35,11,38,66,0,337
37,94,0,0,25,24,23,16,3,12,9,5,64
51,69,0,13,56,21,17,12,6,12,13,0,108
49,38,0,0,69,5,11,2,0,13,17,3,105
56,50,0,0,43,8,14,12,2,11,15,11,76
170,118,0,0,212,18,16,14,4,36,46,16,350
255,454,0,76,261,106,80,88,35,93,65,0,579
407,476,0,25,382,70,152,99,23,86,115,0,745
15,9,0,0,7,7,2,2,0,3,4,4,9
19,19,0,5,12,12,1,8,0,1,10,0,23
21,47,0,0,17,15,2,5,5,5,4,6,43
292,322,0,11,216,83,75,60,15,82,71,0,455
154,84,0,0,121,16,17,13,10,26,35,12,230
123,52,0,6,82,10,13,12,4,38,29,0,157
35,33,0,0,15,11,7,12,0,10,7,2,34
158,230,0,50,97,37,41,76,19,62,52,0,248
86,71,0,0,58,19,21,21,2,18,14,8,112
148,88,0,13,178,17,14,7,7,26,30,0,326
249,400,0,86,273,59,82,94,37,50,93,0,593
23,34,0,1,24,6,4,5,4,7,5,0,51
109,128,0,0,89,18,30,34,10,15,24,8,187
150,122,0,18,114,26,20,26,11,29,37,0,255
463,588,0,10,484,102,90,122,54,101,125,0,951
55,28,0,0,14,13,5,8,0,11,16,8,36
76,50,0,17,73,14,16,6,6,12,26,0,136
93,71,0,0,64,10,17,20,3,23,10,2,143
122,104,0,15,85,28,9,25,5,17,27,0,215
74,83,0,0,50,14,19,22,5,21,17,0,109
37,34,0,0,16,13,7,6,0,12,7,4,38
365,293,0,34,316,53,40,46,14,84,94,0,677
516,478,0,0,418,63,85,94,24,96,140,5,905
39,27,0,4,29,3,7,2,1,12,18,0,56
264,156,0,0,308,12,38,32,6,53,82,25,480
89,63,0,0,73,15,9,14,7,9,22,0,149
178,139,0,21,127,32,27,38,9,28,36,0,295
157,124,0,0,192,18,27,8,10,39,30,17,324
21,20,0,0,9,2,3,3,0,8,5,3,26
31,14,0,3,18,2,2,1,2,7,10,0,42
156,205,0,3,129,29,54,46,10,42,33,0,279
166,95,0,0,121,28,19,20,1,40,46,4,224
62,23,0,0,22,11,9,2,2,8,14,4,57
74,72,0,0,92,53,8,14,6,14,12,7,124
79,75,0,0,42,36,12,9,3,16,16,14,90
412,332,0,41,519,85,83,68,22,87,115,0,844
379,297,0,23,469,63,64,35,24,76,72,0,834
155,194,0,0,83,21,28,44,14,53,51,4,217
75,66,0,5,43,18,9,11,5,16,22,0,108
25,20,0,4,10,17,2,3,1,4,5,0,27
36,25,0,0,23,3,7,12,0,14,8,0,40
122,122,0,25,90,27,39,28,6,24,38,0,197
113,185,0,18,88,15,39,53,19,28,42,0,208
112,62,0,0,65,21,11,14,2,22,30,6,133
47,18,0,0,43,2,5,9,2,11,9,3,67
79,48,0,0,88,9,16,7,2,13,24,4,140
124,83,0,11,118,23,18,16,2,20,19,0,238
149,150,0,15,128,36,50,39,9,26,43,0,239
240,174,0,14,177,39,26,38,12,77,60,0,353
43,43,0,5,21,24,10,4,0,10,4,0,60
42,49,0,9,45,8,16,12,2,6,17,0,84
136,54,0,0,104,6,21,5,3,29,40,9,181
467,362,0,1,431,69,84,79,16,106,138,0,769
126,166,0,41,115,35,40,46,10,32,24,0,261
22,22,0,0,5,11,5,0,0,7,2,3,21
86,84,0,6,83,13,12,18,1,23,35,0,157
39,21,0,3,14,11,3,4,0,15,15,0,29
113,82,0,10,69,10,10,23,7,44,27,0,153
123,89,0,0,102,29,15,24,5,26,27,11,177
149,329,0,63,120,89,47,79,28,43,38,0,337
104,101,0,4,84,29,13,26,5,9,29,0,182
93,73,0,0,91,25,36,17,1,12,25,1,140
235,324,0,46,659,56,53,122,17,47,72,0,897
222,253,0,0,311,33,31,75,13,69,47,47,471
209,199,0,32,287,31,25,70,3,45,36,0,517
204,184,0,0,239,34,31,58,2,49,41,9,403
286,207,0,0,227,26,35,47,11,51,70,30,450
213,269,0,0,183,40,33,115,6,51,50,3,367
237,178,0,11,233,20,27,49,3,52,53,0,455
173,207,0,22,126,38,32,76,13,55,53,0,261
250,257,0,0,217,40,27,70,13,59,61,6,448
23,18,0,4,14,5,8,0,1,3,8,0,34
22,21,0,0,89,1,4,6,0,6,9,7,99
211,183,0,0,231,21,30,76,13,50,49,16,370
207,204,0,0,251,30,43,59,7,55,44,19,405
33,29,0,0,32,2,0,5,0,7,5,12,63
103,79,0,20,98,13,12,63,3,22,25,0,162
22,11,0,1,13,2,1,8,1,7,4,0,24
252,214,0,0,355,20,45,50,5,53,68,13,567
188,180,0,0,200,30,31,44,5,25,46,22,365
241,267,0,131,230,57,60,110,19,61,67,0,495
223,194,0,0,237,35,26,57,5,50,55,14,412
184,163,0,0,139,19,18,58,6,56,38,12,279
66,44,0,9,70,19,11,13,8,19,13,0,106
186,121,0,23,143,37,23,24,4,44,51,0,290
235,218,0,27,332,67,29,44,7,36,54,0,575
234,172,0,41,332,84,22,39,11,35,53,0,535
32,13,0,0,12,8,4,5,0,9,2,5,24
199,267,0,46,170,39,55,51,17,34,56,0,430
104,87,0,13,81,21,20,12,2,16,28,0,186
105,65,0,0,54,25,9,13,1,19,21,2,134
220,139,0,0,255,31,13,17,8,61,58,14,412
224,135,0,0,260,21,29,16,2,37,60,19,435
327,161,0,0,475,45,28,23,5,57,91,2,712
281,172,0,0,410,48,28,22,12,46,73,10,624
354,258,0,38,237,98,47,40,17,94,81,0,510
16,15,0,0,13,10,4,3,1,3,0,0,23
74,49,0,0,25,28,8,12,1,20,8,3,68
224,156,0,7,197,37,25,34,6,55,57,0,370
53,34,0,0,50,9,3,10,4,10,16,0,85
201,192,0,4,189,57,26,52,9,46,47,0,349
7,6,0,0,11,5,3,0,0,1,3,0,12
77,45,0,0,58,26,12,1,1,8,10,3,119
184,112,0,16,169,22,26,27,6,49,62,0,289
71,79,0,0,41,5,13,31,2,20,18,1,101
163,106,0,0,152,28,18,12,4,37,44,15,263
147,97,0,0,69,24,28,30,1,25,49,6,150
308,356,0,24,209,130,60,61,13,77,80,0,476
243,270,0,28,273,104,28,62,19,39,64,0,498
292,363,0,17,212,74,49,98,27,56,79,0,501
108,79,0,7,104,22,14,12,3,22,30,0,195
87,155,0,14,82,20,21,40,24,27,26,0,180
285,462,0,46,258,64,74,86,108,73,86,0,560
318,487,0,15,417,70,84,91,109,80,91,0,712
327,456,0,0,283,54,65,70,61,68,78,39,631
453,587,0,65,302,96,121,140,46,135,128,0,741
270,309,0,13,214,60,59,58,25,55,65,0,484
48,46,0,0,51,5,7,15,2,14,11,1,90
81,55,0,5,39,4,17,10,1,14,14,0,120
334,342,0,0,385,86,45,48,17,77,72,7,709
415,325,0,0,366,66,47,54,19,102,110,35,673
206,153,0,21,224,29,28,27,7,49,78,0,386
249,174,0,33,185,29,45,43,11,40,62,0,411
36,24,0,5,30,9,2,6,1,11,12,0,54
172,118,0,0,200,30,11,22,6,30,57,30,304
80,53,0,21,30,36,6,3,3,17,27,0,92
139,166,0,11,150,30,35,17,24,26,48,0,286
107,130,0,47,93,30,23,45,10,29,27,0,213
59,39,0,5,35,10,2,12,2,9,20,0,83
263,141,0,0,315,25,22,36,7,46,58,32,493
279,102,0,25,372,11,24,26,3,56,72,0,586
39,18,0,4,41,2,6,4,2,9,11,0,68
35,18,0,7,30,3,2,5,0,9,10,0,61
239,171,0,0,293,29,39,32,8,62,64,9,460
226,225,0,32,181,56,45,48,7,50,60,0,398
33,20,0,6,35,0,7,10,2,22,10,0,43
160,107,0,39,130,6,11,79,3,73,25,0,239
263,261,0,121,1227,136,39,33,11,52,45,0,1556
329,261,0,23,309,194,33,24,11,80,57,0,523
319,264,0,0,454,139,34,25,8,54,53,19,705
397,344,0,34,245,213,38,39,9,114,63,0,544
217,144,0,0,315,91,22,17,10,38,43,24,431
315,377,0,10,329,228,30,58,11,66,62,0,576
144,174,0,0,139,78,21,27,9,29,18,26,249
503,361,0,27,332,260,30,43,10,109,86,0,685
159,109,0,0,91,78,6,13,2,13,22,9,216
360,220,0,0,220,139,26,15,3,77,64,7,469
443,284,0,0,283,192,31,11,11,88,81,10,586
264,214,0,0,197,106,22,22,2,56,47,20,400
245,230,0,0,206,131,10,18,2,58,62,24,376
305,190,0,0,246,121,14,18,11,61,49,32,435
307,222,0,0,240,101,22,17,6,63,52,29,479
277,195,0,10,270,95,17,17,9,59,67,0,488
286,175,0,0,266,101,25,11,3,57,47,13,470
59,48,0,0,52,34,3,3,0,12,10,5,92
227,188,0,36,105,133,23,17,5,60,34,0,284
232,276,0,0,334,173,27,42,4,35,51,63,447
384,360,0,35,380,234,44,44,4,103,97,0,633
343,336,0,5,255,189,30,42,5,94,62,0,517
327,449,0,39,282,269,44,65,20,76,81,0,542
360,261,0,0,394,168,31,29,9,66,63,10,639
327,295,0,0,255,178,20,37,8,73,55,25,481
165,203,0,35,261,138,13,35,6,37,45,0,390
330,340,0,0,348,156,38,41,5,62,54,49,613
234,207,0,0,160,111,17,18,12,53,37,23,330
343,261,0,0,432,162,22,19,13,83,56,19,662
63,75,0,12,49,20,16,7,7,22,18,0,109
27,25,0,0,18,10,2,4,2,4,4,4,40
37,26,0,14,19,9,7,3,0,6,11,0,60
90,48,0,2,87,25,8,5,4,22,17,0,146
164,114,0,6,156,42,9,11,1,29,35,0,313
88,49,0,7,89,18,10,4,1,18,27,0,155
97,248,0,53,91,27,38,122,20,19,13,0,250
180,196,0,0,141,13,23,91,7,30,32,12,309
158,171,0,113,263,23,30,100,8,26,53,0,465
333,424,0,6,483,51,53,231,18,56,74,0,763
145,180,0,4,482,8,21,89,2,20,24,0,647
333,464,0,90,288,55,57,269,15,63,77,0,639
347,301,0,0,398,19,30,151,3,58,61,26,698
28,25,0,0,33,10,11,8,0,9,8,2,38
55,40,0,2,64,18,7,5,2,19,9,0,101
146,210,0,24,212,45,38,40,13,26,57,0,373
188,135,0,24,128,80,10,17,3,40,33,0,292
80,38,0,4,66,14,7,1,3,15,29,0,119
436,321,0,39,391,90,40,60,16,110,87,0,784
87,106,0,0,98,22,12,8,10,25,18,5,191
237,248,0,34,203,98,29,42,8,51,61,0,433
255,251,0,13,237,138,39,43,5,65,49,0,417
272,398,0,46,295,114,57,78,49,55,70,0,588
292,446,0,33,329,87,68,100,34,75,73,0,663
44,85,0,4,88,21,12,18,19,5,12,0,134
179,227,0,4,220,49,43,39,22,34,44,0,399
247,422,0,0,216,89,65,95,51,47,68,43,427
202,256,0,0,188,47,39,55,34,58,38,16,359
205,288,0,31,478,48,48,66,37,41,37,0,725
178,231,0,0,204,68,33,34,17,43,53,5,360
41,15,0,0,28,8,5,3,1,10,7,6,44
31,20,0,2,25,14,6,2,1,4,5,0,46
79,26,0,0,91,9,4,6,4,9,18,2,144
32,29,0,9,18,1,4,4,2,5,12,0,60
123,136,0,1,141,51,10,23,11,19,28,0,259
119,76,0,2,80,8,13,20,4,29,13,0,190
149,125,0,0,122,56,16,20,8,41,28,14,213
52,36,0,0,30,5,6,1,5,12,14,6,69
74,81,0,0,47,22,6,8,5,27,10,2,122
67,55,0,0,112,10,11,5,2,12,23,13,158
127,141,0,13,104,72,15,13,4,26,28,0,227
155,269,0,0,164,52,39,78,48,45,20,9,297
68,41,0,10,49,14,14,8,1,13,14,0,104
60,51,0,8,48,25,6,13,7,12,10,0,94
148,134,0,3,194,36,29,14,10,42,33,0,315
256,224,0,17,226,95,30,23,10,38,39,0,488
59,34,0,0,36,15,6,5,0,14,7,5,77
86,26,0,0,52,19,3,1,2,11,13,3,112
65,55,0,1,93,28,14,7,0,11,19,0,135
45,60,0,9,47,18,15,8,3,12,14,0,91
298,326,0,0,269,80,52,73,26,57,68,0,537
250,374,0,72,251,111,44,88,37,57,48,0,562
233,303,0,0,383,80,52,52,21,36,58,22,598
261,236,0,0,286,78,39,50,5,42,52,21,496
282,243,0,0,231,82,20,36,6,60,61,7,484
192,314,0,18,150,76,59,81,9,35,54,0,360
37,13,0,8,19,4,2,3,1,6,10,0,51
261,167,0,24,152,71,26,24,3,58,43,0,379
116,98,0,0,108,17,14,13,8,33,31,5,201
135,126,0,9,125,57,12,10,10,29,29,0,248
85,62,0,0,103,19,8,3,1,16,23,8,172
104,67,0,6,60,31,6,7,3,13,22,0,155
89,64,0,0,95,35,6,7,2,17,9,7,165
37,32,0,2,13,14,4,4,0,5,12,0,45
73,37,0,11,63,24,11,7,1,22,22,0,97
126,92,0,7,43,65,17,8,3,37,31,0,107
71,95,0,16,92,42,14,11,4,16,19,0,168
381,271,0,43,322,165,29,33,12,87,67,0,624
100,117,0,0,87,32,14,19,4,21,24,7,183
95,68,0,0,85,24,9,5,2,14,26,4,164
71,44,0,0,36,13,7,11,2,15,12,19,72
51,35,0,9,50,7,8,5,6,14,5,0,100
57,22,0,0,52,8,2,1,1,17,12,8,82
128,102,0,0,116,19,17,15,11,30,21,4,229
276,155,0,12,184,61,11,23,5,84,52,0,391
527,282,0,37,585,132,33,47,17,108,104,0,990
191,200,0,3,142,101,24,23,8,47,35,0,298
82,66,0,5,53,10,14,6,12,30,23,0,111
146,243,0,28,204,85,47,51,21,36,30,0,351
357,277,0,28,296,161,27,31,19,77,85,0,558
130,102,0,12,65,64,15,16,6,19,25,0,164
176,98,0,19,126,32,16,17,6,36,29,0,283
41,20,0,0,14,17,4,1,3,16,2,3,29
161,123,0,8,93,50,14,28,6,53,37,0,197
89,143,0,13,155,34,20,40,10,15,29,0,252
181,330,0,5,201,52,75,83,20,38,64,0,385
54,56,0,9,44,15,7,11,2,15,10,0,103
198,148,0,12,156,83,17,24,5,43,41,0,301
304,191,0,0,266,79,32,44,5,60,58,2,481
49,90,0,3,56,30,10,17,6,14,9,0,112
44,56,0,7,58,13,12,4,5,10,7,0,114
221,295,0,28,226,99,49,38,22,66,46,0,450
177,91,0,0,195,32,9,12,6,36,33,3,332
16,32,0,1,31,10,5,7,5,3,6,0,44
89,101,0,7,124,8,11,19,7,25,15,0,236
81,37,0,19,40,24,15,7,4,8,12,0,107
133,125,0,34,128,45,13,22,7,41,44,0,248
361,229,0,8,188,120,32,26,8,76,77,0,447
124,97,0,19,133,26,21,20,13,25,24,0,244
53,112,0,7,53,30,25,12,9,22,18,0,109
168,201,0,6,156,63,37,30,11,36,46,0,308
33,40,0,10,15,9,7,27,1,5,11,0,38
67,42,0,14,43,13,15,1,5,20,14,0,98
57,47,0,3,37,17,9,5,3,18,15,0,77
202,199,0,0,173,67,28,28,5,46,45,21,334
268,216,0,0,311,82,40,31,6,46,60,10,520
77,19,0,0,30,10,6,3,0,15,17,6,69
101,41,0,0,51,17,4,5,2,31,19,12,103
84,46,0,3,73,32,5,2,3,20,14,0,130
59,52,0,5,55,38,8,4,0,22,9,0,90
337,343,0,16,223,141,50,44,15,80,71,0,518
197,189,0,11,236,92,19,18,8,41,33,0,422
630,608,0,41,617,222,84,75,33,141,120,0,1221
141,100,0,25,80,52,12,16,5,33,35,0,193
302,221,0,18,286,107,27,30,2,61,57,0,543
31,13,0,3,38,6,2,8,2,9,13,0,45
34,58,0,0,57,8,12,5,2,10,7,10,95
88,90,0,0,106,21,5,10,2,23,32,18,173
105,83,0,6,168,14,13,14,7,24,20,0,270
36,80,0,0,45,24,8,19,1,11,13,0,85
165,88,0,2,162,38,8,15,3,35,26,0,292
119,56,0,3,120,18,11,6,1,16,44,0,202
143,231,0,46,132,62,29,70,23,53,31,0,284
32,70,0,10,22,8,13,28,9,9,10,0,57
34,19,0,10,35,7,8,3,2,8,4,0,66
50,28,0,4,49,7,3,4,0,10,13,0,94
192,196,0,0,244,65,15,29,2,36,47,0,438
203,162,0,10,186,65,18,16,4,37,56,0,365
25,29,0,5,23,13,10,4,0,4,3,0,48
441,262,0,26,400,80,31,27,8,80,57,0,846
35,21,0,0,81,7,7,1,0,4,14,8,96
128,235,0,0,188,69,43,44,11,36,42,0,306
178,164,0,21,137,44,19,49,4,46,39,0,299
219,178,0,0,157,51,18,49,6,61,47,15,307
278,306,0,0,209,119,37,82,9,59,61,20,406
320,223,0,9,233,41,31,27,10,72,83,0,521
316,193,0,20,230,52,39,32,3,75,73,0,485
341,233,0,0,313,54,34,24,6,82,62,40,585
365,206,0,0,357,54,18,47,10,51,63,53,632
56,44,0,0,50,12,11,10,2,13,14,1,87
113,186,0,11,77,67,16,58,1,36,28,0,181
280,286,0,23,216,104,59,43,5,65,77,0,452
313,311,0,7,236,104,57,66,12,83,83,0,462
452,549,0,6,273,180,73,142,17,107,129,0,632
98,222,0,0,899,51,20,56,11,16,26,1,1038
97,163,0,0,177,71,27,31,6,18,31,6,247
139,157,0,0,138,42,22,32,9,32,29,18,250
211,302,0,61,175,105,44,74,9,55,56,0,406
227,216,0,21,186,70,39,34,6,43,68,0,390
271,377,0,0,280,114,65,76,13,56,74,0,530
300,205,0,0,277,64,25,25,3,68,62,31,504
183,170,0,0,128,40,24,20,3,41,33,52,268
225,207,0,0,213,49,39,35,9,43,55,5,410
201,185,0,0,207,45,36,38,3,41,39,45,346
33,34,0,8,32,11,6,4,2,15,3,0,66
49,28,0,0,41,7,6,6,1,19,14,9,56
51,22,0,0,34,13,3,4,1,15,7,0,64
133,60,0,0,89,17,8,2,5,49,11,11,179
164,77,0,0,103,25,10,9,3,35,27,9,226
217,156,0,13,122,45,29,23,3,27,83,0,298
186,179,0,16,143,60,36,26,5,41,83,0,273
239,219,0,35,462,92,22,42,11,49,67,0,672
420,326,0,117,251,104,42,46,17,98,113,0,694
357,238,0,0,295,87,16,23,7,74,79,34,570
297,248,0,0,280,94,34,42,3,56,83,12,501
321,282,0,0,285,90,41,48,5,56,96,49,503
261,253,0,0,324,102,32,40,3,61,70,17,513
47,32,0,0,28,12,3,4,0,11,16,2,59
32,10,0,0,2,4,4,4,0,3,5,4,20
81,51,0,0,58,14,7,2,3,14,11,11,128
234,128,0,16,171,56,25,20,0,43,31,0,374
141,123,0,0,121,39,19,14,3,31,18,27,234
83,93,0,1,44,16,17,28,6,12,22,0,120
136,114,0,0,95,38,16,12,1,27,16,12,223
78,54,0,12,66,21,8,13,0,18,21,0,129
97,63,0,9,79,20,9,18,3,28,20,0,150
69,74,0,0,74,29,13,13,1,22,9,0,130
124,63,0,0,83,22,3,9,1,15,23,2,195
129,88,0,7,123,35,14,12,3,16,34,0,233
240,141,0,24,182,46,22,17,11,72,60,0,359
65,42,0,1,30,2,10,9,4,7,16,0,90
201,247,0,0,199,94,24,31,4,52,41,27,374
35,15,0,0,10,3,4,6,0,12,2,8,25
25,16,0,0,15,6,7,2,0,5,10,1,25
106,76,0,3,101,25,13,5,0,25,21,0,197
73,71,0,0,39,6,9,19,7,10,27,1,104
22,13,0,6,14,8,2,0,0,11,4,0,30
104,77,0,0,99,27,10,9,3,21,19,3,188
179,154,0,15,192,52,28,24,3,40,38,0,355
39,60,0,12,43,24,13,6,2,15,12,0,82
31,26,0,0,17,14,2,11,1,5,8,1,32
282,229,0,0,239,84,45,34,6,62,71,6,442
39,33,0,7,31,12,9,7,6,12,5,0,59
94,63,0,10,57,11,9,11,6,25,24,0,138
158,101,0,0,125,26,13,15,4,37,46,26,217
9,28,0,0,11,13,7,4,1,4,3,1,15
36,45,0,0,44,23,8,15,2,7,12,3,55
67,138,0,0,73,43,23,45,3,17,23,2,122
136,111,0,6,144,50,22,11,3,38,17,0,256
33,34,0,0,24,3,11,6,2,8,8,4,49
75,49,0,5,42,17,6,7,1,11,19,0,110
34,30,0,3,13,9,5,8,2,12,9,0,35
243,201,0,9,247,86,23,39,5,37,42,0,468
93,23,0,0,35,6,10,4,1,11,22,0,97
48,56,0,10,17,10,14,18,6,15,17,0,51
104,66,0,0,72,24,6,9,3,25,10,8,157
75,57,0,0,46,19,11,12,3,12,22,0,99
65,28,0,12,43,10,4,6,1,26,11,0,90
78,20,0,0,43,12,5,5,0,20,22,6,71
100,58,0,11,75,26,9,20,3,18,19,0,149
36,44,0,9,24,16,8,12,0,5,13,0,59
221,120,0,10,161,35,18,15,4,60,62,0,318
133,52,0,5,124,20,7,8,1,18,25,0,235
155,148,0,0,167,51,21,25,3,25,38,25,282
90,56,0,0,52,18,8,5,1,21,16,2,127
60,37,0,6,43,19,3,8,0,16,14,0,86
48,47,0,0,36,14,9,4,0,9,17,0,78
187,242,0,5,171,86,25,44,16,47,43,0,344
161,155,0,6,147,50,28,32,3,37,42,0,277
293,280,0,0,394,79,54,40,15,72,65,124,518
318,243,0,117,291,67,47,33,12,63,69,0,678
38,8,0,0,18,1,2,1,0,10,6,0,44
28,14,0,0,22,4,6,0,1,3,0,0,50
45,30,0,0,24,7,1,8,2,13,3,9,56
93,65,0,0,62,24,9,16,1,29,31,8,102
75,77,0,23,86,21,20,13,5,20,17,0,165
379,270,0,0,290,107,43,50,13,93,72,2,559
174,185,0,17,143,21,46,55,11,53,60,0,273
72,61,0,4,51,7,11,17,4,10,7,0,132
63,80,0,6,54,11,27,14,10,21,21,0,99
122,75,0,3,121,15,17,12,2,46,24,0,205
218,147,0,9,151,44,28,14,6,49,30,0,354
313,267,0,24,316,92,52,51,5,75,56,0,589
262,174,0,0,256,59,27,25,6,58,39,5,473
362,291,0,0,251,102,31,40,7,81,67,24,552
44,40,0,6,28,25,10,5,2,12,6,0,58
27,23,0,1,26,11,5,4,0,12,2,0,43
23,13,0,3,13,8,6,1,0,12,1,0,24
71,37,0,0,50,16,6,0,0,9,26,6,95
122,93,0,0,71,31,29,7,3,30,20,4,162
110,63,0,0,76,17,17,3,2,33,14,0,163
189,95,0,7,137,30,12,7,4,41,28,0,306
17,18,0,5,32,6,4,7,2,4,5,0,44
23,19,0,5,22,14,5,0,0,5,5,0,40
20,25,0,1,15,9,8,9,1,4,1,0,29
86,41,0,0,75,19,8,5,3,20,15,1,131
71,37,0,0,93,12,7,5,1,16,16,0,144
140,115,0,14,121,35,15,10,3,25,24,0,278
32,18,0,1,10,8,1,3,0,9,4,0,36
62,27,0,0,44,6,6,4,3,18,10,3,83
128,102,0,5,94,34,16,18,11,28,25,0,197
89,30,0,0,55,9,9,5,1,7,37,2,104
110,65,0,9,73,25,17,3,1,15,31,0,165
306,172,0,11,184,55,27,27,8,84,53,0,419
467,264,0,50,519,81,47,35,18,63,81,0,975
72,18,0,0,20,6,11,5,1,26,15,0,46
212,167,0,2,179,60,47,20,6,42,49,0,336
168,82,0,1,122,36,10,10,2,18,31,0,266
22,5,0,3,6,0,0,0,0,5,4,0,27
56,28,0,0,36,3,4,7,1,6,15,3,81
385,295,0,20,302,80,48,52,11,67,57,0,687
54,27,0,0,24,8,3,5,0,16,12,12,49
184,112,0,0,137,33,11,18,7,48,36,7,273
342,278,0,33,287,133,50,30,18,68,42,0,599
361,291,0,0,436,90,37,39,23,62,65,20,752
30,21,0,0,17,12,2,2,0,8,3,3,38
23,15,0,0,14,5,1,1,0,0,4,3,38
37,22,0,0,21,14,4,1,0,8,11,1,41
297,171,0,1,282,65,23,33,6,60,58,0,506
310,221,0,0,352,69,37,14,4,99,55,12,593
46,9,0,0,25,8,1,2,0,11,6,9,43
77,61,0,1,77,17,12,8,0,21,15,0,143
39,12,0,0,11,5,1,3,3,11,4,1,34
205,180,0,23,163,80,28,38,11,30,37,0,347
60,26,0,0,33,13,5,3,0,9,6,9,74
238,93,0,7,208,15,11,21,7,49,59,0,384
189,98,0,0,148,22,6,18,6,26,43,6,308
208,244,0,1,209,46,32,71,17,53,51,0,392
299,311,0,0,275,40,32,76,17,63,59,24,574
319,287,0,0,314,29,50,51,14,76,58,15,627
200,239,0,9,216,25,43,50,18,32,60,0,436
324,422,0,30,348,74,65,135,12,78,78,0,682
219,248,0,32,249,37,45,80,16,55,67,0,448
219,271,0,19,274,34,52,60,5,39,52,0,541
164,142,0,0,191,8,19,24,9,41,41,8,347
240,241,0,0,250,40,28,44,17,63,67,9,463
198,242,0,0,220,23,52,45,17,44,40,39,400
259,334,0,0,250,32,42,77,10,71,81,38,492
195,254,0,0,115,34,35,88,7,46,47,39,268
214,276,0,0,171,42,34,93,6,43,63,20,360
148,274,0,54,816,46,39,87,20,23,34,0,1043
361,457,0,28,341,60,99,138,16,78,115,0,681
273,414,0,1,229,58,63,140,22,66,76,0,492
119,163,0,16,100,25,18,47,13,29,32,0,234
200,243,0,28,233,38,40,56,12,43,46,0,469
169,174,0,0,230,17,19,39,6,40,53,25,374
246,285,0,0,233,31,35,67,8,58,58,109,398
60,125,0,0,62,20,17,43,9,37,12,1,108
85,45,0,6,47,6,5,7,2,24,20,0,119
29,18,0,5,22,7,4,2,1,13,5,0,42
91,66,0,23,112,13,18,17,8,19,32,0,185
345,324,0,3,384,54,63,96,18,66,79,0,680
333,277,0,61,290,56,48,52,10,54,79,0,662
182,165,0,20,170,19,36,33,13,45,37,0,354
69,51,0,0,54,8,8,10,1,26,17,1,103
106,53,0,0,94,10,6,8,3,38,33,0,155
292,237,0,49,368,37,38,41,9,55,81,0,685
123,92,0,4,159,15,26,13,2,36,19,0,267
223,271,0,0,247,41,49,84,9,60,35,4,459
40,18,0,5,49,2,16,2,4,3,15,0,70
311,241,0,4,294,29,33,44,14,68,65,0,597
41,31,0,10,25,4,4,11,1,7,18,0,62
67,73,0,1,86,3,8,13,4,29,19,0,151
72,124,0,28,110,19,14,31,6,23,15,0,226
139,86,0,0,165,14,12,17,5,40,35,13,254
74,46,0,3,57,8,8,16,2,19,20,0,107
104,60,0,0,104,10,15,9,1,22,19,11,181
151,122,0,0,160,22,15,26,9,49,40,8,264
36,36,0,21,34,6,8,3,9,19,8,0,74
59,87,0,0,50,13,18,21,1,29,27,0,87
68,98,0,2,74,23,17,23,5,26,20,0,128
61,27,0,6,38,12,11,6,3,19,13,0,68
316,397,0,34,404,65,62,91,21,59,88,0,765
25,24,0,0,37,4,1,2,2,4,8,12,53
64,79,0,7,78,20,11,13,3,9,30,0,142
56,57,0,15,62,13,9,14,3,6,13,0,132
118,153,0,2,103,17,28,51,5,30,26,0,219
233,359,0,38,248,48,72,103,25,49,38,0,543
290,291,0,0,315,27,35,99,10,44,81,22,578
258,275,0,31,427,28,51,97,20,52,49,0,694
88,94,0,0,60,23,20,9,1,33,18,3,135
169,199,0,5,153,42,25,37,10,31,37,0,344
182,199,0,0,183,42,30,39,10,42,38,12,351
237,251,0,0,267,62,25,76,3,50,42,6,491
297,370,0,6,555,76,55,90,12,48,75,0,872
226,204,0,0,275,41,22,45,6,53,50,28,460
231,235,0,0,199,48,46,55,4,59,52,14,387
285,368,0,0,273,79,64,49,10,70,60,32,562
281,250,0,0,825,68,52,61,12,32,60,1,1070
157,181,0,0,187,31,39,32,4,34,59,8,318
256,286,0,0,306,65,55,59,10,55,63,10,531
236,269,0,6,239,37,41,46,6,49,68,0,503
254,221,0,0,222,36,28,41,10,80,46,6,450
196,255,0,87,235,63,38,52,10,64,56,0,490
296,382,0,0,209,100,54,90,22,64,75,7,475
236,310,0,0,236,82,38,101,8,61,57,0,435
155,131,0,29,125,22,19,40,6,55,28,0,270
224,328,0,58,238,110,60,88,13,42,51,0,484
246,381,0,0,231,72,60,108,32,54,75,6,451
45,90,0,13,75,11,9,42,7,17,11,0,126
177,151,0,9,185,24,20,30,7,40,40,0,361
102,171,0,6,90,20,33,74,6,32,25,0,179
63,49,0,0,46,19,2,10,2,16,13,6,90
43,22,0,0,37,7,2,4,1,3,18,3,64
249,184,0,0,294,30,50,31,9,37,45,1,524
96,87,0,8,69,26,26,23,5,18,24,0,138
377,277,0,0,504,31,35,69,9,76,67,24,847
137,91,0,1,110,40,16,28,1,28,17,0,209
135,186,0,19,153,44,19,48,6,30,39,0,307
122,58,0,4,134,16,17,13,0,24,42,0,206
134,114,0,0,207,15,20,30,8,19,34,5,324
380,399,0,0,401,70,44,77,43,80,63,7,796
125,84,0,7,127,11,9,17,6,26,23,0,251
86,218,0,26,126,43,43,34,13,9,28,0,286
151,153,0,0,126,39,40,19,4,47,37,7,237
205,210,0,10,213,64,39,55,15,45,61,0,359
301,258,0,0,331,30,43,49,10,67,70,25,596
334,210,0,0,277,29,26,42,5,74,62,15,568
476,221,0,85,1503,22,33,50,14,89,85,0,1992
341,378,0,0,380,32,50,138,23,91,73,13,679
158,134,0,0,170,9,30,29,7,51,31,4,301
111,71,0,1,123,11,6,28,3,12,26,0,220
164,227,0,3,171,25,35,53,15,41,33,0,363
368,472,0,0,276,60,46,164,19,101,78,39,609
334,347,0,0,336,48,50,109,14,89,58,10,639
258,311,0,2,201,30,51,85,6,66,48,0,486
270,269,0,0,317,30,48,58,13,56,61,36,554
298,257,0,0,242,34,28,87,4,65,68,24,487
252,236,0,0,319,52,40,51,7,76,51,27,503
296,331,0,0,281,29,68,94,24,58,69,23,543
44,27,0,0,33,7,4,6,1,12,3,0,71
65,42,0,14,63,12,7,23,2,25,15,0,100
103,75,0,0,77,29,13,12,3,21,21,15,141
121,102,0,6,117,23,17,18,2,31,28,0,227
69,78,0,8,68,23,14,18,4,27,21,0,116
66,37,0,0,50,9,6,7,1,14,19,1,96
326,365,0,97,329,58,55,146,17,76,84,0,681
109,138,0,5,142,28,24,37,4,32,44,0,225
41,25,0,3,33,5,2,5,3,7,12,0,68
39,35,0,0,33,11,2,10,2,14,9,1,58
140,133,0,0,140,39,11,25,3,45,25,8,257
132,78,0,41,148,16,22,16,8,24,42,0,271
35,39,0,0,35,14,4,12,2,8,10,2,57
103,69,0,2,93,21,7,9,2,33,18,0,177
147,169,0,27,134,28,34,31,5,33,51,0,295
263,267,0,25,317,27,39,81,11,53,117,0,544
156,137,0,13,152,13,20,37,6,42,38,0,302
252,191,0,0,244,52,29,46,7,47,64,9,433
49,51,0,0,49,11,5,15,3,7,17,1,90
47,55,0,6,28,11,2,24,3,7,22,0,67
192,164,0,13,189,36,23,52,1,42,56,0,348
509,663,0,101,423,155,133,138,24,134,143,0,969
221,137,0,5,210,31,25,35,1,55,57,0,369
61,64,0,0,44,14,9,14,1,19,16,0,96
39,12,0,0,21,6,0,0,0,8,19,3,36
144,114,0,5,197,22,16,31,2,37,37,0,315
104,87,0,14,85,19,22,31,4,17,19,0,178
180,188,0,1,180,37,29,47,14,36,55,0,331
385,331,0,0,495,48,60,86,16,96,63,1,841
110,83,0,0,144,15,12,25,7,27,11,20,220
137,98,0,15,138,16,18,23,6,27,39,0,259
97,79,0,0,141,12,12,24,1,18,31,20,199
241,304,0,43,178,106,48,69,17,56,63,0,407
121,122,0,3,124,23,14,26,8,34,32,0,233
107,124,0,4,172,15,17,25,6,26,33,0,285
325,310,0,0,351,49,46,61,24,86,95,18,607
218,302,0,0,195,36,27,44,19,73,50,57,409
282,406,0,13,295,76,62,85,36,82,85,0,570
206,283,0,0,229,40,54,61,22,60,55,16,410
136,155,0,0,123,21,18,30,10,31,31,41,232
148,161,0,0,173,27,22,34,16,29,39,31,284
253,278,0,11,233,47,35,58,40,81,61,0,453
279,180,0,0,301,33,24,25,8,76,50,38,506
286,360,0,0,245,52,69,76,31,63,90,39,471
103,153,0,0,138,18,22,37,14,33,33,30,207
197,274,0,0,1222,24,53,75,38,42,55,13,1393
272,411,0,0,279,76,56,91,44,77,58,18,542
199,182,0,0,231,21,27,38,20,43,46,34,383
217,164,0,0,187,28,28,22,14,40,49,37,350
301,255,0,0,314,47,33,38,19,72,73,28,560
320,227,0,0,338,23,34,41,17,61,78,31,600
285,270,0,0,286,33,29,45,14,76,72,40,532
295,312,0,0,387,33,41,43,25,75,63,70,644
232,329,0,0,268,53,63,45,35,44,59,10,520
307,275,0,0,240,38,39,48,20,78,62,26,511
412,514,0,0,318,72,58,105,46,130,114,35,684
258,164,0,0,243,34,26,31,12,55,63,17,427
322,239,0,0,249,25,32,41,18,87,67,41,499
227,258,0,0,221,35,35,58,33,75,60,0,410
292,188,0,0,253,28,26,37,18,51,67,29,477
236,223,0,0,223,41,20,31,22,63,57,14,434
139,87,0,1,388,8,8,14,7,38,43,0,497
256,197,0,0,200,34,26,48,12,65,46,28,394
270,326,0,0,287,62,48,65,37,77,64,27,503
228,170,0,0,186,23,23,35,16,53,60,33,341
238,164,0,0,214,21,30,16,16,74,49,53,357
163,133,0,0,131,21,11,18,22,26,33,28,268
170,240,0,0,171,42,26,63,35,32,72,30,281
150,236,0,46,129,46,41,80,19,53,47,0,275
37,52,0,6,38,12,3,9,7,12,20,0,70
83,97,0,0,49,25,14,25,8,22,13,2,120
45,22,0,0,55,5,7,3,1,6,9,6,85
54,55,0,21,16,8,8,20,5,18,9,0,78
83,117,0,12,188,24,16,29,13,25,21,0,272
348,457,0,0,297,72,73,97,59,104,99,30,568
218,281,0,0,203,42,36,65,32,62,43,44,378
192,272,0,0,160,47,21,54,12,46,52,67,325
228,226,0,0,170,53,20,52,15,55,74,24,331
284,403,0,5,193,96,51,114,36,93,99,0,396
8,29,0,3,14,5,1,3,20,0,4,0,21
20,22,0,0,28,7,2,3,1,3,2,0,52
79,82,0,16,50,20,12,23,16,23,19,0,114
24,28,0,2,8,6,4,10,3,9,7,0,23
47,44,0,9,28,17,4,10,6,23,12,0,56
197,140,0,15,133,21,18,19,21,40,44,0,322
342,359,0,2,227,80,50,74,36,94,74,0,522
233,254,0,0,177,65,29,26,20,58,61,10,395
435,383,0,0,472,94,50,62,54,100,86,27,817
46,46,0,13,49,4,18,3,4,17,23,0,85
236,130,0,0,183,22,19,21,10,37,37,3,400
235,240,0,20,271,44,38,47,21,53,51,0,512
322,244,0,0,424,34,42,39,20,69,52,11,723
543,425,0,0,392,63,62,63,29,186,111,72,774
91,87,0,7,95,11,10,51,2,27,19,0,160
129,135,0,21,98,24,22,50,7,32,39,0,209
371,385,0,0,342,35,35,153,27,91,80,60,617
436,423,0,0,475,40,54,160,18,100,101,26,835
299,323,0,0,355,28,28,160,11,74,58,17,601
348,540,0,0,658,64,58,237,30,91,76,32,958
245,162,0,0,278,121,15,22,6,61,52,3,405
135,86,0,0,74,16,9,21,11,27,28,2,181
25,20,0,0,65,0,0,6,0,12,11,7,74
48,22,0,12,35,10,5,4,3,20,4,0,71
145,117,0,8,114,47,18,30,3,40,23,0,223
335,214,0,0,282,34,35,41,9,68,69,11,564
119,130,0,0,82,45,28,31,3,28,26,3,167
249,281,0,22,201,65,37,63,26,67,79,0,416
181,172,0,0,199,34,29,22,14,43,52,9,349
82,63,0,0,99,7,10,4,3,15,22,1,182
149,116,0,6,184,14,16,28,2,22,40,0,333
218,202,0,14,191,48,28,52,6,31,59,0,401
99,141,0,2,87,41,22,32,11,28,28,0,167
57,45,0,1,36,8,13,11,6,24,10,0,67
63,76,0,9,49,16,10,16,6,20,21,0,108
56,37,0,5,31,10,8,13,1,23,20,0,54
29,47,0,0,16,12,6,6,3,9,14,1,41
43,46,0,0,23,7,2,11,4,7,18,1,62
103,48,0,0,47,7,5,6,4,36,34,1,105
287,304,0,13,328,35,49,64,34,82,98,0,570
197,225,0,0,165,38,45,37,9,51,49,5,353
86,100,0,0,81,24,16,16,2,27,43,0,139
50,56,0,0,53,16,7,5,4,14,15,10,88
68,41,0,7,54,12,7,9,6,28,11,0,97
287,292,0,32,222,75,45,59,8,88,68,0,490
322,214,0,12,290,56,43,52,15,78,48,0,546
64,30,0,0,97,13,9,4,2,9,29,7,118
110,78,0,9,82,22,12,30,1,29,18,0,167
93,53,0,22,60,21,10,10,2,23,18,0,144
159,116,0,15,152,14,23,27,9,39,31,0,299
71,66,0,0,57,19,14,5,1,14,22,3,116
178,192,0,1,147,36,16,40,12,35,66,0,313
18,26,0,0,23,4,3,7,3,0,11,1,38
100,82,0,1,92,24,31,12,1,17,23,0,167
58,46,0,4,43,5,11,7,0,14,8,0,106
201,190,0,163,278,33,40,45,21,48,45,0,600
119,117,0,0,120,19,15,27,7,38,42,4,204
142,119,0,9,96,32,26,16,11,47,39,0,195
231,158,0,18,235,38,29,15,7,53,61,0,439
236,253,0,0,237,75,51,28,12,36,58,11,455
68,64,0,11,69,13,19,9,3,12,24,0,132
33,22,0,0,27,7,6,2,1,0,9,1,56
85,53,0,2,29,22,6,3,5,21,14,0,98
377,460,0,15,298,108,68,85,30,113,78,0,668
143,105,0,6,97,19,7,39,9,39,21,0,217
65,53,0,0,58,11,7,2,8,21,13,13,101
116,148,0,6,116,26,33,32,6,35,41,0,213
116,124,0,7,108,14,16,62,1,49,13,0,200
57,41,0,0,52,4,4,9,0,21,22,2,88
148,153,0,0,177,29,40,39,12,22,34,4,298
31,18,0,0,33,8,2,4,1,9,9,0,49
65,41,0,11,84,4,5,7,0,16,12,0,157
84,53,0,9,75,10,8,8,5,14,13,0,163
76,48,0,3,71,12,10,5,5,22,13,0,131
18,24,0,0,4,3,4,9,1,3,9,1,16
112,98,0,0,94,29,21,17,4,43,29,0,161
44,24,0,12,42,13,0,1,6,6,11,0,85
76,88,0,23,81,37,15,26,14,29,19,0,128
213,183,0,6,314,37,54,28,14,42,50,0,491
35,21,0,0,30,4,5,6,0,8,19,1,43
287,237,0,20,301,48,47,34,10,64,68,0,574
229,256,0,10,167,93,28,37,9,58,52,0,385
187,205,0,0,147,86,36,38,11,41,31,9,287
200,328,0,116,268,177,53,48,24,50,59,0,501
203,282,0,0,435,90,27,44,10,38,51,19,641
197,149,0,13,158,82,13,17,6,34,31,0,334
59,60,0,0,28,33,11,9,5,8,5,0,76
95,126,0,0,112,44,20,21,2,29,19,30,168
92,79,0,0,72,35,11,10,2,23,20,1,141
352,375,0,0,254,127,45,78,13,92,65,36,525
334,245,0,1,271,103,41,26,9,66,66,0,540
295,271,0,0,295,110,37,41,5,62,53,49,504
53,52,0,8,35,17,6,9,7,14,24,0,71
123,143,0,0,66,28,7,40,11,24,34,9,179
76,84,0,21,40,15,19,12,17,34,22,0,102
101,73,0,0,41,13,9,6,1,34,24,18,110
100,79,0,11,52,15,35,17,5,41,21,0,108
218,218,0,104,155,39,40,62,15,53,81,0,405
118,136,0,0,120,21,23,27,5,41,37,3,217
159,208,0,24,172,21,27,68,8,43,19,0,377
171,220,0,5,150,34,38,40,31,69,41,0,293
159,221,0,20,164,50,38,33,17,47,47,0,332
96,119,0,0,96,35,24,18,2,23,19,4,186
182,172,0,12,202,40,26,43,7,59,40,0,353
162,159,0,1,110,25,25,42,5,44,27,0,264
89,83,0,21,42,19,25,17,7,27,20,0,120
56,37,0,0,52,19,13,2,1,13,9,1,87
111,119,0,0,73,26,17,15,6,31,29,14,165
46,12,0,0,29,6,4,2,0,4,9,7,55
75,46,0,9,44,17,6,2,3,18,24,0,104
180,165,0,21,191,36,33,22,13,33,56,0,364
254,236,0,9,175,76,36,32,11,73,55,0,391
79,82,0,0,29,24,14,18,2,10,17,2,103
103,79,0,0,67,25,10,13,2,21,17,5,156
97,102,0,15,119,15,28,27,7,21,33,0,202
102,84,0,1,84,22,10,20,3,27,38,0,151
139,163,0,12,176,45,10,43,15,41,25,0,311
231,321,0,0,213,66,52,65,32,53,47,8,442
326,389,0,0,235,106,50,69,33,93,79,8,512
254,333,0,11,805,83,46,54,21,76,70,0,1053
159,168,0,7,152,45,34,30,10,42,32,0,293
145,186,0,6,185,40,34,31,13,40,34,0,330
203,241,0,0,184,62,35,34,13,59,54,1,370
271,424,0,1,221,100,79,104,55,59,69,0,451
298,354,0,16,308,83,36,75,17,60,85,0,620
245,283,0,82,267,94,59,66,22,78,68,0,490
275,255,0,0,249,63,33,42,17,75,66,18,465
281,214,0,10,237,51,38,28,14,64,61,0,486
252,200,0,0,248,42,37,32,10,67,53,19,440
234,199,0,0,288,27,42,34,7,63,54,23,471
288,241,0,0,264,41,41,23,10,68,77,0,533
22,4,0,0,16,3,2,1,0,3,7,0,26
22,20,0,4,13,5,4,3,8,10,7,0,22
74,53,0,0,51,11,4,4,0,16,25,2,116
19,12,0,0,17,4,5,2,0,3,4,4,26
128,91,0,0,150,26,23,12,2,33,18,4,251
65,57,0,0,49,15,5,18,5,27,19,1,81
173,146,0,8,179,36,26,30,3,42,61,0,308
97,103,0,7,67,23,22,17,5,34,25,0,148
44,33,0,0,47,8,10,2,10,14,10,6,64
111,121,0,11,133,35,29,30,6,39,31,0,206
140,125,0,0,161,18,28,11,26,39,32,13,259
68,65,0,1,61,17,12,17,9,25,10,0,105
55,58,0,1,71,15,8,22,2,16,26,0,96
131,75,0,15,102,18,25,9,10,41,36,0,184
46,33,0,2,47,6,11,5,2,23,15,0,66
198,202,0,12,274,23,18,24,88,52,35,0,446
215,250,0,0,167,66,48,31,22,71,45,4,345
73,71,0,4,72,16,15,9,5,26,14,0,135
130,215,0,24,166,47,26,75,12,25,28,0,322
121,140,0,6,90,30,39,36,8,37,26,0,181
103,59,0,0,117,9,11,8,21,25,16,11,178
128,147,0,10,128,18,23,34,13,37,26,0,262
91,58,0,1,116,11,8,10,5,25,23,0,184
91,124,0,11,71,26,30,22,13,23,20,0,163
171,116,0,0,131,27,19,20,9,43,34,7,259
22,10,0,0,11,2,1,1,0,7,7,0,25
15,15,0,2,10,4,6,9,1,3,5,0,14
154,78,0,0,108,24,24,2,6,18,28,1,237
20,17,0,4,34,8,3,3,3,12,2,0,44
245,239,0,3,186,81,37,38,6,70,40,0,401
24,19,0,0,13,7,3,3,0,8,6,5,24
25,12,0,2,26,2,3,2,1,12,4,0,41
71,37,0,0,62,4,10,8,8,17,19,4,100
311,451,0,81,261,80,96,105,39,108,71,0,605
71,97,0,0,65,27,20,9,5,22,12,0,138
156,142,0,7,155,37,23,23,7,28,28,0,314
220,148,0,3,231,36,20,19,9,67,67,0,384
101,127,0,14,85,35,26,21,11,36,35,0,163
45,10,0,0,15,5,2,2,5,10,12,0,34
347,183,0,48,303,48,40,24,15,101,82,0,571
42,29,0,0,6,5,5,8,6,19,5,10,19
386,317,0,0,349,85,58,45,14,114,89,35,612
28,27,0,1,13,5,8,3,2,9,3,0,39
103,118,0,26,80,13,32,20,14,27,25,0,196
233,302,0,0,177,45,51,50,14,50,70,9,423
229,314,0,0,534,140,46,35,11,20,46,31,748
241,371,0,32,240,199,60,64,29,62,58,0,412
223,323,0,0,230,123,49,37,12,44,67,29,415
320,379,0,32,285,198,55,51,23,68,83,0,538
305,458,0,0,273,265,85,49,19,56,68,0,494
346,547,0,73,272,343,70,69,25,85,84,0,562
310,517,0,51,251,276,80,75,22,80,88,0,508
40,39,0,0,34,13,9,4,0,10,10,3,64
29,38,0,7,18,23,8,19,0,4,6,0,32
122,79,0,6,103,25,10,12,6,36,16,0,205
270,183,0,0,187,35,33,25,9,57,41,0,440
278,209,0,0,354,35,25,34,16,52,35,69,575
285,207,0,0,252,35,52,36,17,58,37,9,500
30,25,0,0,19,7,7,6,0,11,10,4,29
26,10,0,0,17,1,3,0,0,5,6,6,32
84,72,0,1,83,28,8,8,3,17,15,0,161
77,72,0,0,81,18,13,12,3,8,29,5,142
174,291,0,46,278,72,59,62,10,24,58,0,504
355,471,0,57,1122,110,71,78,32,40,93,0,1581
309,399,0,33,348,51,65,103,24,81,95,0,670
359,325,0,14,439,57,69,71,20,68,89,0,763
203,192,0,108,464,68,35,42,19,36,72,0,695
395,453,0,183,658,80,102,55,18,70,120,0,1244
117,67,0,0,91,14,11,16,3,29,22,12,168
74,38,0,0,46,12,6,2,0,24,22,3,89
169,117,0,0,94,16,16,15,5,40,42,19,227
27,15,0,0,15,5,5,4,2,10,4,0,27
62,43,0,4,47,11,15,11,2,24,10,0,83
183,122,0,13,147,33,32,17,10,56,45,0,272
136,186,0,10,111,52,21,36,19,34,40,0,241
196,209,0,9,148,59,51,40,17,59,59,0,277
220,168,0,22,221,54,23,39,3,53,45,0,414
259,198,0,0,194,57,28,19,11,71,85,8,372
126,85,0,31,128,32,17,14,5,43,34,0,225
254,265,0,0,342,67,31,36,19,72,72,2,562
199,208,0,3,114,75,32,27,2,58,57,0,273
215,250,0,6,191,80,31,72,13,58,65,0,343
134,118,0,6,135,36,15,11,14,23,26,0,268
135,109,0,1,100,25,15,10,7,67,45,0,176
32,24,0,0,24,5,7,7,0,4,12,6,39
118,121,0,17,132,55,15,18,3,35,25,0,237
203,348,0,0,161,79,55,77,16,51,50,29,355
231,304,0,0,181,61,52,55,16,55,51,8,418
244,365,0,0,485,76,51,68,19,42,37,78,723
190,298,0,10,154,66,61,70,21,63,47,0,324
96,253,0,39,87,69,36,81,12,43,22,0,212
267,440,0,0,217,134,70,93,23,69,58,11,466
394,461,0,0,408,109,81,65,29,96,80,6,797
255,427,0,128,248,153,98,85,18,64,79,0,561
91,104,0,2,69,30,10,13,9,14,34,0,156
158,235,0,0,107,56,32,58,12,52,33,5,252
142,169,0,0,96,43,26,41,9,52,30,5,201
182,290,0,22,136,67,52,76,11,57,45,0,322
248,394,0,0,194,107,45,100,26,78,70,11,399
269,419,0,0,236,63,49,111,28,47,59,68,499
275,361,0,15,229,98,65,82,16,77,85,0,457
374,457,0,1,330,110,79,82,26,94,112,0,659
275,365,0,0,264,121,58,53,16,71,49,8,528
148,162,0,1,157,44,24,19,8,21,47,0,305
465,336,0,0,522,61,52,51,26,109,76,25,923
275,307,0,0,239,43,39,59,13,72,57,41,497
324,252,0,0,258,66,43,51,21,80,58,1,514
306,276,0,0,341,61,37,55,21,59,62,2,626
194,110,0,21,123,40,21,24,3,37,30,0,293
242,245,0,6,270,54,51,53,14,59,44,0,488
85,51,0,0,38,9,9,11,5,29,19,14,78
25,9,0,0,16,4,4,0,1,7,2,2,30
43,21,0,0,33,4,2,2,0,12,9,3,65
108,62,0,10,88,21,17,3,3,26,16,0,182
344,226,0,52,218,68,44,43,9,80,84,0,512
151,163,0,19,139,51,40,47,8,57,59,0,210
149,119,0,0,150,28,22,13,8,42,32,7,266
141,145,0,34,145,28,39,35,8,32,29,0,294
168,156,0,0,170,44,27,20,13,31,47,15,297
219,219,0,23,214,50,38,52,11,48,47,0,429
98,66,0,0,98,18,12,9,3,22,22,9,167
122,53,0,10,65,16,12,10,6,22,31,0,153
133,154,0,13,114,40,37,18,8,28,22,0,261
233,197,0,19,160,46,39,23,16,56,80,0,349
127,91,0,0,102,11,13,19,11,29,36,8,193
151,104,0,0,119,39,14,9,5,36,26,14,231
200,389,0,72,166,126,62,79,20,54,58,0,428
356,693,0,123,370,47,62,414,17,61,98,0,843
214,265,0,21,145,18,43,169,9,50,35,0,321
195,313,0,84,190,70,46,116,23,45,58,0,424
135,253,0,86,635,39,42,74,16,30,40,0,868
251,640,0,48,273,147,107,149,36,65,58,0,650
34,17,0,0,18,3,4,4,1,6,14,1,36
355,429,0,0,270,101,45,119,22,90,98,22,557
264,422,0,0,259,90,63,129,26,64,39,11,523
301,312,0,27,254,61,60,98,31,73,67,0,504
177,363,0,9,216,62,48,110,23,51,49,0,422
375,547,0,16,345,103,92,161,25,91,83,0,728
202,270,0,0,202,46,32,79,18,43,35,30,391
302,509,0,77,314,144,95,144,31,48,61,0,679
379,443,0,0,324,69,79,80,22,96,116,51,633
265,300,0,0,228,64,42,43,18,59,45,33,489
248,320,0,0,227,58,40,63,17,49,52,46,470
267,417,0,22,224,85,60,132,21,65,61,0,506
158,215,0,17,159,23,46,58,13,56,35,0,318
278,379,0,1,322,32,49,120,23,79,50,0,627
197,344,0,1,173,40,43,123,14,46,42,0,407
246,470,0,0,200,55,72,180,29,49,57,20,454
279,530,0,0,252,75,77,167,28,72,77,24,541
218,405,0,17,221,76,55,153,10,60,84,0,423
288,418,0,32,531,56,66,124,24,56,66,0,877
184,336,0,17,127,50,50,119,29,43,62,0,311
79,103,0,1,109,10,22,34,8,23,16,0,179
159,194,0,0,163,15,28,56,5,41,51,19,301
303,442,0,0,294,57,69,127,26,73,77,4,606
189,321,0,8,207,40,51,100,16,44,35,0,439
150,218,0,12,138,44,59,41,7,73,20,0,274
177,315,0,46,202,61,45,68,34,52,44,0,436
180,257,0,0,166,55,33,60,17,28,28,40,342
96,159,0,9,115,36,30,37,10,24,18,0,224
145,328,0,64,111,60,59,104,23,31,55,0,316
482,765,0,112,371,100,78,411,43,102,99,0,897
145,289,0,6,184,142,48,41,10,33,44,0,306
203,547,0,78,236,128,103,211,36,55,56,0,475
157,344,0,97,183,78,56,125,32,31,40,0,419
174,346,0,56,202,81,39,121,21,44,56,0,416
174,386,0,3,153,77,64,96,20,33,83,0,343
123,283,0,0,99,61,42,58,25,26,27,7,259
51,53,0,15,42,23,9,8,0,9,7,0,105
24,41,0,1,17,22,6,4,1,6,2,0,42
427,793,0,153,435,208,117,184,59,119,102,0,1019
419,779,0,5,403,185,147,171,48,110,111,0,834
299,733,0,18,433,113,74,368,31,62,76,0,759
248,408,0,30,296,78,57,187,21,40,64,0,535
71,110,0,39,97,14,12,44,8,15,21,0,203
204,197,0,32,189,41,32,68,9,55,57,0,360
159,268,0,15,108,83,61,55,25,57,32,0,237
38,104,0,7,41,14,10,52,6,13,16,0,79
284,528,0,121,233,165,73,153,32,64,77,0,602
431,903,0,157,427,38,54,823,19,86,103,0,795
190,448,0,19,178,153,67,97,21,79,59,0,359
128,95,0,2,84,20,23,41,3,27,36,0,159
366,645,0,0,467,68,63,368,19,85,84,65,726
245,443,0,42,210,195,56,64,20,62,44,0,499
56,181,0,24,72,103,22,35,5,20,9,0,139
124,225,0,16,75,173,13,29,8,22,21,0,174
212,405,0,22,213,247,39,27,22,51,32,0,434
273,541,0,49,294,345,50,66,28,46,44,0,578
276,275,0,0,247,50,42,72,19,58,67,10,480
273,380,0,0,247,50,39,160,19,54,76,8,494
471,849,0,52,489,255,133,182,57,136,122,0,976
330,593,0,58,320,126,97,136,35,73,82,0,752
202,416,0,45,244,38,56,180,16,34,48,0,535
120,159,0,0,93,38,23,50,9,24,17,5,206
302,342,0,0,253,68,53,80,16,82,97,35,466
349,362,0,0,311,55,53,80,24,86,70,11,643
428,734,0,113,602,136,149,215,46,102,122,0,1107
173,352,0,16,162,72,48,104,16,43,57,0,363
39,81,0,23,31,27,15,10,5,16,11,0,90
84,93,0,6,58,34,21,14,2,16,23,0,131
200,404,0,32,214,170,56,60,14,44,74,0,432
114,207,0,15,121,41,25,86,10,40,29,0,226
89,198,0,11,112,73,35,45,11,25,22,0,199
162,160,0,23,104,31,30,35,10,48,36,0,259
62,72,0,51,74,17,12,33,4,17,14,0,162
144,342,0,110,164,40,41,205,19,29,28,0,398
272,583,0,147,288,87,100,239,54,67,85,0,658
71,129,0,24,65,54,24,33,8,21,13,0,136
308,553,0,50,294,184,86,162,21,77,79,0,596
86,171,0,35,71,31,23,49,8,24,27,0,201
189,333,0,9,192,63,48,94,15,52,29,0,422
84,179,0,11,96,34,33,37,3,30,18,0,215
76,315,0,53,93,108,32,79,25,30,24,0,239
192,557,0,36,203,165,84,122,45,46,42,0,484
70,237,0,33,72,55,45,61,13,12,33,0,193
30,57,0,1,43,3,10,23,2,13,5,0,75
51,65,0,28,64,13,15,14,4,17,19,0,126
44,47,0,1,36,20,12,7,2,11,5,0,71
279,589,0,23,295,156,90,151,36,82,42,0,629
248,356,0,0,279,91,46,56,23,74,61,37,495
192,452,0,0,220,163,69,89,23,44,53,7,416
167,454,0,2,181,131,74,93,35,43,59,0,369
211,667,0,55,235,228,80,168,45,62,51,0,534
230,432,0,24,201,133,69,110,19,81,49,0,426
245,698,0,70,251,168,119,181,39,52,59,0,646
180,452,0,0,185,151,53,109,28,43,42,14,377
221,620,0,27,448,179,93,139,55,79,48,0,723
238,474,0,12,217,166,46,88,35,64,62,0,480
124,303,0,30,169,60,48,67,18,41,39,0,353
186,195,0,12,162,25,22,97,14,50,28,0,319
108,160,0,72,106,32,42,35,13,39,43,0,242
430,850,0,73,426,308,110,151,51,100,98,0,961
175,310,0,62,160,127,43,71,13,40,31,0,382
40,92,0,24,26,31,22,30,9,15,10,0,65
131,361,0,111,139,87,74,109,20,47,33,0,372
144,302,0,33,110,73,53,89,21,36,24,0,293
207,469,0,52,202,176,73,130,22,51,55,0,423
197,362,0,90,192,133,58,80,36,55,45,0,434
237,660,0,63,281,156,89,187,52,45,67,0,645
302,703,0,129,272,168,103,189,49,82,82,0,733
284,578,0,159,316,175,100,161,42,91,73,0,695
150,340,0,55,151,115,69,97,23,31,33,0,328
303,413,0,0,332,91,66,112,12,78,77,15,597
354,825,0,279,421,317,130,145,65,74,101,0,1047
355,727,0,0,469,188,106,164,66,90,82,165,690
397,913,0,94,304,268,150,212,114,107,94,0,763
265,440,0,169,240,85,87,160,23,88,77,0,594
59,101,0,35,88,16,27,62,5,11,18,0,144
173,314,0,44,167,100,43,77,25,28,33,0,392
340,623,0,34,354,200,76,115,33,91,69,0,767
141,190,0,2,128,24,20,88,7,33,42,0,247
140,166,0,18,156,26,32,52,5,30,32,0,303
186,286,0,22,169,114,40,57,23,28,52,0,349
154,180,0,9,162,29,28,33,7,39,25,0,344
452,1205,0,147,605,247,161,439,60,120,207,0,1175
223,624,0,18,255,161,73,159,46,59,64,0,558
235,537,0,27,196,117,76,142,59,47,70,0,484
116,203,0,86,119,9,29,196,8,16,40,0,226
152,158,0,28,102,65,34,39,4,50,49,0,199
15,27,0,0,6,4,5,8,0,7,6,5,13
30,45,0,3,25,11,15,4,1,10,7,0,55
71,106,0,0,58,29,12,13,9,23,31,2,116
69,196,0,34,62,47,36,45,44,6,23,0,160
163,734,0,0,325,310,71,202,63,56,56,6,458
192,616,0,120,179,215,74,176,52,56,67,0,467
235,617,0,41,194,170,90,153,54,65,74,0,481
180,601,0,0,192,182,55,124,69,49,33,96,365
167,535,0,195,208,143,76,165,90,45,50,0,536
66,103,0,0,70,23,15,23,10,23,9,2,134
72,111,0,0,52,18,19,15,11,10,14,2,146
179,261,0,1,171,57,44,45,22,31,45,0,368
96,189,0,11,75,43,41,28,14,23,34,0,188
202,461,0,12,240,123,62,94,28,80,36,0,492
166,168,0,0,96,28,36,35,18,39,51,2,221
85,122,0,0,44,33,28,22,13,32,16,3,104
154,473,0,0,178,70,69,174,48,45,37,21,341
184,664,0,0,301,121,100,241,64,52,47,1,523
155,495,0,4,175,92,64,186,48,48,32,0,359
224,269,0,34,183,78,49,54,22,67,61,0,379
137,287,0,85,133,152,28,67,12,31,35,0,317
379,1242,0,138,474,773,89,135,51,100,82,0,1003
316,594,0,114,322,126,118,135,50,65,84,0,768
303,727,0,219,294,163,135,172,61,83,78,0,851
271,657,0,75,333,134,93,132,55,78,49,0,795
232,528,0,196,422,107,96,121,56,48,75,0,875
260,546,0,83,205,136,74,141,51,67,57,0,568
289,520,0,0,312,124,71,105,40,54,71,15,641
280,568,0,0,395,109,91,117,43,77,78,8,720
254,686,0,0,365,162,85,148,63,52,71,37,687
85,140,0,0,58,49,15,19,6,20,23,24,127
67,141,0,5,86,15,24,44,4,15,18,0,179
286,521,0,42,279,91,91,126,24,70,64,0,662
102,210,0,31,69,48,50,35,23,37,24,0,195
85,113,0,2,79,28,22,29,7,22,9,0,162
172,265,0,45,194,48,51,56,22,42,44,0,413
182,404,0,39,150,158,53,73,26,34,55,0,376
329,350,0,15,316,56,85,67,35,80,94,0,593
135,350,0,33,105,89,49,78,19,47,44,0,297
239,523,0,164,277,189,84,125,48,86,49,0,622
201,533,0,26,221,185,46,113,43,28,55,0,511
238,535,0,0,316,111,65,99,30,51,53,19,661
278,498,0,76,269,148,78,104,43,58,71,0,619
147,536,0,127,154,151,73,159,56,32,59,0,434
250,529,0,0,366,128,102,84,70,43,56,1,661
313,549,0,0,364,124,91,82,47,63,72,11,736
74,108,0,5,75,16,26,19,15,21,29,0,136
39,52,0,0,61,5,14,3,3,3,8,12,104
96,124,0,31,85,27,10,27,17,25,33,0,197
118,218,0,6,142,57,26,61,19,24,31,0,266
117,272,0,0,127,48,37,84,25,27,37,4,254
305,651,0,31,340,164,118,107,42,56,67,0,773
366,405,0,42,323,113,66,61,24,69,66,0,737
129,209,0,0,130,29,33,62,11,46,49,6,232
193,296,0,5,182,68,45,76,36,67,43,0,341
209,651,0,51,211,145,100,209,69,72,68,0,459
215,377,0,0,273,78,59,79,29,41,51,5,523
182,317,0,19,237,53,53,79,30,47,47,0,446
252,382,0,41,356,86,79,108,39,48,79,0,592
113,204,0,20,111,66,17,37,8,20,30,0,270
147,311,0,36,175,87,49,59,22,41,33,0,378
140,252,0,28,150,52,43,74,26,37,40,0,298
168,297,0,26,150,59,41,72,31,57,45,0,336
227,509,0,98,204,219,72,93,29,68,66,0,491
164,223,0,19,149,68,52,42,16,40,39,0,298
175,355,0,0,194,70,61,83,32,64,37,0,377
148,247,0,29,146,72,52,47,23,39,36,0,301
90,120,0,12,77,30,26,24,9,17,21,0,172
439,955,0,0,482,198,124,226,76,148,99,115,890
667,1391,0,158,753,571,142,235,63,124,142,0,1692
232,561,0,53,353,110,63,109,165,41,70,0,641
98,170,0,0,91,34,17,27,44,15,25,40,157
158,554,0,52,194,123,69,80,116,34,44,0,492
155,451,0,117,170,106,65,66,175,41,37,0,403
211,507,0,10,183,82,50,73,151,76,68,0,411
185,394,0,0,223,49,46,64,134,38,65,5,401
147,560,0,17,154,96,52,90,177,36,53,0,374
236,630,0,0,262,148,97,168,42,76,79,20,498
335,779,0,66,400,221,114,235,80,122,116,0,692
217,460,0,46,219,103,70,101,45,49,58,0,516
203,335,0,0,173,80,43,82,11,61,56,8,370
208,493,0,87,271,111,74,132,34,56,55,0,597
251,389,0,8,202,86,55,96,29,73,56,0,455
97,226,0,54,82,71,35,30,16,15,27,0,265
54,70,0,13,34,23,13,13,1,5,16,0,100
220,424,0,0,303,87,61,85,18,43,63,8,582
38,99,0,0,51,22,13,33,5,10,10,1,94
219,451,0,17,215,101,73,131,36,47,56,0,458
285,484,0,47,242,106,90,138,37,75,78,0,534
155,235,0,0,221,45,41,63,19,34,60,0,349
121,293,0,24,106,105,45,70,20,15,28,0,261
461,1177,0,0,559,215,169,235,126,96,133,42,1181
97,217,0,0,116,42,50,54,11,20,21,4,228
253,465,0,44,214,154,67,94,33,74,62,0,492
237,416,0,40,330,124,79,80,30,63,52,0,595
341,653,0,17,323,173,87,201,35,95,68,0,675
149,467,0,62,217,81,107,120,32,60,44,0,451
265,436,0,49,266,153,58,90,20,67,43,0,585
272,732,0,48,288,260,100,134,57,80,63,0,646
205,248,0,0,157,47,45,51,40,67,61,1,298
196,151,0,0,316,12,28,22,23,39,49,24,466
217,199,0,0,250,25,44,22,19,45,47,8,456
199,170,0,0,230,17,37,27,22,31,46,27,392
177,228,0,0,215,31,31,32,21,39,56,5,405
218,168,0,0,221,33,48,19,18,41,61,16,371
154,179,0,0,195,28,36,35,9,30,39,16,335
270,203,0,0,256,25,28,28,21,61,79,21,466
201,190,0,2,297,27,38,24,15,59,55,0,472
424,423,0,0,352,91,83,88,49,100,131,4,653
9,21,0,3,7,4,4,2,8,2,3,0,17
386,334,0,0,348,45,56,37,40,69,97,11,713
433,263,0,0,326,36,38,38,28,82,96,54,650
74,84,0,0,71,18,30,13,9,17,29,1,112
98,124,0,31,71,28,21,31,21,27,39,0,157
53,34,0,0,29,9,4,3,2,12,17,1,68
35,27,0,1,18,3,5,3,0,8,9,0,53
129,187,0,25,96,41,31,52,26,43,51,0,193
110,113,0,5,82,18,19,35,14,33,35,0,156
233,206,0,0,182,34,40,23,13,68,86,16,341
240,245,0,0,291,44,49,41,37,55,56,30,464
340,336,0,0,1555,28,59,56,33,56,89,87,1823
188,281,0,9,201,34,65,57,40,39,54,0,390
209,318,0,18,146,62,52,70,41,70,57,0,339
258,336,0,17,354,47,51,69,49,68,72,0,609
153,171,0,0,174,25,32,45,10,47,22,13,304
292,213,0,0,336,30,28,23,18,71,74,38,559
324,250,0,0,267,38,44,54,24,63,76,2,540
318,290,0,0,290,44,46,44,29,48,54,25,608
238,221,0,0,227,37,32,36,20,54,52,20,435
198,126,0,0,284,16,26,17,10,57,37,19,426
208,166,0,52,99,33,32,35,17,64,33,0,311
225,141,0,0,221,26,20,21,11,47,52,16,394
216,190,0,0,215,23,47,22,16,46,59,36,372
196,280,0,13,191,62,51,52,41,41,39,0,394
260,460,0,18,194,75,75,89,79,72,78,0,464
174,304,0,0,180,51,56,61,26,39,42,0,383
310,278,0,0,335,29,45,54,36,62,91,14,592
314,219,0,7,288,32,34,43,22,39,97,0,561
314,239,0,17,295,35,56,40,17,68,71,0,578
219,192,0,10,154,45,47,36,11,52,27,0,357
102,121,0,6,83,38,28,18,10,25,23,0,170
75,88,0,9,87,17,13,26,7,21,24,0,151
229,169,0,0,209,33,38,17,7,51,34,21,406
213,177,0,0,346,33,23,32,12,38,60,19,519
382,304,0,18,269,65,49,45,18,64,73,0,659
212,178,0,0,159,29,31,30,9,44,64,3,339
102,117,0,16,69,26,25,22,11,17,37,0,166
61,156,0,2,62,30,26,35,17,15,18,0,140
133,82,0,0,110,12,27,13,8,27,26,5,207
84,101,0,2,62,28,12,14,3,21,10,0,161
90,152,0,3,100,37,24,30,8,18,29,0,199
346,484,0,0,350,88,101,103,33,77,96,13,669
352,494,0,0,277,93,86,90,48,88,80,2,636
277,414,0,0,282,58,69,107,23,76,67,17,556
416,578,0,34,318,90,124,145,55,102,83,0,747
307,395,0,0,591,61,88,70,20,65,62,31,896
322,499,0,0,240,73,87,115,35,84,78,52,537
19,39,0,7,9,6,8,6,3,8,4,0,39
43,27,0,5,22,7,6,5,0,15,12,0,52
50,73,0,0,36,17,13,12,0,15,7,1,94
75,79,0,0,16,20,16,3,0,29,11,16,75
117,74,0,0,62,27,12,7,5,34,30,0,138
205,135,0,15,101,31,27,10,20,47,41,0,280
150,115,0,12,78,19,23,23,4,39,33,0,214
90,85,0,0,96,19,18,20,9,12,17,9,167
62,83,0,1,67,15,13,15,7,15,12,0,136
57,37,0,0,20,10,9,7,1,25,14,0,48
38,40,0,0,38,12,15,4,2,14,6,9,54
191,254,0,0,216,52,34,44,13,37,34,6,441
200,156,0,3,152,41,41,31,5,53,64,0,276
113,120,0,3,101,25,24,16,9,22,18,0,223
44,33,0,3,23,24,7,3,2,5,13,0,49
38,28,0,6,22,12,8,1,2,6,16,0,49
18,21,0,4,15,15,0,0,3,4,10,0,26
142,115,0,1,135,90,18,10,4,21,27,0,223
97,162,0,31,117,35,33,23,6,28,19,0,263
51,93,0,0,65,25,13,18,5,19,2,0,127
38,34,0,0,18,4,5,2,5,8,9,2,55
75,81,0,7,80,26,14,3,5,26,15,0,154
154,149,0,6,137,47,20,18,4,45,26,0,286
6,11,0,0,16,2,1,0,0,1,5,0,24
28,26,0,7,25,3,4,0,2,7,15,0,55
328,246,0,17,343,38,31,33,22,54,92,0,664
289,123,0,0,278,17,22,16,6,34,81,21,493
254,261,0,0,223,144,29,32,11,46,52,9,415
129,134,0,3,111,42,12,22,8,25,36,0,232
329,389,0,0,374,108,74,50,15,56,56,11,722
132,87,0,0,103,10,19,22,3,25,30,7,206
289,299,0,0,298,99,43,24,19,67,74,1,559
43,68,0,0,44,24,20,10,5,15,13,7,61
52,34,0,0,23,1,8,3,2,23,20,0,52
173,166,0,1,148,20,36,43,10,60,29,0,290
253,302,0,34,235,64,62,49,19,54,58,0,518
92,72,0,4,103,27,15,13,5,19,28,0,164
18,16,0,0,20,10,0,1,0,9,8,8,18
73,50,0,8,46,11,16,8,1,19,25,0,97
232,273,0,23,226,55,53,47,21,58,57,0,463
248,245,0,1,230,26,32,16,14,41,50,0,545
49,127,0,11,28,22,19,25,30,11,8,0,100
156,315,0,54,141,68,66,85,32,42,28,0,345
294,542,0,19,362,88,91,120,69,65,70,0,714
326,518,0,50,236,70,86,106,80,87,73,0,628
239,553,0,18,431,102,98,138,61,42,52,0,748
180,241,0,6,172,55,53,31,10,30,55,0,365
142,173,0,51,126,45,28,38,9,41,28,0,303
220,221,0,0,176,52,44,34,7,50,51,1,378
131,128,0,25,88,49,33,22,3,11,19,0,235
33,34,0,0,23,11,8,2,0,2,6,4,57
40,25,0,0,17,11,3,4,0,11,7,1,45
111,141,0,10,98,53,13,28,8,14,18,0,226
275,426,0,22,265,88,84,121,44,49,61,0,541
59,97,0,0,57,28,16,11,3,7,13,0,135
256,303,0,1,226,67,61,33,12,46,52,0,515
284,286,0,6,225,62,41,53,5,71,59,0,510
59,28,0,2,13,7,10,3,4,26,17,0,35
339,289,0,7,277,53,64,40,22,63,60,0,610
66,79,0,9,65,26,7,20,12,13,13,0,128
203,198,0,25,136,45,23,31,16,35,66,0,346
103,73,0,4,56,11,16,21,3,11,28,0,146
54,94,0,0,37,20,20,12,11,4,18,1,99
113,89,0,7,98,16,15,10,9,29,12,0,216
44,61,0,0,30,36,5,4,0,10,9,4,67
36,64,0,7,36,39,4,7,0,10,6,0,77
254,322,0,0,240,180,57,37,16,55,52,7,412
201,138,0,0,159,15,20,35,6,57,54,3,308
158,165,0,13,114,58,19,24,8,34,23,0,284
123,138,0,0,141,39,37,28,5,22,28,5,238
231,213,0,25,199,33,45,31,18,24,55,0,462
35,43,0,3,23,10,12,4,1,8,19,0,50
73,57,0,0,80,13,8,8,5,17,18,2,139
86,48,0,4,52,19,13,13,0,11,31,0,103
49,23,0,3,31,4,2,5,1,12,28,0,54
96,110,0,14,62,22,19,12,3,19,39,0,168
35,22,0,0,73,5,1,0,0,8,14,16,86
269,176,0,1,186,49,36,22,12,42,106,0,365
184,162,0,6,172,44,25,23,19,31,58,0,324
244,144,0,0,161,25,40,31,14,46,69,12,312
199,197,0,0,314,36,37,35,16,39,59,15,473
95,142,0,12,97,25,40,27,15,22,27,0,190
84,60,0,0,45,8,13,17,6,17,27,1,100
15,22,0,2,20,4,2,9,1,9,3,0,31
42,50,0,2,40,9,3,16,1,9,5,0,91
33,54,0,2,27,18,10,12,4,3,12,0,57
37,33,0,3,38,6,7,1,4,7,8,0,78
57,72,0,0,48,8,14,15,3,13,15,4,105
307,389,0,12,284,89,64,91,18,64,63,0,603
151,257,0,5,149,62,46,59,13,38,19,0,325
264,443,0,0,209,73,79,104,18,56,51,31,504
38,16,0,0,69,3,0,5,0,25,11,19,60
229,225,0,0,195,40,36,60,4,51,56,26,376
232,245,0,0,201,33,35,51,10,74,30,22,423
139,198,0,4,154,42,38,42,5,36,42,0,290
228,321,0,0,349,66,60,85,18,60,46,12,551
73,76,0,13,37,20,9,11,7,37,14,0,101
95,95,0,0,117,18,7,8,3,31,25,11,204
322,452,0,48,294,86,88,89,20,81,115,0,637
117,114,0,13,50,31,29,24,5,32,28,0,145
105,180,0,22,75,38,42,31,10,32,17,0,212
134,210,0,17,138,82,25,26,2,22,22,0,320
78,84,0,20,90,26,13,12,8,11,22,0,180
26,18,0,3,7,3,5,1,0,7,4,0,34
161,152,0,0,131,47,23,19,7,35,47,5,261
51,81,0,16,59,13,23,15,4,22,17,0,113
54,45,0,0,29,9,8,0,1,17,24,4,65
170,112,0,0,140,29,15,15,4,31,49,0,279
193,191,0,0,151,34,33,29,17,34,39,8,341
61,38,0,0,38,22,9,5,0,7,19,1,74
69,74,0,0,42,43,16,6,6,7,23,0,84
127,243,0,11,123,42,33,56,13,29,28,0,303
112,59,0,5,69,19,11,11,3,18,34,0,149
109,110,0,20,43,25,29,25,7,41,40,0,115
28,69,0,3,11,31,8,6,6,3,10,0,47
20,35,0,0,27,16,7,4,1,7,12,2,33
144,169,0,0,177,49,25,29,7,25,23,14,318
88,93,0,4,79,30,5,21,5,27,28,0,148
263,190,0,0,244,30,36,42,14,63,55,10,447
326,322,0,0,204,43,43,111,28,79,81,11,456
284,196,0,0,229,41,25,31,23,58,47,2,482
79,55,0,0,68,20,9,9,0,25,24,12,103
313,310,0,8,298,76,32,81,40,86,89,0,525
302,272,0,3,319,47,46,55,26,84,41,0,597
261,224,0,0,337,51,36,32,20,52,73,10,548
337,289,0,0,318,70,49,55,11,51,53,20,635
344,323,0,0,333,59,47,38,32,41,74,27,682
295,174,0,24,172,35,30,27,15,90,70,0,398
296,269,0,0,219,57,39,79,22,54,77,10,446
167,182,0,0,174,29,34,33,10,33,46,18,320
271,271,0,0,204,54,34,89,23,61,60,10,415
146,113,0,0,176,18,20,16,3,43,39,2,294
212,250,0,15,648,31,41,73,27,45,42,0,866
200,154,0,0,203,35,28,24,14,51,57,0,348
234,200,0,0,209,37,29,40,21,50,58,9,399
93,47,0,5,26,18,5,6,1,24,17,0,100
23,14,0,0,29,0,4,0,0,10,4,4,44
34,11,0,0,34,3,2,1,0,6,2,10,55
225,139,0,21,206,26,12,33,7,46,59,0,408
143,69,0,0,127,20,4,12,4,17,29,16,237
138,44,0,0,200,7,9,3,3,23,18,19,300
22,14,0,0,5,2,0,5,3,6,5,0,20
73,35,0,0,40,9,5,8,2,9,18,6,91
10,5,0,0,11,2,0,0,0,2,5,0,17
220,89,0,14,148,27,15,17,7,33,54,0,318
213,127,0,0,186,23,25,24,8,45,47,3,351
250,160,0,31,254,26,25,37,9,65,73,0,460
208,101,0,27,287,35,10,26,5,35,44,0,468
334,171,0,10,294,49,27,41,7,75,47,0,563
251,146,0,0,290,31,32,20,6,54,54,31,459
178,57,0,10,174,10,12,9,7,32,47,0,302
100,44,0,4,68,52,6,9,2,16,14,0,117
156,65,0,4,138,32,18,11,1,32,28,0,241
172,155,0,0,151,79,16,13,12,29,32,2,295
168,191,0,0,217,37,17,42,14,27,53,15,371
232,311,0,136,212,82,41,77,27,50,63,0,551
276,353,0,0,226,93,35,56,15,70,65,38,483
41,17,0,0,45,10,3,7,0,9,13,2,59
232,120,0,0,195,32,18,15,9,37,67,10,359
314,212,0,21,227,49,45,46,12,51,64,0,507
209,132,0,2,108,23,20,21,11,54,57,0,265
400,285,0,0,379,69,54,46,25,59,120,14,677
146,96,0,2,121,18,15,19,7,32,18,0,256
91,42,0,11,104,23,9,8,1,17,23,0,167
237,224,0,0,247,35,40,39,13,51,50,2,478
129,97,0,37,118,15,21,24,4,32,24,0,261
66,32,0,0,16,8,4,8,4,10,16,8,56
38,9,0,1,15,0,0,1,0,5,13,0,44
206,137,0,7,226,23,24,21,11,45,55,0,397
132,94,0,0,117,29,13,12,2,12,34,9,232
281,322,0,0,278,105,75,50,29,106,113,10,393
326,350,0,41,428,120,75,67,12,78,111,0,682
346,310,0,0,367,89,66,39,26,61,122,4,616
413,570,0,32,332,172,128,143,39,108,193,0,564
52,42,0,5,31,12,6,6,2,21,8,0,75
184,149,0,5,139,61,6,55,4,44,59,0,248
92,71,0,0,74,19,12,20,3,21,26,5,131
100,47,0,0,89,9,7,7,2,14,42,12,143
109,52,0,0,64,26,9,4,2,29,14,12,129
79,44,0,7,41,9,6,5,5,19,31,0,96
98,54,0,7,78,13,7,18,5,29,13,0,152
49,37,0,0,25,10,0,12,0,10,6,6,67
218,136,0,15,230,41,20,16,12,60,53,0,397
249,246,0,32,257,67,42,41,17,53,68,0,496
45,14,0,0,25,6,7,0,1,7,17,2,44
392,301,0,0,358,114,31,63,5,105,75,5,653
72,75,0,1,60,12,15,20,2,20,20,0,119
41,29,0,3,24,12,1,7,1,13,11,0,52
314,249,0,18,293,72,38,45,22,63,85,0,549
42,61,0,0,47,23,8,10,0,9,16,16,68
21,9,0,0,13,3,4,0,1,8,4,4,19
39,46,0,0,29,9,6,4,1,8,14,7,65
132,87,0,0,113,19,20,11,0,27,24,23,208
22,6,0,0,5,2,0,3,0,6,14,0,8
35,22,0,3,32,7,6,5,2,2,15,0,55
108,49,0,20,101,6,6,4,6,18,14,0,224
106,62,0,19,87,13,7,20,5,16,19,0,194
182,139,0,21,115,19,18,24,13,38,38,0,307
136,133,0,10,147,31,29,43,7,22,48,0,246
63,18,0,4,36,14,3,1,1,13,12,0,77
177,91,0,0,130,30,14,14,3,38,23,2,274
77,73,0,5,74,13,15,13,4,28,20,0,136
110,61,0,2,77,14,18,2,9,20,20,0,167
116,60,0,24,53,12,16,18,0,18,27,0,162
68,74,0,18,50,15,9,22,6,5,20,0,133
91,106,0,0,72,23,11,22,2,29,14,9,159
75,46,0,0,44,14,10,14,2,16,10,3,96
26,11,0,0,7,1,2,0,0,8,4,5,24
54,26,0,0,26,8,4,2,4,11,18,2,57
220,154,0,4,167,50,27,28,2,57,45,0,336
92,142,0,0,127,36,21,27,4,29,20,4,220
10,18,0,2,13,15,1,0,0,2,4,0,21
76,34,0,0,40,13,9,1,1,6,18,1,101
41,76,0,2,23,6,10,28,7,18,11,0,62
86,163,0,6,85,31,23,50,6,32,28,0,170
82,43,0,0,54,14,2,6,2,36,20,7,92
81,42,0,11,33,13,11,8,3,20,22,0,90
19,20,0,4,10,6,11,3,1,5,1,0,26
69,33,0,8,59,11,18,7,1,22,9,0,101
26,24,0,1,28,5,4,7,0,4,9,0,50
27,11,0,4,8,2,1,1,2,8,8,0,28
67,59,0,0,53,6,12,11,4,10,14,5,117
27,33,0,0,27,6,2,8,4,6,6,9,46
22,37,0,3,24,11,9,11,2,11,8,0,34
58,18,0,1,37,0,7,2,3,15,13,0,74
30,22,0,0,14,7,7,3,1,1,0,5,42
47,78,0,3,46,20,9,6,7,15,15,0,102
34,61,0,11,32,14,19,9,6,9,12,0,69
74,46,0,0,30,5,7,7,2,17,16,1,95
55,35,0,7,38,9,10,7,3,16,13,0,77
82,72,0,11,60,13,18,15,12,16,25,0,126
287,288,0,34,279,56,64,52,35,60,96,0,525
73,113,0,26,50,18,20,30,11,21,23,0,139
61,44,0,27,58,6,9,10,5,13,16,0,131
74,40,0,4,54,7,6,15,4,10,20,0,110
51,29,0,0,30,8,4,9,0,13,17,4,55
61,43,0,0,28,15,2,2,2,24,10,6,71
47,12,0,5,15,5,1,2,2,10,9,0,50
43,67,0,6,24,22,13,16,3,11,25,0,50
31,23,0,4,14,9,4,5,2,6,10,0,36
91,55,0,5,57,20,14,11,0,9,8,0,146
21,30,0,9,23,5,7,11,3,3,8,0,46
71,69,0,11,55,15,16,7,2,7,9,0,150
32,17,0,0,12,8,7,3,0,13,10,1,19
40,33,0,13,43,10,6,8,1,11,9,0,84
96,142,0,27,90,49,31,30,9,14,23,0,199
79,71,0,6,60,5,12,37,5,6,17,0,134
81,176,0,30,118,42,43,33,16,21,24,0,226
82,168,0,23,89,46,25,43,14,20,40,0,174
203,471,0,31,261,113,73,72,29,61,53,0,565
172,271,0,0,181,52,39,86,13,41,25,6,362
220,636,0,197,174,168,98,159,50,57,74,0,621
117,307,0,72,103,61,68,84,27,32,44,0,283
46,113,0,20,53,50,11,15,9,15,8,0,124
43,34,0,0,33,12,14,5,0,7,4,7,61
37,18,0,0,33,7,3,1,0,8,11,3,55
45,30,0,7,83,6,3,4,0,9,9,0,134
42,11,0,0,60,2,0,5,2,20,10,2,72
24,31,0,0,12,7,9,7,1,8,3,3,29
51,48,0,19,55,18,6,10,1,16,18,0,104
46,36,0,10,25,15,4,13,1,15,17,0,52
52,26,0,9,21,7,5,3,2,11,16,0,64
24,6,0,1,9,2,4,5,0,2,8,0,19
58,21,0,1,51,4,2,2,1,11,11,0,100
44,29,0,7,24,3,8,6,1,4,30,0,52
22,14,0,0,23,4,0,2,1,10,5,0,37
30,21,0,6,22,5,5,10,0,7,10,0,42
35,27,0,0,12,12,5,3,1,10,8,2,33
19,11,0,8,20,7,4,2,1,3,6,0,35
22,18,0,1,10,6,8,0,2,13,7,0,15
32,32,0,0,24,12,1,9,2,3,8,2,51
57,53,0,0,42,19,11,8,6,12,14,1,81
37,22,0,5,25,6,2,2,1,8,15,0,55
22,12,0,1,20,9,4,0,2,5,1,0,34
99,67,0,0,77,44,8,14,3,25,14,7,128
88,72,0,17,84,23,16,19,3,13,66,0,121
135,122,0,0,98,13,11,28,9,30,36,16,212
57,47,0,34,52,18,11,4,1,15,13,0,128
94,81,0,12,51,15,7,27,7,21,55,0,106
52,80,0,7,57,20,10,20,7,24,10,0,105
141,134,0,10,130,16,14,37,2,47,19,0,280
20,23,0,1,6,7,7,6,0,7,2,0,21
33,18,0,4,14,4,4,6,2,7,8,0,38
50,31,0,0,30,10,5,1,2,25,13,2,53
61,41,0,8,53,10,8,8,2,13,29,0,93
35,25,0,2,27,17,5,5,2,5,22,0,33
86,71,0,21,65,16,14,27,0,17,27,0,142
24,26,0,0,20,7,11,9,0,11,1,4,27
24,33,0,0,26,3,7,6,2,7,11,0,47
86,126,0,12,64,12,25,81,4,27,12,0,127
107,101,0,0,68,26,8,24,7,20,23,8,160
64,56,0,2,43,17,5,6,2,12,16,0,107
22,23,0,7,22,4,2,3,0,2,4,0,59
44,19,0,0,27,2,7,1,0,9,11,3,57
55,40,0,13,55,14,10,8,2,16,9,0,104
232,479,0,31,186,98,64,140,48,101,69,0,408
50,77,0,17,39,13,14,26,6,14,21,0,89
105,122,0,2,81,45,13,38,7,29,29,0,149
521,559,0,0,512,115,85,100,28,140,154,41,929
490,683,0,0,332,117,84,165,69,166,106,19,779
75,69,0,10,56,17,10,4,5,13,23,0,138
68,50,0,8,49,12,8,14,3,31,27,0,80
51,29,0,0,18,11,5,8,2,21,12,3,36
66,86,0,27,38,17,14,18,12,37,17,0,102
75,120,0,16,71,27,16,31,15,30,42,0,121
77,102,0,39,60,14,15,45,2,40,23,0,139
38,40,0,8,23,7,11,10,1,16,9,0,55
56,48,0,6,45,7,12,9,4,25,14,0,84
36,42,0,10,26,9,7,11,4,12,2,0,69
23,33,0,0,7,7,6,3,5,4,5,1,32
79,85,0,0,85,17,12,11,2,25,22,12,148
39,28,0,11,37,5,5,5,1,9,6,0,84
53,34,0,15,25,12,3,5,0,25,15,0,67
40,44,0,0,21,13,12,6,3,8,21,0,42
44,77,0,3,28,12,16,14,9,14,10,0,77
129,277,0,31,123,77,54,48,26,50,37,0,268
133,217,0,0,97,75,34,29,19,29,26,30,205
65,107,0,15,63,36,23,36,9,16,11,0,119
42,86,0,3,51,15,28,26,6,7,15,0,85
32,24,0,0,42,3,4,1,1,3,5,4,77
39,106,0,0,45,23,15,17,12,19,16,0,88
9,48,0,0,30,3,3,20,2,2,3,9,45
89,90,0,4,54,21,8,22,9,19,19,0,139
164,264,0,16,147,77,48,42,34,34,35,0,321
17,24,0,0,11,16,1,4,0,0,1,5,25
37,66,0,23,17,21,14,16,4,17,14,0,57
80,24,0,0,79,2,4,4,1,14,16,16,126
37,30,0,0,19,8,3,4,4,12,10,1,44
48,40,0,0,45,10,5,7,1,10,9,1,90
41,23,0,0,25,7,2,3,0,11,11,8,47
38,31,0,0,27,4,5,8,2,8,5,2,62
90,90,0,4,86,17,20,28,5,23,34,0,143
101,77,0,6,110,40,8,9,2,34,19,0,182
42,57,0,17,44,22,11,12,1,14,19,0,81
26,35,0,0,25,8,6,1,3,6,8,0,54
42,42,0,0,26,21,5,0,0,10,15,4,55
66,50,0,0,65,8,9,16,9,9,15,0,115
52,32,0,2,33,12,9,2,0,6,9,0,81
588,583,0,22,564,81,93,192,27,153,115,0,1096
101,127,0,21,102,21,24,35,6,20,20,0,225
96,73,0,1,54,15,6,12,14,39,21,0,117
142,149,0,17,149,27,31,56,4,51,40,0,248
63,58,0,0,40,12,10,15,3,20,24,0,77
66,56,0,13,34,24,7,16,0,16,13,0,93
43,33,0,3,22,21,7,3,0,9,15,0,46
76,97,0,0,56,38,8,14,7,16,16,5,125
75,69,0,0,59,38,5,12,4,22,19,1,102
132,128,0,17,125,5,17,77,1,33,33,0,236
45,31,0,0,37,13,5,10,0,17,7,1,60
92,65,0,6,62,24,17,18,3,32,19,0,112
18,20,0,5,13,9,3,3,1,7,10,0,23
30,40,0,0,40,6,2,4,0,10,9,10,69
69,11,0,0,53,5,4,6,1,11,18,9,79
15,24,0,0,21,7,2,3,0,0,13,5,30
72,160,0,0,121,44,21,22,11,23,20,10,202
73,135,0,40,32,18,18,99,7,15,20,0,103
115,219,0,39,133,24,30,108,13,28,22,0,281
56,175,0,17,66,24,18,59,17,27,17,0,152
72,114,0,29,41,28,26,29,9,20,26,0,118
36,27,0,1,23,15,3,1,3,8,6,0,51
38,32,0,9,26,15,4,4,6,10,11,0,55
129,122,0,47,94,35,35,24,15,37,38,0,208
154,123,0,2,117,20,31,19,13,45,26,0,242
112,132,0,8,116,33,32,29,29,22,40,0,183
38,42,0,1,31,15,5,4,6,5,13,0,64
74,119,0,5,64,40,17,10,6,20,11,0,158
60,83,0,8,64,24,18,11,2,30,10,0,120
69,78,0,0,38,14,10,7,5,17,11,15,106
71,39,0,0,30,13,2,11,0,23,11,2,78
47,21,0,0,34,1,4,5,0,9,4,6,73
24,18,0,0,38,5,2,1,0,4,10,0,58
294,264,0,0,298,52,45,47,21,61,58,32,540
18,28,0,0,15,8,6,10,2,0,6,2,27
23,25,0,7,16,1,6,6,2,10,11,0,35
34,47,0,2,15,13,9,8,2,7,5,0,54
72,133,0,25,58,38,17,32,6,23,12,0,160
55,32,0,0,45,12,10,7,7,8,14,1,73
33,27,0,12,37,13,4,9,1,14,12,0,56
52,39,0,8,11,20,8,8,1,13,7,0,53
28,38,0,2,21,9,4,8,4,11,3,0,50
102,56,0,0,65,11,8,4,1,23,24,18,134
70,70,0,0,62,13,11,22,3,11,21,11,110
69,30,0,0,52,5,7,0,1,18,13,6,101
117,190,0,20,112,76,38,37,14,22,26,0,226
30,17,0,0,49,2,1,5,0,10,9,0,69
31,24,0,0,19,19,4,1,0,8,1,8,33
52,34,0,0,48,8,4,3,1,7,8,1,102
48,29,0,0,14,11,2,0,1,12,15,4,46
41,41,0,5,27,12,7,5,3,12,13,0,62
87,84,0,2,69,22,17,18,6,11,16,0,152
42,53,0,5,25,12,12,12,7,23,16,0,43
81,63,0,14,85,23,11,21,4,23,10,0,151
22,29,0,1,18,13,10,6,0,6,9,0,26
41,27,0,6,22,20,3,5,4,9,8,0,47
49,51,0,2,59,5,12,5,7,10,9,0,113
59,49,0,5,36,10,8,8,6,21,10,0,86
111,112,0,10,117,28,29,19,7,24,31,0,212
160,132,0,9,175,28,25,19,15,49,25,0,315
25,16,0,0,18,5,3,8,0,7,8,0,28
34,53,0,6,40,22,10,10,1,20,10,0,60
67,58,0,0,59,9,8,6,3,19,20,1,118
77,43,0,6,60,7,6,16,3,19,18,0,117
138,207,0,0,134,37,24,72,9,34,26,20,257
79,210,0,13,73,44,23,76,18,22,27,0,165
219,415,0,79,238,165,70,89,32,43,65,0,487
23,24,0,0,19,7,1,9,4,8,4,1,32
53,46,0,9,26,9,13,8,1,6,15,0,82
