A7,A1145,A1,A768,A47,A766,A53,A997,A998,A999,B166,B720,B53,B7,B768,B1058,B766,B997,B998,B999
19,1,2,5,2,2,0,6,16,110,3,4,3,6,10,5,0,4,0,128
12,0,2,10,1,0,9,5,6,23,7,4,6,3,6,3,1,4,0,34
20,1,4,10,9,2,6,3,0,106,1,6,12,8,13,4,1,4,14,98
16,3,3,4,2,2,3,1,0,24,1,4,1,7,5,0,0,6,0,34
13,1,1,7,1,1,4,6,0,31,3,5,7,4,9,0,0,11,0,26
6,2,3,1,3,0,3,10,0,64,1,3,4,7,5,4,1,13,0,54
35,1,16,15,14,1,6,22,20,242,0,7,13,8,20,20,3,45,0,256
15,4,9,4,3,3,8,3,0,67,1,7,4,5,4,9,1,4,8,73
24,4,0,14,5,2,0,7,0,117,2,4,2,4,24,1,3,12,20,101
29,2,9,4,3,0,6,16,7,99,2,11,9,5,25,11,14,8,0,90
62,9,10,17,13,5,12,17,0,345,9,27,4,14,32,14,7,49,14,320
15,0,10,9,2,0,4,14,0,90,0,3,8,7,12,9,0,11,4,90
42,5,7,11,16,4,22,20,0,214,6,17,21,11,25,8,9,34,7,203
2,1,3,4,3,2,10,5,3,35,2,5,5,1,5,1,9,3,0,37
65,20,3,23,6,4,11,26,13,210,9,22,24,12,26,11,11,44,0,222
35,11,3,7,13,7,9,7,0,153,7,17,20,8,15,9,2,28,1,138
18,2,11,3,9,0,3,8,0,116,0,10,2,7,16,14,2,16,4,99
44,0,7,16,13,1,11,30,6,147,4,19,15,2,27,4,1,48,0,155
27,0,0,2,8,0,9,8,0,104,3,11,12,7,15,1,0,12,3,94
15,2,4,8,4,2,1,4,14,39,2,9,1,6,9,7,0,9,0,50
5,4,0,5,5,0,2,12,0,43,5,3,5,1,10,1,2,4,1,44
22,13,2,23,14,8,10,18,12,158,4,21,16,6,9,15,6,22,0,181
10,6,8,8,2,2,9,4,0,37,1,5,12,3,2,8,5,3,6,41
12,6,9,18,0,0,10,6,0,106,11,11,8,2,7,11,2,7,4,104
36,3,6,13,6,0,15,26,0,223,9,19,20,14,33,14,1,26,4,188
11,3,1,8,0,2,6,17,9,44,6,8,15,5,8,4,1,7,0,47
4,1,0,3,5,0,0,3,0,48,0,3,2,4,7,3,2,7,1,35
18,2,2,9,4,1,6,10,0,32,1,2,5,2,7,2,10,11,1,43
12,0,2,3,6,4,2,6,0,28,4,3,3,7,0,0,1,4,5,36
10,3,7,3,11,6,0,6,0,35,2,2,3,16,3,6,0,13,6,30
5,6,0,11,2,3,2,1,4,36,6,7,1,1,7,3,1,6,0,38
6,3,0,3,8,1,1,4,0,31,4,2,3,0,6,0,1,5,3,33
3,0,3,5,10,0,5,7,3,64,2,9,5,0,6,6,1,8,0,63
10,1,2,7,8,0,1,8,0,94,4,9,5,8,6,8,1,10,2,78
13,4,5,4,7,3,4,8,0,106,3,6,9,5,11,5,0,11,1,103
10,0,3,3,7,1,1,7,0,28,2,6,0,8,2,0,1,6,4,31
8,4,5,28,6,2,10,10,28,188,6,17,31,3,23,13,6,22,0,168
4,3,0,6,6,7,3,1,0,35,8,1,5,2,5,2,3,5,4,30
14,2,2,12,6,5,8,50,18,100,8,10,32,10,15,9,3,16,0,114
85,63,44,98,26,15,65,71,0,708,41,66,137,38,65,51,23,59,42,653
61,38,29,127,23,17,79,74,0,516,54,44,120,35,74,46,20,68,26,477
18,9,5,15,2,0,13,8,0,66,6,8,15,8,12,8,1,11,3,64
25,8,10,15,7,4,24,29,5,132,13,9,34,19,25,13,6,19,0,121
16,7,8,22,6,3,9,17,0,166,7,15,14,13,29,11,2,19,12,132
20,24,8,24,9,4,19,28,13,195,13,27,41,12,20,29,12,16,0,174
26,5,1,9,11,0,1,16,0,99,3,8,15,11,12,3,2,16,1,97
32,4,1,11,7,0,15,8,0,93,16,15,10,8,12,3,0,15,6,86
36,7,7,18,8,4,19,15,0,188,16,19,18,8,23,15,7,13,7,176
5,8,10,7,3,3,2,6,8,24,4,9,8,3,1,14,1,1,0,35
26,6,8,25,11,31,29,27,16,203,17,22,35,9,35,12,55,24,0,173
20,0,5,3,4,1,9,7,0,88,4,11,6,6,7,5,1,15,6,76
21,7,10,14,11,4,5,19,17,126,18,22,19,2,8,16,7,30,0,112
12,6,2,4,0,2,13,8,5,34,11,13,15,6,12,2,3,4,0,20
23,8,9,9,14,6,8,13,12,116,15,6,19,10,7,18,0,32,0,111
10,13,1,20,2,5,8,7,0,35,9,4,7,2,17,12,1,17,1,31
44,16,6,31,22,6,29,58,42,347,20,60,59,21,68,17,13,45,0,298
22,25,9,19,13,6,7,28,0,114,13,25,28,9,17,17,9,30,5,90
8,9,0,11,2,5,5,11,10,49,6,7,17,3,6,10,3,14,0,44
21,10,3,21,8,0,15,17,0,140,1,8,4,8,11,7,3,98,5,90
23,16,9,44,17,17,15,53,53,240,25,27,67,20,51,26,11,34,0,226
31,20,6,39,17,8,23,29,30,268,42,31,47,9,23,18,13,38,0,250
9,14,7,25,8,5,19,21,26,151,22,25,36,6,21,8,8,27,0,132
31,12,7,33,12,5,20,29,8,168,13,13,42,15,30,9,8,38,0,157
25,11,1,31,12,4,19,21,9,186,8,34,38,10,31,5,9,36,0,148
33,17,7,23,12,10,26,25,29,233,29,15,45,6,22,13,9,31,0,245
51,28,13,51,26,11,45,32,52,403,39,34,94,21,38,21,20,54,0,391
7,8,4,7,5,1,7,10,3,36,6,6,5,5,12,4,0,6,0,44
16,6,10,3,3,1,5,16,0,69,8,6,11,8,4,10,0,2,7,73
16,8,15,13,14,5,16,17,0,180,16,14,17,3,19,17,7,28,11,152
37,11,9,24,7,5,20,26,18,191,9,27,31,19,31,10,7,26,0,188
16,13,17,14,7,4,4,15,20,91,16,22,10,7,18,19,6,14,0,89
23,8,3,11,14,5,0,15,0,97,2,7,4,6,21,2,7,25,7,95
18,13,9,27,9,1,1,22,11,149,14,23,15,8,28,23,4,20,0,125
20,2,2,12,22,0,6,9,0,170,1,3,7,7,17,2,1,17,4,184
20,8,2,15,3,1,9,17,0,128,9,14,17,10,10,12,1,14,4,112
29,29,9,21,8,3,7,34,4,169,50,21,10,8,7,10,5,27,0,175
33,8,9,25,22,2,11,24,23,235,16,31,24,14,29,16,5,35,0,222
10,0,3,7,2,0,0,4,3,23,0,0,4,6,11,0,0,5,0,26
5,11,5,12,2,8,13,7,16,59,12,13,26,1,6,7,3,10,0,60
16,1,11,8,9,2,5,5,5,82,2,5,10,4,5,12,9,11,0,86
10,4,9,11,1,0,5,1,0,53,3,3,6,1,8,11,3,3,4,52
16,0,5,3,2,3,4,5,9,41,5,0,2,1,9,2,3,8,0,58
7,3,1,4,2,4,5,7,9,61,1,8,9,3,6,1,0,7,0,68
0,3,10,2,2,5,7,15,0,26,3,10,13,4,3,11,1,8,1,16
3,1,8,6,0,4,1,1,7,43,2,0,1,0,3,22,0,4,0,42
22,4,12,10,6,11,23,12,0,163,8,13,34,12,22,6,10,21,9,128
9,2,0,9,7,4,3,19,20,178,1,9,13,3,9,3,0,20,0,193
14,5,1,3,2,1,0,7,1,100,4,4,5,4,14,4,0,14,0,85
8,10,18,15,2,1,5,7,4,47,4,8,9,2,9,33,2,8,0,42
6,1,2,5,5,4,1,7,10,46,7,1,4,2,8,8,1,6,0,50
20,2,9,4,3,0,3,4,0,17,2,2,0,12,4,9,2,3,4,24
3,2,0,5,4,0,4,1,3,11,0,2,5,0,2,1,0,1,0,22
2,1,5,2,3,0,2,4,0,18,5,1,1,0,2,5,1,4,2,16
18,1,1,9,4,0,7,3,1,199,1,13,8,16,8,3,3,10,0,181
9,7,1,4,3,0,3,6,3,54,3,6,4,3,12,4,1,6,0,51
8,2,2,1,2,0,0,1,0,36,0,3,0,1,0,4,0,4,1,39
5,0,8,9,0,0,1,2,0,22,3,1,4,1,2,5,0,2,0,29
9,3,3,4,1,2,5,17,4,111,3,4,5,6,5,3,2,9,0,122
1,1,2,12,2,4,3,5,0,31,11,1,5,0,7,1,0,1,3,32
10,6,2,8,2,0,2,4,7,65,11,6,8,4,6,2,1,9,0,59
11,3,7,5,9,1,9,4,4,61,2,6,6,4,6,6,6,4,0,74
22,1,5,17,7,3,1,14,2,115,9,9,4,11,24,11,7,7,0,105
18,4,5,15,7,5,4,19,0,119,3,12,15,13,21,8,4,17,3,100
29,2,1,8,7,1,5,3,0,76,5,8,6,18,15,6,4,10,1,59
10,1,6,7,9,1,0,6,3,37,0,1,0,4,6,4,0,16,0,49
6,0,6,3,4,4,2,12,15,82,6,4,9,5,10,13,2,4,0,81
5,4,8,14,0,0,2,5,0,31,0,1,5,6,5,4,0,4,6,38
15,0,0,10,6,1,5,3,0,43,1,4,4,8,7,3,2,5,2,47
11,0,5,2,7,0,7,10,0,45,1,7,11,3,7,5,4,6,0,43
13,0,1,11,7,0,3,8,10,80,6,10,7,4,19,11,2,5,0,69
11,4,2,6,2,1,3,8,0,60,4,9,5,0,6,4,0,5,3,61
15,3,0,10,3,6,3,6,4,77,3,4,7,3,10,4,6,8,0,82
10,3,5,11,0,1,2,8,0,64,2,4,10,5,8,3,1,10,1,60
4,5,1,6,1,2,3,8,0,42,3,4,7,3,5,0,1,6,9,34
20,1,4,8,5,0,2,4,0,96,0,5,0,5,14,7,0,4,7,98
11,2,0,7,3,4,0,1,0,72,3,3,0,5,5,3,4,8,5,64
7,1,2,7,5,3,7,6,0,34,2,4,3,5,6,3,3,8,1,37
32,6,4,19,8,7,19,11,19,221,11,11,32,12,19,23,18,13,0,207
13,5,2,17,9,6,20,12,3,106,10,12,16,5,13,11,3,11,0,112
5,3,1,6,3,4,1,9,0,25,1,3,1,3,1,2,0,5,3,38
20,11,13,16,4,8,8,14,3,151,9,20,19,7,25,7,5,9,0,147
10,1,1,5,10,3,2,9,0,65,2,8,2,5,6,5,0,8,5,65
15,0,0,0,6,0,0,4,0,16,0,0,0,17,2,1,0,2,6,13
4,4,0,7,4,4,1,4,0,35,4,1,4,1,8,2,1,6,3,33
16,3,1,7,3,0,5,10,0,134,2,15,8,3,9,3,0,8,5,126
13,1,16,2,1,2,2,2,1,35,0,5,1,4,9,21,2,2,0,31
10,1,3,7,2,0,4,6,0,27,0,4,2,4,11,5,2,11,2,19
11,12,4,17,7,6,8,9,0,109,45,10,3,5,6,7,0,6,9,92
3,5,0,5,1,1,2,8,2,22,1,8,4,6,1,6,2,2,0,19
27,0,0,8,8,1,4,12,0,99,1,2,7,9,8,0,26,15,2,89
9,3,1,2,0,1,3,13,0,12,4,2,9,0,3,3,1,2,1,19
1,2,7,1,3,4,4,7,8,40,5,6,7,4,5,7,2,5,0,36
5,3,3,15,1,1,5,4,7,37,1,5,2,2,14,1,3,10,0,43
10,2,1,5,1,1,2,7,2,30,1,2,3,6,6,1,5,8,0,29
17,2,11,14,13,10,8,20,18,140,6,12,16,11,20,11,14,24,0,139
6,5,0,5,3,0,4,2,18,53,2,6,10,7,5,3,1,10,0,52
0,1,5,1,0,0,0,3,0,26,5,1,1,0,0,4,0,2,1,22
3,1,4,5,0,1,3,5,0,27,2,5,6,0,6,0,0,7,7,16
12,2,0,17,5,3,3,13,11,68,5,8,7,3,20,3,1,23,0,64
13,0,0,3,1,0,3,14,0,116,2,4,3,12,7,1,1,5,8,107
7,16,3,10,28,6,10,13,0,140,13,7,18,10,15,7,1,27,1,134
8,2,0,1,3,3,5,2,2,10,2,1,7,2,1,1,3,2,0,17
5,0,2,6,4,3,8,11,0,31,0,5,5,1,5,2,6,4,2,40
15,5,2,6,4,4,3,4,17,63,0,6,9,1,15,3,3,11,0,75
83,50,35,103,31,17,70,73,19,459,44,60,122,34,95,57,35,73,0,420
86,32,11,95,17,6,33,36,0,443,25,43,62,28,85,22,8,44,21,421
95,71,50,132,37,23,99,98,8,653,50,88,149,50,106,78,40,83,0,622
59,57,33,100,19,13,55,86,0,450,33,83,92,36,72,54,24,50,26,402
53,33,13,78,22,7,36,43,0,423,17,34,72,16,65,32,27,46,42,357
41,63,31,87,30,19,94,75,0,403,32,56,123,18,74,57,28,53,27,375
49,46,24,67,23,9,52,70,0,372,19,48,79,29,52,53,16,49,0,367
61,35,26,96,23,10,47,74,0,578,21,62,76,30,77,22,39,70,60,493
28,14,21,60,24,6,25,36,0,325,9,36,35,13,55,26,14,37,35,279
25,10,4,27,8,3,12,33,2,199,4,20,29,12,33,11,29,23,0,162
75,61,12,94,27,6,57,76,119,542,43,100,120,49,91,46,35,91,0,494
32,57,18,73,9,15,51,46,60,423,31,50,85,20,65,40,26,48,0,419
53,45,14,58,18,13,35,48,0,440,22,48,63,15,65,34,19,37,33,388
80,67,35,90,34,26,76,79,0,518,43,75,105,41,76,57,41,76,9,482
79,102,33,162,26,28,137,107,5,726,51,97,216,49,100,78,61,110,0,643
42,49,24,56,15,14,39,73,157,555,43,74,85,25,51,53,26,57,0,610
23,47,11,41,5,16,34,61,81,413,35,64,82,18,38,56,25,48,0,366
47,45,29,57,20,9,48,59,0,463,34,43,62,21,50,40,17,49,8,453
55,24,15,83,23,8,40,48,35,475,20,45,56,31,79,30,21,41,0,483
44,23,17,51,20,13,25,53,0,334,11,36,55,22,48,26,13,45,7,317
38,44,9,57,20,10,50,90,0,3599,24,73,124,22,43,41,21,69,147,3353
45,40,18,50,19,16,38,29,0,300,20,33,45,12,30,40,22,34,48,271
68,24,26,72,31,12,36,65,0,403,20,30,61,33,70,40,11,53,21,398
73,59,31,70,20,11,63,50,0,433,36,42,93,35,60,49,45,49,37,364
42,39,12,48,19,17,38,42,44,359,25,50,74,21,41,23,17,37,0,372
32,56,16,64,23,12,51,77,105,456,31,84,107,28,42,55,16,62,0,467
50,52,23,93,14,17,69,63,127,601,33,77,118,36,56,67,34,56,0,632
47,22,13,74,28,6,30,41,0,499,17,39,56,16,40,33,9,58,60,432
29,14,7,21,15,5,14,17,0,183,12,21,17,13,23,14,8,25,22,150
72,37,22,80,34,8,63,69,0,585,26,51,107,55,66,38,27,64,23,513
56,9,6,65,16,5,21,46,0,401,18,22,37,14,70,17,15,48,1,383
83,21,9,77,48,8,34,31,13,439,17,48,53,32,60,29,24,71,0,429
86,22,15,69,32,18,42,60,10,450,27,50,82,29,70,30,21,47,0,448
41,15,11,47,26,3,15,38,9,398,15,34,38,14,44,18,12,42,0,386
62,43,8,55,35,9,47,54,0,463,20,62,71,31,57,18,16,67,8,426
59,31,12,82,37,9,37,45,24,416,23,54,64,34,62,27,19,48,0,421
53,35,14,69,28,16,37,26,17,395,19,37,68,25,61,27,25,49,0,379
78,25,17,72,41,12,48,53,5,462,29,54,84,35,54,38,29,59,0,431
54,31,13,56,23,8,31,54,16,475,26,45,74,22,45,29,17,44,0,459
67,22,16,39,43,6,25,40,8,351,22,35,55,26,60,16,11,48,0,344
45,54,20,80,19,8,50,66,16,454,32,43,84,30,67,29,25,50,0,452
69,19,11,58,37,5,28,48,0,452,20,36,45,22,64,10,7,46,64,413
64,12,14,70,42,6,18,40,0,451,15,33,42,24,62,13,20,52,45,411
56,27,8,73,37,13,24,48,0,544,18,39,59,27,76,23,10,54,41,483
58,24,12,82,65,16,23,38,0,573,17,42,73,26,69,13,16,47,95,493
31,38,14,53,46,12,23,53,0,461,26,27,62,23,54,34,14,48,37,406
52,43,18,85,18,20,51,51,0,414,27,67,82,35,52,26,20,55,29,359
32,23,18,61,20,15,44,49,0,369,28,36,60,16,50,25,18,50,25,323
44,83,19,88,15,18,59,95,0,449,35,67,96,27,64,70,37,69,31,374
27,36,10,34,13,2,33,38,0,193,20,31,47,5,29,21,14,35,4,180
47,45,15,52,9,18,40,65,0,419,26,51,66,15,41,34,13,35,36,393
68,51,15,66,19,9,52,48,0,367,27,56,74,29,53,32,27,32,45,320
32,27,4,39,24,10,27,48,0,403,18,48,49,15,31,14,16,54,3,366
28,35,24,32,16,4,45,51,0,419,20,42,57,11,34,46,19,45,36,344
60,28,11,74,39,15,20,70,0,661,18,42,57,32,56,21,18,82,79,573
39,32,8,44,24,20,30,75,0,650,15,52,49,31,35,24,25,68,41,582
63,31,29,68,23,9,33,61,0,688,23,66,66,33,64,27,27,58,65,576
60,41,21,88,30,9,25,74,0,809,33,59,70,36,72,25,15,85,71,691
50,21,11,56,18,5,24,57,0,877,14,37,40,21,36,28,8,58,22,855
49,23,11,51,30,15,19,63,0,784,14,33,35,17,46,24,13,60,54,749
72,26,17,89,45,13,42,101,0,896,38,54,118,40,107,21,25,98,28,772
35,27,13,63,26,13,22,37,0,644,28,42,57,15,53,21,10,40,59,555
85,27,14,82,40,7,36,42,48,533,41,41,65,42,93,25,13,67,0,527
95,108,36,126,41,13,112,98,298,835,56,146,266,52,118,84,51,106,0,883
47,25,19,57,21,4,26,63,0,379,22,24,75,11,59,22,21,31,37,339
58,43,34,100,34,22,50,97,0,889,39,85,102,43,70,72,24,90,32,770
77,34,23,86,37,19,33,94,0,762,29,67,83,35,80,21,26,91,21,712
66,33,16,73,37,19,29,57,0,613,24,62,48,34,64,33,24,67,33,554
62,80,37,97,27,22,75,81,15,538,38,68,121,59,69,62,52,72,0,493
23,20,2,47,9,0,24,20,0,229,25,12,47,17,54,11,15,16,5,172
60,25,5,44,36,11,22,38,0,603,24,40,47,25,40,20,20,64,53,511
48,22,13,75,30,11,33,52,0,538,18,47,51,20,70,13,20,47,40,496
88,42,20,69,42,10,35,48,0,570,23,36,62,24,72,41,10,77,60,519
58,18,12,67,53,9,22,44,0,525,24,44,46,30,90,27,16,57,56,418
17,25,6,39,17,8,30,23,23,225,18,27,53,5,35,28,13,26,0,208
53,35,11,87,39,14,48,46,0,461,43,37,65,23,74,12,42,62,30,406
88,23,14,54,38,8,16,50,0,553,15,27,57,48,78,19,17,63,52,468
66,36,12,57,38,11,34,50,0,492,20,47,59,37,79,18,19,43,38,436
81,30,15,77,46,11,17,44,0,423,16,37,61,43,67,19,12,63,38,388
59,25,11,65,52,8,21,41,0,494,26,38,42,30,62,17,11,57,56,437
77,22,8,62,63,11,27,45,0,469,24,42,43,27,61,17,18,78,50,424
38,33,14,41,14,7,36,25,0,283,8,33,55,21,36,32,14,28,9,255
30,11,4,60,10,5,27,27,0,291,13,39,30,9,35,13,8,30,22,266
47,23,13,47,17,5,18,21,2,321,19,36,36,13,46,15,16,39,0,294
19,33,15,29,10,3,33,39,37,296,14,47,64,8,22,37,22,20,0,280
55,20,20,81,39,4,37,43,0,380,18,36,55,36,62,30,24,51,44,323
72,51,17,118,23,23,38,63,0,575,52,57,102,37,89,27,51,72,45,448
46,33,29,73,25,15,62,50,17,414,25,58,101,23,55,36,32,65,0,369
80,36,11,75,49,22,73,81,3,586,34,62,124,37,76,35,30,86,0,532
81,50,28,76,54,26,72,78,0,528,39,55,96,42,84,42,39,61,54,481
114,70,37,134,41,28,70,84,62,606,55,85,122,59,106,74,83,103,0,559
22,1,1,16,7,1,4,6,0,77,0,6,9,20,12,0,0,7,3,78
7,3,2,5,1,0,1,4,4,39,1,5,0,10,9,0,0,2,0,39
5,3,5,7,4,1,4,3,0,57,3,2,7,5,4,5,1,5,11,46
27,9,12,27,3,3,12,12,2,86,3,17,16,13,27,10,3,23,0,81
14,4,2,5,20,0,8,6,3,76,7,8,4,11,8,5,2,9,0,84
39,6,3,12,10,7,10,13,18,231,11,11,20,29,21,8,7,38,0,204
120,27,69,76,17,14,59,59,0,609,23,31,63,98,71,72,14,75,3,600
155,33,49,82,50,7,45,69,0,835,25,49,67,102,115,65,18,126,34,724
57,26,15,49,14,6,20,32,40,374,20,26,56,38,45,43,25,39,0,341
12,11,4,9,0,2,7,16,6,58,2,14,24,5,12,7,4,11,0,46
44,58,35,60,15,7,57,51,32,383,25,45,88,23,63,65,24,55,0,354
21,7,5,14,7,0,6,12,12,206,9,12,18,6,23,4,5,16,0,197
33,9,9,17,29,7,25,28,0,291,18,18,20,25,24,16,4,42,0,281
2,3,0,3,1,1,2,0,3,27,0,0,7,2,2,3,0,2,0,26
4,6,17,2,0,1,2,3,0,27,7,4,3,0,7,6,2,6,0,27
5,6,3,8,3,0,5,5,1,47,10,2,2,3,3,5,1,8,0,49
8,5,1,1,3,1,2,3,0,27,0,3,9,5,1,0,1,11,3,18
12,4,6,8,2,0,0,8,0,48,16,3,3,3,7,5,2,6,2,41
82,17,8,54,40,13,36,40,2,681,58,45,40,25,64,22,11,63,0,645
26,12,6,22,11,5,46,24,5,222,16,20,37,12,22,21,6,26,0,219
5,1,3,1,4,2,3,6,2,29,10,3,4,0,3,3,0,6,0,27
7,3,0,1,6,0,5,11,0,28,4,5,4,3,5,0,0,6,5,29
8,1,5,3,3,1,7,5,0,52,2,4,10,2,8,2,1,7,0,49
20,2,4,4,5,1,9,8,5,63,1,10,11,5,10,9,1,17,0,57
12,1,9,4,0,2,8,5,0,68,2,9,2,10,6,11,0,5,11,53
9,4,4,3,7,8,17,7,0,56,9,5,22,3,7,2,0,15,6,46
57,7,19,41,10,4,49,38,45,520,31,32,48,30,42,38,12,72,0,485
7,1,2,6,5,0,8,11,5,51,3,2,17,8,5,2,3,11,0,45
28,6,21,19,11,6,15,24,28,205,13,25,28,12,23,40,11,27,0,184
23,22,69,36,7,11,38,42,9,308,17,35,66,22,36,74,11,36,0,268
10,10,14,27,3,2,13,16,44,96,17,20,23,5,14,19,3,18,0,116
18,6,4,21,8,2,5,9,0,192,10,14,6,4,13,8,10,16,5,179
16,4,6,19,16,0,7,10,11,110,19,3,15,14,8,5,3,16,0,116
33,6,5,7,9,2,4,15,0,101,6,23,19,7,15,1,0,20,2,89
9,4,1,23,21,1,12,23,18,70,1,8,8,6,24,5,1,30,0,99
22,13,3,18,7,2,23,14,0,133,15,12,38,12,17,15,4,23,5,94
111,50,26,122,39,24,185,90,40,590,57,63,210,79,96,60,11,86,0,615
63,49,12,97,32,7,132,46,101,563,20,68,175,54,66,50,13,78,0,578
80,44,22,57,30,28,96,98,0,614,31,48,115,61,65,39,12,64,44,590
15,10,13,22,6,5,10,25,11,76,5,17,27,7,13,17,10,20,0,77
90,44,27,77,9,21,66,80,68,574,43,81,158,35,61,49,27,66,0,536
12,1,1,11,12,4,1,7,6,41,0,5,5,2,12,2,0,17,0,53
86,12,27,18,152,5,17,68,0,579,8,28,29,32,73,27,9,146,0,612
12,7,2,17,6,4,8,11,0,142,6,8,17,11,15,3,11,18,2,118
37,49,16,37,12,13,32,42,29,219,29,15,64,21,30,34,13,50,0,230
13,3,6,5,9,2,4,9,0,126,1,10,0,2,7,9,1,4,31,112
84,86,42,116,25,26,80,89,0,736,51,88,136,33,109,79,46,97,17,628
7,3,1,5,5,1,5,13,6,27,5,2,6,4,4,4,1,10,0,37
11,2,0,4,5,2,4,4,0,51,0,0,4,1,5,0,2,9,7,55
10,3,9,4,2,2,6,5,0,59,0,3,16,1,8,8,1,6,1,56
29,5,5,22,12,10,7,18,5,237,9,16,8,11,30,3,5,10,0,258
16,8,5,5,6,1,5,6,0,72,1,11,13,8,7,12,1,25,2,44
20,4,5,8,4,1,12,16,0,131,4,14,14,9,19,6,3,22,4,106
28,0,3,5,8,0,0,11,2,63,0,13,5,6,6,2,1,9,0,78
8,0,0,2,2,2,2,4,0,21,0,0,2,1,11,0,0,7,1,19
7,0,1,4,4,3,0,4,0,50,2,0,1,0,6,0,8,6,3,47
22,2,0,6,10,1,1,5,8,71,2,9,2,9,6,0,0,22,0,76
45,11,16,19,37,5,15,21,29,261,5,19,18,16,37,17,6,63,0,278
70,49,50,67,41,15,121,73,22,569,34,58,158,50,91,73,18,72,0,523
9,8,12,7,3,4,28,17,2,104,8,17,30,9,14,9,3,7,0,97
24,24,26,34,9,7,61,30,64,370,15,43,85,17,42,61,8,38,0,340
6,4,23,10,4,1,12,16,9,87,6,14,13,3,12,24,2,14,0,84
14,3,1,8,9,3,8,7,0,110,5,9,19,3,10,7,1,7,6,96
135,44,55,82,58,23,83,106,4,947,51,90,126,64,99,70,33,97,0,907
15,8,0,11,2,1,0,14,0,33,3,3,2,10,6,6,2,12,0,40
7,5,1,5,8,0,4,8,1,29,4,2,6,2,5,6,0,8,0,35
8,8,3,4,9,1,15,6,12,28,8,4,17,7,2,5,6,12,0,33
11,5,11,5,7,3,4,15,0,102,12,10,3,6,5,12,5,13,4,93
14,9,3,10,5,6,4,14,1,75,7,14,9,8,8,7,4,16,0,68
23,12,9,24,5,5,22,15,0,253,6,20,34,27,29,10,12,21,5,204
43,50,35,34,18,6,26,26,57,351,45,22,33,22,41,34,14,48,0,387
26,33,1,14,17,3,7,13,0,136,27,13,15,5,19,9,5,22,2,133
57,109,28,51,35,13,43,35,46,739,59,34,78,40,59,66,15,76,0,729
99,231,38,114,52,8,80,64,0,801,111,78,111,34,102,91,22,106,37,795
53,53,18,46,27,11,49,41,25,355,29,58,89,23,49,38,27,51,0,314
54,50,12,71,8,10,83,80,0,462,43,70,174,36,59,30,16,61,2,339
29,25,9,27,11,13,35,36,12,251,17,23,69,11,24,26,24,20,0,234
20,3,6,12,5,1,11,18,7,49,6,14,13,4,19,5,2,15,0,54
48,12,11,11,11,7,37,24,11,275,18,13,49,24,38,14,7,20,0,264
8,0,0,5,2,0,1,7,3,17,2,3,1,5,4,1,0,6,0,21
29,3,2,9,8,0,3,19,4,109,2,10,4,8,19,14,4,21,0,104
13,3,2,8,3,1,1,11,2,50,3,6,4,6,10,2,0,10,0,53
13,7,26,21,7,9,13,27,0,167,12,26,34,5,23,29,12,9,8,132
19,1,6,12,15,2,6,11,0,124,2,3,5,8,17,6,0,23,0,132
137,9,20,44,48,7,43,75,0,656,16,61,75,92,92,38,10,101,1,553
80,7,10,17,49,5,18,44,0,575,12,35,29,42,48,9,8,82,14,526
9,1,1,10,8,2,5,7,1,57,0,1,4,0,14,1,0,20,0,61
40,18,7,20,21,9,24,16,20,377,6,22,44,23,40,17,12,43,0,345
3,6,8,19,9,4,10,11,0,72,4,2,14,4,9,12,2,12,4,79
52,5,6,24,8,9,19,27,0,358,12,17,28,34,21,7,15,42,4,328
15,2,3,21,2,0,11,5,5,83,14,1,8,7,20,6,2,4,0,85
81,50,12,64,16,13,83,77,50,522,51,56,135,28,63,53,25,77,0,480
16,7,3,8,3,4,21,9,0,69,7,6,22,6,13,1,4,12,4,65
66,39,37,64,35,4,59,60,42,527,35,45,88,32,72,42,16,73,0,530
72,41,22,94,31,10,77,69,0,624,28,60,115,38,71,35,35,90,79,489
49,29,20,54,24,15,81,53,19,368,26,59,89,33,40,51,20,67,0,327
16,0,4,3,1,5,1,3,6,37,7,12,6,7,6,2,2,8,0,26
8,4,1,8,1,1,3,3,5,42,10,10,6,3,4,7,3,2,0,31
26,6,14,20,4,0,6,19,16,150,15,16,23,16,24,13,6,15,0,133
7,3,5,11,8,5,8,11,14,61,4,12,14,1,10,7,4,20,0,61
24,1,6,28,15,0,3,14,17,217,4,15,9,4,26,8,5,25,0,229
4,0,1,11,7,2,5,2,0,55,0,5,2,5,7,0,1,6,0,61
58,38,30,62,10,6,48,59,72,372,44,51,109,23,54,40,11,48,0,375
81,107,13,102,17,12,94,72,171,656,113,76,170,29,83,65,34,82,0,673
79,56,19,70,26,17,68,91,57,508,56,76,117,46,60,55,14,81,0,486
41,8,3,34,14,5,37,26,18,218,9,19,40,9,38,11,14,50,0,214
12,3,4,12,2,7,17,22,0,95,9,9,27,8,9,9,4,10,2,87
33,3,13,32,13,7,22,43,24,273,10,32,42,23,42,23,9,32,0,250
107,36,31,99,30,19,71,52,17,655,34,69,88,36,88,38,19,81,0,664
43,38,28,29,25,2,29,42,51,421,32,23,49,17,47,38,7,45,0,450
6,3,0,5,3,0,4,11,0,42,0,11,5,7,5,2,0,6,2,36
4,0,4,2,1,1,7,3,0,21,2,1,4,1,1,3,0,6,5,20
9,0,1,4,6,0,2,3,0,51,1,8,2,6,3,1,1,8,3,43
11,1,0,8,2,0,1,19,0,82,0,7,5,3,10,2,1,19,5,72
3,2,1,7,2,2,3,5,4,31,2,3,2,1,7,0,0,7,0,38
24,0,4,11,11,5,13,15,2,242,6,11,17,11,18,8,4,32,0,220
70,6,13,42,16,24,16,44,7,450,22,44,29,37,80,11,11,53,0,401
72,19,18,51,26,29,27,41,8,671,16,43,32,35,66,37,27,64,0,642
31,3,0,24,10,10,15,16,0,242,10,10,22,9,37,5,9,20,22,207
68,6,14,43,25,27,19,49,0,385,7,21,37,32,63,16,17,77,14,352
49,6,15,26,27,31,27,35,0,396,11,24,36,29,51,12,20,54,12,363
21,8,5,13,16,12,10,13,21,235,14,19,31,7,21,13,2,31,0,216
9,0,11,4,3,11,6,0,2,43,3,2,6,3,6,22,4,9,0,34
9,1,3,1,4,6,2,4,7,47,4,2,6,7,7,3,2,8,0,45
5,1,2,1,6,6,3,1,2,32,5,0,3,1,6,1,6,11,0,26
30,0,1,4,6,0,8,11,11,49,0,4,12,2,8,6,0,33,0,55
8,1,1,21,14,9,1,14,21,147,5,17,10,2,19,2,8,34,0,140
28,10,8,20,20,2,18,35,0,230,2,13,27,12,23,16,5,38,4,231
60,6,7,53,33,7,25,60,0,527,20,30,47,8,64,18,10,67,54,460
32,8,12,31,21,3,24,64,0,379,12,22,26,17,43,11,8,40,15,380
43,18,14,37,16,1,37,70,0,450,14,24,39,14,41,32,6,60,44,412
50,14,13,43,15,12,35,89,0,793,17,53,48,15,45,36,11,90,48,701
48,7,6,27,27,6,21,65,0,559,21,44,21,19,25,18,10,82,5,521
78,33,39,72,36,15,68,78,0,572,30,50,85,48,92,53,28,80,17,508
8,2,0,11,2,0,10,3,2,21,0,4,10,8,7,5,3,5,0,17
11,4,4,10,3,1,6,9,0,56,7,7,13,4,8,0,1,7,7,50
16,4,0,8,8,0,11,7,7,133,1,10,9,3,10,6,4,24,0,127
32,19,18,25,20,6,32,61,24,690,8,26,62,11,35,28,8,48,0,701
103,51,30,105,40,20,105,165,249,862,72,125,261,61,139,91,40,118,0,823
39,29,22,39,17,7,46,43,24,359,31,53,80,18,36,32,15,58,0,302
9,1,0,27,0,0,4,7,2,53,1,8,6,1,27,2,1,4,0,53
7,2,2,3,4,2,5,14,0,65,3,9,7,1,8,4,5,5,8,54
42,10,4,46,9,3,24,36,29,334,9,34,36,21,56,19,7,25,0,330
17,2,6,2,4,7,14,14,0,83,7,19,30,2,7,3,4,10,1,66
56,33,8,65,41,13,26,40,0,567,25,28,48,28,71,23,6,74,6,540
83,36,28,87,46,10,56,72,0,889,60,65,109,51,88,50,13,76,6,789
59,21,8,57,38,9,34,41,0,532,28,37,43,29,66,11,6,81,27,471
38,4,5,24,6,5,13,23,13,215,14,15,28,10,23,9,2,28,0,217
12,0,2,19,22,3,9,14,0,211,4,11,13,7,30,1,4,35,3,184
8,0,1,2,1,0,1,0,0,16,2,2,0,0,6,3,0,0,0,16
15,0,6,10,1,0,1,4,0,43,4,2,0,4,9,3,0,12,0,46
17,2,6,10,3,3,0,2,3,54,1,7,6,4,11,2,4,14,0,51
11,0,1,4,4,0,3,3,3,2,0,0,1,3,7,1,0,4,0,15
18,1,2,13,6,0,10,14,0,157,7,11,13,7,16,6,0,15,0,146
4,3,0,0,4,0,1,4,2,10,2,0,3,1,1,2,2,3,0,14
2,1,2,1,0,0,3,2,4,11,2,2,1,0,0,1,0,5,0,15
73,10,14,36,25,4,24,33,0,512,11,28,44,32,58,12,5,45,49,447
47,6,9,28,20,6,18,48,0,370,11,39,28,11,51,6,7,28,21,350
17,12,13,18,3,3,18,25,0,227,3,29,30,12,12,7,7,20,39,177
75,20,39,47,23,9,57,51,0,399,27,42,78,34,42,61,8,38,17,373
31,33,20,31,14,4,42,38,0,347,16,37,75,17,27,35,6,28,17,302
25,21,11,9,8,6,38,48,7,548,7,28,68,11,17,44,5,41,0,500
40,22,21,36,19,12,32,28,0,343,21,36,45,22,38,29,5,22,48,287
49,20,19,31,15,13,27,59,0,580,12,45,55,30,29,27,11,63,17,524
73,26,40,66,38,18,30,59,0,651,20,57,59,31,68,37,9,78,48,594
47,28,12,34,30,3,35,30,0,419,6,38,44,25,53,27,7,33,13,392
90,18,15,47,38,2,29,38,4,517,22,45,42,26,66,17,15,62,0,503
42,16,10,36,22,8,32,25,0,279,14,19,54,12,47,19,9,42,17,237
59,22,23,36,37,11,49,44,6,432,17,51,86,22,47,39,7,60,0,390
41,32,35,42,10,12,53,35,0,255,19,28,77,15,30,39,13,38,16,240
49,14,10,24,26,10,43,22,0,342,12,23,46,16,30,18,8,54,39,294
55,14,19,46,40,16,21,44,0,634,18,31,34,32,57,28,15,62,71,541
67,8,62,38,28,10,24,38,44,696,6,21,35,20,95,40,8,73,0,717
74,13,29,34,24,8,59,15,0,413,9,19,52,25,55,38,11,48,18,394
52,24,34,41,29,12,40,39,2,576,19,39,48,28,54,33,20,57,0,551
28,0,6,24,34,3,9,8,5,305,4,15,10,19,37,11,3,34,0,289
30,11,10,37,63,5,22,34,0,458,13,31,36,6,42,13,13,58,19,439
57,14,13,26,51,12,22,22,33,777,18,22,34,16,60,18,4,63,0,792
10,4,2,3,5,5,5,8,2,63,2,1,11,5,13,2,1,4,0,68
56,62,38,51,11,14,46,42,33,580,52,48,79,31,49,68,19,64,0,523
86,20,5,44,34,2,55,51,3,749,21,100,84,21,93,25,5,73,0,627
98,36,31,48,39,35,34,68,12,461,37,50,94,52,60,51,32,74,0,412
40,3,1,16,14,3,6,10,0,296,6,6,15,23,15,5,1,13,12,293
50,19,10,31,39,7,38,37,0,638,32,23,48,11,54,7,5,44,30,615
52,17,18,49,79,13,37,18,11,597,32,25,40,20,75,23,4,53,0,619
36,5,3,27,18,5,22,28,34,521,12,28,29,8,50,18,9,39,0,506
54,22,13,48,36,14,25,44,0,735,20,45,54,24,94,28,17,57,1,651
39,10,39,46,31,12,19,41,0,456,7,35,28,22,53,29,11,64,37,407
27,4,41,42,24,5,16,22,0,722,7,26,31,16,44,23,6,57,10,683
81,17,41,59,46,16,23,33,23,531,10,42,53,30,83,38,24,60,0,530
24,2,21,11,6,0,6,16,0,182,3,14,8,10,17,15,5,28,0,168
56,7,31,30,24,14,21,16,0,342,6,16,29,25,46,19,8,51,30,311
14,6,46,4,5,3,6,8,21,144,6,5,11,4,19,31,3,16,0,162
47,4,15,24,16,2,11,20,0,369,5,21,18,18,44,10,7,48,23,314
32,6,30,32,31,4,21,23,0,463,4,27,31,16,51,19,14,54,38,388
53,11,49,34,13,7,12,28,0,393,7,20,26,17,36,27,15,45,30,377
8,2,7,17,6,12,9,13,0,189,5,17,19,4,17,5,8,13,8,167
35,14,37,29,15,31,42,50,36,390,13,40,53,26,34,39,34,59,0,381
109,43,32,66,18,63,85,68,0,878,30,87,133,45,94,54,49,72,36,762
27,3,4,26,6,3,38,16,4,346,17,29,58,8,29,18,9,22,0,283
16,5,3,35,14,2,19,28,0,578,6,13,24,5,33,15,4,33,18,549
33,3,3,60,27,1,7,21,0,514,10,27,15,10,57,5,6,40,40,459
76,15,19,51,39,13,13,40,11,769,28,43,36,23,74,13,21,62,0,746
8,10,19,15,5,6,7,15,9,261,10,17,24,1,11,22,2,20,0,248
25,4,40,18,13,0,10,16,6,260,15,20,14,20,29,21,9,29,0,235
28,7,10,23,15,5,11,14,11,300,5,16,6,9,47,19,6,35,0,281
9,3,4,8,3,0,9,10,1,156,0,4,15,4,11,6,0,13,0,150
21,7,0,10,15,1,14,7,0,116,5,2,19,10,18,2,3,17,27,88
32,9,15,19,10,3,5,25,5,388,7,15,37,14,28,24,5,26,0,355
21,9,1,12,2,7,19,13,0,80,9,13,19,7,10,8,6,6,7,79
34,10,2,22,11,3,14,11,13,178,7,13,24,5,29,12,3,12,0,193
25,5,3,6,21,45,5,20,10,204,5,10,22,16,31,7,9,42,0,202
24,8,45,20,9,0,5,11,14,163,1,7,21,17,18,30,7,15,0,183
8,1,6,4,8,2,6,16,0,143,0,3,15,1,8,17,2,23,2,123
53,21,23,74,29,13,33,50,0,708,10,49,50,17,79,44,16,63,5,671
79,30,43,71,36,14,45,55,0,638,28,54,70,40,69,63,16,58,37,576
80,33,66,101,36,18,50,70,10,711,23,73,88,42,75,87,24,89,0,674
112,6,16,41,41,3,32,70,0,740,2,31,33,93,78,30,5,96,44,649
111,12,10,37,24,8,18,63,0,755,7,34,42,91,47,19,5,81,29,683
53,10,8,32,15,8,11,58,0,815,6,24,31,81,40,17,6,45,28,732
65,34,15,36,34,7,50,44,0,551,19,51,58,18,54,47,11,39,23,516
58,33,8,55,37,16,46,39,0,723,27,46,63,20,53,23,12,58,40,673
37,30,18,23,20,47,21,52,28,355,12,23,41,22,36,33,28,49,0,387
26,9,27,12,1,7,16,18,0,214,9,14,23,13,9,55,0,12,7,188
66,12,6,17,15,0,23,30,0,420,11,28,27,7,42,14,7,81,0,372
35,14,14,26,9,3,20,31,0,269,16,19,23,8,25,17,7,51,10,245
88,20,11,41,18,3,30,27,0,351,17,31,48,20,29,25,13,84,23,299
94,13,16,56,51,3,39,42,24,637,36,45,44,23,51,17,12,129,0,618
117,17,26,64,18,5,47,53,5,408,23,48,55,11,73,33,9,120,0,388
130,50,31,68,26,6,83,55,8,710,53,37,78,29,87,56,9,196,0,622
105,16,4,57,37,7,27,39,0,533,24,24,24,20,65,11,14,124,25,494
32,2,4,8,15,0,5,9,0,90,4,11,3,10,13,7,7,30,1,79
28,13,1,7,8,2,4,2,15,111,6,6,11,4,18,11,6,35,0,94
26,2,1,14,5,0,12,18,2,142,1,11,19,5,13,2,2,48,0,121
30,2,0,7,11,0,2,15,9,120,3,8,2,8,10,7,4,20,0,134
4,2,0,6,1,0,1,2,0,31,2,3,2,1,6,1,1,5,2,24
42,2,2,12,15,0,13,5,0,108,4,4,10,6,12,2,0,58,6,97
43,10,3,13,12,0,10,13,0,123,5,8,8,3,21,3,5,62,8,104
89,14,12,33,16,9,36,31,0,500,9,35,44,16,38,20,18,102,8,450
93,5,7,34,20,2,14,40,0,514,15,39,22,18,29,14,3,106,16,467
101,8,8,64,29,3,16,38,0,496,12,26,24,21,44,13,5,108,37,473
127,6,5,40,41,1,18,33,0,596,10,14,18,18,50,11,11,103,56,576
105,13,4,39,59,3,23,30,0,458,7,18,29,16,69,17,6,111,34,427
63,9,5,23,26,2,18,14,0,302,18,20,15,9,29,9,8,47,28,279
157,36,30,72,22,9,84,46,0,614,27,45,67,33,68,60,19,143,40,568
110,15,11,39,33,5,29,38,0,511,18,36,23,17,37,20,8,101,54,477
90,24,12,36,37,3,73,54,0,1260,22,39,88,23,43,39,14,140,6,1175
48,17,15,18,11,0,30,30,0,292,15,16,31,14,17,21,4,62,3,278
101,8,4,23,23,2,15,20,0,356,5,14,18,19,50,9,2,56,39,340
61,4,6,23,16,3,5,15,0,329,8,20,9,15,28,9,6,54,24,289
62,3,9,23,12,2,8,13,0,298,4,14,9,9,29,8,9,56,37,255
72,10,9,23,22,6,29,19,0,298,9,14,23,9,37,21,11,72,34,258
89,5,7,22,15,1,18,18,0,268,6,13,19,15,21,5,13,46,38,267
93,15,15,37,21,2,34,31,34,295,22,25,28,16,33,24,12,102,0,315
9,2,2,9,7,25,3,8,0,168,7,1,12,12,9,3,2,12,14,161
7,4,13,5,9,1,4,12,8,114,5,6,13,0,11,16,2,16,0,108
8,5,13,7,3,0,0,7,0,86,2,4,2,4,4,9,0,10,4,90
26,6,30,19,12,3,19,44,0,317,8,27,20,6,32,41,0,15,39,288
42,1,22,18,13,0,8,18,0,334,4,28,15,12,33,18,1,41,20,284
55,10,3,15,11,2,8,20,0,353,8,11,7,8,22,7,4,45,49,316
150,15,8,48,26,6,25,57,0,659,26,48,44,34,60,14,2,79,17,670
155,11,13,34,26,6,15,36,0,734,13,36,16,32,55,22,4,72,23,757
11,0,2,10,5,1,5,22,12,76,5,6,3,7,23,5,0,14,0,81
57,11,28,23,33,0,21,36,0,423,12,28,34,12,41,33,2,39,19,412
38,6,0,5,4,1,6,10,7,98,4,11,1,3,21,3,31,13,0,88
106,2,2,10,5,0,7,15,11,265,4,18,5,8,24,8,31,41,0,284
32,8,66,36,34,9,22,32,12,274,7,21,43,14,37,50,1,47,0,305
40,8,28,22,22,2,29,32,36,231,5,30,37,3,29,29,4,42,0,271
15,1,22,9,14,10,13,17,2,219,4,15,23,4,14,11,2,25,0,224
26,1,28,17,20,1,4,19,9,185,4,7,6,9,42,22,3,21,0,196
15,2,19,14,7,1,7,12,0,166,3,3,9,5,10,13,1,25,8,166
16,0,35,31,9,2,0,10,0,130,1,5,2,9,32,33,0,19,4,128
35,3,36,28,29,5,14,20,0,267,2,21,19,15,46,29,1,43,38,223
34,3,27,28,23,2,26,20,0,308,10,16,23,15,32,35,1,44,37,258
53,8,40,33,34,0,17,23,0,325,2,16,30,16,53,46,3,44,42,281
35,4,46,16,19,8,25,48,0,391,14,25,41,7,26,54,3,34,23,365
24,1,35,21,27,1,8,10,0,250,3,15,14,5,33,29,1,33,18,226
42,6,53,27,39,5,22,46,0,313,4,13,33,9,32,46,4,50,27,335
28,3,47,26,23,2,18,42,0,489,1,27,26,10,51,38,3,43,40,439
37,1,101,32,18,3,21,34,0,282,1,38,38,9,48,83,0,34,3,275
38,1,5,15,13,0,7,12,0,408,8,13,10,10,28,6,2,32,0,390
66,8,12,30,16,3,82,30,0,363,6,37,70,13,35,21,4,42,5,377
13,1,0,0,1,1,0,8,3,24,6,1,6,2,3,0,1,7,0,25
28,3,1,7,10,1,2,8,8,61,5,11,7,9,12,4,5,14,0,62
17,1,2,7,2,0,2,14,5,24,1,1,2,0,11,12,2,10,0,35
10,3,0,0,2,3,7,2,10,50,5,4,4,3,8,3,0,4,0,56
93,4,4,21,24,4,11,18,0,228,9,21,15,12,33,8,2,46,11,250
36,6,0,13,10,2,5,3,4,125,7,18,3,6,20,2,2,11,0,135
47,3,1,8,19,1,2,10,15,230,8,4,9,3,27,12,4,47,0,222
24,3,40,18,2,1,5,21,13,141,8,22,9,7,18,41,2,21,0,140
7,7,2,3,5,2,3,1,0,50,0,5,2,5,12,2,0,2,9,43
18,2,1,11,14,2,3,8,5,72,2,1,3,6,25,4,2,18,0,75
1,3,2,3,4,0,6,3,5,52,1,3,10,2,7,6,2,4,0,44
102,5,22,40,36,2,16,71,0,606,19,36,25,20,76,22,12,56,36,598
62,6,13,25,20,1,11,16,0,354,5,10,26,8,47,10,1,33,27,341
25,2,4,5,14,1,2,15,6,54,2,8,3,6,4,4,7,21,0,73
8,0,0,1,1,3,0,2,8,41,0,4,2,0,1,1,7,8,0,41
18,4,7,2,1,0,6,3,3,26,3,0,4,1,5,4,3,11,0,39
99,29,6,36,13,1,23,64,0,383,18,42,26,23,42,23,28,113,18,321
14,3,2,7,4,5,8,15,2,78,1,6,6,3,16,2,2,18,0,84
24,3,9,3,1,0,0,3,0,24,16,5,0,3,4,1,0,7,0,31
209,28,34,117,50,9,85,79,0,1011,41,80,85,48,114,36,15,109,24,1070
7,0,5,8,1,1,4,2,0,54,2,9,6,1,0,4,2,1,2,55
8,3,17,9,5,2,1,5,0,44,2,4,10,1,5,10,6,16,5,35
107,22,44,45,67,6,50,59,0,614,29,58,58,27,41,50,22,119,2,608
72,1,6,14,19,3,8,18,6,301,3,17,6,18,47,12,5,30,0,310
21,0,0,6,8,0,3,1,5,99,1,5,5,0,8,0,2,18,0,104
62,6,0,24,20,1,8,10,9,266,11,18,4,8,28,5,2,31,0,299
174,31,20,72,48,28,37,88,4,981,18,49,76,75,112,31,43,104,0,975
38,4,23,16,14,9,11,12,0,280,5,30,16,9,29,25,2,23,7,261
14,3,3,7,16,1,0,7,0,146,5,2,1,3,9,4,1,18,9,145
181,4,8,15,23,6,11,14,0,386,13,22,22,25,39,2,10,59,51,405
133,9,2,29,21,5,26,27,0,418,11,22,40,19,38,8,9,63,4,456
227,18,6,33,48,5,38,30,34,740,19,51,51,30,60,18,18,105,0,827
72,8,11,64,30,3,34,29,0,667,8,33,26,19,80,17,2,84,32,617
88,17,12,53,34,7,27,36,0,703,14,48,40,21,62,19,9,75,11,678
8,2,2,8,4,3,2,3,4,71,1,1,1,6,13,6,10,19,0,50
43,10,3,26,13,13,21,19,0,229,8,13,27,6,18,5,50,41,28,181
34,1,4,14,10,0,6,10,0,347,11,24,7,15,27,9,0,24,24,285
11,1,5,11,2,0,6,4,0,66,1,3,2,1,7,6,3,4,5,74
17,5,1,4,2,2,7,3,0,115,3,8,6,1,2,2,2,16,11,105
33,1,3,14,11,1,10,4,11,161,5,12,14,11,15,7,0,20,0,165
5,2,0,12,6,3,0,3,5,30,1,3,4,3,8,1,2,8,0,36
36,7,12,27,9,3,11,14,0,222,11,13,14,9,24,9,3,19,9,230
80,8,4,11,14,5,10,25,25,277,7,12,23,22,37,9,3,43,0,303
8,10,1,8,1,0,10,14,26,109,8,10,16,3,12,11,7,36,0,84
53,8,2,35,11,3,8,14,0,160,4,21,15,11,35,6,4,57,1,140
33,7,22,28,48,2,35,25,0,447,17,15,34,10,40,20,2,72,23,414
74,0,12,48,85,0,19,36,0,494,24,27,34,19,75,17,2,98,38,434
35,10,12,18,44,2,19,21,0,461,20,21,25,6,34,14,4,39,18,441
28,6,15,14,12,0,8,11,14,335,5,16,12,3,32,24,4,37,0,310
40,4,4,12,13,0,8,12,0,319,2,15,15,6,40,1,1,20,31,281
16,0,3,13,10,0,7,10,0,55,1,6,4,3,21,3,8,18,7,43
52,12,6,25,21,8,34,17,9,424,12,23,33,16,25,19,38,37,0,405
9,0,3,18,7,1,1,6,1,140,8,8,5,3,14,1,1,7,0,139
85,15,24,41,18,6,38,83,0,679,62,30,37,14,60,25,1,81,0,679
12,1,3,9,6,2,2,2,1,23,4,1,1,2,11,2,0,8,0,32
13,0,1,9,12,0,1,10,10,49,0,3,8,6,17,0,3,16,0,52
35,2,5,8,15,4,5,10,0,145,0,9,10,4,19,0,3,26,13,145
9,1,0,3,8,0,5,5,0,26,0,4,2,0,6,2,2,9,5,27
6,3,16,8,11,0,2,3,0,25,1,4,1,0,3,14,5,1,8,37
7,0,7,2,3,0,3,9,1,59,6,4,6,2,1,4,0,10,0,58
6,3,1,1,6,0,1,5,3,63,3,6,4,1,14,4,1,2,0,54
33,3,16,24,17,5,18,23,2,263,6,18,16,6,16,17,24,16,0,285
63,10,20,56,43,5,27,29,0,373,21,17,30,8,62,24,19,61,19,365
3,0,3,9,19,0,3,7,0,67,1,4,9,0,10,4,0,23,8,52
37,6,6,22,36,2,20,19,0,273,3,23,11,11,36,16,13,25,19,264
8,1,2,0,2,0,4,3,1,12,0,1,3,1,0,4,1,4,0,19
4,3,2,6,1,0,0,0,0,10,0,4,1,2,7,0,0,2,1,9
32,7,1,15,10,0,5,6,0,158,0,19,16,16,19,4,2,13,18,127
42,4,4,14,9,3,10,14,0,149,5,5,8,4,13,5,5,34,4,166
12,0,0,10,2,2,2,11,0,67,1,5,11,7,8,0,1,16,7,50
4,1,0,4,1,2,2,6,0,31,2,0,5,4,5,1,0,2,2,30
80,26,5,35,30,2,22,37,0,640,12,19,41,25,49,9,4,106,9,603
104,14,2,29,29,6,19,37,2,510,9,34,25,20,48,16,4,102,0,494
66,11,27,24,9,2,24,32,3,475,9,23,36,28,32,27,6,63,0,449
38,6,12,16,11,6,43,29,0,353,15,28,35,16,36,10,5,35,45,289
23,10,17,14,3,8,49,40,0,262,12,34,42,14,28,26,6,38,1,225
16,14,6,7,3,1,12,10,1,104,8,15,20,7,19,12,2,11,0,80
70,30,27,35,25,14,69,55,0,550,36,52,63,44,55,52,10,48,35,480
90,26,30,38,22,5,115,53,0,671,18,58,117,28,45,47,9,64,24,640
77,21,34,32,46,8,106,48,0,647,6,34,94,39,45,26,12,72,60,631
54,23,32,46,17,7,73,41,0,478,30,52,53,22,49,46,10,43,25,441
67,32,17,49,16,9,86,63,0,451,31,52,106,24,44,53,21,42,19,398
35,12,6,15,7,1,14,12,7,194,7,18,20,8,21,18,10,18,0,183
13,0,3,2,2,0,8,8,11,59,0,6,14,7,9,7,2,13,0,48
88,17,17,28,33,5,59,39,0,377,12,34,44,31,44,19,14,66,12,387
25,4,12,15,6,6,25,15,8,154,2,14,28,12,20,18,3,16,0,157
5,1,4,4,9,1,4,5,0,34,0,4,3,0,4,12,0,9,0,35
21,0,1,2,9,1,6,6,2,90,6,9,8,10,10,11,0,12,0,72
15,2,15,3,2,1,6,11,0,68,2,11,9,4,3,14,0,5,2,73
18,3,23,13,6,5,5,13,8,160,6,11,14,7,16,27,4,14,0,155
39,11,4,8,10,0,13,9,0,115,8,6,13,9,16,3,12,24,12,106
6,0,3,8,5,6,5,8,0,55,0,2,4,2,11,3,4,7,4,59
67,20,35,54,31,49,30,88,0,646,24,75,71,44,67,49,29,62,21,578
17,19,0,19,12,6,16,35,22,188,14,16,27,8,17,10,8,39,0,195
26,15,2,32,16,14,9,34,29,258,15,31,36,6,37,12,21,30,0,247
60,6,10,35,39,28,14,65,0,490,14,41,24,17,60,13,15,51,45,467
43,10,7,58,35,25,18,42,0,438,6,30,20,24,56,25,14,46,34,421
42,40,16,38,18,38,40,39,18,426,28,35,88,23,38,55,27,47,0,374
33,30,10,59,28,44,12,97,0,691,18,48,43,34,56,37,23,74,8,663
60,22,4,62,44,18,17,64,0,638,12,32,40,32,96,21,17,53,75,551
43,10,15,46,44,27,20,40,0,445,11,35,27,22,41,26,12,53,58,405
52,21,24,63,26,35,37,55,0,516,16,44,37,29,64,33,23,56,32,495
76,34,14,78,29,44,35,79,24,658,22,46,62,33,98,48,23,69,0,670
16,22,9,19,5,30,12,32,0,319,14,30,33,14,6,34,9,26,17,281
44,17,18,50,29,28,40,41,0,301,14,21,51,18,35,29,10,32,26,332
46,26,19,75,34,44,38,74,0,508,21,61,66,31,67,55,32,61,8,462
45,24,6,33,27,25,14,34,0,431,13,33,63,17,31,29,19,44,19,371
26,35,20,28,8,36,29,74,55,1096,29,43,77,22,39,65,26,35,0,1071
71,48,24,79,32,49,46,109,57,659,46,84,94,39,88,61,29,84,0,649
63,32,11,39,27,31,30,97,0,699,30,65,54,25,40,54,26,67,9,659
45,12,7,39,61,24,16,91,0,743,14,24,24,20,57,26,25,88,75,685
61,12,15,37,68,15,16,52,0,770,21,39,39,32,58,34,17,60,46,700
92,15,17,61,45,25,22,89,0,889,24,68,45,49,85,23,14,87,89,771
45,22,9,65,50,20,26,39,0,426,12,24,38,20,50,26,20,54,13,445
40,37,21,49,33,26,27,57,0,511,17,35,47,21,63,46,26,54,20,472
67,48,18,71,29,51,44,76,0,691,29,66,80,34,66,70,55,59,12,624
42,25,12,43,20,29,33,88,0,701,20,48,49,21,41,40,28,64,6,676
34,19,12,33,14,37,20,47,0,579,19,34,59,21,33,45,23,32,15,514
23,22,22,23,26,22,20,43,0,461,15,33,48,19,22,46,18,37,21,403
48,40,33,50,11,79,53,64,0,551,26,48,83,23,39,94,48,48,23,497
16,0,6,7,3,1,2,19,11,54,3,5,3,4,8,7,2,16,0,71
4,0,3,2,5,2,1,30,14,33,2,4,10,2,4,6,2,36,0,28
5,1,3,3,1,1,1,18,6,53,1,2,7,0,5,4,1,13,0,59
40,3,5,4,13,13,12,40,24,293,9,22,22,14,23,4,8,53,0,292
9,1,0,9,5,2,4,2,1,39,2,2,6,6,4,0,1,7,0,44
13,0,2,14,2,3,5,7,2,53,2,2,4,16,7,0,4,12,0,54
96,14,7,49,22,12,68,36,2,633,12,47,76,50,51,22,30,39,0,612
25,4,5,8,8,28,16,20,0,198,14,22,27,10,11,18,4,12,10,184
15,4,6,6,57,10,10,14,2,117,1,13,3,15,7,7,12,38,0,145
8,2,2,15,2,7,3,17,7,61,4,11,4,2,15,6,6,11,0,65
12,1,2,6,6,6,1,5,2,33,2,2,3,2,6,0,6,6,0,47
44,21,6,24,31,21,27,53,9,519,14,30,35,15,40,24,28,44,0,525
57,32,15,42,25,19,16,58,29,677,39,47,40,35,54,49,26,55,0,625
5,1,0,11,4,2,2,15,17,52,4,4,2,4,15,3,2,3,0,72
7,1,1,7,7,0,3,7,6,82,1,6,5,8,12,3,3,8,0,75
16,8,6,25,23,6,23,17,0,243,6,17,28,10,41,13,12,41,0,199
19,4,8,18,20,1,12,11,12,114,3,6,9,7,17,15,8,28,0,126
9,1,0,7,3,4,2,4,2,56,4,3,7,3,9,5,3,3,0,51
21,2,5,4,7,3,8,6,0,120,4,9,7,6,11,6,5,11,1,116
9,2,2,5,3,4,9,4,2,47,7,3,10,6,6,5,10,7,0,33
7,8,5,3,4,5,0,9,8,63,8,6,7,3,6,19,1,7,0,55
16,8,4,15,3,6,10,7,8,143,5,13,19,12,20,5,2,11,0,133
34,2,3,10,3,20,9,23,4,115,4,16,31,22,3,8,14,13,0,112
22,0,12,4,0,10,10,6,7,38,1,3,6,14,7,11,18,2,0,47
25,2,4,9,3,19,13,22,0,184,6,18,17,15,11,12,30,9,9,154
15,7,5,8,4,12,2,13,0,137,2,7,8,6,5,11,8,6,5,145
22,15,38,29,17,46,12,46,0,432,17,29,24,24,54,37,30,28,3,411
26,2,0,10,13,3,5,8,0,160,2,14,11,15,21,3,4,30,0,127
16,4,4,3,7,5,1,15,12,87,2,8,14,5,14,6,3,20,0,82
21,12,19,17,9,9,7,14,2,302,18,26,13,12,22,21,16,29,0,255
35,4,12,21,13,13,25,34,9,315,6,15,31,11,32,15,12,26,0,333
4,1,2,1,2,2,0,4,0,46,0,2,3,3,2,0,6,1,4,41
4,3,0,4,3,8,0,0,0,26,0,2,0,4,1,5,3,1,0,32
16,3,1,15,8,26,7,13,0,141,2,9,16,18,15,5,8,8,3,146
8,3,2,2,5,22,3,5,8,109,3,5,8,8,4,3,29,6,0,101
22,0,2,2,10,57,1,4,0,154,1,20,7,6,15,10,36,9,10,138
77,30,27,25,22,121,40,35,0,450,12,38,53,36,32,54,128,23,1,450
20,1,2,9,10,10,4,10,1,100,3,6,4,12,19,10,6,16,0,91
13,3,9,7,12,8,13,10,0,69,3,3,20,7,8,7,9,17,4,66
8,7,5,4,15,12,6,10,0,157,6,10,7,5,12,5,5,14,0,160
9,2,4,2,3,5,2,3,0,90,0,5,6,4,5,3,5,3,6,83
10,1,4,1,0,15,3,2,1,51,3,2,3,3,8,2,14,2,0,51
85,7,17,49,33,47,16,26,0,556,11,35,40,52,68,28,31,32,74,465
123,32,21,70,35,54,24,43,0,676,29,34,46,73,108,33,50,33,52,620
75,19,21,43,24,60,22,39,0,638,22,25,48,63,60,25,24,41,22,611
74,21,10,59,33,46,41,56,0,682,18,35,65,87,57,23,25,47,49,616
70,17,6,38,28,42,39,42,25,794,27,36,76,53,37,21,39,42,0,770
66,15,16,50,39,43,44,49,0,683,21,36,104,62,54,32,31,45,57,563
59,22,23,45,34,62,41,36,0,659,18,28,102,45,33,40,36,44,45,590
5,2,0,6,0,3,0,9,0,45,0,2,1,0,3,3,6,2,0,53
55,13,7,47,16,34,26,54,0,554,19,33,54,22,49,12,34,28,7,548
11,3,1,2,1,5,4,5,12,55,1,6,4,5,3,4,2,6,0,68
63,11,37,55,40,63,46,65,0,802,21,31,49,32,80,30,34,67,23,815
7,3,10,3,14,3,3,11,16,146,3,9,10,6,10,4,14,11,0,149
3,3,2,2,3,2,2,3,0,59,1,2,3,0,2,1,3,13,2,52
29,12,46,23,9,37,13,23,0,393,17,28,29,19,28,44,16,30,10,364
9,5,0,8,4,7,0,4,3,86,1,1,9,3,10,12,8,7,0,75
10,10,1,10,8,11,5,20,0,178,13,9,11,5,24,8,11,14,4,154
4,2,1,0,0,2,1,6,6,35,2,1,0,4,1,5,3,5,0,36
22,10,1,11,10,12,22,8,0,117,6,3,33,16,10,7,7,12,0,119
15,8,10,13,13,6,9,17,0,205,11,12,10,8,17,12,9,17,12,188
13,6,6,18,1,5,13,20,19,206,5,20,16,4,19,11,3,22,0,207
68,15,9,87,32,21,40,54,0,827,15,47,60,37,74,25,12,58,10,815
55,8,19,55,25,15,23,49,0,624,14,37,30,33,75,26,7,52,72,527
75,19,22,78,49,18,44,54,0,722,16,44,84,26,84,27,5,57,29,709
4,7,2,3,2,5,0,5,9,30,8,3,7,5,2,7,1,3,0,31
4,1,1,1,2,0,3,4,0,23,0,3,3,0,8,0,2,4,1,18
13,4,1,11,6,7,7,18,0,138,5,9,9,6,18,9,6,13,4,126
16,6,4,10,5,4,7,17,0,110,4,2,6,6,12,9,1,10,9,120
3,2,6,5,1,2,4,11,0,35,2,4,6,1,7,2,1,3,3,40
13,4,2,7,1,3,2,10,0,85,4,4,4,8,2,5,2,3,17,78
8,2,1,4,4,0,5,14,8,96,0,4,1,10,8,4,0,14,0,101
7,2,0,0,0,1,2,18,0,41,2,4,2,3,6,3,0,9,0,42
15,1,8,16,7,14,3,6,0,169,4,7,15,7,15,5,7,10,1,168
67,8,9,30,5,6,9,17,3,266,5,26,23,5,42,25,3,46,0,245
10,5,7,16,14,6,6,27,1,236,4,16,12,5,29,15,6,18,0,223
14,4,8,10,7,12,8,6,4,82,8,2,5,9,8,5,11,11,0,96
108,18,21,29,46,55,29,30,2,639,13,28,68,54,63,34,31,42,0,644
27,5,2,9,25,7,8,17,14,121,6,7,20,11,23,5,5,27,0,131
12,7,14,10,14,10,11,20,0,192,2,16,18,11,33,21,5,14,7,163
11,10,5,13,10,18,2,18,0,151,9,12,12,9,23,6,11,10,25,121
11,4,0,9,5,6,0,8,0,97,6,11,6,5,5,1,4,16,1,85
9,5,1,10,18,5,8,7,8,103,3,5,11,3,8,5,1,17,0,121
11,1,6,20,5,6,14,64,14,127,8,11,11,10,22,7,5,15,0,179
16,4,4,7,4,1,5,13,16,78,5,13,9,7,5,6,3,9,0,91
33,10,25,36,26,23,24,35,0,446,8,30,26,21,52,25,13,39,12,432
25,4,0,7,10,9,6,10,10,214,56,17,8,4,15,11,4,14,0,166
16,11,5,12,6,20,12,11,9,156,9,16,21,17,17,12,11,12,0,143
49,1,9,28,13,24,20,17,0,261,7,20,26,29,27,13,20,16,17,247
83,16,32,34,20,41,87,52,0,577,22,39,114,42,61,34,38,41,21,530
90,33,28,42,28,25,73,63,0,1007,33,66,121,68,63,44,32,59,32,871
69,20,8,39,32,30,33,43,0,757,12,28,38,51,68,17,31,60,63,663
62,11,8,29,27,26,38,51,0,522,13,39,57,36,39,28,36,58,16,452
64,22,27,44,32,51,68,43,0,583,25,51,90,32,68,40,46,41,43,498
91,25,24,49,30,22,62,49,0,590,30,74,70,53,44,46,33,64,19,509
87,31,27,53,36,43,66,69,0,700,42,73,110,39,97,53,41,61,3,593
52,25,19,34,34,36,57,58,0,1132,29,64,84,31,60,38,34,57,22,1028
17,11,8,9,9,6,4,7,0,183,16,12,6,10,14,7,6,13,1,169
34,7,4,12,8,0,10,16,13,176,14,11,12,13,18,14,5,9,0,184
24,2,0,14,9,4,5,8,16,144,12,8,9,10,13,4,8,10,0,152
3,4,4,1,0,1,2,2,5,16,11,5,0,2,2,5,0,2,0,11
5,1,0,2,0,2,9,5,0,56,1,0,8,5,5,1,0,8,5,47
5,4,7,1,3,1,11,8,8,69,14,5,12,4,6,7,1,8,0,60
81,38,14,46,33,25,52,57,17,685,70,45,63,19,51,32,24,46,0,698
23,7,3,8,16,1,5,26,16,205,13,10,6,12,21,6,13,21,0,208
12,4,2,9,11,3,3,12,5,240,10,8,8,5,11,4,1,19,0,235
23,12,40,9,9,2,4,25,11,268,8,25,18,14,27,18,7,25,0,261
80,25,13,71,50,19,34,45,0,768,26,62,62,24,114,43,16,67,3,688
15,6,9,23,10,7,11,9,8,186,5,12,20,1,11,10,1,21,0,203
41,7,1,8,17,6,20,12,25,289,12,13,27,25,20,11,10,40,0,268
9,9,3,21,9,5,10,12,0,318,3,9,17,4,15,7,2,19,7,313
4,21,1,7,4,7,15,11,19,51,21,12,20,5,11,5,2,6,0,58
31,3,7,10,2,2,1,17,0,185,9,18,7,12,22,8,11,7,11,153
22,7,14,10,27,10,27,30,0,438,23,30,33,13,17,13,10,38,28,380
41,23,15,37,15,12,25,25,0,471,10,32,56,21,41,34,13,42,19,396
61,15,29,41,18,12,47,46,22,648,8,40,84,40,64,37,16,35,0,615
24,4,6,13,0,0,5,15,0,88,10,8,18,15,24,9,3,4,1,63
7,4,7,6,2,0,11,12,0,39,2,6,8,6,2,5,2,7,2,48
4,1,5,7,3,1,7,2,0,77,3,2,4,4,10,8,4,5,2,65
4,2,3,13,0,0,3,5,10,48,0,9,5,3,10,1,1,9,0,50
16,7,5,16,11,0,6,13,0,172,6,7,13,7,36,9,1,22,5,140
30,4,5,20,6,1,6,19,10,188,11,22,12,12,14,5,15,12,0,186
42,2,8,21,10,12,21,31,14,303,15,21,29,33,22,11,16,31,0,286
40,21,12,42,16,3,37,34,0,444,19,34,41,13,35,26,6,53,21,401
42,12,16,38,26,4,29,24,0,333,14,20,36,21,34,17,12,35,22,313
22,11,13,39,19,3,31,24,23,383,9,15,33,9,32,24,5,36,0,405
31,7,8,29,11,5,14,19,0,252,6,12,21,6,30,3,6,28,27,237
25,7,5,23,33,4,6,14,0,287,7,20,24,12,20,7,5,25,10,274
10,1,3,5,8,4,5,4,9,87,6,12,3,4,7,9,3,7,0,85
6,1,6,1,1,1,2,4,15,42,3,1,4,5,4,5,1,14,0,42
6,3,0,3,2,1,7,1,9,59,0,5,6,2,4,8,2,4,0,60
15,7,8,11,12,6,29,6,8,252,16,14,29,4,33,17,2,15,0,224
26,13,16,17,32,13,14,21,0,289,16,16,21,10,21,15,5,42,9,286
15,9,2,7,12,3,8,3,10,106,7,8,11,2,5,4,7,14,0,117
10,3,1,5,13,4,13,9,0,167,12,10,3,9,4,3,2,23,8,151
52,10,89,37,32,12,16,34,0,451,10,31,31,26,52,46,7,29,7,494
12,0,6,3,1,1,1,13,10,55,3,6,11,9,10,6,0,4,0,53
12,1,12,6,2,2,7,4,7,46,1,7,4,7,6,11,3,5,0,55
11,0,4,0,3,2,0,4,0,41,0,0,4,6,4,10,2,5,0,34
47,23,10,33,20,2,17,20,0,315,36,16,32,10,40,18,1,28,17,289
18,14,21,14,13,3,19,17,15,205,20,23,18,9,26,14,3,25,0,201
22,1,10,4,6,5,6,15,8,49,5,7,5,7,5,16,3,9,0,69
3,2,13,8,5,3,3,6,0,85,4,2,4,4,4,10,4,14,6,76
6,3,1,4,7,4,0,15,7,56,5,1,1,1,2,3,7,12,0,71
5,3,1,1,0,3,6,6,0,24,1,5,6,2,0,2,0,3,0,30
3,2,1,1,6,0,14,1,0,109,2,4,15,0,4,2,0,3,1,106
10,0,0,4,6,2,0,5,0,45,2,2,5,3,5,1,2,5,3,44
4,0,2,9,4,8,3,6,0,61,5,3,5,3,11,3,1,7,2,57
6,11,0,5,11,4,0,11,0,69,8,2,6,5,10,3,5,13,4,61
3,2,4,5,11,2,6,5,1,49,1,3,10,0,7,4,2,13,0,48
41,10,8,45,28,3,27,27,13,412,17,18,66,12,41,17,4,29,0,410
32,55,8,40,26,23,22,22,2,720,55,44,33,23,44,12,8,38,0,693
45,38,18,37,22,8,20,46,0,921,62,41,37,17,52,19,6,42,23,856
45,21,5,35,23,20,30,19,0,548,28,21,22,16,42,13,3,34,27,540
29,25,24,26,23,16,33,32,0,527,38,20,31,15,29,13,2,30,24,533
50,32,40,47,30,27,41,25,0,617,57,35,64,27,48,48,17,36,15,562
31,16,8,27,15,18,17,23,0,366,30,14,24,11,34,14,6,25,11,352
20,54,25,26,9,11,59,29,22,820,81,31,70,13,27,37,2,33,0,781
51,8,20,32,8,5,21,14,0,239,16,14,19,9,36,11,10,13,4,266
77,24,32,76,49,15,54,87,0,934,34,70,76,30,79,55,21,106,1,876
46,9,10,41,56,24,41,39,0,888,27,35,41,31,58,32,10,65,28,827
54,10,10,44,46,29,30,27,0,721,6,22,25,27,65,16,4,79,56,671
36,29,14,32,38,23,17,23,7,706,15,36,18,11,57,30,6,38,0,714
26,6,6,8,9,0,13,7,0,227,9,7,19,13,11,4,2,19,22,196
1,6,0,3,1,0,0,10,1,39,4,13,0,0,4,1,0,3,0,36
16,5,5,14,2,0,14,12,0,136,13,7,21,2,12,5,1,7,4,132
11,4,0,9,9,0,10,13,5,212,0,21,10,3,24,8,3,15,0,189
12,3,11,13,13,6,8,5,2,76,11,2,7,7,18,11,4,13,0,76
9,3,2,3,5,0,2,2,8,65,7,2,5,1,3,5,2,2,0,72
7,4,3,10,11,4,1,4,0,32,10,7,9,2,7,1,0,6,0,34
9,5,0,6,3,5,2,8,4,59,11,9,5,3,1,6,2,6,0,58
48,25,14,46,29,16,33,23,0,744,52,33,56,20,55,25,9,42,18,668
5,3,0,6,9,0,6,2,0,68,0,5,4,5,11,0,0,7,0,67
23,12,15,40,14,24,12,24,0,254,4,20,29,9,31,30,14,15,14,252
68,10,10,60,26,30,22,51,0,523,6,32,41,27,59,21,18,50,30,516
51,13,13,54,34,24,30,46,0,568,17,32,54,24,57,32,16,45,30,526
52,14,5,49,26,15,30,44,0,429,9,31,39,29,44,24,10,29,54,395
11,0,7,7,8,2,11,14,1,133,2,9,12,9,5,10,1,10,0,136
22,19,7,33,18,17,27,15,0,191,8,20,41,12,33,19,8,14,8,186
59,31,17,55,37,51,43,91,90,690,16,59,75,23,88,59,38,66,0,740
49,25,20,75,27,36,38,76,132,641,17,52,108,34,88,58,38,69,0,655
22,3,6,17,5,5,11,19,25,169,7,11,21,5,26,9,2,13,0,188
44,16,19,38,14,12,23,28,11,380,5,29,47,22,33,29,10,36,0,374
76,6,15,57,30,31,10,47,0,571,11,49,29,22,49,25,21,64,44,529
54,22,9,57,31,29,18,64,0,626,16,41,45,26,67,38,24,42,29,582
57,14,6,46,32,22,19,49,0,599,10,26,35,26,45,28,14,50,12,598
53,14,7,51,22,14,11,51,0,563,25,20,30,24,58,21,15,40,28,525
40,7,7,43,18,21,11,35,0,416,7,13,16,12,58,23,23,24,25,397
34,18,6,45,20,24,15,28,0,467,8,29,37,16,60,24,30,32,15,406
5,2,0,2,0,0,0,0,0,9,2,4,0,2,2,1,0,0,2,5
49,13,11,60,36,29,34,42,59,477,17,37,50,22,51,31,20,41,0,541
63,8,14,37,26,15,21,46,0,438,10,22,39,29,51,24,11,48,21,413
76,22,15,88,31,11,48,63,0,555,17,36,68,31,90,41,6,66,14,540
38,16,12,56,22,32,31,53,0,987,17,42,46,18,32,41,17,64,47,923
43,15,11,52,19,36,25,33,1,427,19,30,43,28,51,31,22,32,0,406
49,19,12,32,13,27,20,73,0,612,14,33,26,33,49,38,13,51,61,539
37,12,14,32,23,12,11,34,0,393,11,20,30,15,34,29,8,32,28,361
43,19,21,52,31,23,30,34,0,491,5,30,43,17,55,39,18,45,33,459
103,17,30,67,39,12,20,73,30,920,19,42,45,67,85,35,12,85,0,921
3,0,2,0,4,1,1,2,0,34,0,3,4,1,2,2,0,4,5,26
67,6,14,36,35,14,21,34,0,546,18,27,22,19,44,23,11,49,11,549
15,0,6,11,8,0,4,6,0,111,8,5,9,3,21,5,0,6,4,100
4,1,1,0,1,1,5,0,0,3,0,1,5,1,4,1,0,1,0,3
8,0,0,1,0,2,2,2,0,35,0,2,2,2,9,0,1,1,3,30
3,1,2,5,0,0,0,1,4,22,2,5,3,2,3,0,0,2,0,21
7,3,2,5,4,1,0,3,13,31,1,6,2,3,1,5,3,12,0,36
11,2,0,5,6,1,3,6,0,31,1,8,1,11,1,4,1,2,0,36
6,0,4,2,3,1,12,2,7,53,3,6,12,7,4,0,0,8,0,50
86,20,3,38,24,16,55,35,0,793,19,53,72,78,35,28,8,45,56,676
115,25,18,55,22,4,99,43,19,721,22,60,114,82,89,58,10,53,0,633
139,21,5,53,38,15,56,44,0,741,15,44,82,116,61,28,9,69,31,657
87,31,14,44,31,30,43,46,0,708,20,57,99,66,56,54,12,53,23,594
75,10,11,57,33,5,45,24,0,512,9,23,32,67,39,22,3,32,66,479
2,0,0,9,4,2,0,5,0,36,6,2,1,1,6,0,1,9,9,23
31,2,4,28,17,9,12,25,1,214,17,13,16,10,25,10,7,23,0,222
14,5,2,9,3,3,3,9,3,88,9,1,2,9,10,1,5,8,0,94
53,24,10,24,19,4,4,28,1,428,52,45,6,16,33,24,7,45,0,367
17,4,1,6,9,7,3,13,0,99,5,4,8,9,9,5,7,6,0,106
10,0,0,5,6,0,4,6,0,59,2,7,1,6,4,1,0,5,3,61
8,2,2,4,5,0,6,6,9,72,1,7,12,6,1,6,4,6,0,71
44,19,10,33,23,11,27,65,0,295,19,24,31,14,36,30,34,32,3,304
39,2,3,33,7,5,4,17,0,273,11,10,20,12,33,8,2,17,23,247
2,2,2,4,3,0,3,2,0,33,1,4,1,0,1,4,2,5,1,32
11,2,6,8,10,0,7,9,0,132,2,7,3,6,8,12,2,18,7,120
29,4,9,21,6,2,6,17,6,199,13,9,6,11,19,18,6,15,0,202
1,2,3,6,7,4,2,5,2,46,4,2,6,3,10,6,4,7,0,36
1,0,5,3,7,2,2,0,0,35,0,1,7,1,2,0,0,2,0,42
18,0,0,4,2,0,0,1,0,47,1,2,2,10,8,0,0,5,6,38
11,0,0,2,4,0,0,5,0,40,1,4,1,1,6,0,0,6,4,39
7,7,1,16,11,3,4,5,5,91,5,13,6,4,7,5,9,13,0,88
2,0,1,4,1,0,1,4,0,30,0,3,0,2,7,0,0,3,3,25
4,0,0,9,2,0,0,16,0,28,0,2,2,5,10,0,1,12,0,27
6,0,1,3,10,2,6,6,0,44,3,1,6,3,7,0,1,8,1,48
15,1,3,23,6,0,6,3,0,75,3,9,3,3,12,7,1,3,3,88
13,17,8,11,7,3,7,11,3,191,6,11,18,12,21,11,4,12,0,176
2,3,12,4,0,1,1,2,0,15,0,2,4,0,1,9,1,5,2,16
8,6,12,5,12,2,10,5,6,113,1,3,19,4,8,21,4,16,0,103
3,7,3,18,2,3,5,14,0,106,9,8,4,3,18,7,1,8,3,100
5,0,0,6,9,1,5,4,0,51,3,11,1,5,7,2,0,7,1,44
7,0,5,6,5,0,3,3,0,36,0,2,3,2,8,0,0,7,4,39
9,4,3,10,1,1,1,3,1,29,2,5,4,4,9,3,0,4,0,31
9,4,2,6,3,2,2,1,0,70,7,5,2,3,7,3,6,6,4,56
58,13,43,64,31,6,100,101,7,672,24,60,149,27,66,53,8,73,0,635
12,6,5,12,11,1,6,9,7,124,8,12,12,3,18,4,2,11,0,123
6,2,2,3,3,3,0,3,0,53,5,2,3,2,6,3,0,8,9,37
2,0,13,8,5,0,4,10,0,60,0,5,8,1,6,7,2,3,2,68
17,4,12,10,5,5,8,13,2,130,3,2,4,5,15,12,5,13,0,147
22,8,18,14,14,5,7,21,0,121,14,5,14,6,13,21,1,19,3,134
4,0,5,6,1,3,2,4,12,43,2,2,2,7,0,13,0,2,0,52
31,5,13,22,20,2,10,18,0,382,6,32,20,16,38,9,4,19,4,355
51,13,13,26,20,8,10,35,18,373,29,31,35,17,33,24,9,30,0,359
22,7,4,18,13,10,0,13,0,137,1,4,5,12,20,10,3,26,8,135
25,0,5,15,10,1,11,8,0,151,3,4,5,10,15,8,2,19,8,152
21,8,7,7,3,7,18,17,2,140,13,21,15,10,7,15,5,6,0,138
17,16,12,9,1,2,11,13,22,98,9,13,20,10,4,21,1,12,0,111
21,3,4,20,13,3,9,18,0,115,9,11,6,11,25,9,4,18,4,109
18,8,4,4,7,2,10,22,0,177,8,7,13,1,9,10,2,22,5,175
19,4,11,13,12,2,11,14,0,223,4,16,36,9,28,21,3,19,10,163
9,3,10,25,14,4,12,10,0,204,4,14,22,5,20,16,0,22,3,185
23,6,6,19,30,9,5,34,0,413,11,16,19,5,20,32,10,35,7,390
6,2,0,6,5,4,1,5,4,52,7,3,2,4,7,3,0,3,0,56
15,5,8,8,0,3,0,2,9,55,3,17,4,10,3,9,1,3,0,55
14,7,1,12,4,4,14,23,9,129,6,17,25,7,19,11,11,10,0,111
12,5,2,14,11,5,4,20,0,197,9,13,15,7,14,13,4,19,1,175
5,0,0,6,1,0,0,1,0,44,0,1,0,4,4,0,0,7,5,36
17,3,2,14,12,2,9,11,1,131,5,7,7,10,17,2,3,13,0,138
23,5,4,9,6,2,2,15,0,153,7,13,4,9,10,5,3,12,13,143
6,9,6,26,5,15,9,12,3,182,11,11,13,6,22,18,7,8,0,177
7,1,2,8,1,0,2,4,2,13,2,0,2,1,11,5,1,4,0,14
5,0,8,9,2,0,4,17,5,16,4,0,2,6,12,7,0,7,0,28
0,4,2,4,5,0,1,3,0,28,1,1,2,0,5,7,0,4,1,26
60,15,99,47,29,13,25,29,0,558,27,39,46,39,68,112,20,63,26,435
3,0,1,18,3,0,3,3,1,25,0,2,3,0,15,1,3,1,0,32
6,2,14,5,1,4,1,5,4,38,0,7,4,2,9,13,0,5,0,40
23,4,7,30,7,14,13,11,10,255,11,23,30,14,19,19,10,24,0,224
8,3,1,9,4,1,1,6,0,76,4,5,2,5,9,3,0,7,1,73
74,36,22,77,25,10,13,40,0,611,41,44,35,28,63,37,14,54,3,589
10,5,7,16,9,0,9,9,0,116,9,4,11,12,14,10,0,16,2,103
13,8,6,23,3,0,9,14,0,151,10,6,11,7,9,11,3,10,6,154
8,1,0,2,3,1,2,4,0,26,3,4,1,6,0,0,3,5,0,25
15,3,1,11,8,1,0,2,0,60,5,2,1,4,18,0,0,13,0,58
2,0,1,5,1,2,1,4,0,30,0,1,2,2,1,2,1,1,1,35
3,1,1,10,8,5,4,9,0,31,1,2,3,0,11,2,2,6,1,44
4,6,2,15,1,0,2,4,0,58,3,3,6,2,13,4,1,3,0,57
30,10,7,26,19,4,23,19,2,362,10,27,31,8,25,12,3,21,0,365
14,7,0,18,15,0,14,13,0,172,13,16,12,12,18,6,1,10,2,163
3,1,0,0,0,0,2,1,2,33,0,0,10,2,0,1,0,0,0,29
11,1,2,13,3,1,3,2,0,59,5,6,4,10,4,2,0,9,2,53
35,8,14,47,5,3,14,27,0,423,18,16,23,14,31,19,4,24,31,396
13,5,4,23,7,2,5,10,9,52,8,6,2,3,14,4,0,10,0,83
7,11,14,4,9,3,0,8,9,63,9,4,2,7,5,21,0,8,0,72
11,4,2,12,2,3,5,6,0,62,3,6,10,12,7,3,0,8,11,47
55,14,17,57,23,9,42,41,128,538,37,46,71,21,72,35,15,49,0,578
15,15,17,25,11,8,39,28,0,513,8,30,38,9,14,28,4,23,40,477
63,18,37,103,21,11,46,45,8,592,50,56,85,21,65,61,12,42,0,552
34,12,9,38,11,3,10,20,0,225,25,15,11,19,27,20,1,29,32,183
55,13,28,64,31,10,23,29,84,452,37,26,51,23,60,34,9,36,0,513
11,14,7,7,12,3,0,11,17,189,7,9,11,1,18,17,1,15,0,192
20,6,8,18,4,6,8,15,5,176,9,10,14,8,20,14,0,14,0,177
10,0,6,13,3,0,4,3,4,60,8,5,8,2,4,1,2,3,0,70
9,0,1,13,2,5,0,7,2,92,0,6,1,6,7,7,3,8,0,93
10,1,3,6,6,0,9,6,0,60,3,2,0,6,3,12,3,18,5,49
25,11,5,25,22,3,11,21,3,219,3,18,26,7,25,14,8,19,0,225
86,28,15,53,36,17,26,47,0,483,51,33,45,51,56,42,3,53,42,415
86,28,21,61,24,9,29,55,0,470,56,51,50,51,53,42,5,54,19,402
46,11,12,25,11,7,35,48,0,524,34,40,39,15,26,26,4,38,5,492
19,3,1,3,2,2,2,2,1,64,8,8,5,10,3,1,0,16,0,48
12,6,4,5,1,1,3,7,3,35,9,10,6,3,3,1,1,5,0,39
33,1,1,11,9,5,1,16,5,179,7,8,4,16,21,3,2,18,0,182
11,6,0,16,6,6,10,8,0,216,2,10,8,1,17,6,22,14,14,185
8,7,11,9,4,4,5,8,5,78,6,3,10,3,16,18,4,10,0,69
60,26,9,83,17,33,49,53,35,460,14,44,75,32,47,56,79,41,0,437
73,45,16,80,21,28,63,44,1,473,12,52,72,23,84,28,58,48,0,467
23,11,0,25,9,10,19,26,12,169,11,33,25,9,18,19,20,17,0,152
23,3,2,26,12,12,19,7,19,144,4,14,19,9,15,8,26,14,0,158
17,10,1,15,8,20,19,26,5,138,7,11,28,13,16,7,23,10,0,144
44,26,11,74,16,28,71,44,6,511,17,37,80,20,55,29,46,46,0,501
48,27,6,58,17,13,48,42,0,358,25,31,53,18,44,33,17,34,32,330
17,0,17,17,8,6,7,12,0,119,6,14,10,10,13,7,5,14,8,116
15,6,4,15,13,0,13,12,2,94,3,4,12,4,17,9,8,15,0,102
70,35,14,109,19,36,68,105,6,607,28,60,100,32,73,50,66,63,0,597
33,24,10,28,15,15,39,49,15,265,12,40,39,12,32,36,51,39,0,232
44,13,4,59,26,15,15,37,0,448,7,14,23,18,55,15,24,43,27,435
57,14,7,41,20,8,24,34,0,516,6,19,24,30,75,11,20,34,48,454
72,20,10,61,46,26,32,38,0,446,11,29,28,29,74,17,38,60,41,424
59,33,14,52,33,39,44,50,0,467,15,46,53,31,47,33,63,55,19,429
20,32,4,35,9,21,30,38,0,200,11,22,24,7,25,37,43,21,4,195
29,19,9,50,26,18,31,36,3,432,10,48,38,13,38,30,43,39,0,394
34,28,7,45,16,29,37,60,0,554,22,71,52,9,47,39,41,47,1,481
44,7,0,52,36,21,17,41,0,541,12,21,26,8,61,12,37,50,51,481
43,8,10,53,29,20,16,43,0,621,7,38,32,15,31,19,39,58,54,550
37,12,5,54,31,21,26,31,0,611,11,35,27,19,52,6,28,32,43,575
43,40,13,52,37,21,39,46,0,591,20,28,56,19,57,11,37,50,51,553
46,9,2,53,31,12,8,37,0,618,8,37,18,24,35,7,26,37,52,572
65,7,11,58,34,21,31,41,0,614,9,27,32,25,65,16,23,61,32,592
59,7,1,55,22,18,40,20,0,348,11,16,29,21,66,7,37,33,24,326
23,30,10,38,32,18,34,39,3,439,8,41,34,10,28,13,58,47,0,427
40,38,14,56,28,66,81,88,94,1210,27,72,96,20,34,56,128,78,0,1204
53,24,10,71,29,26,67,55,0,626,19,40,58,24,70,35,49,46,87,533
41,7,10,34,33,14,21,38,0,443,8,23,21,9,51,18,25,47,42,397
64,13,16,61,29,46,60,86,0,539,19,43,71,22,62,37,69,42,24,525
54,14,6,69,35,25,14,34,0,483,10,38,23,19,69,18,26,28,61,442
55,20,6,53,51,11,15,37,0,410,13,20,25,31,47,15,25,48,62,372
53,9,5,71,32,14,35,43,0,399,12,24,26,9,49,20,25,54,47,395
107,16,7,67,62,13,28,34,0,472,8,34,25,28,75,24,36,80,44,452
76,10,11,70,59,10,13,41,0,586,16,36,19,27,68,9,37,50,47,567
56,24,10,67,24,29,28,39,0,425,17,37,25,23,55,24,47,41,64,369
52,18,5,42,23,10,24,43,0,399,17,36,22,12,43,23,39,46,36,342
71,20,21,83,31,45,59,64,1,557,21,40,61,34,64,37,83,41,0,571
27,28,10,37,22,39,49,35,0,487,11,51,51,7,42,39,49,30,31,423
62,10,10,30,42,9,15,43,0,460,34,13,21,18,47,19,18,54,39,418
43,20,3,33,29,8,18,33,0,510,55,28,29,14,46,19,9,34,18,445
48,23,2,36,34,12,37,42,0,439,40,28,46,13,49,20,8,48,21,400
19,36,10,31,18,4,35,40,19,417,28,19,48,8,37,24,10,45,0,410
62,34,16,44,38,10,35,29,0,399,37,20,26,16,44,35,8,48,40,393
54,39,11,63,50,10,43,55,0,521,60,36,61,20,63,32,7,66,63,438
15,1,4,6,4,2,5,4,2,62,11,12,5,5,10,0,3,5,0,54
22,5,0,12,10,3,10,11,0,122,8,8,25,2,14,5,6,16,2,109
37,16,13,37,25,20,16,29,24,309,24,24,24,9,47,23,18,27,0,330
3,0,0,1,3,0,2,1,0,37,1,1,0,0,6,1,1,0,3,34
8,5,5,15,1,2,8,11,2,122,14,5,11,8,18,7,4,6,0,106
21,4,5,6,4,68,11,3,0,193,13,14,15,6,25,22,7,19,2,192
11,0,0,1,7,3,5,16,5,40,4,6,5,8,7,2,9,7,0,40
22,11,2,7,3,9,17,8,0,175,8,17,21,10,19,6,11,10,0,152
8,1,0,7,8,1,3,4,0,71,3,4,1,3,15,2,3,7,7,58
54,12,5,40,24,9,26,34,9,469,7,29,28,16,55,9,6,30,0,502
60,4,3,13,9,0,6,14,0,100,5,9,6,16,24,4,11,13,7,114
43,17,13,37,22,15,19,56,1,421,12,39,34,24,54,26,28,48,0,379
5,5,1,10,4,0,3,11,12,72,4,14,8,2,8,5,1,15,0,66
15,10,7,6,11,7,33,13,11,203,11,14,22,6,19,33,3,16,0,192
11,0,2,7,4,7,6,3,0,52,0,1,12,4,7,7,3,10,0,48
54,23,10,54,21,21,36,52,4,400,26,60,41,30,61,28,26,37,0,366
3,1,0,7,5,0,6,9,0,78,4,2,2,1,2,4,1,7,5,81
32,13,17,40,16,12,20,43,22,405,19,49,36,11,57,33,9,30,0,376
19,1,1,3,4,1,9,7,0,43,3,5,9,5,6,7,1,4,4,44
27,7,9,12,11,9,20,24,0,205,10,17,22,10,29,5,5,13,10,203
13,2,1,18,12,6,51,20,25,170,18,13,11,8,23,10,11,14,0,210
57,3,9,44,22,16,103,27,0,387,21,38,72,26,52,17,12,35,6,389
69,18,25,38,23,13,183,52,13,538,37,51,98,17,87,42,25,55,0,560
17,1,6,7,4,2,9,5,0,93,4,13,5,6,11,9,1,7,8,80
45,9,18,22,11,10,20,10,10,205,11,9,23,21,36,35,7,17,0,201
38,1,2,9,12,14,3,9,8,139,6,6,2,10,28,9,11,11,0,152
35,5,17,30,11,12,14,27,0,291,6,37,26,21,27,20,13,21,19,252
33,10,45,31,12,13,15,25,14,296,15,31,24,21,33,45,14,9,0,302
49,7,8,36,15,32,29,28,10,401,17,55,40,13,56,27,26,25,0,356
51,53,0,29,11,8,19,44,0,385,2,17,27,20,33,61,9,21,2,408
73,84,10,59,28,15,48,40,0,517,23,41,43,20,51,81,22,38,16,539
45,16,16,53,29,11,25,71,11,448,6,26,27,16,37,19,16,37,0,541
41,6,14,60,34,5,43,77,0,488,12,31,30,15,32,26,14,30,18,560
58,16,13,67,34,9,21,61,0,425,10,22,44,17,40,6,21,30,20,494
11,0,0,5,4,3,3,4,0,85,5,8,3,2,8,3,3,12,11,60
20,7,2,20,12,0,11,7,11,241,7,9,20,10,17,13,17,19,0,219
7,7,2,8,7,7,8,24,1,154,7,18,11,4,12,3,10,12,0,148
23,3,16,10,5,15,48,11,0,118,9,9,31,6,17,13,15,13,8,128
7,5,1,17,14,1,9,9,5,115,2,5,12,12,17,5,10,10,0,110
11,5,2,1,15,5,11,7,0,34,4,5,10,5,7,2,3,12,6,37
5,0,1,0,6,6,5,2,6,46,3,8,5,2,2,3,3,6,0,45
15,0,2,1,7,4,0,4,2,20,1,6,1,7,0,7,5,9,0,19
5,2,0,7,12,5,2,8,0,78,2,8,0,2,10,1,3,13,1,79
77,18,10,55,42,41,30,67,0,482,25,41,35,23,89,18,52,57,6,476
11,4,0,9,6,4,3,4,0,178,3,7,3,3,4,1,3,9,15,171
96,38,20,87,40,53,56,50,112,686,113,66,71,21,90,57,58,73,0,689
59,18,16,100,23,33,50,44,0,666,75,37,56,15,73,34,30,63,28,598
42,20,8,46,22,44,69,51,34,483,82,53,48,17,37,32,39,42,0,469
12,0,1,7,1,0,6,2,3,34,1,6,5,0,8,2,2,8,0,34
4,0,0,7,3,0,1,3,0,88,2,3,1,3,7,0,0,5,13,72
21,6,0,13,14,10,6,12,0,196,4,14,10,3,26,7,4,19,28,163
30,5,7,9,16,10,19,30,0,286,14,27,12,12,14,21,7,15,6,284
10,5,10,8,13,16,2,12,0,130,13,10,6,3,23,9,15,9,7,111
27,11,5,31,16,16,16,19,0,184,5,27,18,13,26,21,29,16,0,170
16,9,0,10,9,11,6,5,2,64,5,9,14,18,14,5,10,9,0,48
18,3,2,14,8,2,16,6,0,106,8,5,10,7,15,6,4,17,9,94
42,7,10,46,35,19,25,35,0,404,17,22,32,9,44,16,29,32,4,418
30,8,7,28,25,17,16,23,7,279,4,22,25,14,28,8,55,27,0,257
21,0,6,16,14,6,4,4,12,148,6,8,13,11,25,8,7,11,0,142
42,9,12,40,14,43,50,21,0,269,8,16,58,16,29,26,40,29,21,257
74,20,12,81,22,65,42,61,0,769,12,46,51,11,92,34,90,44,57,709
74,19,17,88,36,93,32,20,8,481,27,39,44,27,73,28,108,41,0,481
40,16,3,52,21,51,20,32,2,377,13,19,30,17,43,14,53,31,0,394
66,18,10,53,24,64,17,47,0,371,15,35,37,18,60,28,72,45,25,335
46,25,10,59,24,35,42,29,0,508,22,30,49,18,50,31,66,31,18,463
42,12,10,56,12,39,42,23,0,247,5,25,59,9,50,22,48,29,18,218
70,13,25,68,15,90,46,40,0,514,18,48,58,30,79,29,103,47,24,445
27,13,1,22,2,1,9,9,0,111,10,12,13,6,24,12,4,5,3,106
13,0,0,3,1,0,7,7,20,92,9,8,5,1,11,6,6,6,0,91
3,2,3,16,2,3,1,6,2,40,7,0,1,6,15,2,2,8,0,37
8,0,8,3,1,2,6,10,0,18,4,0,2,3,2,10,1,9,3,22
14,6,3,3,2,5,5,5,5,37,5,9,4,1,0,5,6,5,0,50
22,0,1,12,12,0,11,42,0,204,8,13,8,8,25,12,8,16,8,198
58,10,14,48,26,11,43,46,28,559,23,42,21,19,41,26,24,54,0,593
21,4,3,10,5,4,2,9,1,87,1,13,5,10,14,1,0,8,0,94
5,0,0,9,3,0,3,5,0,62,1,2,1,4,2,3,3,3,7,61
88,32,7,49,30,9,45,43,0,499,15,29,38,28,91,27,61,53,33,427
87,10,5,34,26,7,32,27,0,481,13,36,40,25,56,25,34,38,14,428
61,7,8,37,19,7,41,38,0,403,6,25,36,16,56,11,15,42,26,388
101,22,11,80,45,15,70,50,0,564,8,38,72,39,97,34,27,72,39,532
116,22,26,53,18,18,75,65,0,638,21,49,61,19,75,57,33,49,39,628
90,18,10,49,19,8,54,32,0,366,11,34,43,25,50,26,23,25,45,364
8,2,1,3,4,0,2,4,0,53,4,3,3,7,5,0,2,4,3,46
35,5,6,11,19,0,13,8,0,184,21,20,19,13,11,9,5,19,3,161
5,0,0,5,7,0,3,2,0,30,2,4,2,1,9,1,0,2,4,27
14,7,0,4,1,0,2,2,0,32,12,6,3,4,7,3,1,1,0,25
31,29,8,22,10,10,10,19,8,223,19,21,23,11,18,26,16,21,0,215
9,5,2,4,6,0,4,0,16,69,4,8,6,5,1,4,2,14,0,71
11,4,3,11,4,3,2,8,0,81,3,5,1,8,7,3,1,11,5,83
33,4,10,10,8,6,6,15,0,148,5,10,10,6,16,11,5,15,3,159
19,14,25,12,6,3,18,12,6,150,12,16,21,23,12,25,4,17,0,135
13,1,10,19,9,4,8,17,0,225,3,8,8,7,31,5,6,10,3,225
11,0,0,9,3,13,5,11,0,58,5,7,9,1,8,2,7,8,2,61
35,7,4,23,19,30,16,25,0,381,20,19,51,7,31,12,20,32,1,347
22,9,5,24,8,3,11,9,7,111,9,17,5,15,16,7,3,13,0,124
16,9,1,8,4,2,25,13,0,145,4,7,11,6,13,10,10,10,1,151
92,18,29,56,28,14,51,55,0,603,17,55,54,45,78,44,25,41,28,559
76,16,13,57,14,4,29,41,0,763,9,44,42,34,76,25,26,42,68,647
78,37,35,66,31,9,59,48,12,568,12,33,86,32,79,63,44,41,0,553
68,13,18,35,18,8,26,32,0,521,6,27,46,30,36,27,7,39,37,484
12,3,0,12,5,1,2,7,5,108,2,10,6,6,23,1,3,9,0,95
88,17,9,52,22,10,38,68,4,532,20,54,49,39,55,20,22,75,0,506
60,1,10,39,19,4,15,27,0,542,8,19,14,23,45,16,11,23,79,479
8,1,3,12,4,3,3,18,0,77,5,3,3,4,11,3,7,4,5,84
36,4,1,6,10,7,8,11,12,169,10,7,12,12,26,4,3,16,0,174
23,2,1,1,10,1,1,12,0,88,5,9,3,13,9,3,5,10,0,82
20,2,0,7,12,2,15,2,0,82,4,2,9,6,11,2,7,15,7,79
12,2,15,7,8,3,10,16,0,150,5,6,11,3,12,11,5,15,21,134
46,8,2,14,8,4,9,11,8,214,11,38,8,15,30,6,6,13,0,197
51,38,5,46,30,18,34,39,44,356,31,43,51,15,52,30,25,41,0,373
14,7,0,5,0,2,6,4,7,39,0,2,11,9,12,1,2,2,0,45
4,5,1,11,3,4,6,12,0,31,1,3,9,3,12,3,6,7,2,31
0,2,0,3,0,4,1,5,4,16,2,6,2,3,6,2,1,4,0,9
3,4,1,2,1,0,2,8,0,37,3,6,5,0,4,2,0,6,8,24
3,2,0,13,5,0,3,6,0,50,5,2,9,2,10,0,1,10,0,43
14,6,0,14,0,6,1,5,6,100,2,13,6,6,10,5,4,6,0,100
9,3,1,4,6,4,3,5,16,60,3,6,9,2,12,6,1,8,0,64
14,0,6,15,9,1,9,15,19,120,6,11,5,8,15,5,3,23,0,132
1,2,3,2,0,2,2,7,4,7,2,3,5,2,2,1,3,6,0,6
3,5,1,16,2,1,3,12,0,79,6,6,4,3,20,4,0,7,3,69
9,6,2,12,1,8,11,4,0,90,6,9,17,0,12,10,8,5,1,75
9,6,7,9,11,1,13,12,13,80,4,7,9,7,20,13,5,19,0,77
12,3,6,6,0,4,10,10,0,89,6,7,9,4,9,8,10,5,11,71
11,6,0,5,0,1,2,22,4,24,5,4,5,1,8,3,8,7,0,34
13,3,10,13,10,4,1,13,7,44,5,10,2,6,14,8,5,6,0,62
16,0,1,7,4,0,2,0,2,14,1,1,0,9,1,0,2,9,0,23
12,0,0,8,3,3,1,4,2,51,0,3,1,2,7,1,5,3,0,62
5,3,5,10,5,0,3,4,3,55,2,5,0,14,5,2,0,7,0,58
8,11,4,10,0,0,4,3,6,71,3,3,5,7,12,13,1,3,0,70
4,0,1,5,1,5,0,4,1,23,0,7,2,0,3,1,0,10,0,21
2,4,0,6,2,0,1,3,0,39,4,3,0,2,8,4,1,7,0,28
19,0,5,6,5,1,4,6,0,72,5,7,4,12,6,5,1,12,7,59
14,1,4,3,0,0,4,4,5,34,3,3,5,2,5,3,0,6,0,42
13,0,0,8,3,6,6,7,0,55,0,2,5,2,8,2,8,2,6,63
16,5,3,21,6,2,9,9,0,84,3,6,4,1,12,2,1,27,1,98
11,4,1,19,4,0,13,8,18,72,16,9,13,3,9,7,1,18,0,74
24,3,2,6,4,0,5,10,0,36,5,8,8,3,2,0,5,20,1,38
30,11,6,14,5,1,7,17,8,116,10,13,10,6,9,7,8,26,0,126
4,5,1,8,1,7,3,7,0,25,1,2,1,1,12,4,5,6,2,27
22,0,1,2,1,20,2,7,0,66,0,4,12,12,5,2,13,6,1,66
7,5,3,2,3,14,0,0,4,72,4,3,2,1,9,7,12,3,0,69
5,3,2,7,3,10,0,2,0,14,2,2,2,2,9,6,1,4,0,18
3,9,0,1,1,1,3,6,3,52,3,3,6,2,5,1,1,8,0,50
10,0,9,8,3,1,1,5,0,38,2,3,1,3,11,5,0,5,2,43
8,16,7,8,6,2,2,11,2,57,11,11,6,3,12,13,0,3,0,60
3,4,0,3,2,0,4,1,0,76,3,8,2,0,1,0,1,4,16,58
0,3,1,2,3,0,0,2,5,17,1,2,0,1,2,7,0,3,0,17
20,0,0,2,6,0,0,3,0,23,1,4,5,2,5,0,0,4,1,32
22,1,0,5,11,0,4,2,0,79,0,0,1,0,10,2,3,17,10,81
43,5,4,22,10,3,7,1,0,136,6,7,5,7,25,5,4,29,10,133
10,0,0,9,7,0,0,5,0,55,1,3,1,1,9,2,0,20,0,49
27,2,6,12,12,2,11,15,11,181,6,13,18,12,22,1,6,27,0,174
10,2,4,7,6,7,2,14,0,124,4,8,4,7,11,8,10,6,0,118
3,2,2,3,2,4,5,10,7,63,1,2,8,3,8,5,3,4,0,67
13,4,0,4,1,7,14,10,0,103,11,11,14,3,8,0,5,5,1,98
2,1,2,0,1,9,2,4,0,12,1,0,5,2,1,0,4,7,1,12
19,6,2,3,4,3,1,7,0,47,2,3,11,4,8,1,11,13,1,38
5,2,1,8,7,29,8,21,8,79,3,12,16,9,8,10,6,23,0,81
10,3,0,7,14,2,28,12,11,62,2,9,35,1,20,2,8,12,0,60
10,3,2,6,3,2,5,7,2,63,1,5,7,7,8,4,6,14,0,51
15,2,0,10,9,9,0,14,0,109,2,4,2,14,20,3,10,13,2,98
6,3,3,11,1,5,4,16,2,95,3,5,8,3,11,6,2,11,0,97
8,5,0,14,2,1,6,10,5,47,0,6,10,6,7,6,0,5,0,58
7,0,1,6,1,4,1,6,0,52,1,4,1,1,14,0,0,0,8,49
15,0,5,6,7,8,3,27,20,90,3,13,13,8,13,9,4,22,0,96
10,0,15,7,6,0,5,8,0,67,2,8,6,3,16,10,1,4,8,60
18,1,62,12,11,0,2,4,6,129,3,16,7,7,7,62,1,9,0,133
28,3,2,11,6,3,2,24,2,192,6,11,7,3,23,7,3,29,0,184
25,5,2,8,4,0,3,6,0,129,4,8,8,11,10,3,3,12,1,122
20,2,3,29,12,6,11,17,0,198,9,10,15,2,30,6,4,24,5,193
3,0,16,2,0,0,2,1,0,16,0,3,0,2,0,10,0,3,2,20
17,3,2,6,9,1,5,3,4,45,5,4,10,3,8,2,5,11,0,47
22,16,1,19,4,7,24,13,35,149,17,21,33,3,15,8,6,28,0,159
24,4,1,18,6,2,13,9,8,90,3,5,15,6,19,4,9,22,0,92
10,1,0,9,4,0,0,9,13,35,2,9,2,3,17,2,0,9,0,37
18,4,0,3,0,0,6,4,8,49,6,10,5,3,8,0,3,8,0,49
25,2,0,18,8,4,10,4,0,118,2,6,9,8,13,2,3,30,2,114
20,2,1,5,3,1,6,12,0,73,4,5,11,7,10,0,3,21,6,56
14,0,3,8,2,0,6,0,2,69,0,3,8,0,6,1,5,11,0,70
14,1,0,6,8,4,3,1,0,91,3,11,8,5,15,1,3,4,4,74
8,0,0,7,1,2,4,1,1,45,4,8,5,5,4,0,0,4,0,39
13,0,1,13,2,0,1,3,0,69,2,3,2,2,8,0,4,16,1,64
22,0,3,16,5,2,8,2,0,96,2,5,13,3,14,3,8,21,6,79
8,0,1,14,1,2,4,2,0,10,4,2,2,1,7,1,0,7,1,17
2,3,20,8,0,0,7,4,1,46,3,4,7,1,3,29,4,3,0,37
16,2,2,5,4,1,4,1,3,67,2,6,15,3,7,4,0,4,0,64
10,0,1,7,0,1,0,1,4,54,1,2,1,0,5,2,0,3,0,64
11,5,1,15,7,3,2,14,0,45,6,4,1,2,16,3,2,17,4,48
7,0,1,7,12,0,0,5,0,35,1,2,0,1,10,2,0,10,7,34
44,0,9,8,2,1,7,7,3,73,4,7,10,11,22,4,1,24,0,71
9,4,0,8,6,16,9,18,0,106,3,8,8,6,13,4,4,19,4,107
12,1,2,2,3,0,5,2,0,43,0,3,3,10,8,2,0,2,5,37
34,10,7,10,5,8,14,19,7,192,16,18,22,12,12,14,6,24,0,182
19,2,0,4,2,4,7,3,0,76,4,1,10,5,7,1,0,8,10,71
9,5,4,11,3,1,5,5,0,69,5,10,6,5,12,14,0,5,0,55
4,5,4,3,1,1,0,10,4,39,8,3,1,1,7,4,10,6,0,31
6,0,0,5,4,3,7,2,0,36,4,6,13,3,5,0,7,0,0,25
12,6,9,9,6,5,5,6,10,59,7,13,7,6,6,12,6,16,0,54
13,3,2,11,3,8,7,4,2,69,5,8,1,6,23,7,6,6,0,60
4,3,0,8,1,4,5,0,0,38,3,3,3,1,11,1,3,3,8,27
9,2,2,7,2,0,4,6,0,14,2,3,2,7,9,2,0,4,3,14
16,6,0,3,2,7,4,7,0,13,0,0,1,4,7,4,8,13,2,19
13,5,2,4,5,2,7,9,0,85,2,6,12,4,9,7,5,4,3,80
9,8,2,0,5,2,4,15,7,55,0,10,8,4,4,5,6,11,0,59
28,2,8,14,8,5,13,7,20,82,2,8,15,11,23,4,15,7,0,102
11,2,1,0,1,1,9,5,0,36,1,7,8,5,1,7,1,8,4,24
10,3,0,5,0,2,3,4,0,81,7,3,5,1,18,4,1,0,8,61
7,0,0,7,4,1,1,5,10,46,4,0,1,5,10,0,2,6,0,53
15,2,4,7,4,5,3,4,4,107,3,14,3,3,12,2,2,1,0,115
12,14,7,8,5,3,16,10,0,30,3,6,11,5,6,14,3,12,6,39
17,9,1,18,6,6,10,6,3,60,2,8,14,5,10,24,5,9,0,59
10,3,0,5,1,2,2,7,0,32,6,2,2,3,7,0,1,4,3,34
4,1,5,8,3,4,7,7,0,105,5,13,7,2,7,6,8,12,9,75
6,3,0,5,7,0,1,4,4,43,3,2,3,1,4,0,3,16,0,41
21,8,7,14,2,6,11,7,0,60,12,7,10,10,9,2,9,7,8,62
24,4,4,7,0,4,9,10,15,117,6,3,12,3,16,10,12,10,0,122
4,0,0,5,0,0,0,3,0,18,0,0,0,2,2,0,0,2,1,23
2,2,7,3,0,0,3,4,3,33,5,8,4,1,4,2,2,0,0,31
7,7,2,7,2,2,8,5,0,41,9,10,8,3,1,3,0,6,3,38
46,14,6,35,13,9,22,34,24,310,11,42,33,16,44,21,20,26,0,300
14,11,4,17,9,4,9,13,0,78,3,15,20,5,13,8,3,31,2,59
24,22,6,27,5,8,24,22,16,159,13,24,51,12,17,15,6,20,0,155
5,0,10,3,5,1,2,3,0,42,2,4,4,0,4,7,2,6,4,38
18,0,17,6,3,34,3,10,7,101,0,9,22,3,7,21,23,20,0,94
14,0,0,2,0,0,3,8,0,36,1,2,2,3,5,1,1,6,4,38
7,0,0,0,0,3,1,4,0,31,0,3,3,0,4,0,0,6,4,26
22,1,3,0,6,0,0,8,0,49,1,1,2,2,11,2,0,7,8,55
20,0,3,10,5,21,6,7,0,105,1,6,8,24,15,2,9,19,0,93
8,2,2,7,13,6,0,11,0,46,2,5,3,9,8,3,1,12,7,45
5,2,1,5,4,13,2,12,0,74,6,7,3,6,3,1,13,7,8,64
17,1,1,9,6,7,7,24,10,90,1,2,18,12,12,8,9,10,0,100
12,0,0,6,1,2,5,1,0,104,2,1,2,12,14,2,1,2,12,83
19,6,6,10,9,9,6,8,13,128,8,9,14,9,9,19,1,11,0,134
8,6,6,3,1,3,1,7,6,26,1,3,5,3,10,5,3,3,0,34
31,13,0,8,11,11,14,21,8,167,14,22,21,20,15,9,1,35,0,147
9,6,2,4,3,1,7,11,4,16,6,9,10,3,5,2,2,2,0,24
6,3,3,6,2,2,1,11,0,49,1,7,0,8,2,3,0,8,6,48
8,0,4,2,0,0,3,9,0,22,2,2,3,5,4,6,2,1,2,21
6,1,1,4,9,0,0,6,6,52,2,2,1,1,7,2,3,18,0,49
6,0,1,8,8,1,8,3,0,15,4,1,6,1,11,2,0,5,1,19
12,3,2,7,8,3,5,7,0,79,0,8,6,7,13,3,3,7,7,72
8,3,0,1,1,0,1,12,0,50,4,2,3,0,8,1,3,1,1,53
25,12,5,32,7,10,10,33,15,230,11,23,33,15,29,7,22,19,0,220
31,1,4,10,13,2,14,9,4,170,9,10,19,12,19,10,9,19,0,151
21,6,7,39,6,6,22,20,6,155,12,13,20,6,31,14,16,13,0,163
3,3,0,5,2,4,2,3,3,56,1,1,4,1,12,3,0,3,0,56
9,0,1,3,5,24,1,2,18,63,3,3,28,7,2,4,3,6,0,70
33,1,9,24,8,1,11,15,7,115,11,12,20,5,27,16,9,16,0,108
15,1,5,6,7,2,4,9,2,53,1,9,3,4,5,5,3,13,0,61
1,5,0,2,0,2,0,14,4,9,5,7,4,1,2,4,1,4,0,9
