A2,A3,A7,A8,A9,A997,A998,A999,B166,B720,B53,B1470,B768,B997,B998,B999
15,8,38,7,12,9,3,61,5,3,9,2,20,15,0,99
46,41,107,29,117,33,26,207,57,35,61,16,43,40,0,354
11,3,31,10,40,8,4,40,11,16,9,1,13,27,0,70
10,15,92,30,31,8,0,167,5,8,14,3,23,32,9,259
34,39,132,28,108,37,6,120,37,35,63,10,44,50,0,265
19,4,61,23,42,8,0,133,8,20,23,2,13,15,8,201
19,8,42,13,46,15,2,55,16,12,21,3,18,18,0,112
18,8,33,17,48,13,5,59,12,25,12,6,14,28,0,104
4,3,45,2,27,4,23,47,25,13,4,1,13,16,0,83
18,15,92,25,51,9,0,81,39,17,12,6,27,22,18,150
4,3,31,8,25,3,0,30,14,6,3,1,8,17,4,51
5,1,34,5,12,3,3,34,10,3,9,2,13,11,0,49
21,4,28,5,26,9,6,50,34,4,1,4,11,9,0,86
13,11,60,11,23,11,0,68,11,5,9,1,26,25,8,112
10,7,60,11,16,4,4,42,11,5,1,1,19,19,0,98
5,3,34,7,23,7,13,47,9,5,10,1,10,16,0,88
28,11,56,17,43,12,14,53,24,21,28,8,25,18,0,110
24,20,87,23,69,11,4,119,31,19,15,16,40,24,0,212
15,6,42,13,37,3,0,56,29,7,4,1,14,11,7,99
18,20,72,10,63,5,10,97,41,19,12,4,25,16,0,178
22,26,44,17,86,26,22,68,62,23,67,10,21,19,0,109
120,162,228,98,352,110,79,383,208,111,160,56,90,81,0,826
9,14,41,19,30,13,0,36,13,11,17,5,16,12,0,88
25,23,76,10,65,12,8,101,17,34,26,5,23,17,0,198
13,10,57,5,104,3,4,57,35,18,15,3,32,25,0,125
17,4,37,8,27,6,4,53,13,11,7,4,22,12,0,87
17,5,32,13,28,8,7,40,13,13,13,0,13,10,0,88
18,20,60,24,57,12,3,72,30,28,9,7,21,22,0,149
9,14,47,13,29,7,0,47,4,26,16,2,10,10,4,94
9,6,37,8,31,5,7,37,17,23,10,7,10,6,0,67
11,8,49,8,51,4,0,81,19,8,5,1,11,21,14,133
26,11,43,17,33,12,13,58,50,4,25,3,14,17,0,100
27,24,31,19,46,10,21,65,29,18,43,8,19,13,0,113
13,12,91,14,42,10,8,65,29,8,10,3,25,35,0,145
8,8,49,6,30,23,14,37,17,11,10,2,9,14,0,112
9,12,25,9,32,4,6,28,17,11,11,0,26,2,0,58
17,14,46,8,43,8,3,53,18,22,25,0,16,9,0,102
15,16,45,13,33,7,13,35,44,13,16,2,8,9,0,85
5,11,27,8,25,10,0,13,29,9,11,1,5,17,1,26
61,65,203,71,198,40,22,211,125,66,105,17,62,61,0,435
64,58,209,61,194,23,0,222,113,55,67,14,68,57,20,437
48,77,172,51,153,42,0,210,99,34,104,8,61,60,10,377
47,39,166,41,117,9,0,240,64,25,32,7,56,44,15,416
30,17,130,39,85,15,0,192,37,17,26,9,54,47,27,291
44,54,147,45,156,26,21,224,94,40,66,9,36,54,0,418
38,54,120,45,128,27,0,213,53,57,75,14,42,34,12,338
30,42,113,23,113,37,0,154,76,22,49,9,41,34,51,230
36,41,94,32,125,26,0,145,66,22,72,8,49,30,13,239
32,22,148,30,95,26,0,199,42,22,20,6,69,52,18,323
28,38,141,24,97,18,0,180,48,29,42,6,43,42,7,309
53,52,133,43,132,40,85,263,86,45,94,26,55,40,0,455
47,76,200,48,130,30,0,280,74,49,70,13,68,61,1,475
46,26,158,30,82,17,0,184,46,32,25,4,50,31,8,347
52,69,233,62,172,57,0,327,108,72,81,13,72,75,11,540
32,25,110,26,80,33,0,582,51,27,36,11,34,40,8,681
11,13,78,14,25,7,2,58,17,8,12,3,25,13,0,130
44,25,87,22,42,19,0,131,29,24,21,1,43,29,34,189
15,6,41,8,36,6,8,48,15,14,18,8,22,13,0,78
15,16,65,19,46,9,20,77,27,21,16,5,24,16,0,158
24,14,57,16,54,9,0,93,26,10,21,5,30,22,2,151
6,6,42,7,15,2,3,23,12,10,6,1,17,7,0,51
21,37,107,21,51,21,0,102,42,27,18,5,27,18,1,222
19,29,103,21,57,14,0,136,33,19,32,10,46,33,4,202
33,50,151,47,126,26,3,336,56,52,30,11,55,45,0,523
35,41,166,43,99,40,0,209,59,32,30,12,65,56,15,364
4,12,18,5,31,3,6,20,23,6,6,2,5,5,0,52
0,7,36,4,10,6,7,16,9,8,0,1,11,10,0,47
5,6,15,15,14,5,0,23,12,1,6,3,0,6,1,54
1,12,19,1,10,9,0,15,9,8,2,2,6,10,0,30
4,2,18,2,1,3,0,12,2,1,3,0,4,10,2,20
3,5,23,5,4,2,0,8,6,2,5,0,5,4,3,25
35,85,190,60,136,41,0,267,99,39,47,12,55,64,10,488
0,1,9,0,18,0,0,5,9,0,0,0,8,3,2,11
27,23,46,24,60,16,13,60,40,15,15,6,19,30,0,144
6,11,28,7,18,5,0,49,12,6,13,2,8,12,0,71
2,3,30,5,28,3,0,26,10,6,4,0,19,15,3,40
41,51,93,31,120,37,32,127,94,39,54,25,51,37,0,232
3,6,21,5,18,7,3,55,8,12,4,2,8,5,0,79
5,3,23,10,10,7,0,58,2,2,5,3,10,5,1,88
17,16,28,13,31,10,0,77,34,2,23,3,5,12,3,110
9,7,82,11,37,3,20,60,29,11,13,1,20,32,0,123
22,10,53,18,54,12,0,161,11,10,12,7,20,41,9,220
5,9,24,3,9,9,0,39,6,2,1,0,4,7,16,62
3,3,23,4,9,6,0,12,3,0,7,0,12,1,2,35
5,7,8,0,17,2,0,18,23,2,1,1,0,5,0,25
11,1,16,9,17,5,0,26,13,3,12,0,6,8,1,42
68,85,241,65,186,35,12,337,116,68,45,13,79,52,0,656
20,16,63,14,39,17,0,90,20,11,14,3,30,32,1,148
41,37,217,60,114,24,0,232,62,32,25,4,78,67,11,446
7,12,22,13,42,17,1,56,36,6,14,11,6,17,0,80
13,3,45,6,29,4,0,28,16,5,11,1,13,16,7,59
14,3,29,5,15,3,3,29,3,7,4,4,8,6,0,69
4,1,27,0,7,1,2,17,6,2,1,0,3,3,0,44
3,6,37,4,15,3,10,35,6,7,4,0,8,6,0,82
15,22,109,17,52,15,0,136,19,10,15,11,31,22,4,254
8,6,33,2,18,5,0,23,9,3,5,4,10,16,1,47
1,4,18,0,15,0,2,24,11,2,4,1,10,7,0,29
12,12,64,25,37,11,6,71,24,7,15,2,38,21,0,131
18,11,63,11,54,19,10,85,19,21,20,4,26,22,0,159
3,4,53,7,18,8,0,19,20,4,3,0,18,9,1,57
3,35,15,7,28,8,6,17,44,4,9,4,5,6,0,47
9,6,38,3,22,3,3,33,11,5,9,5,14,16,0,57
76,46,188,44,156,46,0,294,83,54,66,20,60,88,9,470
23,29,95,37,91,16,21,138,61,31,21,4,30,36,0,267
4,14,45,9,5,2,0,103,15,11,5,6,10,12,5,118
22,14,137,44,112,16,0,223,47,18,21,45,39,30,31,337
7,12,24,11,20,2,0,31,23,6,7,3,9,11,1,47
4,6,51,7,24,9,6,49,16,3,9,1,15,8,0,104
16,44,108,29,72,15,8,107,59,37,19,6,23,39,0,216
26,19,65,10,55,15,3,59,21,25,23,9,33,14,0,127
1,5,51,1,16,2,1,38,8,2,2,1,22,19,0,61
44,55,133,46,150,36,9,192,96,47,54,14,52,54,0,348
14,14,37,9,26,9,1,35,16,5,9,2,9,12,0,92
5,7,18,1,12,2,3,14,4,2,9,2,6,3,0,36
6,14,32,4,34,10,11,51,13,3,6,5,17,12,0,106
16,29,94,26,41,14,14,96,26,12,15,6,14,24,0,233
4,7,42,12,30,7,7,21,13,17,6,2,7,19,0,66
7,6,53,9,21,8,0,26,13,8,10,2,20,23,0,54
3,5,8,5,14,2,9,6,4,8,0,4,10,3,0,23
29,31,67,20,71,12,0,118,35,31,17,2,30,19,6,208
3,5,19,1,26,2,0,11,22,4,0,0,7,1,1,32
29,39,141,44,82,17,57,211,44,47,40,11,38,46,0,394
2,9,66,5,22,7,15,41,26,4,1,0,12,20,0,104
2,11,40,10,23,5,0,43,18,3,2,3,5,13,10,80
3,7,32,8,21,2,1,15,11,6,3,2,4,15,0,48
2,4,21,3,12,2,0,12,3,3,5,0,11,1,2,31
4,5,18,3,18,1,0,17,5,14,5,1,4,4,1,32
11,21,27,8,25,11,0,28,27,14,8,5,6,10,1,60
22,48,151,27,91,22,0,198,32,25,33,36,57,41,12,323
8,3,42,17,21,1,0,24,20,8,10,3,20,12,1,42
5,9,42,20,55,6,0,60,18,15,10,4,12,15,5,118
11,23,86,21,47,13,0,98,30,13,8,4,36,29,0,179
13,9,94,18,69,22,0,75,31,5,23,1,31,26,10,173
3,4,28,13,15,5,0,40,5,2,12,2,6,4,1,76
43,34,136,41,105,18,5,207,52,34,28,9,68,25,0,373
3,19,34,7,25,7,8,53,33,4,16,2,12,8,0,81
7,19,73,12,17,5,0,51,30,5,6,0,23,19,1,100
41,56,139,39,123,32,29,195,92,44,45,8,69,45,0,351
55,54,209,45,105,33,0,377,64,35,30,11,60,49,17,612
13,7,30,9,36,12,18,45,18,16,22,2,16,16,0,80
26,23,96,33,90,17,17,101,39,36,55,8,45,34,0,186
49,55,230,61,149,33,13,319,73,56,57,13,87,60,0,563
15,21,123,24,64,9,12,156,33,20,12,12,43,44,0,260
3,6,23,4,28,4,0,43,10,10,3,13,10,2,0,63
13,10,53,17,35,5,0,62,20,6,10,11,13,15,4,116
18,14,31,17,28,9,11,68,21,7,15,0,8,15,0,130
19,10,41,2,16,7,0,33,10,6,7,1,12,20,3,69
28,32,169,45,98,12,3,325,47,41,32,7,55,38,0,492
44,52,151,43,131,34,19,268,66,47,55,35,64,39,0,436
47,46,213,46,129,29,18,243,78,24,54,20,77,41,0,477
2,6,44,3,28,4,7,31,11,7,9,4,12,12,0,70
7,2,36,12,22,4,16,21,11,4,4,0,10,16,0,75
4,4,11,4,20,2,0,14,13,1,6,1,14,6,0,18
8,18,50,19,56,7,5,74,32,15,15,5,27,12,0,131
16,18,42,18,57,15,0,79,24,25,26,6,17,8,1,138
72,55,214,62,207,47,64,331,122,64,100,24,93,55,0,594
50,58,280,59,170,48,20,370,102,58,69,9,87,67,0,663
29,18,127,26,76,30,9,144,49,20,22,10,32,33,0,293
22,14,84,16,67,15,20,69,28,23,32,6,37,23,0,158
3,10,21,7,22,4,1,47,11,9,10,0,6,6,0,73
15,8,58,7,53,12,0,86,22,10,21,5,19,18,5,139
12,39,76,11,50,12,10,92,54,10,17,4,21,20,0,176
7,16,34,12,27,11,0,32,28,7,9,4,10,17,1,63
6,5,36,6,15,8,1,26,16,6,6,1,5,5,0,64
11,10,40,4,23,7,0,41,13,8,2,0,18,13,10,72
12,13,56,4,34,13,0,69,14,8,8,3,14,22,6,126
12,11,20,3,14,3,2,31,11,17,11,0,9,4,0,44
1,10,19,6,25,4,1,52,19,2,5,4,4,6,0,78
11,10,30,13,32,9,9,38,17,15,13,2,6,13,0,86
9,17,48,14,41,5,0,75,23,11,5,2,15,15,6,132
22,23,130,22,90,28,0,155,35,19,24,2,59,39,22,270
47,67,202,52,153,50,0,278,79,42,51,10,64,79,38,486
4,2,14,5,9,0,0,17,3,5,2,1,5,3,3,29
9,5,80,17,36,4,0,78,17,11,7,1,12,26,0,155
21,34,67,27,65,19,0,86,60,16,16,6,25,21,13,162
16,19,54,7,53,11,26,46,27,17,29,5,19,17,0,118
29,17,145,23,74,29,15,147,52,38,38,4,46,22,0,279
23,13,88,12,37,12,0,89,27,11,13,1,37,29,9,147
1,7,29,3,16,3,1,23,11,3,7,0,11,5,0,46
12,2,74,12,23,5,9,41,22,6,1,1,27,34,0,87
10,23,69,12,42,16,8,78,38,4,21,3,11,32,0,149
26,44,93,33,74,20,28,82,70,33,17,2,32,40,0,206
9,9,68,9,42,8,0,27,29,4,5,4,20,13,3,94
56,84,262,49,172,42,4,374,138,47,67,9,73,60,0,649
8,3,34,6,14,6,5,28,7,1,6,3,18,3,0,66
9,16,39,14,34,9,5,56,25,18,14,4,16,22,0,83
16,2,49,6,35,8,0,42,21,12,21,3,13,13,4,71
10,12,41,8,34,2,3,36,36,12,10,1,12,11,0,64
26,20,101,20,39,10,0,74,31,12,11,6,34,51,7,138
21,24,63,18,61,17,0,121,65,20,13,4,18,29,3,173
24,12,44,15,54,10,1,68,41,15,11,1,18,26,0,116
24,21,102,19,67,19,11,108,41,27,29,5,32,35,0,202
22,11,56,12,66,20,1,124,29,18,22,3,17,22,0,201
22,26,197,33,120,25,0,267,57,30,23,2,100,52,12,414
27,26,168,30,78,24,10,213,45,18,30,7,50,51,0,375
48,27,139,30,101,30,2,307,51,30,43,5,60,36,0,459
36,38,161,35,88,32,0,178,40,21,38,6,60,53,6,344
9,9,80,5,34,17,0,65,27,12,9,5,25,19,10,112
26,14,89,21,35,10,3,71,40,10,6,7,17,22,0,167
4,5,37,5,26,1,2,47,37,5,0,0,8,6,0,71
38,54,286,42,151,17,0,305,124,32,26,13,85,52,15,546
34,39,175,37,92,20,0,268,66,13,18,9,50,49,33,427
26,63,220,48,112,27,0,337,97,29,12,10,54,55,31,545
60,88,272,61,134,38,0,698,150,27,29,15,66,95,20,949
53,99,246,73,154,40,0,315,142,37,27,10,65,82,31,586
26,49,138,32,73,16,21,156,60,16,21,10,36,27,0,341
66,71,229,57,162,29,14,299,143,39,31,14,55,71,0,574
18,12,123,18,35,9,9,108,45,17,10,0,25,31,0,204
7,5,25,1,16,3,0,18,9,6,3,5,4,4,6,38
45,72,156,41,91,20,0,236,80,33,29,3,58,46,15,397
48,56,255,49,151,42,9,302,155,25,41,14,58,68,0,551
29,55,199,47,75,17,0,348,99,17,15,4,39,38,6,552
34,70,162,30,91,19,0,208,113,21,23,14,50,31,26,336
24,15,127,31,59,12,0,151,28,24,14,7,32,24,21,269
58,68,229,46,130,33,5,310,52,32,32,39,81,66,0,577
61,49,231,56,141,27,15,459,56,38,34,23,74,62,0,752
9,13,24,13,28,6,3,39,17,13,4,5,16,10,0,70
77,109,310,92,185,54,0,446,81,60,87,27,127,73,60,758
3,0,36,1,22,11,9,43,9,11,6,8,13,4,0,74
8,11,18,11,9,11,3,45,5,3,4,19,17,7,0,61
8,3,19,8,19,4,0,27,16,3,5,0,8,3,2,51
15,27,88,23,62,6,4,95,43,12,8,1,32,19,0,205
29,25,88,28,74,13,12,73,56,22,39,10,23,28,0,164
6,4,30,4,13,10,0,52,6,4,3,0,7,12,0,87
32,38,224,51,148,22,1,263,52,45,23,2,52,51,0,554
4,11,24,14,19,5,13,32,18,8,12,1,20,9,0,54
3,6,7,0,3,3,0,3,0,2,6,0,3,6,1,7
2,1,32,4,8,1,12,40,8,2,8,1,11,7,0,63
6,3,44,21,23,1,13,103,17,12,2,1,24,13,0,145
13,5,87,25,54,7,8,129,23,10,12,2,40,34,0,207
5,1,32,2,10,5,0,16,6,3,0,1,12,10,0,39
20,45,145,28,67,23,0,135,57,20,15,4,32,35,22,278
5,11,33,3,29,6,0,35,7,3,11,5,12,8,3,73
17,19,78,16,37,13,11,124,41,7,18,10,27,23,0,189
53,46,179,44,88,32,0,265,24,35,53,7,59,66,4,459
48,28,187,23,97,20,0,377,16,36,40,9,51,59,47,522
84,85,185,55,199,55,0,311,60,68,115,29,75,86,15,526
70,61,159,37,173,40,73,337,51,48,91,17,60,85,0,598
67,41,150,28,114,26,0,361,36,34,58,15,40,55,47,502
72,70,178,58,182,32,0,291,51,56,117,26,33,62,4,534
50,50,124,43,147,33,1,264,33,49,76,18,34,52,0,450
56,54,185,42,133,38,4,277,45,46,74,11,53,66,0,494
59,47,163,56,159,42,0,291,40,48,82,19,43,63,22,500
73,76,220,92,231,80,38,252,64,67,169,40,74,98,0,550
79,83,232,61,221,53,0,255,74,57,126,32,83,80,5,527
82,44,144,41,186,53,49,315,75,72,129,14,53,56,0,515
12,21,54,15,36,12,8,67,10,17,31,5,10,16,0,136
16,10,49,6,27,13,7,47,12,11,24,4,10,28,0,86
84,61,186,54,153,67,4,964,41,49,124,12,63,83,0,1201
35,18,112,31,83,23,21,210,24,30,35,8,31,48,0,357
2,7,17,9,18,7,2,20,15,6,1,2,5,10,0,43
102,95,248,69,230,65,0,304,92,74,139,19,88,98,67,536
71,50,189,69,217,37,23,277,41,72,136,24,55,70,0,535
14,3,37,6,22,3,2,29,17,10,3,5,4,12,0,65
8,8,64,16,38,9,0,117,13,19,18,1,13,27,3,166
44,52,213,45,138,37,29,205,47,69,48,18,70,75,0,436
31,11,62,14,57,15,3,58,19,18,17,4,13,22,0,158
30,32,57,24,79,26,39,118,34,40,59,17,25,25,0,205
12,5,49,9,19,5,0,58,12,7,0,0,15,8,3,112
26,34,99,22,57,10,11,113,14,18,22,7,29,30,0,252
62,52,243,53,152,47,0,295,56,48,68,16,77,82,17,540
62,64,106,46,144,41,104,190,85,69,74,25,49,39,0,416
44,30,178,35,113,31,0,168,28,33,55,13,71,99,2,298
16,6,64,13,41,10,0,65,20,9,22,4,29,40,2,89
74,84,96,55,208,50,50,189,105,104,128,36,58,56,0,319
80,71,253,40,176,30,0,446,36,56,65,22,50,87,42,738
73,73,344,56,234,75,0,388,66,58,121,16,92,113,150,627
32,42,105,35,91,24,10,126,54,33,36,4,20,43,0,275
9,6,73,17,30,14,0,67,14,14,10,3,23,18,8,126
88,53,223,80,184,68,23,422,55,62,115,24,64,82,0,739
27,13,72,13,61,13,12,99,14,18,29,4,31,42,0,172
81,33,279,64,159,39,1,327,34,47,87,12,60,167,0,576
9,10,65,16,40,4,0,66,18,13,16,1,18,42,0,102
115,108,260,118,229,75,137,438,107,113,169,48,77,123,0,843
24,18,114,37,98,20,0,109,25,34,51,4,39,37,13,217
2,5,30,3,7,2,6,26,14,3,3,0,2,7,0,52
15,9,30,15,40,2,4,52,23,12,13,5,7,15,0,92
22,17,101,14,59,12,0,101,28,13,31,7,29,25,0,193
93,100,321,86,268,64,73,505,58,103,108,36,149,126,0,930
8,5,50,15,25,7,0,45,5,5,10,0,17,24,8,86
51,49,137,53,140,39,7,193,69,52,89,13,48,45,0,353
62,50,262,43,121,29,0,340,43,39,28,6,91,84,35,581
75,44,274,48,174,50,15,366,58,40,100,10,97,82,0,659
11,11,41,9,34,20,18,58,12,13,34,12,9,22,0,100
15,8,134,18,36,14,5,103,27,13,12,1,38,32,0,210
21,15,76,30,44,13,0,122,17,8,34,7,23,22,22,188
1,2,39,7,16,2,12,36,10,13,3,1,11,11,0,66
28,29,127,41,109,27,0,164,36,30,35,8,38,52,5,321
2,11,20,3,5,6,3,24,6,7,1,2,7,8,0,43
1,0,20,3,15,2,5,22,16,4,7,0,11,6,0,24
9,12,28,7,34,3,11,56,17,3,8,2,17,15,0,98
11,0,43,4,13,4,0,26,8,6,2,0,19,9,9,48
3,10,22,9,13,4,0,22,10,1,0,0,4,18,11,39
14,14,115,19,35,19,0,114,16,10,13,2,32,28,14,215
25,25,117,23,55,26,2,157,23,25,34,8,57,37,0,246
11,11,25,6,23,9,17,25,9,10,5,8,8,15,0,72
44,54,173,44,116,31,9,311,55,40,50,18,43,61,0,515
111,97,294,83,258,54,8,473,78,88,133,41,115,97,0,826
60,48,226,58,129,33,77,358,47,61,54,13,92,77,0,645
6,3,54,2,29,6,0,55,3,4,9,1,13,15,7,103
20,6,57,19,36,15,5,84,15,17,28,4,26,23,0,129
11,8,98,35,54,12,14,159,10,18,26,5,37,23,0,272
27,25,62,22,81,23,0,166,39,28,37,13,27,35,18,209
9,10,33,11,53,5,0,120,11,10,11,2,12,16,2,177
49,30,71,28,124,26,25,99,47,48,60,10,36,38,0,213
2,6,22,1,20,3,2,18,8,6,7,0,4,8,0,41
48,38,109,48,103,37,12,159,45,46,64,22,35,32,0,310
11,17,73,12,44,14,0,75,12,9,45,4,26,17,0,133
31,26,139,30,81,22,43,222,34,29,50,7,35,61,0,378
16,4,27,8,40,7,0,44,6,14,15,5,10,12,1,83
24,20,96,21,77,22,17,172,20,16,39,9,24,40,0,301
29,9,44,12,44,15,14,53,19,9,36,3,12,17,0,124
33,22,40,19,50,10,12,94,29,24,43,3,12,22,0,147
95,77,237,70,191,36,12,417,53,77,126,24,90,84,0,681
48,36,140,29,98,27,3,157,20,26,50,18,42,54,0,328
147,141,202,116,384,82,6,464,176,140,163,59,95,85,0,824
23,13,89,28,60,16,6,114,23,26,14,7,49,27,0,203
33,49,186,39,115,24,17,185,28,39,56,9,86,47,0,383
8,21,75,8,75,11,0,89,27,23,14,12,25,29,16,141
10,3,18,3,10,1,3,26,5,1,1,3,6,9,0,49
26,22,122,28,80,17,0,116,17,25,36,6,21,57,14,235
7,4,23,4,23,8,0,44,6,9,14,1,13,5,0,65
34,19,144,33,96,16,0,185,29,33,35,7,48,66,0,309
48,36,189,52,105,47,11,204,43,43,61,19,53,55,0,418
13,8,30,15,38,7,5,48,7,22,26,2,15,9,0,83
35,33,101,30,64,14,0,122,16,23,24,9,39,46,3,239
102,104,200,74,321,69,0,393,180,102,114,36,84,67,36,644
77,99,189,78,265,63,0,413,142,81,87,28,64,49,21,712
130,133,135,81,330,88,51,267,196,104,167,39,65,65,0,579
7,4,51,6,22,5,3,71,4,8,1,1,21,8,0,126
31,29,95,18,74,19,36,114,42,32,40,9,29,37,0,227
32,28,73,26,110,25,12,127,38,33,43,13,37,24,0,245
20,23,95,16,55,12,10,132,11,28,23,11,31,20,0,239
7,8,44,8,12,4,2,29,3,2,7,3,17,23,0,59
29,18,107,8,63,8,27,131,15,21,37,9,19,27,0,263
25,14,117,16,78,20,0,127,17,29,37,8,33,46,9,218
5,22,25,9,42,13,0,35,15,5,15,10,13,12,17,64
54,61,77,35,137,43,21,143,73,76,71,22,30,37,0,262
56,70,121,68,153,32,0,260,96,75,62,16,66,39,61,345
51,44,170,48,137,36,9,192,50,59,94,10,60,61,0,353
55,40,219,56,131,21,11,226,39,40,50,15,73,75,0,467
69,38,213,43,122,32,43,386,51,49,65,20,69,99,0,593
30,7,47,14,53,11,2,62,12,21,36,0,19,10,0,128
18,10,55,14,28,10,11,43,24,14,14,2,8,18,0,109
19,9,42,8,33,10,0,38,15,11,11,2,19,22,9,70
26,9,48,25,56,14,21,50,26,18,21,3,17,19,0,145
22,45,129,34,101,26,21,153,66,35,32,10,56,43,0,289
11,16,31,5,49,7,9,35,11,13,7,8,7,12,0,105
16,14,30,9,41,13,0,60,6,11,16,7,15,6,7,115
12,16,70,11,47,7,1,103,12,15,15,1,25,22,0,177
13,12,34,5,12,3,0,49,5,6,2,5,13,15,18,64
79,49,202,56,176,40,22,311,62,54,73,31,68,93,0,554
20,44,63,15,62,11,0,125,36,32,25,8,32,26,0,181
6,7,19,6,16,3,12,28,5,7,10,2,2,6,0,65
14,4,36,9,33,3,1,52,13,6,20,4,11,18,0,80
55,70,127,37,173,38,40,171,90,75,93,29,57,47,0,320
6,0,24,3,21,1,0,18,4,5,2,4,5,8,1,44
66,52,334,73,176,62,0,409,107,66,58,12,164,97,4,664
24,11,117,32,57,11,6,144,12,14,16,3,32,50,0,275
15,15,25,7,26,4,10,45,9,10,11,3,16,22,0,76
20,6,37,10,28,7,0,48,11,11,24,5,11,16,2,76
67,56,216,39,207,26,0,453,39,48,74,16,72,71,43,701
31,36,218,41,149,33,0,309,35,29,75,14,62,82,6,514
61,50,255,69,190,52,0,372,36,47,101,14,102,90,4,655
100,109,435,92,285,57,38,560,112,108,110,44,136,167,0,999
21,13,52,7,36,7,0,55,34,8,17,6,15,9,6,96
32,13,52,21,61,23,28,81,52,28,40,13,24,26,0,128
57,43,212,61,163,28,0,312,39,63,44,23,62,85,34,526
50,58,175,45,149,29,0,268,41,63,72,26,54,77,13,428
60,57,154,51,155,40,0,370,49,62,67,32,52,78,12,535
121,101,235,94,246,75,57,4129,73,115,128,56,39,137,0,4510
56,61,167,46,113,37,2,328,32,74,48,19,49,83,0,505
43,49,193,60,191,42,0,429,46,68,44,28,51,81,36,653
29,38,123,26,117,41,0,223,37,51,49,21,35,47,31,326
44,31,198,40,109,30,0,360,31,47,37,4,58,79,36,520
53,29,263,53,108,45,0,324,27,36,60,10,99,76,57,510
105,91,288,100,270,47,0,402,88,111,115,38,102,126,26,697
71,41,317,43,151,41,0,345,42,52,43,9,96,81,51,635
32,55,208,55,146,38,1,371,38,63,27,30,55,87,0,606
45,28,239,39,109,35,0,421,21,48,28,20,74,90,27,608
58,44,226,55,128,39,34,492,46,70,36,22,63,92,0,747
68,68,227,51,167,41,0,296,47,62,81,19,84,105,21,499
55,40,208,37,154,37,0,396,33,52,64,15,78,52,168,465
23,22,165,27,92,19,0,251,25,32,28,12,42,65,10,385
66,69,202,54,200,54,0,305,72,51,84,23,76,76,2,566
67,63,185,56,146,35,0,313,60,63,48,18,67,80,22,507
44,55,171,43,123,32,0,349,39,59,45,17,53,74,16,514
43,34,202,51,96,28,0,422,31,49,23,8,57,57,15,636
51,47,184,38,100,21,0,306,37,42,43,8,66,74,21,456
36,37,160,39,111,26,8,428,35,38,32,14,35,59,0,632
55,50,232,57,189,41,0,426,31,80,66,14,56,115,43,645
58,55,174,57,176,37,0,268,66,56,70,33,51,84,14,451
41,47,173,50,123,24,0,236,36,56,47,21,69,71,26,368
58,45,149,33,134,35,0,298,44,39,42,20,66,56,17,468
38,37,185,40,109,21,0,256,19,38,26,8,59,83,16,437
40,24,177,51,109,20,0,280,40,47,26,8,47,57,15,461
53,63,199,46,136,37,10,363,49,67,48,30,48,83,0,582
66,54,204,62,164,41,115,385,71,88,59,22,75,100,0,676
79,70,245,61,209,44,0,318,68,94,123,39,81,94,13,514
81,70,245,53,222,52,0,371,97,69,75,41,73,119,0,620
45,33,207,47,140,42,0,445,25,67,55,18,54,85,0,655
65,56,277,74,170,59,60,402,60,75,78,34,82,125,0,709
44,41,243,33,118,45,0,351,24,64,62,10,57,102,13,543
23,27,119,32,100,17,11,253,27,41,26,15,31,62,0,380
32,28,144,47,81,24,14,400,29,31,21,5,32,71,0,581
19,6,98,9,37,13,6,138,4,27,14,5,35,36,0,205
57,35,226,50,129,34,0,443,34,45,35,8,50,91,31,680
60,51,198,42,117,44,0,395,36,39,55,13,57,72,29,606
63,62,290,55,126,29,154,566,42,58,49,15,100,97,0,984
42,25,181,43,91,22,0,394,31,31,33,14,43,70,49,527
42,43,178,39,104,27,6,481,37,45,32,9,63,61,0,673
54,30,276,41,129,34,0,363,32,59,36,9,71,74,37,609
39,19,205,47,107,20,0,368,29,44,27,10,55,73,19,548
43,53,205,41,127,36,128,334,31,50,52,24,72,83,0,655
30,41,217,47,100,16,0,328,38,39,39,10,42,72,28,511
47,29,197,45,106,26,0,469,21,41,28,10,56,70,26,667
38,34,220,40,95,23,0,360,18,40,25,11,72,80,27,537
77,46,258,65,186,50,0,631,58,65,61,19,73,125,24,888
34,44,182,35,102,21,0,494,26,26,23,16,65,74,43,639
31,35,213,47,105,28,0,353,33,42,35,7,54,75,26,540
22,44,128,39,109,25,0,350,37,46,25,13,33,56,26,481
38,37,182,34,100,31,0,314,33,52,25,7,49,77,38,455
53,45,200,33,110,37,0,317,29,31,33,7,79,76,25,515
46,33,187,51,105,27,0,300,21,34,26,5,51,76,29,507
16,26,118,26,84,23,13,165,50,28,37,4,43,37,0,272
12,17,32,11,29,8,0,26,8,20,18,6,13,18,0,52
21,14,41,17,45,16,16,111,20,12,27,3,23,22,0,174
11,3,17,4,19,0,0,19,12,2,1,0,18,3,6,31
14,14,76,10,36,4,2,88,18,11,7,9,18,37,0,144
80,83,383,112,229,48,96,513,77,104,98,31,109,142,0,983
84,46,165,60,194,54,17,236,69,70,99,39,79,64,0,436
4,13,30,3,18,3,1,32,10,7,4,3,8,4,0,68
8,15,29,5,15,7,0,19,10,8,26,1,8,11,6,28
41,34,153,29,108,28,12,247,38,42,60,9,49,69,0,385
3,9,14,5,13,11,1,15,16,6,6,0,10,6,0,27
42,28,128,24,57,20,8,178,30,20,37,11,45,35,0,307
38,31,128,29,94,34,3,204,26,48,35,11,38,66,0,337
21,18,28,9,39,9,0,35,24,23,16,3,12,9,8,64
19,7,40,10,25,6,22,60,21,17,12,6,12,13,0,108
12,4,33,12,20,3,0,70,5,11,2,0,13,17,1,105
12,7,39,11,27,5,0,47,8,14,12,2,11,15,10,76
30,14,110,30,61,21,0,233,18,16,14,4,36,46,15,350
70,64,185,79,231,55,76,286,106,80,88,35,93,65,0,579
129,78,274,93,213,80,22,401,70,152,99,23,86,115,0,745
3,2,11,3,4,1,0,6,7,2,2,0,3,4,3,9
4,7,11,3,9,1,4,16,12,1,8,0,1,10,0,23
3,8,20,7,23,3,0,21,15,2,5,5,5,4,6,43
47,44,204,74,171,47,11,243,83,75,60,15,82,71,0,455
20,19,91,31,50,13,0,136,16,17,13,10,26,35,13,230
23,6,87,11,22,6,8,100,10,13,12,4,38,29,0,157
11,7,23,9,9,6,0,17,11,7,12,0,10,7,1,34
37,31,117,46,122,27,53,102,37,41,76,19,62,52,0,248
12,11,64,18,45,9,0,56,19,21,21,2,18,14,8,112
23,11,102,20,30,13,16,212,17,14,7,7,26,30,0,326
83,63,183,47,201,49,86,296,59,82,94,37,50,93,0,593
10,2,21,8,11,3,2,25,6,4,5,4,7,5,0,51
31,20,66,29,69,10,0,102,18,30,34,10,15,24,9,187
16,26,93,36,70,15,11,137,26,20,26,11,29,37,0,255
120,88,310,101,311,69,14,532,102,90,122,54,101,125,0,951
5,6,41,7,16,8,0,13,13,5,8,0,11,16,7,36
11,8,50,13,30,0,18,86,14,16,6,6,12,26,0,136
16,6,73,23,31,4,0,74,10,17,20,3,23,10,1,143
24,16,71,25,54,15,17,104,28,9,25,5,17,27,0,215
15,18,46,14,43,1,0,71,14,19,22,5,21,17,1,109
8,9,23,4,18,6,0,20,13,7,6,0,12,7,5,38
83,45,251,50,153,36,34,356,53,40,46,14,84,94,0,677
111,66,375,124,227,47,0,471,63,85,94,24,96,140,14,905
8,3,35,9,13,3,3,25,3,7,2,1,12,18,0,56
33,25,192,31,72,22,0,346,12,38,32,6,53,82,18,480
16,4,57,27,24,6,3,88,15,9,14,7,9,22,0,149
30,24,121,23,67,25,24,151,32,27,38,9,28,36,0,295
37,23,116,21,62,8,0,212,18,27,8,10,39,30,23,324
4,3,15,2,9,3,0,11,2,3,3,0,8,5,0,26
4,2,22,2,11,3,2,20,2,2,1,2,7,10,0,42
40,26,103,24,97,54,0,151,29,54,46,10,42,33,2,279
10,16,121,27,55,7,0,148,28,19,20,1,40,46,6,224
6,6,43,3,14,4,0,31,11,9,2,2,8,14,4,57
10,4,62,28,43,5,0,87,53,8,14,6,14,12,8,124
3,29,57,6,50,2,0,46,36,12,9,3,16,16,11,90
70,50,280,80,178,47,23,576,85,83,68,22,87,115,0,844
72,42,258,65,151,53,19,508,63,64,35,24,76,72,0,834
33,33,122,30,101,16,0,94,21,28,44,14,53,51,1,217
12,9,47,26,36,2,6,51,18,9,11,5,16,22,0,108
7,5,17,1,9,2,1,17,17,2,3,1,4,5,0,27
6,5,18,7,14,7,0,28,3,7,12,0,14,8,1,40
18,24,85,38,51,14,13,116,27,39,28,6,24,38,0,197
36,29,84,27,94,20,21,93,15,39,53,19,28,42,0,208
12,13,90,17,32,2,0,70,21,11,14,2,22,30,3,133
8,6,32,4,10,5,0,43,2,5,9,2,11,9,3,67
13,6,61,12,26,9,0,87,9,16,7,2,13,24,3,140
20,12,93,18,43,12,8,130,23,18,16,2,20,19,0,238
30,28,100,33,84,20,18,129,36,50,39,9,26,43,0,239
36,23,173,28,94,27,4,220,39,26,38,12,77,60,0,353
6,8,21,11,24,8,8,26,24,10,4,0,10,4,0,60
10,6,31,9,22,13,9,45,8,16,12,2,6,17,0,84
13,8,111,10,30,7,0,118,6,21,5,3,29,40,12,181
53,36,330,86,216,40,10,490,69,84,79,16,106,138,0,769
44,18,86,24,87,22,40,127,35,40,46,10,32,24,0,261
2,7,14,8,8,0,0,10,11,5,0,0,7,2,3,21
22,5,58,18,47,7,7,95,13,12,18,1,23,35,0,157
6,0,33,8,7,3,2,18,11,3,4,0,15,15,0,29
15,10,75,18,52,16,13,75,10,10,23,7,44,27,0,153
8,18,74,19,56,13,0,131,29,15,24,5,26,27,16,177
48,57,98,60,163,38,51,146,89,47,79,28,43,38,0,337
13,13,75,19,47,18,5,103,29,13,26,5,9,29,0,182
27,12,64,13,33,10,1,96,25,36,17,1,12,25,0,140
73,55,166,55,146,37,19,713,56,53,122,17,47,72,0,897
30,46,150,51,129,31,0,336,33,31,75,13,69,47,34,471
45,22,148,39,104,20,27,322,31,25,70,3,45,36,0,517
35,29,148,25,80,22,0,285,34,31,58,2,49,41,6,403
37,39,208,40,124,24,0,256,26,35,47,11,51,70,38,450
57,46,147,49,153,30,0,196,40,33,115,6,51,50,16,367
28,34,161,53,87,33,6,257,20,27,49,3,52,53,0,455
39,47,109,36,96,26,23,152,38,32,76,13,55,53,0,261
43,51,182,52,120,32,0,251,40,27,70,13,59,61,13,448
2,0,19,8,6,2,7,15,5,8,0,1,3,8,0,34
5,3,18,0,9,10,0,82,1,4,6,0,6,9,2,99
51,39,149,26,96,28,0,242,21,30,76,13,50,49,22,370
33,31,155,46,93,25,0,279,30,43,59,7,55,44,19,405
4,3,24,5,12,3,0,36,2,0,5,0,7,5,5,63
22,12,68,12,48,16,11,111,13,12,63,3,22,25,0,162
2,3,18,1,5,2,1,15,2,1,8,1,7,4,0,24
46,30,162,50,86,31,0,412,20,45,50,5,53,68,9,567
37,37,129,32,87,17,0,234,30,31,44,5,25,46,27,365
64,58,160,47,132,27,109,272,57,60,110,19,61,67,0,495
44,26,155,25,101,13,9,267,35,26,57,5,50,55,0,412
40,29,142,20,97,20,0,140,19,18,58,6,56,38,14,279
8,11,48,10,25,7,3,77,19,11,13,8,19,13,0,106
40,17,142,17,69,12,13,163,37,23,24,4,44,51,0,290
41,29,159,55,95,28,38,367,67,29,44,7,36,54,0,575
36,22,165,43,100,27,32,354,84,22,39,11,35,53,0,535
3,2,26,3,6,3,0,10,8,4,5,0,9,2,1,24
50,39,145,30,133,27,50,208,39,55,51,17,34,56,0,430
14,9,62,26,47,6,9,112,21,20,12,2,16,28,0,186
20,14,70,9,33,9,0,68,25,9,13,1,19,21,1,134
31,18,148,23,73,21,0,295,31,13,17,8,61,58,9,412
23,18,156,27,79,16,0,301,21,29,16,2,37,60,20,435
35,29,223,36,84,25,0,537,45,28,23,5,57,91,8,712
36,20,180,44,98,23,0,461,48,28,22,12,46,73,9,624
57,39,236,62,139,36,16,302,98,47,40,17,94,81,0,510
4,2,8,3,9,1,0,17,10,4,3,1,3,0,0,23
10,9,45,14,26,6,0,38,28,8,12,1,20,8,3,68
34,13,162,31,88,25,6,225,37,25,34,6,55,57,0,370
8,8,35,7,20,4,0,63,9,3,10,4,10,16,8,85
52,40,122,40,93,22,0,225,57,26,52,9,46,47,8,349
2,2,5,2,2,0,0,11,5,3,0,0,1,3,0,12
12,18,44,10,23,7,0,66,26,12,1,1,8,10,3,119
26,18,133,23,74,16,9,182,22,26,27,6,49,62,0,289
13,13,43,28,33,11,0,50,5,13,31,2,20,18,1,101
16,15,117,15,71,14,0,171,28,18,12,4,37,44,13,263
18,19,94,19,52,17,1,87,24,28,30,1,25,49,0,150
82,41,223,72,175,55,27,222,130,60,61,13,77,80,0,476
42,53,167,40,172,28,29,283,104,28,62,19,39,64,0,498
74,45,181,56,175,68,10,275,74,49,98,27,56,79,0,501
28,10,63,24,33,12,7,121,22,14,12,3,22,30,0,195
23,17,66,13,82,28,18,91,20,21,40,24,27,26,0,180
90,95,206,69,228,60,25,278,64,74,86,108,73,86,0,560
75,67,214,79,272,46,22,462,70,84,91,109,80,91,0,712
84,73,232,58,216,69,0,324,54,65,70,61,68,78,29,631
116,98,306,105,262,100,45,375,96,121,140,46,135,128,0,741
58,59,193,45,140,51,0,265,60,59,58,25,55,65,5,484
12,4,34,13,23,3,0,56,5,7,15,2,14,11,1,90
12,7,64,10,24,7,9,47,4,17,10,1,14,14,0,120
84,49,219,73,155,43,0,435,86,45,48,17,77,72,4,709
95,46,270,69,149,44,0,441,66,47,54,19,102,110,43,673
17,20,132,49,89,19,23,255,29,28,27,7,49,78,0,386
47,24,173,47,76,21,23,230,29,45,43,11,40,62,0,411
5,10,37,1,7,1,3,31,9,2,6,1,11,12,0,54
20,19,119,26,74,11,0,218,30,11,22,6,30,57,27,304
8,17,62,7,30,8,16,36,36,6,3,3,17,27,0,92
29,41,100,26,93,18,5,154,30,35,17,24,26,48,0,286
33,23,78,21,69,23,38,92,30,23,45,10,29,27,0,213
16,8,43,8,11,4,6,42,10,2,12,2,9,20,0,83
51,38,180,44,60,21,0,327,25,22,36,7,46,58,34,493
25,18,179,27,63,20,18,428,11,24,26,3,56,72,0,586
6,2,21,7,8,5,3,50,2,6,4,2,9,11,0,68
7,4,29,3,5,3,7,32,3,2,5,0,9,10,0,61
31,25,177,44,88,30,0,308,29,39,32,8,62,64,9,460
14,30,168,37,129,30,26,230,56,45,48,7,50,60,0,398
14,2,24,2,7,3,4,38,0,7,10,2,22,10,0,43
24,7,106,22,57,27,36,157,6,11,79,3,73,25,0,239
45,29,158,49,111,52,126,1302,136,39,33,11,52,45,0,1556
48,56,229,51,151,38,25,324,194,33,24,11,80,57,0,523
52,42,221,46,136,47,0,497,139,34,25,8,54,53,23,705
54,54,275,49,206,65,37,280,213,38,39,9,114,63,0,544
22,23,146,27,81,24,0,349,91,22,17,10,38,43,20,431
70,74,226,56,165,68,1,371,228,30,58,11,66,62,0,576
28,32,99,26,93,24,0,149,78,21,27,9,29,18,20,249
81,46,341,86,199,59,25,386,260,30,43,10,109,86,0,685
20,19,104,25,57,28,0,108,78,6,13,2,13,22,11,216
53,35,243,32,114,36,0,294,139,26,15,3,77,64,14,469
50,45,329,50,146,52,0,344,192,31,11,11,88,81,16,586
44,33,195,40,120,23,0,219,106,22,22,2,56,47,19,400
36,43,193,37,121,30,0,226,131,10,18,2,58,62,29,376
34,28,218,35,100,22,0,302,121,14,18,11,61,49,30,435
32,50,225,35,115,26,0,282,101,22,17,6,63,52,25,479
35,18,211,33,118,20,5,312,95,17,17,9,59,67,0,488
36,27,193,37,104,16,0,314,101,25,11,3,57,47,13,470
10,4,42,17,20,9,0,56,34,3,3,0,12,10,4,92
53,38,153,30,99,27,38,118,133,23,17,5,60,34,0,284
46,60,174,55,136,34,0,352,173,27,42,4,35,51,78,447
84,49,270,61,183,45,31,436,234,44,44,4,103,97,0,633
66,44,245,56,176,50,0,302,189,30,42,5,94,62,0,517
80,75,209,74,222,71,37,329,269,44,65,20,76,81,0,542
46,33,249,57,140,46,0,447,168,31,29,9,66,63,13,639
47,54,244,46,160,52,0,271,178,20,37,8,73,55,22,481
35,28,112,34,105,38,32,280,138,13,35,6,37,45,0,390
71,63,238,65,182,45,0,368,156,38,41,5,62,54,63,613
33,21,182,36,120,32,0,178,111,17,18,12,53,37,24,330
51,38,242,37,154,29,0,495,162,22,19,13,83,56,29,662
16,13,40,10,27,21,11,61,20,16,7,7,22,18,0,109
8,2,19,6,13,3,0,19,10,2,4,2,4,4,4,40
5,5,25,7,8,6,13,27,9,7,3,0,6,11,0,60
14,13,69,10,23,9,0,90,25,8,5,4,22,17,1,146
30,17,119,21,66,11,0,180,42,9,11,1,29,35,4,313
12,3,66,11,31,8,4,98,18,10,4,1,18,27,0,155
35,61,71,25,117,18,53,109,27,38,122,20,19,13,0,250
36,33,123,48,101,21,0,149,13,23,91,7,30,32,6,309
32,19,111,23,83,25,110,302,23,30,100,8,26,53,0,465
102,76,211,77,208,70,27,475,51,53,231,18,56,74,0,763
33,30,84,33,101,23,0,507,8,21,89,2,20,24,0,647
103,64,218,77,216,57,82,358,55,57,269,15,63,77,0,639
66,49,224,55,159,40,0,458,19,30,151,3,58,61,31,698
4,8,22,6,7,4,0,36,10,11,8,0,9,8,3,38
6,14,38,5,10,11,2,75,18,7,5,2,19,9,0,101
61,34,109,37,78,20,26,227,45,38,40,13,26,57,0,373
26,15,140,25,75,25,23,146,80,10,17,3,40,33,0,292
3,6,57,8,25,9,5,75,14,7,1,3,15,29,0,119
63,56,323,71,169,51,42,412,90,40,60,16,110,87,0,784
17,16,62,18,59,13,0,105,22,12,8,10,25,18,4,191
49,36,146,40,112,28,34,277,98,29,42,8,51,61,0,433
41,41,182,31,148,32,0,284,138,39,43,5,65,49,3,417
72,49,193,67,206,45,53,326,114,57,78,49,55,70,0,588
77,64,196,80,216,42,22,403,87,68,100,34,75,73,0,663
16,14,32,14,40,7,0,98,21,12,18,19,5,12,0,134
29,28,121,47,130,24,10,241,49,43,39,22,34,44,0,399
67,79,171,54,201,57,0,258,89,65,95,51,47,68,45,427
41,62,134,50,119,32,0,214,47,39,55,34,58,38,22,359
37,41,146,63,149,37,13,516,48,48,66,37,41,37,0,725
39,32,124,39,127,40,0,209,68,33,34,17,43,53,2,360
1,0,23,8,13,3,0,38,8,5,3,1,10,7,8,44
7,3,16,6,11,1,3,31,14,6,2,1,4,5,0,46
8,6,51,13,11,4,0,102,9,4,6,4,9,18,1,144
34,37,91,33,95,28,122,185,64,40,73,17,46,38,0,347
5,4,24,7,12,7,9,20,1,4,4,2,5,12,0,60
29,22,95,20,74,12,0,152,51,10,23,11,19,28,3,259
18,13,81,18,46,12,7,82,8,13,20,4,29,13,0,190
29,24,101,20,51,22,0,152,56,16,20,8,41,28,17,213
11,10,34,6,16,4,0,38,5,6,1,5,12,14,7,69
9,12,55,9,59,9,0,55,22,6,8,5,27,10,8,122
11,7,45,7,30,6,0,126,10,11,5,2,12,23,11,158
26,15,86,26,93,17,9,113,72,15,13,4,26,28,0,227
59,47,108,39,118,38,0,178,52,39,78,48,45,20,8,297
6,3,43,10,22,6,13,65,14,14,8,1,13,14,0,104
10,11,44,13,28,7,7,47,25,6,13,7,12,10,0,94
29,27,89,21,64,21,1,227,36,29,14,10,42,33,0,315
54,33,174,49,108,29,10,266,95,30,23,10,38,39,0,488
11,5,46,4,15,4,0,47,15,6,5,0,14,7,8,77
4,4,62,14,19,5,0,59,19,3,1,2,11,13,6,112
10,8,54,9,31,6,3,93,28,14,7,0,11,19,0,135
11,4,43,12,29,5,12,45,18,15,8,3,12,14,0,91
75,39,216,50,168,60,1,284,80,52,73,26,57,68,0,537
64,57,168,52,206,41,73,286,111,44,88,37,57,48,0,562
71,53,170,46,146,47,2,362,80,52,52,21,36,58,0,598
43,42,192,43,111,43,0,312,78,39,50,5,42,52,24,496
41,32,204,51,131,35,0,302,82,20,36,6,60,61,47,484
54,51,136,55,150,46,36,146,76,59,81,9,35,54,0,360
1,1,22,3,8,4,10,28,4,2,3,1,6,10,0,51
34,31,159,33,108,19,13,207,71,26,24,3,58,43,0,379
9,16,94,13,63,13,0,115,17,14,13,8,33,31,6,201
15,11,89,35,61,16,12,156,57,12,10,10,29,29,0,248
8,7,69,16,34,8,0,116,19,8,3,1,16,23,16,172
5,5,73,15,44,12,5,78,31,6,7,3,13,22,0,155
13,14,45,13,35,17,0,119,35,6,7,2,17,9,15,165
2,6,26,5,21,7,4,13,14,4,4,0,5,12,0,45
6,7,57,18,25,6,5,60,24,11,7,1,22,22,0,97
23,16,90,16,46,16,4,57,65,17,8,3,37,31,0,107
22,11,53,23,48,12,8,97,42,14,11,4,16,19,0,168
76,38,269,58,149,29,40,358,165,29,33,12,87,67,0,624
19,16,65,33,63,10,0,99,32,14,19,4,21,24,8,183
18,12,65,11,23,3,5,107,24,9,5,2,14,26,0,164
3,4,51,8,25,7,0,51,13,7,11,2,15,12,17,72
8,7,38,11,13,3,12,53,7,8,5,6,14,5,0,100
4,2,47,2,15,5,0,57,8,2,1,1,17,12,9,82
12,21,96,19,60,9,5,120,19,17,15,11,30,21,0,229
44,17,197,27,86,32,14,210,61,11,23,5,84,52,0,391
69,49,396,51,163,46,30,627,132,33,47,17,108,104,0,990
26,34,145,30,123,22,0,161,101,24,23,8,47,35,5,298
10,10,65,11,36,10,8,56,10,14,6,12,30,23,0,111
45,35,98,40,118,39,18,228,85,47,51,21,36,30,0,351
80,33,237,71,119,39,28,351,161,27,31,19,77,85,0,558
23,16,82,19,56,15,9,89,64,15,16,6,19,25,0,164
19,8,130,22,46,20,17,157,32,16,17,6,36,29,0,283
7,3,34,3,12,1,0,16,17,4,1,3,16,2,4,29
17,15,116,33,63,21,2,118,50,14,28,6,53,37,0,197
12,22,61,22,86,21,14,162,34,20,40,10,15,29,0,252
62,46,117,68,165,49,9,201,52,75,83,20,38,64,0,385
9,5,47,11,32,10,5,44,15,7,11,2,15,10,0,103
34,29,157,30,80,21,7,156,83,17,24,5,43,41,0,301
28,25,207,49,114,32,0,310,79,32,44,5,60,58,6,481
9,14,35,6,53,18,1,62,30,10,17,6,14,9,0,112
3,10,30,8,28,10,8,68,13,12,4,5,10,7,0,114
57,41,133,65,165,27,31,251,99,49,38,22,66,46,0,450
21,8,132,15,52,10,1,221,32,9,12,6,36,33,0,332
4,3,6,3,14,8,1,41,10,5,7,5,3,6,0,44
20,5,64,12,65,11,0,144,8,11,19,7,25,15,0,236
3,7,57,17,25,6,15,47,24,15,7,4,8,12,0,107
35,20,100,22,51,33,31,128,45,13,22,7,41,44,0,248
36,30,256,42,126,47,0,256,120,32,26,8,76,77,7,447
17,26,93,17,43,15,25,137,26,21,20,13,25,24,0,244
15,24,44,19,52,7,9,55,30,25,12,9,22,18,0,109
42,30,111,35,104,24,11,174,63,37,30,11,36,46,0,308
7,8,20,7,24,1,8,23,9,7,27,1,5,11,0,38
11,6,47,11,21,12,15,43,13,15,1,5,20,14,0,98
4,4,39,8,28,4,4,53,17,9,5,3,18,15,0,77
18,32,140,35,111,31,0,203,67,28,28,5,46,45,17,334
51,46,170,36,123,25,0,346,82,40,31,6,46,60,12,520
3,6,55,0,13,4,0,42,10,6,3,0,15,17,3,69
13,12,71,10,20,6,0,60,17,4,5,2,31,19,11,103
23,3,40,6,38,9,6,81,32,5,2,3,20,14,0,130
15,6,43,12,27,12,0,56,38,8,4,0,22,9,0,90
72,43,231,80,179,46,18,250,141,50,44,15,80,71,0,518
43,14,128,50,106,31,7,254,92,19,18,8,41,33,0,422
104,71,429,123,330,146,54,639,222,84,75,33,141,120,0,1221
14,20,99,22,68,22,17,84,52,12,16,5,33,35,0,193
59,27,205,51,98,32,17,338,107,27,30,2,61,57,0,543
5,3,20,10,15,0,1,31,6,2,8,2,9,13,0,45
5,8,19,12,33,5,0,69,8,12,5,2,10,7,12,95
21,7,63,25,41,12,0,114,21,5,10,2,23,32,17,173
24,6,79,17,44,13,8,171,14,13,14,7,24,20,0,270
16,9,25,10,48,3,0,50,24,8,19,1,11,13,0,85
30,13,129,10,47,18,4,166,38,8,15,3,35,26,0,292
15,5,87,13,37,8,6,127,18,11,6,1,16,44,0,202
52,40,94,37,113,24,47,145,62,29,70,23,53,31,0,284
8,7,29,5,39,9,11,26,8,13,28,9,9,10,0,57
6,0,23,4,12,3,9,41,7,8,3,2,8,4,0,66
3,4,35,8,16,8,5,52,7,3,4,0,10,13,0,94
27,24,144,50,99,23,0,269,65,15,29,2,36,47,4,438
44,26,126,38,79,39,9,200,65,18,16,4,37,56,0,365
12,4,19,1,12,6,0,28,13,10,4,0,4,3,0,48
48,44,310,53,146,37,126,365,80,31,27,8,80,57,0,846
5,3,26,8,9,3,0,83,7,7,1,0,4,14,8,96
40,53,82,30,130,26,0,195,69,43,44,11,36,42,5,306
16,50,129,20,72,15,30,168,44,19,49,4,46,39,0,299
28,47,154,40,82,25,0,177,51,18,49,6,61,47,14,307
57,59,174,55,164,37,0,244,119,37,82,9,59,61,17,406
47,37,223,50,104,32,0,297,41,31,27,10,72,83,5,521
41,39,226,39,91,15,18,290,52,39,32,3,75,73,0,485
56,37,226,51,120,33,0,367,54,34,24,6,82,62,43,585
55,26,262,43,107,24,0,401,54,18,47,10,51,63,43,632
3,6,46,9,26,9,1,49,12,11,10,2,13,14,0,87
30,37,79,26,85,24,9,97,67,16,58,1,36,28,0,181
60,57,194,66,122,41,15,250,104,59,43,5,65,77,0,452
55,72,194,58,135,52,10,291,104,57,66,12,83,83,0,462
92,117,317,99,261,81,0,326,180,73,142,17,107,129,13,632
41,45,56,25,94,25,0,938,51,20,56,11,16,26,6,1038
25,43,72,14,87,15,0,201,71,27,31,6,18,31,26,247
29,35,91,19,78,15,0,164,42,22,32,9,32,29,15,250
45,78,140,40,157,36,50,203,105,44,74,9,55,56,0,406
37,47,155,42,115,29,9,216,70,39,34,6,43,68,0,390
71,86,192,62,190,27,0,305,114,65,76,13,56,74,5,530
38,40,209,28,115,37,0,313,64,25,25,3,68,62,29,504
31,23,119,23,61,20,0,180,40,24,20,3,41,33,28,268
23,25,156,31,118,27,0,270,49,39,35,9,43,55,10,410
36,42,147,39,72,26,0,236,45,36,38,3,41,39,50,346
8,8,21,5,15,2,9,39,11,6,4,2,15,3,0,66
1,1,40,4,20,6,0,46,7,6,6,1,19,14,9,56
5,4,42,0,16,4,1,35,13,3,4,1,15,7,0,64
16,4,93,15,35,6,0,112,17,8,2,5,49,11,10,179
18,11,124,18,42,10,0,118,25,10,9,3,35,27,6,226
32,28,159,23,85,26,14,141,45,29,23,3,27,83,0,298
34,33,125,24,95,32,8,173,60,36,26,5,41,83,0,273
53,39,178,31,116,27,26,485,92,22,42,11,49,67,0,672
51,57,294,38,199,32,109,334,104,42,46,17,98,113,0,694
35,40,245,58,130,37,0,348,87,16,23,7,74,79,37,570
41,48,224,53,134,37,0,286,94,34,42,3,56,83,10,501
42,39,247,46,163,32,0,326,90,41,48,5,56,96,56,503
43,44,174,56,111,36,0,368,102,32,40,3,61,70,11,513
4,2,42,3,19,6,0,29,12,3,4,0,11,16,0,59
2,2,24,2,7,2,0,5,4,4,4,0,3,5,4,20
11,11,64,7,21,8,0,73,14,7,2,3,14,11,16,128
19,18,172,22,86,27,6,199,56,25,20,0,43,31,0,374
27,20,99,27,59,26,0,133,39,19,14,3,31,18,33,234
19,22,60,13,47,8,4,48,16,17,28,6,12,22,0,120
27,14,91,28,64,13,0,116,38,16,12,1,27,16,20,223
5,17,56,11,39,4,7,71,21,8,13,0,18,21,0,129
13,9,59,12,30,20,5,100,20,9,18,3,28,20,0,150
13,6,57,13,34,7,5,82,29,13,13,1,22,9,0,130
13,13,64,11,43,10,0,114,22,3,9,1,15,23,0,195
16,11,106,12,51,8,10,133,35,14,12,3,16,34,0,233
31,24,185,27,85,12,19,204,46,22,17,11,72,60,0,359
21,6,37,7,26,7,0,36,2,10,9,4,7,16,2,90
45,35,134,28,141,23,0,227,94,24,31,4,52,41,13,374
2,3,22,1,12,10,0,9,3,4,6,0,12,2,7,25
1,3,18,3,8,3,2,17,6,7,2,0,5,10,0,25
18,7,79,18,36,9,8,111,25,13,5,0,25,21,0,197
6,13,57,8,35,6,0,57,6,9,19,7,10,27,0,104
1,0,15,1,13,2,4,19,8,2,0,0,11,4,0,30
10,5,74,28,52,9,0,102,27,10,9,3,21,19,3,188
21,33,139,36,58,24,13,216,52,28,24,3,40,38,0,355
8,3,28,11,33,11,4,56,24,13,6,2,15,12,0,82
7,4,28,1,10,1,2,20,14,2,11,1,5,8,0,32
24,42,212,42,118,37,0,281,84,45,34,6,62,71,12,442
12,7,19,10,23,5,1,33,12,9,7,6,12,5,0,59
9,14,62,14,35,7,11,72,11,9,11,6,25,24,0,138
18,8,109,31,48,16,0,147,26,13,15,4,37,46,19,217
6,6,9,5,12,1,0,8,13,7,4,1,4,3,0,15
6,12,28,6,25,6,0,39,23,8,15,2,7,12,0,55
17,16,46,33,69,15,0,81,43,23,45,3,17,23,1,122
25,20,88,23,63,6,4,168,50,22,11,3,38,17,0,256
9,6,26,5,17,1,0,25,3,11,6,2,8,8,2,49
7,7,49,15,37,7,2,47,17,6,7,1,11,19,0,110
7,8,31,0,14,2,0,19,9,5,8,2,12,9,1,35
47,38,161,41,93,27,8,285,86,23,39,5,37,42,0,468
6,3,69,13,18,3,0,40,6,10,4,1,11,22,1,97
2,15,36,8,31,7,7,25,10,14,18,6,15,17,0,51
11,10,83,13,45,3,0,80,24,6,9,3,25,10,11,157
11,11,50,12,32,5,2,55,19,11,12,3,12,22,0,99
11,6,50,11,10,4,9,47,10,4,6,1,26,11,0,90
3,8,57,4,17,8,0,39,12,5,5,0,20,22,1,71
8,4,71,26,28,12,9,86,26,9,20,3,18,19,0,149
9,4,30,7,21,7,16,19,16,8,12,0,5,13,0,59
29,23,158,31,70,13,7,181,35,18,15,4,60,62,0,318
9,8,93,18,24,11,11,140,20,7,8,1,18,25,0,235
28,24,104,14,86,24,0,189,51,21,25,3,25,38,24,282
9,13,65,10,29,9,0,65,18,8,5,1,21,16,4,127
5,0,39,4,24,6,13,55,19,3,8,0,16,14,0,86
6,11,45,8,24,3,1,33,14,9,4,0,9,17,0,78
50,53,122,44,104,28,6,198,86,25,44,16,47,43,0,344
30,24,109,28,78,21,0,179,50,28,32,3,37,42,0,277
54,44,210,42,142,37,0,436,79,54,40,15,72,65,122,518
39,31,240,50,122,26,118,343,67,47,33,12,63,69,0,678
1,0,27,7,11,3,1,14,1,2,1,0,10,6,0,44
2,1,18,3,11,2,2,25,4,6,0,1,3,0,0,50
9,2,32,1,15,3,0,33,7,1,8,2,13,3,5,56
13,8,63,14,41,14,0,69,24,9,16,1,29,31,10,102
20,10,50,16,33,13,21,98,21,20,13,5,20,17,0,165
58,37,256,49,167,40,0,338,107,43,50,13,93,72,8,559
47,24,119,33,100,36,13,147,21,46,55,11,53,60,0,273
15,7,45,14,31,12,1,63,7,11,17,4,10,7,0,132
26,22,51,7,24,8,6,59,11,27,14,10,21,21,0,99
14,11,79,13,43,13,8,140,15,17,12,2,46,24,0,205
22,14,167,35,92,5,14,176,44,28,14,6,49,30,0,354
48,42,209,47,143,47,25,359,92,52,51,5,75,56,0,589
38,25,163,44,84,28,0,314,59,27,25,6,58,39,9,473
39,53,259,48,149,53,0,298,102,31,40,7,81,67,19,552
4,9,34,6,30,7,4,24,25,10,5,2,12,6,0,58
3,1,16,8,14,2,1,32,11,5,4,0,12,2,0,43
4,0,14,8,7,4,4,11,8,6,1,0,12,1,0,24
4,7,48,20,14,4,0,57,16,6,0,0,9,26,2,95
28,18,71,20,45,8,0,95,31,29,7,3,30,20,3,162
18,5,94,13,31,7,0,82,17,17,3,2,33,14,1,163
28,21,118,22,59,16,9,155,30,12,7,4,41,28,0,306
3,3,10,4,8,5,8,31,6,4,7,2,4,5,0,44
5,2,15,3,12,0,4,28,14,5,0,0,5,5,0,40
5,7,18,3,9,4,0,17,9,8,9,1,4,1,2,29
13,7,60,10,22,2,0,92,19,8,5,3,20,15,5,131
10,8,52,11,28,14,1,77,12,7,5,1,16,16,0,144
13,22,105,18,64,12,10,146,35,15,10,3,25,24,0,278
2,6,25,2,10,2,0,17,8,1,3,0,9,4,3,36
5,1,50,11,14,1,0,49,6,6,4,3,18,10,1,83
28,28,81,25,49,12,3,103,34,16,18,11,28,25,0,197
9,3,68,4,15,12,0,61,9,9,5,1,7,37,0,104
10,13,77,15,42,10,6,84,25,17,3,1,15,31,0,165
23,39,200,45,121,20,9,216,55,27,27,8,84,53,0,419
48,40,331,68,169,36,43,565,81,47,35,18,63,81,0,975
8,4,49,5,19,4,0,21,6,11,5,1,26,15,0,46
27,21,155,40,89,29,1,198,60,47,20,6,42,49,0,336
16,13,108,22,44,28,0,145,36,10,10,2,18,31,3,266
0,2,14,0,8,0,6,6,0,0,0,0,5,4,0,27
13,7,40,5,8,7,0,38,3,4,7,1,6,15,1,81
40,62,285,45,171,25,29,345,80,48,52,11,67,57,0,687
1,4,45,7,18,1,0,28,8,3,5,0,16,12,11,49
22,30,123,21,78,13,0,148,33,11,18,7,48,36,9,273
60,52,245,64,144,32,27,316,133,50,30,18,68,42,0,599
45,47,250,57,163,45,0,488,90,37,39,23,62,65,27,752
8,1,22,4,9,5,0,19,12,2,2,0,8,3,3,38
1,5,13,4,6,2,0,21,5,1,1,0,0,4,3,38
3,0,22,6,13,6,0,29,14,4,1,0,8,11,0,41
32,35,208,51,89,25,0,323,65,23,33,6,60,58,12,506
45,32,215,60,114,20,0,402,69,37,14,4,99,55,17,593
3,2,36,5,3,2,0,26,8,1,2,0,11,6,6,43
8,10,51,8,41,8,1,89,17,12,8,0,21,15,0,143
3,1,30,7,4,0,2,14,5,1,3,3,11,4,0,34
31,22,148,32,102,28,26,182,80,28,38,11,30,37,0,347
3,0,48,3,18,0,0,46,13,5,3,0,9,6,8,74
14,11,172,17,69,12,7,244,15,11,21,7,49,59,0,384
17,4,145,18,52,14,0,185,22,6,18,6,26,43,6,308
45,56,140,47,119,24,0,243,46,32,71,17,53,51,12,392
78,56,203,45,150,38,0,316,40,32,76,17,63,59,25,574
65,34,225,50,146,48,0,347,29,50,51,14,76,58,10,627
76,34,125,50,120,31,0,238,25,43,50,18,32,60,10,436
97,64,221,84,181,49,48,380,74,65,135,12,78,78,0,682
59,39,132,56,111,23,33,295,37,45,80,16,55,67,0,448
50,43,150,56,146,31,14,293,34,52,60,5,39,52,0,541
23,25,126,26,69,13,0,215,8,19,24,9,41,41,8,347
52,38,170,40,124,29,0,285,40,28,44,17,63,67,16,463
42,43,137,49,132,22,0,231,23,52,45,17,44,40,35,400
68,52,173,42,175,40,0,301,32,42,77,10,71,81,46,492
41,43,136,31,123,34,0,159,34,35,88,7,46,47,42,268
50,55,158,35,129,28,0,198,42,34,93,6,43,63,12,360
58,36,90,40,116,38,57,857,46,39,87,20,23,34,0,1043
91,47,253,80,231,67,20,398,60,99,138,16,78,115,0,681
89,53,187,55,216,49,8,260,58,63,140,22,66,76,0,492
44,19,69,34,78,21,17,116,25,18,47,13,29,32,0,234
61,40,141,38,113,40,15,256,38,40,56,12,43,46,0,469
32,29,111,31,98,22,0,245,17,19,39,6,40,53,20,374
57,42,170,39,161,48,0,253,31,35,67,8,58,58,115,398
21,31,41,27,51,10,1,64,20,17,43,9,37,12,0,108
9,7,65,12,21,10,3,56,6,5,7,2,24,20,0,119
10,5,18,4,6,1,6,24,7,4,2,1,13,5,0,42
13,9,50,20,42,14,23,121,13,18,17,8,19,32,0,185
61,44,230,65,183,51,0,423,54,63,96,18,66,79,1,680
69,47,230,52,140,40,42,341,56,48,52,10,54,79,0,662
41,17,108,32,93,15,18,213,19,36,33,13,45,37,0,354
3,8,47,13,31,5,2,64,8,8,10,1,26,17,0,103
21,5,70,11,30,11,0,109,10,6,8,3,38,33,4,155
92,37,206,34,116,26,43,392,37,38,41,9,55,81,0,685
23,6,81,23,48,6,14,177,15,26,13,2,36,19,0,267
85,46,147,35,137,43,0,246,41,49,84,9,60,35,2,459
11,6,19,8,9,3,2,54,2,16,2,4,3,15,0,70
76,21,222,42,119,27,0,348,29,33,44,14,68,65,5,597
2,7,28,3,14,13,9,31,4,4,11,1,7,18,0,62
15,7,50,11,41,6,2,95,3,8,13,4,29,19,0,151
32,16,48,15,52,16,26,129,19,14,31,6,23,15,0,226
13,13,104,30,40,15,0,174,14,12,17,5,40,35,12,254
12,6,46,8,25,11,7,65,8,8,16,2,19,20,0,107
20,6,80,16,22,8,0,115,10,15,9,1,22,19,10,181
36,15,107,24,75,12,0,165,22,15,26,9,49,40,9,264
7,12,22,5,21,6,22,32,6,8,3,9,19,8,0,74
26,7,41,9,52,10,2,49,13,18,21,1,29,27,0,87
18,10,53,14,54,15,3,75,23,17,23,5,26,20,0,128
5,7,50,6,16,9,6,33,12,11,6,3,19,13,0,68
81,58,200,97,209,53,20,433,65,62,91,21,59,88,0,765
4,2,18,5,13,4,0,37,4,1,2,2,4,8,9,53
18,6,37,23,41,13,6,84,20,11,13,3,9,30,0,142
19,5,37,10,27,8,14,70,13,9,14,3,6,13,0,132
23,18,72,24,81,18,7,133,17,28,51,5,30,26,0,219
56,64,141,62,202,49,19,285,48,72,103,25,49,38,0,543
47,44,209,51,151,60,0,336,27,35,99,10,44,81,24,578
63,39,159,55,127,39,24,485,28,51,97,20,52,49,0,694
19,7,59,17,54,15,1,67,23,20,9,1,33,18,0,135
38,32,110,34,101,16,7,188,42,25,37,10,31,37,0,344
50,40,119,41,90,12,0,216,42,30,39,10,42,38,16,351
44,53,179,53,106,36,0,287,62,25,76,3,50,42,9,491
68,41,202,54,181,49,0,633,76,55,90,12,48,75,0,872
30,35,165,48,105,24,0,306,41,22,45,6,53,50,36,460
53,30,167,41,125,36,0,211,48,46,55,4,59,52,12,387
79,61,177,76,180,47,0,315,79,64,49,10,70,60,41,562
60,48,165,44,130,30,0,878,68,52,61,12,32,60,0,1070
44,23,104,28,101,23,0,205,31,39,32,4,34,59,11,318
62,31,166,55,145,30,0,367,65,55,59,10,55,63,18,531
45,41,160,55,156,30,0,267,37,41,46,6,49,68,4,503
38,28,188,22,127,25,0,271,36,28,41,10,80,46,8,450
49,26,143,39,149,22,80,265,63,38,52,10,64,56,0,490
64,48,217,72,198,39,0,256,100,54,90,22,64,75,14,475
63,39,164,41,173,42,0,268,82,38,101,8,61,57,8,435
29,17,107,29,58,19,26,155,22,19,40,6,55,28,0,270
91,53,139,67,143,38,50,267,110,60,88,13,42,51,0,484
64,59,168,67,192,48,0,258,72,60,108,32,54,75,4,451
21,17,28,9,50,13,11,74,11,9,42,7,17,11,0,126
74,18,106,22,69,11,11,211,24,20,30,7,40,40,0,361
23,16,66,30,99,37,14,84,20,33,74,6,32,25,0,179
12,3,45,10,27,5,0,53,19,2,10,2,16,13,3,90
6,3,29,3,17,2,0,42,7,2,4,1,3,18,3,64
60,33,163,41,90,19,2,318,30,50,31,9,37,45,0,524
14,19,67,12,42,11,0,99,26,26,23,5,18,24,4,138
83,34,262,57,138,37,0,548,31,35,69,9,76,67,25,847
22,10,90,25,62,9,2,119,40,16,28,1,28,17,0,209
36,26,84,29,90,28,30,170,44,19,48,6,30,39,0,307
25,7,72,13,34,14,4,149,16,17,13,0,24,42,0,206
31,10,96,15,50,21,4,223,15,20,30,8,19,34,0,324
84,36,287,68,218,54,0,435,70,44,77,43,80,63,9,796
19,17,94,11,50,10,6,136,11,9,17,6,26,23,0,251
45,28,57,39,113,19,31,124,43,43,34,13,9,28,0,286
21,29,115,23,84,15,0,142,39,40,19,4,47,37,6,237
41,35,145,40,104,35,13,225,64,39,55,15,45,61,0,359
51,52,206,43,111,41,0,388,30,43,49,10,67,70,27,596
40,23,247,43,122,29,0,321,29,26,42,5,74,62,19,568
60,31,297,39,102,40,78,1638,22,33,50,14,89,85,0,1992
86,56,246,61,185,57,0,428,32,50,138,23,91,73,33,679
31,21,105,22,70,10,0,205,9,30,29,7,51,31,6,301
23,14,70,20,31,13,32,103,11,6,28,3,12,26,0,220
41,38,109,39,101,34,0,205,25,35,53,15,41,33,2,363
74,87,252,64,247,55,0,331,60,46,164,19,101,78,33,609
65,58,261,57,186,33,0,351,48,50,109,14,89,58,4,639
63,52,164,60,159,46,0,232,30,51,85,6,66,48,4,486
55,45,182,49,158,29,0,353,30,48,58,13,56,61,51,554
60,37,215,46,129,39,0,287,34,28,87,4,65,68,40,487
55,33,188,52,112,29,0,322,52,40,51,7,76,51,11,503
67,61,185,64,160,47,0,321,29,68,94,24,58,69,20,543
13,4,25,2,12,8,0,41,7,4,6,1,12,3,1,71
8,5,45,9,33,7,14,63,12,7,23,2,25,15,0,100
12,12,79,12,50,4,0,86,29,13,12,3,21,21,15,141
35,9,80,8,53,23,3,135,23,17,18,2,31,28,0,227
16,9,44,14,43,10,10,77,23,14,18,4,27,21,0,116
5,3,57,6,26,2,0,53,9,6,7,1,14,19,0,96
75,52,181,56,193,55,96,409,58,55,146,17,76,84,0,681
33,15,70,28,62,28,4,154,28,24,37,4,32,44,0,225
7,2,30,7,16,1,0,42,5,2,5,3,7,12,3,68
11,9,22,10,12,8,0,36,11,2,10,2,14,9,2,58
28,13,91,18,70,20,0,174,39,11,25,3,45,25,9,257
32,12,96,12,35,19,44,149,16,22,16,8,24,42,0,271
10,8,28,0,23,8,0,35,14,4,12,2,8,10,5,57
19,9,76,17,37,4,1,104,21,7,9,2,33,18,0,177
33,30,92,32,73,24,30,163,28,34,31,5,33,51,0,295
47,57,178,46,142,40,14,348,27,39,81,11,53,117,0,544
28,17,106,22,76,22,17,170,13,20,37,6,42,38,0,302
37,29,158,40,124,28,0,277,52,29,46,7,47,64,15,433
8,9,28,9,25,7,0,64,11,5,15,3,7,17,2,90
15,5,30,8,30,8,3,37,11,2,24,3,7,22,0,67
46,32,131,31,88,12,18,200,36,23,52,1,42,56,0,348
125,120,351,102,323,87,112,476,155,133,138,24,134,143,0,969
49,28,141,39,59,31,7,219,31,25,35,1,55,57,0,369
19,8,45,6,40,7,0,46,14,9,14,1,19,16,2,96
0,4,30,1,11,6,0,20,6,0,0,0,8,19,3,36
21,29,107,21,52,18,4,208,22,16,31,2,37,37,0,315
9,11,75,23,62,17,11,82,19,22,31,4,17,19,0,178
38,26,127,30,111,19,0,201,37,29,47,14,36,55,3,331
87,40,265,52,168,41,6,551,48,60,86,16,96,63,0,841
26,9,62,15,54,10,0,159,15,12,25,7,27,11,18,220
25,23,104,13,44,9,16,154,16,18,23,6,27,39,0,259
14,10,74,23,29,8,0,158,12,12,24,1,18,31,19,199
64,47,149,36,161,47,46,216,106,48,69,17,56,63,0,407
36,18,86,28,57,13,0,135,23,14,26,8,34,32,3,233
31,18,70,27,69,13,5,174,15,17,25,6,26,33,0,285
42,51,239,52,181,35,0,390,49,46,61,24,86,95,22,607
63,37,158,50,144,32,0,225,36,27,44,19,73,50,51,409
85,42,191,81,206,56,0,336,76,62,85,36,82,85,1,570
50,37,143,47,151,36,0,256,40,54,61,22,60,55,18,410
29,28,79,27,83,22,0,147,21,18,30,10,31,31,42,232
29,27,108,31,80,24,0,188,27,22,34,16,29,39,36,284
47,27,199,62,134,37,5,264,47,35,58,40,81,61,0,453
33,24,184,44,83,24,0,365,33,24,25,8,76,50,35,506
70,67,207,67,174,44,0,254,52,69,76,31,63,90,31,471
26,18,77,16,67,18,0,160,18,22,37,14,33,33,18,207
59,36,106,29,113,37,1,1299,24,53,75,38,42,55,0,1393
88,51,166,92,183,67,0,311,76,56,91,44,77,58,14,542
45,29,137,21,90,21,0,269,21,27,38,20,43,46,34,383
35,26,145,30,88,22,0,231,28,28,22,14,40,49,46,350
49,33,197,51,147,38,0,362,47,33,38,19,72,73,35,560
53,20,223,46,114,30,0,400,23,34,41,17,61,78,32,600
57,36,186,44,132,41,0,342,33,29,45,14,76,72,37,532
54,57,196,59,144,52,0,444,33,41,43,25,75,63,82,644
56,41,124,49,187,42,0,341,53,63,45,35,44,59,21,520
56,38,201,39,151,50,0,293,38,39,48,20,78,62,32,511
76,72,299,73,273,64,0,365,72,58,105,46,130,114,13,684
39,18,190,41,88,21,0,276,34,26,31,12,55,63,25,427
36,27,229,49,124,34,0,314,25,32,41,18,87,67,44,499
51,22,168,31,147,31,0,258,35,35,58,33,75,60,2,410
48,21,204,27,101,26,0,308,28,26,37,18,51,67,31,477
51,27,160,33,118,31,0,266,41,20,31,22,63,57,18,434
21,6,99,12,43,18,0,416,8,8,14,7,38,43,0,497
36,20,173,42,110,32,0,246,34,26,48,12,65,46,34,394
50,37,208,48,177,36,0,341,62,48,65,37,77,64,41,503
47,25,163,28,83,19,0,223,23,23,35,16,53,60,37,341
46,23,183,26,83,21,0,227,21,30,16,16,74,49,46,357
30,24,117,23,57,21,0,160,21,11,18,22,26,33,33,268
51,43,109,39,115,31,0,200,42,26,63,35,32,72,37,281
56,46,81,45,87,32,39,175,46,41,80,19,53,47,0,275
11,6,17,11,28,10,8,42,12,3,9,7,12,20,0,70
29,11,49,21,44,13,0,60,25,14,25,8,22,13,0,120
5,3,31,4,7,7,0,65,5,7,3,1,6,9,6,85
8,9,30,9,27,15,21,27,8,8,20,5,18,9,0,78
24,12,56,21,58,21,16,192,24,16,29,13,25,21,0,272
71,55,212,93,244,58,0,349,72,73,97,59,104,99,10,568
45,55,145,39,145,43,0,240,42,36,65,32,62,43,54,378
48,46,136,31,130,38,0,179,47,21,54,12,46,52,51,325
45,30,155,44,107,30,0,215,53,20,52,15,55,74,26,331
70,48,200,69,217,67,3,211,96,51,114,36,93,99,0,396
4,4,8,6,13,2,3,14,5,1,3,20,0,4,0,21
5,3,11,3,16,6,0,27,7,2,3,1,3,2,1,52
17,10,40,21,53,13,14,59,20,12,23,16,23,19,0,114
5,0,19,8,15,4,0,11,6,4,10,3,9,7,0,23
12,6,35,8,30,5,9,23,17,4,10,6,23,12,0,56
31,20,127,21,77,15,9,185,21,18,19,21,40,44,0,322
81,65,216,52,180,61,0,287,80,50,74,36,94,74,12,522
49,38,159,37,152,29,0,209,65,29,26,20,58,61,19,395
89,42,301,62,227,70,0,508,94,50,62,54,100,86,36,817
9,6,34,7,27,7,9,55,4,18,3,4,17,23,0,85
32,20,157,29,75,22,0,214,22,19,21,10,37,37,3,400
47,29,161,42,131,49,21,286,44,38,47,21,53,51,0,512
66,36,212,50,109,33,0,488,34,42,39,20,69,52,15,723
85,51,403,76,243,56,0,447,63,62,63,29,186,111,73,774
14,7,65,12,55,13,9,105,11,10,51,2,27,19,0,160
23,9,94,20,78,21,20,118,24,22,50,7,32,39,0,209
102,50,227,70,183,69,0,410,35,35,153,27,91,80,73,617
127,44,288,65,225,53,0,527,40,54,160,18,100,101,21,835
73,59,190,47,167,42,0,411,28,28,160,11,74,58,29,601
115,102,226,78,257,71,0,705,64,58,237,30,91,76,40,958
38,21,182,32,77,31,0,306,121,15,22,6,61,52,5,405
9,10,93,13,53,22,0,95,16,9,21,11,27,28,2,181
6,1,16,2,10,6,0,72,0,0,6,0,12,11,10,74
9,1,39,6,14,2,14,32,10,5,4,3,20,4,0,71
28,8,103,24,73,14,4,130,47,18,30,3,40,23,0,223
56,30,241,31,132,46,0,295,34,35,41,9,68,69,11,564
25,26,84,28,51,18,1,95,45,28,31,3,28,26,0,167
47,41,177,54,150,44,16,224,65,37,63,26,67,79,0,416
31,28,137,42,96,21,0,204,34,29,22,14,43,52,16,349
12,9,55,13,31,11,0,113,7,10,4,3,15,22,1,182
20,12,92,20,78,15,9,209,14,16,28,2,22,40,0,333
61,14,144,43,102,38,13,210,48,28,52,6,31,59,0,401
18,14,69,30,73,20,11,94,41,22,32,11,28,28,0,167
15,3,44,10,28,4,0,35,8,13,11,6,24,10,0,67
23,6,44,19,28,12,10,55,16,10,16,6,20,21,0,108
3,12,46,8,18,2,4,36,10,8,13,1,23,20,0,54
12,9,19,4,25,5,0,17,12,6,6,3,9,14,0,41
6,3,27,11,28,8,0,30,7,2,11,4,7,18,2,62
12,10,76,8,32,16,0,44,7,5,6,4,36,34,1,105
55,43,196,63,184,44,1,346,35,49,64,34,82,98,0,570
44,28,123,31,127,34,0,197,38,45,37,9,51,49,2,353
17,14,54,15,54,11,2,100,24,16,16,2,27,43,0,139
9,1,25,2,29,6,0,55,6,10,3,2,9,13,24,60
18,3,32,5,32,7,0,62,16,7,5,4,14,15,10,88
4,2,42,9,30,9,9,65,12,7,9,6,28,11,0,97
51,44,204,58,167,36,31,242,75,45,59,8,88,68,0,490
35,29,222,57,121,40,12,322,56,43,52,15,78,48,0,546
3,1,51,9,16,6,0,102,13,9,4,2,9,29,4,118
18,5,66,20,32,30,10,98,22,12,30,1,29,18,0,167
10,15,58,12,32,9,20,72,21,10,10,2,23,18,0,144
35,13,119,21,53,24,15,162,14,23,27,9,39,31,0,299
17,11,48,9,44,7,0,59,19,14,5,1,14,22,4,116
45,36,123,32,77,29,1,175,36,16,40,12,35,66,0,313
7,5,10,2,14,4,0,25,4,3,7,3,0,11,1,38
19,11,67,21,34,11,3,109,24,31,12,1,17,23,0,167
12,8,36,12,13,8,5,57,5,11,7,0,14,8,0,106
42,36,126,35,98,27,164,304,33,40,45,21,48,45,0,600
25,25,85,22,54,21,0,126,19,15,27,7,38,42,6,204
33,11,95,30,65,16,3,113,32,26,16,11,47,39,0,195
34,17,151,42,105,14,18,261,38,29,15,7,53,61,0,439
66,47,134,55,120,33,0,283,75,51,28,12,36,58,23,455
12,6,45,18,31,14,7,79,13,19,9,3,12,24,0,132
6,0,21,9,13,2,1,29,7,6,2,1,0,9,0,56
9,11,51,15,30,11,2,40,22,6,3,5,21,14,0,98
96,65,256,74,217,70,25,347,108,68,85,30,113,78,0,668
15,16,93,25,58,20,6,118,19,7,39,9,39,21,0,217
6,13,41,8,30,10,0,72,11,7,2,8,21,13,17,101
28,11,79,25,83,22,9,129,26,33,32,6,35,41,0,213
28,15,89,22,57,17,8,119,14,16,62,1,49,13,0,200
12,5,34,8,28,6,0,59,4,4,9,0,21,22,4,88
35,17,107,23,74,21,61,136,29,40,39,12,22,34,0,298
5,4,25,3,8,5,0,33,8,2,4,1,9,9,1,49
7,5,44,10,18,6,14,97,4,5,7,0,16,12,0,157
11,9,49,12,25,4,11,100,10,8,8,5,14,13,0,163
9,3,55,15,19,3,8,86,12,10,5,5,22,13,0,131
4,1,11,4,15,1,0,9,3,4,9,1,3,9,0,16
25,20,81,24,53,11,0,92,29,21,17,4,43,29,2,161
5,4,26,9,12,0,12,54,13,0,1,6,6,11,0,85
19,9,49,15,44,14,26,92,37,15,26,14,29,19,0,128
41,33,107,33,111,20,6,365,37,54,28,14,42,50,0,491
9,4,28,2,9,5,0,30,4,5,6,0,8,19,2,43
62,34,201,40,115,34,24,335,48,47,34,10,64,68,0,574
56,34,148,47,140,34,4,199,93,28,37,9,58,52,0,385
41,18,132,37,109,29,0,171,86,36,38,11,41,31,7,287
53,59,132,51,177,43,118,279,177,53,48,24,50,59,0,501
51,37,140,51,126,37,0,495,90,27,44,10,38,51,36,641
39,12,129,30,81,17,19,190,82,13,17,6,34,31,0,334
9,14,45,8,25,10,1,35,33,11,9,5,8,5,0,76
17,11,77,11,75,17,0,127,44,20,21,2,29,19,32,168
11,10,66,10,60,3,0,82,35,11,10,2,23,20,0,141
72,52,234,69,211,49,0,292,127,45,78,13,92,65,34,525
42,33,221,45,138,32,2,338,103,41,26,9,66,66,0,540
43,29,207,45,142,39,0,362,110,37,41,5,62,53,55,504
8,5,37,7,31,8,7,45,17,6,9,7,14,24,0,71
38,17,93,21,57,18,4,75,28,7,40,11,24,34,0,179
12,13,59,37,38,10,11,41,15,19,12,17,34,22,0,102
11,4,70,14,40,11,0,63,13,9,6,1,34,24,16,110
11,6,70,7,50,12,15,71,15,35,17,5,41,21,0,108
42,35,159,24,126,28,103,178,39,40,62,15,53,81,0,405
31,25,83,18,64,12,2,136,21,23,27,5,41,37,0,217
31,15,107,38,126,30,28,188,21,27,68,8,43,19,0,377
23,52,106,32,126,25,6,176,34,38,40,31,69,41,0,293
45,42,109,37,127,24,20,160,50,38,33,17,47,47,0,332
30,12,69,14,67,8,0,111,35,24,18,2,23,19,4,186
28,19,121,33,114,18,14,221,40,26,43,7,59,40,0,353
33,21,108,46,94,14,2,114,25,25,42,5,44,27,0,264
23,9,67,23,35,11,20,47,19,25,17,7,27,20,0,120
7,5,37,8,16,8,0,64,19,13,2,1,13,9,1,87
20,20,69,15,50,22,0,95,26,17,15,6,31,29,2,165
1,4,28,6,9,4,0,36,6,4,2,0,4,9,8,55
2,6,48,21,32,4,11,50,17,6,2,3,18,24,0,104
47,20,121,23,93,32,11,210,36,33,22,13,33,56,0,364
45,27,181,61,106,36,12,206,76,36,32,11,73,55,0,391
17,9,41,12,50,18,0,41,24,14,18,2,10,17,0,103
20,5,71,16,49,12,3,68,25,10,13,2,21,17,0,156
35,12,66,14,55,14,12,125,15,28,27,7,21,33,0,202
21,7,69,16,62,18,0,81,22,10,20,3,27,38,3,151
23,30,87,25,78,26,15,206,45,10,43,15,41,25,0,311
59,62,167,35,155,35,0,245,66,52,65,32,53,47,1,442
101,64,242,56,210,55,0,235,106,50,69,33,93,79,21,512
66,63,188,48,147,33,12,846,83,46,54,21,76,70,0,1053
31,34,106,24,96,21,6,168,45,34,30,10,42,32,0,293
58,47,109,22,69,19,4,194,40,34,31,13,40,34,0,330
47,45,149,33,130,24,0,208,62,35,34,13,59,54,9,370
88,95,180,53,199,54,2,246,100,79,104,55,59,69,0,451
69,68,198,77,180,67,0,320,83,36,75,17,60,85,3,620
70,47,153,42,161,27,79,298,94,59,66,22,78,68,0,490
66,50,198,50,131,33,0,250,63,33,42,17,75,66,17,465
60,47,192,39,127,23,0,262,51,38,28,14,64,61,8,486
61,26,174,36,103,22,0,278,42,37,32,10,67,53,19,440
42,25,169,43,103,18,0,329,27,42,34,7,63,54,31,471
45,35,204,49,125,30,0,318,41,41,23,10,68,77,13,533
3,0,16,3,3,1,0,16,3,2,1,0,3,7,0,26
2,8,15,4,8,4,4,14,5,4,3,8,10,7,0,22
6,5,54,8,33,11,0,60,11,4,4,0,16,25,1,116
0,4,10,5,2,2,0,25,4,5,2,0,3,4,4,26
21,15,86,27,41,14,0,162,26,23,12,2,33,18,1,251
17,10,40,5,36,7,0,56,15,5,18,5,27,19,1,81
27,25,130,41,71,22,6,184,36,26,30,3,42,61,0,308
27,10,58,21,44,18,8,88,23,22,17,5,34,25,0,148
10,8,27,15,21,3,0,40,8,10,2,10,14,10,6,64
40,16,80,23,60,7,4,146,35,29,30,6,39,31,0,206
24,11,119,22,59,14,0,175,18,28,11,26,39,32,11,259
9,3,63,20,36,8,0,57,17,12,17,9,25,10,1,105
9,6,45,6,27,23,1,68,15,8,22,2,16,26,0,96
16,14,99,18,44,4,12,116,18,25,9,10,41,36,0,184
7,6,31,9,16,10,2,47,6,11,5,2,23,15,0,66
36,42,134,46,99,17,13,299,23,18,24,88,52,35,0,446
44,27,151,40,165,24,0,177,66,48,31,22,71,45,0,345
34,9,42,22,27,10,3,73,16,15,9,5,26,14,0,135
38,29,90,26,98,47,34,173,47,26,75,12,25,28,0,322
32,20,83,28,64,17,8,105,30,39,36,8,37,26,0,181
25,8,65,16,25,8,0,130,9,11,8,21,25,16,9,178
22,29,86,23,70,24,9,150,18,23,34,13,37,26,0,262
19,6,63,8,21,11,4,134,11,8,10,5,25,23,0,184
22,12,57,15,77,11,9,94,26,30,22,13,23,20,0,163
23,17,115,33,70,24,0,147,27,19,20,9,43,34,18,259
2,5,23,3,2,1,0,9,2,1,1,0,7,7,2,25
2,3,13,1,5,3,3,12,4,6,9,1,3,5,0,14
13,15,112,33,46,10,0,113,24,24,2,6,18,28,3,237
3,2,22,4,8,3,4,29,8,3,3,3,12,2,0,44
56,45,173,31,131,41,0,200,81,37,38,6,70,40,4,401
3,0,20,4,8,1,0,19,7,3,3,0,8,6,4,24
5,1,19,5,0,3,0,32,2,3,2,1,12,4,0,41
10,8,59,7,19,4,0,63,4,10,8,8,17,19,4,100
78,88,199,83,254,51,68,283,80,96,105,39,108,71,0,605
32,10,47,14,45,5,2,78,27,20,9,5,22,12,0,138
29,20,112,28,72,33,11,155,37,23,23,7,28,28,0,314
41,20,164,24,78,16,0,261,36,20,19,9,67,67,2,384
16,15,65,19,65,15,15,117,35,26,21,11,36,35,0,163
4,1,31,4,8,4,1,17,5,2,2,5,10,12,0,34
46,24,240,41,118,33,39,340,48,40,24,15,101,82,0,571
7,3,31,4,15,3,0,10,5,5,8,6,19,5,6,19
50,58,275,67,180,35,0,387,85,58,45,14,114,89,35,612
10,2,19,6,14,0,3,15,5,8,3,2,9,3,0,39
31,15,69,17,53,16,23,103,13,32,20,14,27,25,0,196
59,40,173,51,138,42,0,211,45,51,50,14,50,70,11,423
54,62,134,43,169,37,0,593,140,46,35,11,20,46,46,748
59,73,166,50,159,58,26,293,199,60,64,29,62,58,0,412
48,53,163,49,170,23,0,277,123,49,37,12,44,67,36,415
69,77,214,56,216,35,18,331,198,55,51,23,68,83,0,538
81,92,186,92,229,52,0,304,265,85,49,19,56,68,0,494
113,108,233,81,229,61,90,323,343,70,69,25,85,84,0,562
97,116,231,68,250,69,32,266,276,80,75,22,80,88,0,508
4,4,34,8,21,2,0,39,13,9,4,0,10,10,2,64
13,3,16,5,20,10,5,20,23,8,19,0,4,6,0,32
29,11,97,12,40,8,5,108,25,10,12,6,36,16,0,205
48,20,190,54,79,27,0,234,35,33,25,9,57,41,12,440
40,27,209,42,94,34,0,405,35,25,34,16,52,35,79,575
43,38,195,55,116,37,0,260,35,52,36,17,58,37,9,500
5,5,21,7,7,9,0,19,7,7,6,0,11,10,3,29
2,0,18,2,5,4,0,21,1,3,0,0,5,6,5,32
19,12,53,12,44,9,4,87,28,8,8,3,17,15,0,161
14,6,52,17,33,10,0,93,18,13,12,3,8,29,0,142
44,59,90,54,126,50,31,335,72,59,62,10,24,58,0,504
104,68,186,100,213,65,45,1224,110,71,78,32,40,93,0,1581
81,61,202,70,191,36,51,397,51,65,103,24,81,95,0,670
66,77,213,67,183,31,6,494,57,69,71,20,68,89,0,763
36,30,122,34,90,30,110,515,68,35,42,19,36,72,0,695
97,66,256,86,225,51,186,722,80,102,55,18,70,120,0,1244
9,6,90,17,42,13,0,99,14,11,16,3,29,22,13,168
5,3,52,9,23,5,0,58,12,6,2,0,24,22,0,89
22,25,132,28,44,18,0,110,16,16,15,5,40,42,18,227
4,3,18,3,9,2,1,17,5,5,4,2,10,4,0,27
12,1,43,10,26,9,5,50,11,15,11,2,24,10,0,83
24,21,115,20,79,14,14,178,33,32,17,10,56,45,0,272
25,27,99,27,102,27,13,123,52,21,36,19,34,40,0,241
52,36,135,19,110,41,8,161,59,51,40,17,59,59,0,277
28,20,167,39,92,21,19,245,54,23,39,3,53,45,0,414
44,38,190,40,103,18,0,222,57,28,19,11,71,85,12,372
19,24,83,14,34,15,36,145,32,17,14,5,43,34,0,225
53,44,179,48,136,42,5,352,67,31,36,19,72,72,0,562
31,28,172,20,102,31,0,146,75,32,27,2,58,57,6,273
54,32,165,32,133,39,6,201,80,31,72,13,58,65,0,343
24,19,85,14,72,24,10,145,36,15,11,14,23,26,0,268
33,20,109,12,55,12,0,108,25,15,10,7,67,45,4,176
3,1,18,8,13,5,0,31,5,7,7,0,4,12,5,39
13,28,80,31,61,14,13,148,55,15,18,3,35,25,0,237
76,80,140,33,229,32,0,183,79,55,77,16,51,50,90,355
67,41,159,43,161,30,0,240,61,52,55,16,55,51,33,418
57,67,154,38,171,63,0,517,76,51,68,19,42,37,51,723
48,44,124,47,150,45,8,186,66,61,70,21,63,47,0,324
44,44,67,29,138,22,32,99,69,36,81,12,43,22,0,212
75,70,208,58,220,56,0,240,134,70,93,23,69,58,14,466
106,90,259,76,231,38,0,463,109,81,65,29,96,80,6,797
85,60,156,79,204,46,145,283,153,98,85,18,64,79,0,561
8,22,55,19,63,6,5,88,30,10,13,9,14,34,0,156
41,25,100,48,122,53,0,115,56,32,58,12,52,33,9,252
33,26,96,35,95,27,0,102,43,26,41,9,52,30,12,201
51,36,117,62,131,38,21,174,67,52,76,11,57,45,0,322
64,68,173,44,228,43,0,221,107,45,100,26,78,70,16,399
58,59,185,59,217,65,0,275,63,49,111,28,47,59,62,499
63,46,191,64,194,43,23,256,98,65,82,16,77,85,0,457
79,72,260,93,230,65,6,357,110,79,82,26,94,112,0,659
75,63,202,58,180,44,0,293,121,58,53,16,71,49,19,528
33,17,93,28,94,14,1,188,44,24,19,8,21,47,0,305
60,48,301,79,195,42,0,586,61,52,51,26,109,76,13,923
77,54,174,61,136,53,0,267,43,39,59,13,72,57,42,497
59,36,243,47,108,43,0,319,66,43,51,21,80,58,22,514
65,47,190,50,141,38,0,395,61,37,55,21,59,62,5,626
19,15,130,31,70,28,18,137,40,21,24,3,37,30,0,293
57,53,149,43,135,32,10,284,54,51,53,14,59,44,0,488
6,10,54,10,27,8,0,46,9,9,11,5,29,19,1,78
7,5,8,0,8,1,0,20,4,4,0,1,7,2,1,30
4,5,32,3,8,7,0,42,4,2,2,0,12,9,7,65
25,6,83,26,27,6,0,97,21,17,3,3,26,16,2,182
56,28,219,47,132,35,51,272,68,44,43,9,80,84,0,512
39,31,104,20,89,20,21,148,51,40,47,8,57,59,0,210
33,34,115,28,40,19,0,153,28,22,13,8,42,32,11,266
36,30,83,20,75,12,39,170,28,39,35,8,32,29,0,294
22,37,128,26,69,28,0,177,44,27,20,13,31,47,8,297
53,46,154,35,111,24,24,228,50,38,52,11,48,47,0,429
12,11,75,22,39,8,0,98,18,12,9,3,22,22,12,167
17,8,91,13,27,8,10,76,16,12,10,6,22,31,0,153
28,39,82,20,82,16,13,134,40,37,18,8,28,22,0,261
33,29,150,42,104,25,28,198,46,39,23,16,56,80,0,349
27,11,85,26,39,16,0,111,11,13,19,11,29,36,3,193
37,11,109,20,64,15,0,121,39,14,9,5,36,26,17,231
86,50,121,61,170,50,90,199,126,62,79,20,54,58,0,428
141,113,210,89,339,97,129,424,47,62,414,17,61,98,0,843
60,42,147,40,126,41,55,134,18,43,169,9,50,35,0,321
53,43,135,41,144,54,82,230,70,46,116,23,45,58,0,424
51,46,71,49,110,24,76,682,39,42,74,16,30,40,0,868
132,110,147,86,317,73,31,316,147,107,149,36,65,58,0,650
5,1,23,4,7,1,0,28,3,4,4,1,6,14,1,36
100,71,270,55,220,71,0,269,101,45,119,22,90,98,24,557
83,73,163,73,213,49,0,298,90,63,129,26,64,39,18,523
60,70,212,56,156,31,33,276,61,60,98,31,73,67,0,504
71,66,117,44,171,43,14,239,62,48,110,23,51,49,0,422
129,94,259,74,268,75,0,385,103,92,161,25,91,83,1,728
63,53,141,38,130,22,0,274,46,32,79,18,43,35,77,391
70,110,201,68,259,72,70,352,144,95,144,31,48,61,0,679
78,73,276,79,217,49,0,375,69,79,80,22,96,116,52,633
78,34,183,52,133,43,0,276,64,42,43,18,59,45,39,489
55,61,171,68,148,31,0,261,58,40,63,17,49,52,46,470
84,69,174,69,194,51,14,275,85,60,132,21,65,61,0,506
45,25,121,36,113,22,15,172,23,46,58,13,56,35,0,318
46,65,198,54,191,51,2,373,32,49,120,23,79,50,0,627
81,58,142,51,134,50,0,205,40,43,123,14,46,42,6,407
61,78,175,65,230,67,0,224,55,72,180,29,49,57,4,454
94,109,177,68,275,65,0,273,75,77,167,28,72,77,24,541
59,64,149,66,207,50,22,244,76,55,153,10,60,84,0,423
73,79,184,68,187,53,35,590,56,66,124,24,56,66,0,877
57,63,132,42,155,52,28,135,50,50,119,29,43,62,0,311
17,7,65,14,58,14,2,115,10,22,34,8,23,16,0,179
26,44,108,37,105,19,0,176,15,28,56,5,41,51,18,301
94,95,214,65,206,54,0,314,57,69,127,26,73,77,7,606
61,48,125,45,178,32,0,238,40,51,100,16,44,35,2,439
41,56,90,33,100,35,27,136,44,59,41,7,73,20,0,274
54,71,129,53,133,46,46,208,61,45,68,34,52,44,0,436
38,48,100,37,117,53,0,188,55,33,60,17,28,28,18,342
32,18,57,35,79,19,8,131,36,30,37,10,24,18,0,224
55,70,91,48,142,52,63,127,60,59,104,23,31,55,0,316
135,122,350,89,407,122,80,425,100,78,411,43,102,99,0,897
57,46,87,49,153,26,9,197,142,48,41,10,33,44,0,306
109,119,144,62,270,62,50,248,128,103,211,36,55,56,0,475
74,55,81,35,167,40,114,215,78,56,125,32,31,40,0,419
50,55,107,53,185,48,61,219,81,39,121,21,44,56,0,416
72,61,108,41,192,50,25,167,77,64,96,20,33,83,0,343
35,53,71,38,137,45,0,121,61,42,58,25,26,27,2,259
13,8,31,5,26,6,18,54,23,9,8,0,9,7,0,105
9,5,17,6,25,4,2,15,22,6,4,1,6,2,0,42
123,178,272,114,353,125,129,514,208,117,184,59,119,102,0,1019
135,136,261,108,377,88,15,486,185,147,171,48,110,111,0,834
136,127,206,86,375,78,8,467,113,74,368,31,62,76,0,759
82,71,184,50,211,41,14,329,78,57,187,21,40,64,0,535
22,25,48,14,43,16,43,106,14,12,44,8,15,21,0,203
42,44,140,30,94,27,22,223,41,32,68,9,55,57,0,360
57,48,97,33,127,43,12,133,83,61,55,25,57,32,0,237
20,9,24,11,52,21,11,42,14,10,52,6,13,16,0,79
103,96,167,59,260,73,127,281,165,73,153,32,64,77,0,602
164,138,290,127,429,143,151,476,38,54,823,19,86,103,0,795
101,61,111,58,225,62,41,176,153,67,97,21,79,59,0,359
15,21,97,16,64,12,1,83,20,23,41,3,27,36,0,159
153,133,235,81,274,79,0,513,68,63,368,19,85,84,55,726
79,58,152,60,225,66,44,256,195,56,64,20,62,44,0,499
27,30,38,26,84,24,25,79,103,22,35,5,20,9,0,139
51,48,78,29,102,22,20,90,173,13,29,8,22,21,0,174
83,82,139,70,178,38,24,238,247,39,27,22,51,32,0,434
90,110,188,83,261,56,0,375,345,50,66,28,46,44,6,578
70,43,189,55,129,47,0,263,50,42,72,19,58,67,8,480
82,61,178,49,188,59,0,282,50,39,160,19,54,76,7,494
157,133,290,119,416,135,54,557,255,133,182,57,136,122,0,976
133,104,205,76,299,70,27,387,126,97,136,35,73,82,0,752
85,55,132,64,181,69,59,262,38,56,180,16,34,48,0,535
33,17,64,29,90,24,0,111,38,23,50,9,24,17,1,206
74,55,226,55,179,47,0,259,68,53,80,16,82,97,33,466
65,64,242,75,171,46,0,367,55,53,80,24,86,70,19,643
137,164,262,125,327,91,121,650,136,149,215,46,102,122,0,1107
48,82,125,48,169,32,21,178,72,48,104,16,43,57,0,363
18,18,23,10,30,14,16,45,27,15,10,5,16,11,0,90
22,13,51,15,35,18,9,78,34,21,14,2,16,23,0,131
89,82,122,46,199,41,33,238,170,56,60,14,44,74,0,432
39,22,65,44,92,33,26,136,41,25,86,10,40,29,0,226
42,33,57,26,98,18,2,134,73,35,45,11,25,22,0,199
36,28,108,29,78,20,25,125,31,30,35,10,48,36,0,259
17,10,31,12,26,20,48,95,17,12,33,4,17,14,0,162
75,47,96,44,164,46,105,183,40,41,205,19,29,28,0,398
98,87,197,102,268,93,161,284,87,100,239,54,67,85,0,658
19,28,38,18,70,16,20,80,54,24,33,8,21,13,0,136
101,115,207,58,280,67,52,325,184,86,162,21,77,79,0,596
30,26,59,31,67,33,39,78,31,23,49,8,24,27,0,201
68,60,130,46,129,51,18,221,63,48,94,15,52,29,0,422
20,35,55,28,82,19,13,118,34,33,37,3,30,18,0,215
41,45,53,34,155,27,55,127,108,32,79,25,30,24,0,239
85,117,113,57,296,67,42,211,165,84,122,45,46,42,0,484
45,40,47,18,124,22,34,82,55,45,61,13,12,33,0,193
14,6,22,8,29,7,2,43,3,10,23,2,13,5,0,75
13,5,35,12,30,10,29,74,13,15,14,4,17,19,0,126
17,9,30,13,19,5,1,34,20,12,7,2,11,5,0,71
93,105,189,70,281,62,49,337,156,90,151,36,82,42,0,629
63,69,174,47,191,41,0,271,91,46,56,23,74,61,10,495
79,64,121,53,245,58,0,252,163,69,89,23,44,53,15,416
79,89,101,60,233,44,0,218,131,74,93,35,43,59,20,369
103,126,149,84,331,77,45,253,228,80,168,45,62,51,0,534
63,82,144,63,230,52,19,234,133,69,110,19,81,49,0,426
105,123,160,89,333,84,80,290,168,119,181,39,52,59,0,646
73,73,119,61,228,40,2,207,151,53,109,28,43,42,0,377
86,97,140,81,311,91,28,482,179,93,139,55,79,48,0,723
85,86,150,67,230,69,0,264,166,46,88,35,64,62,10,480
64,37,83,38,158,28,27,191,60,48,67,18,41,39,0,353
40,27,113,30,108,34,10,193,25,22,97,14,50,28,0,319
24,18,79,34,78,28,60,125,32,42,35,13,39,43,0,242
163,161,280,111,405,99,73,487,308,110,151,51,100,98,0,961
59,47,115,56,168,35,63,164,127,43,71,13,40,31,0,382
21,15,30,23,34,15,25,19,31,22,30,9,15,10,0,65
67,60,84,60,163,53,104,151,87,74,109,20,47,33,0,372
59,39,82,44,135,42,30,158,73,53,89,21,36,24,0,293
78,90,160,60,241,44,42,215,176,73,130,22,51,55,0,423
77,69,118,51,177,43,86,220,133,58,80,36,55,45,0,434
110,109,154,74,321,105,61,307,156,89,187,52,45,67,0,645
110,123,193,101,317,85,108,369,168,103,189,49,82,82,0,733
99,116,166,70,282,86,162,356,175,100,161,42,91,73,0,695
83,68,69,47,139,41,55,194,115,69,97,23,31,33,0,328
64,66,188,50,205,57,7,396,91,66,112,12,78,77,0,597
130,143,223,136,395,109,272,471,317,130,145,65,74,101,0,1047
113,103,262,96,382,92,0,518,188,106,164,66,90,82,180,690
164,158,259,154,448,102,67,356,268,150,212,114,107,94,0,763
99,67,186,65,219,53,160,265,85,87,160,23,88,77,0,594
20,12,38,18,59,23,32,81,16,27,62,5,11,18,0,144
62,54,106,65,144,54,36,177,100,43,77,25,28,33,0,392
90,118,207,87,309,87,71,382,200,76,115,33,91,69,0,767
39,26,96,37,99,12,8,144,24,20,88,7,33,42,0,247
28,23,96,33,85,26,18,171,26,32,52,5,30,32,0,303
65,51,122,32,134,45,23,191,114,40,57,23,28,52,0,349
36,32,118,37,81,11,9,181,29,28,33,7,39,25,0,344
264,227,320,135,564,130,139,630,247,161,439,60,120,207,0,1175
114,94,152,90,286,79,13,292,161,73,159,46,59,64,0,558
96,106,144,62,250,74,25,238,117,76,142,59,47,70,0,484
39,47,58,27,86,46,88,133,9,29,196,8,16,40,0,226
29,30,104,23,79,36,23,116,65,34,39,4,50,49,0,199
4,3,8,1,16,4,0,11,4,5,8,0,7,6,4,13
17,2,18,11,21,5,5,24,11,15,4,1,10,7,0,55
19,15,47,20,64,10,6,52,29,12,13,9,23,31,0,116
30,33,45,21,101,19,33,79,47,36,45,44,6,23,0,160
85,170,122,62,382,89,0,315,310,71,202,63,56,56,9,458
73,124,130,82,324,57,117,200,215,74,176,52,56,67,0,467
76,119,157,81,312,61,49,232,170,90,153,54,65,74,0,481
70,154,118,62,313,69,0,186,182,55,124,69,49,33,95,365
69,140,115,58,267,43,178,235,143,76,165,90,45,50,0,536
27,13,40,17,61,9,1,69,23,15,23,10,23,9,0,134
17,4,51,10,70,12,4,65,18,19,15,11,10,14,0,146
62,44,118,34,116,29,6,203,57,44,45,22,31,45,0,368
43,40,65,20,85,20,9,89,43,41,28,14,23,34,0,188
73,71,151,78,209,56,36,241,123,62,94,28,80,36,0,492
40,36,109,28,88,21,0,112,28,36,35,18,39,51,6,221
29,25,62,21,51,11,0,49,33,28,22,13,32,16,0,104
58,95,102,34,282,50,0,211,70,69,174,48,45,37,48,341
89,138,126,89,333,62,1,310,121,100,241,64,52,47,0,523
47,96,110,41,256,64,0,219,92,64,186,48,48,32,4,359
41,50,124,63,142,33,50,207,78,49,54,22,67,61,0,379
39,35,80,37,143,63,82,163,152,28,67,12,31,35,0,317
174,209,260,162,639,134,135,520,773,89,135,51,100,82,0,1003
101,96,198,85,284,81,104,397,126,118,135,50,65,84,0,768
135,122,218,86,379,80,195,328,163,135,172,61,83,78,0,851
119,114,170,79,300,85,83,386,134,93,132,55,78,49,0,795
98,89,150,80,257,65,163,476,107,96,121,56,48,75,0,875
85,96,179,74,259,71,64,266,136,74,141,51,67,57,0,568
84,116,194,87,230,69,0,350,124,71,105,40,54,71,24,641
92,99,194,72,270,69,0,440,109,91,117,43,77,78,1,720
105,106,133,92,320,103,38,371,162,85,148,63,52,71,0,687
27,24,49,19,69,18,0,79,49,15,19,6,20,23,26,127
21,27,41,26,74,18,4,88,15,24,44,4,15,18,0,179
105,80,199,67,230,70,52,325,91,91,126,24,70,64,0,662
40,63,72,39,70,19,26,83,48,50,35,23,37,24,0,195
15,18,54,13,59,16,0,104,28,22,29,7,22,9,0,162
52,43,100,40,127,42,52,220,48,51,56,22,42,44,0,413
64,63,108,56,193,72,49,170,158,53,73,26,34,55,0,376
63,58,226,78,179,48,18,340,56,85,67,35,80,94,0,593
62,54,88,36,171,57,33,122,89,49,78,19,47,44,0,297
70,97,160,65,263,92,192,264,189,84,125,48,86,49,0,622
107,113,117,80,212,81,19,252,185,46,113,43,28,55,0,511
86,92,151,75,218,63,11,374,111,65,99,30,51,53,0,661
78,83,173,77,205,99,89,317,148,78,104,43,58,71,0,619
104,83,95,61,247,76,113,185,151,73,159,56,32,59,0,434
90,93,172,63,243,66,0,428,128,102,84,70,43,56,11,661
88,112,206,88,272,64,0,404,124,91,82,47,63,72,19,736
28,13,45,13,45,19,6,93,16,26,19,15,21,29,0,136
9,9,22,7,28,5,0,67,5,14,3,3,3,8,7,104
27,11,57,22,73,19,26,101,27,10,27,17,25,33,0,197
47,33,77,34,121,25,6,141,57,26,61,19,24,31,0,266
39,39,70,40,147,31,0,156,48,37,84,25,27,37,10,254
139,108,188,80,313,100,29,370,164,118,107,42,56,67,0,773
70,79,241,54,189,58,17,428,113,66,61,24,69,66,0,737
42,27,92,41,98,30,4,128,29,33,62,11,46,49,0,232
43,45,138,41,170,37,3,199,68,45,76,36,67,43,0,341
79,136,137,63,319,84,55,249,145,100,209,69,72,68,0,459
72,52,149,57,178,40,0,321,78,59,79,29,41,51,9,523
61,54,122,37,163,36,17,265,53,53,79,30,47,47,0,446
63,70,170,72,195,39,32,390,86,79,108,39,48,79,0,592
43,32,62,37,93,35,5,141,66,17,37,8,20,30,0,270
54,63,97,41,151,54,10,199,87,49,59,22,41,33,0,378
41,49,98,33,126,35,29,159,52,43,74,26,37,40,0,298
66,43,131,48,157,31,14,151,59,41,72,31,57,45,0,336
63,83,158,83,262,69,84,236,219,72,93,29,68,66,0,491
52,31,101,31,113,25,18,184,68,52,42,16,40,39,0,298
57,67,126,58,159,50,0,208,70,61,83,32,64,37,1,377
44,30,113,38,123,21,37,164,72,52,47,23,39,36,0,301
17,18,62,17,58,21,26,80,30,26,24,9,17,21,0,172
140,161,280,128,479,134,0,451,198,124,226,76,148,99,12,890
254,223,453,157,663,194,164,861,571,142,235,63,124,142,0,1692
93,124,162,97,249,60,45,369,110,63,109,165,41,70,0,641
26,47,62,24,73,29,0,97,34,17,27,44,15,25,39,157
85,117,109,62,258,58,47,222,123,69,80,116,34,44,0,492
55,103,102,73,235,35,105,185,106,65,66,175,41,37,0,403
70,111,154,71,247,60,6,192,82,50,73,151,76,68,0,411
68,93,132,54,190,47,0,238,49,46,64,134,38,65,25,401
75,115,97,51,283,64,8,185,96,52,90,177,36,53,0,374
89,116,173,62,330,64,0,293,148,97,168,42,76,79,19,498
123,152,239,88,406,96,54,422,221,114,235,80,122,116,0,692
79,82,144,81,195,69,45,247,103,70,101,45,49,58,0,516
53,66,146,34,177,53,0,189,80,43,82,11,61,56,15,370
101,112,160,54,216,45,40,331,111,74,132,34,56,55,0,597
70,62,185,45,200,44,0,244,86,55,96,29,73,56,0,455
36,32,62,30,111,32,43,113,71,35,30,16,15,27,0,265
11,8,34,19,36,12,10,41,23,13,13,1,5,16,0,100
73,79,145,64,217,50,0,322,87,61,85,18,43,63,11,582
19,13,25,8,46,22,1,53,22,13,33,5,10,10,0,94
66,83,152,63,220,52,33,233,101,73,131,36,47,56,0,458
78,150,200,64,189,51,44,282,106,90,138,37,75,78,0,534
41,37,91,28,143,40,0,235,45,41,63,19,34,60,4,349
52,36,77,38,171,18,22,130,105,45,70,20,15,28,0,261
214,221,315,134,541,156,0,588,215,169,235,126,96,133,14,1181
34,35,69,18,118,28,1,123,42,50,54,11,20,21,0,228
113,68,154,77,213,51,26,274,154,67,94,33,74,62,0,492
75,72,148,64,197,43,48,376,124,79,80,30,63,52,0,595
105,109,263,91,365,77,15,309,173,87,201,35,95,68,0,675
87,88,107,68,221,45,54,225,81,107,120,32,60,44,0,451
80,96,163,62,229,54,42,290,153,58,90,20,67,43,0,585
147,111,174,116,327,73,54,338,260,100,134,57,80,63,0,646
36,29,144,39,142,34,5,180,47,45,51,40,67,61,0,298
23,24,133,18,96,14,0,360,12,28,22,23,39,49,29,466
43,30,142,43,103,30,0,285,25,44,22,19,45,47,18,456
41,38,141,20,87,21,0,259,17,37,27,22,31,46,35,392
40,37,129,36,117,27,0,241,31,31,32,21,39,56,12,405
39,18,155,48,96,16,0,238,33,48,19,18,41,61,19,371
24,24,111,41,99,21,0,213,28,36,35,9,30,39,21,335
35,30,190,45,107,25,0,302,25,28,28,21,61,79,26,466
46,16,154,33,98,15,0,340,27,38,24,15,59,55,12,472
74,71,323,45,213,69,0,404,91,83,88,49,100,131,4,653
2,1,7,2,9,4,4,11,4,4,2,8,2,3,0,17
53,59,268,63,185,35,0,403,45,56,37,40,69,97,9,713
53,29,327,64,145,27,0,386,36,38,38,28,82,96,63,650
13,11,47,19,42,16,1,79,18,30,13,9,17,29,0,112
23,19,68,28,63,17,35,71,28,21,31,21,27,39,0,157
10,5,37,6,20,3,0,39,9,4,3,2,12,17,5,68
9,6,28,6,10,4,0,18,3,5,3,0,8,9,0,53
41,27,97,22,108,32,20,90,41,31,52,26,43,51,0,193
21,39,78,25,37,19,9,82,18,19,35,14,33,35,0,156
22,38,177,40,125,28,0,196,34,40,23,13,68,86,21,341
36,34,159,42,137,35,0,334,44,49,41,37,55,56,31,464
57,44,210,54,156,52,0,1651,28,59,56,33,56,89,80,1823
64,43,134,53,139,29,2,215,34,65,57,40,39,54,0,390
48,44,120,56,164,56,12,191,62,52,70,41,70,57,0,339
50,59,189,47,188,34,16,382,47,51,69,49,68,72,0,609
29,28,113,33,89,30,0,181,25,32,45,10,47,22,18,304
41,28,220,36,122,20,0,379,30,28,23,18,71,74,43,559
47,49,244,38,145,25,0,297,38,44,54,24,63,76,6,540
62,39,236,58,168,35,0,300,44,46,44,29,48,54,25,608
38,27,154,48,110,35,0,276,37,32,36,20,54,52,22,435
23,28,170,16,66,12,0,299,16,26,17,10,57,37,25,426
39,32,142,31,90,17,52,122,33,32,35,17,64,33,0,311
30,18,152,19,93,12,0,262,26,20,21,11,47,52,15,394
31,44,164,28,102,27,0,228,23,47,22,16,46,59,39,372
42,51,127,48,139,33,17,223,62,51,52,41,41,39,0,394
75,63,171,69,233,62,18,241,75,75,89,79,72,78,0,464
57,38,116,26,171,34,16,200,51,56,61,26,39,42,0,383
60,37,234,29,159,37,0,371,29,45,54,36,62,91,18,592
48,26,220,34,130,37,0,333,32,34,43,22,39,97,0,561
58,28,223,48,142,34,0,332,35,56,40,17,68,71,0,578
49,28,154,36,122,21,8,157,45,47,36,11,52,27,0,357
13,29,66,24,53,15,9,103,38,28,18,10,25,23,0,170
7,8,48,16,58,10,6,106,17,13,26,7,21,24,0,151
31,36,150,31,101,16,0,239,33,38,17,7,51,34,18,406
27,27,149,21,86,35,0,395,33,23,32,12,38,60,23,519
61,73,253,58,155,39,23,311,65,49,45,18,64,73,0,659
23,31,151,35,100,21,0,185,29,31,30,9,44,64,0,339
32,13,72,19,58,14,22,74,26,25,22,11,17,37,0,166
30,22,41,23,87,15,3,60,30,26,35,17,15,18,0,140
11,10,96,17,58,13,0,124,12,27,13,8,27,26,9,207
17,13,61,10,60,7,11,70,28,12,14,3,21,10,0,161
16,32,58,30,90,14,1,104,37,24,30,8,18,29,0,199
78,98,238,75,231,55,0,413,88,101,103,33,77,96,21,669
75,105,254,81,250,46,0,322,93,86,90,48,88,80,12,636
62,94,185,66,219,27,0,323,58,69,107,23,76,67,20,556
90,131,294,93,267,51,18,402,90,124,145,55,102,83,0,747
65,57,209,54,213,45,0,660,61,88,70,20,65,62,41,896
80,76,209,77,270,53,0,289,73,87,115,35,84,78,45,537
4,4,14,4,24,2,10,12,6,8,6,3,8,4,0,39
7,1,28,6,22,3,6,24,7,6,5,0,15,12,0,52
8,6,36,7,51,7,1,42,17,13,12,0,15,7,0,94
8,3,57,6,57,5,0,23,20,16,3,0,29,11,5,75
12,2,86,29,57,5,0,64,27,12,7,5,34,30,2,138
16,23,131,34,91,18,14,129,31,27,10,20,47,41,0,280
40,12,114,22,64,11,4,88,19,23,23,4,39,33,0,214
16,16,64,16,45,19,0,91,19,18,20,9,12,17,5,167
23,16,42,18,32,6,4,72,15,13,15,7,15,12,0,136
6,2,43,8,18,4,5,28,10,9,7,1,25,14,0,48
4,7,26,8,27,3,0,41,12,15,4,2,14,6,9,54
35,36,126,44,155,23,0,241,52,34,44,13,37,34,5,441
29,43,137,20,67,23,9,183,41,41,31,5,53,64,0,276
20,14,71,23,77,14,11,107,25,24,16,9,22,18,0,223
5,3,33,7,17,7,3,28,24,7,3,2,5,13,0,49
5,6,37,7,12,4,5,18,12,8,1,2,6,16,0,49
1,10,15,5,7,3,0,20,15,0,0,3,4,10,3,26
20,13,106,27,70,16,0,141,90,18,10,4,21,27,0,223
20,31,62,20,94,17,33,130,35,33,23,6,28,19,0,263
7,17,39,29,41,10,2,64,25,13,18,5,19,2,0,127
5,9,25,9,23,1,0,19,4,5,2,5,8,9,3,55
12,11,51,16,46,11,7,89,26,14,3,5,26,15,0,154
24,26,107,32,84,13,5,155,47,20,18,4,45,26,0,286
1,1,4,1,7,1,0,18,2,1,0,0,1,5,0,24
3,3,22,5,14,3,6,30,3,4,0,2,7,15,0,55
63,31,229,64,126,44,21,356,38,31,33,22,54,92,0,664
29,25,190,32,73,18,0,317,17,22,16,6,34,81,15,493
49,24,177,26,156,33,0,268,144,29,32,11,46,52,4,415
19,40,97,21,65,11,2,122,42,12,22,8,25,36,0,232
66,65,219,66,209,33,0,432,108,74,50,15,56,56,9,722
22,10,89,9,51,22,0,117,10,19,22,3,25,30,5,206
55,46,193,49,182,27,5,328,99,43,24,19,67,74,0,559
16,7,30,21,34,12,0,33,24,20,10,5,15,13,5,61
8,5,43,10,15,7,2,19,1,8,3,2,23,20,0,52
24,22,127,35,109,16,13,142,20,36,43,10,60,29,0,290
63,51,188,50,150,36,21,265,64,62,49,19,54,58,0,518
12,10,71,11,51,6,6,104,27,15,13,5,19,28,0,164
2,3,14,3,5,3,0,24,10,0,1,0,9,8,8,18
3,5,50,21,25,13,11,49,11,16,8,1,19,25,0,97
46,57,165,49,131,26,26,254,55,53,47,21,58,57,0,463
73,36,165,52,120,13,4,261,26,32,16,14,41,50,0,545
14,21,32,20,69,6,21,32,22,19,25,30,11,8,0,100
59,57,91,40,152,53,57,157,68,66,85,32,42,28,0,345
89,94,197,66,300,67,17,387,88,91,120,69,65,70,0,714
98,94,209,73,243,66,40,307,70,86,106,80,87,73,0,628
90,113,147,74,265,57,25,470,102,98,138,61,42,52,0,748
43,42,130,40,130,19,4,191,55,53,31,10,30,55,0,365
37,31,104,47,73,23,45,132,45,28,38,9,41,28,0,303
32,37,155,39,117,21,0,217,52,44,34,7,50,51,2,378
2,47,79,28,77,27,18,94,49,33,22,3,11,19,0,235
4,8,17,16,12,3,0,30,11,8,2,0,2,6,4,57
3,4,24,12,13,3,0,23,11,3,4,0,11,7,1,45
21,35,75,23,68,22,8,108,53,13,28,8,14,18,0,226
95,79,177,60,209,50,43,275,88,84,121,44,49,61,0,541
20,19,27,9,54,8,6,70,28,16,11,3,7,13,0,135
55,41,170,53,151,35,9,272,67,61,33,12,46,52,0,515
52,57,205,42,131,29,11,274,62,41,53,5,71,59,0,510
3,2,46,6,13,9,1,22,7,10,3,4,26,17,0,35
52,49,231,69,151,35,0,327,53,64,40,22,63,60,2,610
9,4,56,7,59,13,12,59,26,7,20,12,13,13,0,128
40,47,127,41,93,13,26,175,45,23,31,16,35,66,0,346
7,17,60,19,44,10,2,77,11,16,21,3,11,28,0,146
19,17,26,16,45,14,0,49,20,20,12,11,4,18,2,99
9,16,77,19,48,14,9,115,16,15,10,9,29,12,0,216
5,8,27,16,37,9,0,32,36,5,4,0,10,9,3,67
6,35,19,4,25,7,8,39,39,4,7,0,10,6,0,77
58,81,152,55,160,45,0,263,180,57,37,16,55,52,5,412
21,14,144,32,79,23,1,181,15,20,35,6,57,54,0,308
25,30,117,27,81,10,8,152,58,19,24,8,34,23,0,284
29,42,87,20,63,16,0,146,39,37,28,5,22,28,6,238
41,38,159,29,111,25,18,247,33,45,31,18,24,55,0,462
12,7,23,12,20,3,1,26,10,12,4,1,8,19,0,50
7,13,54,13,19,10,0,97,13,8,8,5,17,18,5,139
12,11,61,19,29,5,5,48,19,13,13,0,11,31,0,103
4,4,38,1,13,5,7,34,4,2,5,1,12,28,0,54
29,23,73,16,51,11,14,65,22,19,12,3,19,39,0,168
5,3,25,1,12,9,0,70,5,1,0,0,8,14,11,86
40,30,203,34,84,19,0,227,49,36,22,12,42,106,5,365
24,36,141,22,78,22,12,189,44,25,23,19,31,58,0,324
37,25,163,27,71,29,0,202,25,40,31,14,46,69,17,312
41,40,142,31,99,20,0,337,36,37,35,16,39,59,15,473
27,24,78,30,70,10,12,95,25,40,27,15,22,27,0,190
18,11,60,9,30,5,0,55,8,13,17,6,17,27,0,100
5,4,11,6,14,1,1,17,4,2,9,1,9,3,0,31
6,14,27,4,32,7,0,44,9,3,16,1,9,5,0,91
15,8,14,13,31,5,0,30,18,10,12,4,3,12,0,57
5,5,27,9,25,1,3,36,6,7,1,4,7,8,0,78
16,7,41,11,34,11,0,58,8,14,15,3,13,15,5,105
61,83,207,65,220,39,1,316,89,64,91,18,64,63,0,603
50,55,101,33,123,22,5,173,62,46,59,13,38,19,0,325
73,70,166,91,243,42,0,247,73,79,104,18,56,51,47,504
4,3,33,3,7,6,0,64,3,0,5,0,25,11,16,60
26,35,160,48,119,26,0,231,40,36,60,4,51,56,22,376
41,46,175,36,136,22,0,232,33,35,51,10,74,30,32,423
34,39,95,30,103,22,47,125,42,38,42,5,36,42,0,290
60,64,151,48,179,32,0,386,66,60,85,18,60,46,34,551
15,12,51,9,49,13,2,48,20,9,11,7,37,14,0,101
15,7,60,20,62,9,0,133,18,7,8,3,31,25,10,204
82,89,220,89,217,55,57,307,86,88,89,20,81,115,0,637
15,19,89,28,58,8,13,64,31,29,24,5,32,28,0,145
18,34,63,45,86,24,26,86,38,42,31,10,32,17,0,212
41,40,88,29,99,21,0,181,82,25,26,2,22,22,0,320
14,28,45,18,37,15,13,102,26,13,12,8,11,22,0,180
11,3,13,1,10,6,5,5,3,5,1,0,7,4,0,34
38,24,120,23,89,14,0,138,47,23,19,7,35,47,7,261
18,17,41,11,35,3,12,70,13,23,15,4,22,17,0,113
8,5,38,4,25,5,5,34,9,8,0,1,17,24,0,65
22,21,126,23,50,16,4,160,29,15,15,4,31,49,0,279
37,36,126,38,85,33,0,182,34,33,29,17,34,39,10,341
12,6,37,8,23,4,1,45,22,9,5,0,7,19,0,74
9,24,44,20,33,16,0,42,43,16,6,6,7,23,3,84
46,43,81,28,112,34,11,149,42,33,56,13,29,28,0,303
10,9,82,15,37,3,9,80,19,11,11,3,18,34,0,149
35,11,74,16,48,12,22,64,25,29,25,7,41,40,0,115
4,14,23,4,37,1,5,23,31,8,6,6,3,10,0,47
7,10,19,3,22,3,0,21,16,7,4,1,7,12,5,33
28,35,103,20,108,22,0,181,49,25,29,7,25,23,21,318
15,29,64,13,43,10,2,88,30,5,21,5,27,28,0,148
50,43,187,37,101,28,0,253,30,36,42,14,63,55,12,447
75,40,241,65,149,38,0,254,43,43,111,28,79,81,21,456
47,15,210,48,123,21,0,256,41,25,31,23,58,47,13,482
17,6,56,22,22,5,0,79,20,9,9,0,25,24,17,103
64,60,245,65,147,36,0,316,76,32,81,40,86,89,4,525
44,35,219,47,149,38,0,378,47,46,55,26,84,41,14,597
50,36,183,50,125,26,0,353,51,36,32,20,52,73,11,548
53,43,209,60,168,33,0,399,70,49,55,11,51,53,41,635
49,63,224,85,158,37,0,377,59,47,38,32,41,74,20,682
40,39,215,32,95,16,12,216,35,30,27,15,90,70,0,398
53,45,204,61,137,43,0,259,57,39,79,22,54,77,28,446
49,20,118,33,77,23,0,203,29,34,33,10,33,46,18,320
51,36,185,59,138,40,0,240,54,34,89,23,61,60,13,415
28,13,98,31,64,12,0,188,18,20,16,3,43,39,1,294
51,32,146,45,109,50,18,674,31,41,73,27,45,42,0,866
32,27,161,39,96,15,0,201,35,28,24,14,51,57,14,348
31,22,166,33,131,31,0,240,37,29,40,21,50,58,20,399
6,5,68,4,37,0,0,52,18,5,6,1,24,17,1,100
2,3,16,4,8,0,0,35,0,4,0,0,10,4,6,44
3,1,22,2,6,6,0,41,3,2,1,0,6,2,12,55
29,22,129,34,76,21,19,261,26,12,33,7,46,59,0,408
16,9,104,19,36,10,0,140,20,4,12,4,17,29,11,237
17,2,93,11,29,15,0,212,7,9,3,3,23,18,16,300
3,3,14,0,11,2,1,7,2,0,5,3,6,5,0,20
10,19,48,6,9,6,0,53,9,5,8,2,9,18,9,91
0,4,5,4,1,0,0,12,2,0,0,0,2,5,0,17
23,15,155,18,54,13,13,180,27,15,17,7,33,54,0,318
37,15,164,27,57,22,0,206,23,25,24,8,45,47,5,351
28,21,178,44,86,42,21,275,26,25,37,9,65,73,0,460
24,26,147,23,62,39,25,277,35,10,26,5,35,44,0,468
45,25,232,55,76,32,10,334,49,27,41,7,75,47,0,563
33,25,174,40,89,16,0,307,31,32,20,6,54,54,28,459
17,10,117,20,44,8,7,196,10,12,9,7,32,47,0,302
9,6,68,11,28,10,5,79,52,6,9,2,16,14,0,117
16,6,114,11,40,13,1,162,32,18,11,1,32,28,0,241
25,26,104,20,96,30,1,174,79,16,13,12,29,32,0,295
27,23,104,23,112,19,0,263,37,17,42,14,27,53,10,371
67,63,146,53,154,44,132,232,82,41,77,27,50,63,0,551
67,44,190,41,205,45,0,257,93,35,56,15,70,65,32,483
2,0,34,10,8,3,0,48,10,3,7,0,9,13,4,59
22,24,178,28,54,22,0,213,32,18,15,9,37,67,4,359
50,25,229,59,99,38,28,246,49,45,46,12,51,64,0,507
39,22,143,20,80,12,4,131,23,20,21,11,54,57,0,265
60,38,283,68,161,51,0,418,69,54,46,25,59,120,29,677
30,15,87,22,66,8,0,143,18,15,19,7,32,18,6,256
20,6,78,9,26,2,8,99,23,9,8,1,17,23,0,167
54,34,179,42,103,28,0,268,35,40,39,13,51,50,2,478
23,20,102,20,38,21,39,118,15,21,24,4,32,24,0,261
13,2,46,5,9,8,0,30,8,4,8,4,10,16,7,56
2,3,30,2,6,2,0,18,0,0,1,0,5,13,0,44
41,18,136,44,70,17,0,252,23,24,21,11,45,55,2,397
25,10,96,16,65,5,0,125,29,13,12,2,12,34,8,232
65,73,183,59,156,42,0,305,105,75,50,29,106,113,12,393
69,89,198,72,169,30,40,478,120,75,67,12,78,111,0,682
74,60,225,58,125,31,0,458,89,66,39,26,61,122,12,616
122,110,268,80,273,68,46,380,172,128,143,39,108,193,0,564
4,7,34,4,32,5,4,40,12,6,6,2,21,8,0,75
33,35,136,34,59,39,0,144,61,6,55,4,44,59,3,248
16,8,53,12,48,10,0,89,19,12,20,3,21,26,4,131
12,9,74,6,28,7,0,97,9,7,7,2,14,42,9,143
10,10,83,10,40,5,0,66,26,9,4,2,29,14,11,129
8,7,65,14,25,4,6,42,9,6,5,5,19,31,0,96
11,13,70,9,24,9,7,94,13,7,18,5,29,13,0,152
8,7,27,13,22,2,0,32,10,0,12,0,10,6,6,67
31,40,158,33,76,17,15,229,41,20,16,12,60,53,0,397
50,37,172,47,118,26,44,290,67,42,41,17,53,68,0,496
4,0,30,5,9,4,0,32,6,7,0,1,7,17,2,44
60,35,253,54,170,58,0,420,114,31,63,5,105,75,4,653
9,8,52,17,46,8,3,65,12,15,20,2,20,20,0,119
4,3,29,3,23,5,3,27,12,1,7,1,13,11,0,52
75,37,225,56,122,32,26,301,72,38,45,22,63,85,0,549
10,10,29,11,29,7,0,50,23,8,10,0,9,16,12,68
0,1,16,4,9,1,0,13,3,4,0,1,8,4,5,19
2,3,31,15,31,0,0,27,9,6,4,1,8,14,2,65
11,11,80,22,50,13,0,145,19,20,11,0,27,24,23,208
2,1,18,0,3,3,0,6,2,0,3,0,6,14,0,8
6,7,20,8,8,8,9,26,7,6,5,2,2,15,0,55
15,5,71,7,27,11,18,124,6,6,4,6,18,14,0,224
20,11,74,20,37,4,19,89,13,7,20,5,16,19,0,194
34,22,113,23,74,36,17,138,19,18,24,13,38,38,0,307
38,10,92,26,80,11,5,164,31,29,43,7,22,48,0,246
4,4,49,5,16,4,0,40,14,3,1,1,13,12,1,77
17,19,111,27,60,10,0,156,30,14,14,3,38,23,4,274
17,6,52,14,42,7,2,89,13,15,13,4,28,20,0,136
13,17,70,14,37,5,0,96,14,18,2,9,20,20,2,167
12,12,85,18,26,13,22,65,12,16,18,0,18,27,0,162
15,7,46,10,39,12,25,56,15,9,22,6,5,20,0,133
18,17,61,14,55,17,0,83,23,11,22,2,29,14,5,159
5,7,60,8,27,2,0,56,14,10,14,2,16,10,3,96
3,0,19,7,2,0,0,13,1,2,0,0,8,4,5,24
3,7,38,3,20,5,0,30,8,4,2,4,11,18,2,57
38,22,144,40,87,17,5,192,50,27,28,2,57,45,0,336
27,26,56,23,71,14,0,143,36,21,27,4,29,20,3,220
3,4,4,2,7,5,1,17,15,1,0,0,2,4,0,21
5,6,46,15,23,9,1,44,13,9,1,1,6,18,0,101
17,8,23,7,47,11,4,25,6,10,28,7,18,11,0,62
33,34,58,28,65,20,4,98,31,23,50,6,32,28,0,170
16,8,60,12,26,8,0,45,14,2,6,2,36,20,3,92
7,14,53,6,27,8,11,41,13,11,8,3,20,22,0,90
9,0,13,7,6,6,4,8,6,11,3,1,5,1,0,26
10,3,47,8,24,0,7,70,11,18,7,1,22,9,0,101
2,3,21,4,11,5,2,31,5,4,7,0,4,9,0,50
2,1,25,6,2,1,9,4,2,1,1,2,8,8,0,28
7,15,40,11,33,7,0,63,6,12,11,4,10,14,2,117
3,8,21,4,10,6,0,32,6,2,8,4,6,6,6,46
3,8,16,4,25,2,1,27,11,9,11,2,11,8,0,34
7,8,51,7,6,0,0,35,0,7,2,3,15,13,0,74
3,1,17,9,16,3,0,17,7,7,3,1,1,0,5,42
18,22,29,14,32,10,8,41,20,9,6,7,15,15,0,102
12,14,22,6,34,1,14,35,14,19,9,6,9,12,0,69
12,3,53,11,27,7,1,35,5,7,7,2,17,16,0,95
3,7,49,11,22,1,6,36,9,10,7,3,16,13,0,77
11,14,60,12,44,8,7,69,13,18,15,12,16,25,0,126
63,34,177,48,173,28,29,336,56,64,52,35,60,96,0,525
17,16,57,14,65,15,23,55,18,20,30,11,21,23,0,139
14,6,56,14,13,9,25,53,6,9,10,5,13,16,0,131
10,8,52,6,23,6,6,61,7,6,15,4,10,20,0,110
5,6,32,2,16,7,0,42,8,4,9,0,13,17,4,55
4,11,43,6,31,3,0,28,15,2,2,2,24,10,0,71
5,3,28,1,10,3,6,23,5,1,2,2,10,9,0,50
14,14,23,6,43,5,5,30,22,13,16,3,11,25,0,50
6,4,21,4,11,3,4,19,9,4,5,2,6,10,0,36
9,4,64,14,26,11,6,74,20,14,11,0,9,8,0,146
12,0,14,5,13,8,9,22,5,7,11,3,3,8,0,46
16,14,48,13,37,8,8,62,15,16,7,2,7,9,0,150
4,0,24,3,13,1,1,14,8,7,3,0,13,10,0,19
14,6,21,4,23,5,11,45,10,6,8,1,11,9,0,84
35,27,54,18,58,20,28,115,49,31,30,9,14,23,0,199
11,9,51,21,37,13,0,74,5,12,37,5,6,17,0,134
30,28,55,24,97,13,30,128,42,43,33,16,21,24,0,226
40,27,55,24,74,33,23,86,46,25,43,14,20,40,0,174
102,81,111,76,177,52,37,330,113,73,72,29,61,53,0,565
40,37,111,40,145,36,6,203,52,39,86,13,41,25,0,362
117,106,129,74,309,88,195,209,168,98,159,50,57,74,0,621
65,54,74,34,137,36,59,140,61,68,84,27,32,44,0,283
26,20,24,8,55,16,24,59,50,11,15,9,15,8,0,124
9,6,25,7,14,7,0,41,12,14,5,0,7,4,6,61
8,4,23,8,3,5,0,38,7,3,1,0,8,11,4,55
15,5,31,5,9,8,9,83,6,3,4,0,9,9,0,134
6,2,28,1,5,2,0,69,2,0,5,2,20,10,2,72
10,8,19,7,8,1,0,12,7,9,7,1,8,3,1,29
15,7,26,7,37,8,16,57,18,6,10,1,16,18,0,104
9,11,29,9,16,6,10,27,15,4,13,1,15,17,0,52
7,3,43,5,16,6,9,19,7,5,3,2,11,16,0,64
3,1,14,3,3,6,1,9,2,4,5,0,2,8,0,19
2,8,41,4,16,2,1,57,4,2,2,1,11,11,0,100
2,3,30,9,20,6,4,30,3,8,6,1,4,30,0,52
3,2,15,3,7,4,1,24,4,0,2,1,10,5,0,37
4,1,24,3,16,5,7,19,5,5,10,0,7,10,0,42
2,7,21,11,14,4,0,15,12,5,3,1,10,8,2,33
0,0,12,2,12,5,8,19,7,4,2,1,3,6,0,35
3,0,17,9,3,3,0,16,6,8,0,2,13,7,0,15
6,4,22,1,19,3,4,27,12,1,9,2,3,8,0,51
18,3,47,8,30,9,0,39,19,11,8,6,12,14,3,81
9,2,18,5,12,5,2,36,6,2,2,1,8,15,0,55
2,0,13,7,9,1,1,22,9,4,0,2,5,1,0,34
15,7,68,21,35,12,0,88,44,8,14,3,25,14,10,128
12,13,62,20,33,11,19,91,23,16,19,3,13,66,0,121
30,4,89,17,67,18,0,119,13,11,28,9,30,36,5,212
10,5,40,7,24,8,34,62,18,11,4,1,15,13,0,128
23,19,63,11,35,16,10,61,15,7,27,7,21,55,0,106
23,8,39,9,48,15,5,49,20,10,20,7,24,10,0,105
26,21,80,19,79,26,9,155,16,14,37,2,47,19,0,280
4,4,13,8,6,1,2,12,7,7,6,0,7,2,0,21
5,2,21,0,14,0,4,23,4,4,6,2,7,8,0,38
6,5,42,11,12,3,0,31,10,5,1,2,25,13,1,53
11,12,41,13,17,14,0,57,10,8,8,2,13,29,2,93
3,3,22,12,16,4,2,27,17,5,5,2,5,22,0,33
11,10,66,9,45,5,24,73,16,14,27,0,17,27,0,142
10,1,17,2,14,7,0,17,7,11,9,0,11,1,2,27
3,4,20,2,22,4,3,25,3,7,6,2,7,11,0,47
32,15,67,24,57,21,15,57,12,25,81,4,27,12,0,127
23,26,72,18,43,9,0,83,26,8,24,7,20,23,6,160
8,4,35,5,36,10,5,62,17,5,6,2,12,16,0,107
2,1,14,2,21,0,7,27,4,2,3,0,2,4,0,59
4,5,35,3,9,8,0,26,2,7,1,0,9,11,3,57
6,4,37,5,29,1,15,66,14,10,8,2,16,9,0,104
102,56,166,76,244,68,29,187,98,64,140,48,101,69,0,408
18,9,35,22,31,9,13,46,13,14,26,6,14,21,0,89
30,9,69,27,71,16,5,83,45,13,38,7,29,29,0,149
121,72,368,86,301,82,0,570,115,85,100,28,140,154,49,929
128,85,346,112,327,86,0,412,117,84,165,69,166,106,10,779
14,3,51,10,37,12,11,72,17,10,4,5,13,23,0,138
10,9,45,5,39,6,9,52,12,8,14,3,31,27,0,80
7,3,36,7,19,5,0,22,11,5,8,2,21,12,4,36
22,17,42,18,52,8,23,35,17,14,18,12,37,17,0,102
21,15,46,18,69,22,21,70,27,16,31,15,30,42,0,121
41,8,51,11,53,10,38,66,14,15,45,2,40,23,0,139
16,10,25,4,19,4,7,24,7,11,10,1,16,9,0,55
6,6,38,11,21,8,2,63,7,12,9,4,25,14,0,84
15,4,26,12,18,3,19,17,9,7,11,4,12,2,0,69
4,6,21,1,22,4,0,7,7,6,3,5,4,5,3,32
23,18,49,13,33,15,0,103,17,12,11,2,25,22,17,148
2,4,22,8,19,4,11,45,5,5,5,1,9,6,0,84
8,1,43,4,21,7,14,29,12,3,5,0,25,15,0,67
1,11,24,15,22,7,0,27,13,12,6,3,8,21,2,42
8,17,32,16,28,10,1,40,12,16,14,9,14,10,0,77
44,38,96,30,147,44,22,139,77,54,48,26,50,37,0,268
32,43,107,25,115,21,0,100,75,34,29,19,29,26,26,205
20,21,51,11,56,10,8,73,36,23,36,9,16,11,0,119
17,26,24,16,32,9,4,54,15,28,26,6,7,15,0,85
4,7,21,5,13,1,0,47,3,4,1,1,3,5,4,77
13,31,29,15,44,22,0,44,23,15,17,12,19,16,8,88
16,9,7,6,12,7,0,29,3,3,20,2,2,3,8,45
21,12,63,13,50,3,3,72,21,8,22,9,19,19,0,139
45,47,130,35,126,28,19,161,77,48,42,34,34,35,0,321
0,6,10,16,8,0,0,11,16,1,4,0,0,1,4,25
12,16,23,13,30,3,26,20,21,14,16,4,17,14,0,57
3,1,65,9,10,0,0,97,2,4,4,1,14,16,18,126
4,4,25,5,20,7,0,22,8,3,4,4,12,10,2,44
4,5,33,2,25,5,0,59,10,5,7,1,10,9,1,90
6,2,36,4,8,3,0,31,7,2,3,0,11,11,9,47
7,3,21,11,16,8,0,29,4,5,8,2,8,5,1,62
21,14,64,16,51,11,2,91,17,20,28,5,23,34,0,143
27,6,64,17,43,16,8,113,40,8,9,2,34,19,0,182
10,13,22,14,32,3,15,51,22,11,12,1,14,19,0,81
3,8,19,5,22,3,3,23,8,6,1,3,6,8,0,54
10,0,25,14,28,5,0,28,21,5,0,0,10,15,4,55
17,8,39,17,20,9,0,71,8,9,16,9,9,15,0,115
10,11,38,6,13,3,1,37,12,9,2,0,6,9,0,81
123,79,417,87,328,84,13,626,81,93,192,27,153,115,0,1096
29,17,64,37,47,17,12,128,21,24,35,6,20,20,0,225
17,6,70,11,49,11,1,59,15,6,12,14,39,21,0,117
32,21,104,35,74,27,20,144,27,31,56,4,51,40,0,248
5,4,45,13,34,12,0,48,12,10,15,3,20,24,0,77
11,10,33,16,32,15,16,36,24,7,16,0,16,13,0,93
2,11,29,8,19,6,1,25,21,7,3,0,9,15,0,46
12,13,42,31,58,9,4,55,38,8,14,7,16,16,0,125
10,6,57,10,41,8,0,70,38,5,12,4,22,19,0,102
38,11,98,18,72,18,7,140,5,17,77,1,33,33,0,236
8,5,27,6,17,8,0,42,13,5,10,0,17,7,1,60
11,6,68,9,41,18,10,62,24,17,18,3,32,19,0,112
6,2,14,3,9,4,4,14,9,3,3,1,7,10,0,23
8,4,24,10,16,4,0,43,6,2,4,0,10,9,9,69
3,2,57,3,5,8,0,57,5,4,6,1,11,18,11,79
4,7,12,1,11,3,0,23,7,2,3,0,0,13,6,30
21,38,38,35,70,20,0,129,44,21,22,11,23,20,8,202
20,15,43,17,69,20,38,58,18,18,99,7,15,20,0,103
45,35,66,31,109,25,46,149,24,30,108,13,28,22,0,281
34,24,34,26,71,33,17,75,24,18,59,17,27,17,0,152
19,25,40,21,43,22,38,48,28,26,29,9,20,26,0,118
4,4,25,6,16,3,2,27,15,3,1,3,8,6,0,51
8,4,22,4,16,7,8,36,15,4,4,6,10,11,0,55
27,17,99,22,60,10,42,115,35,35,24,15,37,38,0,208
24,27,95,24,69,21,0,138,20,31,19,13,45,26,2,242
41,34,69,14,67,12,8,123,33,32,29,29,22,40,0,183
1,11,34,5,24,4,0,33,15,5,4,6,5,13,0,64
17,21,49,25,56,4,7,83,40,17,10,6,20,11,0,158
8,14,48,12,51,2,8,72,24,18,11,2,30,10,0,120
14,10,45,15,35,8,0,57,14,10,7,5,17,11,14,106
11,5,45,16,15,12,0,34,13,2,11,0,23,11,0,78
5,4,32,7,9,2,0,45,1,4,5,0,9,4,8,73
5,2,20,3,8,2,1,39,5,2,1,0,4,10,0,58
52,38,196,47,152,44,0,329,52,45,47,21,61,58,34,540
1,9,12,7,11,2,0,20,8,6,10,2,0,6,3,27
5,6,18,2,14,2,9,15,1,6,6,2,10,11,0,35
4,10,23,11,23,6,0,23,13,9,8,2,7,5,2,54
22,29,43,14,69,19,21,71,38,17,32,6,23,12,0,160
5,8,28,14,20,9,0,48,12,10,7,7,8,14,1,73
4,7,24,12,17,2,11,32,13,4,9,1,14,12,0,56
12,4,34,4,22,1,8,25,20,8,8,1,13,7,0,53
6,3,23,3,23,5,3,23,9,4,8,4,11,3,0,50
15,13,74,6,44,4,0,63,11,8,4,1,23,24,14,134
3,3,9,1,11,3,7,17,10,3,5,1,5,6,0,24
15,14,52,13,42,13,0,53,13,11,22,3,11,21,11,110
8,6,48,7,20,2,0,59,5,7,0,1,18,13,5,101
43,28,73,26,95,33,23,118,76,38,37,14,22,26,0,226
9,2,20,3,7,0,1,54,2,1,5,0,10,9,0,69
7,5,24,9,9,2,0,16,19,4,1,0,8,1,6,33
14,2,48,5,17,2,0,46,8,4,3,1,7,8,1,102
6,3,40,4,15,6,0,15,11,2,0,1,12,15,2,46
8,5,37,6,14,4,6,34,12,7,5,3,12,13,0,62
16,9,46,20,52,12,2,85,22,17,18,6,11,16,0,152
7,4,39,8,39,2,4,22,12,12,12,7,23,16,0,43
12,4,57,19,31,12,15,93,23,11,21,4,23,10,0,151
8,0,16,6,13,4,2,21,13,10,6,0,6,9,0,26
5,4,30,9,17,3,4,24,20,3,5,4,9,8,0,47
11,8,28,12,30,6,0,66,5,12,5,7,10,9,0,113
7,13,44,10,23,9,0,43,10,8,8,6,21,10,0,86
25,9,68,25,60,14,13,136,28,29,19,7,24,31,0,212
27,24,121,17,80,15,10,182,28,25,19,15,49,25,0,315
2,1,21,5,12,1,0,17,5,3,8,0,7,8,0,28
3,6,24,6,39,11,10,34,22,10,10,1,20,10,0,60
11,2,44,9,53,3,1,60,9,8,6,3,19,20,0,118
10,12,51,5,22,6,9,71,7,6,16,3,19,18,0,117
47,49,94,30,77,58,0,124,37,24,72,9,34,26,20,257
39,40,56,31,103,16,10,80,44,23,76,18,22,27,0,165
98,79,140,60,183,51,87,253,165,70,89,32,43,65,0,487
2,8,15,1,17,6,1,15,7,1,9,4,8,4,0,32
9,7,34,9,32,1,5,37,9,13,8,1,6,15,0,82
