A53,A7,A166,A47,A720,A721,A768,A1,A1114,A997,A998,A999,B227,B1114,B720,B1455,B1464,B768,B1454,B997,B998,B999
5,5,17,8,11,5,40,15,7,4,0,45,10,3,12,13,11,12,15,8,6,72
24,8,7,30,15,8,62,3,8,14,0,88,7,12,9,10,11,23,28,18,5,144
1,1,2,2,6,0,19,1,1,2,7,13,3,1,6,0,1,13,5,2,0,24
21,5,4,9,6,8,36,2,14,5,5,40,2,5,12,5,16,22,6,12,0,75
7,7,5,12,13,6,33,8,11,12,3,54,11,2,7,6,6,9,25,14,0,91
8,4,0,7,6,4,45,2,9,1,3,70,7,7,7,1,3,13,14,1,0,106
9,4,1,2,11,4,22,2,10,6,0,52,1,2,5,1,2,7,12,6,0,87
17,10,2,4,16,2,24,10,15,4,0,42,15,3,12,6,10,8,15,3,3,71
79,37,20,31,38,39,193,72,66,27,6,291,26,25,36,43,25,97,112,24,0,511
7,8,5,8,10,4,30,5,10,4,0,61,2,4,13,6,2,12,11,8,2,92
6,2,0,0,6,2,13,6,5,4,0,15,3,3,3,8,0,5,5,1,2,29
4,4,9,2,8,4,9,8,7,8,0,24,9,1,10,2,2,13,12,4,3,31
28,15,13,7,17,8,61,23,23,13,0,90,17,20,23,14,4,22,32,5,9,152
44,14,12,23,25,17,72,9,34,12,0,175,8,11,17,6,9,25,39,20,33,269
3,2,4,4,1,3,21,1,4,2,4,11,2,3,4,2,1,11,1,7,0,29
28,5,6,6,7,7,57,9,7,7,0,96,4,6,22,7,8,22,28,14,4,120
12,9,5,8,22,7,58,13,15,14,1,74,4,8,22,10,5,27,29,9,0,124
19,13,7,20,19,5,54,11,14,12,1,100,19,6,16,8,4,18,22,11,0,171
15,5,3,6,3,1,22,2,16,3,10,39,12,5,2,1,3,16,14,11,0,61
11,9,11,9,11,4,42,15,16,6,7,85,7,12,5,13,5,20,12,7,0,145
1,9,3,3,4,1,18,7,2,2,12,20,6,0,4,6,4,8,6,4,0,44
4,1,4,6,7,9,36,7,10,3,0,54,2,2,7,8,2,9,7,3,8,93
12,6,10,1,5,6,13,19,8,8,0,32,7,2,11,11,2,5,30,2,0,50
9,4,3,10,9,4,23,5,1,6,0,35,1,0,0,3,1,8,56,5,5,30
2,6,0,2,7,0,13,0,1,0,5,9,1,1,0,2,0,3,13,3,0,22
8,5,3,9,5,1,11,1,7,4,0,28,2,0,2,0,4,6,8,5,7,48
4,7,2,4,2,4,13,10,10,2,0,16,8,7,5,9,4,3,8,1,1,28
8,13,0,26,16,1,67,4,36,7,0,161,8,20,14,3,12,15,12,16,26,213
7,1,8,2,1,4,5,0,3,1,0,17,5,2,2,0,5,6,5,0,2,22
11,8,3,8,8,3,27,4,11,7,0,67,3,5,10,2,8,10,18,4,9,88
10,2,3,7,8,7,40,2,7,7,1,23,6,3,13,1,2,21,21,3,0,47
7,6,6,2,6,4,30,0,6,4,15,26,7,5,12,0,6,21,14,8,0,39
9,14,4,8,11,1,44,5,14,8,11,84,7,7,7,2,5,32,6,5,0,142
7,7,16,9,24,9,46,5,17,8,8,69,7,4,16,3,9,29,19,7,0,131
3,4,1,3,0,3,6,2,3,2,3,9,3,2,3,2,6,3,4,2,0,14
7,7,8,16,12,4,61,5,4,6,11,48,2,4,11,8,2,23,5,7,0,127
3,4,1,1,1,3,23,2,3,1,9,40,0,1,7,0,2,6,9,3,0,63
8,5,6,0,12,5,30,1,5,3,4,23,3,0,10,3,4,17,4,1,0,60
4,3,3,2,6,4,20,1,0,2,8,20,0,1,11,1,0,13,11,1,0,35
3,3,0,0,1,1,4,0,4,5,1,9,5,0,2,0,0,1,10,1,0,12
3,6,7,8,3,4,17,4,6,5,1,26,6,3,6,3,6,5,5,4,0,52
5,3,16,8,5,10,24,3,9,4,5,39,7,5,7,2,2,9,19,4,0,76
4,0,11,6,2,1,20,2,1,2,2,24,3,1,9,1,2,13,6,8,0,32
8,0,5,2,7,3,14,4,8,5,11,29,1,1,10,4,3,7,14,3,0,53
8,0,1,3,2,0,6,1,1,1,0,11,0,0,4,2,0,1,6,2,1,18
12,4,7,14,14,8,47,3,23,8,10,118,12,10,11,5,2,23,18,9,0,178
2,0,4,2,1,2,14,0,7,3,0,8,0,0,2,0,1,7,7,5,1,20
10,2,8,6,13,2,44,6,18,11,12,33,2,3,16,7,5,12,20,9,0,91
19,5,5,13,24,6,33,2,7,10,6,48,4,4,17,2,3,21,41,8,0,78
2,0,2,3,8,0,13,1,2,4,5,20,2,0,4,2,3,2,4,2,0,41
11,1,3,1,4,18,21,4,2,2,0,34,1,1,6,4,9,8,23,3,3,43
6,1,7,6,13,5,33,0,3,2,9,52,3,3,2,1,7,20,13,6,0,82
11,8,8,3,3,1,22,7,8,2,0,58,7,2,2,7,2,7,5,4,8,87
4,2,1,2,6,5,11,1,7,4,8,24,7,2,3,2,2,10,5,2,0,42
13,12,11,23,9,8,28,2,8,13,0,79,2,6,9,2,5,18,35,20,0,109
5,6,4,9,9,2,30,4,5,6,7,52,3,2,20,2,0,10,7,8,0,87
5,10,1,8,8,3,27,1,15,5,5,102,17,2,5,1,4,3,2,7,0,149
12,5,5,9,14,4,34,1,5,8,5,36,9,4,16,0,2,19,12,9,0,67
29,6,12,20,27,12,59,4,34,10,2,101,8,4,24,3,6,32,34,11,0,194
61,39,22,60,73,46,178,30,70,42,0,297,37,21,64,28,42,86,66,48,49,477
51,37,24,61,69,37,169,26,60,34,0,396,31,31,46,21,33,75,53,43,41,590
56,36,31,32,101,47,184,32,60,46,0,328,35,23,50,43,66,63,72,41,29,531
43,53,25,70,70,42,180,14,73,47,0,353,45,22,67,33,47,87,38,44,20,567
82,42,29,27,75,57,148,39,42,38,26,328,49,21,78,29,57,69,83,32,0,515
72,53,25,43,87,56,178,41,81,50,0,301,33,29,61,39,61,102,77,34,42,509
61,20,21,18,54,21,131,29,51,39,0,260,30,13,58,27,37,65,66,27,7,375
99,27,43,15,107,79,149,41,37,44,117,245,28,16,116,49,95,69,117,22,0,491
65,44,34,47,62,57,207,43,68,48,0,252,41,30,64,56,45,119,73,50,7,442
54,46,27,52,63,39,157,33,63,28,0,247,29,15,69,35,37,82,59,42,18,423
114,24,29,25,62,60,175,25,46,30,33,233,39,12,58,31,98,88,95,32,0,403
47,19,16,41,54,35,145,21,35,37,0,198,28,15,44,22,41,63,59,35,6,335
79,26,22,33,63,39,163,30,33,41,0,177,16,15,55,49,28,65,82,24,9,363
34,40,12,46,33,18,176,29,29,36,0,265,40,7,44,22,24,70,48,22,22,419
94,56,35,59,73,80,177,48,44,53,0,235,48,16,71,52,84,103,98,47,10,425
119,34,38,51,75,85,209,47,33,40,0,222,47,19,53,62,102,97,103,42,8,420
84,32,20,22,72,69,161,22,47,39,24,286,15,9,77,37,58,90,71,33,0,488
47,33,16,23,52,34,131,18,31,20,0,208,30,9,38,14,27,40,45,19,39,352
113,31,25,48,121,75,179,57,92,60,38,1858,31,24,93,62,83,76,80,37,0,2211
57,38,23,20,69,46,147,24,51,30,0,308,27,10,68,21,49,64,60,22,30,462
56,36,12,28,56,30,172,17,42,23,0,351,16,7,52,27,35,72,37,23,21,533
122,28,25,28,91,81,214,56,58,65,93,265,47,14,89,67,94,96,142,31,0,546
101,56,33,24,87,65,239,38,53,35,0,248,54,18,67,49,87,101,75,22,22,484
63,45,14,23,48,57,207,38,49,29,0,203,32,15,52,27,60,76,74,27,15,398
65,56,22,43,94,44,159,44,48,29,0,286,34,15,49,41,41,79,67,50,28,486
79,9,28,12,98,63,87,47,32,45,0,264,25,10,60,46,64,39,88,21,49,362
81,26,26,23,76,56,138,26,29,30,0,139,16,13,75,37,56,51,74,30,6,292
49,41,28,51,67,46,171,29,43,38,0,263,28,14,44,35,52,67,46,41,47,452
80,24,19,19,64,57,87,33,41,37,0,284,15,13,56,28,67,49,67,15,34,401
64,26,17,26,58,46,134,28,25,37,0,241,24,10,48,25,42,57,55,19,26,396
95,31,30,22,74,64,112,45,50,46,0,304,24,9,85,48,81,62,74,26,11,453
59,39,22,21,66,51,120,20,39,42,0,243,45,19,67,25,59,59,61,23,6,358
58,35,23,36,57,33,206,38,64,35,0,303,38,14,40,33,34,104,62,29,41,493
62,28,32,52,112,53,171,32,62,45,0,333,24,18,94,27,40,64,55,39,112,509
64,26,24,29,81,37,172,21,49,44,0,340,31,16,51,23,38,80,68,26,17,537
66,42,26,50,90,53,192,31,63,35,0,355,26,24,80,27,40,95,63,39,22,587
64,37,28,59,50,72,148,33,53,48,58,243,34,18,64,51,71,74,74,51,0,456
66,51,22,65,70,31,173,37,54,34,0,334,40,13,36,35,34,95,52,35,47,550
71,49,10,50,75,49,237,24,60,34,0,260,39,23,63,34,32,133,68,36,22,469
51,38,28,44,77,48,243,40,56,42,14,270,43,16,56,41,71,136,58,44,0,486
65,38,23,31,80,58,145,32,46,51,0,312,31,16,62,33,50,67,89,23,31,479
79,20,23,21,72,59,112,41,64,32,0,301,16,11,79,42,63,50,60,7,25,471
57,35,24,20,76,59,110,37,37,31,0,346,26,10,72,40,58,52,64,21,7,482
54,73,12,69,71,22,203,35,47,35,0,368,24,18,49,14,42,127,36,35,44,600
99,48,17,29,66,50,206,38,37,43,40,306,33,16,84,32,67,87,99,43,0,518
120,30,31,35,93,77,185,42,46,47,10,227,32,22,99,52,71,94,111,52,0,410
50,23,15,29,78,18,147,13,64,35,0,274,23,31,117,13,24,61,40,34,14,389
39,26,18,24,40,26,119,22,17,27,0,172,20,5,36,26,31,55,39,24,27,267
121,34,22,38,96,43,198,29,56,40,0,360,35,18,84,37,64,67,107,41,23,561
99,36,34,36,93,56,229,47,55,39,71,311,37,22,85,49,84,102,112,59,0,556
83,26,27,22,74,47,194,27,39,31,73,195,27,19,68,31,51,117,93,36,0,396
96,36,18,30,87,46,148,28,41,22,0,275,31,19,57,30,54,63,92,23,59,399
70,38,20,53,80,51,201,29,63,43,10,245,29,20,92,47,47,87,66,41,0,474
106,35,35,42,101,89,213,42,53,42,0,277,26,21,95,54,87,80,113,47,6,506
70,44,16,41,91,49,235,45,53,41,0,308,39,17,58,44,52,100,70,31,20,562
72,30,20,47,75,43,184,29,51,50,0,233,23,9,86,27,47,77,60,41,38,426
10,5,1,6,14,10,32,10,6,8,12,43,7,3,9,7,11,21,17,3,0,79
65,19,20,26,47,46,151,14,34,20,4,182,23,19,59,21,38,72,71,25,0,300
63,38,31,52,72,35,200,42,69,38,0,311,34,19,46,49,57,76,59,55,37,519
88,39,33,22,98,59,192,41,53,50,0,303,34,14,96,41,64,89,89,21,28,502
79,40,27,34,76,65,200,52,39,25,0,354,34,20,73,57,59,73,97,31,18,529
75,34,19,73,80,54,219,51,55,40,0,232,18,17,64,41,67,104,65,57,26,473
51,45,34,84,72,51,213,22,40,36,0,317,39,23,74,25,74,81,52,57,23,517
21,9,5,16,19,4,46,3,6,11,0,87,9,3,14,2,7,26,18,17,8,123
9,2,9,1,7,5,19,5,6,4,0,26,2,4,4,3,3,10,18,3,1,45
53,15,8,6,35,13,63,7,14,13,13,95,16,3,21,13,24,22,56,9,0,171
2,7,2,10,6,0,8,0,2,3,4,17,4,0,3,0,0,6,4,4,0,40
5,1,1,6,2,0,26,0,9,5,0,39,2,5,7,1,2,14,8,2,5,48
13,27,8,15,20,8,67,4,20,20,14,117,20,2,25,4,8,43,26,13,0,192
16,8,2,11,10,5,28,4,21,14,0,55,2,14,9,4,4,12,21,8,1,99
4,0,3,5,21,6,24,5,9,4,6,43,3,2,16,3,5,14,6,1,0,80
130,42,51,64,116,72,276,84,116,75,29,577,48,39,104,100,60,127,150,57,0,947
41,20,25,52,68,32,223,30,53,33,0,316,29,19,49,23,36,106,46,40,3,542
10,2,11,2,15,6,21,6,2,7,10,47,3,0,25,8,5,13,17,6,0,62
18,3,8,6,15,10,23,6,11,10,4,65,5,8,16,9,12,13,21,6,0,89
37,17,4,23,24,17,99,11,29,18,0,180,14,7,26,13,11,37,25,23,3,300
20,14,16,14,45,13,61,7,27,14,0,145,7,10,24,9,23,17,35,19,7,225
21,5,11,4,12,3,26,11,14,8,7,33,3,7,18,5,2,13,23,6,0,78
33,18,12,21,38,12,71,13,22,13,0,97,15,11,22,9,17,33,40,17,0,186
13,10,4,18,7,12,61,4,19,10,3,77,9,6,3,6,2,23,19,11,0,159
28,15,21,19,23,18,110,6,31,19,0,326,8,9,18,5,12,30,55,11,15,453
16,2,8,4,10,1,34,5,1,9,0,45,0,0,7,6,3,12,15,8,1,83
47,34,26,43,48,18,187,10,48,28,0,258,34,26,43,10,19,76,52,34,25,428
2,2,0,7,10,3,8,5,7,0,0,13,2,0,5,5,8,7,6,5,0,19
1,0,0,3,2,0,2,0,1,0,0,4,0,0,0,0,0,0,2,0,1,10
4,1,5,5,6,4,24,2,11,2,0,38,2,6,6,5,1,6,5,5,4,62
17,6,7,21,15,8,89,3,31,15,0,194,13,14,20,12,13,52,29,15,13,225
12,12,2,4,9,6,49,1,19,6,0,43,10,6,2,2,6,19,10,4,5,99
17,21,10,5,20,5,70,7,33,19,0,138,12,4,15,14,7,30,24,8,23,208
12,1,2,4,4,2,7,2,14,2,5,41,2,2,7,7,2,1,6,3,0,66
7,7,2,10,6,0,18,4,6,11,8,49,5,5,7,10,4,4,13,7,0,73
46,45,20,45,71,24,168,60,53,42,0,251,14,13,45,107,13,57,32,37,6,501
42,31,15,39,55,23,137,44,45,28,0,235,13,11,25,133,9,44,35,23,19,382
38,34,12,35,55,14,127,35,42,42,0,242,7,7,31,95,7,38,41,33,6,411
70,46,15,32,76,41,178,71,72,56,31,338,13,14,41,143,21,72,62,23,0,637
48,33,11,49,59,33,129,21,58,40,0,513,12,13,39,98,14,58,39,21,40,660
14,16,6,2,12,2,34,7,19,6,4,70,3,8,8,31,2,9,24,9,0,98
13,21,8,16,20,16,87,16,26,15,6,125,11,9,18,25,7,48,29,17,0,205
11,8,3,24,19,2,24,6,16,4,0,56,5,4,18,6,5,15,9,11,10,90
3,1,0,5,5,2,14,3,2,2,8,6,2,0,5,2,0,15,2,8,0,17
12,15,11,31,16,8,82,5,14,6,2,85,8,10,14,18,3,37,13,19,0,165
8,8,11,16,20,3,70,9,22,14,0,109,7,6,13,14,7,36,19,12,4,172
14,3,3,8,24,7,70,8,16,9,0,136,5,9,10,8,2,29,14,9,8,204
7,2,6,7,3,0,23,3,3,4,6,39,0,0,4,1,1,18,2,3,0,74
7,1,2,15,6,7,52,0,17,11,13,98,0,3,10,4,4,22,23,15,0,148
38,18,15,18,28,12,82,14,45,19,26,170,7,7,27,13,31,37,43,19,0,301
23,17,25,11,16,6,68,5,16,12,5,77,19,3,22,3,7,27,39,13,0,148
10,6,3,7,7,2,44,5,19,9,8,53,4,2,13,7,3,15,17,5,0,107
69,31,26,32,59,33,164,21,41,43,0,224,21,19,52,26,43,76,61,42,4,399
7,3,5,6,3,1,22,3,10,2,0,7,4,3,3,3,17,6,3,4,0,26
58,19,10,29,43,19,158,16,72,27,0,202,13,11,23,15,82,56,39,27,1,386
26,6,3,3,6,4,19,12,11,7,7,28,4,3,12,2,4,18,13,8,0,68
31,10,20,10,42,28,103,18,30,27,32,106,13,12,50,42,29,48,51,10,0,202
16,11,4,13,20,6,52,18,22,10,2,68,18,5,23,24,4,18,33,15,0,102
1,14,2,10,3,1,29,10,7,4,0,59,0,3,4,9,3,12,0,7,5,97
60,12,20,23,34,27,92,22,24,24,7,124,12,7,38,28,12,54,69,24,0,225
18,30,7,27,28,9,119,24,48,21,26,219,11,15,38,34,4,42,34,16,0,382
5,7,1,12,10,1,20,3,2,6,0,53,4,2,15,1,2,20,6,9,10,51
30,15,7,9,18,9,110,7,26,18,7,165,8,13,12,11,8,46,30,7,0,286
19,12,14,20,12,3,62,8,17,14,7,100,10,7,11,6,7,24,24,15,0,184
7,6,5,16,9,0,35,3,12,4,0,31,1,2,5,2,3,20,21,4,7,63
8,13,4,9,3,1,18,0,11,0,0,19,2,0,4,2,1,3,14,2,12,46
14,3,4,15,16,0,41,6,13,6,0,69,3,3,9,8,3,13,14,18,0,116
16,17,12,16,23,6,67,5,20,12,5,95,7,8,20,7,12,30,17,17,0,176
23,7,14,21,14,23,74,15,31,17,0,100,13,16,19,10,14,40,34,9,4,180
15,19,7,7,15,10,74,7,16,17,0,102,9,3,16,15,4,23,14,11,2,192
2,4,12,12,9,0,16,1,10,8,0,23,3,5,11,4,7,14,11,11,0,31
12,11,6,16,19,6,31,0,11,13,0,103,3,5,12,0,7,10,9,22,23,137
18,11,24,4,20,1,55,3,8,7,5,133,4,6,12,4,12,13,21,13,0,204
4,17,5,8,16,2,24,3,8,3,0,54,12,8,18,3,5,11,4,5,5,73
7,7,3,2,8,2,44,2,10,2,0,46,1,2,5,2,2,19,2,7,4,89
6,5,2,4,3,0,18,0,0,5,0,39,1,0,1,2,1,11,8,2,1,55
18,19,6,27,21,8,152,10,39,22,5,247,13,9,19,18,7,58,38,24,0,388
20,11,10,33,20,9,83,5,16,18,0,111,6,11,15,33,4,41,18,15,21,172
2,1,1,8,1,1,8,0,13,3,2,29,0,4,4,0,1,8,2,11,0,39
5,2,4,8,5,4,29,1,12,9,23,47,0,0,4,1,6,11,35,4,0,88
27,13,4,20,23,6,89,14,26,32,0,168,6,9,16,16,6,26,48,12,5,278
73,44,24,41,61,18,197,30,63,54,0,325,22,18,30,22,19,77,114,39,27,562
72,42,12,55,58,6,226,23,64,48,0,456,23,14,21,11,9,78,127,34,26,719
42,31,8,31,32,23,149,12,47,42,0,350,27,12,22,11,11,34,91,29,13,517
47,31,16,33,36,29,168,23,48,43,0,312,14,13,30,17,15,45,91,21,73,467
80,25,21,22,42,19,106,15,66,35,49,636,20,18,25,9,12,26,152,28,0,826
21,11,6,14,17,3,55,6,17,14,0,110,2,1,7,19,1,22,19,13,4,186
11,7,4,24,28,11,107,9,32,25,21,126,13,8,32,8,8,30,18,16,0,272
2,2,2,5,12,6,30,2,10,2,0,57,2,2,9,7,7,12,4,5,3,79
3,12,2,23,6,2,73,2,25,8,9,65,11,5,10,2,1,38,8,14,0,141
17,25,10,21,25,6,113,17,31,16,8,218,18,13,18,9,14,45,38,16,0,336
9,10,4,14,11,7,11,1,2,5,0,32,5,2,7,2,5,6,14,11,1,53
41,16,5,9,36,22,104,13,32,27,0,188,19,14,34,12,26,41,42,18,4,283
148,69,38,57,91,68,282,35,93,63,19,474,55,32,87,39,76,109,162,50,0,827
7,12,3,6,17,1,68,9,19,23,0,104,2,7,17,18,4,29,4,8,0,180
9,3,3,11,10,6,30,7,9,6,0,40,5,5,5,1,1,15,4,5,3,90
15,5,5,16,6,2,27,3,13,11,0,47,3,3,9,1,15,15,21,4,1,78
1,3,12,6,19,5,25,5,4,7,5,25,2,3,11,2,12,15,8,0,0,64
61,25,17,26,30,12,126,7,23,30,8,165,10,10,26,10,19,55,71,13,0,316
31,10,4,16,20,11,99,3,21,7,2,101,8,13,13,11,5,34,26,9,0,206
30,42,20,46,36,14,155,16,58,42,0,358,27,21,30,29,10,64,36,48,7,545
22,19,28,19,31,11,96,2,25,17,0,158,14,8,22,5,9,38,51,9,15,257
3,5,2,10,5,1,34,1,6,4,0,30,2,1,9,2,2,18,12,6,7,42
34,32,11,55,27,7,125,15,53,19,0,328,6,15,22,10,7,55,34,25,13,519
4,10,3,19,10,0,53,8,10,9,0,115,18,4,10,5,1,17,7,7,13,159
0,3,1,3,1,0,21,2,9,6,0,50,2,3,4,1,0,4,1,1,12,68
7,3,0,18,2,1,41,1,3,3,0,73,4,2,3,0,1,17,6,11,1,107
6,1,0,4,10,1,33,3,6,6,5,61,2,5,4,4,4,8,11,1,0,97
54,33,36,46,72,25,212,17,68,53,18,435,22,30,64,19,20,99,77,35,0,703
54,30,20,48,59,25,220,26,74,50,12,496,15,15,54,36,23,122,67,30,0,752
35,13,12,17,37,13,79,16,29,18,0,127,19,5,40,12,12,47,33,13,2,213
10,4,9,13,9,8,34,9,16,9,11,47,9,5,7,4,4,17,17,13,0,103
3,1,5,7,8,3,33,6,7,10,7,32,3,1,11,10,1,17,5,7,0,67
9,3,2,9,14,3,23,1,13,7,0,37,2,4,10,2,7,9,8,6,0,73
29,14,18,13,27,21,72,6,30,17,17,82,13,10,26,12,29,37,35,12,0,172
81,41,37,50,98,42,290,22,64,43,78,292,57,20,80,38,67,120,83,53,0,620
29,15,14,7,14,1,51,7,10,9,0,91,4,3,9,9,21,27,23,10,2,140
8,4,0,15,7,1,16,1,6,3,0,33,3,4,10,0,3,20,5,7,3,39
20,12,9,10,15,21,36,9,17,7,9,59,17,7,15,15,19,23,29,7,0,92
11,12,1,10,16,10,102,5,27,16,23,123,10,9,22,7,10,41,20,15,0,222
5,6,4,3,7,1,28,4,6,2,2,37,5,0,6,4,7,17,4,3,0,59
35,10,3,23,14,4,83,9,23,8,0,72,11,8,12,10,6,32,32,10,11,152
72,51,24,31,50,24,199,37,62,41,0,418,18,21,67,44,35,93,76,33,11,611
66,29,29,44,50,36,178,34,51,31,0,311,26,29,49,37,23,83,81,41,28,462
9,5,4,12,18,6,37,2,19,23,2,84,4,9,19,1,13,20,17,11,0,127
25,13,3,3,18,7,58,8,24,10,1,90,6,7,15,6,10,23,37,6,0,150
11,7,4,7,12,5,43,4,11,5,12,52,2,1,7,5,10,29,21,4,0,94
8,1,0,2,9,2,11,1,5,2,5,30,2,1,12,0,3,5,0,2,0,51
118,26,18,48,65,27,187,30,76,34,0,345,29,25,44,42,20,81,121,37,11,564
87,38,45,18,91,36,193,53,75,66,18,360,26,21,79,42,66,59,131,43,0,613
1,3,3,9,1,0,10,0,4,5,6,9,5,2,9,2,2,4,3,5,0,19
7,11,5,6,2,1,29,2,18,9,7,65,6,2,5,3,2,11,12,3,0,118
4,4,0,13,0,0,19,3,3,1,1,32,1,4,3,1,2,9,7,4,0,49
3,5,1,4,1,1,12,2,2,2,6,17,3,1,0,1,1,8,8,4,0,30
5,1,4,1,2,1,18,2,3,2,0,29,2,0,3,0,2,5,9,0,12,35
12,7,8,13,4,1,30,4,10,6,5,53,3,0,3,0,1,12,32,12,0,90
14,9,6,15,7,4,56,12,12,6,18,38,10,3,13,11,9,31,20,3,0,97
10,2,4,9,13,6,39,0,23,10,0,26,6,3,7,9,4,19,11,6,5,72
20,5,1,5,6,3,23,2,3,4,7,36,3,1,11,4,2,10,15,8,0,61
25,7,3,12,18,4,36,7,15,10,0,55,11,4,12,14,9,18,13,17,1,93
38,29,14,16,40,19,154,41,26,24,29,160,12,9,26,48,36,59,40,26,0,334
41,19,20,4,22,5,72,13,21,23,0,88,16,6,18,11,6,43,44,12,8,164
46,17,12,19,61,25,159,16,37,16,22,211,18,15,42,18,21,70,51,8,0,398
11,8,4,13,8,1,40,2,9,9,0,71,1,2,6,2,1,12,10,5,8,129
2,3,7,1,4,0,9,1,3,0,0,19,0,4,9,2,0,7,3,3,2,19
1,8,9,11,8,2,20,1,5,9,5,45,6,3,2,1,0,21,4,12,0,75
11,4,3,3,1,0,25,2,9,2,0,98,2,4,4,0,0,17,13,2,13,103
9,3,1,7,4,2,46,1,6,9,0,14,5,4,7,4,1,17,14,7,2,41
0,4,3,11,3,1,13,1,11,6,0,56,2,3,3,1,1,11,0,9,0,79
8,5,8,7,4,2,59,7,12,3,0,55,9,0,5,7,3,23,16,10,1,96
4,10,3,3,7,0,42,6,17,4,0,134,8,6,7,3,2,21,1,3,16,163
26,5,18,20,6,10,28,4,13,9,16,49,1,1,7,10,15,28,17,17,0,108
6,2,20,4,5,1,19,8,7,4,0,51,9,1,5,8,0,4,18,0,0,82
12,17,4,12,12,2,58,9,11,12,2,126,32,3,6,7,1,27,14,6,0,181
6,5,6,10,12,3,34,5,11,9,0,60,9,3,9,7,2,19,12,3,0,97
14,17,11,24,21,7,89,9,31,31,0,205,19,15,26,10,5,29,16,21,1,317
1,5,3,7,2,1,41,2,4,3,3,33,1,1,5,1,4,17,4,8,0,64
15,9,8,17,5,6,24,5,13,15,0,65,4,4,7,2,15,12,12,4,5,117
14,12,15,17,19,10,55,6,19,13,0,157,12,8,16,4,10,25,15,18,25,204
10,2,9,1,17,7,25,4,2,3,5,10,2,0,15,15,4,11,17,3,0,28
8,6,4,2,9,9,7,1,0,2,3,13,4,0,14,3,1,6,18,0,0,18
4,1,3,4,9,4,6,0,2,5,0,13,2,0,4,2,5,2,6,3,7,20
29,15,14,9,27,6,58,12,4,10,12,89,8,4,18,22,4,32,50,17,0,130
27,22,26,21,40,13,83,23,22,12,11,132,22,7,32,29,8,31,50,24,0,229
96,54,71,27,100,36,271,31,58,38,0,425,30,13,76,27,36,103,156,31,23,712
64,40,30,63,71,43,227,27,71,60,0,585,19,15,55,20,23,114,85,35,32,883
45,45,35,54,67,26,190,26,47,31,0,319,28,19,49,23,23,83,89,36,14,521
100,42,41,39,77,42,249,29,77,71,0,431,20,24,55,22,48,120,182,41,24,662
87,58,41,51,139,31,340,42,78,61,0,471,29,35,85,32,45,141,139,41,5,847
66,28,41,33,70,36,195,37,56,44,0,291,24,16,45,24,37,92,120,19,10,510
13,18,21,36,21,8,112,12,28,14,0,244,15,6,14,7,10,53,18,18,24,362
13,14,16,11,13,4,80,5,21,20,18,115,14,4,16,7,1,26,26,14,0,222
25,21,6,29,32,8,71,9,29,10,6,252,33,7,19,3,9,35,29,19,0,344
14,11,9,10,17,3,41,8,15,10,4,82,11,9,24,4,3,19,15,6,0,133
16,13,19,18,18,15,66,7,10,7,4,106,19,7,9,12,9,35,42,15,0,151
5,9,2,2,10,2,24,3,8,4,0,53,15,2,6,0,2,9,6,1,6,75
6,12,2,2,1,3,17,6,3,0,0,16,12,1,1,2,2,9,1,3,1,36
3,10,0,2,2,2,5,0,2,1,0,34,6,1,0,0,1,2,6,0,5,40
16,43,10,26,23,8,137,13,37,16,0,372,79,9,9,4,2,53,15,16,17,497
19,42,10,28,25,9,142,17,38,28,3,416,60,10,16,17,10,58,28,18,0,560
10,9,4,6,16,1,41,3,10,7,3,65,9,6,10,2,3,20,20,4,0,101
21,13,14,7,24,9,60,10,6,18,0,80,22,4,16,3,5,23,22,9,1,157
7,12,8,3,3,0,35,0,11,2,8,61,8,4,7,0,1,23,16,7,0,84
3,0,8,6,8,3,17,1,11,2,2,28,1,2,3,0,1,7,10,2,0,63
24,17,26,25,33,19,100,9,45,19,6,188,21,10,42,8,15,55,52,21,0,287
74,40,38,20,59,24,180,31,32,35,0,366,43,12,67,14,21,56,70,16,78,522
81,52,71,48,69,34,220,47,45,41,0,359,71,11,61,44,22,83,85,30,28,632
44,17,24,34,18,27,164,8,36,10,0,334,14,10,21,5,16,70,62,24,2,492
36,15,17,35,32,13,153,4,34,12,0,330,15,9,29,3,34,60,40,24,3,464
36,11,27,26,29,15,98,3,23,15,0,132,10,10,25,10,10,32,42,30,1,245
5,3,7,5,7,1,15,6,2,2,0,28,3,2,6,2,2,10,17,3,6,30
10,2,8,4,8,4,36,1,2,5,0,31,4,2,7,4,1,17,10,7,7,52
11,17,6,20,15,8,76,2,22,8,3,150,9,3,4,4,15,20,25,15,0,243
21,14,12,14,16,4,41,8,15,8,5,77,4,5,17,11,9,17,37,9,0,126
40,30,25,28,35,8,111,9,21,16,0,166,26,11,35,11,8,44,71,28,8,247
8,22,9,20,25,7,79,9,30,29,0,158,8,6,17,9,10,34,38,18,10,246
40,27,115,27,50,18,142,19,28,24,9,243,20,13,44,16,19,76,69,11,0,474
1,2,3,10,14,3,26,2,9,7,9,53,2,2,3,2,3,12,11,7,0,97
16,15,20,12,19,8,83,10,12,9,4,66,10,10,11,12,9,36,24,17,0,145
6,7,0,3,6,0,29,0,5,2,0,31,5,1,3,0,0,12,1,10,4,53
10,13,9,23,12,8,65,14,31,31,3,127,11,13,21,12,3,29,23,43,0,191
25,27,31,27,15,8,103,13,11,25,0,189,28,12,20,14,12,48,39,13,24,264
13,17,45,9,17,4,69,7,6,4,2,64,10,5,13,4,7,38,38,10,0,132
3,18,4,12,9,1,62,5,19,8,8,117,13,10,10,4,5,30,11,14,0,169
23,5,47,16,14,2,50,9,18,4,1,107,4,5,14,7,3,25,53,14,0,171
4,3,10,9,13,5,23,0,8,0,0,22,6,1,1,0,0,10,24,6,3,46
2,7,11,5,13,4,17,2,6,2,0,44,9,0,6,1,0,5,14,5,9,64
23,3,33,7,22,5,35,6,21,7,18,47,9,5,22,3,3,7,72,7,0,99
39,27,83,14,57,10,107,17,31,17,0,220,18,12,45,14,6,33,105,14,6,369
33,32,69,51,56,22,134,14,67,48,0,318,24,20,37,11,5,64,129,28,28,498
80,50,96,31,67,16,184,29,55,29,0,264,24,10,55,11,14,92,177,26,38,454
60,24,63,22,61,10,136,43,34,31,0,177,14,13,33,16,7,58,154,22,23,321
53,20,84,17,79,15,151,13,39,28,0,289,12,13,47,8,15,43,154,21,13,462
43,24,59,6,44,15,103,15,43,14,5,232,8,5,32,15,9,49,125,17,0,343
43,30,61,22,38,12,87,19,52,14,4,372,10,16,21,15,5,33,104,18,0,532
10,7,10,5,13,3,40,2,4,15,6,65,7,0,15,2,7,21,10,8,0,110
88,44,43,36,75,18,216,15,40,32,8,342,26,23,65,19,22,98,118,29,0,557
1,6,4,2,1,0,24,1,5,2,0,35,1,3,6,2,1,14,4,2,4,44
75,45,100,37,61,18,223,33,59,32,0,380,26,20,81,12,13,85,182,32,4,608
5,2,5,3,6,0,10,11,3,2,0,26,1,2,0,3,1,6,9,6,3,42
47,25,23,23,32,21,112,7,37,21,0,191,11,17,26,13,4,55,59,17,20,317
18,7,10,8,14,3,38,9,5,12,19,63,6,7,10,5,3,19,40,10,0,106
15,7,10,8,15,13,57,12,7,5,2,62,6,4,15,6,7,35,24,5,0,111
4,7,6,6,8,0,43,0,9,5,0,36,3,2,3,1,1,23,7,12,0,72
11,1,9,1,13,2,18,0,0,5,0,32,1,2,12,0,2,8,19,1,9,38
29,12,34,15,24,4,67,8,21,16,0,121,12,4,16,8,5,30,56,16,2,202
11,1,3,1,8,3,17,8,9,4,0,29,2,1,5,9,5,5,15,4,6,42
15,4,12,13,13,5,32,5,19,11,3,91,5,4,17,4,7,18,10,17,0,141
6,10,6,18,6,3,33,6,17,5,43,97,4,5,8,4,3,24,9,7,0,186
3,14,9,6,9,1,16,0,10,9,0,89,8,4,3,0,4,8,9,6,15,109
10,13,20,11,12,3,59,13,5,12,18,128,13,5,12,14,13,28,14,13,0,192
30,17,4,6,11,7,64,6,14,10,4,69,7,4,8,13,4,33,31,7,0,135
32,47,33,37,69,48,210,36,54,42,0,353,16,15,58,36,58,102,47,28,35,566
76,27,38,44,68,64,175,20,39,29,0,389,10,12,41,41,59,75,83,47,40,561
49,11,18,29,40,5,102,17,35,19,12,147,6,6,38,7,16,53,46,33,0,279
50,24,39,32,59,5,140,20,37,27,0,293,9,12,51,12,5,42,79,23,17,476
9,4,7,6,11,6,19,17,12,8,0,54,0,3,8,9,2,8,18,4,2,99
8,11,2,4,7,3,29,5,11,2,6,47,4,4,6,2,0,13,10,9,0,87
26,6,4,8,10,0,46,12,11,9,3,47,4,1,10,12,1,20,24,15,0,95
2,6,2,11,13,1,40,0,14,7,0,114,3,5,4,1,4,14,9,10,6,154
6,1,3,9,6,0,44,1,2,1,0,26,2,2,7,2,2,24,9,5,7,39
6,8,6,6,8,3,44,5,10,12,0,130,2,4,11,5,1,20,14,11,13,157
16,8,9,8,8,4,49,6,12,12,2,38,3,1,7,12,35,16,12,10,0,76
10,14,10,12,10,8,66,3,20,9,0,107,11,9,12,2,4,31,16,11,4,169
1,5,3,8,7,1,23,3,10,2,9,11,1,3,5,2,1,13,12,5,0,41
3,4,8,2,9,6,12,4,7,5,2,22,6,2,11,1,2,10,13,5,0,34
6,6,20,10,11,6,41,7,12,7,2,59,6,4,11,5,4,24,23,14,0,96
2,4,1,6,2,2,7,5,12,2,0,17,2,7,3,1,0,9,6,7,3,22
13,8,7,9,15,1,42,2,5,7,4,80,11,2,8,2,4,11,13,1,0,141
9,6,15,12,5,3,12,4,9,5,2,38,7,3,10,1,4,9,13,7,0,66
2,1,3,3,7,0,7,0,7,3,1,30,3,3,7,0,4,1,7,6,0,33
6,5,4,8,9,2,13,2,6,5,0,17,8,7,7,3,0,8,6,4,0,34
4,2,10,7,13,3,28,3,8,10,0,45,30,4,5,1,0,6,7,3,11,66
7,15,8,11,8,8,49,3,8,13,3,92,8,2,16,4,8,25,9,10,0,143
16,28,13,50,21,7,135,12,29,10,0,172,11,13,23,9,12,51,19,28,12,315
20,6,8,5,6,5,39,3,21,7,11,71,9,3,15,5,11,24,22,6,0,107
9,8,7,1,13,9,40,3,4,5,0,54,8,1,9,3,4,26,15,7,10,70
16,6,19,10,26,6,58,3,15,20,0,116,4,7,25,2,7,20,49,9,6,166
10,12,2,13,3,1,42,2,8,7,0,47,11,0,7,3,1,22,15,12,9,67
18,9,9,23,18,6,70,12,19,17,2,76,12,10,9,3,6,39,24,22,0,154
8,4,4,13,5,6,49,2,5,3,3,87,6,6,8,1,0,13,10,10,0,135
7,3,2,12,8,9,39,4,12,13,1,63,6,7,9,6,13,10,13,9,0,100
27,24,14,46,19,13,116,11,35,31,5,358,12,13,25,3,9,41,31,36,0,529
6,1,10,5,10,2,38,0,4,2,5,20,0,0,7,0,1,17,21,10,0,47
2,14,3,17,13,4,43,2,12,10,0,91,11,7,6,2,2,19,11,6,4,143
2,7,6,6,1,0,20,1,3,5,3,50,6,1,2,1,0,20,5,5,0,64
15,19,9,14,14,1,41,10,12,6,0,69,5,1,4,6,4,16,6,12,17,139
74,52,18,30,62,30,167,44,43,24,19,260,75,12,58,38,21,73,99,23,0,424
24,63,9,21,38,23,123,31,40,23,0,325,34,21,29,29,17,59,53,17,26,435
36,33,15,35,60,17,147,18,56,30,0,406,30,22,45,13,16,78,38,22,60,529
41,86,9,37,54,16,196,28,49,34,0,331,72,18,57,21,17,100,58,26,32,480
75,68,17,34,67,32,187,87,50,43,0,298,64,23,46,70,33,73,109,28,7,505
35,48,16,13,52,16,130,58,39,21,0,228,47,11,39,45,16,49,83,16,7,343
37,21,10,16,40,19,114,22,50,9,0,122,35,12,16,16,16,50,42,17,15,241
34,64,18,29,48,14,153,45,48,20,0,254,59,21,44,40,16,95,42,26,20,364
38,49,12,10,20,8,111,26,26,16,0,150,45,10,30,24,5,43,60,9,13,227
39,61,12,25,49,7,148,42,50,19,0,272,44,13,38,38,15,79,52,19,30,396
40,54,13,38,51,19,108,25,48,25,0,234,52,16,25,11,18,56,59,26,32,360
40,40,16,30,38,15,117,14,37,25,0,276,46,11,42,9,7,68,40,14,11,400
54,52,7,24,43,20,170,49,33,24,1,235,67,11,31,31,26,75,63,29,0,379
36,33,4,11,38,14,78,20,31,19,0,269,30,7,36,8,11,27,42,10,49,333
5,11,2,1,4,5,14,11,12,5,1,27,14,6,6,10,1,5,9,3,0,44
73,48,20,38,77,46,178,62,53,41,7,188,56,21,58,40,52,85,108,32,0,379
63,56,11,21,35,30,105,43,23,27,0,319,34,9,44,31,15,45,54,22,5,474
40,36,9,21,37,15,133,31,36,25,17,817,36,18,27,10,5,72,50,13,0,986
58,65,16,22,41,27,139,49,53,24,0,377,58,14,53,25,22,64,77,23,20,515
10,21,4,3,17,4,33,12,11,7,0,67,23,1,12,18,3,18,18,2,4,90
29,18,8,11,20,13,57,30,15,8,17,92,28,5,16,26,15,29,45,7,0,147
12,14,2,9,11,5,35,20,6,6,0,49,13,1,8,13,3,8,21,4,6,92
24,27,3,9,17,5,65,8,33,7,0,130,23,19,17,4,10,23,11,6,15,200
27,19,19,12,26,4,71,31,55,15,33,167,24,11,34,23,4,44,42,22,0,275
53,42,28,30,38,22,172,64,46,35,0,259,19,23,31,87,15,56,74,29,5,450
9,7,4,8,15,2,47,14,7,9,0,57,8,4,10,7,1,16,9,16,4,104
12,9,17,19,24,1,50,10,14,3,0,117,25,5,9,10,4,26,10,10,10,167
40,39,28,38,45,16,195,37,42,24,0,306,33,18,32,58,8,68,52,26,38,477
36,53,13,43,51,15,204,29,43,30,0,301,56,8,32,41,11,95,45,23,13,494
31,55,28,40,89,22,178,54,81,36,0,589,69,27,62,58,21,44,56,28,34,804
30,11,12,26,33,17,72,18,28,21,0,214,20,11,21,14,7,42,37,16,27,287
23,18,6,25,24,10,77,10,42,19,0,367,15,18,21,29,5,31,23,14,19,446
10,2,2,10,4,2,32,3,13,2,12,49,2,4,0,14,3,18,11,2,0,87
22,31,11,31,27,8,75,10,29,14,1,313,17,9,15,15,6,26,19,16,0,449
21,27,11,28,26,9,94,19,24,15,0,402,26,6,25,18,7,40,42,14,19,479
16,29,8,33,26,9,150,23,46,9,2,423,24,10,15,26,10,50,18,13,0,608
13,6,9,10,14,7,36,18,7,3,9,60,6,5,15,13,8,14,17,8,0,106
9,21,7,13,36,12,68,39,27,26,0,139,12,8,36,71,7,27,23,7,5,201
29,14,15,10,21,17,74,63,26,27,8,142,13,5,32,58,15,33,36,22,0,232
26,6,2,5,13,4,39,23,14,15,0,77,6,6,15,18,10,21,23,11,4,110
36,17,18,22,37,20,87,77,40,40,0,171,16,16,25,63,30,50,62,19,7,277
51,41,13,31,34,19,147,44,43,22,0,224,17,24,30,43,20,83,61,24,2,365
51,28,23,22,38,31,111,65,40,29,0,203,17,10,23,46,27,40,69,21,31,357
52,31,15,8,31,26,125,72,50,26,7,219,16,12,24,64,27,70,61,24,0,364
47,20,14,15,34,23,122,54,35,22,3,155,14,18,15,43,26,76,60,17,0,275
55,29,21,21,59,32,130,66,44,36,6,435,15,20,59,48,26,53,54,28,0,631
60,18,15,33,53,52,143,86,54,15,3,282,8,15,36,75,18,62,78,23,0,499
36,9,10,12,45,27,99,44,51,12,23,185,17,11,35,43,18,24,49,18,0,338
19,5,7,8,10,11,39,25,12,2,2,58,4,5,4,22,8,25,15,8,0,107
40,37,7,2,23,7,93,43,31,18,0,115,18,9,21,82,13,36,39,10,2,186
11,15,6,15,11,2,52,3,12,10,0,96,24,0,7,2,2,35,12,5,6,140
10,7,1,11,10,11,31,10,16,3,3,57,17,4,8,9,3,21,14,11,0,83
43,21,10,27,30,12,118,27,57,13,16,445,32,17,17,23,13,58,50,18,0,591
50,28,22,30,54,11,233,42,69,19,4,276,40,24,41,23,24,88,56,27,0,515
44,30,13,19,47,33,115,35,52,21,0,360,47,21,51,32,20,47,52,8,7,484
1,0,2,6,2,1,10,3,1,3,0,25,1,0,1,2,3,3,4,4,4,32
3,6,0,6,1,0,50,2,8,4,4,42,1,8,1,1,0,15,2,11,0,87
30,6,11,16,20,11,91,6,25,19,0,112,14,7,23,5,10,30,39,9,6,204
54,42,17,21,37,30,141,35,51,14,5,184,35,12,32,22,21,55,58,20,0,376
24,24,12,18,23,8,118,11,43,17,0,220,26,5,27,12,3,64,29,16,10,326
17,0,3,4,8,2,25,0,9,5,0,64,4,4,8,0,6,11,15,2,4,83
15,12,11,6,10,2,40,6,11,7,3,72,8,5,2,3,0,27,30,2,0,118
8,15,5,19,12,2,100,4,29,9,0,196,22,11,7,9,3,51,17,10,1,268
19,26,8,16,26,5,83,34,26,10,0,139,24,16,21,24,9,33,22,17,1,225
23,16,13,11,33,20,102,41,27,21,1,152,10,9,31,30,11,44,48,7,0,270
2,10,3,2,2,3,11,1,1,5,1,33,6,3,4,1,0,6,10,3,0,41
18,11,8,10,16,2,54,15,13,8,0,73,5,5,7,11,3,29,29,4,9,126
44,27,20,17,34,13,144,46,44,23,3,177,15,15,22,30,4,92,62,9,0,343
74,37,30,17,41,17,145,44,53,32,6,351,25,15,48,28,20,73,76,13,0,549
11,4,5,8,7,1,21,13,5,4,4,43,4,3,9,3,6,8,13,6,0,74
54,54,20,40,47,10,159,66,52,24,0,369,26,19,44,28,11,100,81,30,6,550
99,51,32,31,83,37,216,66,67,38,0,599,27,17,71,44,17,155,135,30,22,801
20,14,18,37,42,12,134,17,61,16,18,220,24,21,38,12,21,64,28,23,0,378
73,26,38,25,57,27,181,31,65,29,0,327,26,17,40,21,15,69,96,22,17,556
23,14,16,27,22,11,113,11,18,12,0,135,18,5,21,9,8,60,38,3,10,230
32,20,21,35,38,25,154,23,21,17,0,139,13,12,27,13,16,70,57,19,18,280
25,3,8,8,33,11,46,3,27,17,61,507,17,9,19,3,7,24,34,10,0,626
59,13,25,34,53,29,105,19,56,21,27,253,20,21,38,20,21,41,98,18,0,417
56,18,18,31,40,26,136,18,43,20,0,224,22,24,27,8,12,47,77,18,14,381
41,31,28,28,33,14,90,14,50,18,16,347,7,12,30,12,6,46,77,20,0,500
33,22,17,18,35,13,142,25,30,17,14,238,21,15,26,21,6,50,61,13,0,391
33,24,25,42,35,13,120,21,33,20,0,234,21,11,24,12,10,57,42,19,17,387
36,24,13,45,39,31,127,12,26,25,0,317,22,9,20,13,8,45,63,21,57,437
28,24,27,27,50,18,119,16,57,30,0,271,34,10,24,15,19,44,50,20,19,432
15,17,12,23,16,11,94,13,30,23,5,195,17,9,13,10,7,35,23,20,0,320
25,10,16,21,26,13,94,15,32,7,0,234,24,14,21,14,8,31,37,17,5,322
38,16,16,25,34,13,99,11,37,20,0,189,23,7,20,9,13,37,45,19,5,320
7,5,9,8,15,10,55,10,13,8,0,64,6,3,14,6,3,14,21,4,0,133
3,3,3,8,5,5,31,6,13,4,3,50,2,4,8,9,3,11,13,9,0,75
9,11,8,24,17,7,39,10,21,14,0,76,15,5,13,7,2,11,17,9,16,141
25,29,22,21,31,16,98,34,40,28,20,231,18,23,42,39,15,39,46,14,0,359
11,9,5,3,12,2,19,24,8,5,0,38,6,10,17,18,3,14,10,4,4,50
26,22,17,19,22,6,61,16,30,7,0,155,25,8,19,8,2,12,27,7,13,260
0,7,1,10,4,0,26,2,14,1,0,86,9,7,2,3,2,11,1,8,5,103
12,9,10,23,20,7,47,25,20,13,0,151,15,2,15,16,7,31,21,8,0,222
21,5,5,3,11,1,59,11,20,10,13,87,5,3,12,8,7,46,25,8,0,132
86,53,44,17,41,27,159,46,59,34,0,322,22,21,53,35,16,77,124,16,2,522
16,20,15,25,16,7,110,26,28,8,0,152,31,4,14,42,6,44,26,11,0,245
11,3,1,9,7,2,27,13,13,1,0,32,5,5,5,10,2,12,15,5,2,58
14,5,12,6,14,4,35,11,19,8,0,72,7,4,14,9,4,6,31,6,6,113
7,5,6,13,12,2,46,12,10,5,0,91,17,5,3,4,1,20,7,5,9,138
4,26,4,10,13,1,50,2,22,4,2,93,42,5,8,2,0,14,7,9,0,144
21,31,7,21,14,5,72,6,21,11,0,247,54,4,4,4,2,28,17,9,4,330
9,33,4,20,20,5,74,14,19,5,5,125,56,15,13,7,1,25,5,6,0,205
2,5,0,8,4,0,16,1,8,2,0,39,3,4,0,0,0,7,3,5,5,58
9,8,4,8,21,2,54,8,13,5,0,123,21,2,16,2,3,29,12,8,10,152
18,11,11,9,25,12,104,28,41,14,15,153,6,13,26,57,3,31,25,11,0,269
70,23,14,19,40,35,89,27,31,17,28,368,15,11,40,20,16,49,89,16,0,505
57,28,7,20,45,29,108,41,54,29,0,192,11,12,36,27,23,49,69,19,37,327
73,23,22,35,60,36,188,63,55,39,10,258,14,22,55,56,36,93,91,30,0,465
61,45,18,27,66,30,212,73,50,34,0,236,21,17,59,66,17,92,69,30,32,449
30,7,11,10,23,14,55,38,23,10,24,81,8,17,29,25,9,32,65,8,0,133
74,18,11,22,29,34,96,46,33,31,2,109,20,13,43,24,20,55,81,25,0,224
63,37,25,43,53,22,178,58,57,56,0,301,17,13,56,38,23,74,88,18,43,523
46,33,21,14,67,22,180,42,43,37,0,259,21,14,53,27,13,75,73,22,36,430
58,44,13,33,54,28,178,40,56,25,2,316,20,19,49,42,28,79,71,24,0,515
59,27,20,27,43,31,141,38,51,44,0,220,17,28,42,29,14,64,60,18,3,426
57,34,28,16,58,22,104,34,33,23,9,165,22,13,31,35,21,45,89,11,0,316
40,38,36,18,44,17,116,76,30,34,36,166,19,10,43,69,31,63,93,32,0,291
15,10,6,15,19,7,52,15,23,12,4,100,2,4,13,10,13,22,27,11,0,176
17,14,5,14,19,2,66,5,9,8,0,139,3,4,12,6,0,23,20,6,14,210
11,2,6,3,6,13,27,13,19,1,6,56,7,4,10,6,1,21,30,8,0,76
41,15,15,21,29,14,115,15,48,19,11,199,17,16,24,16,11,49,79,11,0,319
15,13,17,14,23,10,60,9,27,8,0,122,11,9,17,9,3,32,30,3,5,199
4,0,3,7,6,0,17,1,2,2,0,18,5,1,2,0,1,5,5,3,2,36
26,12,16,16,20,14,88,26,36,14,11,176,7,15,14,20,6,35,54,15,0,289
5,12,8,9,24,4,51,39,27,4,10,61,7,10,20,32,7,22,11,9,0,136
15,16,6,4,15,10,52,6,17,7,2,49,10,2,9,15,12,21,23,7,0,100
4,10,7,8,18,7,48,37,19,16,13,55,12,3,10,25,17,27,20,3,0,125
31,26,13,23,38,11,115,26,42,16,3,180,29,9,33,13,11,75,49,21,0,284
25,13,11,16,18,17,83,21,30,21,5,114,16,14,26,13,16,37,46,18,0,188
28,16,7,15,12,10,60,17,15,16,13,68,13,3,21,15,8,30,41,11,0,135
13,16,7,7,16,3,68,8,12,13,15,70,20,9,16,7,6,27,32,6,0,125
31,18,19,8,25,11,60,21,19,7,0,106,16,11,17,13,3,27,54,8,1,175
8,9,3,27,10,0,46,3,21,2,0,111,14,3,14,5,4,18,9,15,0,158
15,2,8,9,12,20,16,6,8,8,0,44,5,0,11,4,3,3,24,5,23,70
21,9,21,36,18,10,77,4,30,9,0,171,13,9,16,6,5,35,24,9,15,274
49,33,46,41,53,30,128,26,45,26,0,369,25,16,33,28,18,59,64,30,72,501
18,6,9,8,13,5,23,4,5,5,0,23,4,3,13,4,5,7,28,4,0,51
84,38,11,13,54,28,139,40,65,22,4,170,35,23,32,26,26,63,109,13,0,341
9,4,15,5,6,7,32,6,12,6,0,53,9,3,6,4,3,22,23,4,7,74
42,31,28,24,44,13,137,21,23,37,0,145,42,3,20,14,13,44,57,18,91,243
20,27,21,25,26,13,138,54,31,16,0,242,13,9,72,31,7,51,31,19,8,372
24,38,6,12,43,4,34,13,26,17,5,118,37,8,29,15,5,22,35,11,0,178
21,13,3,11,14,4,55,16,20,15,0,88,11,11,13,9,9,21,25,9,5,147
5,9,9,12,14,3,25,11,19,4,2,44,5,8,13,6,1,13,23,5,0,83
20,12,13,18,8,12,54,10,25,22,0,106,14,11,18,7,11,20,41,10,1,167
11,7,1,2,12,10,19,5,9,1,4,30,4,1,14,9,12,6,13,2,0,50
20,10,9,3,8,9,52,13,5,6,5,82,13,3,13,7,3,23,35,4,0,121
32,11,9,23,23,20,85,27,25,15,12,110,11,13,23,18,2,43,69,16,0,197
41,26,14,8,40,12,62,35,28,15,13,136,23,11,34,33,12,30,56,7,0,224
4,13,16,26,15,6,88,4,55,18,0,122,11,13,21,2,10,39,25,16,12,218
59,14,20,15,30,19,106,24,31,19,0,185,19,14,27,15,5,48,64,14,3,313
58,25,16,12,14,13,85,38,25,10,5,158,21,9,16,34,15,38,80,5,0,241
28,7,5,2,12,21,34,10,8,14,15,62,19,3,13,8,12,21,40,10,0,92
75,21,21,55,52,25,155,35,31,32,0,289,50,10,41,27,19,75,90,52,7,420
46,34,17,52,34,10,110,17,27,34,0,200,40,10,32,24,19,51,44,50,8,303
48,22,12,22,32,11,132,23,60,18,0,448,15,26,19,18,10,50,52,33,18,587
28,24,14,34,15,12,127,17,33,19,16,179,26,10,16,9,12,53,37,27,0,328
73,35,21,46,57,14,121,44,47,23,1,345,34,9,39,43,11,52,84,49,0,506
73,28,20,27,56,38,156,37,42,27,0,287,46,18,43,41,35,48,82,35,8,435
75,24,27,46,48,18,130,30,27,28,14,174,29,9,32,29,29,59,90,55,0,309
49,20,14,16,24,9,84,14,42,22,5,242,23,7,25,10,11,29,50,13,0,373
37,16,7,14,41,15,78,18,30,12,38,147,21,12,27,6,19,29,56,19,0,264
41,12,19,18,33,7,91,9,28,21,0,158,21,7,25,4,7,27,43,33,2,268
65,37,25,39,56,14,185,25,66,33,1,412,30,14,58,27,12,67,101,48,0,601
52,41,33,37,37,8,140,23,60,28,0,284,46,12,36,26,18,44,68,57,39,397
28,16,11,33,30,11,87,28,41,14,5,201,25,14,19,19,7,54,39,24,0,304
21,12,8,14,15,9,64,23,36,24,0,100,18,4,23,15,18,33,21,12,6,176
11,4,6,15,3,7,24,31,6,5,0,49,12,0,7,5,4,10,31,4,5,83
15,3,4,6,7,2,50,15,23,8,0,65,7,3,7,9,3,20,21,8,2,118
18,10,12,13,16,8,83,27,26,8,12,98,24,6,15,12,5,28,28,19,0,194
11,2,6,11,12,8,24,44,12,10,0,58,8,0,15,28,11,16,10,14,11,85
17,15,10,34,16,3,97,24,23,26,24,189,46,10,21,17,12,32,24,29,0,287
46,36,17,58,29,25,123,19,43,25,0,371,10,10,21,8,14,59,83,37,24,526
48,36,11,34,37,17,157,19,49,22,33,435,14,19,18,9,11,50,119,31,0,627
25,14,1,22,14,5,50,15,17,12,3,140,7,8,19,9,3,21,35,18,0,198
18,7,6,21,15,24,41,14,8,7,0,45,7,4,10,14,26,24,28,16,1,76
17,2,5,2,11,7,36,10,6,6,1,71,6,3,10,9,3,21,23,10,0,89
86,46,16,92,71,52,265,45,76,44,0,509,55,16,68,35,49,101,84,71,19,804
36,34,34,83,40,14,174,16,86,23,13,269,18,16,34,9,15,67,112,53,0,498
35,23,22,21,28,10,147,30,33,23,11,211,36,12,31,16,8,52,59,25,0,355
3,3,9,6,8,0,21,5,9,4,6,34,9,2,4,6,1,6,12,5,0,63
71,50,87,54,68,33,228,58,73,59,21,552,48,24,62,50,32,106,119,50,0,863
24,22,9,37,30,12,94,8,33,19,31,172,30,4,23,7,9,20,32,29,0,337
79,17,18,17,48,31,74,31,28,21,0,157,32,4,32,19,31,19,64,10,67,243
6,1,3,7,2,1,19,6,6,6,0,19,7,1,2,4,0,14,5,2,7,34
9,7,1,0,2,4,20,8,9,4,0,24,7,0,3,3,9,8,10,1,6,41
4,8,5,6,1,1,25,7,2,5,0,34,5,0,5,6,1,15,7,6,8,45
20,13,6,13,27,7,114,40,36,22,0,128,27,6,30,26,10,44,26,21,1,235
26,14,9,30,17,17,116,36,29,19,15,279,24,15,34,23,22,49,36,16,0,388
19,14,15,7,15,15,60,21,15,13,0,120,15,5,22,23,16,17,27,10,5,174
20,9,4,12,14,9,55,12,29,13,0,105,17,18,7,13,12,19,15,8,8,165
15,12,7,6,28,12,84,32,11,11,7,49,23,2,15,17,12,41,25,7,0,132
2,6,6,2,11,3,11,15,4,1,0,19,3,0,8,14,4,6,3,3,7,32
3,9,0,5,2,1,13,0,2,2,1,23,12,2,0,1,2,4,0,2,0,38
35,21,9,27,70,25,176,56,40,45,0,264,52,14,59,39,30,52,62,26,9,425
46,47,14,49,61,32,170,37,41,29,0,235,55,13,39,32,34,77,51,31,10,419
37,22,15,35,33,18,114,48,26,28,0,209,20,8,22,38,27,60,49,25,18,318
65,29,19,37,49,45,179,65,47,21,0,239,52,19,38,47,44,66,63,30,42,394
10,7,0,2,3,6,29,7,3,3,1,27,6,1,2,1,12,12,15,2,0,47
50,42,22,32,39,14,181,30,69,34,0,274,17,24,29,12,10,81,72,24,49,469
45,28,13,39,41,13,151,8,77,30,0,302,29,20,31,8,14,62,60,42,2,479
15,5,8,15,18,2,34,17,6,10,0,59,11,5,12,13,3,20,32,13,0,80
2,3,0,6,2,5,11,29,9,5,0,21,2,4,6,19,7,12,2,9,5,27
74,42,23,31,71,15,205,27,42,32,30,246,83,7,45,23,11,60,91,60,0,458
12,19,12,9,26,1,55,12,22,22,0,67,13,1,32,6,4,20,20,16,1,144
59,35,13,31,58,23,171,20,75,35,10,483,27,23,54,16,27,86,85,52,0,643
31,17,7,18,21,9,69,8,24,19,0,120,8,6,16,4,6,32,39,22,6,204
52,41,13,60,59,19,198,25,87,19,1,291,33,32,52,13,28,101,59,50,0,497
44,17,6,23,28,14,114,18,30,19,7,170,11,11,34,15,14,48,38,22,0,297
65,27,19,19,47,16,121,26,48,18,0,211,22,11,41,22,24,55,68,15,27,332
2,9,6,1,13,0,19,11,11,8,4,43,5,5,13,4,0,6,6,7,0,81
12,5,10,5,14,6,47,21,14,4,0,57,11,5,13,28,11,14,12,11,8,82
9,9,7,9,18,3,40,8,14,9,3,53,17,10,18,5,3,8,17,10,0,94
52,48,11,35,44,23,287,46,81,46,35,420,57,32,47,56,20,114,51,28,0,723
23,7,8,16,10,11,61,18,13,16,0,118,8,4,7,13,10,28,38,8,21,164
8,13,12,8,14,4,71,2,18,12,13,86,8,6,11,3,6,21,30,12,0,164
8,12,9,9,15,3,56,5,34,7,0,80,18,12,18,9,4,25,13,12,5,122
4,9,9,7,11,2,53,13,12,11,0,97,26,5,8,1,2,18,13,24,9,122
2,3,4,6,7,2,10,2,13,2,5,51,5,1,8,1,7,8,5,4,0,68
31,21,18,16,29,17,106,32,39,23,0,175,38,5,18,17,15,34,59,15,17,289
23,24,7,29,40,15,83,10,28,12,2,168,21,14,22,4,28,26,25,14,0,287
35,20,15,13,36,13,139,8,23,25,0,172,32,3,43,8,14,50,35,31,7,276
41,14,0,8,6,2,43,4,27,7,0,62,7,18,9,1,1,18,47,6,15,92
6,7,1,6,8,1,35,3,6,4,17,49,5,5,7,5,2,18,13,9,0,79
15,10,6,11,13,2,28,2,17,10,21,40,5,5,17,4,9,17,9,8,0,101
7,17,3,10,16,5,47,14,6,5,0,61,11,0,13,8,8,20,9,12,1,109
25,12,15,24,19,10,108,29,26,17,0,121,22,7,12,15,15,40,31,16,8,240
26,17,9,19,26,4,49,12,23,15,0,173,22,5,20,12,9,20,16,14,15,240
29,30,10,31,18,12,60,19,23,8,3,134,22,5,20,15,7,23,35,19,0,231
10,15,2,19,12,9,40,13,20,14,0,86,21,10,11,9,7,24,10,12,7,129
60,43,35,36,46,44,168,59,73,39,2,326,90,19,63,28,53,69,49,33,0,527
41,20,19,29,37,31,153,36,28,25,0,223,63,6,20,19,25,38,54,26,27,364
42,34,26,22,50,22,128,34,53,35,0,268,73,22,39,25,22,41,49,25,19,399
5,6,5,16,24,4,23,4,3,9,0,76,13,4,15,3,4,5,6,10,16,99
15,13,16,15,20,7,76,13,36,11,0,179,21,15,28,8,4,22,26,16,14,247
1,1,2,4,19,6,22,24,12,7,0,35,7,6,13,23,5,13,6,5,0,55
17,11,6,5,17,5,66,56,13,12,9,73,13,3,19,54,7,24,19,9,0,142
43,30,35,20,38,16,94,33,57,20,0,159,29,9,36,24,28,22,43,13,1,340
55,32,23,38,60,26,152,31,67,39,18,244,31,30,42,18,31,58,98,32,0,445
38,27,10,26,19,4,76,45,42,11,0,218,43,9,14,33,4,37,30,21,29,296
103,81,55,62,91,36,224,67,103,55,0,811,98,28,107,39,28,91,107,54,78,1058
18,8,8,26,23,7,69,20,42,19,0,107,14,9,21,10,7,35,65,12,1,173
5,2,5,11,10,17,37,6,18,10,0,74,7,2,8,5,22,14,8,5,29,95
36,17,16,9,22,7,82,15,21,14,3,94,33,14,22,13,11,34,24,12,0,173
5,9,5,9,8,6,39,9,15,11,6,35,16,5,11,8,6,15,6,8,0,82
29,24,17,36,38,22,185,42,46,31,12,261,33,21,36,38,24,79,46,19,0,447
40,28,24,37,38,7,145,27,49,30,5,253,28,18,47,20,17,72,73,41,0,367
10,7,3,2,4,5,28,13,6,3,1,27,7,2,4,6,12,14,11,9,0,44
19,8,4,5,6,7,41,5,11,9,0,91,6,3,7,3,7,15,20,7,5,133
96,52,35,57,72,20,406,60,93,44,0,574,73,34,54,45,32,142,130,66,42,891
12,4,9,17,24,7,62,15,30,12,13,116,9,12,22,15,9,17,21,9,0,207
17,3,9,14,14,6,60,20,11,5,10,59,21,9,14,6,8,17,25,17,0,111
4,7,10,16,19,8,27,9,15,12,0,85,22,1,9,8,6,18,17,12,11,108
24,6,4,17,13,3,43,13,22,5,5,59,16,7,17,5,2,9,35,13,0,110
30,6,6,26,18,3,64,9,22,13,1,92,17,12,14,4,6,26,25,16,0,170
6,7,6,8,3,7,26,8,12,7,4,49,8,1,7,2,12,12,9,4,0,88
4,7,0,18,12,2,11,10,15,6,0,43,4,7,8,3,3,9,5,15,2,72
13,13,6,28,21,7,57,11,22,13,9,108,21,12,11,2,17,20,9,13,0,203
47,57,23,70,37,22,225,34,68,31,6,318,33,24,39,32,83,80,37,62,0,548
49,28,22,52,87,29,188,25,70,60,0,383,22,23,66,33,68,66,60,46,20,589
44,46,22,84,56,17,167,21,61,47,0,394,37,13,39,11,44,74,45,55,40,601
82,45,29,65,73,55,162,29,67,47,0,624,31,23,67,31,76,67,79,37,10,857
4,5,3,18,13,12,42,1,9,9,10,53,3,5,11,4,12,12,11,13,0,108
8,2,1,8,17,6,68,36,15,8,0,71,14,2,15,27,11,24,14,7,4,122
44,21,18,37,42,17,107,14,75,46,21,406,13,36,27,18,15,36,53,39,0,611
29,33,18,48,34,13,135,18,56,22,0,299,14,17,13,16,11,65,44,33,17,475
40,14,6,23,27,4,112,8,51,21,0,189,6,19,21,6,5,47,43,32,10,306
41,31,9,36,30,11,130,17,61,17,0,244,27,22,43,14,14,57,43,25,27,355
23,26,18,13,17,5,96,18,26,10,0,102,48,10,15,18,0,36,30,15,8,174
51,20,10,28,38,13,143,17,48,28,0,277,22,18,20,12,7,46,72,24,21,431
4,2,1,1,3,1,9,0,3,0,0,11,4,5,0,0,4,3,1,6,1,11
1,1,0,0,0,0,8,5,7,2,4,5,0,3,4,9,0,4,5,2,0,6
29,6,12,9,18,7,47,19,11,4,0,85,9,2,21,9,10,16,33,6,1,140
5,5,3,6,4,1,13,2,7,4,4,19,4,2,9,2,2,11,11,5,0,27
32,22,20,33,43,9,115,13,27,26,0,183,13,17,28,6,17,53,50,30,5,304
9,9,3,12,13,10,34,1,27,13,5,69,9,6,15,3,2,30,20,7,0,113
14,0,3,4,13,1,25,9,12,19,0,54,23,1,4,3,4,6,11,7,8,87
21,19,24,12,29,10,62,10,17,23,14,168,7,5,21,5,11,31,53,11,0,265
6,0,0,0,8,0,23,0,8,3,10,14,4,2,5,0,3,1,5,3,0,49
23,22,2,19,25,7,48,6,15,11,13,107,10,4,23,4,5,14,36,11,0,191
19,5,0,1,11,1,24,1,6,2,0,56,4,5,10,2,2,8,23,6,2,64
31,4,2,17,13,8,40,6,22,10,9,53,3,12,19,6,6,8,28,13,0,120
112,13,7,32,45,10,83,12,43,29,14,137,10,12,45,9,9,34,115,26,0,277
28,21,8,32,40,7,63,3,14,9,0,117,10,11,18,9,2,26,41,18,16,191
8,12,1,8,8,1,30,4,9,9,10,124,6,3,17,1,4,8,7,5,0,173
7,5,1,8,7,2,44,1,15,2,0,73,4,6,2,1,1,13,0,3,1,134
21,4,1,14,20,10,43,10,11,6,0,81,6,9,8,3,4,17,26,19,5,124
46,16,15,28,52,10,138,15,44,34,0,272,19,19,34,5,11,51,49,31,15,436
73,26,15,32,69,11,117,16,40,38,11,343,28,11,70,9,11,39,73,26,0,524
107,23,12,42,67,30,167,18,47,25,0,325,15,16,53,15,21,80,121,31,46,465
107,27,17,25,62,17,196,19,45,31,1,239,18,27,61,15,13,99,105,31,0,417
106,32,8,34,84,24,155,10,69,30,0,340,16,22,78,12,11,76,110,21,24,522
106,26,12,34,82,24,155,24,38,27,8,243,20,24,70,20,19,73,124,34,0,395
87,19,12,30,61,23,144,11,39,22,0,155,18,15,58,10,24,56,108,29,18,267
87,24,10,38,72,6,159,16,42,31,0,280,30,10,65,18,5,57,63,37,32,448
89,23,12,40,61,27,166,17,51,20,0,260,18,16,75,17,14,66,80,45,1,434
99,26,11,42,59,28,171,18,45,22,16,246,23,18,58,13,8,89,105,46,0,423
86,21,7,20,51,23,100,17,32,21,0,199,15,11,37,11,22,45,88,28,8,312
130,41,14,25,90,16,216,31,52,42,12,301,27,18,83,18,23,73,125,33,0,570
92,23,15,37,52,21,169,8,52,19,0,292,19,20,58,16,12,65,94,24,16,456
87,39,16,56,69,15,199,19,57,23,0,250,22,13,59,7,9,103,102,45,4,466
96,22,12,21,43,18,120,9,48,21,0,272,11,17,46,7,9,62,86,28,25,391
80,31,15,33,66,16,140,24,53,24,8,352,21,18,49,17,9,63,84,27,0,554
78,54,12,46,52,16,151,12,57,18,0,293,27,30,58,6,14,62,60,41,33,458
95,10,14,20,48,26,94,7,38,23,25,207,13,19,41,11,25,23,90,32,0,353
101,38,17,40,76,22,214,25,77,45,0,413,26,34,66,13,17,90,134,46,36,606
58,36,11,48,54,16,152,13,51,38,0,405,17,14,44,8,15,82,65,22,42,573
104,65,17,36,101,30,222,16,100,50,0,517,39,37,84,13,16,93,110,49,67,750
60,31,12,31,50,14,171,21,66,24,0,345,13,31,34,16,18,70,63,35,23,522
91,50,20,37,93,33,217,18,103,53,0,504,29,30,69,12,22,111,117,42,24,763
110,24,19,52,65,29,154,17,65,36,27,561,21,22,67,15,27,77,124,53,0,753
5,10,7,13,16,5,30,9,13,5,0,44,3,13,13,10,6,22,12,14,2,62
34,31,17,37,68,13,200,25,81,55,5,363,28,24,54,21,14,74,67,34,0,613
24,10,15,12,11,4,52,20,10,16,0,131,2,2,12,8,4,24,34,8,6,205
15,14,12,27,10,11,59,5,22,18,9,123,14,14,15,1,6,25,50,13,0,187
26,9,11,21,22,10,51,0,25,10,0,87,2,10,14,0,4,24,37,15,14,152
27,15,21,18,23,12,74,7,14,12,0,81,4,4,18,6,4,39,51,16,24,138
87,38,60,37,61,23,152,20,74,33,1,218,28,19,59,12,16,71,124,22,0,453
18,8,31,11,17,11,28,3,12,9,0,80,1,4,13,0,0,10,46,8,14,132
10,1,8,1,5,14,23,1,7,2,0,26,3,3,4,5,1,3,19,7,3,50
23,14,34,22,34,7,97,13,27,15,8,160,23,10,13,13,6,36,67,20,0,266
41,11,39,22,31,15,103,11,39,14,0,274,0,1,35,8,7,59,66,32,4,388
13,7,8,15,22,6,81,5,25,4,2,106,6,9,10,5,7,32,13,14,0,198
24,6,13,14,19,7,63,9,30,9,1,114,8,14,20,4,16,47,33,7,0,160
25,19,36,37,30,11,142,10,37,28,0,186,41,6,21,5,6,52,60,14,26,330
111,59,20,32,81,50,242,26,74,32,0,381,42,27,58,19,37,130,114,26,39,616
76,36,12,36,69,14,227,23,70,27,0,362,18,22,53,17,17,108,77,29,42,569
112,40,20,28,87,31,260,29,49,40,0,357,30,15,70,22,24,137,127,22,28,578
46,38,6,29,39,20,149,11,45,32,0,230,21,10,41,14,11,84,55,18,12,379
75,38,14,31,56,14,178,26,52,29,0,467,20,24,50,16,15,81,82,27,31,634
92,44,18,38,60,16,239,22,60,29,0,389,30,22,47,15,6,124,96,42,36,589
88,34,25,45,75,34,254,19,74,27,0,504,18,22,73,24,22,142,91,35,23,729
72,39,19,36,68,33,186,24,41,30,0,316,27,10,60,21,35,85,85,27,1,513
36,37,11,18,37,20,175,11,29,34,19,240,18,12,41,5,19,78,69,17,0,408
61,27,21,27,43,25,148,22,46,24,0,352,18,16,39,20,17,67,65,27,1,526
35,10,6,13,40,20,100,9,26,14,0,181,9,6,24,8,9,67,53,7,8,263
75,22,19,19,56,20,160,17,47,26,0,641,19,9,52,16,17,59,79,18,41,792
16,5,11,6,12,2,48,2,14,10,1,105,2,3,17,2,8,23,23,8,0,146
21,19,7,19,33,15,65,8,25,10,0,121,10,7,20,7,13,44,34,18,13,177
19,15,14,19,48,8,91,17,25,17,0,162,18,12,30,13,13,62,27,17,0,243
5,6,7,12,10,4,20,0,14,4,0,44,6,1,15,0,3,15,9,5,3,69
57,24,2,22,46,13,125,8,42,31,39,290,26,9,38,9,4,56,68,19,0,470
80,26,27,33,42,42,168,34,50,41,8,241,22,24,31,17,40,57,166,26,0,409
28,13,14,13,17,6,64,8,29,12,0,174,10,13,15,3,4,41,38,15,7,232
28,8,29,8,16,18,45,15,19,7,0,99,12,2,18,11,8,19,53,2,13,154
95,26,30,37,69,49,146,15,71,39,0,296,24,18,51,13,13,83,96,28,70,477
6,4,1,5,6,0,21,4,13,0,0,24,0,2,7,1,0,5,4,3,5,57
7,7,6,6,9,5,34,3,11,7,1,84,2,4,9,1,2,13,13,5,0,131
26,28,23,48,49,25,197,40,54,31,14,542,7,13,41,25,7,102,69,24,0,789
59,29,51,43,66,18,221,24,87,23,0,314,24,26,43,21,26,92,93,31,45,534
34,25,39,43,42,16,160,8,46,21,0,286,14,22,45,32,13,55,68,23,9,439
2,9,7,12,11,10,37,4,18,4,7,61,16,6,9,4,8,20,12,8,0,99
48,31,29,45,30,11,174,9,48,21,0,389,12,21,32,3,9,87,62,27,15,567
18,9,15,13,23,17,77,21,32,17,0,240,10,5,28,11,9,36,21,7,1,354
18,4,7,8,12,3,34,2,13,3,0,47,0,2,8,0,6,16,17,5,9,88
25,13,9,26,26,5,59,1,32,11,5,180,8,14,20,4,11,28,32,28,0,247
25,14,6,30,19,8,100,5,36,13,0,188,7,15,19,4,3,28,41,14,2,311
2,10,8,10,8,3,25,7,33,9,0,63,0,14,15,2,2,12,14,11,3,105
17,9,10,23,33,16,88,8,33,23,0,159,14,8,27,3,14,48,19,23,1,262
13,4,5,15,13,8,40,7,21,14,0,94,7,3,15,2,11,9,14,12,17,144
30,12,40,19,28,19,78,2,39,14,0,177,6,16,36,4,5,33,71,17,6,264
63,26,62,62,56,22,194,22,93,51,3,385,28,34,63,13,24,93,132,49,0,603
17,9,27,26,29,13,57,2,42,11,0,127,13,22,18,4,9,29,36,21,7,201
8,10,5,4,14,0,39,3,15,3,7,55,9,7,8,6,5,12,23,6,0,87
28,14,7,13,22,11,77,11,24,11,0,85,17,6,11,5,24,39,41,15,1,144
8,2,4,11,13,5,41,3,10,13,0,47,5,3,14,1,6,19,22,4,8,75
93,69,37,64,97,38,293,59,94,102,0,455,84,54,64,32,42,114,93,37,182,699
12,4,0,10,7,2,34,7,14,3,0,53,4,2,3,3,2,12,26,13,5,76
125,72,72,80,113,46,298,42,156,62,0,773,27,53,87,22,37,124,209,63,5,1212
3,1,3,4,0,4,13,0,4,0,2,27,0,0,2,3,3,6,4,2,0,41
5,6,3,13,15,1,26,9,24,7,0,55,4,6,12,4,0,15,8,10,1,104
36,22,20,59,58,13,171,31,45,29,0,300,15,18,31,16,10,75,54,46,33,486
34,12,12,18,34,16,129,14,55,35,30,205,7,12,52,6,9,58,60,11,0,379
62,4,10,4,23,16,24,0,12,15,0,73,5,1,12,2,5,6,68,6,27,111
51,31,22,51,54,21,202,16,85,38,7,404,20,38,36,10,50,67,61,24,0,676
33,15,20,36,28,11,87,2,46,12,0,166,7,35,26,2,2,42,58,33,3,248
35,24,13,57,40,10,135,15,48,19,15,383,22,22,35,9,18,59,52,29,0,548
55,41,32,27,63,27,176,67,60,38,28,237,16,22,48,68,15,84,85,77,0,436
40,43,20,34,41,17,122,33,65,32,0,330,15,26,24,25,21,56,49,27,36,498
61,46,27,36,44,18,174,51,60,38,0,317,25,14,46,31,29,74,112,46,38,457
18,10,20,16,25,4,57,0,20,11,0,116,4,2,9,2,3,19,60,10,19,169
32,20,38,39,15,21,133,15,46,19,0,267,18,9,20,3,4,45,57,13,11,465
19,7,9,21,10,0,71,4,10,8,0,97,4,3,10,3,2,31,28,19,18,138
23,15,30,8,34,12,85,6,24,13,10,268,1,3,19,6,2,42,84,6,0,365
56,24,5,26,24,2,122,7,36,13,25,138,10,13,36,2,10,50,49,21,0,287
28,15,7,16,13,3,63,20,29,9,0,83,12,12,19,15,7,24,30,17,4,146
58,27,4,39,38,29,155,14,61,24,0,267,13,18,33,5,10,89,71,23,14,440
3,7,4,3,5,0,15,0,6,0,0,25,4,4,7,3,0,6,5,1,6,32
34,13,7,21,29,14,53,10,25,19,12,123,10,12,36,15,12,27,29,23,0,196
39,25,20,27,30,20,115,29,48,15,0,572,13,35,25,22,27,51,43,17,28,679
34,17,4,23,20,12,132,18,54,16,0,242,6,21,17,12,14,57,33,19,28,365
48,31,8,65,32,16,173,24,71,19,13,276,13,33,28,23,36,76,41,44,0,482
18,13,4,15,6,9,53,13,15,8,6,135,0,6,8,5,15,8,18,10,0,225
53,41,12,57,48,23,225,27,69,35,35,442,23,41,50,16,45,88,67,49,0,688
71,26,26,31,54,30,224,41,50,26,3,352,10,19,41,23,65,89,64,33,0,590
54,31,16,32,53,25,153,35,50,34,3,272,24,26,48,25,12,60,67,25,0,471
8,10,9,5,8,11,47,3,10,10,1,68,9,0,8,2,4,18,20,5,0,124
9,9,2,3,20,17,44,1,11,11,8,91,10,1,22,2,15,18,7,14,0,137
23,9,4,16,27,37,84,10,38,23,0,164,7,11,21,7,17,37,38,11,4,282
21,4,5,17,16,24,63,3,47,13,27,234,10,7,11,5,4,30,26,16,0,365
41,7,10,33,31,15,79,4,17,18,39,147,10,10,37,8,15,25,40,33,0,263
16,7,5,10,17,7,87,6,20,11,3,125,15,11,25,1,3,25,17,3,0,214
131,41,172,34,107,59,243,44,105,46,0,461,39,34,111,33,27,103,249,51,10,786
68,39,110,36,51,27,231,18,65,24,1,262,31,16,50,15,16,128,153,41,0,482
44,22,56,16,36,15,140,20,28,24,0,282,19,17,40,13,9,66,93,11,24,391
128,61,150,59,143,49,274,21,113,74,0,564,38,28,127,19,22,133,275,50,1,943
60,28,81,30,54,22,148,7,58,32,0,300,11,18,44,6,10,61,118,35,29,488
41,20,56,19,26,30,130,15,49,25,0,249,17,16,32,11,13,46,71,20,43,391
78,21,73,27,51,19,148,17,49,33,0,235,25,18,49,6,15,58,109,25,34,412
89,17,73,19,55,41,95,16,68,34,0,721,17,22,59,7,24,27,157,17,13,885
76,19,71,32,51,24,117,19,59,27,0,276,13,21,45,9,18,45,141,21,5,453
64,43,8,64,31,12,194,9,48,22,0,397,16,19,36,15,12,105,37,50,39,563
92,28,5,73,59,22,193,7,62,32,0,537,23,29,53,3,11,100,69,56,8,758
14,5,1,13,16,4,30,2,8,14,13,71,7,2,14,2,5,15,21,9,0,116
36,16,2,16,31,2,92,5,20,13,0,222,3,19,18,5,4,36,29,15,22,304
