A2,A3,A7,A8,A9,A997,A998,A999,B1,B1114,B720,B687,B7,B768,B47,B997,B998,B999
67,85,402,65,193,55,64,454,57,27,63,64,42,165,30,61,0,876
56,172,417,109,241,68,0,571,122,38,87,47,41,132,18,71,28,1050
47,70,188,28,117,28,13,202,52,13,45,59,18,60,12,49,0,385
59,54,250,45,138,46,0,236,43,27,35,74,23,94,19,62,24,427
28,64,233,58,156,41,0,280,21,23,47,64,13,96,10,44,17,525
60,143,341,87,222,35,5,484,163,20,50,59,12,142,8,62,0,861
28,38,202,22,79,24,12,156,15,19,15,53,5,90,4,17,0,343
51,126,406,78,249,55,11,600,62,18,62,107,22,141,17,68,0,1079
60,80,441,57,235,35,15,509,45,31,54,106,14,151,11,49,0,971
7,3,49,3,8,2,10,65,0,3,3,0,1,5,2,16,0,117
16,27,112,18,35,8,0,114,4,4,18,12,5,20,7,40,9,211
23,22,261,34,103,23,2,280,4,10,11,20,15,54,5,94,0,535
8,14,82,11,30,9,0,47,14,4,6,8,3,36,9,21,2,98
5,14,79,13,32,6,0,85,18,7,10,10,1,17,12,15,1,143
3,15,77,4,20,1,0,18,10,7,1,2,4,18,1,11,7,77
1,1,38,5,8,2,6,25,4,0,3,0,2,23,0,7,0,47
19,40,134,20,60,8,0,151,20,4,17,13,2,66,2,29,0,279
28,12,214,29,66,21,0,640,6,23,18,84,2,67,16,18,24,752
33,29,255,37,128,26,3,503,23,21,12,91,7,90,21,28,0,721
8,6,58,2,5,4,5,64,0,4,0,11,5,18,3,2,0,109
2,2,31,3,6,4,2,20,2,1,1,5,2,8,3,0,0,48
3,3,54,4,9,3,7,44,5,2,3,10,2,14,2,6,0,83
11,30,193,22,66,16,1,248,17,14,20,23,10,65,1,24,0,413
44,51,302,43,90,21,0,365,28,11,21,23,16,108,4,25,3,677
55,60,267,39,142,30,8,320,48,12,40,71,10,103,8,26,0,603
22,80,242,48,133,36,0,394,41,17,24,58,16,106,8,48,3,634
67,104,387,63,204,65,10,308,61,54,68,113,23,185,14,76,0,614
20,42,190,32,101,8,7,122,29,8,15,34,14,80,19,19,0,304
19,25,143,31,53,28,21,149,17,17,31,29,9,69,19,26,0,252
30,43,174,48,127,31,0,265,34,13,37,54,10,92,17,51,13,397
42,36,249,40,131,29,7,232,36,26,50,54,12,90,33,44,0,421
21,36,266,32,62,26,0,308,22,16,26,18,12,92,14,43,1,507
21,16,251,19,49,17,0,446,10,18,19,22,7,74,9,27,33,600
16,22,217,13,55,9,0,459,11,11,16,11,4,78,12,22,29,597
34,31,236,42,97,29,0,275,28,13,25,38,19,83,3,49,13,473
42,44,279,32,111,26,0,250,38,20,32,38,11,97,13,46,0,489
46,73,287,39,172,44,13,422,67,19,27,59,16,109,13,63,0,723
63,91,383,79,218,51,21,358,65,26,55,67,16,175,9,128,0,723
58,64,307,52,173,43,11,376,33,34,46,66,18,117,11,68,0,691
28,44,299,41,104,26,0,288,47,30,27,28,12,95,15,35,15,526
30,57,246,38,121,24,0,875,46,22,39,53,11,79,8,57,32,1044
19,39,255,22,174,14,24,309,53,21,30,30,22,69,14,38,0,579
18,24,205,14,213,17,0,350,34,10,27,36,26,69,10,23,26,580
46,81,214,49,160,23,0,255,56,13,24,56,8,116,1,51,8,495
0,8,18,2,12,4,1,29,2,1,8,10,3,4,2,11,0,33
2,4,66,3,11,5,0,30,1,7,6,3,3,28,2,16,1,54
18,22,96,18,34,12,3,135,5,2,12,4,6,33,10,36,0,230
23,31,170,16,87,11,1,254,5,12,20,20,6,75,7,52,0,396
41,52,181,32,140,29,88,310,54,20,38,45,12,58,17,71,0,558
27,36,323,38,255,22,51,352,75,19,45,45,24,127,16,53,0,700
34,50,254,48,173,37,12,204,30,18,58,68,7,101,13,56,0,461
11,13,53,13,27,2,8,52,12,6,7,2,5,18,4,12,0,113
6,20,80,5,39,5,7,86,15,6,4,6,2,40,1,8,0,166
14,56,191,21,97,18,0,222,48,9,30,33,15,77,10,25,8,364
21,10,140,28,75,9,0,135,17,10,16,24,14,36,5,16,5,275
5,15,99,10,26,7,4,103,17,4,2,8,2,26,0,11,0,199
11,26,92,19,40,8,3,87,21,4,11,10,5,33,5,21,0,176
45,65,283,43,154,41,16,332,49,22,44,76,22,96,8,75,0,587
22,26,159,34,80,23,0,249,12,10,27,33,12,50,7,43,7,392
1,0,44,3,8,2,12,40,0,4,2,3,3,12,3,8,0,75
3,8,49,0,12,8,0,89,7,2,1,5,0,7,7,9,10,121
6,8,85,14,20,4,13,122,0,6,9,5,4,33,7,12,0,196
11,10,98,8,33,3,0,158,7,2,17,12,17,29,12,11,6,208
9,21,84,14,61,2,12,70,14,2,9,14,5,28,5,31,0,165
44,53,382,52,196,62,43,468,40,43,63,70,27,106,38,86,0,827
4,14,72,7,75,13,0,113,18,5,7,10,5,10,0,5,4,234
47,98,388,64,203,44,0,524,59,23,25,39,8,138,9,64,1,1002
44,136,376,69,197,46,21,414,60,28,41,58,11,117,10,89,0,889
7,30,237,26,392,8,16,374,83,16,28,27,42,101,14,40,0,739
60,109,315,50,229,35,7,530,97,28,45,68,13,111,6,43,0,924
54,116,284,67,173,40,0,479,82,19,31,56,14,98,2,49,15,847
41,84,262,50,142,22,19,469,66,22,24,29,5,87,11,40,0,805
42,96,241,49,151,16,0,525,49,6,29,48,7,101,3,39,6,832
23,44,194,40,105,17,1,262,40,7,14,29,7,82,6,18,0,483
29,111,347,45,158,46,0,522,50,18,41,56,106,117,4,38,3,825
20,38,126,18,60,25,8,114,17,11,10,22,45,33,11,22,0,238
40,63,370,56,182,47,36,417,35,23,63,67,126,133,22,39,0,703
76,109,525,64,207,62,71,541,76,29,63,103,51,155,13,59,0,1106
26,18,159,14,42,11,5,242,10,7,12,11,8,84,7,31,0,347
48,77,266,65,164,28,4,260,63,12,55,48,19,131,13,71,0,500
53,85,309,72,158,30,63,374,33,15,47,74,13,110,9,52,0,791
55,66,348,65,195,51,36,331,23,20,33,73,15,87,15,232,0,649
24,62,272,43,117,23,0,325,25,13,20,42,10,114,3,35,18,586
45,72,383,44,207,30,0,352,65,10,43,51,33,137,14,85,15,680
32,53,280,43,154,32,54,257,15,11,72,76,22,102,6,49,0,552
11,23,79,10,36,3,0,71,8,5,6,9,2,33,6,21,2,141
28,28,207,24,91,11,0,183,13,8,15,28,12,52,7,44,11,382
67,119,455,94,268,73,35,492,158,27,54,90,32,160,20,84,0,978
6,5,42,8,8,5,1,32,4,5,5,5,2,16,3,8,0,59
6,9,64,8,25,10,0,69,6,10,3,4,1,14,3,24,1,125
8,19,67,6,42,9,0,70,10,8,15,18,8,32,3,15,3,109
23,101,196,32,141,21,27,222,97,19,32,25,10,82,14,60,0,424
15,34,136,11,81,10,7,221,14,12,16,14,5,61,3,21,0,369
45,97,418,52,163,38,1,476,55,37,29,189,6,108,13,31,0,822
23,117,365,69,221,23,0,466,69,19,44,62,9,114,8,75,14,870
34,59,277,53,202,40,0,326,34,9,35,66,11,87,13,81,20,635
77,97,455,96,287,63,9,479,36,20,75,133,26,278,45,83,0,867
2,0,23,0,6,4,5,27,1,2,0,6,0,11,1,2,0,44
0,0,19,3,8,1,0,37,0,3,1,1,0,7,0,5,6,45
8,4,85,12,17,1,0,108,7,6,10,0,4,26,6,13,13,150
4,1,76,3,18,2,8,42,1,5,4,0,2,24,7,9,0,102
23,31,224,36,103,18,38,335,18,16,33,21,10,61,9,56,0,584
75,132,386,95,208,46,11,494,84,37,48,97,8,157,6,91,0,919
1,1,25,0,4,1,7,29,4,3,5,2,0,14,0,1,0,39
3,3,24,4,9,1,0,35,2,0,1,1,0,8,2,6,0,59
11,2,52,5,14,0,0,82,3,8,4,3,1,13,2,2,6,124
18,13,117,14,32,14,0,188,12,4,9,10,6,43,6,29,22,255
27,44,265,28,95,11,6,486,26,12,23,31,10,95,20,27,0,718
39,29,288,24,104,24,0,462,24,16,20,35,4,94,16,39,49,673
49,16,339,50,91,20,0,399,22,15,32,29,12,98,21,38,7,690
29,26,113,33,63,22,4,131,16,2,15,34,6,26,5,27,0,290
5,15,70,14,123,7,20,130,48,1,8,9,12,13,1,12,0,280
16,66,202,30,384,8,6,340,169,14,19,21,27,30,10,82,0,680
16,29,152,10,232,9,14,267,64,16,25,28,13,57,7,22,0,497
5,18,75,10,91,4,0,117,30,1,2,0,4,30,1,13,20,219
14,39,295,28,524,21,36,541,115,22,41,29,47,104,12,38,0,1090
18,36,395,54,417,32,0,523,53,25,51,49,59,111,21,100,4,1002
59,104,403,63,228,50,2,484,88,40,73,68,48,113,35,82,0,846
26,42,171,28,99,34,63,254,60,24,43,38,14,49,10,49,0,430
23,82,182,40,134,14,0,239,59,6,19,20,10,91,8,30,0,471
4,1,69,5,10,11,0,86,0,3,0,5,1,12,0,8,22,135
32,47,187,27,135,30,23,222,61,8,27,30,64,62,8,14,0,429
11,36,247,26,39,16,0,189,16,15,16,23,9,63,3,28,1,390
10,1,12,3,14,5,0,5,1,1,2,9,0,12,0,7,4,14
26,20,152,15,33,17,5,183,9,14,13,14,4,62,13,29,0,293
9,37,185,36,63,8,0,186,64,17,32,18,10,67,14,11,8,283
7,2,68,5,17,5,0,112,5,8,6,9,1,12,9,6,1,159
32,67,228,29,84,28,0,269,73,19,12,33,11,66,2,24,6,491
33,81,215,43,127,24,0,291,83,17,31,33,16,77,3,35,1,518
7,16,89,6,30,9,0,45,13,1,11,3,1,33,0,51,0,89
34,35,225,39,125,23,13,254,20,22,40,50,14,80,38,24,0,460
31,28,278,24,80,18,25,309,32,25,38,22,9,102,44,24,0,497
4,6,106,21,30,6,0,120,0,8,6,11,4,34,6,18,3,203
4,4,37,3,4,6,0,15,0,8,2,6,0,12,3,7,1,34
25,8,155,7,45,20,33,182,4,17,23,9,4,46,7,17,0,348
24,19,215,26,94,20,6,342,4,26,36,42,6,73,13,43,0,503
9,4,77,5,18,11,6,76,0,9,1,2,1,8,2,14,0,169
14,2,116,9,18,6,5,100,0,13,12,5,3,46,7,6,0,178
8,3,62,7,14,3,0,66,2,4,3,4,0,16,7,22,6,99
2,2,26,8,7,4,0,27,1,0,2,8,0,6,5,10,5,39
4,1,53,9,16,5,0,46,3,3,5,0,3,21,2,14,8,75
2,10,42,8,12,6,0,39,9,1,1,0,1,27,1,4,5,70
6,8,79,3,11,4,0,125,6,11,7,2,0,30,6,7,0,167
3,2,46,3,18,2,6,73,0,2,1,0,0,19,5,2,0,124
5,3,50,0,7,4,0,94,4,0,0,1,0,22,1,6,10,119
8,5,45,8,16,4,1,28,1,3,8,1,1,5,7,13,0,76
9,17,86,16,36,2,15,132,8,5,8,3,9,37,6,14,0,223
18,13,97,8,20,8,0,150,8,2,9,9,1,21,15,25,10,214
20,10,77,17,18,5,2,108,0,12,20,12,5,31,13,11,0,153
12,10,64,19,27,6,2,124,5,8,10,15,0,14,5,25,0,182
32,16,187,24,76,24,54,158,20,23,37,22,16,53,14,41,0,345
6,15,57,9,41,7,8,93,30,4,8,1,3,17,4,2,0,167
27,25,290,35,132,28,13,300,29,18,25,29,17,121,21,46,0,544
7,20,59,11,41,13,9,69,19,5,16,10,9,18,5,15,0,132
31,66,269,66,216,43,27,302,63,22,63,43,13,84,24,61,0,647
72,85,307,44,216,57,31,389,63,29,53,77,31,126,19,73,0,730
49,55,179,38,135,42,53,274,36,20,65,56,16,58,15,78,0,481
34,55,141,29,134,31,25,151,36,20,36,87,12,63,6,46,0,294
9,14,94,8,39,7,8,108,19,9,13,11,9,25,2,15,0,184
8,12,57,14,59,8,0,56,19,4,12,15,2,21,3,16,0,122
16,74,252,30,157,42,18,258,63,29,26,53,20,66,9,63,0,518
17,11,157,11,59,22,43,192,20,8,18,15,6,34,3,46,0,362
14,25,133,21,76,11,18,169,15,14,13,13,9,33,11,76,0,283
22,34,161,29,181,15,32,173,45,12,28,33,5,56,2,70,0,396
23,56,227,29,162,25,14,293,41,19,28,25,14,59,11,75,0,557
24,32,286,41,102,25,0,213,21,13,37,23,21,88,21,32,10,457
19,21,263,27,94,25,0,519,21,15,9,17,4,82,22,79,24,695
28,45,256,42,214,29,0,300,39,21,44,37,23,74,25,95,8,548
17,19,324,30,121,27,5,386,10,29,21,25,36,63,33,70,0,642
6,11,170,11,46,7,8,558,7,13,7,8,6,33,4,21,0,718
5,3,60,5,7,1,0,46,6,2,1,1,0,14,1,12,11,79
33,85,212,43,140,38,0,326,59,15,32,38,4,60,12,65,8,584
17,27,169,21,80,14,5,181,11,3,11,21,9,53,8,39,0,359
3,4,47,8,20,2,0,41,5,3,4,4,1,13,3,6,2,84
7,2,56,5,22,4,4,74,5,3,7,13,2,12,1,10,0,121
40,48,247,44,98,20,8,243,8,17,21,54,16,113,17,91,0,411
16,23,177,25,61,15,0,151,24,8,14,12,5,40,1,35,2,327
4,13,84,6,191,9,0,170,32,6,13,27,14,35,2,11,5,332
14,31,309,30,492,20,3,535,69,18,57,43,45,94,17,47,0,1044
25,34,167,31,93,21,35,176,31,24,36,61,8,56,4,28,0,334
27,26,157,29,52,30,0,220,23,10,30,26,4,60,9,28,12,339
83,116,444,79,250,75,12,627,35,46,65,111,42,146,24,98,0,1119
51,64,270,54,134,34,0,279,17,16,61,40,18,89,20,99,1,525
38,21,147,25,79,23,40,164,14,14,46,54,15,82,9,39,0,264
59,68,292,70,224,38,0,470,34,26,64,80,23,122,14,48,126,684
78,96,370,49,227,55,153,383,35,36,70,115,17,142,25,74,0,897
38,58,331,65,186,41,0,332,27,43,57,71,35,151,27,55,18,567
24,15,198,13,53,23,0,535,5,16,16,25,18,105,20,16,30,610
0,0,0,0,0,0,6,109,0,0,0,0,0,2,0,2,0,111
16,17,106,16,17,10,0,403,1,13,17,7,18,35,9,16,4,465
15,19,106,25,32,7,0,152,7,8,14,17,4,39,2,19,28,218
2,17,97,11,40,14,0,57,5,7,5,19,2,46,3,11,7,133
7,5,74,9,28,3,0,280,2,6,12,3,2,21,3,10,20,327
25,27,94,22,87,35,145,851,11,8,37,95,17,48,6,31,0,1033
24,13,180,26,44,28,43,272,2,16,23,30,14,74,11,22,0,438
19,18,149,13,57,19,0,283,10,10,38,18,7,84,14,16,16,345
15,20,186,21,64,27,0,299,12,14,23,34,14,67,17,11,4,436
70,107,311,58,202,68,76,528,53,34,68,90,17,157,31,63,0,907
10,27,130,22,47,15,6,181,8,7,17,29,5,44,2,20,0,306
46,46,222,41,113,56,22,304,12,30,46,84,15,95,15,41,0,512
24,23,146,22,89,37,0,176,8,17,26,41,6,85,8,24,23,279
29,27,191,21,79,39,0,282,10,29,32,27,9,73,24,19,6,439
16,23,176,16,40,15,7,253,16,22,23,18,3,60,15,17,0,372
27,28,118,19,97,24,11,189,15,11,33,45,8,60,8,26,0,307
26,35,134,25,106,19,17,202,9,11,37,62,11,84,11,30,0,309
25,20,96,17,66,29,0,145,7,10,17,30,9,63,10,26,7,219
19,24,128,25,69,20,0,181,9,9,21,45,11,70,15,23,18,245
24,21,132,19,68,15,0,248,10,17,25,29,10,60,13,22,16,325
35,62,395,57,137,36,0,433,14,23,50,59,20,177,43,63,23,683
49,72,303,44,141,56,0,691,37,36,46,65,29,109,10,60,56,908
38,58,328,55,115,32,0,624,28,31,67,43,20,106,27,60,18,850
42,54,255,49,123,40,3,455,33,21,47,55,21,118,15,42,0,669
11,27,153,24,52,24,0,558,9,13,25,26,9,39,0,20,85,623
11,19,121,13,29,23,0,459,8,13,21,21,11,42,5,17,4,533
48,28,305,24,98,31,0,745,5,38,26,36,16,114,7,37,23,977
42,54,307,34,137,28,19,306,13,35,54,48,25,133,20,47,0,552
44,73,329,57,169,41,8,283,73,30,69,73,40,141,30,43,0,505
43,65,345,61,192,47,1,528,32,32,56,86,38,159,26,68,0,785
54,86,444,74,207,50,61,419,29,32,54,57,22,181,46,202,0,772
41,82,284,39,167,58,43,272,40,25,56,94,47,134,26,78,0,486
49,86,303,72,203,71,50,397,55,22,85,96,33,130,30,72,0,708
75,142,497,66,292,84,98,477,106,46,90,172,43,205,41,89,0,939
39,18,268,38,66,30,0,823,8,30,30,21,17,72,32,35,27,1010
54,103,342,56,183,76,38,365,63,24,81,133,27,149,53,70,0,617
19,56,93,30,93,33,0,194,9,5,56,62,10,42,7,40,31,256
44,37,95,26,94,37,15,204,22,12,46,62,16,44,7,33,0,310
28,38,77,34,88,30,6,202,21,7,59,53,14,36,10,34,0,269
44,58,178,41,142,36,0,284,16,14,44,98,16,85,22,40,37,411
24,38,97,30,108,39,6,171,16,11,47,76,8,47,12,31,0,265
23,22,104,20,67,27,0,188,10,16,36,36,8,42,8,16,14,265
40,35,112,30,90,23,0,268,12,6,31,56,5,56,6,41,11,374
37,41,194,37,106,34,0,445,20,21,54,65,8,83,20,44,47,532
22,24,222,23,85,30,0,347,7,22,25,32,22,86,18,31,15,495
16,20,112,22,51,14,0,242,7,11,32,14,16,52,8,19,10,308
29,19,225,32,84,23,0,335,6,18,29,18,10,96,19,30,37,484
29,17,219,21,55,16,0,333,6,25,24,15,3,82,7,25,10,493
29,20,172,19,73,25,0,300,8,13,26,30,10,89,15,22,2,423
29,34,122,29,72,32,0,306,7,20,37,42,6,70,10,28,0,404
19,34,155,26,82,21,0,420,10,11,29,40,3,43,6,35,76,504
11,2,37,5,17,3,89,620,1,7,3,6,0,11,6,0,0,750
45,41,209,48,120,43,0,479,15,23,34,56,6,62,21,37,39,692
25,25,144,28,67,23,29,262,10,18,28,34,7,64,23,28,0,391
37,33,251,29,87,28,0,461,2,23,42,38,15,110,24,28,3,641
26,29,170,19,59,9,7,265,10,24,23,23,6,67,11,19,0,401
17,21,158,13,70,22,1,245,8,18,30,18,8,65,13,25,0,362
30,29,202,20,81,24,0,371,8,17,39,16,7,85,19,31,32,503
20,44,203,46,105,33,0,318,4,25,42,45,10,75,14,44,13,497
19,4,154,15,39,17,26,343,6,16,25,9,9,42,14,19,0,477
17,16,140,23,31,16,6,299,6,20,12,18,8,52,12,19,0,401
16,26,172,28,71,28,0,570,9,21,20,33,4,54,12,21,5,732
14,9,57,7,9,5,14,356,9,4,5,5,6,17,5,11,0,409
21,20,184,25,60,14,13,243,9,21,19,29,8,68,10,19,0,397
30,20,181,26,71,22,0,247,7,23,10,28,9,78,14,23,7,398
34,42,212,27,89,22,29,465,5,19,37,54,6,82,13,38,0,666
9,5,56,9,18,8,50,540,3,7,5,4,7,16,4,6,0,643
3,1,12,4,9,4,0,73,1,0,2,1,1,6,0,1,21,73
31,21,198,21,68,28,0,452,16,26,30,26,11,90,29,40,18,533
30,21,124,23,82,18,0,207,11,14,45,28,11,62,9,22,8,295
16,25,48,17,70,30,30,131,4,3,33,55,3,32,3,23,0,211
8,14,21,21,31,16,10,90,2,2,18,19,2,12,2,12,0,142
23,26,55,22,54,11,1,238,8,3,28,41,6,31,6,20,0,287
37,35,105,29,85,35,0,1660,16,22,42,72,2,51,6,28,35,1712
12,8,96,16,46,12,0,167,7,17,21,8,3,39,3,14,2,243
21,32,180,21,75,15,0,295,6,8,36,38,2,75,13,25,28,408
29,28,174,16,78,19,0,395,19,20,32,30,7,75,13,21,22,500
31,41,245,24,111,15,0,348,11,23,36,49,10,92,19,18,28,529
29,52,163,38,108,76,0,307,20,16,54,58,6,75,14,30,57,443
36,57,262,32,121,59,35,603,22,38,43,92,16,92,15,40,0,847
48,48,269,42,142,45,0,500,23,24,43,60,25,126,19,59,28,687
41,55,302,50,111,56,0,497,19,38,45,37,11,91,12,44,50,765
41,33,250,63,104,28,0,548,11,36,56,35,9,74,13,30,31,772
35,31,253,32,90,19,0,382,9,28,34,20,9,102,19,25,14,582
24,12,212,29,51,19,0,429,3,22,19,19,6,68,10,17,20,592
29,15,227,29,78,16,0,400,6,33,32,19,11,77,7,20,18,571
17,36,216,36,76,22,0,399,6,25,27,21,12,69,9,40,33,560
30,21,237,33,82,26,4,361,4,24,18,31,11,123,13,19,0,551
32,34,253,21,82,29,0,406,10,33,25,42,15,89,20,24,21,578
12,16,209,16,52,14,9,605,4,18,11,13,8,83,21,13,0,762
30,34,245,26,67,25,0,404,16,19,27,36,12,79,16,27,31,568
33,32,255,24,75,25,0,343,19,22,23,28,13,101,12,27,21,521
28,35,255,32,94,31,0,398,18,29,33,30,17,90,24,32,10,590
31,56,246,40,99,32,0,301,19,42,37,38,11,95,11,39,12,501
35,28,318,31,85,30,0,435,9,26,34,29,14,101,27,33,65,624
47,37,277,32,100,32,0,324,16,17,41,35,25,124,24,34,22,511
45,46,242,28,134,26,0,337,20,26,39,58,23,100,18,38,31,505
31,55,240,51,140,31,0,336,31,23,45,49,25,95,11,37,11,557
32,28,239,25,114,18,0,326,13,20,25,33,18,89,18,32,38,496
28,34,235,44,84,27,0,308,15,28,32,38,16,86,23,31,25,466
31,41,232,31,83,24,0,379,16,24,37,17,11,86,10,20,49,551
24,23,256,19,70,19,0,299,2,22,25,25,17,90,19,25,19,466
27,31,222,19,74,16,0,407,13,8,32,21,16,85,11,22,9,579
26,23,233,22,90,31,0,401,5,28,25,33,18,97,11,21,19,569
19,15,252,31,73,22,0,395,6,25,32,16,13,87,16,26,17,569
20,23,255,20,60,12,0,387,10,27,25,13,8,82,15,30,18,549
23,27,289,23,56,24,0,256,8,31,26,28,8,119,15,16,23,424
31,36,236,31,85,25,0,272,14,26,41,36,20,104,19,23,11,422
31,29,253,41,106,30,0,419,18,29,41,40,18,87,12,43,18,603
36,31,202,28,110,23,0,381,13,12,36,41,14,67,9,41,1,577
24,39,230,33,92,17,2,336,17,24,29,38,14,70,16,41,0,524
29,24,207,34,111,17,0,354,7,25,30,29,17,65,9,44,24,526
32,33,212,40,94,26,0,443,9,21,30,43,8,55,11,38,40,625
18,26,193,26,79,24,0,303,10,22,30,27,7,82,12,19,27,433
35,45,298,38,156,25,28,322,23,23,39,61,17,144,16,48,0,576
12,41,259,34,90,28,0,336,5,17,37,28,10,100,12,25,1,565
33,35,233,19,107,15,0,324,2,23,28,26,15,97,18,24,24,509
19,21,237,19,87,20,0,338,6,21,17,22,5,106,16,25,24,499
21,20,235,31,52,23,0,398,7,27,25,29,11,77,14,19,18,553
35,33,252,21,95,22,0,334,14,30,43,35,13,96,20,19,7,515
29,28,231,21,94,31,0,350,10,34,24,32,18,94,22,26,25,499
26,11,162,23,65,17,0,339,13,18,20,17,10,67,15,11,6,466
33,22,231,27,74,29,0,476,2,27,31,34,13,100,13,36,32,604
34,41,308,38,130,26,0,342,13,23,38,36,23,127,15,30,49,565
26,42,258,20,78,28,0,354,16,27,23,32,21,93,17,31,15,531
29,51,283,31,104,21,0,289,11,27,32,37,13,110,21,34,25,498
24,25,209,30,60,11,0,471,7,28,27,28,12,54,11,23,33,607
31,28,263,29,111,25,5,357,24,26,25,38,11,96,24,38,0,567
20,31,266,32,110,29,0,311,11,25,24,33,18,124,28,28,15,493
23,23,252,34,60,29,0,572,6,30,32,35,13,62,12,34,98,671
35,52,244,43,134,32,0,316,18,25,47,74,15,113,13,36,39,476
33,49,207,44,144,55,10,555,7,37,44,35,21,87,8,49,0,809
29,28,241,34,107,30,0,506,11,29,42,37,13,75,16,34,10,708
56,44,258,65,120,33,0,539,10,29,52,51,21,78,19,35,39,781
60,56,250,47,128,42,0,444,19,27,82,54,18,90,9,47,10,671
32,32,302,45,113,31,0,447,7,35,45,52,9,111,26,47,27,643
24,36,198,26,87,13,0,402,15,16,33,16,5,78,10,21,42,550
21,7,205,16,65,8,0,642,9,16,11,14,11,46,10,21,10,816
5,4,57,6,15,8,0,63,2,3,0,5,10,23,10,8,12,85
28,60,234,35,146,77,0,355,28,16,46,78,19,111,16,38,47,536
28,39,161,37,89,25,0,391,9,19,42,35,10,59,7,26,67,496
11,22,141,19,57,11,0,295,11,12,21,19,6,59,15,21,18,374
12,9,214,14,69,15,0,495,4,21,17,19,14,69,10,28,2,644
27,26,222,37,88,24,9,374,14,37,29,25,12,81,16,36,0,557
15,26,180,32,69,20,0,423,12,16,18,26,12,67,7,20,33,554
27,23,300,35,79,17,0,532,9,35,32,10,12,89,12,46,37,731
28,32,280,50,103,28,14,551,7,32,47,30,16,95,11,58,0,790
31,19,308,37,94,35,0,497,8,45,40,32,17,91,9,45,22,712
34,35,229,47,90,19,0,431,6,33,33,25,19,73,9,31,23,633
22,26,180,29,60,15,0,418,4,21,23,21,10,69,8,30,8,556
31,28,256,34,78,24,0,607,8,31,23,25,14,73,21,23,22,818
21,29,229,23,78,28,0,450,8,27,33,24,14,82,8,32,32,598
29,21,282,19,63,22,0,250,9,27,22,12,15,106,22,20,6,447
27,35,250,32,102,18,0,310,6,28,39,34,10,98,23,24,15,497
28,24,259,32,74,24,5,344,4,29,40,32,17,100,18,35,0,515
23,32,258,30,67,23,0,288,16,28,41,25,21,102,19,26,3,440
7,6,82,5,23,10,0,98,1,5,7,5,4,27,7,7,8,160
22,14,193,28,95,27,0,301,9,24,29,34,13,70,14,19,23,445
30,23,290,38,76,28,0,377,16,11,31,27,21,107,25,33,2,589
40,29,169,34,95,12,0,452,10,18,46,37,7,66,5,35,25,582
34,41,324,46,120,57,0,5176,7,49,46,55,27,100,17,50,154,5293
37,26,213,28,74,13,5,321,13,15,17,17,12,96,19,25,0,503
16,31,257,34,85,21,2,383,12,24,37,35,15,89,16,30,0,571
46,34,294,33,149,29,0,527,13,27,46,63,18,134,20,31,39,721
20,36,176,29,71,25,0,406,10,28,31,28,14,55,7,39,2,549
29,38,274,30,104,25,7,374,13,22,31,33,11,95,21,37,0,618
21,35,243,23,110,28,0,213,17,12,14,41,40,85,33,28,46,357
11,24,190,29,73,17,0,220,14,18,25,30,23,63,21,31,11,328
25,22,194,28,81,22,0,214,14,14,32,30,33,77,16,29,21,320
26,21,232,26,84,25,0,275,5,13,16,13,29,93,11,25,13,471
24,35,244,43,99,29,0,248,14,17,37,37,54,58,13,29,8,455
17,11,151,16,59,15,8,400,11,13,15,13,19,37,10,13,0,546
12,18,198,22,56,19,0,235,7,22,21,19,13,60,17,19,2,380
27,30,242,26,79,24,0,325,9,27,30,37,15,79,15,42,38,461
14,8,146,17,43,15,0,165,2,17,19,9,8,49,7,7,20,270
35,23,262,32,99,28,0,338,6,23,36,30,16,85,12,33,45,531
29,22,195,29,85,18,0,300,8,30,28,30,13,73,17,19,28,432
36,37,200,33,121,36,0,244,16,17,52,55,8,77,14,29,24,415
28,26,239,34,75,16,0,299,5,10,32,18,16,95,16,19,30,476
26,28,188,16,73,18,0,162,10,8,18,34,17,82,10,21,19,292
22,27,171,26,89,31,0,230,15,10,28,50,47,66,10,35,15,320
23,28,187,22,92,21,0,208,7,11,18,36,32,71,11,33,30,332
16,20,135,31,44,16,0,167,10,10,16,18,18,50,10,21,1,275
25,17,154,12,79,16,0,233,8,6,15,29,14,48,15,23,15,363
16,19,155,22,63,16,0,307,7,14,35,31,8,42,12,38,19,392
4,12,119,14,39,17,0,251,7,15,10,11,14,36,7,13,1,342
14,17,193,15,61,16,0,226,4,13,14,29,16,63,13,16,2,372
22,31,172,26,100,24,0,384,11,21,39,34,17,70,14,35,15,503
23,26,193,20,77,24,0,483,13,25,31,31,7,73,6,21,39,600
22,21,143,16,58,12,0,383,3,15,26,16,7,44,9,20,34,481
18,17,166,16,75,24,0,506,11,18,30,21,7,58,10,25,47,595
18,40,133,12,71,20,0,177,19,13,21,28,12,60,5,28,4,281
13,26,136,22,81,20,8,159,19,13,27,29,12,44,21,37,0,263
14,13,141,21,57,18,0,339,3,13,18,18,9,60,13,14,33,422
21,15,190,22,74,24,0,346,16,19,26,35,7,69,7,25,4,484
22,24,197,36,77,21,0,309,13,7,42,29,8,53,13,23,13,485
37,35,156,38,103,23,0,191,17,6,32,47,15,81,4,41,19,321
27,22,159,33,65,22,0,302,11,13,28,25,12,48,8,23,43,419
24,14,179,12,57,13,0,274,2,11,25,21,9,59,12,29,18,387
18,15,159,12,36,9,0,321,10,8,10,18,8,47,9,14,27,419
21,20,128,14,46,13,0,548,5,12,23,17,6,42,8,23,28,626
17,24,163,11,47,12,0,519,8,7,14,20,8,47,15,13,34,627
15,26,144,22,72,14,0,258,3,20,32,30,3,64,11,26,23,339
15,27,226,27,58,31,0,281,20,19,18,26,12,88,11,21,35,415
15,14,209,24,68,19,0,238,7,24,20,16,13,60,11,25,19,392
19,19,139,27,62,16,0,179,16,14,16,27,6,62,8,29,0,283
19,32,189,31,91,30,0,312,12,13,30,26,9,71,10,40,49,444
30,43,192,38,101,29,0,297,17,18,30,52,18,85,19,34,41,416
25,49,227,26,103,46,0,350,14,17,39,45,11,83,19,23,17,558
42,15,237,39,94,17,0,331,12,13,28,26,19,112,15,28,31,491
20,16,155,20,74,16,0,389,6,12,23,20,10,41,7,19,49,503
24,37,237,29,96,30,0,411,21,27,28,56,14,79,11,39,24,565
28,23,177,31,95,27,0,300,6,11,24,36,14,84,12,24,42,428
34,17,179,35,66,19,0,396,3,20,28,32,11,51,17,29,59,496
33,19,236,34,110,28,0,326,15,14,33,33,23,111,19,37,2,499
31,23,247,35,108,29,0,422,19,24,36,34,14,114,8,33,10,603
15,27,165,23,73,17,0,164,16,10,16,16,11,66,12,18,21,298
20,19,178,20,70,18,23,228,11,22,36,25,8,47,8,17,0,402
21,25,211,15,83,31,0,225,7,27,26,33,17,74,14,28,37,348
45,40,226,51,157,32,1,277,15,19,53,66,23,112,17,48,0,476
23,26,176,24,81,19,0,261,15,15,40,21,10,80,6,20,1,402
29,36,176,33,71,24,16,269,13,22,23,48,5,73,6,25,0,439
33,30,205,23,100,22,0,334,8,21,31,32,13,87,18,43,10,484
24,22,183,28,92,18,15,340,10,13,27,23,14,71,10,29,0,525
22,14,100,17,68,12,0,159,13,6,30,13,12,43,8,14,9,244
38,46,147,30,105,27,0,160,19,8,37,50,8,82,7,35,24,283
16,14,178,23,65,17,0,264,6,8,19,29,11,48,9,34,28,385
32,35,246,36,100,17,0,307,14,11,32,39,22,82,15,43,19,496
25,15,161,24,64,12,10,153,8,5,33,30,12,59,15,23,0,279
28,15,156,29,48,14,2,191,8,13,22,23,21,40,11,17,0,328
24,36,253,25,101,28,9,286,19,20,22,30,22,100,18,37,0,494
23,33,184,27,113,24,0,252,14,13,25,34,24,62,9,34,13,428
19,24,193,21,68,22,0,224,9,15,17,20,9,56,18,25,14,388
15,27,145,23,97,17,0,161,15,7,26,31,36,59,14,18,13,266
31,25,192,36,115,29,0,260,7,17,35,47,34,74,22,45,15,392
29,17,196,32,81,27,0,245,10,14,26,22,24,61,13,26,19,412
37,40,229,42,130,41,0,361,19,23,55,50,19,66,18,51,34,545
18,20,146,22,42,25,7,747,9,25,17,25,4,44,14,15,0,874
19,14,91,13,40,14,0,251,5,15,22,16,7,38,4,19,5,311
23,32,162,24,35,34,0,924,12,27,24,24,5,53,23,31,3,1032
37,39,312,35,103,50,17,623,19,33,45,55,30,94,33,51,0,856
20,17,146,16,27,19,35,825,6,12,14,10,7,48,6,10,0,992
22,21,272,11,54,13,0,434,5,20,16,15,6,117,17,22,0,609
32,38,231,45,112,45,23,306,28,31,44,59,11,116,16,37,0,490
40,19,237,46,117,34,0,342,12,39,43,68,13,82,15,40,7,516
30,32,183,45,115,27,1,206,19,23,34,48,15,68,18,32,0,382
34,51,243,50,166,34,25,224,33,28,49,81,11,117,13,41,0,454
23,36,223,58,114,41,42,226,23,19,30,52,12,130,25,45,0,427
16,24,142,27,61,26,0,239,16,11,24,24,9,66,13,20,16,336
32,42,255,50,101,36,9,505,15,34,35,46,24,117,16,45,0,698
27,45,431,46,107,39,0,502,24,28,34,36,23,157,36,45,29,785
20,27,246,32,105,35,36,271,24,31,17,39,22,96,20,42,0,481
49,49,307,54,203,62,28,343,35,32,38,118,27,145,16,92,0,592
23,18,136,32,59,18,0,293,10,14,7,21,9,39,5,72,0,402
38,54,269,42,206,49,4,328,26,27,65,98,22,123,21,76,0,532
52,70,364,62,157,68,0,582,22,29,55,85,18,136,15,60,8,927
50,95,346,76,193,57,30,401,44,44,46,126,27,138,18,60,0,745
67,62,295,66,213,46,41,321,43,13,56,115,67,153,27,67,0,570
58,125,290,51,152,58,23,337,81,37,43,113,19,99,35,51,0,616
47,153,239,45,127,63,10,295,121,25,34,71,31,124,22,46,0,505
51,103,320,58,198,59,7,381,49,27,77,108,15,158,30,51,0,662
67,132,451,80,289,91,20,447,88,53,103,148,44,199,47,101,0,794
35,67,277,34,217,28,0,305,107,28,41,35,19,79,7,25,4,618
25,38,287,28,278,36,17,324,93,25,44,54,28,94,6,31,0,658
19,41,235,32,270,23,28,344,73,9,32,54,23,99,12,36,0,654
17,22,141,13,161,4,28,167,43,9,20,22,10,59,3,19,0,368
14,18,120,19,69,17,7,102,6,6,13,17,13,31,9,48,0,223
29,39,280,52,159,37,0,297,22,22,57,53,31,117,19,39,36,497
24,27,281,36,95,18,0,285,18,28,38,31,20,77,22,44,3,485
24,24,249,25,80,14,0,322,11,26,18,13,30,93,29,22,56,440
17,18,306,33,108,19,0,331,28,25,30,27,18,115,21,26,8,534
20,30,240,26,112,16,0,365,10,20,21,20,19,90,9,34,15,571
30,15,276,40,83,23,0,350,9,25,25,20,25,103,26,36,27,521
20,23,229,29,76,12,0,335,20,13,22,13,14,67,22,17,12,524
20,22,256,29,97,20,0,372,28,23,41,23,23,96,21,41,7,513
19,17,217,18,71,11,0,301,7,13,25,14,7,71,15,24,24,454
21,12,241,22,49,16,0,244,10,14,20,8,8,68,10,19,3,445
10,9,215,15,56,13,20,321,4,18,25,17,18,72,13,13,0,479
21,20,234,10,63,11,0,377,14,18,26,21,21,83,20,14,4,515
23,10,248,32,107,11,4,375,10,28,28,16,18,90,30,29,0,561
23,10,211,19,74,18,8,353,14,12,26,17,16,75,18,24,0,514
23,22,259,27,62,12,0,371,21,18,22,17,18,61,25,24,18,552
16,10,227,22,64,9,0,311,7,14,22,9,13,64,8,14,16,492
17,15,242,25,68,15,5,358,10,16,20,18,22,67,15,28,0,549
7,16,138,16,48,12,0,191,8,16,10,10,15,40,8,13,10,298
12,18,196,12,68,12,0,302,16,11,15,10,13,64,19,10,7,455
21,16,227,22,74,15,0,356,9,20,30,21,24,81,21,13,19,493
21,24,190,10,77,11,0,407,4,29,17,18,13,71,13,16,10,549
17,16,188,24,81,16,8,359,8,15,29,21,18,48,15,26,0,529
25,11,108,8,30,6,0,330,5,11,18,10,16,30,10,13,3,402
21,9,192,23,63,15,21,399,9,13,18,13,14,56,16,22,0,582
25,17,190,19,70,22,4,298,13,15,20,25,12,54,17,22,0,467
26,26,248,33,81,18,0,327,10,12,26,20,6,43,23,34,15,570
24,23,210,17,67,14,15,419,9,27,27,25,8,65,17,28,0,583
32,16,290,19,90,17,0,2305,13,24,29,23,17,87,17,18,121,2420
13,13,187,18,64,9,26,368,9,16,9,12,11,54,11,18,0,558
32,22,290,41,111,11,0,662,14,38,30,20,20,64,12,46,50,875
21,17,196,18,67,6,6,325,12,28,9,16,8,68,15,19,0,481
13,19,289,21,80,19,0,329,21,19,18,23,6,100,16,22,19,526
35,43,248,39,132,25,0,481,18,32,42,23,20,76,17,28,23,724
27,36,314,28,159,38,0,365,35,17,34,36,27,142,18,37,22,599
16,34,252,15,65,12,0,433,13,31,16,15,16,83,13,15,42,583
20,14,196,18,43,10,0,397,9,19,11,8,10,52,3,13,41,532
45,26,269,43,157,28,0,236,27,18,41,60,21,97,23,37,10,470
34,37,159,35,123,23,37,188,46,15,38,60,7,71,10,39,0,350
16,26,308,21,152,32,0,277,28,20,30,26,28,102,24,30,21,523
31,23,122,30,91,34,39,102,18,13,35,31,12,58,20,34,0,251
13,24,262,21,112,21,2,268,7,29,24,34,20,92,21,33,0,463
26,20,220,18,78,19,0,224,26,27,31,23,19,80,14,23,12,350
16,21,243,21,89,18,0,267,15,15,29,16,21,81,18,25,18,437
30,13,251,17,97,17,0,319,19,23,25,21,14,84,13,22,22,501
20,23,210,36,97,7,13,286,25,13,36,19,10,76,14,18,0,481
21,13,291,31,123,23,0,277,21,25,43,26,15,112,18,27,14,478
19,12,184,22,76,15,0,232,19,17,18,9,19,66,13,25,3,371
13,14,233,32,79,10,2,297,3,19,22,19,9,100,12,30,0,466
40,52,294,63,219,48,51,317,44,33,78,84,16,118,11,115,0,585
22,33,252,27,107,20,41,219,59,23,34,33,22,83,19,35,0,413
22,20,247,22,91,13,0,463,6,31,37,11,14,58,6,27,40,648
26,26,231,33,68,14,0,534,9,31,28,11,12,83,17,22,54,665
20,13,231,18,112,17,0,300,7,14,36,15,15,97,24,29,8,466
22,17,261,17,97,17,0,217,9,21,18,17,26,112,26,28,11,380
20,12,254,19,85,14,0,414,9,17,23,27,16,96,14,21,12,583
56,49,356,45,175,42,6,356,48,25,40,44,27,144,34,65,0,658
18,43,237,32,91,18,0,438,30,19,27,24,20,78,15,28,41,595
25,28,241,21,86,15,77,518,14,19,26,18,12,90,11,11,0,810
31,23,308,45,108,20,20,559,10,38,58,27,14,95,16,36,0,820
18,25,234,36,76,25,0,460,9,35,20,16,11,66,12,30,29,646
28,31,260,20,114,18,0,269,18,15,29,30,29,102,28,27,18,444
19,20,276,32,109,21,0,278,29,27,39,30,22,130,17,20,18,423
29,26,241,28,107,27,4,271,11,22,27,24,18,100,27,31,0,473
25,37,289,27,93,22,0,302,22,12,29,30,18,112,26,36,20,490
22,31,326,24,97,16,0,442,33,15,19,13,21,101,28,17,28,683
5,2,89,2,10,5,0,539,4,11,3,5,2,16,10,4,67,530
2,5,53,6,2,1,0,475,2,4,3,4,1,13,3,5,45,464
9,9,173,14,36,14,0,395,7,19,1,10,9,47,9,12,35,501
8,5,74,4,12,4,0,464,1,5,4,3,3,10,4,1,71,469
20,7,196,15,37,11,0,570,11,25,8,7,7,39,12,12,50,685
20,33,122,44,60,10,0,121,18,5,14,24,8,49,13,44,5,230
19,69,290,38,195,30,43,369,94,32,41,52,22,91,6,68,0,647
17,22,107,21,40,12,0,215,14,11,24,12,3,30,10,4,11,315
31,24,221,40,63,23,42,310,17,18,27,18,7,51,19,45,0,552
36,96,333,58,264,26,42,447,103,31,46,50,18,98,13,64,0,879
12,10,179,18,326,14,18,196,65,16,38,34,32,65,3,21,0,499
14,4,89,11,38,9,22,88,4,13,3,16,3,26,4,15,0,191
6,5,50,9,33,6,0,105,4,4,2,6,3,19,3,18,4,151
6,2,46,6,10,10,0,50,3,4,1,7,1,18,3,1,12,80
30,137,309,44,130,36,0,459,64,16,31,44,1,95,6,34,40,814
47,111,273,42,107,28,0,340,51,13,32,36,8,111,14,38,2,643
38,147,288,77,160,31,0,339,82,12,34,49,25,124,5,49,5,695
26,20,208,24,82,41,17,197,17,15,12,66,7,104,11,39,0,344
48,89,389,49,233,41,27,409,82,20,57,58,23,132,17,60,0,836
27,42,126,38,123,32,41,167,38,15,31,60,14,69,12,42,0,315
13,10,127,18,33,8,11,186,7,1,7,7,7,38,12,14,0,313
34,26,180,37,55,15,8,185,14,6,8,14,7,53,13,58,0,367
12,9,109,10,43,14,26,88,6,5,2,5,1,20,2,66,0,204
17,20,166,21,80,11,12,130,23,8,14,22,13,58,10,39,0,270
13,48,148,26,53,11,0,171,25,1,10,20,5,34,1,32,0,342
20,50,196,42,73,31,0,187,20,8,22,49,17,66,12,29,0,376
20,33,149,34,96,22,12,125,27,9,28,20,11,70,12,19,0,295
25,28,146,31,95,22,0,154,40,10,18,39,9,67,11,33,2,272
41,113,188,44,168,41,30,196,104,23,41,56,21,76,10,44,0,446
38,111,176,42,154,46,22,192,94,24,63,51,13,93,9,58,0,376
31,42,177,41,119,36,17,169,41,18,22,40,14,69,21,24,0,383
55,81,457,75,129,52,3,635,40,35,70,66,19,118,25,63,0,1051
8,18,87,18,34,11,7,87,21,9,14,5,5,37,9,7,0,163
10,3,36,3,25,13,0,51,0,7,2,8,2,8,5,7,0,102
17,28,134,21,57,13,0,213,20,12,15,15,10,30,13,22,4,342
11,20,173,30,108,20,18,164,12,25,15,36,19,62,10,39,0,326
20,29,229,21,51,30,6,210,16,52,23,22,5,69,24,20,0,365
32,32,199,22,88,34,32,210,15,35,30,26,13,65,21,37,0,407
30,49,205,60,122,44,19,355,46,25,37,32,10,64,13,51,0,606
19,57,126,44,96,16,14,200,40,8,35,36,10,52,5,29,0,357
33,57,288,51,108,29,7,237,19,18,48,60,18,80,57,56,0,454
26,50,244,34,104,32,0,270,54,25,37,22,14,78,22,35,6,467
57,80,423,80,316,56,67,423,56,43,64,107,40,171,44,90,0,887
19,13,234,15,47,10,0,346,6,16,9,4,15,38,14,23,10,549
6,11,55,6,14,4,13,87,5,4,6,12,1,6,1,7,0,154
3,7,64,5,21,7,0,91,6,3,5,3,0,15,4,8,4,150
23,56,135,20,61,23,2,104,26,9,19,27,16,64,15,23,0,225
43,25,239,35,98,35,13,209,19,29,31,46,17,96,21,36,0,402
9,14,92,4,18,9,0,154,4,8,3,7,1,26,4,24,15,208
15,6,104,19,23,8,23,140,1,10,12,5,6,37,11,19,0,237
77,77,444,60,281,79,177,511,58,47,110,114,46,147,24,106,0,1054
41,36,275,31,89,31,14,279,30,25,37,27,11,86,12,34,0,534
10,4,71,8,22,6,9,59,5,5,6,5,2,21,5,29,0,111
27,23,199,33,86,25,17,202,15,21,26,23,16,81,16,56,0,358
55,35,192,15,117,39,0,181,20,8,35,51,17,70,14,70,10,339
28,22,223,20,76,22,4,158,15,8,18,23,15,75,11,25,0,363
10,7,49,15,23,4,14,173,3,3,4,5,0,25,5,5,0,245
21,60,195,29,91,14,23,189,68,9,39,35,10,54,10,28,0,369
16,16,122,15,49,15,14,692,6,20,16,13,3,41,11,23,0,806
32,11,165,30,66,24,0,940,2,21,9,18,6,62,13,30,6,1101
40,18,229,28,95,23,9,388,4,23,25,37,7,92,15,33,0,594
35,30,282,38,99,22,0,369,7,21,28,39,11,118,25,53,11,562
20,13,189,18,51,17,0,230,7,19,10,15,14,74,16,20,14,349
12,14,130,14,33,23,0,270,6,25,11,23,6,45,9,16,16,339
34,24,206,26,92,29,5,220,9,8,19,52,5,98,19,24,0,402
26,28,212,26,112,16,2,291,7,16,22,29,10,84,14,36,0,495
25,36,205,33,81,25,4,437,13,24,29,25,9,61,15,48,0,622
28,28,199,32,65,14,0,479,6,23,18,15,9,52,16,47,4,655
12,12,178,21,52,22,0,315,2,17,10,14,7,35,18,11,30,468
30,11,169,17,69,13,0,362,8,16,17,21,3,69,15,28,20,474
23,20,173,25,55,13,0,257,4,17,15,17,5,73,18,32,14,371
24,18,175,22,70,19,0,382,7,15,17,21,13,57,17,16,14,533
21,16,203,29,80,15,0,311,1,20,24,13,10,87,20,36,3,461
2,3,83,7,11,1,0,93,3,6,1,3,1,13,3,16,3,151
9,19,90,15,27,3,2,156,13,3,3,15,0,25,4,6,0,252
10,8,45,6,17,5,8,69,8,3,11,3,0,23,11,5,0,104
23,28,287,45,113,20,21,414,9,39,29,22,12,91,21,41,0,687
23,15,262,25,50,8,10,397,4,32,12,15,10,103,13,26,0,575
33,20,234,34,79,17,0,362,4,17,23,26,18,79,17,31,25,539
36,25,254,50,96,20,0,509,7,25,16,25,10,98,6,54,21,728
6,2,52,11,8,4,0,88,1,1,2,1,3,8,1,4,9,141
17,13,110,19,50,11,0,140,0,2,14,12,17,21,3,11,47,233
11,12,92,8,21,14,0,125,6,5,9,8,2,42,5,10,10,186
11,12,190,12,62,12,13,303,4,28,8,16,10,56,30,20,0,443
9,5,85,8,16,17,0,95,2,5,8,18,2,31,6,8,8,147
23,21,235,20,72,19,0,415,6,26,19,19,12,68,26,22,10,597
29,26,245,32,66,24,0,398,10,18,17,26,7,81,18,37,4,602
2,2,63,5,16,3,0,82,0,3,4,5,1,12,11,4,12,121
16,17,149,18,56,13,0,257,14,7,10,16,3,37,15,15,8,401
12,10,62,12,25,6,19,87,5,6,9,7,5,22,11,20,0,148
6,4,86,12,35,11,7,133,1,3,14,3,8,30,11,12,0,212
7,5,87,7,25,5,0,127,4,6,4,5,1,36,15,8,17,167
32,16,301,45,110,24,0,527,10,14,10,26,13,85,19,25,30,823
4,10,53,6,29,8,4,126,1,9,16,6,4,17,9,10,0,168
36,24,272,30,101,41,0,376,9,21,14,23,8,90,12,53,28,622
14,8,91,9,21,8,8,130,4,8,6,5,0,24,7,15,0,220
14,11,89,15,44,7,8,101,8,3,10,23,5,29,4,5,0,202
13,8,47,13,38,9,0,68,2,4,15,16,2,14,5,9,4,125
41,41,183,30,102,18,0,232,21,15,14,39,14,78,28,27,4,407
32,31,231,25,89,25,0,402,13,24,31,38,9,72,33,36,7,572
32,33,174,20,95,16,0,228,11,11,23,35,9,67,29,22,0,391
13,5,63,2,20,8,0,113,3,3,13,4,1,19,7,8,9,157
32,30,210,31,98,16,14,338,9,22,27,23,6,57,20,22,0,583
29,26,238,24,82,18,0,331,23,15,21,30,4,74,30,32,6,513
48,28,206,39,105,29,0,317,19,30,25,53,14,86,20,32,11,482
25,25,255,16,57,14,0,375,3,30,22,12,10,91,27,19,12,541
32,15,254,19,57,8,0,349,10,15,9,18,11,100,21,15,3,532
27,13,166,16,51,7,15,264,5,20,8,10,11,65,19,14,0,407
19,8,185,20,67,16,0,281,15,18,21,19,5,64,9,20,11,414
41,19,247,26,95,36,0,1522,13,33,37,39,13,60,28,24,14,1725
24,40,265,20,90,26,0,312,21,23,22,37,13,107,35,35,1,483
50,50,284,59,160,57,0,452,22,25,42,66,21,102,34,55,2,743
25,38,242,39,97,35,0,295,25,23,17,25,9,84,18,38,18,514
31,33,213,27,84,34,0,213,18,17,17,34,7,76,31,33,11,391
21,26,142,34,82,16,0,453,14,10,17,24,6,58,28,24,45,548
26,20,162,28,66,13,3,280,17,10,20,31,11,56,15,15,0,423
25,27,162,20,63,23,0,280,7,14,9,18,12,64,21,22,7,426
39,34,248,39,107,27,7,423,28,17,35,37,17,92,33,33,0,632
5,3,96,9,10,0,0,101,2,8,6,5,5,29,11,5,4,149
14,7,130,12,25,4,7,174,4,10,3,9,5,34,4,31,0,273
11,2,152,7,29,12,5,173,3,11,6,6,11,44,18,19,0,273
12,8,125,10,36,7,11,204,6,11,14,25,1,44,5,19,0,288
12,12,65,24,25,4,28,103,5,4,7,8,0,28,7,13,0,201
26,29,349,47,110,18,0,424,8,18,23,25,18,94,34,29,0,754
54,77,404,48,136,27,0,519,47,23,40,41,27,157,40,48,6,836
20,15,232,22,56,23,4,472,5,16,14,23,11,52,16,20,0,687
19,14,117,11,40,15,17,196,8,12,13,15,4,35,10,48,0,284
6,7,67,9,15,9,0,72,4,8,5,7,5,24,7,20,5,100
6,8,34,1,21,3,0,56,4,5,2,7,4,13,5,3,0,86
27,13,189,26,83,12,0,259,14,11,15,20,16,57,16,24,17,419
34,23,291,33,93,16,0,314,9,12,28,18,39,81,18,46,27,526
20,14,139,26,52,13,14,541,12,9,25,16,13,26,2,31,0,685
29,28,207,37,104,19,0,380,20,8,25,33,29,73,8,18,17,573
14,15,129,31,42,18,0,206,2,10,29,18,12,42,14,22,10,296
26,27,197,38,90,26,1,326,11,17,36,21,24,48,7,31,0,536
24,15,146,37,52,12,0,309,8,12,31,18,16,52,5,18,3,432
28,21,174,40,116,20,5,259,10,10,22,34,28,53,7,27,0,472
24,13,142,22,65,10,0,248,11,6,19,16,7,44,4,22,1,394
6,4,36,6,14,6,3,38,0,3,3,2,1,10,6,9,0,79
18,19,197,28,52,9,0,296,10,12,26,23,13,78,11,22,4,420
10,3,41,5,14,2,15,97,6,1,10,3,4,7,8,10,0,138
17,12,176,9,28,5,6,247,3,18,6,2,1,51,8,43,0,368
15,10,131,15,24,5,0,133,2,10,6,6,1,45,12,30,3,218
50,45,352,43,104,14,0,576,20,49,35,38,8,127,17,58,6,826
17,9,152,18,25,23,5,184,2,6,9,12,2,34,17,15,0,336
20,15,165,19,46,13,0,199,1,14,29,2,14,53,4,23,18,319
20,14,297,23,62,18,10,329,10,15,15,19,16,124,29,27,0,518
29,24,267,46,83,19,31,345,7,21,12,20,5,71,18,62,0,628
10,12,95,10,50,16,26,157,6,4,16,10,2,30,10,16,0,282
26,28,275,31,76,22,0,482,5,21,13,17,12,118,22,15,40,677
25,14,126,17,47,16,0,189,1,7,14,14,14,40,11,12,29,292
20,12,138,22,24,12,0,222,2,10,13,21,9,44,8,10,10,323
19,5,209,23,51,16,0,507,3,22,9,11,14,69,19,16,48,619
19,20,202,24,101,19,1,273,6,15,19,28,16,83,14,22,0,456
20,25,180,23,84,11,0,377,3,15,17,13,14,92,16,19,20,511
12,6,85,7,25,12,0,114,4,3,2,8,2,35,18,10,0,179
27,36,308,36,134,29,4,403,20,15,21,32,8,84,10,91,0,696
42,67,234,33,145,24,0,245,37,17,50,52,21,91,18,24,5,475
23,19,189,21,71,21,0,323,14,20,25,21,26,67,10,18,39,427
29,33,183,29,122,17,0,221,25,14,33,22,30,72,9,26,25,378
26,28,235,19,77,19,25,379,24,34,18,16,30,68,25,23,0,570
26,43,166,28,105,20,0,249,33,7,34,23,31,55,14,31,28,381
16,14,132,13,54,14,0,356,12,7,9,17,18,31,9,17,29,450
37,34,193,26,110,12,0,269,12,15,33,32,26,61,15,25,23,439
28,25,200,17,77,19,2,440,23,7,18,19,29,46,17,21,0,628
21,25,208,19,78,14,0,327,16,20,23,21,28,39,11,33,49,452
23,28,218,25,80,19,0,286,28,24,33,20,48,55,10,21,24,416
36,59,368,52,155,40,64,444,41,22,59,62,43,131,23,47,0,790
52,59,381,60,209,35,77,389,72,36,82,47,50,138,33,50,0,754
22,58,197,38,115,36,11,197,56,13,32,26,28,89,14,34,0,382
26,29,161,32,112,21,17,120,32,17,34,20,20,67,10,32,0,286
42,41,199,26,111,22,4,347,27,25,52,35,26,63,8,40,0,516
40,28,156,32,115,25,0,258,21,15,36,33,26,54,9,30,48,382
33,16,213,31,84,9,0,275,23,14,29,14,35,62,9,18,4,453
35,28,294,28,108,29,36,523,19,38,39,30,30,83,22,28,0,792
16,35,219,15,63,14,0,287,17,20,23,13,18,77,6,27,7,441
50,36,196,45,106,22,0,272,34,21,39,39,29,62,18,32,9,444
30,54,237,42,91,24,0,286,30,23,43,20,38,61,17,37,29,466
31,33,241,29,95,18,0,302,25,16,27,30,30,84,13,39,31,454
19,41,175,32,89,17,1,161,55,14,31,22,19,99,11,33,0,251
26,22,180,21,92,19,0,173,48,10,31,22,18,65,16,25,27,271
25,25,159,22,64,17,0,231,12,11,15,10,27,31,7,28,19,383
36,22,208,27,113,17,0,332,31,15,36,37,29,60,9,32,9,497
27,24,249,35,63,12,0,258,18,17,19,18,45,80,43,17,13,398
36,45,268,34,138,18,0,341,40,14,25,21,28,100,26,28,50,548
39,39,268,44,114,35,0,2541,33,57,46,44,19,55,10,36,31,2749
18,44,152,36,94,13,0,203,27,13,31,28,30,46,10,16,41,318
25,19,180,22,78,15,0,234,14,14,34,13,27,51,8,23,10,379
20,23,177,22,73,17,0,360,13,11,24,27,15,49,14,24,29,486
37,41,189,33,101,20,0,315,28,18,33,31,33,70,11,27,26,459
28,20,203,28,82,18,5,230,19,15,26,31,23,78,7,31,0,384
33,53,257,31,115,24,0,422,37,27,47,20,27,55,8,34,83,597
61,96,384,64,248,60,61,436,83,45,105,112,30,163,23,68,0,781
38,22,172,33,61,17,0,470,20,21,21,25,21,42,7,19,17,620
30,42,224,42,122,17,0,440,32,33,38,25,25,61,9,36,38,620
44,40,251,39,140,24,0,353,26,16,47,42,25,79,16,33,13,594
30,18,161,17,88,15,0,201,13,12,27,11,23,55,10,17,26,336
56,61,319,46,188,46,27,301,74,24,72,97,38,137,13,65,0,524
51,44,282,60,118,20,0,638,22,41,47,21,31,64,13,28,45,901
32,43,277,39,121,18,0,536,22,30,40,23,30,69,10,33,35,774
39,26,320,45,130,28,7,462,39,38,43,22,34,100,19,29,0,733
49,43,224,39,97,28,0,436,31,20,40,18,27,57,13,26,27,657
55,39,307,40,151,35,0,643,20,33,43,21,32,82,11,50,26,952
26,30,141,16,106,16,8,187,23,8,29,38,19,67,9,29,0,308
20,20,174,18,75,8,0,121,24,5,18,15,26,76,13,24,4,231
18,20,87,12,50,17,0,257,7,8,15,13,5,25,5,25,20,338
18,28,252,28,98,14,0,227,31,14,30,17,40,99,30,24,6,374
8,9,95,13,24,13,0,370,1,13,10,8,7,22,5,10,71,385
37,37,299,34,136,21,38,479,35,29,34,34,32,100,22,44,0,751
47,96,277,49,184,43,40,286,49,35,80,57,24,100,32,39,0,606
17,63,148,40,96,13,11,192,39,26,26,47,17,58,16,33,0,318
82,104,439,82,245,49,0,549,50,36,80,88,44,141,36,65,2,1008
45,51,288,53,168,58,25,321,35,24,45,80,26,123,37,61,0,578
46,54,358,55,223,29,38,287,52,42,48,62,42,108,28,56,0,652
46,78,347,49,234,55,41,329,55,39,50,83,29,158,31,77,0,657
33,45,218,23,103,25,25,267,47,20,37,37,16,58,12,39,0,473
1,10,84,10,66,1,0,76,10,3,9,5,6,25,3,7,3,177
30,42,185,15,194,12,55,212,36,11,30,37,19,75,9,21,0,507
17,30,293,32,257,17,10,362,30,14,43,48,44,75,11,31,0,722
31,68,281,38,372,25,25,486,54,31,52,86,38,83,5,58,0,919
13,38,204,24,238,22,20,395,32,9,32,69,21,49,14,29,0,699
23,18,110,21,75,33,0,119,19,16,28,37,5,40,8,37,13,196
24,29,147,17,85,57,0,145,30,20,32,42,6,51,13,30,28,252
49,80,348,62,171,83,60,422,117,42,59,74,30,126,26,108,0,693
49,111,377,53,241,38,18,370,125,32,71,45,39,130,35,53,0,727
50,69,378,60,214,42,26,466,124,37,62,45,17,134,33,60,0,793
29,41,332,46,144,41,24,436,41,49,36,56,10,105,26,67,0,703
39,43,281,42,156,29,22,296,36,16,28,53,14,82,26,47,0,606
34,47,251,44,136,31,0,513,25,27,39,27,23,79,26,84,14,712
63,73,360,64,200,33,0,421,47,30,50,50,44,100,25,82,33,753
39,36,226,39,112,30,59,180,27,26,44,48,15,91,15,69,0,386
56,81,294,44,164,46,15,320,52,14,47,54,15,137,22,71,0,608
32,65,322,48,192,43,0,313,27,29,41,57,28,104,25,68,29,607
58,72,258,43,165,38,1,260,50,28,47,57,36,99,26,94,0,458
13,22,80,16,49,10,3,106,11,6,9,14,20,19,5,27,0,188
54,58,326,49,170,50,16,309,47,21,57,82,25,124,26,70,0,580
20,36,153,30,70,17,8,169,30,11,26,20,13,58,8,43,0,294
14,34,127,20,63,21,0,132,20,17,21,23,7,53,5,20,15,230
34,68,374,26,227,35,17,430,92,19,31,53,17,110,23,77,0,789
40,48,273,38,163,28,50,291,32,14,50,39,15,84,47,82,0,568
55,63,313,49,205,36,16,331,33,36,49,55,12,102,54,67,0,660
0,2,69,3,50,2,4,76,6,6,4,5,3,30,1,9,0,142
4,4,79,10,181,4,5,148,43,8,13,22,15,21,2,7,0,304
17,32,205,18,470,18,0,348,106,16,31,31,63,68,8,22,66,697
7,17,200,9,435,17,4,334,103,6,22,40,66,65,6,17,0,698
14,17,73,18,59,8,0,68,18,11,6,18,7,36,4,19,3,135
25,60,223,19,116,24,0,217,43,15,30,35,8,83,11,36,0,423
66,107,353,82,191,48,0,429,108,32,41,57,34,100,25,59,6,814
15,56,113,24,67,17,5,147,34,9,17,20,14,50,7,15,0,278
44,63,213,52,162,48,42,188,31,34,56,94,19,98,22,49,0,409
52,95,284,69,186,42,16,337,81,28,59,101,23,136,17,65,0,571
34,35,233,38,149,43,24,306,24,21,43,39,12,70,12,85,0,556
43,48,307,50,185,39,8,378,51,24,43,61,12,87,11,100,0,669
23,35,143,14,59,21,8,139,17,7,23,37,12,53,4,23,0,266
52,45,368,56,185,59,57,353,34,38,57,60,27,132,15,77,0,735
38,53,296,32,153,27,33,345,37,26,47,45,16,114,21,51,0,620
12,43,241,24,351,13,4,411,147,23,45,26,46,138,21,57,0,596
18,37,226,17,349,22,23,347,134,30,41,67,38,151,15,53,0,510
18,24,184,11,285,6,0,411,89,24,52,27,38,121,15,35,21,517
47,74,324,45,169,34,0,476,88,21,53,44,23,112,24,68,21,715
37,35,265,45,140,31,28,288,58,21,29,52,17,78,18,32,0,564
17,41,133,18,59,26,10,112,34,14,24,34,21,50,14,22,0,203
63,84,312,66,246,55,30,293,57,22,76,102,43,162,38,87,0,562
43,72,290,75,200,46,35,405,55,44,70,79,33,105,44,84,0,652
20,15,63,7,50,24,6,69,7,3,12,39,8,21,5,18,0,141
46,27,274,38,96,32,8,386,15,18,38,45,20,79,36,32,0,624
41,41,310,36,149,42,14,491,20,17,41,58,24,106,36,67,0,755
54,65,349,72,245,68,58,383,109,35,69,67,32,122,25,87,0,748
42,111,312,52,163,37,35,305,74,27,44,72,25,88,26,72,0,629
32,47,202,21,115,32,5,201,26,20,27,32,18,81,10,50,0,391
15,24,87,3,43,16,0,103,12,13,10,10,3,34,5,30,14,160
43,72,272,51,191,44,31,324,38,23,46,81,32,102,38,105,0,563
47,60,314,41,141,46,35,299,20,24,50,71,17,86,23,80,0,612
17,29,145,27,67,25,0,167,22,6,19,16,26,32,10,26,14,306
36,68,445,53,244,58,0,496,42,36,78,77,40,134,34,60,7,892
47,72,281,46,200,35,11,431,49,27,52,87,22,132,13,45,0,696
43,57,435,59,156,52,41,470,47,55,50,48,43,166,31,58,0,815
55,112,396,75,257,51,1,412,95,27,80,84,29,146,37,58,0,803
5,33,89,21,92,10,0,144,16,10,14,27,4,38,6,17,4,258
19,34,142,13,132,7,18,263,31,7,14,34,8,56,6,17,0,455
22,29,212,25,221,24,18,290,34,24,31,30,24,51,13,18,0,616
20,34,269,32,246,28,0,489,30,30,29,32,25,81,11,34,86,760
7,7,137,9,90,4,20,277,17,8,10,9,5,45,11,11,0,435
24,47,216,24,198,27,0,316,53,23,46,36,22,71,10,18,1,572
11,45,195,27,164,10,33,292,64,21,29,25,21,75,10,20,0,512
12,17,100,7,43,7,0,286,10,6,7,15,4,36,3,12,36,343
30,50,210,32,240,34,0,332,49,10,29,52,18,87,5,35,0,643
21,29,142,7,161,14,37,241,23,4,21,32,16,71,6,19,0,460
19,13,91,8,46,6,20,113,19,11,11,8,3,32,6,10,0,216
7,15,57,6,74,9,0,96,15,1,5,15,3,34,3,12,2,174
23,25,240,18,144,18,0,408,23,17,17,19,16,66,18,21,50,629
23,27,168,22,176,13,32,229,55,11,27,21,11,68,4,14,0,479
18,22,193,19,162,12,36,305,34,15,24,32,9,54,3,21,0,575
19,28,188,24,134,11,23,235,42,14,27,10,18,70,1,32,0,448
15,27,237,22,186,26,0,341,15,23,40,40,27,77,22,24,1,585
26,33,265,27,186,28,0,1517,40,27,29,27,15,76,17,29,0,1822
23,35,218,21,201,27,0,307,25,20,28,33,20,93,8,40,5,560
20,23,210,29,188,9,0,298,17,16,25,17,28,91,13,21,11,538
27,21,158,15,148,10,0,395,18,11,27,18,12,62,10,33,8,575
12,24,207,22,138,14,0,326,11,15,17,16,18,99,12,28,34,493
16,14,177,14,155,12,0,322,22,9,21,11,11,60,6,18,17,535
12,10,202,21,163,19,32,305,11,15,35,22,14,66,13,29,0,559
13,25,214,19,159,16,0,363,15,13,15,27,18,94,10,22,33,562
25,16,207,16,167,23,0,559,17,10,34,17,15,84,12,23,54,747
22,32,139,40,248,27,46,251,27,13,43,70,14,71,7,33,0,527
18,27,176,25,181,21,0,230,17,7,22,34,11,83,7,27,23,447
18,40,137,22,163,9,19,223,56,8,36,31,13,68,10,24,0,385
13,16,254,13,167,10,0,369,24,16,19,17,15,77,6,38,4,626
16,18,201,24,119,9,0,447,24,37,26,10,23,55,9,26,10,614
15,16,197,27,153,9,0,344,17,12,21,24,23,80,5,23,12,544
5,17,134,21,57,3,14,300,14,14,8,14,8,51,5,15,0,422
8,17,164,8,87,5,0,382,17,23,16,8,5,59,7,12,15,509
8,11,118,5,78,4,15,366,12,13,6,5,9,28,9,7,0,516
66,120,469,108,293,68,66,442,68,45,96,107,30,225,38,141,0,882
39,69,393,57,160,51,11,445,32,31,39,56,23,155,30,85,0,774
48,47,319,39,131,34,0,674,15,24,34,29,21,88,30,62,44,945
37,32,266,45,128,23,0,374,14,27,43,34,16,82,14,54,35,586
57,74,391,69,170,75,30,370,40,26,72,91,36,173,27,90,0,681
49,50,357,69,245,57,55,422,35,46,57,48,37,161,17,111,0,792
14,13,200,16,54,16,21,379,4,15,15,12,30,59,7,19,0,552
19,13,234,20,82,13,0,328,12,19,18,13,44,79,11,18,2,493
12,8,273,22,80,8,0,325,2,18,18,7,54,83,12,18,7,509
23,27,215,36,86,29,0,252,13,6,29,19,52,56,16,17,17,443
35,25,377,19,95,22,0,471,14,35,28,14,58,129,26,26,36,678
6,9,195,17,69,21,0,243,2,17,8,13,25,53,13,27,8,394
5,4,90,3,19,1,0,665,1,5,1,0,7,19,8,9,72,665
9,16,179,11,78,15,8,392,14,15,15,13,35,51,12,21,0,532
14,11,265,13,87,13,0,394,0,18,28,10,41,85,18,23,3,571
12,14,217,18,44,9,0,388,4,21,13,14,33,60,14,20,18,505
8,14,202,10,47,7,0,432,4,20,14,8,17,63,18,15,1,560
22,19,243,9,67,10,14,325,12,16,15,13,37,85,9,24,0,498
17,17,259,10,54,8,42,363,6,22,22,10,25,65,11,28,0,581
17,6,236,14,54,22,0,316,4,13,15,19,44,74,22,31,1,442
14,14,306,18,104,16,0,384,4,23,20,14,66,78,21,29,35,566
10,7,238,18,71,8,0,392,6,9,20,15,42,83,21,15,16,517
17,8,246,14,42,14,0,372,3,14,15,15,33,64,15,19,27,508
15,13,209,17,46,5,0,300,7,17,15,5,30,51,11,16,17,436
7,11,195,17,52,14,0,416,3,19,11,10,27,54,11,15,28,534
16,21,246,15,73,17,0,292,10,16,28,15,34,65,27,23,4,458
43,35,295,39,176,49,19,254,21,18,59,54,82,118,26,37,0,495
13,14,264,13,72,15,0,521,5,27,22,16,55,64,13,22,20,668
10,13,205,25,77,6,0,331,3,20,24,8,30,58,20,15,33,456
14,15,201,20,63,13,4,298,1,20,26,11,33,56,19,15,0,447
10,12,242,6,60,10,0,485,3,17,10,7,29,53,12,14,28,652
8,20,190,4,61,12,0,403,8,13,14,17,28,46,14,12,24,522
22,13,213,17,39,14,0,204,4,30,17,7,27,57,12,20,1,347
23,20,246,20,76,15,5,396,9,19,20,17,36,74,22,16,0,588
19,10,246,13,58,10,0,416,6,16,8,11,24,50,26,13,39,579
12,12,205,13,44,15,0,356,4,14,8,10,27,35,13,18,12,516
7,14,250,14,54,13,0,351,6,17,12,11,40,80,15,24,36,462
11,20,200,13,81,8,11,417,6,21,18,13,29,36,13,18,0,607
21,17,235,18,60,16,0,396,4,22,12,11,34,58,16,16,21,569
26,20,278,29,96,19,0,426,7,18,28,16,47,84,29,30,27,608
8,6,230,7,47,16,0,330,4,20,15,7,26,58,11,14,24,465
9,10,231,18,68,10,0,467,5,20,24,10,43,56,23,10,69,553
12,9,228,13,57,9,0,411,2,25,15,6,36,53,28,15,24,535
16,19,214,13,38,10,0,422,3,11,7,7,30,50,14,24,28,558
9,16,238,12,52,8,0,469,4,19,15,4,27,65,21,21,56,572
22,31,376,21,197,32,42,369,28,17,33,50,68,110,19,43,0,722
19,28,337,31,176,18,76,293,25,22,42,48,83,103,14,40,0,601
1,14,94,4,50,6,0,72,12,5,12,16,20,33,8,3,10,122
13,3,175,11,44,7,0,563,11,13,5,2,17,46,14,7,72,629
11,8,157,4,27,4,0,380,3,7,10,2,13,19,6,8,95,428
8,3,136,11,18,3,0,517,2,16,8,2,8,27,13,6,81,533
11,12,212,13,67,9,2,345,7,18,19,20,19,54,22,13,0,499
13,11,217,11,59,11,0,348,7,9,21,10,40,54,13,18,1,497
28,19,350,32,105,18,0,469,16,31,14,21,25,85,23,40,36,730
27,68,353,39,182,33,7,361,36,25,49,48,26,85,18,60,0,723
27,55,345,27,190,32,13,397,56,25,27,48,32,93,16,61,0,728
21,38,265,49,191,34,17,323,66,19,35,49,7,102,21,33,0,606
27,31,196,23,148,30,21,243,37,19,29,63,5,68,1,25,0,472
13,37,124,21,115,11,18,155,42,8,34,31,17,47,11,18,0,286
16,28,212,28,119,18,27,231,45,16,13,61,6,71,11,31,0,425
26,84,242,31,234,50,26,308,96,18,38,78,16,78,7,22,0,648
25,61,133,11,116,13,0,292,45,15,34,55,5,47,4,25,31,390
28,66,257,31,192,24,0,411,68,24,20,64,18,95,15,36,28,641
24,32,230,25,134,15,0,539,36,20,34,20,6,54,16,25,17,771
20,14,272,24,96,11,0,635,15,26,18,21,6,77,15,26,30,838
29,38,252,15,104,18,0,591,27,27,24,19,8,64,11,13,5,849
32,56,286,45,269,35,0,350,64,20,52,58,18,94,18,37,93,619
24,50,228,22,169,18,0,371,47,18,33,52,19,104,7,36,5,561
29,37,214,23,162,18,0,292,48,16,33,33,12,95,21,33,21,463
21,36,189,26,132,12,20,224,70,13,26,48,8,72,11,23,0,389
22,24,285,27,143,18,0,361,40,22,26,29,17,116,13,16,39,562
21,28,250,31,112,14,0,387,38,19,21,31,10,87,13,25,28,571
22,21,261,26,112,16,0,502,18,42,20,19,12,80,15,20,32,702
14,37,199,26,131,17,1,365,43,12,29,42,14,60,7,17,0,566
30,33,212,31,154,28,0,1155,41,25,38,41,6,69,11,16,76,1320
19,39,125,19,141,18,0,270,28,15,36,52,11,46,9,32,4,398
9,12,176,19,69,20,20,199,7,21,18,15,3,41,22,26,0,371
12,12,159,21,54,20,23,147,7,20,10,20,7,37,13,26,0,308
28,23,387,34,136,33,21,403,5,47,40,27,26,122,19,37,0,742
15,26,239,18,74,16,0,180,23,22,10,17,13,78,12,27,12,354
24,23,291,37,121,29,15,256,15,35,28,37,38,77,20,40,0,506
20,32,249,30,95,20,8,321,17,23,26,25,25,72,8,33,0,546
28,21,250,27,63,20,12,303,12,48,12,21,26,72,9,32,0,492
34,43,474,41,173,40,10,664,23,34,43,42,34,149,38,64,0,1052
34,51,357,51,137,35,0,417,32,39,37,56,66,99,17,33,26,677
30,16,310,13,74,27,11,467,8,27,24,23,53,64,10,31,0,708
43,35,354,47,193,56,11,405,19,29,51,55,97,108,15,31,0,739
57,44,331,43,184,44,20,518,10,28,35,62,92,69,17,36,0,892
28,24,292,30,100,30,0,564,3,31,34,22,51,54,9,21,20,823
16,15,244,26,55,12,0,412,3,8,11,16,57,54,13,10,67,541
12,25,235,26,80,14,0,540,5,21,28,19,36,71,18,7,27,700
21,34,226,29,104,27,8,417,9,21,23,20,57,71,16,16,0,633
42,15,300,33,90,17,0,516,3,26,34,9,56,90,27,22,40,706
19,10,255,20,77,18,0,422,1,32,26,18,42,55,12,10,17,608
25,24,262,31,101,16,0,386,9,34,27,25,40,77,8,27,1,597
22,30,245,30,67,19,5,325,3,29,22,18,41,77,12,24,0,517
24,32,280,30,116,14,0,385,13,35,25,19,67,75,13,17,3,614
26,32,257,32,104,18,0,1420,10,31,23,18,56,51,12,20,90,1578
26,25,228,24,73,15,29,372,10,26,31,17,67,59,10,14,0,558
27,38,264,36,135,35,1,355,15,35,33,48,71,70,15,21,0,583
17,25,166,14,63,12,5,190,24,15,18,23,36,27,7,12,0,330
7,14,189,23,45,10,8,679,10,32,18,8,13,29,13,23,0,829
17,13,251,27,66,14,23,567,5,24,12,19,26,55,17,29,0,791
17,13,204,17,89,13,16,211,4,41,19,21,25,56,11,34,0,369
14,16,265,34,100,14,8,440,7,42,24,40,16,83,25,46,0,608
19,14,247,23,78,19,0,392,2,29,13,13,22,56,17,25,37,578
12,9,104,6,57,13,18,252,4,10,25,26,9,23,8,9,0,357
3,3,74,1,20,5,0,131,3,6,5,6,9,17,8,7,9,167
10,7,164,6,44,13,9,260,6,18,14,9,11,45,9,15,0,386
28,12,293,54,89,19,0,710,2,56,29,9,26,41,11,44,52,935
12,19,318,21,69,17,0,626,3,35,24,13,15,53,17,41,51,830
13,10,225,19,61,14,0,412,0,31,26,11,24,52,19,23,26,542
12,11,236,19,61,9,0,430,5,41,23,4,9,44,8,23,29,592
13,15,296,24,79,12,0,565,4,36,25,14,31,70,24,30,28,742
11,17,258,22,72,15,0,405,1,30,20,22,30,71,12,37,14,563
23,26,261,24,92,9,5,377,11,49,28,16,24,50,20,33,0,586
21,16,315,25,77,15,0,431,8,35,24,15,31,71,24,16,24,652
13,19,261,31,66,9,0,429,8,28,10,12,24,49,30,28,30,609
7,10,227,17,32,7,0,486,7,26,7,6,16,37,12,10,29,636
15,8,282,28,75,23,0,484,5,21,31,19,25,63,20,38,18,675
20,12,264,20,75,15,0,359,6,31,16,12,13,56,17,28,44,542
15,12,239,23,61,15,0,365,4,22,11,5,15,49,12,29,24,559
25,31,269,23,106,14,63,300,19,35,25,31,23,65,17,41,0,575
6,6,219,16,45,8,0,458,7,19,21,6,12,38,17,22,25,591
12,13,280,14,59,9,0,1274,8,23,14,9,12,84,32,21,45,1413
15,13,240,15,84,13,0,328,8,14,25,10,13,65,27,22,20,504
15,12,342,19,64,12,0,467,12,17,18,19,31,90,35,35,25,649
19,15,309,24,79,16,0,383,7,19,27,19,20,71,23,34,0,625
21,30,281,33,79,23,0,245,10,29,26,18,18,68,25,47,0,471
9,9,72,10,46,8,0,151,13,9,15,9,10,16,7,16,17,193
44,41,359,44,169,33,7,430,21,43,47,58,44,119,18,44,0,733
35,66,450,52,153,50,9,612,56,47,55,39,52,137,25,61,0,955
12,18,174,9,81,10,25,179,24,11,22,23,23,59,5,23,0,318
15,15,229,27,103,29,0,248,9,13,23,30,33,86,7,33,20,412
21,14,241,22,81,35,0,360,4,28,18,28,17,76,18,20,15,550
19,24,295,29,107,38,56,557,14,39,35,36,42,99,43,42,0,775
42,39,389,38,100,28,67,440,12,36,42,60,32,102,38,45,0,776
25,40,345,44,116,26,0,381,20,35,31,39,23,106,50,32,6,635
51,25,320,39,142,21,0,486,9,34,30,26,34,100,50,20,3,778
18,18,206,13,78,15,0,508,10,21,15,16,14,58,23,12,56,631
47,33,318,54,131,28,15,344,5,35,50,54,15,112,31,50,0,618
12,2,174,18,48,13,8,299,1,21,12,18,7,45,17,10,0,443
19,21,217,10,68,18,25,227,4,34,27,17,11,88,13,18,0,393
35,22,290,30,89,16,4,422,10,41,21,33,29,122,19,27,0,606
26,15,303,29,122,25,11,591,6,20,33,40,23,99,19,31,0,851
53,43,353,39,143,37,36,391,16,56,50,52,34,101,28,43,0,715
30,33,496,46,190,34,0,637,72,45,45,52,45,219,28,59,18,883
24,22,236,27,140,12,50,261,48,16,33,34,10,69,19,62,0,481
10,26,147,15,75,14,29,162,32,15,13,13,9,45,11,21,0,319
36,54,352,54,221,41,56,336,44,29,54,50,26,100,20,97,0,730
39,61,457,43,284,43,0,488,54,30,58,68,23,122,28,111,5,916
30,47,231,38,94,22,0,388,28,27,28,26,26,81,8,37,1,588
54,50,225,64,108,28,0,431,13,35,56,46,22,76,7,48,28,629
39,27,196,36,73,20,0,257,8,19,31,30,22,63,8,42,45,380
45,49,262,33,105,25,0,361,27,33,28,25,15,104,18,69,10,551
42,39,191,51,123,41,61,331,20,25,41,37,12,69,12,70,0,593
40,57,281,54,150,48,0,458,57,27,37,55,21,109,24,58,26,674
43,64,235,39,137,22,0,466,30,39,50,47,26,59,18,50,33,654
40,41,144,43,83,30,2,1281,14,33,34,46,28,39,9,38,0,1423
53,58,329,52,142,37,0,371,27,48,45,48,27,122,15,73,44,593
63,66,255,51,194,45,36,280,34,19,57,93,32,125,18,81,0,531
67,70,231,61,173,36,0,225,35,26,54,109,17,113,14,47,2,446
30,35,192,18,79,24,0,323,22,31,18,18,18,50,11,35,5,493
60,76,261,62,180,38,0,417,29,25,51,59,30,95,15,91,4,695
64,61,295,69,170,38,0,480,33,35,82,55,33,102,16,63,9,749
38,63,258,76,141,48,16,401,90,33,51,62,31,94,9,58,0,613
12,26,124,28,76,13,7,114,25,16,18,17,14,45,5,41,0,219
48,37,230,51,130,24,0,618,11,40,58,27,27,54,14,47,29,831
9,14,36,20,19,6,12,45,12,5,18,10,4,13,5,25,0,69
15,12,112,19,46,8,0,107,10,8,13,5,12,37,7,14,6,207
30,42,261,37,103,33,0,370,14,22,32,32,26,86,23,41,22,578
9,5,90,20,20,15,9,106,2,16,11,6,7,33,15,9,0,175
4,16,67,14,24,7,0,54,7,2,10,14,1,33,4,18,3,94
22,19,148,21,89,26,0,208,11,13,24,45,8,53,8,24,7,340
9,38,105,19,65,18,17,147,9,14,24,41,4,43,5,22,0,256
5,16,85,12,17,9,11,94,10,11,15,16,3,26,8,10,0,150
29,51,294,60,108,42,0,389,20,15,37,51,19,116,7,47,42,619
31,55,282,43,167,32,2,388,25,32,28,78,14,112,22,59,0,630
53,75,398,52,136,55,0,474,39,24,45,60,35,178,30,66,32,734
57,44,254,52,147,36,0,391,20,23,47,43,23,125,13,30,48,609
32,29,143,28,91,29,20,354,14,13,33,50,6,45,2,23,0,540
26,22,154,23,76,18,1,204,13,13,21,37,9,72,13,10,0,336
45,77,302,43,145,51,4,474,32,28,68,67,18,105,11,39,0,773
68,70,330,80,208,58,0,918,35,28,97,75,17,112,20,48,6,1294
46,61,231,44,169,35,35,237,35,16,71,75,20,72,17,50,0,502
33,31,229,28,95,32,0,250,9,16,43,44,21,76,15,24,14,436
25,39,165,41,121,37,17,179,27,11,42,61,15,60,8,26,0,374
56,41,329,61,198,40,0,447,37,25,91,77,23,125,23,38,3,730
21,33,117,29,83,19,11,119,19,9,35,36,6,58,4,30,0,235
12,49,55,23,58,13,1,100,53,1,23,12,18,17,4,17,0,166
17,19,123,13,60,21,7,112,13,6,18,27,8,53,6,19,0,222
2,5,38,1,11,2,0,45,3,5,1,0,3,9,3,4,13,63
6,12,76,5,23,4,5,119,8,4,5,8,8,26,5,6,0,180
16,45,117,21,55,10,0,99,37,5,18,13,17,24,7,23,7,212
4,3,40,1,11,6,0,31,4,4,5,4,4,7,2,0,4,62
27,30,125,38,76,14,0,168,22,7,17,36,15,54,6,26,9,286
21,16,154,27,47,11,26,432,10,7,20,18,12,51,14,19,0,583
31,28,253,35,93,28,0,397,11,14,17,35,21,95,32,14,47,579
20,17,138,21,46,9,0,225,6,23,17,19,5,32,6,20,2,346
86,77,346,113,226,65,8,492,82,50,75,81,26,115,27,116,0,841
6,5,41,7,12,3,0,81,1,3,5,2,1,10,3,12,0,118
4,7,54,11,19,4,4,72,4,7,11,9,4,16,6,17,0,101
15,33,80,13,40,10,0,98,34,6,19,12,9,24,4,15,7,159
45,63,268,48,118,32,0,420,43,17,42,39,15,82,8,34,7,707
43,65,401,71,169,56,63,451,13,43,46,81,18,115,30,253,0,720
11,10,103,8,30,11,0,105,6,3,19,17,5,43,11,10,0,164
55,78,305,78,215,46,57,412,46,27,60,147,32,139,16,50,0,729
58,63,268,39,206,62,0,267,32,14,55,123,27,93,21,42,128,428
61,74,343,61,232,77,52,390,37,32,67,140,36,148,31,70,0,729
28,42,197,32,111,24,0,313,11,21,28,37,7,53,10,67,15,498
40,58,274,35,124,42,16,507,36,29,45,28,16,117,27,41,0,757
65,79,257,53,143,43,0,367,37,37,63,61,24,95,18,77,32,563
41,38,194,44,92,26,0,361,24,22,23,20,4,60,13,61,5,564
27,53,204,41,103,24,0,306,18,24,40,16,10,77,14,55,39,465
45,36,242,39,159,39,0,403,31,25,25,43,11,93,21,75,36,603
46,56,223,48,127,43,0,1312,38,17,43,47,15,74,13,61,34,1513
25,58,197,31,97,24,0,195,40,6,21,19,14,71,18,52,18,368
41,58,233,41,135,28,0,265,43,24,35,44,11,98,11,57,8,470
34,34,228,36,109,26,0,236,23,22,32,27,8,78,9,53,4,447
27,50,209,43,127,26,4,155,48,17,34,35,12,103,29,53,0,310
23,29,175,34,71,28,0,316,16,21,25,23,8,64,13,34,16,456
33,46,228,34,137,41,14,287,44,20,42,46,15,99,17,49,0,488
43,70,257,43,135,34,9,573,21,23,37,39,19,93,27,53,0,852
20,60,166,17,89,27,21,164,57,15,13,38,15,52,13,35,0,326
24,57,166,46,104,25,26,180,66,15,30,36,9,65,8,46,0,353
24,44,166,22,92,22,0,128,27,19,27,36,16,54,24,30,5,260
41,145,212,59,155,39,39,212,124,20,44,61,24,86,20,78,0,445
41,32,228,49,108,25,0,400,9,29,39,30,16,68,17,57,28,590
39,54,295,67,98,43,0,482,34,32,51,41,19,107,17,54,26,697
30,56,240,33,142,35,0,352,23,23,25,41,18,75,14,74,55,540
56,99,395,76,207,51,0,373,62,32,87,76,17,153,28,46,7,749
9,28,74,23,47,6,6,117,38,9,14,6,2,19,4,11,0,207
39,116,262,52,178,23,0,349,299,17,35,24,11,59,14,24,17,519
38,104,257,44,168,43,0,358,297,17,44,24,15,69,11,18,2,515
6,8,71,4,16,6,0,68,5,6,0,6,2,23,3,6,11,117
12,17,44,8,21,7,2,61,14,8,7,13,2,21,2,12,0,93
5,4,40,6,23,3,0,54,4,3,5,4,2,15,4,4,3,91
3,8,36,4,19,0,0,49,8,1,4,3,7,22,2,7,1,64
50,72,310,60,131,25,0,489,55,27,37,33,14,114,27,28,20,782
47,47,299,36,106,15,0,395,29,16,31,24,12,144,27,30,42,590
44,53,196,38,88,26,0,401,30,13,33,24,7,74,13,30,12,610
74,72,285,46,148,68,0,785,28,25,48,80,9,101,20,43,3,1121
9,7,50,8,45,5,1,41,12,6,9,8,3,23,7,18,0,80
63,81,381,65,256,46,0,415,83,43,56,77,29,140,43,79,33,724
36,64,189,37,128,43,24,205,70,26,36,67,18,65,5,39,0,400
24,49,172,40,119,23,0,305,35,20,32,52,8,61,21,36,17,450
30,28,223,45,127,27,0,303,32,17,49,34,22,65,23,34,8,499
40,56,240,53,164,40,0,274,61,31,35,58,15,90,12,47,33,485
39,63,195,34,102,27,0,531,60,21,34,51,10,72,13,27,3,700
8,21,58,9,45,13,1,58,20,3,12,13,1,28,7,14,0,115
15,26,115,21,80,17,15,79,57,7,17,23,7,44,13,30,0,170
32,37,200,46,121,14,27,216,21,23,39,44,17,64,10,30,0,445
24,32,277,35,89,29,0,351,15,27,39,42,14,94,15,26,10,555
49,61,352,63,154,57,72,486,43,30,59,56,18,99,39,54,0,896
43,78,154,44,110,12,38,254,76,13,24,14,5,66,7,31,0,497
48,126,251,38,143,33,35,280,94,35,46,73,23,96,26,59,0,502
20,18,77,22,82,15,5,72,14,7,28,16,10,31,1,33,0,171
9,28,47,15,27,3,0,46,31,5,6,11,3,9,0,7,4,99
3,10,63,9,45,13,0,42,5,2,10,9,8,29,5,10,2,105
6,25,59,7,43,12,12,57,24,6,7,16,14,30,3,16,0,105
25,31,40,15,31,13,9,53,21,11,13,8,1,21,2,9,0,131
6,15,30,12,16,0,1,31,12,6,7,0,2,7,2,9,0,66
1,6,35,2,13,9,0,34,8,4,0,0,12,6,6,5,5,54
10,8,53,4,21,3,0,86,11,7,4,6,2,22,11,6,12,104
46,51,311,36,146,26,0,895,19,37,50,45,15,134,24,45,54,1088
29,30,309,43,90,18,0,405,17,18,25,28,16,110,26,28,42,614
33,32,281,31,110,32,0,487,20,36,30,33,18,106,23,30,30,680
28,55,252,48,145,22,41,331,36,28,44,57,13,101,31,26,0,586
30,43,224,58,100,25,0,435,27,36,27,52,18,66,20,27,12,630
36,84,338,64,200,52,0,430,35,25,66,88,17,127,39,71,16,720
51,90,348,59,226,57,1,441,62,22,56,75,29,127,38,75,0,789
27,32,228,25,76,13,35,416,20,18,29,21,11,68,13,25,0,647
45,134,375,80,167,24,0,472,56,30,55,39,20,103,26,50,7,911
38,54,217,35,124,32,0,207,37,20,38,45,11,79,27,73,2,375
35,115,197,60,139,39,0,302,103,15,36,74,10,71,8,55,14,501
21,50,178,38,88,15,24,197,27,22,30,46,8,53,11,43,0,371
30,43,153,20,55,17,0,287,11,30,30,24,3,57,8,54,0,388
65,113,398,90,194,54,35,475,87,37,68,108,37,141,27,84,0,835
30,60,252,43,120,30,0,238,44,18,34,39,18,81,34,35,15,455
78,92,450,85,301,65,26,481,49,38,109,118,30,181,24,70,0,959
23,21,135,27,94,12,15,161,22,12,45,33,1,49,7,23,0,296
