A53,A47,A659,A720,A1114,A768,A1,A997,A998,A999,B166,B687,B344,B720,B1468,B768,B997,B998,B999
3,5,7,7,4,12,3,12,0,264,4,11,14,15,12,29,22,5,205
13,1,3,9,3,23,5,5,3,151,4,9,22,23,10,11,20,0,117
10,6,12,8,7,27,0,12,14,151,7,8,10,15,15,48,25,0,119
7,3,4,7,6,10,1,8,0,74,3,6,15,2,4,9,13,5,63
21,10,8,1,4,22,7,15,5,253,23,16,8,13,9,34,21,0,222
8,8,7,4,0,6,1,4,0,137,12,6,7,12,5,22,18,3,90
28,18,13,47,11,59,15,46,0,1049,22,52,35,42,58,76,65,9,927
8,23,1,3,6,30,4,15,0,205,11,9,7,6,39,23,35,4,161
5,0,3,7,3,8,4,5,5,77,2,8,11,9,7,11,12,0,57
2,5,6,6,8,18,0,7,0,120,13,4,3,3,15,15,15,1,103
2,0,6,2,1,3,8,1,0,43,1,5,11,1,2,1,2,1,42
7,2,1,6,12,11,1,7,0,165,4,3,8,19,2,20,31,2,123
8,2,5,10,3,18,42,13,0,262,9,17,59,18,34,28,17,2,179
10,1,3,1,0,5,0,10,5,64,7,10,9,2,3,13,1,0,54
5,3,5,15,1,10,15,8,4,131,15,16,19,22,2,10,19,0,94
8,2,0,13,5,26,3,7,6,100,6,7,6,12,15,24,14,0,86
3,4,2,2,4,9,4,2,1,62,2,0,9,2,3,6,12,0,59
10,1,0,6,4,7,1,8,3,78,7,6,8,9,6,8,10,0,64
4,6,5,6,2,19,7,9,2,145,17,6,7,9,5,21,12,0,128
6,4,12,3,8,26,14,17,7,221,16,11,25,9,13,40,8,0,196
9,4,7,26,12,37,11,38,15,507,2,12,20,23,129,63,36,0,381
0,1,4,0,1,8,0,4,3,43,4,3,1,2,6,4,4,0,40
5,4,5,13,11,9,11,10,3,126,5,14,24,17,17,14,12,0,94
2,0,0,9,7,11,0,14,4,38,2,3,2,5,7,10,13,0,43
5,15,3,10,11,23,1,15,0,276,6,7,4,16,25,31,27,2,241
2,0,1,4,0,6,2,1,0,67,2,4,2,5,7,3,7,0,53
32,13,33,42,43,62,29,57,13,728,15,44,55,43,182,69,58,0,586
12,0,8,7,0,9,10,7,0,93,10,14,13,15,3,10,11,2,68
32,15,13,27,13,50,24,21,0,448,17,37,29,33,47,63,51,2,364
32,4,13,26,8,30,10,18,19,229,10,43,22,33,36,30,28,0,187
36,15,33,24,8,29,9,20,24,392,23,76,18,43,21,33,61,0,315
20,6,11,10,6,23,5,8,0,255,21,21,9,14,15,19,28,4,213
10,6,6,9,9,5,21,8,0,203,8,10,21,8,14,13,16,5,182
9,4,3,7,2,12,7,14,0,175,9,9,8,7,25,8,9,3,155
15,18,1,9,19,22,2,28,4,369,5,5,11,13,95,22,25,0,311
9,1,7,6,5,13,4,7,0,125,10,8,13,12,5,15,11,0,103
27,6,22,25,6,33,6,34,8,292,24,36,24,51,18,54,26,0,226
62,12,36,53,24,56,22,29,3,527,31,67,63,87,23,76,51,0,426
45,16,42,39,23,57,16,37,49,592,29,71,96,44,22,72,65,0,517
22,19,22,24,16,42,10,17,0,376,23,49,22,35,13,63,34,14,295
41,17,17,26,12,52,16,37,4,418,26,40,41,44,17,84,45,0,343
20,13,9,26,13,41,6,20,0,373,12,24,26,25,13,45,41,28,307
19,19,13,20,21,34,13,19,0,339,13,28,26,26,11,44,33,6,310
10,8,4,5,2,3,0,4,4,55,0,11,6,9,0,6,15,0,48
4,5,6,5,3,11,15,9,8,103,6,10,43,6,3,18,23,0,60
12,7,10,23,12,25,8,13,5,355,13,30,25,37,14,40,34,0,277
44,15,25,28,12,40,11,33,10,412,22,54,52,46,32,52,46,0,326
2,5,1,4,3,12,4,7,9,86,3,4,14,9,6,11,14,0,72
17,20,16,11,10,40,15,17,0,350,13,20,34,16,18,54,26,19,296
38,14,29,32,23,37,23,41,0,870,18,67,79,55,42,70,54,11,711
32,16,17,34,19,45,16,51,0,825,12,51,69,65,32,68,54,35,669
22,20,17,23,25,45,6,21,0,398,9,33,38,36,26,67,44,1,323
35,8,20,23,7,58,20,27,3,465,12,46,50,39,15,82,34,0,388
57,30,22,41,28,51,13,44,0,600,23,47,89,51,22,77,73,18,486
39,10,34,21,4,26,18,35,0,372,24,60,56,25,22,45,32,13,282
30,22,13,28,34,35,9,26,0,589,16,28,39,38,29,67,54,20,495
49,16,39,34,20,46,20,40,0,444,41,65,53,47,19,49,51,13,370
28,5,19,30,8,24,4,16,0,428,11,40,29,41,5,30,33,89,284
44,15,24,31,12,51,26,41,0,365,13,44,50,43,24,56,37,1,341
87,13,46,52,21,62,27,32,7,603,28,106,98,64,37,75,56,0,486
14,22,10,16,15,48,8,22,0,357,11,36,31,33,12,59,24,2,304
24,12,18,24,15,25,14,17,0,337,8,41,37,34,10,42,45,2,267
11,22,13,22,19,55,11,22,0,382,9,23,39,24,17,65,37,5,338
13,12,15,21,17,20,11,23,3,500,11,28,23,25,18,42,41,0,447
28,14,21,19,16,32,6,27,2,421,17,38,45,40,17,36,31,0,362
56,9,24,37,17,34,25,31,33,1095,16,83,59,48,12,60,51,0,1032
17,15,8,10,11,46,9,23,1,300,13,19,12,22,9,41,34,0,290
21,11,14,13,12,13,26,27,0,395,15,29,40,25,26,22,28,14,333
10,1,1,4,2,8,2,7,4,117,5,9,11,8,3,8,9,0,103
2,1,2,2,0,15,3,10,4,137,12,3,6,8,6,13,10,0,118
7,5,12,6,1,29,8,19,0,239,12,13,21,27,6,29,34,0,184
2,10,3,12,7,13,3,4,0,163,3,4,5,11,0,34,23,0,137
5,4,3,6,5,17,6,11,0,210,11,5,13,13,6,20,10,11,178
7,1,5,7,2,12,3,4,3,50,2,6,9,6,8,14,4,0,45
1,6,0,0,0,12,13,3,3,83,9,0,9,3,20,7,10,0,63
9,2,0,4,4,14,3,12,0,143,7,12,3,2,14,18,10,5,120
10,7,8,19,13,22,19,14,0,301,8,20,21,18,28,35,19,13,251
33,9,15,23,17,30,35,25,0,610,10,46,54,31,36,43,37,4,536
9,6,12,14,6,14,6,11,0,206,5,14,10,16,37,32,16,3,151
29,21,11,22,20,61,47,25,0,468,17,36,56,31,36,87,69,10,362
28,12,13,23,17,31,31,23,0,477,15,37,44,31,43,42,40,2,401
9,9,17,12,8,42,13,13,0,408,8,21,27,17,36,32,36,5,349
22,8,10,7,14,37,14,26,30,373,19,28,21,19,40,42,40,0,332
19,16,20,27,15,41,17,25,3,460,8,31,34,28,88,33,31,0,390
20,21,13,24,13,31,40,20,0,742,6,25,66,27,83,40,28,7,642
34,20,24,21,11,42,25,35,12,598,14,54,35,27,144,50,57,0,441
20,12,13,11,13,23,35,19,15,349,6,28,36,13,78,18,23,0,308
25,9,15,13,19,52,33,37,2,377,7,32,36,21,82,39,34,0,331
0,2,2,0,0,4,5,5,0,71,5,0,6,1,11,2,4,3,57
7,5,4,4,2,15,5,12,2,146,3,10,4,4,38,21,17,0,105
2,4,2,0,8,11,12,2,9,153,3,5,11,5,41,14,7,0,117
21,15,11,25,21,37,12,34,0,626,8,26,32,14,141,32,30,18,501
12,9,15,12,13,46,5,18,9,375,8,14,16,12,107,35,15,0,307
10,15,7,11,11,28,16,18,0,360,3,12,29,25,79,24,21,8,275
14,15,2,14,14,45,5,25,0,397,4,19,16,13,111,28,20,1,319
12,21,6,11,20,57,15,19,0,376,10,16,15,9,111,44,22,18,292
11,20,6,11,9,44,14,22,0,411,5,13,22,9,106,33,26,14,320
12,13,13,11,15,23,17,24,0,440,8,19,25,14,102,23,16,25,336
4,1,1,11,4,7,16,16,0,93,1,1,23,11,11,19,6,2,79
23,14,12,11,22,32,20,10,0,500,14,31,24,19,68,58,46,6,378
1,3,0,4,1,1,0,10,2,37,0,2,0,5,7,2,4,0,39
2,1,2,2,1,7,6,2,0,64,1,2,10,0,1,11,3,1,58
3,1,0,0,4,4,0,2,0,37,0,1,4,0,2,6,3,0,35
16,5,10,15,9,15,8,20,9,174,3,24,20,9,9,34,42,0,140
10,19,5,12,8,23,3,25,0,267,8,16,7,12,42,24,43,10,210
2,3,2,7,0,13,5,3,0,75,4,1,7,8,6,22,7,0,55
11,1,3,5,0,9,10,4,0,54,1,11,11,0,5,13,2,4,50
19,12,7,19,13,33,10,15,0,350,7,15,27,34,11,53,39,20,272
26,11,15,20,26,37,37,17,0,790,28,34,72,46,30,66,68,8,627
12,4,4,6,12,12,3,9,0,218,7,22,2,14,8,26,26,4,171
0,2,0,1,1,6,5,2,6,39,1,1,7,1,1,5,2,0,44
2,4,6,4,14,14,4,9,1,128,2,4,11,8,6,17,22,0,116
1,9,0,2,7,16,3,7,0,217,1,1,9,7,8,22,31,0,183
30,23,16,26,36,41,22,29,8,777,15,43,46,22,24,56,125,0,677
41,37,12,56,37,60,19,31,0,665,18,34,53,39,29,67,115,1,602
3,5,3,3,4,15,4,7,0,133,9,6,4,1,6,16,13,0,122
32,16,8,22,12,56,11,46,0,628,17,46,23,22,35,70,72,9,537
10,2,1,4,0,1,5,4,0,65,6,5,10,1,2,3,6,10,49
7,2,12,13,1,13,1,16,1,198,5,9,17,14,24,21,24,0,150
2,0,2,1,0,0,29,5,4,63,1,5,27,2,5,2,1,0,63
18,2,12,9,10,34,61,10,14,365,19,11,76,16,73,58,24,0,258
6,7,1,4,11,3,15,10,2,143,3,4,16,6,27,4,8,0,134
37,18,8,22,24,32,5,19,0,343,22,44,15,39,11,47,64,1,265
15,4,6,11,5,26,12,13,9,188,6,26,11,17,16,30,20,0,163
7,6,1,0,2,9,4,12,1,82,3,1,3,2,16,8,7,0,84
0,1,1,11,1,13,3,1,1,56,5,0,3,6,6,5,3,0,60
1,5,1,5,3,5,4,9,2,55,4,6,3,4,4,8,8,0,53
6,8,1,5,11,16,10,6,0,110,12,6,18,7,17,21,14,1,77
22,5,18,22,19,43,50,23,0,582,61,32,68,29,41,49,47,3,454
7,6,5,14,9,26,8,12,8,160,16,3,10,18,15,20,22,0,151
0,2,3,2,2,8,2,6,0,104,7,1,4,4,5,12,7,3,86
1,1,2,5,3,8,6,7,2,35,3,5,6,5,6,14,6,0,25
2,5,3,8,2,10,5,5,1,77,4,4,12,3,6,14,13,0,62
2,7,5,11,1,6,2,5,0,91,3,3,0,13,12,9,14,3,73
27,24,15,30,11,55,12,37,16,475,25,32,40,44,28,98,61,0,374
10,7,10,4,7,13,9,9,0,132,1,11,24,8,6,18,23,0,110
1,4,2,3,9,9,3,15,8,179,3,4,10,3,6,23,23,0,161
23,20,23,19,14,39,22,26,0,515,18,33,32,21,19,39,25,0,514
23,13,21,27,10,22,19,28,0,574,13,38,70,34,18,57,60,0,447
2,0,5,4,2,3,11,3,0,87,0,3,16,8,1,7,8,4,70
5,0,2,1,5,7,19,8,4,60,0,3,26,4,4,5,4,0,65
4,8,5,5,11,16,3,8,2,175,9,3,4,4,3,30,29,0,155
7,3,6,11,4,13,8,7,3,176,5,11,7,14,20,18,15,0,148
15,18,17,34,4,54,14,30,0,637,20,28,31,42,66,78,37,6,515
12,14,5,9,3,20,10,20,0,186,9,9,28,14,13,17,23,0,166
4,4,2,10,5,17,6,14,0,197,7,6,11,17,31,15,17,1,154
4,3,0,3,6,13,1,2,0,34,1,8,5,4,1,19,8,1,19
4,7,9,10,1,5,9,13,0,133,7,12,10,13,12,6,13,1,117
1,0,0,2,5,3,1,5,3,43,2,1,5,4,0,7,8,0,36
0,5,0,2,2,9,9,5,0,69,2,2,8,3,2,7,7,4,66
5,12,8,12,6,19,4,16,18,300,15,16,10,13,26,43,31,0,246
2,1,5,4,2,17,1,9,0,63,3,8,2,3,8,12,4,2,62
46,40,35,38,26,76,49,48,0,961,19,56,81,60,49,132,110,4,808
16,3,9,14,6,9,8,8,0,176,19,13,7,15,7,9,14,2,163
21,17,13,24,17,55,9,32,0,439,16,35,45,29,21,70,49,6,356
2,6,5,3,11,14,13,9,0,138,10,6,15,10,10,24,15,3,108
3,0,4,7,7,24,3,11,2,165,6,6,2,5,15,32,16,0,144
5,8,5,4,3,15,4,11,4,151,4,5,7,7,30,13,7,0,137
18,9,17,27,30,46,6,26,1,936,49,22,16,31,21,86,47,0,844
0,0,0,4,1,4,3,5,3,63,3,0,5,5,10,5,4,0,51
9,5,5,6,7,11,4,14,4,118,4,4,9,7,30,12,15,0,102
15,15,14,13,14,32,13,27,0,292,5,13,23,20,50,46,21,16,241
43,17,33,34,19,70,73,37,0,718,39,43,73,40,141,69,50,16,573
18,10,7,38,16,33,17,36,0,478,4,20,31,33,34,47,31,0,453
11,4,4,7,2,21,16,15,0,269,2,9,57,11,11,20,13,27,199
3,1,5,8,3,6,10,2,1,144,1,7,12,6,1,7,31,0,118
1,0,0,1,0,2,11,3,0,44,0,1,12,0,6,1,1,5,36
0,4,0,3,5,10,3,7,3,22,1,2,6,2,7,5,10,0,24
4,5,7,5,4,12,23,6,0,116,4,8,21,7,23,17,12,8,82
5,1,2,8,5,9,3,3,1,128,4,15,5,4,1,17,3,0,116
19,17,12,14,5,40,19,12,3,480,45,24,11,24,26,52,28,0,411
15,9,18,19,12,31,12,15,9,420,27,24,9,19,15,43,35,0,388
1,0,2,2,1,13,0,1,0,81,6,2,2,1,1,13,7,5,64
0,3,7,2,3,8,4,2,1,61,4,1,6,2,0,8,11,0,59
2,2,5,6,2,6,5,1,0,75,1,1,5,6,3,11,8,5,64
15,17,22,34,9,50,16,27,0,613,30,21,49,40,29,62,64,10,498
0,5,0,5,3,3,0,7,0,14,0,0,1,3,8,1,7,1,16
6,0,2,1,0,7,0,7,0,14,3,4,0,2,5,3,7,0,13
3,4,1,6,0,5,3,15,0,214,6,2,7,12,4,11,18,3,188
2,1,0,2,6,1,1,0,0,24,3,4,2,2,3,6,3,2,12
6,4,5,13,4,34,10,24,3,288,7,14,16,20,16,61,37,0,220
6,4,7,8,10,13,1,9,0,131,6,8,3,13,13,12,9,1,124
3,13,3,5,8,9,0,9,5,175,3,10,3,1,12,14,16,0,171
46,32,13,37,31,73,8,41,0,790,9,53,23,49,76,104,69,15,673
6,0,1,7,1,2,4,2,0,36,5,10,4,6,2,1,3,2,26
24,16,16,18,23,50,12,31,18,713,10,39,27,15,37,64,72,0,657
5,10,4,7,6,14,13,12,3,187,3,7,22,8,10,31,26,0,154
0,2,0,4,1,6,4,1,1,23,1,2,8,1,0,0,4,0,26
3,0,0,0,0,3,0,0,2,24,0,3,0,2,0,2,2,0,23
1,1,0,0,3,9,2,3,6,27,0,1,6,0,1,12,5,0,27
0,1,1,0,4,2,4,2,0,37,0,2,12,1,0,1,4,0,31
3,2,0,1,1,9,5,2,0,72,0,5,6,6,2,4,14,1,57
0,0,1,3,1,21,1,3,1,67,1,5,1,5,1,21,4,0,60
2,0,1,5,3,6,1,6,0,76,4,4,18,2,1,6,5,1,59
7,3,5,7,4,10,4,2,5,90,1,6,6,2,5,8,15,0,94
6,7,2,2,5,22,17,10,7,108,2,14,15,3,19,29,10,0,94
19,38,11,18,11,47,12,17,0,524,12,24,28,20,25,64,67,12,445
15,28,5,17,26,20,17,22,0,484,3,20,43,18,21,27,66,3,433
37,21,15,29,28,53,32,38,7,651,14,51,54,46,26,76,71,0,573
1,5,3,7,3,5,3,11,0,68,1,4,15,4,20,1,12,3,46
8,2,1,5,6,4,1,14,7,96,0,18,13,20,9,11,19,0,54
4,4,8,8,4,14,3,9,1,131,4,12,9,12,5,22,11,0,111
18,10,8,13,6,24,5,15,0,291,21,22,26,36,4,37,39,9,196
22,17,24,30,19,35,37,33,0,649,24,38,99,33,14,64,74,7,513
44,27,17,33,23,53,21,38,0,715,17,54,55,46,14,76,78,33,598
30,17,27,43,23,42,14,37,0,616,16,58,44,49,23,81,77,15,486
32,3,32,28,11,36,29,42,12,501,28,59,73,53,35,48,62,0,368
2,1,2,1,1,8,1,3,0,25,0,5,2,6,2,9,3,0,17
7,4,2,2,3,3,2,8,1,24,2,5,4,5,11,3,4,0,22
3,1,3,1,3,9,0,12,2,122,11,10,1,4,3,13,11,0,103
11,2,2,5,2,10,8,6,0,103,8,7,16,4,4,8,7,0,95
8,3,5,11,5,23,25,14,6,284,4,6,32,8,41,31,20,0,242
22,14,12,21,7,23,6,20,0,243,12,29,17,32,8,38,37,2,193
17,28,21,31,6,40,37,16,2,515,24,27,63,38,38,74,54,0,395
4,4,9,11,5,12,44,7,3,171,40,13,31,13,20,17,19,0,117
7,2,22,13,5,14,40,13,0,210,43,9,42,10,10,16,19,2,175
17,2,33,18,0,19,49,15,10,231,101,20,39,14,15,19,9,0,177
5,3,2,10,5,9,3,12,0,225,5,8,14,10,21,16,19,2,179
30,20,24,17,22,40,26,38,3,541,103,24,22,12,50,59,38,0,453
1,0,4,4,4,1,6,8,0,122,4,10,12,7,5,4,15,1,92
15,21,19,28,8,51,17,17,0,478,21,34,22,35,18,61,28,0,435
7,16,6,10,5,49,5,23,0,434,12,13,4,31,13,62,21,21,378
39,19,8,17,20,72,29,39,0,783,54,53,40,39,28,85,50,12,665
6,1,1,5,6,8,3,8,2,176,5,9,9,4,5,26,11,0,147
18,13,8,20,11,30,5,10,0,370,5,31,13,26,19,49,33,0,309
4,1,0,2,0,6,3,5,2,34,4,4,2,4,0,5,8,0,30
16,6,7,7,12,33,3,19,2,273,20,17,18,8,13,49,20,0,233
2,4,4,10,8,12,8,23,3,129,9,2,5,8,8,22,19,0,130
8,8,10,10,2,35,16,21,0,345,7,18,16,13,110,25,20,17,229
8,6,2,5,12,13,7,17,0,184,20,7,15,18,3,31,16,1,143
4,1,3,10,2,5,5,9,2,63,17,1,9,1,6,17,10,0,43
4,7,6,11,6,26,19,14,0,278,9,8,15,10,33,25,14,0,257
1,1,12,7,10,19,30,8,1,247,11,11,39,2,53,18,20,0,182
11,7,5,12,1,18,7,12,4,304,2,18,14,9,98,7,16,0,217
5,4,2,7,3,12,7,10,3,141,4,7,12,6,23,15,13,0,114
12,7,4,8,10,25,21,19,12,172,2,18,21,12,21,31,37,0,148
8,16,2,5,6,17,4,7,0,68,8,3,2,3,20,16,18,3,60
4,4,9,3,1,12,5,5,2,87,59,5,4,0,2,5,4,0,53
4,1,0,0,1,4,3,11,0,72,36,1,3,0,4,3,6,3,40
0,1,0,1,1,5,4,1,0,62,19,1,4,0,0,7,2,1,41
6,7,5,10,1,11,4,15,0,233,55,11,8,9,31,18,11,3,146
3,11,2,6,4,14,13,17,0,190,3,4,24,5,22,16,10,12,164
20,17,9,21,15,57,10,28,0,675,18,21,27,30,23,121,52,4,556
6,13,13,11,5,35,7,23,0,301,9,16,16,12,21,40,24,10,266
3,0,7,7,0,3,2,2,2,40,4,6,10,5,2,4,1,0,34
6,1,5,1,5,11,9,7,13,137,24,8,8,8,3,16,16,0,112
7,2,4,6,2,8,12,6,2,93,15,6,7,11,3,5,6,0,89
9,7,2,8,7,8,2,11,2,186,4,12,5,18,41,15,17,0,130
4,8,3,5,3,4,4,11,0,104,2,3,0,11,15,6,15,5,89
15,7,8,10,7,20,4,18,0,148,13,23,11,17,8,29,22,4,110
0,8,1,6,3,13,2,1,0,128,2,4,1,7,9,19,15,2,103
19,30,16,31,18,68,21,34,10,1120,14,35,54,56,111,84,63,0,950
13,20,4,9,5,14,6,14,7,237,7,21,29,13,20,35,30,0,174
16,11,17,12,9,26,6,23,23,425,8,30,46,21,36,34,51,0,342
4,4,5,5,6,10,5,8,0,106,5,11,12,7,5,8,11,2,92
5,13,5,6,7,18,1,8,12,277,8,5,9,10,6,12,35,0,267
3,3,0,5,1,4,2,5,0,59,8,0,1,7,1,6,2,1,56
15,3,2,9,0,10,3,15,2,115,18,11,9,14,8,15,10,0,89
2,3,3,4,6,14,4,5,0,66,12,5,5,6,6,5,14,0,54
8,3,3,3,1,11,1,8,0,82,7,10,1,14,2,8,12,6,60
3,3,2,2,1,6,1,7,0,59,5,8,2,4,3,15,5,0,42
9,10,5,12,13,7,1,14,0,127,4,18,4,15,11,17,14,7,108
34,4,33,28,9,26,14,38,10,302,37,61,38,42,21,29,62,0,208
3,0,8,7,5,14,3,14,4,97,8,7,11,9,5,13,15,0,87
25,6,18,24,9,22,5,22,24,307,23,26,19,33,22,30,43,0,266
9,5,4,6,7,26,2,8,9,119,7,18,14,15,11,43,28,0,59
1,2,4,5,7,6,3,3,2,42,9,2,3,6,1,12,9,0,33
15,2,1,13,1,9,0,10,0,87,8,12,1,22,5,6,13,9,62
11,4,13,12,13,13,2,9,19,128,12,28,15,24,15,29,15,0,86
5,3,5,11,8,8,6,15,10,113,8,8,9,15,5,11,25,0,103
2,1,2,2,2,2,2,6,3,29,5,2,4,2,5,1,11,0,21
1,1,0,5,2,10,1,5,0,84,3,1,3,9,5,7,12,3,66
2,1,1,1,4,7,1,3,1,54,3,0,4,1,3,17,11,0,36
5,1,9,3,5,3,3,7,1,99,14,4,1,10,1,2,15,0,89
0,7,0,5,7,11,8,13,0,103,1,4,7,3,7,9,12,10,101
9,0,8,12,15,15,16,17,3,168,13,19,22,20,4,22,37,0,126
14,8,7,12,9,13,5,6,4,229,14,12,9,23,19,20,33,0,177
5,1,4,5,1,4,3,3,4,66,4,6,5,5,7,9,10,0,50
7,3,14,3,1,26,21,6,6,154,9,14,28,12,16,26,17,0,119
1,0,0,2,0,7,1,5,1,42,2,4,2,2,2,8,2,0,37
1,5,3,1,2,9,3,6,0,88,6,2,4,2,0,12,13,0,79
3,3,5,3,2,13,10,5,7,64,7,9,9,2,8,13,11,0,56
6,5,1,1,2,7,1,3,2,134,7,11,2,0,3,25,17,0,97
50,7,32,29,13,35,6,16,17,218,52,59,32,32,9,35,40,0,164
6,1,4,12,0,14,9,9,0,114,1,10,10,9,33,14,5,5,82
2,7,2,8,6,16,2,11,6,118,6,4,3,8,14,12,15,0,116
4,1,0,0,4,13,0,3,2,72,1,1,0,3,5,18,8,0,63
6,3,14,14,21,39,17,18,0,336,13,21,27,16,19,48,44,4,276
5,5,1,2,0,3,8,13,0,104,3,6,5,4,15,7,19,4,78
2,3,14,3,0,12,1,16,8,152,7,4,40,16,5,11,10,0,118
17,7,9,14,1,8,2,12,6,175,17,13,13,11,4,27,18,0,148
31,6,15,40,12,50,16,19,0,526,27,50,31,42,19,44,50,12,440
45,12,24,43,24,80,17,43,0,721,44,52,62,73,26,96,68,10,578
65,18,34,51,15,63,12,43,0,796,22,126,46,57,28,93,65,10,650
17,1,6,12,7,8,2,24,5,149,24,32,9,18,3,24,16,0,105
3,4,3,13,10,18,5,12,3,119,8,5,12,14,8,31,16,0,96
43,30,15,33,24,62,14,45,3,577,19,55,42,47,24,74,77,0,508
7,10,6,8,2,14,2,9,8,122,5,9,6,15,3,22,14,0,114
2,1,0,2,3,12,3,6,0,45,1,4,3,5,2,8,6,2,43
13,5,2,20,3,27,17,18,4,204,13,19,22,24,9,52,26,0,148
4,1,4,7,4,11,3,11,3,27,9,5,6,14,7,8,7,0,19
12,1,20,19,12,15,10,13,0,133,22,22,10,31,4,16,32,5,93
11,3,13,14,6,14,3,14,0,101,20,12,5,21,7,9,16,4,85
50,5,47,42,11,29,26,29,18,461,57,89,30,54,15,31,48,0,394
37,20,24,56,13,58,23,43,10,633,33,55,21,81,45,80,94,0,508
22,7,12,14,6,9,3,9,4,264,14,21,6,22,23,22,23,0,219
10,13,7,32,5,51,12,26,7,505,25,38,18,29,25,56,48,0,429
12,4,16,19,4,9,7,16,11,158,22,38,15,15,6,16,15,0,129
25,18,8,19,22,40,16,26,0,523,23,23,10,29,17,41,84,5,465
11,7,7,8,8,17,1,15,2,237,5,18,10,16,6,30,15,0,213
7,2,4,5,6,10,2,10,9,104,3,7,11,10,11,8,12,0,97
0,0,0,7,8,9,1,5,4,179,3,3,12,8,6,13,16,0,152
8,7,5,10,10,35,13,14,5,371,8,7,29,25,22,48,29,0,310
16,6,13,18,19,24,22,32,0,617,11,28,37,31,43,35,62,9,511
20,7,18,20,16,37,7,23,6,590,27,28,31,38,35,49,60,0,476
35,3,11,11,4,23,3,18,26,253,10,42,14,28,15,26,37,0,215
8,9,7,6,4,12,0,8,2,159,13,16,8,7,2,22,22,0,125
4,3,2,7,5,15,2,8,0,158,0,8,14,6,4,6,13,2,151
8,5,5,13,12,20,2,9,2,170,6,12,11,16,7,14,33,0,147
24,9,26,25,14,38,11,26,4,448,10,44,47,33,22,51,52,0,366
28,18,10,25,24,52,13,23,15,428,19,28,38,31,18,49,64,0,389
33,9,17,53,20,60,13,30,15,762,11,42,55,42,48,71,84,0,659
21,19,16,19,13,43,2,17,9,354,6,27,31,41,16,63,54,0,275
17,13,14,27,9,29,12,32,0,451,11,39,30,46,30,36,57,11,344
31,12,35,36,14,38,10,36,11,561,23,53,65,44,29,42,71,0,457
26,17,23,26,14,45,5,24,0,464,6,35,28,33,26,60,63,26,367
3,2,4,3,5,7,0,5,0,81,2,2,6,0,2,7,16,4,71
82,31,30,67,55,95,37,75,24,1062,30,78,59,57,57,137,237,0,903
21,5,19,22,24,28,4,28,2,653,37,53,22,54,30,43,59,0,508
10,4,3,8,6,13,2,9,3,116,21,12,7,14,2,20,17,0,81
46,21,23,47,11,60,11,34,16,645,74,32,25,76,30,79,57,0,541
11,5,2,7,12,14,0,19,12,188,16,26,4,9,16,26,15,0,158
34,31,42,34,37,61,7,45,0,867,56,45,17,54,33,97,81,20,755
14,26,13,28,23,66,3,39,0,963,42,27,22,41,23,118,65,13,824
2,1,0,4,6,8,1,3,1,52,6,1,2,4,7,4,5,0,49
19,3,18,35,11,22,14,19,13,399,37,36,23,46,16,43,24,0,328
0,4,4,14,3,20,1,12,4,117,14,6,11,16,2,22,16,0,92
11,7,3,8,10,21,3,11,0,174,18,11,4,14,9,32,16,1,143
13,5,1,9,9,12,1,6,0,132,9,6,21,5,7,13,28,2,97
5,1,3,7,3,17,0,3,0,90,9,1,2,14,2,12,8,2,79
3,2,6,5,4,18,13,17,0,119,9,4,13,6,7,30,19,1,98
14,7,15,8,8,24,5,11,4,217,12,21,27,17,1,31,23,0,181
3,4,2,6,5,14,3,7,9,114,2,7,4,11,6,13,17,0,107
3,2,6,3,0,6,1,7,6,64,6,1,12,4,5,7,5,0,58
2,2,1,3,1,3,0,2,1,39,3,2,7,2,2,0,3,0,35
0,3,5,1,0,11,0,5,0,67,0,4,9,0,1,14,9,4,51
1,12,2,5,5,21,5,11,0,225,20,4,19,6,9,26,23,13,167
8,8,10,14,8,20,0,16,8,263,8,16,6,11,30,36,11,0,237
29,11,16,11,7,24,7,17,8,289,21,40,20,34,20,34,47,0,203
2,3,1,5,7,5,0,3,8,139,18,5,1,5,3,13,10,0,118
4,7,11,14,11,32,1,11,2,343,12,11,4,30,4,40,33,0,302
17,5,5,17,5,20,5,14,1,245,28,12,13,12,10,34,27,0,198
3,5,0,7,5,10,0,6,5,82,9,7,4,6,2,12,17,0,66
38,5,23,35,20,49,14,55,11,721,44,89,36,52,59,90,60,0,541
5,2,8,9,5,14,3,7,4,89,12,8,6,9,5,14,11,0,81
1,2,5,2,5,16,3,3,3,71,2,8,5,7,1,18,5,0,65
3,3,7,13,0,12,3,8,0,155,11,11,4,10,7,17,20,5,119
0,1,1,5,5,16,4,2,0,52,2,4,4,7,5,22,4,0,38
24,35,21,54,24,86,18,44,0,779,22,42,38,61,62,116,86,2,656
0,2,1,1,0,5,0,7,0,16,0,2,0,3,9,3,3,1,11
14,22,11,17,11,16,4,27,0,286,18,14,8,31,21,46,33,4,233
25,8,17,34,16,18,5,34,16,576,42,48,10,56,12,37,53,0,491
36,13,40,34,20,53,17,46,21,571,81,45,19,56,24,60,66,0,500
49,18,35,38,17,54,12,31,0,614,40,53,38,57,20,80,94,2,484
9,1,4,10,6,17,2,9,0,75,12,11,1,6,2,18,11,2,70
13,22,26,16,4,47,14,28,2,463,68,30,19,31,11,66,37,0,373
12,5,11,5,4,18,3,15,11,133,3,21,9,22,5,20,24,0,113
3,0,8,2,4,9,0,3,1,51,0,12,0,3,18,14,3,0,31
3,4,1,2,1,5,0,0,4,35,5,4,0,4,0,8,8,0,26
10,8,3,2,3,15,0,7,9,90,3,10,8,12,5,10,21,0,78
0,9,1,5,5,9,1,3,4,67,4,1,1,5,3,6,14,0,70
4,7,0,4,6,13,2,10,0,108,10,5,5,6,7,12,11,4,94
7,8,3,8,8,12,0,9,6,140,7,20,9,12,10,20,21,0,102
2,2,5,17,5,9,5,11,3,148,15,5,7,14,10,22,6,0,128
0,3,1,2,1,3,2,14,0,24,2,2,3,0,5,1,8,10,19
42,32,31,41,23,73,9,56,12,554,60,69,35,55,38,79,70,0,467
27,16,16,30,21,53,11,34,0,630,38,38,29,40,25,65,65,5,533
18,18,17,12,13,51,11,30,1,399,36,29,22,16,11,58,29,0,369
18,31,20,29,34,52,10,36,0,596,46,42,26,45,23,62,68,5,509
27,18,21,35,28,36,7,44,6,678,36,69,24,36,33,61,53,0,588
50,38,26,51,19,64,18,53,0,1066,65,60,34,81,26,90,98,28,903
35,25,21,27,22,73,9,27,0,647,39,51,24,50,25,83,60,0,554
2,11,2,5,6,16,5,15,3,119,5,7,15,6,5,19,22,0,105
4,4,3,6,9,12,3,7,0,20,10,0,4,1,8,10,17,3,15
29,7,25,32,11,32,2,20,1,321,19,45,21,31,16,35,40,0,273
3,8,7,5,2,11,7,9,0,80,1,2,15,6,10,18,9,1,70
12,7,16,15,2,34,15,19,12,346,42,16,19,31,7,40,31,0,292
12,3,6,5,4,24,3,13,0,155,10,11,7,10,7,24,16,6,134
2,1,6,4,1,12,13,13,6,90,11,3,15,9,5,12,8,0,85
17,4,13,19,17,31,10,32,16,402,35,31,16,42,9,43,49,0,336
33,38,18,24,27,71,9,54,3,799,21,24,89,44,28,89,86,0,695
8,4,5,9,3,18,1,6,0,116,46,4,5,8,1,11,8,3,84
55,30,59,34,16,61,12,51,7,597,184,28,27,44,43,76,70,0,450
0,3,1,3,9,6,0,1,0,74,18,0,2,1,1,7,19,0,49
20,9,17,17,13,26,3,30,6,339,8,2,255,7,8,16,11,0,173
27,1,24,21,9,17,9,12,6,125,25,27,21,31,5,19,34,0,89
1,1,0,8,4,12,3,11,2,111,5,8,5,14,8,12,15,0,86
1,0,1,3,2,7,2,1,1,33,6,2,5,1,0,2,8,0,27
11,1,5,4,0,9,1,10,0,101,15,8,6,13,6,4,14,3,73
5,6,4,0,1,6,3,6,0,61,10,9,6,1,1,11,6,10,38
40,20,23,39,27,71,18,39,26,585,104,52,36,49,12,85,74,0,476
38,5,12,26,20,48,16,17,8,524,79,35,27,38,11,52,55,0,417
49,11,22,44,23,45,14,32,0,590,87,61,23,63,15,66,45,0,470
9,5,3,14,10,18,9,19,4,262,13,18,15,25,16,29,22,0,215
1,5,6,7,0,13,4,17,0,163,14,0,6,11,8,15,14,6,142
91,17,41,44,24,70,17,60,0,638,34,138,61,50,27,89,89,13,501
3,11,12,10,2,25,2,14,4,157,3,9,5,12,16,28,35,0,132
24,4,7,16,19,19,4,8,18,293,20,27,17,27,9,22,41,0,249
70,9,43,41,16,69,14,57,29,715,50,108,44,71,35,88,133,0,534
9,7,15,24,21,17,8,32,0,187,15,28,17,24,29,35,50,1,121
28,11,9,9,13,20,4,17,0,373,14,26,10,16,14,39,32,8,325
21,4,17,29,7,38,12,28,53,330,16,26,48,44,19,60,47,0,279
2,3,4,6,1,17,0,6,2,134,7,9,1,12,3,27,12,0,104
20,3,8,10,3,15,11,15,6,173,31,14,52,18,6,11,13,0,119
9,5,3,15,3,19,8,16,0,286,10,14,19,15,15,30,30,1,230
9,10,5,4,4,10,0,10,6,153,12,13,5,10,14,25,18,0,114
5,9,3,13,8,13,3,8,0,80,11,6,8,6,5,18,14,0,74
5,7,3,9,4,34,1,8,0,106,6,6,1,8,13,41,14,1,87
3,1,4,6,2,13,0,12,4,175,11,6,4,13,1,24,14,0,147
4,3,7,2,5,12,1,13,0,87,9,8,0,4,6,14,15,2,76
15,4,2,12,2,12,5,5,4,159,2,29,10,14,5,12,8,0,140
4,13,3,13,4,30,2,14,0,135,3,6,8,7,14,35,29,4,112
6,1,0,2,4,13,0,9,5,122,7,5,16,8,7,20,7,0,92
7,3,1,2,3,1,0,5,0,42,5,6,0,3,9,3,5,4,29
15,8,9,14,16,19,2,13,0,287,14,9,5,17,17,32,35,10,244
0,1,1,2,0,7,1,6,0,86,7,1,2,2,3,14,5,0,70
14,6,6,27,13,17,5,24,3,266,7,27,33,31,10,26,36,0,211
8,9,14,12,8,24,6,19,9,179,24,15,9,21,9,25,39,0,146
9,4,4,7,7,22,5,11,0,184,9,8,8,0,4,37,21,4,162
19,2,3,15,2,36,11,21,0,182,16,17,28,16,9,40,11,7,147
14,4,6,18,7,26,1,14,5,230,11,20,13,10,13,21,24,0,213
5,3,7,7,1,8,1,9,1,165,13,12,6,16,7,13,12,0,128
0,4,2,1,4,5,3,10,0,87,8,7,8,4,0,9,10,1,69
10,11,6,9,9,11,10,20,0,305,28,10,15,24,10,18,48,4,234
3,2,1,4,5,19,1,9,0,61,4,3,5,2,5,14,10,2,60
14,4,2,6,2,7,3,13,3,72,7,4,9,8,6,15,15,0,62
24,23,13,22,14,32,9,32,0,467,16,36,33,35,23,52,69,0,372
2,1,0,4,3,0,0,3,0,605,2,1,0,8,1,1,5,11,589
52,4,21,18,17,19,25,27,16,419,11,60,88,38,35,19,32,0,335
9,30,6,19,11,82,6,20,0,487,8,10,40,20,17,88,47,13,427
21,6,10,14,21,46,10,16,0,461,4,26,51,32,18,56,29,18,371
15,16,12,23,17,39,15,15,1,565,12,21,54,38,30,42,63,0,458
11,11,12,25,15,43,10,23,0,613,8,12,51,20,20,34,31,23,564
23,26,10,34,14,37,17,36,0,908,9,45,89,49,22,60,58,28,745
14,19,5,26,14,41,22,35,0,665,14,32,86,24,17,56,48,5,559
30,13,14,23,15,53,23,36,0,706,10,47,88,38,17,77,34,34,568
33,13,27,26,21,58,21,35,43,677,14,47,108,46,25,60,43,0,611
22,26,19,28,21,58,9,20,0,508,7,38,77,30,21,70,55,10,403
15,29,12,16,18,51,14,26,0,528,17,24,73,28,26,53,42,8,438
17,29,16,15,16,59,14,35,2,436,7,17,87,20,23,46,44,0,395
32,33,20,31,17,46,16,43,7,536,22,44,125,36,32,61,52,0,409
30,20,26,27,19,55,17,32,0,776,17,47,131,34,24,57,61,58,573
13,20,9,19,12,47,11,31,0,563,9,26,72,30,18,50,48,4,468
16,13,20,24,18,31,28,17,0,490,15,25,88,35,19,46,33,4,392
14,7,11,20,12,28,6,23,0,422,3,25,23,18,21,24,37,4,388
20,2,13,15,4,6,14,13,12,205,15,41,17,15,16,7,17,0,176
3,4,2,8,3,12,14,3,0,72,7,3,17,5,1,8,10,0,70
3,0,3,4,5,4,4,9,5,66,10,4,5,8,4,2,11,0,59
20,11,24,44,12,32,42,40,0,576,14,44,42,40,115,44,35,5,462
18,33,16,25,26,96,14,27,0,810,10,16,29,39,75,115,63,8,710
3,26,9,5,8,19,1,7,0,211,2,6,5,1,29,37,29,6,174
10,9,6,4,4,6,3,10,1,64,1,6,6,2,20,5,12,0,65
10,8,18,13,4,19,17,19,3,260,43,23,14,26,9,38,14,0,204
74,30,40,79,16,66,112,50,0,801,20,128,194,73,65,79,58,83,568
39,15,20,27,1,36,15,23,0,470,42,60,18,32,23,70,31,6,364
23,6,18,28,9,28,32,19,7,613,32,45,37,43,32,37,43,0,514
2,8,5,5,4,14,5,16,3,204,4,6,25,6,12,21,18,0,174
2,16,0,6,8,32,4,24,0,359,6,10,4,11,40,37,24,12,307
18,2,26,31,13,46,91,31,12,477,79,47,101,28,20,44,31,0,397
42,18,34,31,9,48,38,23,11,575,97,58,72,39,34,41,37,0,451
5,2,5,9,5,21,35,7,0,148,4,6,40,13,31,22,7,0,114
2,0,3,8,3,6,4,11,5,56,27,10,5,5,5,7,9,0,30
10,16,13,35,17,37,18,18,0,561,4,9,35,32,69,19,41,7,509
5,1,6,3,0,13,9,1,0,70,13,7,6,3,8,9,6,6,50
1,2,6,6,0,5,33,6,6,54,9,7,35,4,2,4,5,0,53
3,6,1,10,4,9,6,15,4,130,7,2,10,15,12,23,11,0,108
26,8,19,23,4,38,22,25,0,600,23,62,26,33,41,54,44,9,473
0,2,0,2,5,8,0,5,0,29,2,0,2,0,3,4,11,6,23
26,15,13,18,24,51,24,53,2,739,5,36,46,24,95,81,53,0,625
4,5,14,15,1,9,14,10,0,75,17,12,12,6,13,7,17,6,57
16,16,9,20,4,30,23,25,0,686,2,33,21,34,116,48,23,2,550
39,14,13,39,26,69,37,27,0,909,3,43,101,39,115,72,35,14,751
29,30,21,29,40,57,19,48,0,788,14,30,84,31,113,66,64,6,653
0,0,0,0,1,7,0,1,5,43,1,1,0,0,0,7,7,0,41
10,5,12,14,8,22,32,7,4,313,11,29,37,27,16,37,23,0,247
1,4,0,1,5,19,0,1,3,229,2,1,6,3,7,33,10,0,201
13,21,3,18,7,30,20,22,14,425,16,15,34,18,32,46,43,0,369
27,15,13,16,5,41,9,17,0,502,13,63,28,25,31,49,30,14,392
2,2,3,2,7,8,0,5,0,83,2,3,2,5,5,8,12,0,75
4,6,9,3,12,22,3,19,5,249,7,7,9,13,34,16,27,0,219
5,12,2,6,2,9,3,11,0,244,6,15,3,13,27,11,19,9,191
21,4,9,11,8,35,8,14,3,710,1,23,11,26,90,42,29,0,601
8,0,3,8,8,10,9,15,0,262,3,5,15,22,31,20,10,4,213
0,4,0,1,7,11,1,5,0,71,0,0,3,0,5,13,10,3,66
9,12,5,27,10,25,5,22,0,395,5,24,15,21,26,47,46,7,319
11,7,5,5,7,15,11,5,0,127,12,12,20,12,4,16,27,0,90
0,3,4,2,2,9,1,3,1,47,3,3,0,3,5,9,1,0,48
5,1,1,7,0,2,1,7,9,72,4,5,0,7,11,8,5,0,65
7,4,12,3,3,6,27,15,6,153,12,16,28,8,7,11,20,0,134
35,8,26,28,7,23,21,11,0,272,18,81,33,23,22,26,21,18,189
47,11,44,41,21,39,20,36,13,681,29,111,36,26,40,38,33,0,640
43,17,42,30,19,55,34,38,0,540,33,97,38,40,45,65,37,13,450
44,14,27,45,17,51,48,39,1,629,42,112,65,53,22,56,45,0,520
41,12,29,42,11,64,29,32,0,440,29,104,43,44,37,47,38,5,353
20,2,5,8,7,13,9,8,0,192,14,37,8,7,11,16,18,8,145
41,8,21,29,6,31,43,18,0,296,28,73,47,22,13,40,21,12,237
59,12,52,34,27,65,28,48,0,556,38,98,46,35,34,77,46,44,463
58,16,53,59,23,90,61,35,0,577,57,162,73,31,50,109,46,10,434
62,9,43,34,12,32,44,54,0,430,48,112,66,42,36,44,34,2,336
5,2,3,3,2,8,1,3,0,69,4,13,4,4,6,3,7,0,55
15,0,1,6,0,4,8,5,2,81,4,14,9,6,3,8,7,0,71
29,16,23,37,13,32,100,14,0,545,55,45,99,45,35,49,48,19,414
9,10,7,13,2,17,30,12,5,153,48,4,30,12,3,19,18,0,124
2,6,0,1,0,1,0,2,4,66,0,0,0,2,3,8,11,0,58
0,1,0,1,2,1,0,1,0,45,3,0,0,0,6,1,1,4,36
0,1,1,2,2,5,2,3,1,24,1,0,2,3,0,5,1,0,29
1,1,0,2,5,3,2,5,0,59,0,3,6,2,3,5,3,4,52
3,4,2,0,0,4,0,0,2,25,1,2,0,1,3,7,4,0,22
1,2,1,0,1,4,0,5,0,36,0,0,1,2,9,4,1,2,31
17,32,16,17,6,34,21,33,0,584,4,31,21,34,96,37,50,15,472
1,0,1,6,4,3,6,5,0,89,3,0,5,2,5,4,10,4,82
0,7,3,1,0,1,0,4,0,21,0,0,1,0,8,6,4,2,16
2,1,5,2,6,11,1,6,2,163,10,1,8,7,3,18,14,0,138
4,10,2,6,6,22,4,4,0,291,1,3,6,5,41,27,26,1,239
20,5,23,10,9,41,14,14,4,306,88,11,24,11,18,40,24,0,230
4,2,3,11,3,9,19,9,4,74,25,6,10,16,10,9,8,0,54
16,9,9,11,18,25,6,11,0,351,7,21,7,16,29,33,33,3,307
21,13,8,15,17,21,2,25,2,502,5,40,5,13,31,37,52,0,443
28,43,17,30,23,33,18,34,0,562,5,49,24,24,93,45,79,21,448
6,12,0,2,4,14,5,16,13,93,1,0,9,1,15,18,21,0,100
4,3,1,15,6,17,0,5,0,183,4,9,3,7,18,11,27,3,152
23,22,16,22,17,39,8,30,0,527,9,45,22,18,78,52,47,4,429
26,19,5,8,26,62,8,28,0,649,7,34,19,16,50,77,62,2,564
26,19,7,23,28,37,23,35,0,689,5,27,29,21,80,70,56,2,597
30,20,23,23,23,40,7,32,0,509,3,51,15,19,70,49,54,7,439
19,9,15,18,22,28,11,11,0,910,3,29,18,15,33,27,48,0,870
24,43,20,14,28,43,9,26,8,470,3,36,13,22,63,40,75,0,433
11,16,9,10,16,40,25,23,0,475,6,22,30,21,44,39,52,13,398
7,16,6,7,16,28,9,17,0,451,4,4,8,7,43,47,49,19,376
9,2,3,7,1,18,14,7,0,120,3,13,15,4,20,16,6,0,104
15,2,17,22,7,25,55,24,3,369,14,30,60,23,59,28,21,0,304
23,16,17,18,8,35,22,18,23,785,25,30,30,36,38,48,59,0,699
47,31,39,39,11,59,44,37,0,507,49,89,61,41,48,49,56,1,420
5,6,1,4,10,26,3,2,3,196,6,2,1,11,8,25,12,0,191
73,22,38,48,26,97,50,52,0,744,21,172,70,63,49,127,54,25,569
34,16,26,20,20,34,30,40,1,500,15,65,43,28,32,56,49,0,433
38,7,18,28,7,36,13,18,7,503,14,78,26,36,18,38,23,0,442
29,8,14,20,11,25,7,17,0,300,3,50,16,10,11,34,19,29,259
23,16,20,31,15,39,14,37,0,404,7,54,18,25,33,64,28,10,360
51,14,20,29,5,47,30,20,0,541,9,99,38,29,27,59,29,6,461
41,20,24,31,8,43,29,23,0,481,12,94,35,25,24,62,33,7,408
26,9,15,34,21,48,20,27,57,526,14,92,32,39,29,59,47,0,471
3,1,1,7,2,9,11,4,0,118,3,4,12,13,2,19,3,5,95
11,4,2,8,5,7,17,2,9,110,6,19,22,12,5,17,9,0,85
2,3,4,2,2,3,1,1,0,108,4,5,5,4,5,4,7,1,91
39,11,22,17,18,27,24,31,6,776,21,103,44,47,30,49,59,0,618
26,8,13,19,6,26,10,18,0,426,10,55,22,24,32,47,29,1,332
8,1,3,21,6,17,7,9,0,367,1,22,10,20,20,23,26,1,316
6,2,9,5,6,13,14,6,0,73,40,2,8,8,8,20,10,1,37
5,3,14,11,2,15,15,16,0,190,14,14,16,15,46,18,12,7,129
6,2,8,14,0,13,5,7,0,79,4,7,3,20,8,10,6,4,72
20,24,15,31,7,31,17,33,10,748,19,39,39,50,28,52,52,0,657
5,12,4,18,9,28,9,15,0,440,5,15,20,25,25,44,39,9,358
13,12,10,11,7,25,12,18,2,159,5,19,19,8,8,34,16,0,160
3,10,0,1,4,20,5,4,4,144,1,4,4,2,19,27,19,0,119
0,3,3,1,3,8,0,6,0,102,3,0,4,4,7,2,7,7,92
4,7,2,13,16,22,12,20,0,395,8,14,21,11,12,38,34,0,353
13,3,11,12,3,19,34,17,8,293,11,34,40,22,42,20,19,0,225
32,3,29,37,9,11,127,17,0,500,37,55,112,43,17,32,39,5,425
5,2,6,10,5,12,2,11,0,143,10,9,5,12,6,31,13,1,109
2,4,1,2,5,6,3,5,0,167,1,4,4,3,4,11,10,0,158
1,4,5,6,4,15,8,12,5,70,6,2,11,6,15,12,11,0,67
15,30,8,26,13,40,8,29,16,621,5,22,14,43,62,68,63,0,529
8,2,3,4,3,15,3,10,3,154,4,10,6,6,2,19,15,0,143
10,7,4,15,6,10,4,4,0,137,21,9,2,9,6,10,15,1,124
8,2,7,2,0,11,5,5,0,34,28,4,4,2,17,2,0,0,17
12,2,3,2,5,5,12,9,0,63,0,9,10,5,6,2,2,7,72
8,0,1,0,1,11,3,10,0,63,1,10,8,0,3,6,9,0,60
6,2,6,7,7,13,1,13,0,60,2,5,4,9,5,12,8,7,63
13,0,17,18,3,21,22,9,0,212,15,37,32,16,20,22,7,0,166
3,8,5,1,0,11,0,4,0,67,2,3,1,5,6,6,11,4,61
9,2,11,15,5,19,12,28,6,226,12,19,14,13,34,25,9,0,207
11,7,5,3,7,19,47,19,4,231,7,16,56,12,65,11,15,0,171
8,6,27,19,4,18,26,13,0,288,33,23,21,20,19,35,16,6,236
6,16,4,11,9,36,4,23,8,629,3,12,3,13,32,42,41,0,600
8,1,3,3,1,11,5,4,0,48,2,10,3,11,3,8,2,2,43
16,10,7,22,12,32,12,28,0,622,14,27,33,30,26,40,34,11,546
10,11,16,10,1,14,17,7,0,148,24,14,16,11,10,17,9,0,133
1,1,0,3,2,1,0,10,8,113,0,1,5,3,16,0,8,0,106
3,13,4,1,7,25,9,10,0,259,1,7,12,7,11,26,27,10,230
7,11,6,11,11,10,1,16,0,295,6,12,2,14,30,15,18,3,268
4,1,0,3,0,0,5,6,1,16,1,4,11,1,0,0,4,0,15
36,11,20,22,22,37,37,19,1,400,11,40,63,20,50,49,44,0,328
46,11,34,29,22,39,45,30,35,858,12,48,67,49,60,39,63,0,811
4,6,6,13,8,9,3,20,1,298,2,11,10,26,31,9,24,0,255
9,7,8,22,5,22,1,14,0,162,3,16,11,22,28,29,18,2,121
25,11,22,36,13,47,20,28,0,507,7,45,31,23,51,51,49,0,452
27,11,24,51,19,57,40,41,21,685,12,44,69,69,80,47,51,0,604
51,29,37,42,33,85,32,53,31,543,19,60,63,49,96,92,57,0,500
29,17,12,22,24,68,6,15,0,358,9,27,20,31,44,51,40,5,324
19,18,20,16,23,54,12,22,3,367,4,37,34,29,48,62,40,0,300
28,20,19,19,32,47,16,28,0,342,3,32,38,23,48,48,29,15,315
36,21,21,30,27,92,18,36,0,476,12,36,47,27,65,92,50,7,421
45,11,17,46,19,87,32,31,0,499,10,43,57,35,74,79,51,1,437
53,19,21,39,14,52,28,15,0,378,10,64,44,37,58,50,44,3,309
19,15,11,33,21,63,21,29,4,483,10,20,32,29,61,47,47,0,453
13,13,19,23,15,24,23,24,4,443,12,31,40,22,47,36,39,0,374
22,10,19,34,17,45,16,23,1,559,8,37,38,41,63,48,50,0,461
34,16,28,39,26,38,24,25,0,351,11,47,47,37,66,47,39,7,280
36,25,28,43,31,79,29,63,0,748,26,47,44,49,108,73,94,27,614
14,1,9,9,2,9,9,17,0,128,24,19,13,19,13,10,16,0,84
38,19,26,42,14,69,56,47,0,599,18,61,64,46,90,79,57,9,486
9,6,4,6,10,13,8,7,0,250,3,3,5,10,22,10,18,8,234
3,1,2,8,2,10,9,7,0,114,7,3,10,9,18,13,11,6,79
1,1,4,2,3,2,0,6,0,61,2,8,0,4,7,4,4,1,50
7,15,1,7,12,9,4,7,13,414,1,8,4,5,13,15,30,0,413
28,15,12,15,6,16,15,19,0,371,11,47,9,16,26,27,48,9,304
5,2,3,7,1,10,1,1,0,66,3,14,1,5,3,12,7,7,44
3,3,3,0,7,14,0,6,0,111,3,9,0,2,2,14,11,3,103
10,2,11,6,9,15,4,10,0,262,3,19,5,13,15,21,18,10,225
30,16,18,25,21,36,14,39,0,588,13,51,20,16,26,55,45,13,548
6,3,7,18,6,20,9,9,0,221,9,4,18,15,11,22,27,1,192
50,25,19,38,26,70,37,49,0,520,6,34,62,38,179,62,32,11,410
18,13,16,22,23,57,23,33,0,525,3,27,23,28,162,55,21,3,408
36,18,27,27,36,67,21,53,12,554,4,37,55,33,140,78,55,0,449
31,10,14,44,28,74,28,44,0,568,10,30,41,41,173,54,31,0,461
46,17,27,47,40,76,32,79,7,657,15,48,49,50,228,85,56,0,497
30,16,19,55,30,44,20,33,27,670,11,35,51,48,134,43,40,0,582
35,14,34,27,35,75,10,42,0,700,12,29,40,28,171,64,52,9,567
50,16,29,53,40,67,41,42,11,724,13,51,62,57,246,62,53,0,529
5,6,5,15,11,11,6,14,0,465,1,8,12,7,25,10,17,33,425
9,7,0,6,8,10,0,5,0,60,0,0,8,4,31,8,7,7,40
2,6,5,7,4,11,1,10,6,41,0,13,3,4,37,4,8,0,24
1,2,2,4,1,17,1,7,2,143,2,3,5,4,26,6,6,0,128
24,13,22,52,36,61,10,39,0,768,16,32,33,39,122,72,56,16,639
15,3,10,19,11,30,13,13,0,263,3,14,26,25,61,16,14,1,217
29,17,18,14,23,74,15,30,0,592,8,23,43,15,129,62,41,11,480
39,26,17,32,45,69,33,43,11,657,5,38,58,27,206,55,65,0,518
34,11,14,28,21,52,11,29,20,990,5,44,28,36,96,32,40,0,929
9,9,41,13,14,24,21,15,12,311,78,17,32,15,18,33,20,0,256
25,6,8,14,9,29,9,18,20,358,13,18,27,27,44,44,38,0,285
6,6,8,5,5,10,11,7,0,79,15,8,10,11,7,15,13,2,56
10,23,7,4,7,36,7,25,1,423,16,10,7,16,35,37,49,0,373
13,14,14,14,16,29,15,12,3,275,20,19,21,23,16,51,27,0,228
0,0,0,2,4,3,2,2,9,80,3,0,3,1,7,1,8,0,79
36,14,55,54,19,38,103,59,0,596,28,55,97,53,167,49,51,6,468
3,4,0,9,4,9,4,3,1,169,4,5,10,9,5,17,12,0,144
49,5,18,36,23,53,101,24,0,675,15,41,116,57,77,49,63,10,556
28,7,22,29,11,38,72,35,15,533,22,43,96,49,70,42,52,0,416
3,7,3,1,2,8,3,3,1,52,0,2,6,5,14,3,20,0,33
18,7,15,37,16,36,13,24,1,393,9,45,39,32,37,54,49,0,295
31,18,18,41,12,42,23,23,6,583,25,42,54,71,63,49,75,0,418
11,0,9,18,18,19,7,13,0,255,7,17,12,18,45,16,13,10,212
9,5,11,15,11,20,8,12,6,177,10,11,8,23,9,25,27,0,161
4,1,7,9,4,22,11,6,2,101,6,9,7,7,19,17,14,0,88
25,13,7,40,12,51,19,54,0,465,22,30,32,39,61,56,44,0,402
27,15,43,37,23,61,32,32,0,560,25,40,70,58,102,60,47,5,423
16,8,11,10,5,23,13,25,1,271,16,15,21,16,37,18,28,0,232
13,1,20,38,13,43,52,31,0,537,85,25,70,24,40,45,32,0,427
13,7,19,18,11,38,28,25,2,478,54,31,36,29,32,45,22,0,390
35,3,18,22,13,47,35,33,12,294,12,44,35,36,57,42,40,0,246
17,9,8,3,4,11,3,17,12,223,18,15,11,13,12,33,30,0,175
13,4,4,7,7,8,12,7,0,75,10,27,9,4,5,6,9,2,65
100,26,59,85,43,99,58,82,0,1319,53,172,65,117,63,112,110,32,1147
51,35,26,46,22,95,32,67,21,778,23,107,48,67,62,123,83,0,660
26,23,25,51,14,71,20,48,0,655,20,60,30,55,52,80,62,25,549
18,12,20,29,18,77,23,35,15,517,17,43,23,41,33,69,56,0,482
40,15,33,33,25,60,22,54,0,605,15,62,27,47,35,61,62,6,572
34,20,37,28,25,72,53,56,20,531,26,60,69,38,30,76,55,0,522
3,2,7,4,4,3,0,4,3,62,2,11,2,5,2,1,5,0,64
7,3,3,18,2,19,12,4,0,107,4,14,15,9,12,11,8,1,101
33,11,27,34,11,43,22,41,0,376,14,67,32,46,42,48,33,5,311
27,16,20,37,16,56,27,16,0,435,13,53,38,69,41,70,36,7,323
22,16,23,16,18,25,16,16,10,354,10,35,20,43,49,38,35,0,286
32,7,26,29,8,45,14,15,3,387,13,37,34,32,42,43,40,0,325
16,8,12,22,10,39,28,16,1,399,13,28,46,33,40,47,32,0,312
9,4,3,11,3,17,2,11,2,154,5,16,1,20,10,22,9,0,133
13,7,4,12,7,13,7,6,0,194,9,6,13,12,15,26,33,4,145
19,3,13,23,6,19,4,19,3,161,16,22,7,26,31,17,10,0,141
23,13,13,44,13,38,28,37,1,515,75,30,42,26,41,47,47,0,417
16,8,10,11,5,17,3,16,10,190,9,25,6,15,13,24,15,0,179
0,3,1,5,3,7,3,3,0,89,3,1,0,5,17,13,8,2,65
2,1,3,4,1,8,9,7,0,63,1,1,2,1,9,8,8,9,59
4,3,0,2,3,8,1,4,8,130,0,6,3,5,29,5,7,0,108
0,3,0,0,4,4,0,5,0,58,0,0,2,0,5,4,19,3,41
30,26,48,16,24,70,18,66,0,707,39,56,16,35,115,93,68,24,559
18,22,10,15,19,64,14,42,0,745,9,23,10,28,70,67,62,6,674
20,25,26,8,25,51,10,40,3,560,22,32,12,17,84,60,72,0,469
1,1,2,7,1,1,1,3,0,45,6,2,2,9,1,1,2,0,39
14,1,5,5,3,5,1,10,0,53,0,9,3,6,5,5,5,11,53
2,1,3,11,2,3,11,5,3,83,3,10,8,5,10,12,5,0,71
4,5,1,5,10,18,6,7,0,200,3,6,4,3,15,20,18,6,181
25,20,37,50,8,37,45,44,0,536,38,56,57,50,71,44,50,29,407
54,20,16,46,39,84,28,50,0,688,16,73,58,52,81,127,42,17,559
59,35,25,68,41,89,44,92,0,882,29,81,55,80,115,98,83,23,771
59,16,16,31,25,79,16,59,14,559,8,67,37,36,85,88,61,0,492
36,19,22,30,18,33,39,37,4,537,24,51,53,44,70,61,51,0,421
48,17,24,47,31,70,16,35,0,590,9,73,53,38,60,76,57,10,502
23,9,17,23,19,50,12,44,0,740,12,52,31,24,37,49,45,5,682
45,14,28,54,24,78,17,43,0,688,27,48,51,61,63,98,51,14,578
38,16,24,33,19,68,25,37,0,580,7,54,41,36,54,89,31,23,505
44,20,43,87,34,81,58,57,24,850,28,57,86,80,262,54,88,0,643
59,20,30,47,27,85,29,64,20,650,18,54,43,45,255,76,57,0,483
46,16,49,46,15,60,40,52,0,616,18,51,50,42,200,50,41,2,486
9,1,1,5,0,11,0,7,4,81,0,4,3,4,26,6,4,0,72
27,13,35,78,13,58,80,34,1,412,10,46,98,61,117,56,48,0,315
36,5,52,66,17,40,86,51,0,509,15,54,121,61,149,46,34,10,372
3,6,1,2,6,14,13,6,0,86,5,5,13,3,10,15,11,3,72
9,11,1,13,13,25,10,14,0,333,6,12,6,6,48,23,32,10,286
38,8,23,38,7,28,26,33,7,407,36,42,40,50,45,36,36,0,330
6,12,9,12,3,15,11,12,2,190,2,13,14,12,13,23,15,0,180
47,8,39,59,14,54,43,43,12,583,21,54,57,52,156,58,37,0,467
1,8,4,21,16,36,18,23,16,454,9,3,24,23,39,51,46,0,402
10,7,14,21,15,16,35,18,2,329,9,25,57,30,33,31,40,0,242
1,8,4,4,1,0,3,14,0,59,3,1,5,5,25,0,8,10,37
11,9,12,12,8,29,15,12,0,232,4,7,10,12,81,23,18,4,181
6,1,5,7,11,24,11,14,6,108,11,8,11,18,20,25,9,0,91
3,1,2,4,2,10,4,1,0,88,5,7,9,5,4,14,5,2,64
11,6,18,41,10,31,73,21,3,537,22,34,123,43,50,54,40,0,385
4,6,4,12,6,9,14,9,3,145,9,9,14,13,29,16,16,0,106
13,16,13,15,26,31,16,21,0,415,39,43,21,27,27,33,51,0,325
4,5,0,9,3,3,0,8,0,37,5,5,1,6,8,3,4,4,33
3,2,12,7,3,25,5,6,6,112,8,3,4,6,34,18,17,0,91
12,10,11,13,4,16,9,11,0,163,14,22,17,8,15,20,23,4,126
18,1,8,15,11,16,31,15,9,145,5,16,40,17,21,15,18,0,137
9,6,9,7,9,15,3,12,0,161,2,4,14,22,18,20,15,0,136
9,0,3,17,14,17,15,21,5,430,14,16,17,19,28,20,29,0,388
8,1,8,11,3,14,4,18,3,109,3,10,7,11,32,11,21,0,84
19,4,8,6,7,13,28,9,0,193,17,24,34,15,20,13,17,3,144
3,2,11,14,5,8,28,11,10,111,9,7,30,14,17,13,14,0,99
25,5,19,39,3,24,12,34,15,257,13,22,33,50,55,33,28,0,199
2,2,2,3,0,6,2,2,0,41,3,4,0,2,3,5,7,2,34
19,0,9,9,2,17,10,10,3,142,20,29,19,10,14,16,9,0,104
6,4,8,8,9,31,8,17,0,193,4,4,2,4,115,7,19,14,115
6,0,5,7,0,7,4,3,3,22,7,4,9,4,1,5,4,0,23
20,22,10,43,29,58,19,39,28,1165,22,49,31,49,75,82,84,0,1041
7,12,15,23,13,41,31,24,4,395,17,23,37,19,70,49,44,0,306
4,3,7,13,9,16,14,17,0,150,6,7,19,10,36,21,24,6,104
6,4,4,11,2,15,6,18,0,64,5,5,7,6,16,14,12,1,64
8,13,5,15,9,22,8,11,0,240,13,22,8,9,8,23,33,4,211
16,16,7,22,14,16,6,20,0,238,17,15,15,32,15,33,49,6,173
17,12,22,25,16,38,15,35,0,551,17,22,25,41,59,55,49,13,450
23,7,10,22,12,18,12,24,0,336,20,25,22,29,12,27,33,1,295
6,0,0,5,2,6,2,8,0,51,2,3,4,5,5,5,4,1,51
3,2,11,6,5,1,6,17,2,95,6,9,10,12,19,5,16,0,71
5,1,5,21,3,5,1,8,3,54,3,7,4,11,11,5,8,0,57
4,1,4,11,4,8,12,7,0,102,8,8,10,3,9,6,14,0,95
8,3,12,11,2,9,25,11,0,80,4,9,41,9,26,10,12,1,49
18,11,11,11,23,34,32,25,16,528,7,26,34,23,50,43,32,0,494
17,22,9,14,15,34,4,39,0,250,13,16,7,17,39,51,43,2,216
4,3,2,5,3,10,1,6,3,44,1,5,2,4,11,10,4,0,44
14,10,19,25,8,32,28,23,12,285,37,18,37,31,14,37,38,0,244
11,7,6,11,5,37,12,14,17,523,5,15,13,15,62,42,27,0,464
5,3,7,10,2,5,1,12,0,227,7,18,6,7,7,5,19,16,187
3,5,7,11,3,11,8,13,5,165,12,8,15,15,10,13,9,0,149
16,3,15,31,10,24,49,24,0,402,7,30,57,45,61,42,27,2,303
6,1,1,3,0,7,7,4,2,46,6,5,9,4,4,6,8,0,35
5,4,8,2,2,7,2,10,1,49,3,8,12,4,7,6,15,0,35
9,4,4,9,5,17,6,12,0,135,11,10,4,12,26,18,20,4,96
4,0,10,3,3,13,0,5,0,98,16,0,4,5,2,12,12,4,81
26,16,44,23,7,14,11,23,5,314,87,32,10,39,17,31,33,0,234
17,16,5,26,16,44,22,39,0,570,1,22,25,35,165,44,32,1,430
60,18,33,52,15,49,31,36,0,878,31,74,53,56,25,54,89,20,770
40,23,25,41,29,76,20,48,0,664,21,51,51,75,36,94,87,4,547
25,10,10,18,11,36,4,21,5,291,11,39,16,24,20,30,50,0,241
47,10,25,52,20,80,23,35,0,659,27,60,55,41,35,82,63,17,571
87,19,36,61,35,68,25,49,0,699,39,111,80,64,47,79,92,13,554
38,30,23,66,28,53,17,52,4,1143,44,60,32,60,54,84,105,0,1015
51,8,27,42,20,49,23,46,1,517,29,86,47,53,20,50,74,0,425
69,22,52,49,33,42,22,53,0,664,40,82,63,53,47,68,76,18,559
40,30,20,39,34,63,24,50,0,602,39,47,41,47,48,70,97,8,505
52,26,23,47,19,48,19,35,0,618,28,59,43,47,40,48,84,8,530
4,2,0,3,2,8,4,10,3,44,4,0,2,4,10,13,8,0,39
20,6,14,34,13,41,10,26,0,412,26,30,13,32,36,45,40,3,351
5,6,2,14,1,8,5,10,0,142,6,6,14,14,11,10,21,4,107
25,32,19,29,8,46,0,22,0,422,63,22,7,30,19,65,52,1,344
5,2,5,16,0,17,6,12,0,90,5,13,11,12,8,20,9,0,75
48,17,43,76,32,60,27,62,0,762,36,86,46,86,67,111,69,17,609
53,16,39,69,26,63,21,32,0,779,43,108,50,76,69,87,62,14,589
40,9,38,56,22,33,18,29,0,636,25,66,34,65,36,50,57,4,544
69,18,38,56,32,84,48,59,0,625,37,120,87,69,61,112,71,1,471
32,13,40,42,5,35,7,21,8,545,21,69,20,56,41,61,34,0,446
11,3,0,19,8,11,1,9,0,190,9,17,4,19,20,15,18,5,145
34,13,13,23,18,46,26,28,4,568,11,36,34,43,62,56,44,0,487
