A53,A7,A768,A721,A166,A47,A997,A998,A999,B166,B720,B53,B1470,B768,B997,B998,B999
2,12,15,5,3,8,9,8,91,5,3,9,2,20,15,0,99
21,27,49,24,37,15,46,38,349,57,35,61,16,43,40,0,354
6,5,12,2,13,14,8,4,83,11,16,9,1,13,27,0,70
6,9,18,2,12,15,14,0,283,5,8,14,3,23,32,15,259
53,24,37,9,15,39,26,3,298,37,35,63,10,44,50,0,265
7,6,18,1,5,9,26,1,209,8,20,23,2,13,15,0,201
12,13,11,7,19,6,14,0,128,16,12,21,3,18,18,10,112
8,10,25,3,15,4,23,8,105,12,25,12,6,14,28,0,104
6,1,3,3,17,3,7,23,92,25,13,4,1,13,16,0,83
5,12,7,5,86,4,17,0,145,39,17,12,6,27,22,8,150
1,1,9,0,31,14,0,0,44,14,6,3,1,8,17,0,51
3,3,6,0,9,5,1,7,63,10,3,9,2,13,11,0,49
3,3,15,1,22,5,6,21,73,34,4,1,4,11,9,0,86
4,8,15,0,12,20,12,0,124,11,5,9,1,26,25,6,112
0,13,18,1,8,13,9,5,87,11,5,1,1,19,19,0,98
11,4,17,0,5,4,11,11,76,9,5,10,1,10,16,0,88
13,19,16,4,16,11,13,25,117,24,21,28,8,25,18,0,110
3,19,39,6,14,9,19,2,246,31,19,15,16,40,24,0,212
4,11,11,0,36,4,2,0,101,29,7,4,1,14,11,4,99
16,16,20,2,36,12,17,7,169,41,19,12,4,25,16,0,178
19,14,29,11,32,5,31,19,151,62,23,67,10,21,19,0,109
58,39,96,55,158,22,109,133,862,208,111,160,56,90,81,0,826
12,13,24,9,2,6,15,0,83,13,11,17,5,16,12,2,88
16,10,28,9,10,2,19,8,218,17,34,26,5,23,17,0,198
8,18,16,2,51,4,13,14,127,35,18,15,3,32,25,0,125
5,13,18,4,3,5,13,12,83,13,11,7,4,22,12,0,87
1,3,7,4,11,2,10,10,102,13,13,13,0,13,10,0,88
23,13,19,4,25,15,11,10,146,30,28,9,7,21,22,0,149
3,14,15,4,9,8,7,0,107,4,26,16,2,10,10,5,94
8,10,12,0,8,11,8,12,71,17,23,10,7,10,6,0,67
3,13,18,4,12,7,6,0,147,19,8,5,1,11,21,12,133
9,10,20,6,25,5,18,10,110,50,4,25,3,14,17,0,100
8,3,13,7,19,5,9,30,149,29,18,43,8,19,13,0,113
10,14,11,5,6,38,6,19,146,29,8,10,3,25,35,0,145
7,10,4,2,16,10,12,4,110,17,11,10,2,9,14,0,112
5,4,19,0,20,7,5,1,64,17,11,11,0,26,2,0,58
7,6,16,1,30,8,6,1,117,18,22,25,0,16,9,0,102
14,10,8,4,22,8,12,19,80,44,13,16,2,8,9,0,85
9,4,14,7,6,9,8,3,38,29,9,11,1,5,17,0,26
47,32,75,23,84,40,74,28,468,125,66,105,17,62,61,0,435
29,21,86,22,63,17,63,69,441,113,55,67,14,68,57,0,437
56,32,78,11,67,27,62,0,413,99,34,104,8,61,60,3,377
22,37,66,1,32,23,28,0,467,64,25,32,7,56,44,32,416
20,29,45,3,29,28,38,0,324,37,17,26,9,54,47,35,291
32,23,51,9,50,33,43,21,455,94,40,66,9,36,54,0,418
32,26,50,12,35,18,41,0,436,53,57,75,14,42,34,37,338
31,18,51,12,61,16,37,0,260,76,22,49,9,41,34,25,230
32,26,49,5,45,21,17,0,304,66,22,72,8,49,30,13,239
17,50,64,5,25,23,23,0,349,42,22,20,6,69,52,22,323
30,28,58,5,28,26,27,0,344,48,29,42,6,43,42,27,309
39,19,57,19,50,20,54,108,435,86,45,94,26,55,40,0,455
23,36,79,10,47,29,47,0,555,74,49,70,13,68,61,16,475
12,37,50,10,22,22,24,0,392,46,32,25,4,50,31,34,347
34,44,78,11,53,49,63,0,665,108,72,81,13,72,75,36,540
23,18,42,9,21,15,28,39,685,51,27,36,11,34,40,0,681
9,11,20,4,9,7,9,8,131,17,8,12,3,25,13,0,130
14,13,38,3,13,19,23,4,209,29,24,21,1,43,29,0,189
16,8,17,4,5,4,7,0,108,15,14,18,8,22,13,1,78
13,19,31,4,14,5,22,9,150,27,21,16,5,24,16,0,158
5,10,40,7,23,9,11,4,156,26,10,21,5,30,22,0,151
4,3,15,3,7,9,14,0,52,12,10,6,1,17,7,3,51
10,16,34,3,31,8,20,1,236,42,27,18,5,27,18,0,222
38,17,43,4,27,17,19,0,219,33,19,32,10,46,33,9,202
19,29,58,12,42,14,34,6,558,56,52,30,11,55,45,0,523
13,43,89,1,37,19,31,0,387,59,32,30,12,65,56,2,364
2,4,7,4,13,2,14,6,47,23,6,6,2,5,5,0,52
0,3,6,0,5,5,4,9,54,9,8,0,1,11,10,0,47
7,1,6,2,5,4,3,2,52,12,1,6,3,0,6,0,54
0,2,9,1,7,3,8,0,39,9,8,2,2,6,10,2,30
2,2,2,0,1,5,0,0,31,2,1,3,0,4,10,3,20
2,4,0,0,2,5,4,2,28,6,2,5,0,5,4,0,25
19,41,58,13,50,21,62,0,550,99,39,47,12,55,64,10,488
0,1,9,0,2,2,7,0,13,9,0,0,0,8,3,3,11
9,8,28,2,27,10,50,6,129,40,15,15,6,19,30,0,144
5,6,9,3,6,3,11,6,75,12,6,13,2,8,12,0,71
2,17,8,1,5,3,9,0,52,10,6,4,0,19,15,3,40
21,16,40,17,82,9,48,35,264,94,39,54,25,51,37,0,232
0,0,6,4,12,0,18,1,77,8,12,4,2,8,5,0,79
2,12,4,2,3,7,5,0,81,2,2,5,3,10,5,1,88
15,4,18,1,35,5,8,0,108,34,2,23,3,5,12,5,110
3,15,12,9,5,12,7,27,139,29,11,13,1,20,32,0,123
7,49,14,3,4,9,19,3,213,11,10,12,7,20,41,0,220
0,4,9,2,4,5,12,0,59,6,2,1,0,4,7,13,62
2,3,7,0,7,3,2,4,30,3,0,7,0,12,1,0,35
1,4,2,0,4,2,9,2,33,23,2,1,1,0,5,0,25
7,10,2,3,7,0,3,2,50,13,3,12,0,6,8,0,42
24,52,74,15,75,32,62,33,662,116,68,45,13,79,52,0,656
3,19,29,4,10,16,19,0,158,20,11,14,3,30,32,0,148
13,40,52,6,27,57,53,0,484,62,32,25,4,78,67,18,446
6,3,5,6,31,5,21,17,76,36,6,14,11,6,17,0,80
1,13,1,0,1,0,2,0,35,3,3,0,1,3,3,9,31
6,13,12,0,13,5,20,0,66,16,5,11,1,13,16,14,59
4,15,10,1,3,11,8,2,47,3,7,4,4,8,6,0,69
1,4,13,1,1,10,1,0,29,6,2,1,0,3,3,1,44
1,1,13,0,13,0,6,8,71,6,7,4,0,8,6,0,82
5,11,29,3,20,12,22,0,271,19,10,15,11,31,22,11,254
2,1,13,1,11,15,5,1,45,9,3,5,4,10,16,0,47
0,5,4,2,9,6,3,1,34,11,2,4,1,10,7,0,29
1,6,28,4,20,18,15,0,149,24,7,15,2,38,21,3,131
5,11,22,3,11,6,25,22,166,19,21,20,4,26,22,0,159
3,10,13,1,24,3,5,0,57,20,4,3,0,18,9,5,57
1,6,4,2,7,0,30,8,61,44,4,9,4,5,6,0,47
4,16,10,0,14,3,9,14,47,11,5,9,5,14,16,0,57
22,33,59,22,68,36,52,0,566,83,54,66,20,60,88,17,470
12,23,40,9,41,14,20,23,268,61,31,21,4,30,36,0,267
7,14,38,39,41,24,18,0,385,47,18,21,45,39,30,29,337
2,12,5,0,9,2,15,0,62,23,6,7,3,9,11,1,47
3,10,9,0,15,7,5,0,107,16,3,9,1,15,8,0,104
18,28,15,6,30,15,25,12,250,59,37,19,6,23,39,0,216
11,21,19,0,17,4,15,9,156,21,25,23,9,33,14,0,127
3,9,5,0,6,8,12,10,62,8,2,2,1,22,19,0,61
24,24,47,12,74,18,49,14,403,96,47,54,14,52,54,0,348
2,4,14,8,6,1,15,23,72,16,5,9,2,9,12,0,92
3,3,5,0,5,4,5,0,41,4,2,9,2,6,3,4,36
3,4,18,2,12,9,5,11,98,13,3,6,5,17,12,0,106
14,12,26,2,20,20,28,7,201,26,12,15,6,14,24,0,233
2,4,1,3,1,7,17,12,83,13,17,6,2,7,19,0,66
4,5,10,2,8,14,20,5,62,13,8,10,2,20,23,0,54
6,1,6,1,5,0,5,8,20,4,8,0,4,10,3,0,23
6,22,26,8,20,8,18,0,238,35,31,17,2,30,19,4,208
0,5,15,0,14,0,5,2,25,22,4,0,0,7,1,0,32
28,18,21,10,17,12,33,61,420,44,47,40,11,38,46,0,394
3,15,6,0,7,16,14,16,90,26,4,1,0,12,20,0,104
2,9,6,1,1,3,13,0,92,18,3,2,3,5,13,3,80
0,8,12,2,3,0,11,6,47,11,6,3,2,4,15,0,48
0,7,2,0,2,0,0,0,43,3,3,5,0,11,1,0,31
3,9,7,2,1,0,5,2,36,5,14,5,1,4,4,0,32
2,14,6,1,4,4,20,4,75,27,14,8,5,6,10,0,60
17,28,50,16,14,34,26,0,373,32,25,33,36,57,41,11,323
7,5,21,5,5,6,17,1,48,20,8,10,3,20,12,0,42
0,8,11,0,6,11,20,0,137,18,15,10,4,12,15,1,118
4,8,24,1,25,19,51,0,169,30,13,8,4,36,29,2,179
17,25,32,2,13,26,23,0,156,31,5,23,1,31,26,4,173
0,1,16,2,2,8,2,0,76,5,2,12,2,6,4,0,76
7,14,52,13,49,10,23,0,433,52,34,28,9,68,25,12,373
11,6,16,3,7,0,20,13,80,33,4,16,2,12,8,0,81
9,7,18,1,8,18,12,9,101,30,5,6,0,23,19,0,100
26,19,63,5,85,16,39,25,376,92,44,45,8,69,45,0,351
17,34,40,7,40,33,36,2,652,64,35,30,11,60,49,0,612
13,3,9,5,17,4,6,26,87,18,16,22,2,16,16,0,80
13,18,48,8,49,8,23,19,217,39,36,55,8,45,34,0,186
23,50,89,9,45,38,37,17,601,73,56,57,13,87,60,0,563
3,20,42,6,18,19,21,0,295,33,20,12,12,43,44,0,260
2,4,8,6,7,0,12,4,68,10,10,3,13,10,2,0,63
10,8,9,2,10,9,18,10,115,20,6,10,11,13,15,0,116
1,5,24,1,17,3,6,19,120,21,7,15,0,8,15,0,130
1,4,15,4,9,8,11,0,81,10,6,7,1,12,20,8,69
13,30,56,9,26,15,39,0,532,47,41,32,7,55,38,8,492
24,35,42,22,29,16,52,18,504,66,47,55,35,64,39,0,436
23,34,96,9,42,28,17,25,497,78,24,54,20,77,41,0,477
0,5,13,1,8,16,6,3,73,11,7,9,4,12,12,0,70
0,6,17,1,3,10,10,16,57,11,4,4,0,10,16,0,75
0,4,10,4,8,2,5,0,30,13,1,6,1,14,6,4,18
6,7,30,8,26,3,11,13,133,32,15,15,5,27,12,0,131
11,9,33,9,23,10,7,0,146,24,25,26,6,17,8,4,138
43,45,88,19,95,23,63,65,611,122,64,100,24,93,55,0,594
29,36,111,8,74,26,54,38,679,102,58,69,9,87,67,0,663
14,18,34,4,19,25,21,8,316,49,20,22,10,32,33,0,293
17,13,30,7,16,1,14,20,189,28,23,32,6,37,23,0,158
4,4,4,1,7,6,1,4,84,11,9,10,0,6,6,0,73
12,13,24,5,11,9,16,0,146,22,10,21,5,19,18,2,139
8,9,10,4,38,11,24,11,187,54,10,17,4,21,20,0,176
7,7,9,4,9,10,16,0,78,28,7,9,4,10,17,2,63
2,8,5,2,11,4,8,0,65,16,6,6,1,5,5,2,64
0,7,6,3,12,7,9,0,85,13,8,2,0,18,13,3,72
3,31,10,2,3,3,9,0,141,14,8,8,3,14,22,7,126
6,6,7,2,11,1,7,7,49,11,17,11,0,9,4,0,44
0,11,7,6,8,1,10,4,71,19,2,5,4,4,6,0,78
8,11,6,2,14,1,17,3,90,17,15,13,2,6,13,0,86
0,12,28,0,12,3,17,2,129,23,11,5,2,15,15,0,132
13,21,56,6,20,7,36,2,287,35,19,24,2,59,39,0,270
37,93,73,4,44,35,81,0,470,79,42,51,10,64,79,26,486
0,3,5,0,4,2,1,0,33,3,5,2,1,5,3,0,29
1,13,18,0,9,18,11,0,162,17,11,7,1,12,26,3,155
6,15,25,9,42,6,18,0,198,60,16,16,6,25,21,13,162
8,8,34,4,14,5,11,40,108,27,17,29,5,19,17,0,118
31,14,61,3,22,10,15,26,297,52,38,38,4,46,22,0,279
8,8,19,0,22,12,23,6,167,27,11,13,1,37,29,0,147
7,4,13,0,1,10,6,4,38,11,3,7,0,11,5,0,46
2,13,16,0,16,11,10,8,102,22,6,1,1,27,34,0,87
4,23,13,5,18,9,10,2,174,38,4,21,3,11,32,0,149
5,27,66,4,53,9,27,13,196,70,33,17,2,32,40,0,206
5,19,9,2,4,9,5,0,125,29,4,5,4,20,13,9,94
23,36,74,19,88,25,52,2,724,138,47,67,9,73,60,0,649
8,5,17,0,5,3,3,12,51,7,1,6,3,18,3,0,66
1,17,10,1,16,9,16,20,92,25,18,14,4,16,22,0,83
11,1,27,2,15,6,13,0,81,21,12,21,3,13,13,2,71
7,4,8,0,23,0,8,3,93,36,12,10,1,12,11,0,64
7,47,31,2,14,12,25,0,153,31,12,11,6,34,51,8,138
9,9,24,6,28,9,21,0,224,65,20,13,4,18,29,8,173
0,12,13,3,28,5,11,10,146,41,15,11,1,18,26,0,116
5,20,16,1,29,30,28,11,231,41,27,29,5,32,35,0,202
7,12,29,6,14,14,11,0,219,29,18,22,3,17,22,0,201
14,49,59,4,49,51,30,0,464,57,30,23,2,100,52,42,414
5,36,30,8,54,43,38,0,362,45,18,30,7,50,51,0,375
27,19,46,7,47,33,21,0,487,51,30,43,5,60,36,3,459
19,20,58,5,42,21,32,0,375,40,21,38,6,60,53,10,344
7,20,22,2,11,2,14,0,147,27,12,9,5,25,19,16,112
5,15,35,3,21,7,18,0,168,40,10,6,7,17,22,3,167
0,4,3,0,43,1,4,18,54,37,5,0,0,8,6,0,71
13,43,51,9,64,32,48,0,646,124,32,26,13,85,52,28,546
11,46,36,6,50,27,34,0,486,66,13,18,9,50,49,64,427
10,28,33,10,56,34,50,0,628,97,29,12,10,54,55,47,545
17,58,56,9,91,30,50,0,1059,150,27,29,15,66,95,39,949
23,59,75,14,64,27,60,0,660,142,37,27,10,65,82,33,586
7,19,30,4,32,15,38,8,358,60,16,21,10,36,27,0,341
25,60,41,8,63,43,56,6,625,143,39,31,14,55,71,0,574
8,17,15,1,19,19,14,14,225,45,17,10,0,25,31,0,204
0,3,1,2,11,2,8,0,47,9,6,3,5,4,4,5,38
17,23,48,2,50,24,45,2,435,80,33,29,3,58,46,0,397
34,36,41,12,69,27,54,20,619,155,25,41,14,58,68,0,551
10,18,16,5,66,23,27,0,624,99,17,15,4,39,38,25,552
12,21,40,8,62,17,44,0,417,113,21,23,14,50,31,33,336
15,24,39,1,18,20,25,0,281,28,24,14,7,32,24,25,269
26,48,102,17,34,40,38,0,586,52,32,32,39,81,66,12,577
14,47,68,27,54,22,46,0,769,56,38,34,23,74,62,8,752
1,3,13,1,9,7,7,3,91,17,13,4,5,16,10,0,70
32,72,128,22,67,36,57,0,872,81,60,87,27,127,73,73,758
4,5,19,3,2,3,9,15,65,9,11,6,8,13,4,0,74
0,7,6,14,4,3,3,7,72,5,3,4,19,17,7,0,61
3,5,6,0,4,3,3,0,68,16,3,5,0,8,3,6,51
7,10,23,6,30,7,29,2,206,43,12,8,1,32,19,0,205
3,26,40,12,35,11,16,19,180,56,22,39,10,23,28,0,164
0,11,11,0,10,6,8,1,72,6,4,3,0,7,12,0,87
11,33,71,13,32,21,58,0,547,52,45,23,2,52,51,7,554
3,8,5,0,28,1,6,19,52,18,8,12,1,20,9,0,54
4,1,5,0,2,0,6,0,7,0,2,6,0,3,6,1,7
1,7,5,0,1,1,2,11,72,8,2,8,1,11,7,0,63
0,16,16,1,7,7,11,16,140,17,12,2,1,24,13,0,145
11,30,25,3,5,14,17,23,200,23,10,12,2,40,34,0,207
0,12,8,3,6,2,5,0,37,6,3,0,1,12,10,2,39
10,22,41,7,21,21,25,0,317,57,20,15,4,32,35,23,278
5,3,12,4,7,1,4,0,85,7,3,11,5,12,8,2,73
9,12,22,6,34,10,17,14,191,41,7,18,10,27,23,0,189
29,39,52,8,16,33,50,0,493,24,35,53,7,59,66,17,459
16,45,41,6,17,31,35,0,624,16,36,40,9,51,59,82,522
47,47,63,35,49,20,79,0,664,60,68,115,29,75,86,45,526
36,27,60,15,24,37,45,79,627,51,48,91,17,60,85,0,598
27,30,34,11,12,16,45,0,619,36,34,58,15,40,55,54,502
44,25,55,17,33,29,63,0,628,51,56,117,26,33,62,15,534
51,17,34,15,17,18,42,24,494,33,49,76,18,34,52,0,450
29,36,49,9,24,30,58,0,572,45,46,74,11,53,66,18,494
39,31,58,12,24,18,49,0,580,40,48,82,19,43,63,16,500
102,42,79,28,43,30,93,59,586,64,67,169,40,74,98,0,550
61,47,66,36,44,49,90,0,594,74,57,126,32,83,80,8,527
60,47,50,21,52,28,69,32,555,75,72,129,14,53,56,0,515
9,6,11,7,11,10,23,16,132,10,17,31,5,10,16,0,136
13,14,11,5,4,13,23,7,85,12,11,24,4,10,28,0,86
85,35,59,11,27,38,55,0,1273,41,49,124,12,63,83,10,1201
20,16,32,8,13,22,31,16,375,24,30,35,8,31,48,0,357
1,5,8,3,13,1,14,0,40,15,6,1,2,5,10,3,43
87,35,93,31,48,30,91,32,599,92,74,139,19,88,98,0,536
64,52,79,43,54,31,42,7,561,41,72,136,24,55,70,0,535
0,13,7,1,7,1,9,5,73,17,10,3,5,4,12,0,65
11,26,5,2,1,6,13,4,189,13,19,18,1,13,27,0,166
33,36,61,13,38,48,40,10,484,47,69,48,18,70,75,0,436
5,19,12,3,12,9,10,6,175,19,18,17,4,13,22,0,158
22,9,18,6,21,6,26,39,258,34,40,59,17,25,25,0,205
2,6,8,0,6,5,11,0,123,12,7,0,0,15,8,7,112
5,31,27,9,14,12,19,4,251,14,18,22,7,29,30,0,252
23,77,94,52,26,26,43,0,566,56,48,68,16,77,82,20,540
22,18,43,21,38,15,39,113,448,85,69,74,25,49,39,0,416
46,80,52,12,17,57,39,0,302,28,33,55,13,71,99,8,298
11,51,12,6,3,9,10,0,118,20,9,22,4,29,40,7,89
88,23,61,34,39,11,56,67,427,105,104,128,36,58,56,0,319
60,62,43,19,23,33,58,0,813,36,56,65,22,50,87,57,738
102,118,92,27,42,67,58,0,729,66,58,121,16,92,113,142,627
11,20,27,6,38,11,21,25,306,54,33,36,4,20,43,0,275
8,14,21,1,9,12,13,0,136,14,14,10,3,23,18,6,126
41,84,61,13,33,31,62,34,782,55,62,115,24,64,82,0,739
19,25,40,8,14,24,20,6,154,14,18,29,4,31,42,0,172
51,47,54,15,26,166,54,3,567,34,47,87,12,60,167,0,576
8,17,18,4,9,34,13,0,111,18,13,16,1,18,42,4,102
76,56,83,34,65,47,76,152,891,107,113,169,48,77,123,0,843
22,30,32,3,17,34,17,4,248,25,34,51,4,39,37,0,217
0,5,1,2,6,3,6,7,51,14,3,3,0,2,7,0,52
0,17,7,10,15,6,9,8,95,23,12,13,5,7,15,0,92
10,17,25,7,13,4,24,0,235,28,13,31,7,29,25,9,193
67,62,101,29,34,59,84,50,1024,58,103,108,36,149,126,0,930
8,10,15,3,1,11,12,0,94,5,5,10,0,17,24,7,86
57,37,39,18,17,22,44,11,424,69,52,89,13,48,45,0,353
32,59,56,7,23,55,28,0,647,43,39,28,6,91,84,35,581
54,57,88,17,28,48,58,4,692,58,40,100,10,97,82,0,659
8,3,19,5,17,7,17,21,105,12,13,34,12,9,22,0,100
7,27,32,2,11,25,17,7,205,27,13,12,1,38,32,0,210
10,24,18,6,19,15,16,0,207,17,8,34,7,23,22,16,188
3,9,11,0,5,7,12,18,50,10,13,3,1,11,11,0,66
29,26,49,16,18,35,28,0,324,36,30,35,8,38,52,5,321
5,7,4,1,1,3,5,2,46,6,7,1,2,7,8,0,43
0,1,11,0,10,5,5,2,34,16,4,7,0,11,6,0,24
6,4,11,2,9,7,9,9,103,17,3,8,2,17,15,0,98
2,10,13,0,4,3,6,0,58,8,6,2,0,19,9,4,48
3,11,12,0,5,3,5,0,44,10,1,0,0,4,18,11,39
18,12,36,6,9,14,10,0,219,16,10,13,2,32,28,8,215
14,25,37,9,5,22,22,12,284,23,25,34,8,57,37,0,246
2,3,6,13,6,7,13,18,59,9,10,5,8,8,15,0,72
15,24,49,9,26,10,49,26,574,55,40,50,18,43,61,0,515
64,61,83,28,61,27,97,0,957,78,88,133,41,115,97,0,826
19,49,60,9,24,44,49,80,655,47,61,54,13,92,77,0,645
7,21,13,0,6,4,6,0,106,3,4,9,1,13,15,15,103
14,21,30,10,17,4,17,8,121,15,17,28,4,26,23,0,129
5,10,31,6,12,11,24,12,280,10,18,26,5,37,23,0,272
23,8,24,6,46,10,14,0,272,39,28,37,13,27,35,15,209
5,6,6,5,10,7,11,0,195,11,10,11,2,12,16,6,177
18,11,29,14,35,7,40,23,275,47,48,60,10,36,38,0,213
5,1,6,2,3,1,7,4,45,8,6,7,0,4,8,0,41
26,26,26,15,29,13,46,9,364,45,46,64,22,35,32,0,310
15,23,28,2,11,9,10,4,144,12,9,45,4,26,17,0,133
7,17,32,4,18,10,40,62,404,34,29,50,7,35,61,0,378
9,2,13,2,1,5,11,3,99,6,14,15,5,10,12,0,83
24,43,22,6,6,16,16,22,294,20,16,39,9,24,40,0,301
33,12,8,6,2,9,16,9,125,19,9,36,3,12,17,0,124
25,5,17,6,13,7,11,20,176,29,24,43,3,12,22,0,147
85,50,57,16,40,33,72,7,775,53,77,126,24,90,84,0,681
25,15,39,12,15,38,35,10,349,20,26,50,18,42,54,0,328
67,36,95,49,120,18,108,58,991,176,140,163,59,95,85,0,824
3,20,38,3,6,14,26,8,231,23,26,14,7,49,27,0,203
41,55,68,18,22,32,24,12,376,28,39,56,9,86,47,0,383
12,19,25,13,15,12,22,0,165,27,23,14,12,25,29,12,141
5,0,5,2,3,5,2,7,45,5,1,1,3,6,9,0,49
22,21,37,10,17,42,31,0,232,17,25,36,6,21,57,15,235
8,3,16,1,5,5,11,8,56,6,9,14,1,13,5,0,65
15,53,34,7,11,33,32,9,333,29,33,35,7,48,66,0,309
34,56,43,11,19,33,36,4,456,43,43,61,19,53,55,0,418
13,11,17,5,4,5,16,7,86,7,22,26,2,15,9,0,83
20,28,34,4,3,24,19,0,264,16,23,24,9,39,46,0,239
35,40,66,31,158,21,58,0,831,180,102,114,36,84,67,13,644
35,34,82,28,133,28,40,0,789,142,81,87,28,64,49,6,712
59,20,76,66,162,12,65,50,705,196,104,167,39,65,65,0,579
4,13,17,0,6,8,10,0,111,4,8,1,1,21,8,0,126
20,22,40,10,16,9,20,39,240,42,32,40,9,29,37,0,227
41,14,24,5,17,13,29,13,277,38,33,43,13,37,24,0,245
11,37,26,7,4,11,12,1,254,11,28,23,11,31,20,0,239
16,16,9,4,0,13,8,0,50,3,2,7,3,17,23,2,59
21,19,27,2,6,26,21,29,240,15,21,37,9,19,27,0,263
27,33,32,10,20,26,16,0,224,17,29,37,8,33,46,0,218
5,4,10,3,12,2,4,3,91,15,5,15,10,13,12,0,64
35,9,40,23,36,9,42,55,322,73,76,71,22,30,37,0,262
30,20,54,21,58,15,55,0,487,96,75,62,16,66,39,41,345
33,44,35,13,53,22,57,9,421,50,59,94,10,60,61,0,353
23,40,67,10,20,49,59,17,474,39,40,50,15,73,75,0,467
38,42,78,7,21,42,41,45,632,51,49,65,20,69,99,0,593
18,7,8,9,16,4,15,0,159,12,21,36,0,19,10,10,128
10,10,13,0,12,13,8,21,102,24,14,14,2,8,18,0,109
11,10,15,1,11,17,13,0,76,15,11,11,2,19,22,4,70
9,17,24,7,25,5,14,19,129,26,18,21,3,17,19,0,145
30,35,45,12,27,28,53,31,270,66,35,32,10,56,43,0,289
4,7,9,2,5,9,17,19,91,11,13,7,8,7,12,0,105
9,11,15,3,2,6,11,0,121,6,11,16,7,15,6,2,115
2,9,16,0,23,9,18,1,189,12,15,15,1,25,22,0,177
1,5,15,1,2,12,8,0,67,5,6,2,5,13,15,1,64
33,44,69,13,43,32,61,39,601,62,54,73,31,68,93,0,554
17,25,44,10,10,19,52,0,174,36,32,25,8,32,26,11,181
0,5,4,2,1,8,6,10,61,5,7,10,2,2,6,0,65
9,10,11,5,4,4,7,3,99,13,6,20,4,11,18,0,80
46,29,78,18,57,25,53,50,355,90,75,93,29,57,47,0,320
2,2,9,1,5,3,6,8,36,4,5,2,4,5,8,0,44
39,77,67,17,32,105,41,0,798,107,66,58,12,164,97,8,664
15,29,27,3,8,26,27,0,268,12,14,16,3,32,50,1,275
8,11,11,0,1,4,4,1,107,9,10,11,3,16,22,0,76
17,16,10,1,2,5,9,4,90,11,11,24,5,11,16,0,76
32,109,57,19,28,37,41,0,714,39,48,74,16,72,71,16,701
45,73,63,11,14,33,38,0,542,35,29,75,14,62,82,8,514
62,95,70,15,19,44,55,0,694,36,47,101,14,102,90,9,655
65,68,139,33,47,78,118,27,1101,112,108,110,44,136,167,0,999
16,5,32,4,9,7,16,0,102,34,8,17,6,15,9,6,96
20,8,33,8,32,6,14,35,155,52,28,40,13,24,26,0,128
32,43,71,11,22,27,48,0,634,39,63,44,23,62,85,46,526
72,43,47,31,22,22,57,0,490,41,63,72,26,54,77,23,428
48,33,62,26,30,26,64,27,559,49,62,67,32,52,78,0,535
69,16,59,59,37,41,95,0,4778,73,115,128,56,39,137,96,4510
30,42,67,7,21,29,50,0,567,32,74,48,19,49,83,3,505
45,26,65,17,35,24,79,0,723,46,68,44,28,51,81,43,653
48,33,38,14,27,11,31,0,375,37,51,49,21,35,47,11,326
30,38,64,9,14,29,52,0,604,31,47,37,4,58,79,64,520
48,51,62,10,21,38,47,0,552,27,36,60,10,99,76,11,510
95,71,124,31,51,45,89,0,812,88,111,115,38,102,126,41,697
40,67,102,14,21,62,41,0,678,42,52,43,9,96,81,67,635
24,49,61,6,17,29,54,0,670,38,63,27,30,55,87,4,606
33,33,81,20,24,25,58,0,677,21,48,28,20,74,90,62,608
40,23,52,24,26,38,58,57,758,46,70,36,22,63,92,0,747
65,28,85,22,32,43,73,0,587,47,62,81,19,84,105,38,499
62,40,76,16,24,22,47,0,649,33,52,64,15,78,52,177,465
16,32,46,11,13,37,37,0,423,25,32,28,12,42,65,26,385
79,38,83,24,37,29,51,0,627,72,51,84,23,76,76,20,566
62,33,73,22,26,22,56,0,598,60,63,48,18,67,80,49,507
35,32,51,16,23,44,42,0,592,39,59,45,17,53,74,34,514
38,23,46,12,16,52,34,0,679,31,49,23,8,57,57,39,636
43,35,51,7,19,28,42,0,530,37,42,43,8,66,74,29,456
34,23,44,9,15,41,40,0,661,35,38,32,14,35,59,22,632
49,31,78,9,22,35,64,0,795,31,80,66,14,56,115,76,645
61,42,74,28,42,28,65,0,514,66,56,70,33,51,84,43,451
34,27,78,13,27,31,46,0,431,36,56,47,21,69,71,19,368
49,29,73,29,23,26,30,0,513,44,39,42,20,66,56,37,468
21,34,68,11,16,27,38,0,488,19,38,26,8,59,83,33,437
27,24,47,18,22,41,32,0,509,40,47,26,8,47,57,34,461
53,33,71,24,27,31,53,10,605,49,67,48,30,48,83,0,582
59,36,62,18,30,34,67,91,694,71,88,59,22,75,100,0,676
97,43,108,27,41,45,84,0,576,68,94,123,39,81,94,8,514
69,33,70,24,47,42,86,10,713,97,69,75,41,73,119,0,620
42,38,50,15,17,50,43,16,688,25,67,55,18,54,85,0,655
73,47,73,13,27,68,72,83,707,60,75,78,34,82,125,0,709
55,35,71,9,18,54,32,3,585,24,64,62,10,57,102,0,543
23,20,48,7,12,19,46,0,413,27,41,26,15,31,62,6,380
21,27,34,2,10,24,44,0,624,29,31,21,5,32,71,16,581
5,22,31,1,1,17,10,8,231,4,27,14,5,35,36,0,205
30,40,44,8,13,32,68,0,754,34,45,35,8,50,91,46,680
25,45,46,7,20,32,52,0,716,36,39,55,13,57,72,65,606
25,56,81,8,18,25,65,221,846,42,58,49,15,100,97,0,984
14,25,49,5,15,31,30,0,661,31,31,33,14,43,70,81,527
19,29,62,6,10,21,26,34,713,37,45,32,9,63,61,0,673
30,63,69,12,13,28,37,0,667,32,59,36,9,71,74,29,609
17,40,60,6,12,34,45,0,630,29,44,27,10,55,73,58,548
38,29,57,19,20,34,44,133,593,31,50,52,24,72,83,0,655
26,36,58,12,17,32,56,0,560,38,39,39,10,42,72,46,511
21,30,44,5,25,39,43,0,713,21,41,28,10,56,70,27,667
24,50,50,18,18,26,43,0,616,18,40,25,11,72,80,62,537
12,31,60,6,15,39,35,0,728,26,26,23,16,65,74,57,639
27,37,54,5,10,31,37,0,629,33,42,35,7,54,75,44,540
23,18,56,14,19,26,42,0,539,37,46,25,13,33,56,46,481
19,39,42,8,13,34,48,0,551,33,52,25,7,49,77,56,455
48,54,75,7,21,37,45,0,526,29,31,33,7,79,76,43,515
27,39,54,5,8,32,48,0,536,21,34,26,5,51,76,29,507
17,15,48,0,26,2,39,30,294,50,28,37,4,43,37,0,272
16,6,7,5,12,5,12,5,67,8,20,18,6,13,18,0,52
22,9,12,6,8,5,14,14,191,20,12,27,3,23,22,0,174
2,8,19,1,9,2,2,0,27,12,2,1,0,18,3,3,31
2,13,10,6,19,35,17,0,146,18,11,7,9,18,37,4,144
45,85,106,27,47,73,81,85,995,77,104,98,31,109,142,0,983
65,50,80,20,54,41,60,13,473,69,70,99,39,79,64,0,436
1,6,6,1,5,3,8,5,69,10,7,4,3,8,4,0,68
17,7,8,0,4,4,13,0,44,10,8,26,1,8,11,5,28
34,43,41,11,32,36,28,8,419,38,42,60,9,49,69,0,385
2,2,8,2,3,4,13,3,34,16,6,6,0,10,6,0,27
19,21,32,7,15,24,20,8,339,30,20,37,11,45,35,0,307
24,28,38,16,35,41,41,0,349,26,48,35,11,38,66,11,337
5,10,5,13,23,5,9,2,79,24,23,16,3,12,9,0,64
6,12,7,3,14,6,7,22,112,21,17,12,6,12,13,0,108
3,5,6,0,7,9,6,0,123,5,11,2,0,13,17,6,105
4,11,8,4,10,3,7,0,109,8,14,12,2,11,15,18,76
18,20,29,0,23,23,18,0,370,18,16,14,4,36,46,17,350
45,43,72,21,39,44,44,147,591,106,80,88,35,93,65,0,579
70,39,111,29,63,58,68,48,804,70,152,99,23,86,115,0,745
1,6,5,0,1,3,2,0,15,7,2,2,0,3,4,6,9
0,1,6,0,7,3,9,1,28,12,1,8,0,1,10,0,23
5,1,3,5,11,3,7,0,49,15,2,5,5,5,4,5,43
62,48,81,25,43,32,48,0,502,83,75,60,15,82,71,0,455
11,21,13,6,9,26,26,0,259,16,17,13,10,26,35,24,230
9,2,23,2,9,7,24,5,182,10,13,12,4,38,29,0,157
4,1,12,3,9,4,5,4,39,11,7,12,0,10,7,0,34
29,22,55,16,34,25,42,47,265,37,41,76,19,62,52,0,248
26,17,17,4,11,11,6,0,129,19,21,21,2,18,14,14,112
11,15,19,1,12,18,17,16,318,17,14,7,7,26,30,0,326
40,28,70,22,34,24,39,115,636,59,82,94,37,50,93,0,593
1,1,11,0,2,5,8,0,54,6,4,5,4,7,5,0,51
20,5,25,10,25,9,17,0,217,18,30,34,10,15,24,10,187
12,14,52,4,19,20,23,7,253,26,20,26,11,29,37,0,255
62,57,118,37,61,43,103,12,1052,102,90,122,54,101,125,0,951
7,8,8,0,7,6,16,0,42,13,5,8,0,11,16,5,36
3,9,14,0,9,14,19,11,137,14,16,6,6,12,26,0,136
7,5,18,6,1,13,3,2,171,10,17,20,3,23,10,0,143
9,23,21,4,28,14,10,9,208,28,9,25,5,17,27,0,215
18,13,20,5,7,10,12,3,119,14,19,22,5,21,17,0,109
6,11,12,0,3,0,17,0,42,13,7,6,0,12,7,8,38
29,44,89,2,34,47,57,3,703,53,40,46,14,84,94,0,677
69,69,105,34,57,80,73,0,939,63,85,94,24,96,140,19,905
2,10,6,0,0,1,6,0,74,3,7,2,1,12,18,0,56
14,79,30,3,17,29,40,0,513,12,38,32,6,53,82,22,480
3,3,21,2,6,5,15,0,175,15,9,14,7,9,22,5,149
31,26,34,9,20,9,25,12,299,32,27,38,9,28,36,0,295
9,39,31,6,5,21,26,0,344,18,27,8,10,39,30,25,324
4,7,4,1,0,2,4,0,25,2,3,3,0,8,5,0,26
1,4,6,2,1,5,3,0,44,2,2,1,2,7,10,0,42
33,31,44,18,14,19,31,0,312,29,54,46,10,42,33,9,279
7,15,40,4,24,25,33,0,232,28,19,20,1,40,46,2,224
2,5,8,1,6,8,7,0,73,11,9,2,2,8,14,7,57
4,6,5,1,49,7,7,0,155,53,8,14,6,14,12,3,124
3,13,7,1,7,4,40,0,114,36,12,9,3,16,16,7,90
55,55,116,31,72,75,70,9,821,85,83,68,22,87,115,0,844
39,54,82,12,44,50,99,44,744,63,64,35,24,76,72,0,834
28,17,56,14,34,22,34,0,230,21,28,44,14,53,51,7,217
10,14,26,2,6,7,16,6,102,18,9,11,5,16,22,0,108
4,1,3,0,4,1,8,0,38,17,2,3,1,4,5,0,27
1,2,12,1,2,0,19,0,48,3,7,12,0,14,8,1,40
12,9,38,5,10,10,50,24,201,27,39,28,6,24,38,0,197
26,13,36,18,21,14,36,45,195,15,39,53,19,28,42,0,208
5,14,26,5,13,22,8,4,136,21,11,14,2,22,30,0,133
7,8,10,1,5,6,3,0,66,2,5,9,2,11,9,1,67
4,11,17,1,14,16,23,4,121,9,16,7,2,13,24,0,140
11,6,21,0,8,11,18,9,252,23,18,16,2,20,19,0,238
21,19,17,5,64,23,28,1,264,36,50,39,9,26,43,0,239
18,27,42,9,29,33,25,0,426,39,26,38,12,77,60,4,353
2,4,14,0,14,4,12,12,50,24,10,4,0,10,4,0,60
4,8,4,4,7,6,13,15,84,8,16,12,2,6,17,0,84
3,12,18,4,4,19,16,0,225,6,21,5,3,29,40,16,181
33,90,91,17,29,70,74,0,863,69,84,79,16,106,138,6,769
30,14,35,13,21,19,17,34,265,35,40,46,10,32,24,0,261
1,1,4,1,4,3,16,0,22,11,5,0,0,7,2,6,21
8,11,23,4,10,13,7,3,180,13,12,18,1,23,35,0,157
3,3,14,0,10,4,3,6,34,11,3,4,0,15,15,0,29
10,31,22,2,3,16,14,13,163,10,10,23,7,44,27,0,153
5,13,17,5,11,17,10,0,227,29,15,24,5,26,27,2,177
33,28,34,37,46,17,60,75,331,89,47,79,28,43,38,0,337
12,11,19,0,11,12,22,0,206,29,13,26,5,9,29,0,182
7,3,20,3,14,10,19,6,174,25,36,17,1,12,25,0,140
76,20,56,7,43,20,41,48,953,56,53,122,17,47,72,0,897
43,14,55,10,36,34,37,0,544,33,31,75,13,69,47,34,471
46,20,44,6,22,23,31,14,521,31,25,70,3,45,36,0,517
33,24,43,4,19,27,42,0,447,34,31,58,2,49,41,21,403
33,50,42,5,15,39,34,0,525,26,35,47,11,51,70,53,450
66,20,53,19,40,26,46,0,419,40,33,115,6,51,50,27,367
32,39,42,5,16,48,44,0,442,20,27,49,3,52,53,9,455
43,28,40,6,33,26,39,5,308,38,32,76,13,55,53,0,261
47,32,51,10,30,36,41,1,470,40,27,70,13,59,61,0,448
2,1,4,0,4,5,5,9,29,5,8,0,1,3,8,0,34
3,6,7,0,1,2,5,0,112,1,4,6,0,6,9,11,99
36,37,46,4,11,31,46,0,444,21,30,76,13,50,49,46,370
64,29,27,7,27,36,34,0,447,30,43,59,7,55,44,28,405
4,1,5,1,3,3,4,0,61,2,0,5,0,7,5,0,63
18,8,37,0,9,10,14,20,184,13,12,63,3,22,25,0,162
3,4,2,0,0,1,0,3,34,2,1,8,1,7,4,0,24
30,28,43,3,23,32,59,0,621,20,45,50,5,53,68,31,567
23,8,21,4,22,31,37,0,459,30,31,44,5,25,46,59,365
38,26,67,8,37,31,47,94,521,57,60,110,19,61,67,0,495
33,29,53,7,23,37,27,0,438,35,26,57,5,50,55,7,412
31,30,46,12,37,29,20,0,293,19,18,58,6,56,38,24,279
7,10,16,6,5,9,7,0,130,19,11,13,8,19,13,1,106
14,15,38,7,29,36,13,37,284,37,23,24,4,44,51,0,290
29,48,48,10,25,42,36,0,601,67,29,44,7,36,54,27,575
26,18,39,6,53,28,37,35,537,84,22,39,11,35,53,0,535
3,2,0,0,1,3,0,0,46,8,4,5,0,9,2,3,24
23,21,15,15,26,26,39,82,435,39,55,51,17,34,56,0,430
6,13,13,0,9,10,11,9,214,21,20,12,2,16,28,0,186
12,18,22,0,12,19,11,0,136,25,9,13,1,19,21,8,134
14,44,50,2,18,22,24,0,458,31,13,17,8,61,58,32,412
14,62,22,1,4,23,25,0,487,21,29,16,2,37,60,38,435
22,60,53,3,23,41,51,0,741,45,28,23,5,57,91,33,712
8,48,31,2,29,32,32,0,699,48,28,22,12,46,73,28,624
35,71,69,11,45,37,53,34,532,98,47,40,17,94,81,0,510
1,4,4,0,8,1,1,0,27,10,4,3,1,3,0,2,23
7,12,19,2,14,11,10,0,72,28,8,12,1,20,8,2,68
27,21,50,6,29,30,17,9,395,37,25,34,6,55,57,0,370
6,9,11,1,4,9,15,0,91,9,3,10,4,10,16,9,85
18,17,47,5,53,13,48,0,408,57,26,52,9,46,47,23,349
0,0,7,1,2,3,2,0,10,5,3,0,0,1,3,1,12
1,8,3,3,9,3,7,0,143,26,12,1,1,8,10,0,119
14,23,30,6,21,23,31,7,326,22,26,27,6,49,62,0,289
18,7,24,1,9,9,12,0,111,5,13,31,2,20,18,1,101
8,13,31,1,11,40,35,0,278,28,18,12,4,37,44,11,263
17,13,31,1,22,47,16,0,162,24,28,30,1,25,49,2,150
59,38,70,8,101,40,32,39,510,130,60,61,13,77,80,0,476
57,31,47,9,91,22,37,9,511,104,28,62,19,39,64,0,498
26,41,46,29,48,40,48,9,597,74,49,98,27,56,79,0,501
3,5,18,6,19,10,18,0,219,22,14,12,3,22,30,0,195
27,15,26,20,11,6,16,34,183,20,21,40,24,27,26,0,180
40,38,66,86,48,29,68,21,655,64,74,86,108,73,86,0,560
42,53,88,54,40,27,64,70,799,70,84,91,109,80,91,0,712
53,54,62,47,46,29,62,0,712,54,65,70,61,68,78,38,631
95,49,147,37,72,48,81,54,824,96,121,140,46,135,128,0,741
28,35,61,29,22,44,75,11,501,60,59,58,25,55,65,0,484
12,5,7,1,11,11,20,3,74,5,7,15,2,14,11,0,90
6,8,19,1,5,9,4,1,127,4,17,10,1,14,14,0,120
42,39,57,10,73,46,73,0,722,86,45,48,17,77,72,8,709
28,55,67,13,56,55,62,0,758,66,47,54,19,102,110,23,673
17,18,25,2,13,26,20,0,258,14,19,30,8,26,30,9,243
21,27,44,7,20,32,37,0,418,29,28,27,7,49,78,2,386
21,27,49,2,21,30,28,35,428,29,45,43,11,40,62,0,411
4,2,14,2,4,9,7,10,43,9,2,6,1,11,12,0,54
14,24,43,2,19,17,29,0,342,30,11,22,6,30,57,30,304
8,22,9,2,8,6,20,26,83,36,6,3,3,17,27,0,92
2,6,17,8,17,9,32,2,111,36,14,6,4,16,11,0,117
26,23,21,11,35,25,32,22,271,30,35,17,24,26,48,0,286
25,7,17,11,9,17,20,69,202,30,23,45,10,29,27,0,213
6,12,8,2,11,8,5,4,82,10,2,12,2,9,20,0,83
19,23,27,2,11,26,47,0,573,25,22,36,7,46,58,41,493
21,24,53,2,6,49,41,12,570,11,24,26,3,56,72,0,586
5,7,10,0,3,10,4,0,69,2,6,4,2,9,11,6,68
4,3,7,0,1,4,10,5,56,3,2,5,0,9,10,0,61
24,46,42,5,15,33,29,0,511,29,39,32,8,62,64,11,460
27,48,31,9,38,43,34,18,416,56,45,48,7,50,60,0,398
11,5,11,0,3,6,4,7,47,0,7,10,2,22,10,0,43
98,10,17,0,18,14,17,39,223,6,11,79,3,73,25,0,239
14,16,28,6,154,17,30,100,1507,136,39,33,11,52,45,0,1556
12,20,43,1,198,32,30,57,529,194,33,24,11,80,57,0,523
11,24,37,11,163,23,37,14,698,139,34,25,8,54,53,0,705
29,44,54,5,287,27,40,20,514,213,38,39,9,114,63,0,544
4,30,19,11,104,13,27,0,475,91,22,17,10,38,43,31,431
24,25,37,11,272,22,39,0,602,228,30,58,11,66,62,1,576
18,11,16,6,130,8,21,0,259,78,21,27,9,29,18,38,249
17,39,50,5,314,56,57,30,655,260,30,43,10,109,86,0,685
3,2,12,1,85,11,13,0,243,78,6,13,2,13,22,20,216
10,29,52,3,159,35,21,0,505,139,26,15,3,77,64,21,469
4,25,38,8,187,39,37,8,654,192,31,11,11,88,81,0,586
12,29,45,5,138,30,28,0,403,106,22,22,2,56,47,35,400
7,24,30,1,171,24,20,0,405,131,10,18,2,58,62,25,376
5,33,28,3,166,28,20,0,472,121,14,18,11,61,49,46,435
11,25,29,5,158,40,28,0,492,101,22,17,6,63,52,48,479
10,41,28,5,147,22,22,4,473,95,17,17,9,59,67,0,488
11,19,34,4,132,35,25,0,493,101,25,11,3,57,47,39,470
1,2,5,2,43,7,13,0,86,34,3,3,0,12,10,5,92
9,13,21,2,158,19,25,24,285,133,23,17,5,60,34,0,284
14,22,23,6,192,17,31,0,584,173,27,42,4,35,51,110,447
17,27,56,6,255,36,61,33,668,234,44,44,4,103,97,0,633
16,28,52,7,250,31,54,0,514,189,30,42,5,94,62,13,517
33,45,31,15,286,26,42,56,563,269,44,65,20,76,81,0,542
12,22,38,7,207,39,48,0,667,168,31,29,9,66,63,35,639
14,30,32,16,190,28,23,0,527,178,20,37,8,73,55,8,481
16,20,21,12,135,16,17,30,397,138,13,35,6,37,45,0,390
17,35,34,5,221,22,48,0,675,156,38,41,5,62,54,88,613
12,29,29,6,159,25,25,0,313,111,17,18,12,53,37,20,330
17,35,36,1,189,28,33,0,721,162,22,19,13,83,56,43,662
2,18,19,4,21,9,12,17,97,20,16,7,7,22,18,0,109
0,4,4,3,8,1,7,0,44,10,2,4,2,4,4,5,40
4,10,9,3,13,1,2,16,38,9,7,3,0,6,11,0,60
9,16,14,1,40,10,4,3,130,25,8,5,4,22,17,0,146
3,23,25,3,47,15,19,0,309,42,9,11,1,29,35,4,313
4,14,13,3,11,5,12,9,162,18,10,4,1,18,27,0,155
59,7,16,10,20,1,22,79,275,27,38,122,20,19,13,0,250
65,26,29,9,27,15,20,0,316,13,23,91,7,30,32,2,309
51,19,19,9,5,21,26,118,437,23,30,100,8,26,53,0,465
138,35,41,16,28,37,59,40,852,51,53,231,18,56,74,0,763
42,20,16,8,11,17,28,0,674,8,21,89,2,20,24,5,647
142,50,84,11,33,35,38,129,653,55,57,269,15,63,77,0,639
97,45,44,11,19,33,48,0,767,19,30,151,3,58,61,44,698
0,2,8,0,11,4,14,0,54,10,11,8,0,9,8,9,38
0,4,5,0,31,4,14,1,102,18,7,5,2,19,9,0,101
22,22,21,5,12,13,24,49,424,45,38,40,13,26,57,0,373
10,20,24,1,86,17,20,8,289,80,10,17,3,40,33,0,292
1,31,8,0,8,9,9,19,103,14,7,1,3,15,29,0,119
31,195,76,5,88,48,56,30,658,90,40,60,16,110,87,0,784
9,9,36,4,18,7,19,0,187,22,12,8,10,25,18,3,191
14,18,23,5,159,33,20,51,399,98,29,42,8,51,61,0,433
32,21,26,9,193,26,28,0,440,138,39,43,5,65,49,19,417
46,43,59,41,59,39,59,59,606,114,57,78,49,55,70,0,588
40,38,53,26,58,36,73,24,752,87,68,100,34,75,73,0,663
8,5,7,15,13,0,7,3,163,21,12,18,19,5,12,0,134
16,22,42,11,25,23,30,0,463,49,43,39,22,34,44,2,399
35,44,64,57,67,39,69,0,481,89,65,95,51,47,68,14,427
11,37,52,33,32,15,44,0,430,47,39,55,34,58,38,24,359
37,24,52,32,30,10,43,5,769,48,48,66,37,41,37,0,725
17,46,34,7,63,27,32,0,400,68,33,34,17,43,53,18,360
1,9,4,1,10,7,3,0,47,8,5,3,1,10,7,4,44
0,6,0,0,14,7,3,0,48,14,6,2,1,4,5,0,46
1,7,10,3,17,11,7,0,139,9,4,6,4,9,18,1,144
8,3,7,0,2,8,6,11,43,1,4,4,2,5,12,0,60
4,12,16,7,29,15,9,0,310,51,10,23,11,19,28,1,259
1,15,30,0,13,7,15,17,179,8,13,20,4,29,13,0,190
33,21,19,3,30,15,26,0,253,56,16,20,8,41,28,18,213
1,12,10,2,14,4,8,0,63,5,6,1,5,12,14,2,69
7,9,33,0,11,7,12,0,132,22,6,8,5,27,10,11,122
2,9,13,2,8,4,23,0,173,10,11,5,2,12,23,13,158
4,9,23,6,68,6,11,7,251,72,15,13,4,26,28,0,227
43,28,32,31,45,10,28,39,323,52,39,78,48,45,20,0,297
4,5,9,2,9,3,11,19,106,14,14,8,1,13,14,0,104
4,13,12,14,9,7,7,7,94,25,6,13,7,12,10,0,94
6,39,34,12,16,6,19,0,347,36,29,14,10,42,33,0,315
8,23,41,2,94,17,35,32,471,95,30,23,10,38,39,0,488
5,9,8,0,15,8,12,0,70,15,6,5,0,14,7,3,77
2,6,12,2,21,9,4,0,109,19,3,1,2,11,13,4,112
2,8,10,2,26,11,10,0,149,28,14,7,0,11,19,4,135
4,11,9,1,9,2,14,7,104,18,15,8,3,12,14,0,91
54,45,57,67,31,57,43,0,556,80,52,73,26,57,68,17,537
40,33,47,75,34,42,41,87,548,111,44,88,37,57,48,0,562
27,27,36,51,36,27,29,13,651,80,52,52,21,36,58,0,598
25,25,31,14,47,34,41,25,520,78,39,50,5,42,52,0,496
34,34,68,12,55,36,28,0,519,82,20,36,6,60,61,37,484
36,21,30,15,38,15,58,48,413,76,59,81,9,35,54,0,360
0,6,8,0,5,5,3,6,44,4,2,3,1,6,10,0,51
20,21,42,1,46,34,40,27,373,71,26,24,3,58,43,0,379
1,19,32,12,11,17,21,0,214,17,14,13,8,33,31,10,201
3,13,18,0,45,33,6,17,260,57,12,10,10,29,29,0,248
4,10,12,4,35,12,13,0,169,19,8,3,1,16,23,17,172
4,16,15,3,21,10,10,8,150,31,6,7,3,13,22,0,155
6,13,5,2,38,9,9,0,173,35,6,7,2,17,9,14,165
0,4,7,1,12,1,7,7,45,14,4,4,0,5,12,0,45
1,8,10,0,31,8,11,6,109,24,11,7,1,22,22,0,97
3,16,18,1,71,25,15,8,111,65,17,8,3,37,31,0,107
6,16,9,1,43,6,22,8,163,42,14,11,4,16,19,0,168
31,38,73,7,129,30,32,37,640,165,29,33,12,87,67,0,624
4,27,20,7,22,15,3,0,215,32,14,19,4,21,24,16,183
3,11,8,0,37,12,6,0,168,24,9,5,2,14,26,1,164
3,3,22,4,8,4,11,0,89,13,7,11,2,15,12,12,72
2,8,15,3,7,1,2,11,96,7,8,5,6,14,5,0,100
4,9,11,2,4,5,6,0,89,8,2,1,1,17,12,7,82
9,17,20,11,10,11,18,0,251,19,17,15,11,30,21,5,229
12,44,44,7,83,25,17,6,389,61,11,23,5,84,52,0,391
9,57,68,12,92,70,61,26,1036,132,33,47,17,108,104,0,990
6,23,26,6,134,18,16,0,319,101,24,23,8,47,35,12,298
5,7,27,4,5,11,21,9,117,10,14,6,12,30,23,0,111
20,5,32,14,39,10,32,29,440,85,47,51,21,36,30,0,351
12,41,52,7,163,60,39,10,574,161,27,31,19,77,85,0,558
7,15,24,5,57,14,13,17,157,64,15,16,6,19,25,0,164
4,25,22,0,34,17,18,21,278,32,16,17,6,36,29,0,283
1,1,3,0,28,2,4,2,31,17,4,1,3,16,2,0,29
10,23,21,5,61,20,31,0,218,50,14,28,6,53,37,4,197
13,15,19,14,20,14,22,10,273,34,20,40,10,15,29,0,252
43,17,47,17,34,20,68,27,444,52,75,83,20,38,64,0,385
5,18,18,9,9,8,5,1,90,15,7,11,2,15,10,0,103
13,22,27,2,61,19,32,12,326,83,17,24,5,43,41,0,301
20,25,49,5,84,28,20,0,544,79,32,44,5,60,58,16,481
10,8,7,6,20,0,16,10,121,30,10,17,6,14,9,0,112
4,11,7,4,12,3,7,9,108,13,12,4,5,10,7,0,114
21,30,54,12,32,25,56,73,467,99,49,38,22,66,46,0,450
5,17,28,2,23,26,17,0,358,32,9,12,6,36,33,16,332
6,1,4,7,3,1,2,1,55,10,5,7,5,3,6,0,44
3,12,14,7,16,8,9,6,246,8,11,19,7,25,15,0,236
0,5,8,0,10,5,5,12,63,20,3,1,3,12,6,0,63
3,8,10,3,11,10,10,18,104,24,15,7,4,8,12,0,107
12,18,22,4,36,21,19,38,250,45,13,22,7,41,44,0,248
17,57,41,7,134,42,30,0,462,120,32,26,8,76,77,4,447
9,8,22,6,20,7,10,28,263,26,21,20,13,25,24,0,244
9,3,15,10,15,8,21,24,120,30,25,12,9,22,18,0,109
15,17,30,6,35,9,34,31,354,63,37,30,11,36,46,0,308
5,14,1,2,3,3,6,16,48,9,7,27,1,5,11,0,38
2,7,13,4,8,12,15,22,83,13,15,1,5,20,14,0,98
5,9,14,0,20,10,5,1,80,17,9,5,3,18,15,0,77
7,32,36,4,72,21,13,0,379,67,28,28,5,46,45,11,334
27,37,41,6,80,20,33,0,556,82,40,31,6,46,60,15,520
1,10,11,0,3,11,5,7,72,10,6,3,0,15,17,0,69
6,9,17,0,10,8,22,0,124,17,4,5,2,31,19,15,103
3,13,14,2,32,14,12,18,98,32,5,2,3,20,14,0,130
3,7,15,0,27,6,7,2,104,38,8,4,0,22,9,0,90
24,56,53,10,128,31,64,0,573,141,50,44,15,80,71,20,518
9,42,34,2,72,12,30,22,410,92,19,18,8,41,33,0,422
53,101,135,12,191,51,91,50,1212,222,84,75,33,141,120,0,1221
8,10,22,2,69,21,24,15,175,52,12,16,5,33,35,0,193
17,28,53,3,101,25,39,0,568,107,27,30,2,61,57,7,543
2,10,5,3,5,12,3,0,48,6,2,8,2,9,13,3,45
2,4,8,2,5,5,6,0,115,8,12,5,2,10,7,8,95
7,17,16,0,18,11,24,0,194,21,5,10,2,23,32,21,173
6,13,17,5,15,26,18,18,244,14,13,14,7,24,20,0,270
4,13,17,5,22,5,9,3,83,24,8,19,1,11,13,0,85
3,29,23,2,45,11,17,0,306,38,8,15,3,35,26,19,292
1,10,15,3,21,39,15,14,180,18,11,6,1,16,44,0,202
40,14,64,19,48,10,24,57,276,62,29,70,23,53,31,0,284
21,2,15,5,7,3,10,9,62,8,13,28,9,9,10,0,57
1,3,2,2,5,3,7,15,60,7,8,3,2,8,4,0,66
1,7,5,0,9,5,3,3,98,7,3,4,0,10,13,0,94
17,21,21,5,41,20,42,0,465,65,15,29,2,36,47,0,438
8,28,24,7,46,20,44,10,374,65,18,16,4,37,56,0,365
1,5,9,0,6,5,9,3,44,13,10,4,0,4,3,0,48
19,43,72,3,50,44,61,33,804,80,31,27,8,80,57,0,846
0,7,3,0,0,1,2,0,123,7,7,1,0,4,14,7,96
21,27,36,15,62,14,42,0,354,69,43,44,11,36,42,20,306
25,21,47,3,34,16,22,47,285,44,19,49,4,46,39,0,299
19,31,35,7,70,18,45,0,338,51,18,49,6,61,47,24,307
34,45,64,7,105,23,54,0,471,119,37,82,9,59,61,30,406
11,57,53,2,66,39,39,0,560,41,31,27,10,72,83,42,521
18,40,48,5,41,37,31,7,532,52,39,32,3,75,73,0,485
16,37,43,10,59,41,46,0,660,54,34,24,6,82,62,65,585
17,52,46,6,44,45,53,0,679,54,18,47,10,51,63,67,632
3,11,8,3,11,11,12,1,89,12,11,10,2,13,14,0,87
27,18,24,3,71,8,17,11,208,67,16,58,1,36,28,0,181
19,47,50,8,91,41,47,19,483,104,59,43,5,65,77,0,452
32,31,55,7,81,30,54,12,565,104,57,66,12,83,83,0,462
76,78,103,24,201,55,77,0,681,180,73,142,17,107,129,15,632
30,11,21,18,62,6,24,0,1067,51,20,56,11,16,26,21,1038
20,31,21,11,49,16,28,0,282,71,27,31,6,18,31,27,247
23,30,29,4,49,10,28,0,256,42,22,32,9,32,29,13,250
29,31,50,17,83,20,40,81,398,105,44,74,9,55,56,0,406
23,16,43,4,69,18,44,0,438,70,39,34,6,43,68,5,390
26,55,69,26,68,33,65,0,597,114,65,76,13,56,74,11,530
18,58,46,7,31,23,37,0,584,64,25,25,3,68,62,53,504
8,31,27,2,37,17,24,0,312,40,24,20,3,41,33,29,268
13,38,40,2,42,40,42,0,448,49,39,35,9,43,55,25,410
17,37,29,7,50,34,33,0,397,45,36,38,3,41,39,56,346
5,9,8,3,3,2,10,9,58,11,6,4,2,15,3,0,66
2,11,8,2,2,7,5,0,74,7,6,6,1,19,14,2,56
1,6,10,2,7,6,3,11,61,13,3,4,1,15,7,0,64
3,23,18,2,9,11,11,0,205,17,8,2,5,49,11,11,179
6,4,29,3,19,6,10,0,265,25,10,9,3,35,27,7,226
16,82,37,1,29,22,20,10,291,45,29,23,3,27,83,0,298
10,71,36,6,14,21,29,31,306,60,36,26,5,41,83,0,273
30,48,62,16,28,21,28,9,713,92,22,42,11,49,67,0,672
30,121,80,15,46,68,47,107,600,104,42,46,17,98,113,0,694
23,58,56,18,28,43,41,0,662,87,16,23,7,74,79,73,570
29,67,51,9,19,44,68,0,571,94,34,42,3,56,83,45,501
24,79,60,10,43,33,56,0,574,90,41,48,5,56,96,40,503
48,107,79,13,39,33,48,253,707,184,46,116,18,87,132,0,744
17,75,68,8,29,25,51,0,567,102,32,40,3,61,70,19,513
4,9,7,0,11,10,4,0,64,12,3,4,0,11,16,4,59
2,4,8,4,4,6,1,0,15,4,4,4,0,3,5,4,20
2,14,11,2,9,9,8,3,121,14,7,2,3,14,11,0,128
10,38,29,1,49,17,40,0,378,56,25,20,0,43,31,13,374
14,14,23,3,21,8,14,0,284,39,19,14,3,31,18,23,234
21,12,20,7,16,10,11,9,115,16,17,28,6,12,22,0,120
2,19,29,1,35,4,16,0,241,38,16,12,1,27,16,14,223
7,26,19,0,7,10,15,5,121,21,8,13,0,18,21,0,129
8,12,24,13,4,7,11,0,173,20,9,18,3,28,20,4,150
6,10,17,3,21,3,13,17,127,29,13,13,1,22,9,0,130
3,18,22,1,15,16,8,4,181,22,3,9,1,15,23,0,195
5,19,19,4,18,32,9,10,231,35,14,12,3,16,34,0,233
6,48,44,1,28,18,33,16,393,46,22,17,11,72,60,0,359
7,1,8,9,1,9,9,0,101,2,10,9,4,7,16,7,90
21,64,48,10,40,18,32,0,401,94,24,31,4,52,41,14,374
3,3,9,0,1,3,4,0,29,3,4,6,0,12,2,0,25
2,5,11,1,3,5,5,0,25,6,7,2,0,5,10,2,25
7,9,24,3,9,14,11,10,199,25,13,5,0,25,21,0,197
5,18,9,3,6,11,12,4,114,6,9,19,7,10,27,0,104
1,11,10,0,2,1,5,0,25,8,2,0,0,11,4,0,30
4,15,18,3,9,20,14,19,175,27,10,9,3,21,19,0,188
11,25,23,8,17,13,34,20,389,52,28,24,3,40,38,0,355
2,11,16,1,9,3,13,12,87,24,13,6,2,15,12,0,82
7,3,11,0,9,3,6,0,37,14,2,11,1,5,8,3,32
22,48,65,9,60,30,42,13,455,84,45,34,6,62,71,0,442
5,1,12,2,4,0,8,0,79,12,9,7,6,12,5,1,59
4,12,7,3,11,21,11,16,139,11,9,11,6,25,24,0,138
5,10,19,10,14,49,11,0,257,26,13,15,4,37,46,17,217
2,3,5,0,13,0,5,1,18,13,7,4,1,4,3,0,15
4,10,6,2,25,7,7,5,56,23,8,15,2,7,12,0,55
10,9,21,11,32,11,14,4,164,43,23,45,3,17,23,0,122
6,18,23,4,24,14,12,3,293,50,22,11,3,38,17,0,256
2,4,7,8,4,4,16,0,45,3,11,6,2,8,8,3,49
6,15,15,0,9,8,5,6,107,17,6,7,1,11,19,0,110
8,6,19,3,5,5,2,1,31,9,5,8,2,12,9,0,35
17,32,39,2,43,44,19,4,500,86,23,39,5,37,42,0,468
4,11,12,0,2,16,6,0,100,6,10,4,1,11,22,0,97
4,13,14,3,7,10,7,10,63,10,14,18,6,15,17,0,51
6,21,30,0,19,6,10,0,154,24,6,9,3,25,10,12,157
12,12,19,3,2,15,18,5,92,19,11,12,3,12,22,0,99
2,10,14,2,4,2,6,16,92,10,4,6,1,26,11,0,90
1,12,19,0,10,7,4,0,85,12,5,5,0,20,22,3,71
7,15,12,3,14,9,13,0,173,26,9,20,3,18,19,2,149
3,5,6,1,7,8,5,19,59,16,8,12,0,5,13,0,59
12,56,24,8,17,18,28,6,343,35,18,15,4,60,62,0,318
3,13,21,4,15,5,18,0,236,20,7,8,1,18,25,1,235
7,25,19,6,27,16,26,0,345,51,21,25,3,25,38,26,282
6,8,6,3,15,11,11,0,143,18,8,5,1,21,16,7,127
5,9,19,0,5,8,9,15,76,19,3,8,0,16,14,0,86
3,15,7,5,2,4,8,0,89,14,9,4,0,9,17,2,78
21,38,33,8,62,21,38,5,379,86,25,44,16,47,43,0,344
16,34,27,7,36,8,16,6,319,50,28,32,3,37,42,0,277
28,42,52,6,68,17,39,0,619,79,54,40,15,72,65,28,518
18,45,47,3,82,39,36,113,586,67,47,33,12,63,69,0,678
1,3,2,0,1,12,1,6,38,1,2,1,0,10,6,0,44
0,7,3,1,5,3,5,0,40,4,6,0,1,3,0,0,50
3,5,4,2,8,5,7,0,58,7,1,8,2,13,3,2,56
10,24,21,1,17,4,10,0,135,24,9,16,1,29,31,10,102
7,4,17,10,12,6,9,28,168,21,20,13,5,20,17,0,165
41,70,75,6,73,26,36,0,611,107,43,50,13,93,72,1,559
37,53,34,12,16,17,37,13,300,21,46,55,11,53,60,0,273
10,12,16,3,6,4,8,10,119,7,11,17,4,10,7,0,132
8,18,11,6,5,9,17,8,121,11,27,14,10,21,21,0,99
6,12,40,8,12,8,12,10,213,15,17,12,2,46,24,0,205
11,29,30,7,25,26,15,20,362,44,28,14,6,49,30,0,354
46,50,53,7,59,21,38,42,604,92,52,51,5,75,56,0,589
31,41,35,1,28,21,26,0,531,59,27,25,6,58,39,27,473
33,57,66,0,75,27,35,0,603,102,31,40,7,81,67,16,552
9,8,12,0,10,7,8,0,69,25,10,5,2,12,6,5,58
0,3,12,1,8,0,0,0,55,11,5,4,0,12,2,2,43
1,0,9,0,6,0,3,5,28,8,6,1,0,12,1,0,24
1,9,15,4,9,3,12,0,105,16,6,0,0,9,26,6,95
6,20,15,4,13,15,18,4,187,31,29,7,3,30,20,0,162
4,17,14,1,7,12,7,13,174,17,17,3,2,33,14,0,163
6,16,31,0,22,14,18,11,310,30,12,7,4,41,28,0,306
4,4,5,1,0,0,2,13,43,6,4,7,2,4,5,0,44
3,5,4,0,2,6,10,8,31,14,5,0,0,5,5,0,40
4,2,4,0,4,3,3,3,38,9,8,9,1,4,1,0,29
3,11,26,0,11,6,8,0,138,19,8,5,3,20,15,2,131
1,13,17,2,12,9,7,0,143,12,7,5,1,16,16,3,144
13,33,14,4,14,10,26,5,271,35,15,10,3,25,24,0,278
1,10,8,1,2,4,3,1,31,8,1,3,0,9,4,0,36
1,15,12,0,4,7,6,0,91,6,6,4,3,18,10,6,83
13,22,14,6,14,14,27,10,209,34,16,18,11,28,25,0,197
5,10,13,1,5,14,1,2,121,9,9,5,1,7,37,0,104
3,28,17,1,7,9,10,12,170,25,17,3,1,15,31,0,165
21,52,60,9,44,29,30,0,433,55,27,27,8,84,53,5,419
24,91,73,13,49,43,44,24,939,81,47,35,18,63,81,0,975
2,9,14,0,4,7,4,7,63,6,11,5,1,26,15,0,46
11,27,32,3,48,20,18,3,398,60,47,20,6,42,49,0,336
4,22,13,2,17,16,22,13,264,36,10,10,2,18,31,0,266
0,3,1,0,2,7,0,6,17,0,0,0,0,5,4,0,27
6,4,3,0,2,6,6,6,84,3,4,7,1,6,15,0,81
21,49,51,7,67,21,51,16,719,80,48,52,11,67,57,0,687
2,8,10,3,8,9,7,0,57,8,3,5,0,16,12,11,49
11,39,30,8,16,29,14,0,289,33,11,18,7,48,36,10,273
12,41,39,6,128,21,38,12,643,133,50,30,18,68,42,0,599
23,30,56,30,64,22,46,0,846,90,37,39,23,62,65,49,752
2,8,1,1,17,2,0,3,31,12,2,2,0,8,3,0,38
0,7,2,0,4,1,7,0,31,5,1,1,0,0,4,3,38
1,6,3,0,11,2,7,0,49,14,4,1,0,8,11,0,41
20,42,42,5,71,29,35,0,534,65,23,33,6,60,58,27,506
8,33,59,2,75,28,31,8,627,69,37,14,4,99,55,0,593
1,5,8,0,2,0,3,0,61,8,1,2,0,11,6,9,43
2,18,14,5,8,10,6,12,141,17,12,8,0,21,15,0,143
1,6,4,0,3,3,5,6,33,5,1,3,3,11,4,0,34
24,31,39,9,37,11,33,26,361,80,28,38,11,30,37,0,347
2,11,11,0,4,6,9,0,82,13,5,3,0,9,6,15,74
14,38,37,4,9,15,31,17,381,15,11,21,7,49,59,0,384
12,32,25,6,11,21,24,0,304,22,6,18,6,26,43,6,308
35,22,57,18,41,21,33,0,469,46,32,71,17,53,51,34,392
34,44,50,26,35,28,62,12,570,40,32,76,17,63,59,0,574
30,43,50,20,28,27,54,0,680,29,50,51,14,76,58,27,627
11,22,30,19,35,21,53,0,499,25,43,50,18,32,60,26,436
55,35,76,33,57,34,69,42,723,74,65,135,12,78,78,0,682
24,16,28,19,34,18,40,70,499,37,45,80,16,55,67,0,448
23,33,51,14,31,21,56,7,547,34,52,60,5,39,52,0,541
10,22,30,3,18,21,23,0,374,8,19,24,9,41,41,12,347
24,29,42,23,42,24,43,0,540,40,28,44,17,63,67,45,463
33,41,49,22,42,15,35,0,455,23,52,45,17,44,40,71,400
44,61,55,16,58,40,61,0,550,32,42,77,10,71,81,80,492
44,34,52,24,45,18,41,0,307,34,35,88,7,46,47,40,268
43,39,53,30,51,20,35,0,390,42,34,93,6,43,63,20,360
43,17,33,22,32,13,40,39,1053,46,39,87,20,23,34,0,1043
56,48,60,29,81,51,66,29,767,60,99,138,16,78,115,0,681
64,35,84,44,51,19,65,35,520,58,63,140,22,66,76,0,492
24,12,31,16,25,14,29,12,235,25,18,47,13,29,32,0,234
33,25,47,22,46,10,25,31,465,38,40,56,12,43,46,0,469
29,22,29,5,29,9,26,0,419,17,19,39,6,40,53,20,374
35,29,63,19,56,21,41,0,445,31,35,67,8,58,58,54,398
17,14,34,10,12,4,15,12,128,20,17,43,9,37,12,0,108
6,24,22,5,6,10,7,11,92,6,5,7,2,24,20,0,119
0,5,17,1,1,2,4,6,38,7,4,2,1,13,5,0,42
4,20,12,5,2,17,10,31,191,13,18,17,8,19,32,0,185
123,37,78,13,24,27,44,9,701,54,63,96,18,66,79,0,680
21,27,58,9,53,38,70,44,641,56,48,52,10,54,79,0,662
22,32,32,7,5,10,19,15,395,19,36,33,13,45,37,0,354
3,11,20,5,6,6,7,0,115,8,8,10,1,26,17,0,103
12,30,19,8,5,6,19,0,155,10,6,8,3,38,33,1,155
36,48,47,6,44,25,36,45,659,37,38,41,9,55,81,0,685
7,7,20,2,26,7,14,16,279,15,26,13,2,36,19,0,267
36,38,75,6,28,9,49,19,477,41,49,84,9,60,35,0,459
0,10,3,1,3,6,7,1,81,2,16,2,4,3,15,0,70
29,39,54,11,21,50,28,0,629,29,33,44,14,68,65,11,597
8,5,2,2,5,5,20,7,53,4,4,11,1,7,18,0,62
15,9,34,1,2,12,8,4,142,3,8,13,4,29,19,0,151
10,4,20,3,16,6,19,25,231,19,14,31,6,23,15,0,226
5,11,19,3,9,29,15,0,303,14,12,17,5,40,35,17,254
9,5,16,3,10,14,13,6,104,8,8,16,2,19,20,0,107
3,5,24,1,3,13,24,0,198,10,15,9,1,22,19,14,181
4,16,33,3,25,23,19,0,305,22,15,26,9,49,40,3,264
10,7,22,5,19,10,11,3,109,13,18,21,1,29,27,0,87
14,11,15,3,13,16,10,4,156,23,17,23,5,26,20,0,128
2,14,11,1,5,5,8,7,79,12,11,6,3,19,13,0,68
38,30,60,18,54,24,53,66,808,65,62,91,21,59,88,0,765
2,1,1,2,2,9,9,0,57,4,1,2,2,4,8,9,53
3,14,8,2,10,11,21,0,160,20,11,13,3,9,30,1,142
8,11,13,2,16,7,7,17,109,13,9,14,3,6,13,0,132
18,13,33,9,6,7,23,2,265,17,28,51,5,30,26,0,219
32,26,50,14,30,16,54,52,604,48,72,103,25,49,38,0,543
60,44,63,7,28,26,64,0,618,27,35,99,10,44,81,36,578
50,16,40,9,18,13,42,33,770,28,51,97,20,52,49,0,694
8,22,27,3,14,8,8,6,143,23,20,9,1,33,18,0,135
26,16,39,3,51,23,31,0,342,42,25,37,10,31,37,5,344
14,23,35,6,46,14,32,0,404,42,30,39,10,42,38,22,351
37,21,40,12,60,27,51,0,516,62,25,76,3,50,42,15,491
46,30,44,10,107,38,61,0,904,76,55,90,12,48,75,12,872
18,20,36,3,53,12,34,0,558,41,22,45,6,53,50,57,460
27,26,49,8,52,23,50,0,443,48,46,55,4,59,52,27,387
36,28,41,13,99,26,44,0,679,79,64,49,10,70,60,72,562
29,12,28,3,69,16,45,0,1169,68,52,61,12,32,60,16,1070
27,26,31,5,38,25,30,0,361,31,39,32,4,34,59,26,318
38,35,41,11,86,36,59,0,589,65,55,59,10,55,63,57,531
24,31,32,8,56,32,52,0,530,37,41,46,6,49,68,15,503
25,30,56,8,53,28,30,0,510,36,28,41,10,80,46,49,450
28,22,40,7,73,35,40,44,484,63,38,52,10,64,56,0,490
63,42,64,21,90,33,52,0,548,100,54,90,22,64,75,33,475
40,26,43,15,110,31,33,0,500,82,38,101,8,61,57,16,435
26,26,35,4,24,18,16,32,259,22,19,40,6,55,28,0,270
48,20,31,10,88,20,56,68,507,110,60,88,13,42,51,0,484
60,28,58,16,75,30,59,0,548,72,60,108,32,54,75,22,451
18,10,19,8,5,4,20,14,125,11,9,42,7,17,11,0,126
19,31,32,6,15,7,15,27,370,24,20,30,7,40,40,0,361
32,22,28,12,10,4,23,15,223,20,33,74,6,32,25,0,179
9,7,17,2,14,11,7,0,92,19,2,10,2,16,13,7,90
2,2,5,4,4,8,8,0,71,7,2,4,1,3,18,5,64
9,31,50,10,28,15,51,5,527,30,50,31,9,37,45,0,524
13,17,17,5,22,10,13,0,166,26,26,23,5,18,24,3,138
53,42,78,12,31,71,39,0,849,31,35,69,9,76,67,41,847
6,9,22,5,43,12,11,4,227,40,16,28,1,28,17,0,209
25,14,35,1,23,13,35,32,315,44,19,48,6,30,39,0,307
6,14,21,3,4,17,21,4,228,16,17,13,0,24,42,0,206
8,17,15,5,12,24,15,0,366,15,20,30,8,19,34,12,324
52,38,83,25,27,28,119,2,799,70,44,77,43,80,63,0,796
2,15,27,3,15,8,30,4,239,11,9,17,6,26,23,0,251
23,4,9,6,46,5,23,43,297,43,43,34,13,9,28,0,286
14,23,39,4,31,40,25,0,274,39,40,19,4,47,37,27,237
30,31,38,9,50,29,31,56,364,64,39,55,15,45,61,0,359
29,20,57,11,36,25,54,0,677,30,43,49,10,67,70,44,596
28,38,59,2,37,34,44,0,622,29,26,42,5,74,62,58,568
28,28,74,10,24,34,63,99,1925,22,33,50,14,89,85,0,1992
49,58,91,23,51,34,59,0,758,32,50,138,23,91,73,37,679
14,8,39,10,18,13,35,4,317,9,30,29,7,51,31,0,301
8,7,13,9,9,15,10,11,224,11,6,28,3,12,26,0,220
28,16,42,6,22,13,36,7,395,25,35,53,15,41,33,0,363
71,48,92,20,111,20,79,0,666,60,46,164,19,101,78,30,609
32,47,75,24,58,30,79,0,677,48,50,109,14,89,58,15,639
36,26,70,17,55,6,52,0,546,30,51,85,6,66,48,36,486
32,40,64,16,41,19,43,0,640,30,48,58,13,56,61,75,554
36,34,55,9,43,20,72,0,552,34,28,87,4,65,68,48,487
33,27,49,8,48,24,45,0,608,52,40,51,7,76,51,62,503
35,20,62,29,38,21,81,0,625,29,68,94,24,58,69,26,543
2,2,6,0,7,8,7,3,69,7,4,6,1,12,3,0,71
12,11,11,1,4,8,22,16,99,12,7,23,2,25,15,0,100
3,13,12,1,32,19,13,2,145,29,13,12,3,21,21,0,141
8,10,16,6,46,18,15,5,222,23,17,18,2,31,28,0,227
6,9,17,0,26,4,17,14,130,23,14,18,4,27,21,0,116
2,10,9,5,12,14,9,0,93,9,6,7,1,14,19,2,96
58,29,63,18,40,25,65,138,681,58,55,146,17,76,84,0,681
21,25,25,2,12,5,17,0,291,28,24,37,4,32,44,4,225
3,8,8,0,3,8,5,2,65,5,2,5,3,7,12,0,68
2,4,19,2,6,6,10,0,58,11,2,10,2,14,9,1,58
14,16,35,10,12,9,23,4,282,39,11,25,3,45,25,0,257
12,25,17,5,7,13,19,59,242,16,22,16,8,24,42,0,271
6,6,6,8,8,6,7,0,65,14,4,12,2,8,10,5,57
2,12,21,4,14,11,16,1,186,21,7,9,2,33,18,0,177
16,43,31,9,13,10,20,30,305,28,34,31,5,33,51,0,295
30,70,56,3,18,22,30,32,611,27,39,81,11,53,117,0,544
20,24,30,8,16,9,16,14,321,13,20,37,6,42,38,0,302
22,32,46,8,43,31,30,0,496,52,29,46,7,47,64,30,433
6,1,8,2,6,5,7,2,111,11,5,15,3,7,17,0,90
9,13,5,0,8,9,6,10,76,11,2,24,3,7,22,0,67
19,30,49,7,29,14,25,11,374,36,23,52,1,42,56,0,348
64,60,92,30,135,55,129,143,988,155,133,138,24,134,143,0,969
17,19,19,3,121,16,23,4,351,31,25,35,1,55,57,0,369
8,5,17,4,10,14,14,0,98,14,9,14,1,19,16,1,96
0,3,1,0,2,17,12,0,36,6,0,0,0,8,19,2,36
13,8,35,1,8,36,24,7,328,22,16,31,2,37,37,0,315
8,6,6,8,26,8,17,23,188,19,22,31,4,17,19,0,178
21,23,37,11,33,17,29,0,380,37,29,47,14,36,55,2,331
47,31,100,13,26,30,33,8,922,48,60,86,16,96,63,0,841
11,13,16,3,15,8,17,0,245,15,12,25,7,27,11,11,220
10,19,19,5,19,11,26,28,251,16,18,23,6,27,39,0,259
8,9,27,1,16,22,17,0,217,12,12,24,1,18,31,20,199
37,15,44,11,89,22,45,70,433,106,48,69,17,56,63,0,407
12,14,25,12,30,14,25,6,232,23,14,26,8,34,32,0,233
6,10,31,21,14,15,28,0,288,15,17,25,6,26,33,6,285
33,53,89,18,17,33,62,0,706,49,46,61,24,86,95,43,607
31,51,65,33,19,25,38,0,478,36,27,44,19,73,50,82,409
47,44,115,28,34,28,71,1,628,76,62,85,36,82,85,0,570
43,39,66,34,23,19,35,0,490,40,54,61,22,60,55,47,410
38,35,37,11,8,20,17,0,267,21,18,30,10,31,31,60,232
30,33,40,14,13,19,20,0,324,27,22,34,16,29,39,42,284
39,31,85,18,19,30,53,0,518,47,35,58,40,81,61,18,453
19,41,57,13,11,25,28,0,568,33,24,25,8,76,50,40,506
72,43,70,33,30,36,69,1,498,52,69,76,31,63,90,0,471
24,15,25,15,9,12,11,0,276,18,22,37,14,33,33,23,207
52,12,37,28,20,12,46,0,1524,24,53,75,38,42,55,51,1393
44,28,80,52,25,11,72,0,654,76,56,91,44,77,58,22,542
25,17,68,14,4,28,29,0,462,21,27,38,20,43,46,69,383
9,34,58,5,16,18,25,0,433,28,28,22,14,40,49,67,350
25,37,72,21,18,24,48,0,664,47,33,38,19,72,73,67,560
28,41,68,10,8,25,34,0,692,23,34,41,17,61,78,52,600
27,37,70,20,15,20,36,0,641,33,29,45,14,76,72,65,532
30,36,81,16,21,24,65,0,763,33,41,43,25,75,63,112,644
36,22,56,22,12,11,41,0,622,53,63,45,35,44,59,3,520
32,37,70,28,17,29,53,0,630,38,39,48,20,78,62,100,511
66,77,126,46,31,50,73,0,773,72,58,105,46,130,114,33,684
19,47,55,10,19,37,30,0,479,34,26,31,12,55,63,48,427
31,56,91,15,13,38,54,0,537,25,32,41,18,87,67,66,499
33,25,73,27,17,27,37,0,476,35,35,58,33,75,60,9,410
19,34,64,17,10,26,34,0,557,28,26,37,18,51,67,57,477
31,40,67,16,18,29,37,0,458,41,20,31,22,63,57,28,434
13,15,35,4,2,12,9,0,540,8,8,14,7,38,43,15,497
31,45,55,14,15,22,30,0,474,34,26,48,12,65,46,61,394
65,57,85,28,29,36,50,0,553,62,48,65,37,77,64,47,503
20,41,58,16,17,19,31,0,405,23,23,35,16,53,60,56,341
27,35,53,16,3,29,38,0,418,21,30,16,16,74,49,56,357
8,30,33,15,13,29,25,0,288,21,11,18,22,26,33,42,268
64,42,55,24,16,19,19,0,376,42,26,63,35,32,72,64,281
32,17,36,20,21,27,19,64,325,46,41,80,19,53,47,0,275
6,6,8,11,5,2,9,11,75,12,3,9,7,12,20,0,70
12,9,28,5,8,8,8,4,145,25,14,25,8,22,13,0,120
1,4,9,0,0,6,15,0,86,5,7,3,1,6,9,5,85
10,3,14,8,3,4,19,19,66,8,8,20,5,18,9,0,78
23,8,22,13,5,4,25,60,240,24,16,29,13,25,21,0,272
93,51,123,36,31,18,88,0,655,72,73,97,59,104,99,23,568
42,40,53,25,27,11,44,0,466,42,36,65,32,62,43,50,378
21,37,65,17,21,18,30,0,374,47,21,54,12,46,52,26,325
31,25,66,19,15,45,49,0,378,53,20,52,15,55,74,28,331
68,57,109,46,28,34,61,5,477,96,51,114,36,93,99,0,396
2,2,2,19,2,0,4,6,17,5,1,3,20,0,4,0,21
0,2,2,5,7,1,7,0,46,7,2,3,1,3,2,0,52
8,15,15,7,6,2,8,20,146,20,12,23,16,23,19,0,114
9,2,6,4,1,4,5,1,30,6,4,10,3,9,7,0,23
6,5,12,11,6,6,9,14,59,17,4,10,6,23,12,0,56
9,39,40,32,4,19,24,2,316,21,18,19,21,40,44,0,322
59,46,110,36,31,30,55,0,590,80,50,74,36,94,74,27,522
24,48,59,32,17,35,35,0,428,65,29,26,20,58,61,24,395
52,92,92,79,35,42,53,0,889,94,50,62,54,100,86,71,817
1,13,15,2,2,5,9,17,90,4,18,3,4,17,23,0,85
9,23,44,11,6,20,23,0,428,22,19,21,10,37,37,18,400
30,34,31,17,27,17,46,21,543,44,38,47,21,53,51,0,512
38,50,70,25,16,17,42,0,776,34,42,39,20,69,52,55,723
47,114,138,23,25,58,85,0,895,63,62,63,29,186,111,97,774
24,19,19,3,11,18,10,15,161,11,10,51,2,27,19,0,160
34,27,36,7,13,7,16,18,225,24,22,50,7,32,39,0,209
112,53,117,12,14,33,72,0,678,35,35,153,27,91,80,53,617
108,61,129,20,37,46,68,0,851,40,54,160,18,100,101,12,835
94,34,80,4,25,23,33,0,703,28,28,160,11,74,58,36,601
172,49,125,29,47,17,69,0,1035,64,58,237,30,91,76,29,958
18,30,53,8,9,40,80,0,445,121,15,22,6,61,52,1,405
14,20,24,8,14,18,22,15,158,16,9,21,11,27,28,0,181
3,5,7,1,4,10,2,0,81,0,0,6,0,12,11,10,74
3,11,4,1,10,3,7,23,55,10,5,4,3,20,4,0,71
9,18,34,5,44,10,21,13,230,47,18,30,3,40,23,0,223
34,22,76,14,28,26,36,0,599,34,35,41,9,68,69,15,564
15,16,27,8,39,17,29,0,184,45,28,31,3,28,26,7,167
44,50,69,17,21,22,51,14,465,65,37,63,26,67,79,0,416
13,31,66,11,23,11,22,0,372,34,29,22,14,43,52,6,349
4,23,14,1,2,13,14,1,171,7,10,4,3,15,22,0,182
13,25,34,8,26,17,13,8,311,14,16,28,2,22,40,0,333
21,40,38,10,18,16,36,17,429,48,28,52,6,31,59,0,401
15,9,37,8,15,9,27,18,191,41,22,32,11,28,28,0,167
6,6,31,6,3,5,8,0,79,8,13,11,6,24,10,5,67
10,18,23,3,3,4,5,12,119,16,10,16,6,20,21,0,108
1,12,12,3,6,9,13,7,66,10,8,13,1,23,20,0,54
5,5,8,3,10,2,8,3,47,12,6,6,3,9,14,0,41
5,19,16,4,1,5,10,0,57,7,2,11,4,7,18,6,62
3,14,29,2,4,7,12,0,127,7,5,6,4,36,34,1,105
43,87,75,14,27,22,49,0,627,35,49,64,34,82,98,12,570
25,48,64,12,17,14,22,0,380,38,45,37,9,51,49,0,353
12,15,40,8,6,9,14,6,157,24,16,16,2,27,43,0,139
6,4,9,3,2,3,1,9,66,6,10,3,2,9,13,0,60
5,7,16,1,4,4,12,0,112,16,7,5,4,14,15,12,88
7,11,11,0,9,4,4,10,114,12,7,9,6,28,11,0,97
37,46,59,9,45,28,37,17,555,75,45,59,8,88,68,0,490
26,44,67,11,23,25,38,4,600,56,43,52,15,78,48,0,546
5,20,2,0,8,10,8,3,128,13,9,4,2,9,29,0,118
8,14,46,1,19,6,16,6,163,22,12,30,1,29,18,0,167
8,12,16,3,6,8,21,12,142,21,10,10,2,23,18,0,144
12,25,37,3,24,8,17,38,278,14,23,27,9,39,31,0,299
7,12,13,1,11,5,13,0,134,19,14,5,1,14,22,5,116
43,21,37,15,10,31,32,0,353,36,16,40,12,35,66,24,313
6,5,6,3,4,3,1,0,39,4,3,7,3,0,11,1,38
3,15,20,7,16,11,22,6,175,24,31,12,1,17,23,0,167
4,3,8,6,4,6,8,23,89,5,11,7,0,14,8,0,106
14,22,42,5,10,13,16,0,241,19,15,27,7,38,42,11,204
19,27,24,5,11,14,28,2,236,32,26,16,11,47,39,0,195
17,35,67,6,13,30,36,0,447,38,29,15,7,53,61,9,439
13,63,45,17,27,13,19,0,524,75,51,28,12,36,58,6,455
10,11,13,2,20,9,13,12,122,13,19,9,3,12,24,0,132
3,3,8,6,5,4,5,0,50,7,6,2,1,0,9,3,56
2,10,24,0,16,5,7,5,100,22,6,3,5,21,14,0,98
61,46,110,33,66,22,58,27,727,108,68,85,30,113,78,0,668
16,18,63,3,13,17,20,0,206,19,7,39,9,39,21,5,217
8,7,9,11,10,8,11,0,106,11,7,2,8,21,13,7,101
18,18,55,7,12,16,22,5,233,26,33,32,6,35,41,0,213
13,10,36,3,24,15,18,18,218,14,16,62,1,49,13,0,200
3,7,16,1,3,13,8,0,102,4,4,9,0,21,22,5,88
32,15,30,17,16,26,44,43,251,29,40,39,12,22,34,0,298
2,3,12,0,7,0,4,0,54,8,2,4,1,9,9,0,49
9,5,20,0,3,5,5,23,131,4,5,7,0,16,12,0,157
14,9,11,3,2,9,2,10,161,10,8,8,5,14,13,0,163
1,7,13,5,14,1,18,3,136,12,10,5,5,22,13,0,131
14,0,2,1,2,2,3,1,20,3,4,9,1,3,9,0,16
19,10,36,4,6,33,22,0,178,29,21,17,4,43,29,4,161
0,6,9,1,4,4,3,20,75,13,0,1,6,6,11,0,85
38,12,16,6,17,8,9,35,127,37,15,26,14,29,19,0,128
10,17,31,12,15,12,27,27,565,37,54,28,14,42,50,0,491
1,4,9,0,3,8,12,4,44,4,5,6,0,8,19,0,43
20,34,45,8,20,56,37,33,592,48,47,34,10,64,68,0,574
30,25,66,19,52,14,21,0,438,93,28,37,9,58,52,3,385
26,31,43,14,69,10,24,0,330,86,36,38,11,41,31,17,287
26,15,59,28,69,12,45,151,507,177,53,48,24,50,59,0,501
28,31,39,27,64,15,29,0,709,90,27,44,10,38,51,41,641
14,12,54,4,49,14,31,13,326,82,13,17,6,34,31,0,334
6,5,7,6,25,5,9,9,75,33,11,9,5,8,5,0,76
17,17,19,3,30,13,12,0,229,44,20,21,2,29,19,37,168
7,11,22,3,22,9,12,9,147,35,11,10,2,23,20,0,141
31,61,75,28,84,21,57,0,653,127,45,78,13,92,65,65,525
16,32,56,7,74,27,35,0,616,103,41,26,9,66,66,12,540
19,57,55,24,63,9,49,0,591,110,37,41,5,62,53,55,504
5,8,27,6,8,5,17,3,69,17,6,9,7,14,24,0,71
32,20,38,11,20,14,16,0,172,28,7,40,11,24,34,0,179
9,5,37,5,11,7,13,30,104,15,19,12,17,34,22,0,102
5,20,16,3,2,11,8,0,148,13,9,6,1,34,24,16,110
8,17,43,3,3,11,9,9,139,15,35,17,5,41,21,0,108
24,35,55,6,7,22,58,124,364,39,40,62,15,53,81,0,405
24,20,45,8,13,6,29,0,246,21,23,27,5,41,37,20,217
23,15,45,1,13,16,30,26,394,21,27,68,8,43,19,0,377
37,56,48,15,17,11,26,0,341,34,38,40,31,69,41,5,293
26,25,58,22,30,14,36,21,332,50,38,33,17,47,47,0,332
13,12,32,2,15,7,30,0,214,35,24,18,2,23,19,18,186
24,34,55,13,18,21,24,14,365,40,26,43,7,59,40,0,353
26,31,44,7,15,9,22,3,275,25,25,42,5,44,27,0,264
10,13,33,3,13,2,12,21,128,19,25,17,7,27,20,0,120
2,1,13,1,9,3,16,0,100,19,13,2,1,13,9,1,87
14,23,25,13,10,1,17,0,187,26,17,15,6,31,29,1,165
1,8,11,1,5,8,6,0,48,6,4,2,0,4,9,8,55
2,29,18,2,8,14,6,9,86,17,6,2,3,18,24,0,104
6,33,46,10,30,37,28,20,347,36,33,22,13,33,56,0,364
37,43,70,7,51,22,34,5,405,76,36,32,11,73,55,0,391
11,6,20,5,15,2,16,10,103,24,14,18,2,10,17,0,103
14,16,20,3,11,7,11,9,153,25,10,13,2,21,17,0,156
12,16,43,4,5,15,21,16,201,15,28,27,7,21,33,0,202
18,11,22,2,5,15,22,2,174,22,10,20,3,27,38,0,151
25,25,46,13,16,18,29,18,300,45,10,43,15,41,25,0,311
33,69,59,54,43,26,43,0,445,66,52,65,32,53,47,15,442
36,72,124,49,106,28,67,0,502,106,50,69,33,93,79,42,512
37,52,55,33,49,28,39,32,1078,83,46,54,21,76,70,0,1053
22,37,41,7,27,19,33,9,291,45,34,30,10,42,32,0,293
17,27,36,22,43,19,23,1,334,40,34,31,13,40,34,0,330
33,51,52,19,35,28,39,0,388,62,35,34,13,59,54,18,370
60,79,60,56,61,20,55,1,525,100,79,104,55,59,69,0,451
45,82,45,19,42,22,58,0,671,83,36,75,17,60,85,8,620
22,44,60,23,59,20,53,99,497,94,59,66,22,78,68,0,490
23,59,66,16,41,27,47,0,502,63,33,42,17,75,66,20,465
21,58,51,15,22,31,58,0,526,51,38,28,14,64,61,40,486
23,55,68,13,25,35,34,0,487,42,37,32,10,67,53,59,440
11,61,32,12,20,28,27,0,548,27,42,34,7,63,54,41,471
12,75,44,11,27,33,64,0,557,41,41,23,10,68,77,30,533
2,4,3,0,2,3,3,1,24,3,2,1,0,3,7,0,26
2,3,8,8,3,0,4,0,36,5,4,3,8,10,7,5,22
5,17,14,1,10,7,7,1,114,11,4,4,0,16,25,0,116
3,1,4,0,8,0,1,0,33,4,5,2,0,3,4,6,26
3,31,24,1,5,5,5,0,296,26,23,12,2,33,18,5,251
8,16,20,4,16,9,4,0,97,15,5,18,5,27,19,4,81
10,45,24,13,23,19,37,15,320,36,26,30,3,42,61,0,308
12,14,32,7,10,10,28,8,153,23,22,17,5,34,25,0,148
3,6,6,4,11,3,6,0,86,8,10,2,10,14,10,7,64
15,31,21,7,25,15,27,0,238,35,29,30,6,39,31,3,206
5,22,30,8,21,24,23,0,306,18,28,11,26,39,32,26,259
16,23,18,9,18,4,22,0,88,17,12,17,9,25,10,3,105
12,6,10,9,9,11,10,6,112,15,8,22,2,16,26,0,96
4,31,23,3,15,21,23,14,189,18,25,9,10,41,36,0,184
7,16,12,1,2,2,19,0,76,6,11,5,2,23,15,7,66
18,20,54,48,69,22,31,1,423,23,18,24,88,52,35,0,446
19,52,50,15,32,25,42,0,394,66,48,31,22,71,45,1,345
6,15,10,4,9,2,6,8,160,16,15,9,5,26,14,0,135
33,42,37,9,25,6,19,62,302,47,26,75,12,25,28,0,322
25,25,34,7,26,13,15,1,211,30,39,36,8,37,26,0,181
3,20,30,5,11,4,13,0,182,9,11,8,21,25,16,0,178
22,17,35,6,11,6,22,10,284,18,23,34,13,37,26,0,262
6,18,27,1,7,13,14,6,174,11,8,10,5,25,23,0,184
14,28,17,19,3,6,14,9,187,26,30,22,13,23,20,0,163
13,37,31,7,12,15,27,0,288,27,19,20,9,43,34,19,259
0,8,8,1,6,2,1,0,18,2,1,1,0,7,7,1,25
3,4,2,4,2,0,3,3,21,4,6,9,1,3,5,0,14
2,32,21,6,21,16,20,7,214,24,24,2,6,18,28,0,237
2,3,14,2,1,0,2,1,50,8,3,3,3,12,2,0,44
26,41,66,8,63,32,43,0,396,81,37,38,6,70,40,2,401
0,4,17,1,0,3,0,0,29,7,3,3,0,8,6,3,24
2,2,12,2,0,1,4,11,31,2,3,2,1,12,4,0,41
5,10,9,7,8,7,8,0,115,4,10,8,8,17,19,3,100
45,71,110,17,45,38,57,81,640,80,96,105,39,108,71,0,605
10,15,13,5,6,7,6,15,156,27,20,9,5,22,12,0,138
15,25,31,0,19,9,14,12,335,37,23,23,7,28,28,0,314
11,61,46,6,14,24,21,5,414,36,20,19,9,67,67,0,384
14,31,19,3,19,12,14,29,186,35,26,21,11,36,35,0,163
0,8,4,1,4,11,8,3,31,5,2,2,5,10,12,0,34
18,53,69,11,14,40,44,21,611,48,40,24,15,101,82,0,571
3,11,13,4,1,3,8,0,25,5,5,8,6,19,5,1,19
27,74,70,17,58,41,59,0,701,85,58,45,14,114,89,30,612
0,3,12,4,4,3,2,1,40,5,8,3,2,9,3,0,39
17,12,23,7,19,13,22,32,182,13,32,20,14,27,25,0,196
26,43,52,11,47,37,37,0,469,45,51,50,14,50,70,19,423
23,43,33,24,26,22,56,0,860,140,46,35,11,20,46,41,748
53,40,55,31,37,22,52,12,582,199,60,64,29,62,58,0,412
29,48,54,19,31,36,46,0,545,123,49,37,12,44,67,61,415
39,58,52,40,54,55,63,14,641,198,55,51,23,68,83,0,538
51,43,62,37,56,33,92,0,669,265,85,49,19,56,68,7,494
46,80,64,45,79,27,90,118,689,343,70,69,25,85,84,0,562
59,73,72,43,51,32,88,60,651,276,80,75,22,80,88,0,508
4,4,11,3,9,4,7,0,72,13,9,4,0,10,10,4,64
8,8,9,0,0,2,6,12,47,23,8,19,0,4,6,0,32
8,32,29,8,7,9,19,7,191,25,10,12,6,36,16,0,205
12,27,55,24,15,18,23,0,478,35,33,25,9,57,41,12,440
27,22,51,21,20,10,28,0,640,35,25,34,16,52,35,47,575
26,43,66,27,32,18,44,0,501,35,52,36,17,58,37,22,500
2,7,4,5,7,4,6,0,38,7,7,6,0,11,10,3,29
0,4,9,0,1,6,4,0,28,1,3,0,0,5,6,5,32
5,16,14,3,31,13,14,0,146,28,8,8,3,17,15,2,161
10,11,12,6,8,9,18,0,152,18,13,12,3,8,29,1,142
23,19,32,20,24,10,51,38,572,72,59,62,10,24,58,0,504
40,31,56,21,45,30,75,62,1645,110,71,78,32,40,93,0,1581
29,35,75,19,36,36,60,72,727,51,65,103,24,81,95,0,670
20,29,40,28,34,40,55,0,899,57,69,71,20,68,89,8,763
20,7,25,10,12,18,33,161,681,68,35,42,19,36,72,0,695
16,28,73,14,27,25,88,245,1173,80,102,55,18,70,120,0,1244
11,13,22,3,18,13,14,0,176,14,11,16,3,29,22,7,168
0,11,10,2,6,6,19,9,92,12,6,2,0,24,22,0,89
6,41,15,6,19,10,27,0,252,16,16,15,5,40,42,15,227
0,10,5,2,2,1,2,1,34,5,5,4,2,10,4,0,27
8,13,8,2,12,13,5,0,98,11,15,11,2,24,10,3,83
11,47,36,7,10,15,30,26,283,33,32,17,10,56,45,0,272
30,26,17,14,21,6,30,7,292,52,21,36,19,34,40,0,241
24,23,46,17,46,17,37,15,337,59,51,40,17,59,59,0,277
35,29,40,9,40,34,20,27,397,54,23,39,3,53,45,0,414
18,42,58,6,64,41,34,0,410,57,28,19,11,71,85,30,372
5,17,26,3,19,12,23,42,223,32,17,14,5,43,34,0,225
21,45,46,8,68,28,30,3,610,67,31,36,19,72,72,0,562
13,46,47,8,43,48,26,0,307,75,32,27,2,58,57,14,273
35,33,39,12,60,28,44,5,406,80,31,72,13,58,65,0,343
20,31,26,9,9,17,16,15,250,36,15,11,14,23,26,0,268
12,43,46,2,14,17,25,0,193,25,15,10,7,67,45,7,176
3,7,3,1,5,10,6,0,49,5,7,7,0,4,12,10,39
3,16,21,3,29,15,22,34,245,55,15,18,3,35,25,0,237
40,42,55,26,61,17,40,10,392,79,55,77,16,51,50,0,355
33,63,58,11,53,22,33,22,413,61,52,55,16,55,51,0,418
40,35,42,15,65,21,39,61,698,76,51,68,19,42,37,0,723
45,37,55,21,65,10,36,6,377,66,61,70,21,63,47,0,324
27,28,29,28,59,8,31,28,237,69,36,81,12,43,22,0,212
51,63,99,28,107,30,38,0,533,134,70,93,23,69,58,36,466
37,89,119,21,67,33,51,0,860,109,81,65,29,96,80,20,797
43,45,70,24,79,15,50,119,613,153,98,85,18,64,79,0,561
12,19,18,3,23,3,9,18,161,30,10,13,9,14,34,0,156
49,21,33,14,36,13,35,0,313,56,32,58,12,52,33,19,252
32,26,37,8,41,11,21,0,250,43,26,41,9,52,30,24,201
43,37,61,9,60,14,39,18,349,67,52,76,11,57,45,0,322
47,56,83,26,101,23,73,0,469,107,45,100,26,78,70,53,399
60,61,57,39,53,26,59,0,547,63,49,111,28,47,59,46,499
48,75,70,29,74,32,37,0,520,98,65,82,16,77,85,5,457
45,62,101,24,45,39,97,0,751,110,79,82,26,94,112,2,659
45,47,68,30,38,30,43,0,618,121,58,53,16,71,49,23,528
6,28,23,10,52,18,14,4,313,44,24,19,8,21,47,0,305
50,84,85,16,10,37,75,27,914,61,52,51,26,109,76,0,923
47,34,91,9,22,17,48,0,518,43,39,59,13,72,57,6,497
24,38,86,13,33,54,49,0,581,66,43,51,21,80,58,45,514
29,35,73,8,29,39,47,0,668,61,37,55,21,59,62,7,626
10,23,37,1,25,8,27,13,304,40,21,24,3,37,30,0,293
24,67,60,14,34,16,26,21,501,54,51,53,14,59,44,0,488
6,14,21,4,11,7,13,0,91,9,9,11,5,29,19,7,78
0,7,4,1,3,1,2,0,33,4,4,0,1,7,2,3,30
4,7,6,1,2,1,6,0,75,4,2,2,0,12,9,8,65
3,15,22,12,4,14,11,0,196,21,17,3,3,26,16,9,182
31,52,69,16,19,29,46,65,513,68,44,43,9,80,84,0,512
6,14,42,4,13,12,25,35,321,51,40,47,8,57,59,0,210
4,22,39,7,15,6,24,0,314,28,22,13,8,42,32,20,266
22,12,39,13,14,24,17,41,283,28,39,35,8,32,29,0,294
13,38,29,2,58,33,36,0,284,44,27,20,13,31,47,14,297
21,47,51,6,27,16,25,33,449,50,38,52,11,48,47,0,429
3,11,25,7,4,5,24,0,189,18,12,9,3,22,22,15,167
5,33,16,8,7,9,16,13,143,16,12,10,6,22,31,0,153
1,8,8,8,3,5,7,15,25,12,5,5,9,9,7,0,33
9,17,17,11,24,6,25,17,288,40,37,18,8,28,22,0,261
9,47,37,14,24,24,87,33,334,46,39,23,16,56,80,0,349
10,8,29,5,9,7,17,0,231,11,13,19,11,29,36,4,193
6,32,27,6,28,15,21,0,241,39,14,9,5,36,26,16,231
41,19,70,19,59,6,50,151,412,126,62,79,20,54,58,0,428
226,30,81,23,51,21,47,216,847,47,62,414,17,61,98,0,843
79,23,46,6,14,15,47,73,342,18,43,169,9,50,35,0,321
49,18,49,8,40,14,50,97,457,70,46,116,23,45,58,0,424
34,18,32,28,13,9,41,41,893,39,42,74,16,30,40,0,868
73,18,54,26,82,20,47,118,774,147,107,149,36,65,58,0,650
6,2,5,0,2,8,7,0,38,3,4,4,1,6,14,0,36
89,48,84,33,65,32,62,0,637,101,45,119,22,90,98,18,557
62,18,70,43,55,17,77,0,626,90,63,129,26,64,39,34,523
33,41,66,17,43,50,63,0,582,61,60,98,31,73,67,1,504
76,22,48,25,43,11,34,31,475,62,48,110,23,51,49,0,422
83,43,66,40,109,29,63,0,862,103,92,161,25,91,83,12,728
25,23,31,21,40,17,33,0,495,46,32,79,18,43,35,41,391
64,36,39,29,66,28,71,146,723,144,95,144,31,48,61,0,679
29,49,72,21,114,59,72,0,762,69,79,80,22,96,116,83,633
32,29,53,21,32,15,48,0,580,64,42,43,18,59,45,50,489
29,59,39,19,29,23,63,0,551,58,40,63,17,49,52,63,470
83,26,55,33,56,22,48,18,589,85,60,132,21,65,61,0,506
24,18,44,10,38,18,25,20,352,23,46,58,13,56,35,0,318
82,44,76,21,22,32,37,2,664,32,49,120,23,79,50,0,627
99,35,38,23,30,23,32,0,451,40,43,123,14,46,42,16,407
128,34,74,36,40,23,59,0,524,55,72,180,29,49,57,22,454
105,50,72,38,42,47,87,0,602,75,77,167,28,72,77,6,541
98,53,65,19,35,30,76,21,464,76,55,153,10,60,84,0,423
73,41,47,33,36,29,62,4,944,56,66,124,24,56,66,0,877
106,23,29,23,32,12,48,26,365,50,50,119,29,43,62,0,311
29,12,16,2,4,16,18,0,202,10,22,34,8,23,16,7,179
31,29,33,12,23,9,39,0,341,15,28,56,5,41,51,20,301
88,34,78,19,44,32,66,0,702,57,69,127,26,73,77,28,606
62,27,41,20,33,16,42,0,497,40,51,100,16,44,35,13,439
31,19,63,20,20,8,39,33,285,44,59,41,7,73,20,0,274
35,20,67,26,35,13,44,55,445,61,45,68,34,52,44,0,436
16,15,46,28,32,14,38,5,369,55,33,60,17,28,28,0,342
17,7,19,11,21,8,31,7,258,36,30,37,10,24,18,0,224
28,14,41,18,48,11,48,84,356,60,59,104,23,31,55,0,316
190,33,118,39,66,33,97,88,1066,100,78,411,43,102,99,0,897
22,14,44,14,52,11,37,28,402,142,48,41,10,33,44,0,306
85,32,67,50,117,22,94,23,574,128,103,211,36,55,56,0,475
42,15,19,23,70,21,41,126,424,78,56,125,32,31,40,0,419
2,2,5,0,17,2,14,27,92,23,9,8,0,9,7,0,105
1,2,12,3,18,2,9,10,26,22,6,4,1,6,2,0,42
82,26,128,60,170,41,92,139,1070,208,117,184,59,119,102,0,1019
66,50,107,56,158,27,91,56,995,185,147,171,48,110,111,0,834
137,21,51,29,165,31,85,101,863,113,74,368,31,62,76,0,759
48,10,44,27,126,20,62,9,636,78,57,187,21,40,64,0,535
33,2,19,0,22,2,9,43,187,14,12,44,8,15,21,0,203
29,15,61,14,21,28,38,9,407,41,32,68,9,55,57,0,360
26,26,54,18,63,15,52,20,276,83,61,55,25,57,32,0,237
35,0,11,3,8,3,12,25,93,14,10,52,6,13,16,0,79
48,17,77,48,75,18,78,187,618,165,73,153,32,64,77,0,602
630,37,74,14,23,33,40,172,895,38,54,823,19,86,103,0,795
69,24,83,33,80,13,89,47,397,153,67,97,21,79,59,0,359
15,15,21,4,24,18,14,22,176,20,23,41,3,27,36,0,159
209,32,74,28,44,34,80,45,867,68,63,368,19,85,84,0,726
41,20,62,17,99,7,69,50,575,195,56,64,20,62,44,0,499
15,6,20,15,45,8,24,44,156,103,22,35,5,20,9,0,139
24,12,24,10,109,9,29,17,206,173,13,29,8,22,21,0,174
22,22,48,18,139,23,56,11,513,247,39,27,22,51,32,0,434
32,27,58,24,199,18,70,107,622,345,50,66,28,46,44,0,578
49,36,67,8,35,25,50,0,519,50,42,72,19,58,67,1,480
80,30,68,21,32,22,49,0,594,50,39,160,19,54,76,4,494
87,45,107,100,190,43,126,131,1032,255,133,182,57,136,122,0,976
56,24,45,21,28,7,39,100,587,38,56,180,16,34,48,0,535
30,13,25,18,17,10,15,12,227,38,23,50,9,24,17,0,206
39,55,75,23,49,40,54,0,594,68,53,80,16,82,97,67,466
33,65,56,26,46,43,72,0,692,55,53,80,24,86,70,22,643
74,47,86,30,93,35,106,135,1271,136,149,215,46,102,122,0,1107
54,29,31,16,60,21,43,22,427,72,48,104,16,43,57,0,363
13,2,9,7,14,5,12,34,78,27,15,10,5,16,11,0,90
8,6,20,3,28,3,17,12,144,34,21,14,2,16,23,0,131
35,20,51,26,127,15,69,42,465,170,56,60,14,44,74,0,432
58,5,27,5,20,5,25,19,293,41,25,86,10,40,29,0,226
16,20,34,13,27,8,21,16,255,73,35,45,11,25,22,0,199
14,7,40,7,33,14,23,14,297,31,30,35,10,48,36,0,259
73,17,49,21,31,3,27,137,402,40,41,205,19,29,28,0,398
130,41,64,19,79,29,70,241,617,87,100,239,54,67,85,0,658
11,10,15,24,45,11,11,26,136,54,24,33,8,21,13,0,136
36,29,37,21,336,29,63,84,570,184,86,162,21,77,79,0,596
27,15,23,6,26,7,24,58,177,31,23,49,8,24,27,0,201
49,20,50,18,36,19,26,55,450,63,48,94,15,52,29,0,422
17,11,35,12,47,11,13,17,207,34,33,37,3,30,18,0,215
39,5,33,26,55,5,27,76,271,108,32,79,25,30,24,0,239
88,31,59,52,138,20,97,52,451,165,84,122,45,46,42,0,484
51,4,42,14,39,7,34,49,172,55,45,61,13,12,33,0,193
10,3,12,5,8,2,4,10,77,3,10,23,2,13,5,0,75
9,4,20,4,6,1,15,40,109,13,15,14,4,17,19,0,126
5,1,16,4,11,7,8,1,75,20,12,7,2,11,5,0,71
99,24,89,39,168,21,77,24,645,156,90,151,36,82,42,0,629
40,33,68,41,79,20,50,0,545,91,46,56,23,74,61,30,495
63,23,47,37,143,15,59,0,477,163,69,89,23,44,53,7,416
68,24,54,26,129,21,56,0,474,131,74,93,35,43,59,48,369
113,37,61,53,196,21,76,61,550,228,80,168,45,62,51,0,534
56,45,73,46,123,40,63,0,448,133,69,110,19,81,49,7,426
103,39,68,67,145,21,67,85,669,168,119,181,39,52,59,0,646
64,25,55,47,103,11,71,14,413,151,53,109,28,43,42,0,377
106,30,94,61,151,23,85,12,754,179,93,139,55,79,48,0,723
63,49,64,36,125,22,54,30,498,166,46,88,35,64,62,0,480
36,15,42,26,27,6,39,53,382,60,48,67,18,41,39,0,353
31,12,41,11,16,9,31,6,398,25,22,97,14,50,28,0,319
73,39,143,54,137,29,78,117,1109,308,110,151,51,100,98,0,961
21,26,33,20,64,7,26,89,421,127,43,71,13,40,31,0,382
13,3,20,8,10,2,17,33,76,31,22,30,9,15,10,0,65
38,24,62,48,46,3,50,140,331,87,74,109,20,47,33,0,372
27,9,53,19,48,15,26,87,305,73,53,89,21,36,24,0,293
54,31,58,38,93,8,51,73,524,176,73,130,22,51,55,0,423
33,29,52,24,43,19,50,116,475,133,58,80,36,55,45,0,434
82,14,46,58,209,8,38,90,696,156,89,187,52,45,67,0,645
72,31,69,48,213,12,64,142,755,168,103,189,49,82,82,0,733
67,30,84,37,98,28,68,170,755,175,100,161,42,91,73,0,695
38,14,46,30,50,9,39,83,387,115,69,97,23,31,33,0,328
89,27,55,41,48,34,59,10,670,91,66,112,12,78,77,0,597
105,63,117,67,225,20,123,306,853,317,130,145,65,74,101,0,1047
119,77,123,65,171,34,148,0,873,188,106,164,66,90,82,224,690
142,103,147,99,226,41,138,120,692,268,150,212,114,107,94,0,763
66,26,77,21,28,18,66,168,644,85,87,160,23,88,77,0,594
27,6,12,2,11,4,14,54,153,16,27,62,5,11,18,0,144
38,17,39,25,55,6,31,40,447,100,43,77,25,28,33,0,392
80,41,96,60,74,31,73,51,845,200,76,115,33,91,69,0,767
35,18,15,7,34,14,20,0,323,24,20,88,7,33,42,5,247
32,17,31,7,24,19,26,43,281,26,32,52,5,30,32,0,303
28,12,45,22,53,20,48,45,390,114,40,57,23,28,52,0,349
11,10,35,10,17,16,16,21,369,29,28,33,7,39,25,0,344
199,125,141,54,156,23,136,205,1370,247,161,439,60,120,207,0,1175
54,28,89,58,118,16,76,0,684,161,73,159,46,59,64,3,558
76,22,89,41,73,21,76,11,586,117,76,142,59,47,70,0,484
16,16,56,12,24,14,28,37,237,65,34,39,4,50,49,0,199
2,8,4,3,2,0,1,0,24,4,5,8,0,7,6,1,13
1,8,15,2,9,1,13,8,46,11,15,4,1,10,7,0,55
5,13,22,4,26,11,20,11,121,29,12,13,9,23,31,0,116
27,4,20,24,21,9,23,41,192,47,36,45,44,6,23,0,160
145,27,54,86,104,12,77,21,690,310,71,202,63,56,56,0,458
113,37,63,50,92,28,91,103,530,215,74,176,52,56,67,0,467
79,24,72,66,47,19,101,59,620,170,90,153,54,65,74,0,481
126,28,64,68,74,17,86,0,500,182,55,124,69,49,33,86,365
92,23,65,94,78,12,82,169,490,143,76,165,90,45,50,0,536
14,9,23,13,12,8,11,6,141,23,15,23,10,23,9,0,134
7,11,14,2,23,3,11,10,152,18,19,15,11,10,14,0,146
18,22,35,15,34,16,48,30,394,57,44,45,22,31,45,0,368
18,17,27,11,36,9,45,13,195,43,41,28,14,23,34,0,188
49,25,81,29,81,18,48,24,560,123,62,94,28,80,36,0,492
20,10,31,6,25,22,36,0,281,28,36,35,18,39,51,3,221
3,10,23,13,19,4,14,7,155,33,28,22,13,32,16,0,104
155,17,69,47,38,17,57,0,395,70,69,174,48,45,37,11,341
208,28,65,52,72,9,85,47,582,121,100,241,64,52,47,0,523
154,32,55,45,56,12,58,14,403,92,64,186,48,48,32,0,359
22,20,49,10,113,32,43,37,384,78,49,54,22,67,61,0,379
24,0,19,3,112,11,32,109,332,152,28,67,12,31,35,0,317
40,11,56,27,724,38,72,186,1079,773,89,135,51,100,82,0,1003
54,36,63,41,84,25,72,150,821,126,118,135,50,65,84,0,768
135,48,74,65,64,32,70,229,826,163,135,172,61,83,78,0,851
95,36,77,67,61,34,63,92,811,134,93,132,55,78,49,0,795
32,19,47,26,65,26,62,213,888,107,96,121,56,48,75,0,875
57,39,70,59,63,35,58,74,639,136,74,141,51,67,57,0,568
38,26,53,39,81,33,70,0,792,124,71,105,40,54,71,26,641
54,36,73,41,68,40,87,10,826,109,91,117,43,77,78,0,720
76,28,67,65,92,31,76,53,780,162,85,148,63,52,71,0,687
20,12,24,10,22,7,25,0,162,49,15,19,6,20,23,23,127
23,6,20,8,13,2,29,25,173,15,24,44,4,15,18,0,179
52,31,90,33,65,27,62,97,671,91,91,126,24,70,64,0,662
14,24,37,9,62,8,25,21,212,48,50,35,23,37,24,0,195
13,9,13,11,21,8,12,4,188,28,22,29,7,22,9,0,162
24,13,29,15,51,9,25,54,456,48,51,56,22,42,44,0,413
31,29,56,19,48,58,64,24,681,56,85,67,35,80,94,0,593
47,16,62,58,53,13,31,31,312,89,49,78,19,47,44,0,297
65,12,94,61,95,13,56,180,627,189,84,125,48,86,49,0,622
56,19,31,50,131,6,73,14,601,185,46,113,43,28,55,0,511
51,20,58,43,78,16,52,20,732,111,65,99,30,51,53,0,661
53,9,80,41,59,21,79,121,658,148,78,104,43,58,71,0,619
68,15,65,83,69,8,44,128,484,151,73,159,56,32,59,0,434
45,27,58,48,70,31,95,30,740,128,102,84,70,43,56,0,661
54,29,80,38,84,28,87,0,843,124,91,82,47,63,72,28,736
5,15,22,8,16,7,22,0,167,16,26,19,15,21,29,0,136
0,1,3,2,3,4,17,0,117,5,14,3,3,3,8,7,104
13,27,19,4,4,5,24,39,201,27,10,27,17,25,33,0,197
12,13,21,9,25,9,23,13,359,57,26,61,19,24,31,0,266
32,11,42,29,42,6,46,0,313,48,37,84,25,27,37,9,254
32,19,63,26,114,24,55,113,881,164,118,107,42,56,67,0,773
31,31,76,16,67,36,68,51,760,113,66,61,24,69,66,0,737
27,17,44,12,21,12,38,22,269,29,33,62,11,46,49,0,232
30,31,43,33,29,14,39,2,455,68,45,76,36,67,43,0,341
140,26,88,44,80,12,57,49,626,145,100,209,69,72,68,0,459
44,26,30,22,71,18,55,0,611,78,59,79,29,41,51,17,523
34,23,43,17,55,27,48,26,482,53,53,79,30,47,47,0,446
57,24,44,33,62,33,75,7,696,86,79,108,39,48,79,0,592
16,6,21,13,51,8,22,11,300,66,17,37,8,20,30,0,270
23,18,44,17,70,8,26,29,434,87,49,59,22,41,33,0,378
35,11,47,30,30,8,37,31,341,52,43,74,26,37,40,0,298
32,30,56,23,49,7,39,1,404,59,41,72,31,57,45,0,336
51,26,72,36,142,18,62,104,527,219,72,93,29,68,66,0,491
9,14,31,8,65,9,51,25,343,68,52,42,16,40,39,0,298
36,24,54,25,76,11,49,20,429,70,61,83,32,64,37,0,377
17,9,50,21,42,7,44,63,317,72,52,47,23,39,36,0,301
15,5,19,7,20,6,31,25,171,30,26,24,9,17,21,0,172
135,47,210,74,123,41,127,19,985,198,124,226,76,148,99,0,890
110,49,151,80,460,40,139,87,1853,571,142,235,63,124,142,0,1692
58,24,58,121,68,23,99,25,723,110,63,109,165,41,70,0,641
19,12,7,20,24,18,27,0,219,34,17,27,44,15,25,27,157
26,12,40,94,44,17,97,62,566,123,69,80,116,34,44,0,492
55,21,26,81,35,16,103,120,436,106,65,66,175,41,37,0,403
75,42,73,87,48,23,112,0,474,82,50,73,151,76,68,23,411
56,35,33,72,45,29,71,0,481,49,46,64,134,38,65,25,401
55,13,36,126,56,10,102,2,478,96,52,90,177,36,53,0,374
79,33,92,48,120,23,75,13,625,148,97,168,42,76,79,0,498
122,48,124,91,91,21,135,53,895,221,114,235,80,122,116,0,692
62,18,74,60,42,10,61,64,551,103,70,101,45,49,58,0,516
27,31,62,8,50,18,52,28,427,80,43,82,11,61,56,0,370
57,24,51,44,55,6,69,93,660,111,74,132,34,56,55,0,597
54,27,72,30,76,26,66,9,490,86,55,96,29,73,56,0,455
5,12,36,9,64,3,29,57,244,71,35,30,16,15,27,0,265
7,7,4,5,17,0,11,11,109,23,13,13,1,5,16,0,100
43,43,51,24,72,14,71,0,637,87,61,85,18,43,63,16,582
18,4,8,4,9,3,22,8,111,22,13,33,5,10,10,0,94
53,19,57,39,74,23,55,28,554,101,73,131,36,47,56,0,458
55,56,79,53,74,33,61,40,607,106,90,138,37,75,78,0,534
28,24,49,20,31,21,39,9,390,45,41,63,19,34,60,0,349
23,15,31,34,71,18,27,44,281,105,45,70,20,15,28,0,261
88,35,90,101,218,47,176,99,1301,215,169,235,126,96,133,0,1181
25,17,24,18,25,11,28,24,254,42,50,54,11,20,21,0,228
41,17,50,43,93,30,73,5,624,154,67,94,33,74,62,0,492
31,17,32,32,78,21,59,80,673,124,79,80,30,63,52,0,595
107,31,89,54,68,14,106,46,819,173,87,201,35,95,68,0,675
46,12,51,33,75,17,57,55,549,81,107,120,32,60,44,0,451
36,23,41,23,125,12,41,32,683,153,58,90,20,67,43,0,585
83,25,74,41,231,15,68,80,723,260,100,134,57,80,63,0,646
28,42,58,33,46,35,38,0,338,47,45,51,40,67,61,9,298
12,32,29,11,17,31,34,0,531,12,28,22,23,39,49,58,466
12,28,45,13,16,36,39,0,483,25,44,22,19,45,47,14,456
17,32,37,15,12,26,36,0,449,17,37,27,22,31,46,52,392
16,45,49,24,17,15,36,0,442,31,31,32,21,39,56,29,405
15,46,46,9,24,39,50,0,384,33,48,19,18,41,61,22,371
13,32,40,12,18,15,41,0,387,28,36,35,9,30,39,46,335
6,47,51,15,27,39,60,0,506,25,28,28,21,61,79,43,466
14,32,64,14,15,31,43,0,504,27,38,24,15,59,55,27,472
54,70,112,42,64,48,104,17,684,91,83,88,49,100,131,0,653
1,0,1,0,0,3,10,7,18,4,4,2,8,2,3,0,17
27,56,61,32,34,52,75,0,771,45,56,37,40,69,97,51,713
22,40,68,22,25,58,52,0,735,36,38,38,28,82,96,54,650
13,15,20,8,7,15,18,0,133,18,30,13,9,17,29,1,112
20,11,23,6,13,13,28,52,158,28,21,31,21,27,39,0,157
2,5,6,1,5,3,11,0,82,9,4,3,2,12,17,0,68
1,9,13,2,5,5,4,1,41,3,5,3,0,8,9,0,53
34,27,41,15,31,19,31,41,198,41,31,52,26,43,51,0,193
24,17,25,5,20,23,28,2,166,18,19,35,14,33,35,0,156
23,71,62,8,22,36,47,0,377,34,40,23,13,68,86,41,341
21,36,57,26,28,36,65,0,565,44,49,41,37,55,56,88,464
41,60,69,24,30,35,78,0,1998,28,59,56,33,56,89,191,1823
35,39,42,39,33,9,47,0,459,34,65,57,40,39,54,24,390
46,41,64,29,37,17,58,12,387,62,52,70,41,70,57,0,339
29,49,66,39,42,38,52,32,618,47,51,69,49,68,72,0,609
22,37,48,12,21,16,23,0,333,25,32,45,10,47,22,27,304
10,43,78,9,26,33,38,0,618,30,28,23,18,71,74,52,559
24,48,61,16,30,33,47,0,624,38,44,54,24,63,76,44,540
17,73,82,19,31,46,50,0,619,44,46,44,29,48,54,64,608
14,33,54,9,30,18,47,0,494,37,32,36,20,54,52,33,435
10,35,50,5,19,14,25,0,472,16,26,17,10,57,37,41,426
22,31,66,15,17,29,38,0,318,33,32,35,17,64,33,11,311
18,37,42,12,15,21,19,5,402,26,20,21,11,47,52,0,394
17,29,60,8,24,20,47,0,442,23,47,22,16,46,59,62,372
31,25,40,33,38,18,40,34,421,62,51,52,41,41,39,0,394
61,59,116,58,38,28,61,5,506,75,75,89,79,72,78,0,464
17,28,64,40,27,10,57,14,401,51,56,61,26,39,42,0,383
26,58,60,17,31,41,63,0,664,29,45,54,36,62,91,51,592
12,48,38,14,26,56,38,0,609,32,34,43,22,39,97,13,561
19,22,91,23,30,43,60,36,541,35,56,40,17,68,71,0,578
18,21,65,14,19,25,38,12,363,45,47,36,11,52,27,0,357
8,13,20,4,25,8,22,24,188,38,28,18,10,25,23,0,170
11,10,19,9,16,14,19,7,154,17,13,26,7,21,24,0,151
10,44,45,8,32,18,29,0,443,33,38,17,7,51,34,43,406
10,28,57,5,22,22,25,0,573,33,23,32,12,38,60,25,519
24,62,86,22,33,29,65,24,628,65,49,45,18,64,73,0,659
14,26,39,6,20,31,42,0,369,29,31,30,9,44,64,1,339
6,26,29,9,8,14,20,33,159,26,25,22,11,17,37,0,166
19,10,22,11,27,8,15,16,153,30,26,35,17,15,18,0,140
12,22,18,5,11,34,25,5,188,12,27,13,8,27,26,0,207
9,10,22,5,31,7,16,21,128,28,12,14,3,21,10,0,161
11,28,25,7,27,21,26,5,195,37,24,30,8,18,29,0,199
63,58,71,14,54,38,96,0,804,88,101,103,33,77,96,31,669
49,109,72,21,67,49,66,0,748,93,86,90,48,88,80,60,636
58,47,64,23,52,24,79,0,636,58,69,107,23,76,67,27,556
86,68,112,33,72,51,105,5,814,90,124,145,55,102,83,0,747
57,59,73,13,39,53,67,0,944,61,88,70,20,65,62,43,896
70,45,80,27,47,23,72,14,631,73,87,115,35,84,78,0,537
3,4,7,1,4,5,8,7,35,6,8,6,3,8,4,0,39
2,8,9,0,7,9,5,8,49,7,6,5,0,15,12,0,52
12,15,15,0,19,4,8,2,83,17,13,12,0,15,7,0,94
3,31,18,5,25,4,14,0,57,20,16,3,0,29,11,3,75
1,18,35,4,23,16,40,0,116,27,12,7,5,34,30,0,138
9,28,44,12,20,14,29,0,302,31,27,10,20,47,41,2,280
10,27,31,7,11,15,25,9,220,19,23,23,4,39,33,0,214
8,17,22,6,12,7,14,0,184,19,18,20,9,12,17,8,167
10,14,9,9,5,1,13,5,147,15,13,15,7,15,12,0,136
6,13,9,0,2,16,13,1,54,10,9,7,1,25,14,0,48
5,12,12,2,10,2,10,0,66,12,15,4,2,14,6,12,54
26,20,40,12,36,18,23,6,474,52,34,44,13,37,34,0,441
15,23,41,8,23,32,37,16,316,41,41,31,5,53,64,0,276
15,18,22,2,16,10,18,4,232,25,24,16,9,22,18,0,223
4,3,4,1,15,7,11,2,56,24,7,3,2,5,13,0,49
0,9,7,2,3,7,12,3,51,12,8,1,2,6,16,0,49
0,2,6,7,2,0,1,2,38,15,0,0,3,4,10,0,26
12,43,25,3,19,29,27,0,239,90,18,10,4,21,27,4,223
12,17,29,3,35,12,21,31,247,35,33,23,6,28,19,0,263
18,7,18,12,8,3,11,0,133,25,13,18,5,19,2,1,127
1,1,3,0,7,8,19,1,48,4,5,2,5,8,9,0,55
5,4,10,0,11,11,40,10,152,26,14,3,5,26,15,0,154
15,20,28,7,22,9,26,12,307,47,20,18,4,45,26,0,286
0,1,0,0,0,4,5,2,21,2,1,0,0,1,5,0,24
2,1,3,0,2,16,2,6,54,3,4,0,2,7,15,0,55
27,34,54,9,22,98,68,13,609,38,31,33,22,54,92,0,664
4,21,21,6,12,103,45,0,479,17,22,16,6,34,81,22,493
21,11,23,17,234,21,33,6,363,144,29,32,11,46,52,0,415
9,16,24,5,17,13,46,6,241,42,12,22,8,25,36,0,232
33,40,86,18,72,29,74,35,694,108,74,50,15,56,56,0,722
9,10,40,1,7,27,24,5,192,10,19,22,3,25,30,0,206
30,44,52,18,77,17,41,14,592,99,43,24,19,67,74,0,559
11,10,26,1,15,2,12,0,77,24,20,10,5,15,13,6,61
3,8,7,1,1,18,13,9,49,1,8,3,2,23,20,0,52
12,23,50,16,19,19,24,4,321,20,36,43,10,60,29,0,290
12,31,68,19,43,17,38,38,558,64,62,49,19,54,58,0,518
2,37,14,2,10,14,12,13,167,27,15,13,5,19,28,0,164
1,9,2,0,3,6,4,0,28,10,0,1,0,9,8,7,18
3,17,10,1,10,8,21,6,101,11,16,8,1,19,25,0,97
20,31,76,17,20,24,65,6,495,55,53,47,21,58,57,0,463
12,39,38,5,19,31,46,0,578,26,32,16,14,41,50,44,545
14,8,16,4,19,4,27,39,84,22,19,25,30,11,8,0,100
32,17,39,20,35,8,66,78,371,68,66,85,32,42,28,0,345
64,41,66,30,63,31,123,11,788,88,91,120,69,65,70,0,714
59,30,89,31,56,42,92,74,657,70,86,106,80,87,73,0,628
71,19,50,40,72,17,85,53,834,102,98,138,61,42,52,0,748
15,20,40,8,63,14,32,10,397,55,53,31,10,30,55,0,365
26,16,35,4,25,9,40,55,282,45,28,38,9,41,28,0,303
12,38,46,13,30,29,50,0,418,52,44,34,7,50,51,20,378
15,24,16,1,31,5,31,19,230,49,33,22,3,11,19,0,235
2,1,5,7,8,3,10,0,55,11,8,2,0,2,6,5,57
0,2,11,0,3,2,17,0,47,11,3,4,0,11,7,1,45
21,11,9,4,25,4,36,8,242,53,13,28,8,14,18,0,226
59,25,55,29,68,23,43,173,513,88,84,121,44,49,61,0,541
10,16,12,1,17,1,14,7,135,28,16,11,3,7,13,0,135
27,23,38,8,74,16,61,0,544,67,61,33,12,46,52,5,515
29,37,60,7,60,22,74,0,523,62,41,53,5,71,59,11,510
7,16,13,4,5,9,9,3,36,7,10,3,4,26,17,0,35
24,60,56,29,35,44,66,0,611,53,64,40,22,63,60,13,610
7,18,12,8,23,6,5,8,132,26,7,20,12,13,13,0,128
8,40,46,5,14,14,38,37,360,45,23,31,16,35,66,0,346
10,17,24,0,6,9,12,10,148,11,16,21,3,11,28,0,146
13,17,13,13,13,6,15,0,97,20,20,12,11,4,18,3,99
3,12,18,4,3,9,14,11,233,16,15,10,9,29,12,0,216
4,5,7,0,37,1,21,0,61,36,5,4,0,10,9,5,67
6,6,12,1,23,2,24,5,64,39,4,7,0,10,6,0,77
25,27,39,3,135,28,73,0,483,180,57,37,16,55,52,4,412
15,29,35,5,19,30,26,17,319,15,20,35,6,57,54,0,308
11,15,25,6,37,11,40,3,302,58,19,24,8,34,23,0,284
27,14,26,2,29,20,22,0,261,39,37,28,5,22,28,4,238
18,25,25,4,27,27,32,22,488,33,45,31,18,24,55,0,462
5,8,14,0,5,11,14,3,44,10,12,4,1,8,19,0,50
5,14,11,0,6,10,19,0,155,13,8,8,5,17,18,12,139
4,10,15,4,5,20,21,0,111,19,13,13,0,11,31,0,103
3,12,7,1,2,18,3,7,53,4,2,5,1,12,28,0,54
10,24,20,2,14,12,27,5,168,22,19,12,3,19,39,0,168
3,10,9,1,0,10,9,0,92,5,1,0,0,8,14,20,86
14,50,36,12,21,66,50,0,399,49,36,22,12,42,106,16,365
17,39,42,13,11,43,34,10,315,44,25,23,19,31,58,0,324
12,33,44,1,13,44,41,0,362,25,40,31,14,46,69,13,312
34,29,43,11,16,37,39,0,517,36,37,35,16,39,59,31,473
17,10,27,7,25,11,15,23,211,25,40,27,15,22,27,0,190
4,20,17,3,6,33,13,2,90,8,13,17,6,17,27,0,100
8,4,3,1,4,2,2,0,36,4,2,9,1,9,3,1,31
17,4,6,0,7,1,2,0,103,9,3,16,1,9,5,6,91
16,7,9,0,5,1,11,0,73,18,10,12,4,3,12,6,57
6,3,10,0,6,2,10,10,64,6,7,1,4,7,8,0,78
11,8,13,0,8,4,8,1,120,8,14,15,3,13,15,0,105
99,40,91,9,45,28,76,0,612,89,64,91,18,64,63,8,603
64,17,26,27,22,14,43,0,349,62,46,59,13,38,19,0,325
121,35,67,13,50,14,68,0,570,73,79,104,18,56,51,53,504
56,27,43,4,31,31,52,0,417,40,36,60,4,51,56,38,376
56,33,52,10,18,19,50,0,461,33,35,51,10,74,30,43,423
38,27,24,11,33,17,24,0,346,42,38,42,5,36,42,25,290
91,44,50,17,44,19,41,0,610,66,60,85,18,60,46,30,551
3,17,31,1,23,12,20,0,94,20,9,11,7,37,14,2,101
3,25,31,3,15,18,26,0,197,18,7,8,3,31,25,22,204
53,65,77,20,62,60,76,76,627,86,88,89,20,81,115,0,637
13,11,32,8,22,18,23,14,153,31,29,24,5,32,28,0,145
22,19,34,12,19,6,35,39,196,38,42,31,10,32,17,0,212
13,23,22,9,65,15,32,11,309,82,25,26,2,22,22,0,320
12,9,14,0,10,9,21,15,182,26,13,12,8,11,22,0,180
3,1,16,2,1,2,1,5,23,3,5,1,0,7,4,0,34
7,31,49,4,24,26,33,0,273,47,23,19,7,35,47,8,261
6,11,24,0,12,3,26,7,118,13,23,15,4,22,17,0,113
4,11,10,3,1,11,13,9,62,9,8,0,1,17,24,0,65
14,48,40,11,7,22,39,0,253,29,15,15,4,31,49,12,279
20,33,31,10,37,17,24,0,359,34,33,29,17,34,39,4,341
1,16,14,0,7,16,3,0,80,22,9,5,0,7,19,1,74
3,25,5,4,9,11,26,0,112,43,16,6,6,7,23,10,84
30,22,35,20,40,4,27,9,317,42,33,56,13,29,28,0,303
4,22,24,1,3,12,23,12,144,19,11,11,3,18,34,0,149
4,28,36,13,18,12,26,20,125,25,29,25,7,41,40,0,115
1,5,2,0,16,2,31,3,51,31,8,6,6,3,10,0,47
8,7,9,2,6,0,6,0,47,16,7,4,1,7,12,5,33
18,15,31,10,38,18,29,0,335,49,25,29,7,25,23,18,318
11,12,25,5,5,23,15,0,180,30,5,21,5,27,28,12,148
34,45,46,6,33,43,34,0,472,30,36,42,14,63,55,26,447
58,41,105,17,52,26,41,0,547,43,43,111,28,79,81,46,456
14,45,56,9,34,36,34,0,501,41,25,31,23,58,47,22,482
6,16,15,2,5,7,9,0,139,20,9,9,0,25,24,9,103
36,53,52,35,63,51,42,0,608,76,32,81,40,86,89,11,525
26,59,60,23,38,25,28,0,676,47,46,55,26,84,41,39,597
21,54,46,13,31,32,32,0,608,51,36,32,20,52,73,25,548
25,49,44,20,30,31,34,6,685,70,49,55,11,51,53,0,635
23,41,64,30,26,15,65,0,754,59,47,38,32,41,74,45,682
20,52,69,7,21,43,36,8,409,35,30,27,15,90,70,0,398
43,42,58,14,43,30,50,0,524,57,39,79,22,54,77,30,446
14,27,36,14,18,17,25,0,377,29,34,33,10,33,46,23,320
31,54,67,25,29,34,39,0,482,54,34,89,23,61,60,25,415
12,21,33,10,11,27,16,0,315,18,20,16,3,43,39,12,294
48,26,39,23,31,24,40,0,908,31,41,73,27,45,42,14,866
8,38,45,13,22,39,30,0,389,35,28,24,14,51,57,27,348
13,31,59,11,23,35,45,0,449,37,29,40,21,50,58,32,399
3,21,25,1,9,18,7,0,89,18,5,6,1,24,17,2,100
2,2,4,0,4,4,2,0,52,0,4,0,0,10,4,8,44
2,0,4,0,0,3,2,0,59,3,2,1,0,6,2,1,55
21,34,31,3,19,52,25,21,385,26,12,33,7,46,59,0,408
5,17,22,4,10,11,9,0,297,7,9,3,3,23,18,12,300
5,5,5,1,1,0,1,5,18,2,0,5,3,6,5,0,20
8,6,10,2,9,22,5,0,80,9,5,8,2,9,18,0,91
0,1,5,4,1,2,0,0,15,2,0,0,0,2,5,2,17
4,35,32,6,20,39,31,9,295,27,15,17,7,33,54,0,318
7,27,53,4,21,18,28,3,362,23,25,24,8,45,47,0,351
24,35,57,9,21,27,31,11,480,26,25,37,9,65,73,0,460
14,41,28,10,16,28,22,7,457,35,10,26,5,35,44,0,468
26,37,64,2,10,36,27,22,585,49,27,41,7,75,47,0,563
6,46,38,9,16,36,39,0,498,31,32,20,6,54,54,32,459
9,28,30,3,5,35,12,4,293,10,12,9,7,32,47,0,302
0,6,15,0,81,4,8,9,93,52,6,9,2,16,14,0,117
4,8,29,3,23,26,24,0,259,32,18,11,1,32,28,13,241
10,11,26,6,65,18,20,0,320,79,16,13,12,29,32,0,295
30,16,34,9,19,27,49,0,402,37,17,42,14,27,53,25,371
47,38,41,30,42,30,45,144,474,82,41,77,27,50,63,0,551
53,41,59,18,54,36,46,0,539,93,35,56,15,70,65,29,483
5,0,7,3,8,18,5,0,60,10,3,7,0,9,13,5,59
8,61,27,7,19,29,25,0,370,32,18,15,9,37,67,9,359
24,49,40,7,33,54,42,14,511,49,45,46,12,51,64,0,507
19,26,41,17,15,27,29,2,275,23,20,21,11,54,57,0,265
19,56,102,17,37,64,52,0,738,69,54,46,25,59,120,35,677
12,15,16,3,9,19,14,3,274,18,15,19,7,32,18,0,256
5,0,13,6,7,25,21,14,157,23,9,8,1,17,23,0,167
16,19,56,5,35,12,27,0,540,35,40,39,13,51,50,4,478
5,30,31,3,11,10,14,35,242,15,21,24,4,32,24,0,261
2,19,6,1,10,5,6,0,64,8,4,8,4,10,16,7,56
3,3,7,2,2,7,6,2,31,0,0,1,0,5,13,0,44
12,27,46,3,25,32,24,0,421,23,24,21,11,45,55,14,397
7,23,13,3,11,6,17,2,252,29,13,12,2,12,34,0,232
32,100,73,15,22,48,39,0,562,105,75,50,29,106,113,20,393
27,107,62,28,33,29,43,22,794,120,75,67,12,78,111,0,682
13,93,39,15,29,28,44,0,797,89,66,39,26,61,122,39,616
70,121,100,38,51,59,87,74,747,172,128,143,39,108,193,0,564
3,8,17,2,1,15,6,10,68,12,6,6,2,21,8,0,75
38,32,45,10,39,23,23,0,268,61,6,55,4,44,59,1,248
6,14,29,6,10,19,11,0,220,18,4,14,3,31,17,7,221
15,19,22,2,8,12,16,0,144,19,12,20,3,21,26,6,131
8,11,26,4,8,13,15,0,145,9,7,7,2,14,42,6,143
6,14,19,2,19,8,6,0,148,26,9,4,2,29,14,9,129
1,15,20,1,11,23,2,12,86,9,6,5,5,19,31,0,96
8,19,22,5,10,10,15,4,144,13,7,18,5,29,13,0,152
10,8,9,4,9,4,2,0,61,10,0,12,0,10,6,2,67
7,51,48,20,11,24,17,8,413,41,20,16,12,60,53,0,397
27,44,49,10,18,30,28,43,535,67,42,41,17,53,68,0,496
1,8,8,2,10,9,4,0,46,6,7,0,1,7,17,6,44
25,43,98,19,80,21,64,0,707,114,31,63,5,105,75,11,653
12,20,20,7,1,12,13,6,117,12,15,20,2,20,20,0,119
7,16,10,1,6,2,5,1,49,12,1,7,1,13,11,0,52
26,53,60,9,31,28,43,29,595,72,38,45,22,63,85,0,549
11,17,13,1,7,3,13,0,76,23,8,10,0,9,16,7,68
0,8,2,0,2,8,3,0,16,3,4,0,1,8,4,0,19
4,13,11,0,4,13,6,0,58,9,6,4,1,8,14,2,65
6,6,32,3,8,21,9,0,246,19,20,11,0,27,24,22,208
1,9,5,0,3,2,4,1,8,2,0,3,0,6,14,0,8
0,6,7,4,3,8,8,10,46,7,6,5,2,2,15,0,55
7,16,18,2,7,13,10,15,190,6,6,4,6,18,14,0,224
9,11,12,3,9,14,12,18,186,13,7,20,5,16,19,0,194
12,22,47,21,12,21,30,38,254,19,18,24,13,38,38,0,307
15,27,19,19,13,21,24,24,264,31,29,43,7,22,48,0,246
0,5,8,0,22,12,3,10,61,14,3,1,1,13,12,0,77
11,19,33,3,18,11,18,0,283,30,14,14,3,38,23,0,274
8,17,20,6,7,18,9,10,134,13,15,13,4,28,20,0,136
1,24,15,5,5,7,12,0,188,14,18,2,9,20,20,7,167
3,18,9,0,19,26,10,15,153,12,16,18,0,18,27,0,162
12,9,8,5,7,5,16,30,118,15,9,22,6,5,20,0,133
11,21,27,11,8,16,22,0,145,23,11,22,2,29,14,1,159
6,15,11,2,6,6,7,0,116,14,10,14,2,16,10,7,96
0,6,9,0,0,2,1,0,24,1,2,0,0,8,4,3,24
3,18,9,0,5,2,6,0,67,8,4,2,4,11,18,6,57
12,31,30,4,32,30,20,0,399,50,27,28,2,57,45,13,336
18,12,35,6,26,7,21,0,247,36,21,27,4,29,20,15,220
0,1,2,4,4,1,4,3,24,15,1,0,0,2,4,0,21
4,20,6,3,8,1,11,0,97,13,9,1,1,6,18,1,101
6,13,20,9,10,2,4,10,68,6,10,28,7,18,11,0,62
17,17,24,10,10,10,14,10,228,31,23,50,6,32,28,0,170
1,13,31,2,8,11,7,0,100,14,2,6,2,36,20,1,92
6,5,18,0,5,21,8,11,93,13,11,8,3,20,22,0,90
6,0,5,2,6,2,7,2,23,6,11,3,1,5,1,0,26
0,12,18,0,2,12,8,15,102,11,18,7,1,22,9,0,101
1,2,2,3,6,1,9,0,56,5,4,7,0,4,9,1,50
0,3,6,2,0,2,9,5,23,2,1,1,2,8,8,0,28
6,8,6,2,7,7,30,3,105,6,12,11,4,10,14,0,117
8,10,8,2,3,7,10,0,37,6,2,8,4,6,6,7,46
8,5,9,2,1,1,15,0,45,11,9,11,2,11,8,0,34
3,8,21,0,2,4,9,4,63,0,7,2,3,15,13,0,74
1,6,5,1,3,4,4,0,43,7,7,3,1,1,0,6,42
9,7,23,4,8,6,27,17,73,20,9,6,7,15,15,0,102
3,8,10,1,1,3,22,9,81,14,19,9,6,9,12,0,69
8,17,13,2,12,8,13,3,73,5,7,7,2,17,16,0,95
0,18,23,2,2,9,11,3,67,9,10,7,3,16,13,0,77
7,10,24,8,8,4,17,11,136,13,18,15,12,16,25,0,126
21,56,67,25,41,28,62,20,568,56,64,52,35,60,96,0,525
9,9,27,8,14,11,28,26,130,18,20,30,11,21,23,0,139
5,5,14,1,7,5,7,31,115,6,9,10,5,13,16,0,131
7,10,9,3,3,13,9,4,114,7,6,15,4,10,20,0,110
6,11,5,0,6,16,7,0,60,8,4,9,0,13,17,5,55
0,15,9,4,6,9,8,0,77,15,2,2,2,24,10,2,71
1,6,15,2,0,7,6,1,41,5,1,2,2,10,9,0,50
12,12,11,5,9,4,14,4,69,22,13,16,3,11,25,0,50
2,5,6,0,3,3,3,3,47,9,4,5,2,6,10,0,36
8,13,10,0,17,17,10,7,126,20,14,11,0,9,8,0,146
10,5,1,6,3,2,4,13,39,5,7,11,3,3,8,0,46
9,6,13,4,5,2,6,26,135,15,16,7,2,7,9,0,150
3,3,6,3,8,3,9,0,27,8,7,3,0,13,10,2,19
5,6,8,1,8,0,4,12,85,10,6,8,1,11,9,0,84
17,11,25,6,13,4,29,54,196,49,31,30,9,14,23,0,199
2,13,8,4,22,4,21,5,137,5,12,37,5,6,17,0,134
13,9,28,12,12,3,30,41,257,42,43,33,16,21,24,0,226
23,11,18,9,33,4,23,54,187,46,25,43,14,20,40,0,174
25,14,65,39,38,9,39,89,648,113,73,72,29,61,53,0,565
46,17,38,18,29,8,30,23,409,52,39,86,13,41,25,0,362
53,23,68,53,92,8,98,226,606,168,98,159,50,57,74,0,621
37,18,39,20,34,10,36,94,311,61,68,84,27,32,44,0,283
10,4,14,3,39,1,17,43,101,50,11,15,9,15,8,0,124
5,5,18,1,10,8,8,0,50,12,14,5,0,7,4,2,61
1,7,9,1,3,8,2,0,59,7,3,1,0,8,11,5,55
2,9,4,0,3,6,7,2,132,6,3,4,0,9,9,0,134
3,2,23,0,1,3,3,0,76,2,0,5,2,20,10,0,72
4,3,7,2,9,6,2,2,29,7,9,7,1,8,3,0,29
3,6,13,1,10,3,15,18,104,18,6,10,1,16,18,0,104
8,10,12,2,12,8,10,13,42,15,4,13,1,15,17,0,52
1,4,9,0,6,14,3,8,63,7,5,3,2,11,16,0,64
1,3,3,0,0,9,2,3,19,2,4,5,0,2,8,0,19
3,8,9,0,2,16,4,2,87,4,2,2,1,11,11,0,100
6,24,3,1,0,3,6,5,56,3,8,6,1,4,30,0,52
3,6,5,1,5,4,4,1,30,4,0,2,1,10,5,0,37
5,4,8,0,2,11,2,14,33,5,5,10,0,7,10,0,42
1,1,13,3,8,10,2,2,32,12,5,3,1,10,8,0,33
0,7,1,0,5,1,4,9,31,7,4,2,1,3,6,0,35
1,6,13,0,6,1,1,3,20,6,8,0,2,13,7,0,15
3,7,3,1,13,5,2,2,50,12,1,9,2,3,8,0,51
7,10,24,4,8,3,21,6,68,19,11,8,6,12,14,0,81
2,8,10,1,6,2,4,5,51,6,2,2,1,8,15,0,55
0,1,5,0,6,0,9,0,35,9,4,0,2,5,1,1,34
12,21,21,10,9,5,22,0,142,44,8,14,3,25,14,6,128
14,67,9,2,4,11,17,33,104,23,16,19,3,13,66,0,121
17,18,40,5,19,12,30,0,205,13,11,28,9,30,36,7,212
3,10,18,2,5,3,5,26,118,18,11,4,1,15,13,0,128
11,31,21,8,9,18,9,11,120,15,7,27,7,21,55,0,106
22,10,26,6,6,2,16,0,108,20,10,20,7,24,10,0,105
16,11,32,6,22,7,13,26,282,16,14,37,2,47,19,0,280
6,3,4,0,1,1,9,2,24,7,7,6,0,7,2,0,21
4,4,14,1,6,3,2,7,28,4,4,6,2,7,8,0,38
3,13,9,1,3,7,11,0,64,10,5,1,2,25,13,2,53
2,9,17,3,4,10,19,0,101,10,8,8,2,13,29,2,93
2,13,4,3,3,8,5,0,52,17,5,5,2,5,22,1,33
16,16,18,3,8,11,9,44,118,16,14,27,0,17,27,0,142
3,7,9,4,5,0,3,0,39,7,11,9,0,11,1,4,27
2,13,6,2,1,4,12,2,41,3,7,6,2,7,11,0,47
9,5,25,10,23,7,21,18,170,12,25,81,4,27,12,0,127
6,14,37,10,12,9,40,0,148,26,8,24,7,20,23,8,160
12,4,12,2,7,2,9,8,109,17,5,6,2,12,16,0,107
0,14,1,0,0,1,2,6,50,4,2,3,0,2,4,0,59
1,3,12,0,2,5,7,0,57,2,7,1,0,9,11,0,57
3,12,11,2,8,7,11,9,100,14,10,8,2,16,9,0,104
74,26,125,58,35,20,64,43,483,98,64,140,48,101,69,0,408
11,9,23,6,12,6,12,7,97,13,14,26,6,14,21,0,89
23,12,38,10,7,6,30,0,186,45,13,38,7,29,29,2,149
65,84,154,49,41,58,95,0,1079,115,85,100,28,140,154,74,929
82,72,192,66,44,46,89,13,882,117,84,165,69,166,106,0,779
9,6,18,3,3,17,13,0,149,17,10,4,5,13,23,8,138
3,23,22,7,6,4,12,11,87,12,8,14,3,31,27,0,80
4,18,17,5,1,6,4,0,46,11,5,8,2,21,12,6,36
13,22,41,10,5,6,12,16,92,17,14,18,12,37,17,0,102
13,12,19,11,14,8,11,38,156,27,16,31,15,30,42,0,121
22,8,34,0,12,4,9,52,137,14,15,45,2,40,23,0,139
5,5,15,1,2,3,2,11,65,7,11,10,1,16,9,0,55
8,10,15,0,3,5,10,7,97,7,12,9,4,25,14,0,84
4,12,8,5,9,3,8,10,55,9,7,11,4,12,2,0,69
3,5,8,1,7,1,4,1,32,7,6,3,5,4,5,0,32
8,22,23,4,7,11,19,0,147,17,12,11,2,25,22,4,148
2,1,10,1,3,7,6,10,75,5,5,5,1,9,6,0,84
2,7,16,1,4,18,8,13,58,12,3,5,0,25,15,0,67
6,6,12,9,10,8,7,0,50,13,12,6,3,8,21,3,42
7,11,17,9,9,2,14,6,77,12,16,14,9,14,10,0,77
35,23,45,13,41,11,26,47,319,77,54,48,26,50,37,0,268
21,19,63,18,50,9,35,0,210,75,34,29,19,29,26,8,205
21,7,20,13,25,4,15,9,136,36,23,36,9,16,11,0,119
20,8,15,6,4,6,9,3,111,15,28,26,6,7,15,0,85
1,9,2,0,5,10,3,0,66,3,4,1,1,3,5,2,77
8,6,12,5,25,2,19,3,110,23,15,17,12,19,16,0,88
8,2,4,4,6,0,4,0,55,3,3,20,2,2,3,5,45
17,9,23,12,9,14,22,8,123,21,8,22,9,19,19,0,139
18,21,51,24,69,18,34,15,341,77,48,42,34,34,35,0,321
1,3,1,0,16,3,4,2,17,16,1,4,0,0,1,0,25
5,10,8,4,3,21,5,0,127,2,4,4,1,14,16,16,126
4,4,2,0,9,7,4,0,61,8,3,4,4,12,10,6,44
8,1,11,0,7,2,4,0,101,10,5,7,1,10,9,2,90
4,4,10,1,8,9,8,0,41,7,2,3,0,11,11,4,47
5,3,10,4,1,0,7,5,59,4,5,8,2,8,5,0,62
9,10,20,2,14,7,33,9,166,17,20,28,5,23,34,0,143
0,12,23,2,26,11,11,5,204,40,8,9,2,34,19,0,182
7,5,8,6,8,9,8,23,86,22,11,12,1,14,19,0,81
3,8,6,3,13,3,5,1,44,8,6,1,3,6,8,0,54
2,25,7,1,13,4,4,0,56,21,5,0,0,10,15,6,55
9,5,16,6,4,8,16,0,126,8,9,16,9,9,15,9,115
3,7,11,1,9,5,11,0,77,12,9,2,0,6,9,5,81
105,80,159,24,84,36,125,3,1141,81,93,192,27,153,115,0,1096
15,10,18,6,17,7,26,20,232,21,24,35,6,20,20,0,225
11,12,27,9,12,12,13,3,125,15,6,12,14,39,21,0,117
37,26,42,7,7,13,28,22,275,27,31,56,4,51,40,0,248
11,14,22,1,2,5,14,0,93,12,10,15,3,20,24,1,77
6,11,15,4,18,10,10,20,75,24,7,16,0,16,13,0,93
3,14,10,3,14,8,2,6,41,21,7,3,0,9,15,0,46
8,20,10,8,21,1,20,11,125,38,8,14,7,16,16,0,125
5,11,24,6,22,4,9,6,115,38,5,12,4,22,19,0,102
22,11,48,9,12,6,26,9,259,5,17,77,1,33,33,0,236
7,16,9,0,4,6,8,0,62,13,5,10,0,17,7,0,60
5,15,25,2,14,7,21,13,123,24,17,18,3,32,19,0,112
2,1,4,0,3,1,13,3,29,9,3,3,1,7,10,0,23
7,9,3,0,1,2,7,0,73,6,2,4,0,10,9,2,69
4,2,17,0,2,13,14,0,72,5,4,6,1,11,18,0,79
5,6,2,4,6,2,7,0,29,7,2,3,0,0,13,6,30
9,7,22,11,28,10,18,0,263,44,21,22,11,23,20,25,202
36,8,7,7,26,2,22,49,123,18,18,99,7,15,20,0,103
59,11,44,9,30,2,18,89,244,24,30,108,13,28,22,0,281
19,12,18,10,21,3,16,36,179,24,18,59,17,27,17,0,152
3,4,13,1,4,4,6,4,48,15,3,1,3,8,6,0,51
4,1,11,3,9,4,7,12,54,15,4,4,6,10,11,0,55
4,15,16,3,10,16,7,0,152,15,18,9,4,17,14,2,144
18,15,33,10,15,20,26,51,204,35,35,24,15,37,38,0,208
21,16,42,6,12,14,32,0,261,20,31,19,13,45,26,8,242
11,24,40,16,22,22,32,0,205,33,32,29,29,22,40,4,183
6,11,13,1,9,6,12,8,46,15,5,4,6,5,13,0,64
7,8,21,6,20,3,17,0,183,40,17,10,6,20,11,3,158
13,14,19,1,9,11,15,5,128,24,18,11,2,30,10,0,120
5,16,13,4,5,8,9,0,118,14,10,7,5,17,11,8,106
6,18,14,1,5,5,5,1,83,13,2,11,0,23,11,0,78
2,10,13,2,1,9,2,0,62,1,4,5,0,9,4,5,73
0,5,3,0,2,11,2,1,56,5,2,1,0,4,10,0,58
48,53,59,9,27,42,48,0,566,52,45,47,21,61,58,28,540
4,3,4,3,11,2,1,1,30,8,6,10,2,0,6,0,27
4,3,10,5,0,8,2,5,34,1,6,6,2,10,11,0,35
4,6,5,3,11,3,15,4,47,13,9,8,2,7,5,0,54
10,6,33,14,22,0,12,29,162,38,17,32,6,23,12,0,160
1,18,7,1,8,8,10,0,83,12,10,7,7,8,14,5,73
0,22,11,0,3,2,4,15,52,13,4,9,1,14,12,0,56
1,5,11,1,16,3,7,5,61,20,8,8,1,13,7,0,53
5,7,5,6,7,5,12,6,36,9,4,8,4,11,3,0,50
2,14,8,1,10,7,5,0,163,11,8,4,1,23,24,5,134
4,3,5,1,1,2,3,7,28,10,3,5,1,5,6,0,24
13,17,11,8,12,24,11,0,114,13,11,22,3,11,21,19,110
3,15,12,2,2,14,11,1,85,5,7,0,1,18,13,0,101
18,12,21,20,45,10,31,27,255,76,38,37,14,22,26,0,226
0,5,6,2,1,7,8,1,66,2,1,5,0,10,9,0,69
0,7,6,0,15,3,11,0,34,19,4,1,0,8,1,10,33
1,18,11,2,19,8,7,0,70,8,4,3,1,7,8,3,102
7,7,9,0,14,7,9,0,36,11,2,0,1,12,15,2,46
2,9,8,2,4,7,7,2,73,12,7,5,3,12,13,0,62
11,22,16,1,6,9,13,3,161,22,17,18,6,11,16,0,152
8,9,24,2,4,2,12,1,63,12,12,12,7,23,16,0,43
6,9,20,5,16,3,9,21,154,23,11,21,4,23,10,0,151
14,5,2,0,12,1,6,0,31,13,10,6,0,6,9,1,26
8,13,5,0,16,9,9,6,30,20,3,5,4,9,8,0,47
16,8,12,5,9,12,16,33,86,20,8,18,4,21,33,0,93
4,7,16,2,8,2,7,0,118,5,12,5,7,10,9,3,113
6,15,17,2,13,7,11,5,73,10,8,8,6,21,10,0,86
13,28,18,6,16,9,13,12,235,28,29,19,7,24,31,0,212
9,52,25,1,25,11,25,6,322,28,25,19,15,49,25,0,315
4,7,8,0,1,2,14,0,24,5,3,8,0,7,8,1,28
6,12,21,3,14,1,7,7,62,22,10,10,1,20,10,0,60
3,19,25,2,3,14,9,0,111,9,8,6,3,19,20,3,118
3,20,15,1,6,8,11,0,122,7,6,16,3,19,18,0,117
37,8,43,10,42,5,37,30,247,37,24,72,9,34,26,0,257
68,5,29,8,13,12,42,15,183,44,23,76,18,22,27,0,165
34,21,51,29,133,20,51,124,488,165,70,89,32,43,65,0,487
4,5,6,2,6,3,4,2,33,7,1,9,4,8,4,0,32
2,12,9,2,9,7,5,4,84,9,13,8,1,6,15,0,82
