A2,A3,A7,A8,A9,A997,A998,A999,B1,B1114,B720,B1467,B7,B768,B1457,B1445,B997,B998,B999
15,38,42,15,65,19,13,57,37,6,14,3,2,24,11,25,9,0,133
1,15,31,7,12,11,0,33,14,1,1,5,3,14,1,3,8,5,55
2,12,33,7,18,6,0,33,9,4,3,1,1,9,4,6,18,7,49
12,22,58,6,22,11,3,56,22,0,4,9,5,17,6,3,9,0,115
11,42,69,17,30,16,8,68,42,2,10,4,4,16,15,9,8,0,151
15,9,163,16,37,14,10,137,7,16,8,3,13,51,6,9,13,0,275
11,8,27,7,20,17,0,43,0,7,7,16,1,13,8,12,2,2,65
9,12,111,12,33,9,4,143,8,15,17,1,6,19,25,6,18,0,218
40,32,331,29,99,22,9,309,11,18,33,11,16,80,40,26,33,0,603
59,52,292,42,150,42,0,375,34,39,45,24,8,79,36,44,40,10,653
17,37,64,16,63,13,19,95,63,6,18,9,8,26,7,13,23,0,151
56,88,294,58,203,52,0,418,44,22,63,19,25,93,101,46,27,29,700
20,14,92,16,59,18,16,79,15,5,17,9,5,39,11,35,13,0,165
1,5,26,2,3,0,0,15,2,3,3,1,0,7,2,1,0,0,33
2,12,34,5,19,2,0,41,11,1,9,3,0,12,6,2,1,3,67
5,1,76,6,10,0,2,59,4,0,1,0,3,18,1,1,31,0,100
20,13,90,17,62,8,0,93,44,12,23,3,2,20,4,9,10,11,165
10,17,25,2,14,1,0,20,40,0,4,2,0,5,2,0,2,3,31
11,15,72,7,11,2,6,77,11,10,3,1,1,26,2,2,10,0,135
13,11,83,14,24,14,6,130,9,11,15,3,15,33,13,6,11,0,179
31,23,111,26,98,15,26,145,28,22,23,11,21,35,12,22,24,0,277
9,7,92,9,47,10,19,80,4,16,19,4,23,16,9,4,11,0,167
19,23,97,19,45,24,19,108,32,2,13,4,11,33,9,13,15,0,222
8,16,63,4,35,7,0,79,21,11,8,3,2,24,3,5,7,3,125
43,52,131,48,131,32,22,178,51,29,25,14,33,24,30,27,25,0,379
9,17,50,10,27,3,0,63,14,3,8,1,3,21,6,6,0,7,110
39,34,137,20,73,19,0,192,16,14,27,11,5,56,21,33,11,1,319
9,7,46,7,25,9,4,92,12,10,4,2,3,9,10,6,11,0,132
66,93,202,55,162,41,116,265,107,23,55,15,31,67,34,59,34,0,575
2,0,11,1,11,0,3,19,0,1,2,0,3,2,5,5,4,0,25
2,4,28,3,10,2,0,14,4,3,8,0,1,3,2,2,6,5,29
4,5,7,0,9,3,0,6,3,2,1,0,1,0,2,1,1,1,22
10,16,58,17,39,10,0,76,9,12,7,3,4,15,9,9,5,3,150
9,16,52,6,27,1,3,25,12,0,14,3,5,18,0,6,9,0,72
17,8,104,24,48,12,14,188,11,12,15,3,16,33,12,24,18,0,271
51,59,285,43,150,54,40,394,40,23,58,20,20,106,36,48,44,0,681
20,30,79,18,58,20,1,120,13,8,16,21,5,19,12,22,3,0,227
23,21,128,35,97,18,8,168,21,17,33,9,18,36,9,32,20,0,303
13,5,127,15,35,13,0,178,14,9,10,4,8,23,5,5,15,1,292
54,61,316,50,136,24,8,373,49,27,51,12,10,122,14,64,36,0,637
17,28,125,23,68,22,0,121,11,12,14,9,9,55,11,24,27,8,224
19,15,121,12,54,18,0,172,9,13,16,4,12,23,9,17,15,33,260
39,44,163,24,103,39,26,158,56,15,35,13,6,54,17,51,27,0,322
20,51,192,29,87,16,0,190,33,7,33,6,16,64,9,28,32,17,340
28,31,115,29,79,17,0,156,19,14,25,10,11,30,12,38,22,4,270
19,29,131,21,75,19,6,148,24,14,37,7,17,37,7,30,30,0,245
27,33,191,38,73,23,0,737,22,15,31,5,18,51,13,24,43,6,894
14,25,97,20,55,11,0,199,17,7,19,8,7,32,4,29,14,23,261
26,29,83,22,86,18,0,167,22,11,28,12,13,25,13,31,22,2,252
47,69,211,59,147,33,0,272,51,23,39,15,30,60,24,61,35,26,474
22,19,136,25,45,13,0,154,13,12,18,1,6,36,10,18,19,8,273
27,17,141,24,37,9,0,135,19,11,28,4,10,40,8,12,17,2,239
17,32,165,13,79,18,0,129,35,10,21,1,24,53,17,26,19,7,240
20,22,183,38,86,16,0,185,30,17,37,4,16,55,11,27,28,1,324
37,46,199,45,131,24,0,260,39,20,53,14,15,58,16,39,37,35,416
26,35,199,30,117,19,0,163,18,8,33,13,14,61,12,35,28,69,298
38,58,135,24,107,24,0,198,39,9,35,12,15,60,10,37,20,11,336
36,56,177,51,120,32,0,297,50,13,48,9,17,59,15,43,36,28,451
57,72,153,59,150,27,0,320,42,18,55,20,28,42,16,48,18,15,536
12,24,143,26,73,22,0,321,30,10,30,5,15,33,11,12,12,23,440
27,57,196,31,116,28,0,202,32,12,33,7,20,59,10,43,37,58,346
28,35,130,25,55,9,0,287,21,5,25,1,9,47,11,21,21,18,390
15,36,133,28,99,23,4,140,25,18,37,3,14,35,20,39,29,0,258
19,22,145,24,50,10,12,80,22,15,22,3,18,45,7,24,27,0,179
22,38,158,31,77,24,0,159,20,16,26,9,10,52,20,44,27,20,265
26,47,122,13,63,14,0,148,21,8,19,6,11,42,6,30,32,26,232
28,40,132,28,102,22,0,181,30,14,39,9,9,41,13,35,26,11,306
10,12,50,13,52,4,0,71,13,2,19,1,11,18,11,18,7,0,112
55,48,161,65,145,55,47,228,39,26,62,14,21,56,28,96,58,0,404
16,23,114,17,47,24,1,116,17,7,28,5,5,38,11,23,33,0,191
41,56,313,54,168,42,0,431,54,34,55,19,26,90,26,52,58,32,659
46,52,210,52,189,42,0,338,38,27,72,18,11,62,32,38,39,33,559
35,46,272,32,103,20,0,353,20,15,35,8,10,102,25,24,38,36,548
27,35,136,37,79,20,52,421,37,21,28,19,9,46,27,16,23,0,581
5,18,54,16,40,13,0,57,22,2,10,5,6,21,11,13,9,11,93
4,18,67,11,25,4,0,31,8,4,11,1,8,25,13,8,6,7,69
26,72,182,31,69,22,0,130,51,15,22,4,11,67,46,17,30,0,269
21,27,109,12,31,15,25,118,4,13,11,6,3,27,36,11,9,0,238
48,83,339,47,170,23,0,341,70,22,45,10,34,97,28,44,36,0,665
22,36,155,26,68,25,5,191,14,15,20,5,11,50,10,34,7,0,362
42,104,310,62,169,35,13,412,72,18,62,12,24,72,22,69,39,0,757
41,77,263,47,130,27,0,288,27,34,39,19,34,77,12,57,30,12,532
27,116,242,45,141,34,0,330,51,20,57,26,24,77,16,56,37,6,565
73,142,289,59,235,51,51,398,68,22,72,37,35,100,39,123,24,0,778
36,72,233,35,144,31,0,327,53,22,37,12,8,50,16,61,35,64,520
41,80,269,52,152,33,0,344,35,25,46,18,33,78,16,47,31,52,590
28,72,308,42,143,31,0,370,41,18,35,12,36,100,19,59,20,50,604
48,87,257,58,164,50,13,642,46,31,65,20,25,63,13,67,30,0,959
6,16,58,13,28,2,0,62,20,6,3,2,3,28,3,5,6,8,101
9,25,51,11,55,12,15,76,16,4,16,9,6,16,11,19,3,0,154
5,6,14,3,11,3,0,20,12,0,7,0,0,8,1,3,2,0,29
19,22,100,11,40,7,0,86,9,5,9,4,9,35,15,5,25,5,164
5,10,99,7,35,7,0,42,17,6,13,3,5,30,8,6,12,0,105
50,47,186,49,179,39,30,183,25,8,48,23,8,44,146,31,19,0,411
4,3,17,5,20,1,3,8,1,4,4,0,4,10,8,2,4,0,24
11,13,82,24,67,16,25,86,25,4,16,6,4,21,44,19,22,0,163
26,47,107,34,84,22,3,103,42,6,15,10,7,51,63,25,10,0,197
10,30,60,10,27,10,0,43,22,7,13,4,4,19,9,11,4,5,92
25,48,155,36,78,24,4,251,61,7,25,4,14,34,13,16,13,0,434
99,122,413,103,253,74,8,578,66,36,94,25,31,153,72,89,60,0,1024
12,23,97,16,51,8,3,90,26,8,15,3,5,24,9,5,8,0,197
5,6,101,3,21,4,0,61,3,3,3,2,7,27,5,6,6,5,134
3,4,32,6,18,9,0,29,6,1,5,1,5,11,0,2,3,4,63
8,20,50,8,23,5,1,47,9,5,4,8,1,16,8,3,7,0,101
47,75,348,63,190,30,0,370,42,23,61,15,39,63,29,36,49,27,739
58,79,297,69,189,34,53,246,54,27,75,20,17,88,20,45,29,0,650
14,20,81,15,60,12,0,119,15,12,22,8,7,19,13,25,17,3,180
5,2,23,5,16,0,10,18,1,4,3,2,3,8,10,2,1,0,45
5,11,33,2,20,4,0,33,11,3,2,1,4,14,5,4,1,11,52
12,11,35,9,25,10,0,31,9,2,11,3,2,9,8,12,9,11,57
9,25,76,15,26,12,5,62,18,4,6,5,4,14,6,10,4,0,159
19,28,110,15,53,11,9,82,30,8,22,7,14,31,12,12,8,0,183
44,95,289,43,156,31,15,269,65,15,33,15,16,89,26,53,68,0,562
46,120,370,84,231,56,18,405,125,28,64,22,14,98,49,61,85,0,784
10,20,39,8,22,0,5,39,23,4,3,2,2,10,2,2,7,0,88
30,80,189,36,122,24,20,224,71,13,24,4,13,76,38,22,21,0,443
13,37,73,6,38,12,5,98,14,3,5,5,7,18,9,9,11,0,201
33,66,214,50,134,34,11,203,86,19,42,6,22,69,25,7,24,0,445
6,6,41,4,21,6,3,10,18,0,7,0,2,17,4,5,0,0,44
14,19,94,26,52,19,24,77,19,3,16,4,8,17,18,26,16,0,198
8,3,62,2,13,9,4,30,2,7,2,1,8,20,4,6,10,0,71
12,44,140,26,59,3,0,127,36,8,6,1,16,55,6,1,11,27,244
5,18,47,3,33,8,4,61,14,3,6,3,0,16,7,12,11,0,107
19,60,230,31,135,23,4,173,43,28,39,12,18,58,146,19,41,0,271
6,5,41,5,35,4,0,53,14,1,10,2,2,14,5,3,8,1,89
2,7,20,5,9,0,0,9,6,2,1,0,7,6,8,1,4,5,12
1,19,53,6,15,1,8,29,23,4,10,2,1,11,6,2,1,0,72
13,11,90,19,25,6,0,60,12,14,13,0,4,22,4,3,21,1,130
4,14,15,1,3,1,0,13,9,0,0,1,1,4,3,4,0,5,24
7,15,54,15,23,6,0,51,9,2,14,2,3,9,0,8,3,2,119
12,22,50,13,46,10,0,40,18,6,9,11,21,14,8,25,5,0,76
11,17,52,13,42,5,0,85,27,1,15,1,8,16,3,8,6,2,138
63,159,317,102,257,51,17,563,131,32,82,20,102,97,43,77,34,0,911
9,10,43,15,24,7,11,26,6,5,17,19,0,14,6,5,14,0,59
32,18,93,9,64,12,4,108,14,5,24,5,4,37,67,14,4,0,166
5,8,38,3,10,6,3,47,5,2,8,8,4,11,6,6,6,0,64
1,2,30,11,0,2,1,12,4,3,1,7,1,4,0,0,3,0,36
8,0,21,2,8,2,3,31,2,1,4,3,0,3,2,1,1,0,58
2,4,40,4,11,1,0,30,0,5,1,2,2,5,2,4,4,3,64
5,11,43,10,18,8,0,64,9,3,8,7,4,15,3,3,4,0,103
1,18,22,2,7,2,0,23,11,0,7,1,1,10,4,1,3,0,37
13,14,68,7,22,3,14,35,12,4,10,9,2,12,4,7,10,0,106
2,18,32,8,4,1,4,18,7,0,5,7,0,7,0,4,12,0,45
3,12,30,4,10,6,0,26,12,2,9,1,3,12,0,1,3,2,46
1,6,22,4,6,5,6,46,0,3,6,0,4,8,4,3,6,0,62
45,128,292,53,168,34,10,363,74,23,45,58,19,75,23,27,44,0,705
30,80,273,38,135,23,1,303,38,19,41,29,22,49,12,42,43,0,588
20,66,208,34,101,11,0,202,28,17,18,39,13,67,6,26,27,27,374
27,122,212,39,139,26,0,254,48,19,27,51,30,51,25,49,38,45,436
18,90,221,25,70,29,0,371,48,25,23,40,20,40,7,25,35,20,541
13,10,41,3,13,5,0,38,4,6,10,4,2,9,2,5,1,4,76
17,50,107,11,48,25,0,77,15,16,17,3,18,24,5,20,18,2,197
6,5,44,4,25,1,0,29,10,10,8,0,10,7,2,2,6,4,55
4,10,6,2,9,0,0,7,8,0,2,3,1,3,1,2,4,4,10
38,57,269,42,136,19,28,365,95,38,49,8,24,50,14,20,65,0,591
52,85,278,67,194,47,44,316,53,22,52,24,20,87,124,69,25,0,607
55,74,329,57,174,40,23,411,69,24,40,13,25,83,47,48,29,0,785
7,12,21,5,17,6,0,17,20,2,8,0,1,10,4,5,2,0,33
83,137,408,91,267,74,8,447,98,24,87,30,83,140,38,88,36,0,891
1,8,13,3,7,1,0,6,7,2,1,0,0,8,0,1,2,0,18
5,9,40,7,23,6,4,34,3,2,8,8,1,17,13,6,3,0,67
6,10,54,3,36,3,0,57,6,3,7,1,4,12,16,2,13,0,105
12,13,43,6,17,6,14,27,9,4,7,2,5,17,14,8,4,0,68
7,7,46,8,19,4,0,50,0,10,2,0,4,8,17,8,5,3,84
13,25,136,9,46,9,21,124,20,4,14,2,12,30,9,8,29,0,255
3,33,43,5,29,5,0,55,15,0,7,10,2,9,6,6,6,3,109
10,12,107,9,31,6,9,78,3,10,7,2,10,28,16,17,17,0,152
7,9,38,9,14,6,3,15,8,3,3,1,5,8,17,9,9,0,38
28,69,134,22,76,12,8,139,54,4,11,7,19,55,29,14,22,0,273
74,167,347,76,205,39,0,497,172,20,85,27,21,69,33,46,62,24,846
35,45,273,43,127,41,0,259,42,18,44,10,24,84,38,17,35,6,505
2,12,44,1,18,3,0,29,7,1,3,3,9,10,9,1,3,6,57
45,52,240,40,156,45,4,341,63,22,36,9,67,59,23,39,48,0,557
6,35,43,8,33,3,8,64,30,1,15,3,2,12,13,3,1,0,120
8,9,36,8,22,1,0,29,14,1,13,4,6,13,3,1,0,1,57
30,25,149,29,68,9,0,206,15,11,44,7,15,41,12,20,29,0,322
2,26,100,8,16,6,0,70,28,17,10,2,6,22,1,6,7,2,127
1,3,30,5,12,9,0,16,2,3,9,1,2,10,1,7,6,0,35
3,10,41,8,25,5,1,69,4,0,10,2,0,13,4,3,6,0,120
34,64,202,43,122,24,18,238,27,20,41,10,9,72,20,47,55,0,444
43,56,250,30,140,40,6,401,46,18,49,5,22,51,27,60,41,0,647
58,73,301,43,152,51,29,334,78,32,55,12,20,95,20,51,53,0,625
38,55,346,49,132,73,25,349,47,39,44,15,121,94,25,53,46,0,583
2,16,88,4,25,7,5,51,22,10,5,0,7,14,6,12,10,0,112
11,15,59,11,35,3,1,55,3,3,9,4,2,24,25,4,7,0,109
15,76,93,34,91,10,20,94,86,5,16,1,24,15,13,14,8,0,251
3,16,46,6,16,1,2,32,14,3,4,1,3,16,3,0,3,0,75
42,58,248,50,104,19,22,202,40,25,45,8,22,65,26,21,44,0,449
20,32,140,24,77,23,2,182,30,12,13,4,6,24,14,19,22,0,356
17,48,109,22,75,11,2,162,64,9,17,4,3,31,14,9,18,0,277
15,43,151,25,81,20,0,165,24,11,31,13,17,41,14,15,23,7,304
5,12,23,1,21,2,2,25,16,2,6,5,4,7,2,2,2,0,45
38,68,189,64,140,34,22,220,71,19,51,8,21,61,49,47,32,0,416
4,10,44,9,9,0,8,27,12,3,9,4,0,11,3,2,3,0,64
18,18,115,20,52,7,14,142,14,19,14,7,5,28,41,12,9,0,237
10,27,127,26,68,8,4,97,9,8,13,1,3,22,75,9,14,0,213
9,50,63,9,29,8,6,55,41,7,12,6,1,9,2,6,15,0,130
19,24,69,14,64,15,27,54,19,4,21,11,8,17,50,31,6,0,119
31,37,201,25,70,23,14,283,23,14,33,8,13,58,49,23,14,0,449
24,53,230,43,77,28,0,309,23,29,22,7,4,48,82,15,18,9,507
1,21,25,2,16,0,4,32,27,4,0,0,0,4,9,1,6,0,50
26,42,225,24,80,12,0,321,52,8,22,3,11,61,27,21,20,6,499
8,22,45,11,26,1,10,35,9,5,10,7,3,15,7,13,12,0,77
26,45,120,37,83,28,9,138,30,17,40,11,7,28,29,23,31,0,270
30,72,141,25,73,25,0,189,68,6,27,4,18,33,13,14,13,11,348
15,18,36,3,36,0,0,36,23,0,10,1,6,16,1,1,2,1,83
6,5,23,6,11,1,0,8,8,0,6,4,8,4,6,0,5,2,17
4,7,93,2,45,9,0,98,7,10,2,0,11,39,16,3,13,2,155
18,21,54,13,29,8,6,67,10,3,7,2,4,20,28,11,3,0,128
5,8,55,11,38,7,0,68,4,5,11,3,6,14,18,8,20,2,101
7,21,127,21,45,7,11,115,18,11,10,2,7,41,10,2,10,0,243
5,76,106,24,55,9,2,85,30,12,19,6,14,35,16,8,13,0,209
5,11,36,6,22,2,0,22,9,1,9,1,0,7,3,7,5,2,60
11,19,106,20,37,8,13,136,13,2,18,5,5,17,17,13,17,0,243
7,4,53,4,24,4,0,51,10,3,5,0,1,7,4,3,4,7,103
11,11,64,6,37,14,0,75,7,6,8,2,14,18,6,8,11,0,138
19,18,137,18,41,9,0,107,31,10,14,0,6,28,15,10,9,1,225
12,22,53,18,18,7,0,43,22,3,6,2,2,26,16,10,9,0,77
9,7,42,3,20,7,0,47,3,2,3,0,7,15,3,4,11,3,84
4,3,37,3,8,1,12,23,0,1,2,0,2,10,7,3,5,0,61
0,2,20,2,6,0,0,16,3,0,2,1,3,8,0,0,1,3,25
1,4,45,4,12,5,0,33,1,0,6,0,5,12,5,2,7,3,63
1,3,12,2,8,0,0,13,1,0,5,0,0,2,6,0,3,0,22
54,44,443,58,166,36,0,736,35,41,33,5,27,131,33,31,71,55,1075
48,74,373,74,165,42,0,480,69,28,47,11,16,88,33,32,77,29,826
15,23,99,9,38,17,0,60,27,14,8,4,0,31,4,10,30,6,127
7,12,65,8,40,8,0,59,18,0,9,2,3,16,4,5,8,4,130
20,20,141,18,73,17,10,126,19,7,19,2,19,40,14,13,6,0,286
7,38,102,14,41,11,4,78,20,8,19,1,7,23,9,12,9,0,187
8,22,50,12,24,2,0,64,19,1,11,2,0,15,1,1,8,2,122
19,62,126,22,77,15,0,141,56,5,20,9,4,33,14,6,25,0,290
5,17,56,2,32,8,1,48,12,1,9,1,4,27,7,8,11,0,89
1,13,16,5,7,2,1,7,8,1,7,3,1,9,4,3,2,0,14
11,18,103,32,52,10,2,107,6,8,17,9,12,36,17,7,11,0,212
21,43,227,49,60,11,0,212,26,7,16,11,17,56,22,19,26,3,420
11,23,58,8,38,8,13,40,14,1,20,4,6,23,11,7,8,0,105
4,4,25,1,12,4,0,12,1,3,2,1,5,13,3,6,2,2,24
29,23,58,27,58,12,0,517,8,13,21,8,2,15,11,9,6,47,584
34,53,117,29,143,43,9,193,13,17,73,47,5,29,19,67,16,0,335
43,59,147,46,164,34,0,235,46,19,60,46,8,39,31,64,20,29,366
36,47,151,43,136,40,0,246,35,12,39,31,17,56,34,59,29,40,347
35,58,143,26,146,32,0,227,29,13,39,36,9,56,41,59,22,27,336
35,71,167,42,189,33,0,255,39,27,54,50,13,53,45,58,31,15,407
57,80,166,42,158,41,0,266,40,19,61,18,19,54,43,56,17,60,423
43,59,153,39,136,22,0,226,36,12,46,27,12,52,31,68,20,0,374
27,64,147,41,144,36,0,284,37,18,59,19,15,55,42,53,23,12,410
26,45,205,42,85,36,0,212,20,17,42,18,14,47,29,44,32,13,375
48,74,159,46,185,58,0,209,62,20,55,37,13,70,58,61,37,28,338
29,25,72,31,81,15,7,538,14,13,42,18,4,21,19,21,9,0,637
41,66,157,49,139,38,5,242,36,15,50,39,16,64,27,60,17,0,413
36,24,114,35,69,18,0,529,16,17,30,15,10,30,15,24,14,39,615
15,44,90,25,87,31,25,404,28,10,49,39,7,26,22,46,14,0,480
31,52,113,30,117,38,31,274,35,35,52,31,10,31,28,36,20,0,408
50,81,145,29,203,46,0,250,46,22,61,32,18,51,51,80,17,31,395
60,69,189,47,146,47,0,249,41,23,80,33,22,81,46,78,29,13,361
39,66,247,34,150,38,0,322,31,22,44,23,19,85,103,33,32,7,497
52,97,224,52,211,44,0,296,72,19,54,32,17,85,76,64,26,31,500
63,110,182,61,257,66,0,313,48,15,59,40,11,83,99,120,25,33,519
59,73,143,36,121,36,0,434,43,16,48,34,5,61,27,46,26,98,498
62,113,165,52,155,56,0,376,84,14,66,36,14,57,45,67,28,2,566
30,27,100,30,94,24,0,328,23,13,40,25,9,24,19,33,15,42,390
36,43,86,20,84,23,0,405,25,10,30,12,7,20,16,23,10,13,531
46,87,168,50,177,50,2,299,54,16,80,34,9,65,44,57,32,0,488
62,77,124,48,174,55,7,235,41,16,62,43,12,56,44,85,33,0,390
52,71,102,51,187,54,0,221,38,13,70,53,4,40,43,83,26,65,303
44,64,104,41,153,42,0,222,27,14,49,41,11,49,36,61,15,53,314
40,87,190,33,219,51,0,298,44,21,52,36,20,78,92,74,26,56,419
36,65,176,34,138,23,0,225,44,14,30,30,11,39,77,33,19,24,376
54,94,211,38,158,53,0,230,50,17,57,20,16,63,87,53,28,25,422
44,76,130,41,187,56,15,175,37,16,47,24,11,40,94,86,24,0,345
36,51,168,41,157,33,0,176,39,11,43,14,9,73,77,33,12,24,327
36,50,111,27,140,25,0,167,27,14,40,20,3,30,74,40,13,8,287
48,51,172,35,173,48,15,312,37,21,59,15,14,54,71,38,20,0,525
43,86,181,63,170,39,12,272,55,29,47,18,11,69,78,41,36,0,482
25,51,136,30,113,32,0,308,34,15,49,13,9,55,34,31,25,1,429
20,29,145,32,103,27,0,282,25,22,32,12,11,43,38,30,26,6,393
42,77,231,39,187,32,10,285,34,24,50,18,13,84,93,34,38,0,515
31,48,180,39,101,33,0,287,26,30,44,12,13,52,60,36,25,0,421
51,76,106,51,158,44,2,140,31,12,44,28,15,58,82,78,20,0,260
37,74,220,44,164,39,0,289,42,15,36,27,14,76,95,22,26,70,444
55,87,177,52,237,97,24,234,73,14,71,59,8,75,78,128,24,0,433
74,100,165,50,255,74,0,178,105,22,65,45,9,81,83,102,28,30,326
57,109,199,51,185,71,0,276,73,25,83,43,34,72,48,108,22,5,435
37,78,238,49,169,59,0,207,54,24,50,33,47,66,13,63,44,8,435
44,80,189,62,183,60,0,278,49,23,70,26,48,72,35,66,24,30,453
48,65,223,51,164,38,0,291,32,24,52,16,37,83,29,49,32,12,514
29,52,211,34,106,41,0,367,21,20,28,21,20,68,18,39,28,20,557
45,75,195,48,176,46,0,227,65,31,64,44,42,78,34,69,15,32,338
45,84,187,52,206,46,0,284,43,18,78,39,19,66,44,82,27,2,486
49,88,128,47,176,46,0,178,81,17,58,47,24,51,29,80,36,16,273
29,72,150,39,144,49,0,165,29,32,45,22,17,60,25,56,34,21,307
48,79,225,50,160,50,0,219,56,23,46,36,33,117,42,79,29,6,364
41,76,166,44,129,35,0,193,71,10,32,13,22,91,27,39,17,21,341
59,99,176,57,213,73,0,246,65,18,65,32,31,85,50,89,37,24,427
45,100,171,67,227,53,0,267,67,24,61,51,24,79,32,100,23,52,417
39,54,191,51,166,46,0,337,34,30,74,18,33,65,24,47,23,27,509
70,133,316,68,291,76,28,364,102,35,97,63,54,117,49,118,43,0,668
54,91,251,63,185,56,1,296,67,26,82,44,35,93,27,70,25,0,528
81,149,230,86,252,72,45,425,94,23,115,56,36,100,51,129,39,0,697
64,115,263,64,230,66,0,377,87,33,105,54,47,102,48,107,40,8,548
70,131,276,66,218,55,0,425,77,30,72,35,37,126,34,85,58,4,683
46,57,252,55,114,50,0,365,36,29,42,22,44,92,26,57,30,8,553
63,62,261,48,186,55,15,449,24,35,57,23,39,107,26,58,42,0,728
72,85,234,62,220,47,0,402,73,30,96,28,28,73,40,73,47,0,634
46,77,214,43,154,41,0,355,40,20,57,20,14,67,24,42,37,43,566
36,76,223,64,154,45,0,299,55,20,69,24,27,65,35,41,41,13,507
50,113,300,50,209,64,0,415,50,34,62,35,56,95,33,58,50,31,697
58,110,182,44,139,51,0,286,55,22,64,25,38,71,40,46,24,38,447
53,66,312,57,132,54,0,385,47,43,54,29,54,96,30,40,44,9,613
62,78,195,63,204,58,3,347,62,27,57,36,40,52,23,67,22,0,624
57,83,246,76,147,37,0,393,54,37,75,32,36,61,25,55,33,5,626
68,118,221,69,206,54,0,447,88,39,70,41,29,72,40,71,37,9,687
55,71,204,40,149,52,0,393,32,26,108,14,28,67,32,49,24,3,581
40,72,213,40,143,46,0,393,40,14,61,16,23,68,19,41,30,3,632
29,57,217,37,148,23,0,300,39,23,48,19,32,47,11,33,24,34,501
81,93,219,66,216,59,20,383,45,26,113,74,16,63,48,85,57,0,610
68,92,175,66,216,67,0,449,40,20,98,50,24,50,38,85,30,51,647
96,111,190,77,264,66,0,372,63,20,119,72,25,78,51,72,43,11,622
40,45,227,37,120,40,0,400,31,13,33,20,21,85,10,32,32,18,614
44,60,224,47,162,52,0,440,40,26,68,27,16,74,31,67,39,7,634
85,99,204,51,228,64,0,420,51,35,108,62,18,69,21,97,31,77,582
79,87,230,46,270,71,0,326,56,25,88,66,18,109,45,107,32,32,531
61,101,197,60,263,73,0,271,56,34,100,65,16,78,39,118,40,25,455
56,89,241,79,265,62,0,387,52,24,87,56,34,76,28,83,43,75,621
58,95,187,60,260,83,0,328,64,32,83,61,13,82,45,130,24,38,499
77,92,213,57,283,92,0,364,60,14,104,58,16,91,64,135,44,38,554
58,73,204,54,186,55,0,343,33,22,78,23,17,81,24,55,37,50,553
54,65,201,47,192,33,0,323,34,35,62,36,30,88,21,46,27,26,510
36,89,216,55,215,47,0,390,56,27,89,56,21,93,37,78,45,13,533
36,93,258,60,188,43,0,224,42,26,64,41,26,76,23,73,49,30,452
40,107,227,66,219,51,0,318,50,21,76,43,24,87,30,61,60,38,538
50,87,241,67,213,53,0,429,47,28,103,41,16,66,33,92,44,11,659
59,77,225,48,165,41,0,391,47,38,76,20,49,71,24,33,28,39,581
39,79,300,47,130,46,0,326,44,33,47,26,59,94,28,35,46,10,545
53,92,191,58,217,45,0,317,57,29,67,34,38,76,31,60,28,18,535
69,68,222,52,167,38,0,368,32,24,63,37,31,49,26,42,21,20,639
65,74,209,63,173,56,0,343,52,37,95,28,29,69,29,59,31,37,517
52,97,257,58,176,48,0,348,66,47,74,23,30,71,23,51,40,39,572
62,91,294,57,188,64,0,439,51,35,73,35,40,73,38,79,43,22,706
42,94,209,45,171,52,0,300,38,29,68,25,33,63,28,55,26,25,523
61,84,261,58,237,51,0,544,64,34,75,22,20,79,29,64,32,210,667
49,91,248,34,212,39,0,333,45,34,60,37,40,65,25,58,36,20,586
37,44,113,26,96,22,0,169,23,9,28,29,12,44,18,29,16,17,282
33,42,152,33,107,16,0,282,22,15,36,25,19,60,8,16,32,23,409
28,48,133,33,110,26,0,189,16,20,49,30,14,43,21,37,22,8,307
31,44,185,37,138,37,0,312,39,20,47,38,21,44,12,20,23,33,487
30,47,172,42,154,37,0,223,26,20,48,49,21,68,14,39,28,0,392
44,63,154,32,164,46,0,170,49,11,40,48,24,57,30,60,29,11,314
48,115,190,47,173,45,0,337,64,31,79,45,21,65,31,62,36,5,516
46,80,225,67,178,39,0,348,39,31,64,25,25,78,31,45,29,33,583
93,161,158,78,302,79,22,301,86,24,114,71,35,73,55,125,34,0,577
44,63,163,79,153,55,0,392,45,19,54,37,24,46,29,47,21,17,610
39,67,125,45,104,44,0,307,41,17,60,21,18,47,19,52,11,9,436
30,69,195,48,132,44,0,290,45,30,56,22,33,67,16,34,34,31,440
36,94,171,57,175,55,0,229,46,12,48,35,27,53,24,61,41,77,393
42,40,205,32,126,19,0,311,26,23,47,27,15,69,16,31,18,9,494
38,63,190,24,127,40,0,229,34,15,46,33,19,53,25,46,22,25,393
26,51,174,30,101,31,0,255,30,24,29,18,24,48,12,35,23,26,399
40,68,207,47,162,45,0,223,35,20,63,63,29,74,38,60,32,5,373
65,94,204,44,236,54,141,377,49,33,90,81,25,92,37,102,31,0,675
66,91,239,49,176,45,0,345,51,22,60,40,49,96,21,56,31,26,559
51,77,192,42,162,48,0,184,40,23,49,37,23,77,28,57,31,5,386
59,91,246,57,167,59,0,380,59,34,53,52,33,75,18,77,46,30,582
15,41,142,34,82,26,0,187,13,15,22,17,16,52,8,36,21,17,310
31,52,117,31,112,22,0,208,36,17,43,19,15,37,12,32,21,19,322
60,110,176,52,187,54,0,278,40,19,73,66,17,67,24,65,36,7,503
43,61,103,48,132,20,33,200,44,18,64,63,11,31,25,65,7,0,312
53,70,100,48,209,52,0,205,44,11,76,58,15,49,26,67,16,40,335
47,47,155,33,121,24,0,299,26,13,47,26,15,50,32,50,23,8,436
39,65,95,46,135,32,6,236,52,10,56,52,10,28,21,54,18,0,353
21,40,81,31,107,35,14,254,22,6,38,36,12,34,17,39,14,0,365
35,96,91,48,139,50,0,211,41,9,67,54,9,42,36,61,14,9,328
36,115,67,50,166,38,0,158,41,7,55,45,7,32,12,60,20,77,274
40,49,102,39,139,42,12,217,23,13,72,63,15,38,24,47,17,0,328
38,93,124,47,188,40,0,190,39,21,64,57,23,51,47,61,21,22,314
45,75,115,47,149,35,0,209,49,18,58,46,10,49,27,65,21,27,305
29,104,85,30,127,36,5,99,37,15,34,38,12,37,22,87,20,0,213
27,88,90,29,161,40,0,119,68,14,27,46,4,47,23,65,17,70,173
51,98,136,36,182,35,0,144,57,25,46,47,15,60,24,66,17,24,301
49,65,103,21,163,45,0,176,25,15,34,32,14,45,32,74,15,14,322
40,83,88,27,172,59,2,192,42,18,53,65,13,48,20,92,18,0,294
47,75,112,48,190,39,0,418,38,12,61,58,17,39,30,93,12,16,553
45,34,62,21,121,26,0,209,28,4,40,37,4,25,11,32,15,12,310
35,80,122,38,149,42,0,241,43,10,38,26,20,55,22,43,20,39,391
45,77,136,56,160,50,0,284,61,9,53,40,23,46,21,66,28,32,429
32,33,101,25,101,18,0,286,21,13,29,20,10,40,8,25,16,62,352
24,43,98,32,115,24,0,211,34,7,41,20,6,27,15,22,20,68,287
106,75,334,68,210,108,302,12969,33,82,128,55,8,58,34,108,49,0,13617
16,20,98,14,42,16,0,460,14,14,17,10,6,28,5,22,16,16,518
42,40,112,39,99,22,31,487,20,16,50,24,11,49,21,39,24,0,618
37,53,95,37,96,24,20,342,25,5,52,16,5,26,8,18,11,0,538
25,22,66,19,58,11,0,449,13,11,39,20,4,6,12,11,1,30,503
22,41,95,24,88,21,0,404,23,16,49,26,1,26,10,30,12,8,494
22,18,34,13,38,7,0,534,9,2,15,12,1,13,3,11,5,0,595
40,78,108,31,194,43,0,207,47,17,69,71,8,26,27,60,10,27,339
60,76,194,49,194,40,3,253,67,33,76,48,14,82,52,71,25,0,401
42,52,132,33,140,28,0,251,30,17,51,25,6,48,13,52,17,64,355
27,35,60,29,72,20,10,333,21,13,46,42,3,18,18,32,10,0,383
16,20,44,15,30,14,0,429,4,9,26,8,0,10,8,8,6,42,447
33,43,70,34,83,27,0,196,24,4,42,25,7,30,13,31,8,23,279
34,37,64,32,114,36,36,210,17,2,69,33,2,22,16,66,10,0,326
29,54,67,29,134,40,7,233,29,13,70,52,2,30,17,59,23,0,298
30,36,86,41,127,35,0,247,23,8,49,19,10,35,11,46,16,40,345
33,59,71,38,78,21,0,212,33,16,20,18,5,11,7,32,11,78,281
33,31,118,36,84,23,0,253,24,16,44,17,6,30,11,28,22,23,357
49,63,122,35,120,31,20,269,34,10,53,28,20,40,18,51,20,0,435
23,51,121,24,121,25,0,227,31,10,37,22,6,45,20,30,18,44,329
47,45,112,26,106,23,0,266,14,17,37,24,11,33,18,33,10,38,390
39,68,170,32,127,33,0,244,22,16,54,25,10,49,21,28,19,105,364
56,58,61,43,100,30,0,232,28,10,48,27,1,28,16,44,9,43,326
45,58,124,53,168,49,26,261,45,14,75,64,12,65,29,54,16,0,410
24,46,121,36,113,20,0,218,21,13,55,32,12,35,11,29,13,11,346
39,73,110,40,164,26,0,182,32,12,69,52,12,43,31,54,20,2,307
33,61,67,29,95,23,0,167,33,9,48,15,3,29,14,36,12,16,260
33,58,54,40,89,25,839,9387,30,15,39,31,10,16,12,24,15,0,10333
31,66,153,33,124,29,0,254,38,4,43,23,13,59,12,30,10,86,372
45,26,158,33,68,32,1,365,17,24,39,19,7,49,12,28,25,0,508
32,49,125,35,147,39,0,228,48,20,58,38,3,34,25,52,20,12,345
28,39,97,39,124,39,39,283,26,16,62,42,18,27,15,38,21,0,423
23,49,131,61,109,22,0,241,27,23,45,32,8,54,13,36,14,27,357
38,58,128,22,121,35,0,238,27,15,54,16,17,41,27,46,23,6,368
20,48,88,16,98,22,0,153,21,7,21,27,8,36,11,31,22,3,258
15,39,72,25,91,23,57,171,22,9,42,48,5,24,18,45,17,0,263
44,46,91,31,133,41,5,220,33,6,63,54,8,40,20,64,10,0,313
26,62,96,32,139,53,0,121,47,10,39,36,12,42,24,70,16,45,188
34,96,66,32,170,38,13,102,64,3,41,85,9,40,36,58,20,0,195
24,74,87,33,170,36,2,98,68,13,50,43,11,45,15,65,11,0,203
21,45,96,30,116,25,14,162,28,14,30,48,11,25,24,46,10,0,273
15,49,61,39,116,23,0,213,18,10,41,34,11,25,17,45,21,14,280
39,76,92,31,178,26,0,148,49,9,48,54,5,42,31,51,17,37,247
26,67,100,37,132,50,0,177,32,8,30,34,7,29,16,38,23,87,285
46,37,83,23,146,43,5,161,31,19,58,36,9,33,14,54,16,0,274
30,72,87,26,125,35,3,216,47,8,62,39,8,24,10,58,12,0,326
53,62,180,47,182,42,0,336,42,23,57,46,15,63,23,50,35,23,525
52,98,219,70,193,60,0,343,52,21,76,59,31,80,27,64,35,29,561
38,74,210,53,177,39,0,294,34,23,58,36,20,80,12,44,22,48,508
54,79,180,54,194,44,48,320,48,20,80,49,16,64,28,80,35,0,553
51,34,266,43,98,31,0,270,22,26,40,29,15,91,23,29,18,11,489
71,107,245,58,242,67,0,257,47,28,88,61,27,113,25,112,43,40,463
39,70,180,40,115,27,0,302,19,25,50,30,13,65,11,40,29,30,461
69,107,156,69,205,62,15,266,58,18,72,80,12,71,41,82,35,0,480
48,77,199,55,175,54,0,288,44,26,66,41,17,72,29,58,37,32,474
37,45,209,51,114,35,0,316,27,30,45,9,29,78,10,39,31,20,489
37,28,220,51,178,26,124,238,50,38,60,22,32,98,22,45,26,0,509
52,117,230,64,221,61,0,348,70,23,76,29,29,78,30,59,28,129,542
61,70,229,45,168,40,0,412,44,33,58,23,28,82,22,52,22,38,623
90,162,236,103,277,80,0,422,91,28,91,31,27,69,50,75,36,247,625
53,67,116,52,141,39,148,219,70,29,65,29,15,45,20,80,22,0,460
43,54,220,38,114,33,13,280,49,23,40,12,19,67,19,35,24,0,507
43,66,138,32,162,53,19,130,45,19,46,37,12,54,35,95,40,0,260
32,69,161,29,145,32,0,267,28,18,52,34,12,49,15,47,27,38,415
41,59,155,36,109,21,23,365,31,9,46,24,22,51,28,45,31,0,522
31,62,165,33,126,33,8,189,37,11,41,24,10,76,22,57,23,0,346
24,57,130,25,124,28,0,175,26,10,47,21,13,52,16,45,20,27,286
42,73,179,41,143,34,0,216,50,20,56,24,18,81,28,54,21,13,363
41,81,173,42,157,48,0,143,45,12,59,28,22,68,23,52,28,54,294
31,54,145,30,147,25,0,211,46,8,46,35,37,62,27,39,19,12,312
34,70,143,35,171,36,0,140,44,13,51,35,11,70,24,79,25,11,266
32,54,139,37,143,28,4,230,34,20,40,23,27,39,23,56,30,0,375
28,115,142,34,160,35,0,191,59,9,67,14,16,59,30,50,22,64,315
25,75,108,31,144,32,29,146,40,7,52,26,14,41,29,62,26,0,293
43,84,140,41,164,48,58,188,53,20,90,36,15,64,29,94,26,0,339
30,71,101,46,124,48,18,126,60,11,53,23,9,31,21,84,11,0,261
40,56,126,34,124,31,0,148,29,12,52,32,20,51,23,40,17,25,258
31,76,90,28,140,33,3,138,48,20,40,37,14,54,21,74,18,0,213
39,52,118,44,152,36,0,128,38,16,44,23,18,43,24,64,29,7,263
44,102,125,31,175,47,0,146,68,9,47,37,17,62,31,75,17,41,266
44,80,122,31,163,44,0,155,70,12,47,38,21,57,24,51,28,22,269
57,100,84,45,186,39,0,190,58,8,71,48,16,44,32,79,19,26,300
45,89,122,54,204,60,0,236,65,20,81,33,13,46,20,75,26,22,409
36,43,142,38,100,29,0,167,19,19,50,28,21,48,14,36,34,9,277
16,50,117,21,121,18,10,200,15,10,44,27,10,57,11,51,11,0,317
49,75,138,37,144,39,15,207,60,8,64,40,20,52,17,58,23,0,362
29,53,123,30,112,24,0,203,43,20,46,20,16,33,11,43,25,20,297
21,51,145,30,134,24,11,161,36,11,45,21,17,34,25,44,28,0,316
35,50,156,33,121,28,16,306,46,19,52,30,7,55,32,34,17,0,453
48,88,233,54,177,50,0,412,63,34,67,26,20,64,24,67,38,54,605
35,51,179,49,112,44,3,284,43,26,48,25,9,72,23,37,21,0,453
29,63,183,49,145,27,0,312,54,26,57,32,17,52,20,31,18,22,479
51,47,181,37,133,40,0,312,26,30,59,22,13,56,24,42,32,8,489
34,73,186,51,178,49,1,296,77,23,58,54,12,94,13,63,28,0,446
54,112,171,54,181,40,45,274,69,33,71,45,20,77,29,84,28,0,475
34,80,175,42,167,41,34,253,82,23,43,41,14,75,25,50,19,0,454
49,56,173,56,215,41,0,230,67,24,62,60,11,60,25,69,19,42,381
39,63,134,45,126,30,0,357,53,11,36,47,7,45,11,52,19,52,461
20,69,152,36,171,39,0,346,47,20,49,30,9,55,14,55,20,22,512
40,83,177,43,144,54,0,244,45,30,44,42,17,65,12,45,21,18,446
35,85,157,49,157,42,12,309,78,31,69,55,10,61,19,43,18,0,462
33,75,137,45,163,48,12,275,79,17,66,50,15,48,28,45,25,0,415
50,79,153,42,224,52,0,280,50,21,54,48,19,56,30,64,27,60,451
54,92,143,52,141,42,0,396,62,13,71,47,9,56,20,49,33,19,541
23,69,211,31,140,32,0,294,26,18,47,25,25,83,21,26,19,70,440
36,84,151,48,169,41,0,287,46,17,52,42,11,52,26,66,29,51,424
31,38,139,31,68,27,0,516,15,15,30,17,11,43,8,26,19,12,654
23,27,101,18,64,35,6,142,20,16,28,12,7,37,12,46,15,0,223
32,54,197,56,142,54,0,272,47,24,45,35,23,67,31,54,36,29,416
54,60,173,47,167,40,0,245,51,19,48,50,21,62,35,49,34,74,343
60,71,180,52,192,52,0,383,67,28,77,25,12,63,30,79,41,3,565
34,56,153,46,175,23,0,291,58,11,41,36,32,50,30,57,19,10,434
64,53,219,53,111,41,20,403,37,32,45,36,29,56,19,32,34,0,644
46,43,228,33,134,47,0,333,23,29,51,26,42,60,16,44,33,27,513
36,56,204,35,122,22,0,287,33,19,44,19,16,88,14,32,13,24,460
61,62,187,41,151,35,0,212,38,14,53,35,17,72,25,40,22,46,387
41,70,258,46,145,36,0,311,49,27,46,27,22,91,21,48,29,39,508
52,85,174,48,190,47,0,254,76,32,70,33,11,66,25,45,17,36,439
34,88,169,65,166,41,0,275,58,15,64,19,21,59,21,53,25,31,472
43,69,156,47,136,45,18,301,49,28,62,29,11,60,26,41,21,0,488
49,66,168,54,160,37,0,273,56,18,47,28,25,49,23,46,31,18,466
52,47,258,51,149,33,0,335,49,20,50,23,20,93,10,58,43,23,536
56,87,267,43,168,55,0,283,50,38,54,28,27,113,16,59,36,12,526
45,76,209,33,142,42,0,366,53,19,47,24,19,100,26,54,31,13,527
54,68,209,43,153,29,0,223,44,13,56,27,21,92,24,37,17,34,414
64,106,205,54,235,58,0,263,73,16,61,52,17,96,45,92,35,9,489
44,92,241,47,186,35,0,287,60,23,61,43,23,107,31,49,23,14,498
64,123,266,49,257,53,5,235,65,28,57,53,27,126,46,103,53,0,494
93,116,155,53,274,79,0,249,61,15,100,64,15,83,46,138,42,18,437
60,81,222,68,200,67,0,267,63,23,65,47,17,96,34,95,31,4,490
45,99,219,47,244,52,0,250,54,14,62,70,17,102,28,87,32,21,469
12,21,92,22,42,8,7,90,10,8,16,11,6,33,5,7,12,0,186
76,84,181,84,196,49,0,314,63,19,60,34,21,69,79,58,22,39,520
74,85,234,55,220,43,0,319,82,27,65,22,17,83,107,65,26,26,510
58,60,224,61,191,48,0,221,46,39,66,25,11,87,47,60,38,0,444
49,108,290,81,178,49,0,349,79,23,66,33,15,96,53,61,51,5,622
42,61,174,41,168,41,11,260,60,23,52,18,19,84,34,54,22,0,432
61,61,206,49,190,46,0,283,35,32,53,30,25,72,34,61,25,25,504
56,77,208,54,192,56,0,275,59,30,78,16,14,89,23,68,20,13,508
46,104,200,56,180,38,0,274,74,19,52,80,33,58,8,59,30,10,475
53,110,192,70,204,61,25,335,98,19,88,57,30,84,24,71,27,0,552
61,75,112,43,171,44,16,147,54,18,77,26,15,54,25,97,27,0,276
42,83,152,40,155,48,27,148,58,28,53,35,12,77,41,99,24,0,268
23,48,101,22,98,37,12,117,24,29,44,17,21,34,17,49,26,0,197
46,59,243,42,133,26,0,350,31,39,41,25,12,79,20,32,32,56,532
40,69,231,39,137,42,0,334,31,15,52,20,15,83,19,38,27,39,553
55,60,222,45,150,39,0,305,36,26,60,22,26,97,10,42,46,9,502
32,47,214,57,113,51,0,359,40,17,42,16,17,70,9,60,32,1,569
39,59,217,40,119,32,0,334,36,21,36,15,20,80,18,45,35,0,534
36,73,158,35,156,42,0,235,59,23,40,33,15,55,18,48,25,1,418
39,52,217,34,112,26,0,307,24,19,43,16,15,76,16,25,28,19,506
52,66,197,53,136,46,29,248,42,23,60,24,14,79,25,78,20,0,462
34,60,194,42,145,38,0,269,30,22,39,19,14,57,18,32,31,101,419
37,53,253,48,135,59,0,340,23,38,61,15,16,81,20,50,34,34,553
45,57,219,40,107,24,0,444,39,25,44,17,18,79,27,41,21,27,598
62,53,290,53,138,38,0,309,30,17,55,26,28,93,18,47,35,15,579
38,28,157,30,87,30,0,274,15,20,42,14,27,38,8,24,17,10,429
36,47,201,35,103,26,0,242,24,24,51,21,29,43,7,26,27,26,412
19,27,133,32,67,22,0,178,14,14,41,7,22,28,7,13,19,7,306
25,17,52,18,38,21,0,388,8,5,20,9,9,9,8,20,15,21,435
28,35,90,35,71,15,0,171,27,10,36,7,12,27,15,27,14,38,232
50,77,225,50,203,47,0,332,39,28,79,32,25,65,23,63,48,58,524
59,53,177,29,125,41,0,282,45,18,65,14,20,76,25,52,20,27,404
67,63,178,39,146,32,0,251,37,18,52,30,8,79,37,80,23,0,412
74,87,223,47,152,43,11,306,37,30,77,24,20,113,43,61,51,0,487
29,42,121,36,106,26,0,218,39,16,40,25,16,51,18,41,23,10,299
49,59,201,33,140,38,0,263,31,35,28,31,32,80,21,45,28,4,448
27,27,167,36,107,26,0,231,36,11,34,24,16,68,13,28,8,7,376
37,95,149,61,156,36,0,261,91,8,33,24,34,50,29,53,18,26,429
63,134,211,56,219,72,0,272,98,27,71,43,42,111,41,86,27,17,464
34,79,204,37,124,40,15,313,57,27,54,39,50,67,20,28,22,0,482
73,87,203,52,179,35,0,258,51,13,55,34,35,88,24,42,37,35,473
52,66,243,45,173,38,0,374,39,27,59,37,46,80,18,53,46,25,561
74,93,273,71,177,59,0,479,49,34,62,31,37,104,30,69,38,22,750
54,92,269,52,178,45,0,354,62,22,55,35,42,108,27,58,39,6,590
67,96,302,73,268,67,0,342,75,27,68,73,63,108,38,88,54,27,594
52,86,169,46,180,62,17,207,38,18,70,144,11,69,22,69,28,0,350
55,106,218,74,181,69,0,386,51,39,81,49,22,72,54,115,42,0,564
58,89,254,51,192,55,0,340,44,23,76,42,12,93,39,80,36,14,580
51,81,217,59,166,55,0,370,46,29,66,38,21,89,22,96,29,11,552
72,108,236,57,218,56,47,380,68,28,82,40,15,91,47,89,41,0,673
103,132,107,84,313,65,30,259,62,15,95,45,15,54,211,110,25,0,461
58,98,231,57,234,69,0,279,48,21,60,28,27,98,88,85,43,11,517
62,105,159,52,247,50,24,276,59,19,69,36,14,64,129,105,21,0,459
35,70,222,57,224,35,0,286,33,27,59,19,18,90,66,39,18,19,541
65,81,226,43,215,54,62,262,53,26,68,47,21,113,32,95,34,0,519
57,65,142,45,176,48,0,206,43,25,75,45,14,66,22,87,26,3,333
49,91,177,35,212,61,0,222,56,18,43,60,18,71,48,84,38,12,399
42,85,158,42,171,33,3,187,51,13,59,33,19,80,21,76,33,0,336
52,93,165,59,213,59,0,209,81,20,73,45,12,65,31,115,33,6,369
69,109,184,57,207,47,48,273,80,22,69,22,9,45,155,80,21,0,491
23,34,155,21,91,25,39,199,26,13,41,15,16,54,26,24,21,0,351
88,202,265,71,328,84,6,308,114,27,97,45,15,105,216,104,24,0,605
79,115,250,98,316,90,31,399,70,28,77,44,17,94,249,92,38,0,669
7,3,50,6,19,2,0,58,4,4,8,2,2,18,5,2,10,0,90
35,197,200,57,175,52,0,197,263,21,44,15,19,56,27,40,46,9,373
47,52,208,51,126,28,5,285,173,9,20,5,4,54,9,24,22,0,482
58,59,202,51,175,44,0,365,193,31,48,6,5,58,17,43,22,20,511
8,13,37,11,36,7,9,36,17,7,18,6,3,6,12,8,4,0,76
23,47,173,28,68,24,0,176,14,14,11,21,12,68,17,23,33,3,323
11,19,86,15,45,7,0,80,1,1,18,4,3,40,27,15,7,1,146
58,83,385,67,283,63,12,462,146,26,59,12,12,101,88,43,46,0,880
67,80,165,66,178,61,6,171,50,20,59,27,13,66,80,93,32,0,354
7,23,147,17,25,8,2,127,6,6,10,2,7,32,14,2,24,0,253
59,67,212,24,139,22,0,326,74,26,42,11,23,47,46,35,21,3,521
57,51,282,40,177,40,0,360,34,36,44,20,9,75,34,40,66,11,638
52,43,252,43,133,38,0,390,48,29,47,11,3,84,27,24,39,11,628
23,41,125,29,88,21,16,163,50,14,36,9,11,32,17,26,21,0,290
96,99,311,73,250,82,113,403,67,32,91,62,28,78,72,112,34,0,851
6,6,58,10,33,5,0,61,2,7,5,2,3,19,10,4,9,0,118
8,29,66,11,32,8,11,71,10,5,10,2,7,24,10,8,15,0,145
76,35,205,51,133,26,46,338,42,44,54,27,23,62,27,45,28,0,558
36,56,126,20,130,39,15,159,89,12,38,10,7,31,31,39,19,0,305
22,39,157,26,86,38,19,149,19,15,25,13,2,49,50,34,16,0,313
65,83,342,59,207,58,48,377,51,32,82,71,29,136,41,43,53,0,701
71,103,368,90,218,56,0,612,66,35,64,69,18,158,34,68,48,30,928
23,17,52,26,47,17,15,76,10,8,15,6,10,12,53,11,14,0,134
45,63,198,38,135,30,37,213,43,12,37,13,4,48,95,28,45,0,434
14,20,75,7,48,13,5,65,11,2,13,11,6,25,10,15,22,0,132
14,13,55,11,27,6,14,81,4,8,7,0,2,18,19,7,17,0,139
17,10,91,10,41,18,0,119,8,7,12,6,4,30,19,8,22,6,184
21,24,122,36,78,16,0,188,30,9,25,9,7,39,22,17,17,0,310
27,29,224,30,82,22,0,220,18,22,22,12,13,51,42,9,33,1,411
29,16,220,32,98,21,0,254,13,28,34,5,19,78,25,14,24,27,403
51,37,262,45,129,24,35,323,30,16,42,18,23,63,46,35,33,0,600
12,19,149,10,68,4,0,175,8,21,20,5,11,28,31,9,25,3,276
37,24,193,23,81,19,0,226,19,20,18,18,8,39,45,11,21,13,391
32,31,197,31,112,29,0,228,24,8,24,8,14,51,64,33,37,21,376
42,49,210,34,127,16,0,284,37,20,33,12,12,67,38,19,37,18,469
47,50,214,42,132,39,32,621,37,14,39,17,10,51,63,30,48,0,868
37,56,194,31,158,36,94,304,40,25,63,12,15,51,77,47,33,0,547
6,18,78,22,43,15,7,76,8,2,8,3,11,29,12,12,21,0,159
48,70,127,30,119,39,28,117,26,13,77,53,10,52,30,45,26,0,246
53,168,133,56,104,32,5,204,179,16,26,18,13,47,32,26,20,0,378
58,98,129,34,124,50,61,187,74,20,59,25,6,42,66,61,21,0,367
15,27,186,24,68,19,0,153,23,14,16,4,9,50,16,13,37,7,303
65,105,152,51,168,55,24,235,131,14,54,38,7,60,40,58,27,0,426
20,82,108,34,85,30,6,155,118,10,15,3,4,28,67,10,25,0,240
17,11,132,9,45,8,1,152,5,10,34,9,9,37,13,15,27,0,216
11,2,70,13,49,4,24,83,7,3,8,3,8,16,7,16,16,0,172
63,95,322,61,208,58,0,408,46,22,41,17,9,77,220,40,31,3,709
129,161,231,133,393,132,7,456,84,27,95,177,16,76,227,139,37,0,764
25,43,92,14,75,33,29,70,17,3,24,13,7,29,80,35,19,0,154
54,75,288,62,219,46,2,334,45,11,48,16,17,92,219,53,26,0,553
49,94,201,47,154,37,0,282,43,20,31,9,11,68,193,19,35,14,421
50,74,237,53,138,41,0,581,31,19,35,17,8,42,164,32,19,37,770
57,67,268,60,140,57,5,414,19,17,23,12,10,62,190,33,27,0,675
42,66,143,46,101,39,1,154,49,5,45,5,5,61,28,23,35,0,336
12,9,53,15,23,11,0,59,15,5,7,5,0,11,6,9,5,10,109
81,169,280,70,339,110,64,382,129,23,113,51,36,105,146,145,35,0,712
6,22,61,15,48,8,1,47,6,4,22,1,2,31,7,16,5,0,114
6,5,35,1,8,6,2,42,10,2,3,2,1,7,2,2,3,0,73
24,18,105,17,79,30,13,129,17,9,18,12,7,31,54,22,17,0,228
21,37,144,27,79,17,8,173,51,7,39,3,7,28,10,8,20,0,333
33,20,138,17,75,16,45,180,13,15,25,5,8,39,20,18,27,0,354
49,72,209,34,132,31,13,245,44,15,37,42,9,49,98,40,23,0,428
14,21,140,20,54,9,0,139,16,8,18,7,19,39,19,15,25,0,231
35,22,204,30,65,26,19,252,24,16,36,9,18,66,17,30,37,0,400
20,35,111,13,79,13,0,125,38,5,14,6,6,36,18,5,18,23,227
89,96,342,86,244,69,0,542,109,34,53,29,19,92,23,65,50,24,970
117,162,364,107,427,130,13,584,125,39,139,65,34,145,53,192,41,0,1071
104,110,443,93,317,74,10,624,71,45,109,55,26,178,46,132,61,0,1052
39,42,140,29,99,22,0,161,113,15,25,17,9,36,16,17,38,5,241
40,64,209,51,124,61,0,286,112,25,31,12,24,77,13,37,58,27,419
45,56,188,44,124,25,18,357,137,13,32,5,26,49,17,27,49,0,502
46,79,259,63,215,59,42,287,53,25,88,50,17,94,69,90,35,0,529
70,103,207,60,226,67,179,272,74,32,88,30,26,80,70,118,36,0,630
32,40,195,54,190,36,0,254,39,16,39,16,23,66,44,32,34,32,460
46,98,158,29,135,33,73,237,74,17,61,21,22,66,73,47,22,0,406
48,104,174,44,208,44,2,313,187,17,47,16,17,61,27,34,19,0,512
41,58,145,40,116,20,34,156,25,14,51,11,9,62,27,38,20,0,353
10,21,8,5,16,7,0,17,11,1,4,5,1,7,5,2,0,5,43
8,19,55,23,40,7,13,84,11,6,17,4,6,12,6,15,9,0,163
31,43,190,51,99,29,51,265,56,27,35,11,11,51,28,29,30,0,481
13,16,71,23,56,6,1,80,53,6,11,0,1,24,10,5,5,0,151
25,12,233,19,72,20,17,242,19,15,40,12,11,40,22,17,33,0,431
27,26,144,48,117,21,8,177,32,5,22,15,16,52,33,48,17,0,328
5,3,60,9,15,7,0,75,2,7,5,0,4,21,7,9,14,0,105
73,125,210,58,228,43,72,354,92,24,57,27,21,89,128,63,27,0,635
29,47,178,43,111,36,12,195,29,23,36,25,12,57,24,33,29,0,383
52,46,253,46,132,43,0,313,49,24,41,15,15,68,18,25,17,16,597
55,92,252,49,225,44,10,324,95,19,67,21,25,118,36,52,35,0,583
54,88,251,48,194,43,45,353,104,37,51,22,25,89,40,63,41,0,604
20,23,220,18,80,23,0,235,19,12,20,9,11,54,18,28,40,24,384
43,39,365,40,140,26,0,421,27,41,47,8,16,83,31,30,57,33,701
38,33,276,46,104,39,64,577,46,27,46,11,9,60,19,23,74,0,862
32,27,347,58,96,35,0,447,19,40,21,9,17,77,15,39,64,22,719
67,165,264,76,294,80,40,365,93,34,96,115,26,156,45,101,53,0,632
32,39,137,40,112,28,18,165,21,13,34,16,11,48,20,38,17,0,353
77,114,237,82,235,71,11,300,196,43,80,28,13,67,40,92,42,0,526
16,24,70,14,61,11,0,62,27,5,18,8,14,32,12,17,11,0,114
98,100,225,54,200,68,62,331,48,45,78,41,14,68,40,102,42,0,660
109,215,393,86,295,63,45,568,329,49,68,20,27,127,63,78,56,0,957
41,122,157,62,99,30,0,230,142,21,24,15,10,30,19,38,23,22,397
25,32,124,22,67,10,26,203,18,4,20,11,14,41,7,16,25,0,353
44,45,229,42,116,31,12,255,24,30,31,19,10,87,21,41,35,0,476
18,49,162,24,64,13,3,183,53,17,21,10,22,47,14,13,21,0,298
4,2,18,2,7,0,6,19,2,0,7,0,0,2,1,2,1,0,43
9,24,119,12,45,13,7,122,2,9,17,12,6,21,3,15,12,0,254
34,38,203,50,126,15,17,240,32,27,39,17,12,86,17,102,11,0,380
28,35,176,28,92,24,14,217,15,24,50,21,15,55,7,24,38,0,365
101,113,389,106,320,102,0,618,77,34,93,33,38,116,34,65,47,340,872
58,71,251,82,192,34,17,437,56,36,67,35,26,75,30,55,22,0,740
53,36,189,55,155,44,27,206,38,15,49,21,30,71,32,62,34,0,413
34,61,218,50,140,27,81,355,46,29,65,16,14,64,60,33,34,0,605
66,80,273,61,145,36,22,537,45,30,41,20,5,55,63,55,32,0,874
63,71,382,68,225,56,0,381,44,33,65,31,21,103,75,48,61,37,728
93,113,372,85,244,76,0,485,60,33,69,24,14,108,101,76,46,22,915
53,52,180,50,185,57,51,206,42,17,67,75,14,70,59,56,37,0,397
20,31,95,26,53,13,5,72,33,7,23,3,9,23,8,8,19,0,182
37,62,128,38,121,31,0,206,25,9,50,21,20,49,47,35,18,4,345
81,177,424,65,277,53,52,484,125,31,123,47,29,155,99,90,84,0,830
34,34,150,27,80,23,20,130,33,17,38,15,5,33,26,40,17,0,274
46,62,171,37,114,27,21,191,53,22,43,11,13,78,28,31,31,0,359
39,196,165,40,143,41,0,214,312,17,26,2,21,46,12,22,27,7,346
32,25,103,19,69,29,16,167,22,15,18,23,1,41,14,30,16,0,280
111,161,383,85,303,72,0,623,136,39,94,54,42,98,74,105,54,7,1035
24,27,66,15,40,9,0,116,34,6,22,3,4,19,5,8,13,1,182
52,164,253,65,248,53,6,380,118,28,98,36,16,125,37,77,29,0,657
59,244,213,65,228,49,3,256,228,23,75,25,14,88,44,55,33,0,532
7,13,153,19,36,11,0,116,10,14,21,3,17,31,27,7,8,3,214
94,120,241,89,233,67,58,370,95,22,80,35,87,90,36,91,37,0,699
1,14,65,15,45,7,27,84,4,8,14,6,6,20,29,14,8,0,149
20,26,51,15,71,15,0,83,39,9,25,2,4,22,22,18,4,1,135
47,150,257,44,211,46,0,289,106,35,62,23,21,89,61,63,46,13,525
52,130,207,49,231,47,15,243,128,17,59,22,23,76,62,70,44,0,473
62,122,207,57,234,49,2,331,111,24,62,24,22,83,69,67,41,0,561
68,102,237,69,205,48,92,338,87,18,84,22,24,112,91,69,47,0,605
72,148,315,56,226,92,10,481,165,38,98,28,27,110,77,59,55,0,743
30,44,120,28,69,14,0,118,20,11,32,1,9,29,33,28,24,7,229
81,137,272,57,284,48,24,362,189,24,65,38,29,89,25,87,30,0,689
39,45,237,54,134,57,0,320,45,26,58,23,12,86,42,50,31,6,507
58,79,239,37,150,43,32,358,214,13,14,9,8,72,15,31,19,0,601
64,109,232,55,227,46,24,316,59,26,77,29,25,91,113,57,34,0,562
1,8,45,1,7,0,7,25,4,3,2,1,3,25,7,2,7,0,40
13,13,12,7,13,2,0,18,12,4,11,2,0,4,11,5,0,0,29
24,83,226,36,127,29,0,383,41,18,32,14,11,62,34,29,28,34,605
76,107,287,67,231,36,0,401,70,28,65,29,24,91,104,58,48,21,667
69,89,270,62,176,41,13,647,60,19,81,25,14,93,57,57,31,0,930
53,104,236,46,218,48,0,297,72,13,71,22,13,77,103,57,26,3,545
38,38,156,23,115,12,0,236,31,21,22,20,13,46,47,21,19,13,365
37,66,191,37,149,33,0,324,35,24,41,25,7,55,54,24,13,4,555
19,33,63,22,63,11,0,89,43,11,20,7,1,28,12,9,9,3,157
26,26,102,19,56,13,0,134,13,18,25,8,5,47,12,12,10,0,226
82,165,274,104,259,114,43,387,105,31,89,80,19,113,31,131,44,0,785
38,169,231,72,238,50,13,227,319,26,53,4,18,69,31,45,37,0,436
80,159,342,79,228,58,0,442,126,26,73,19,30,108,33,57,33,15,868
106,172,269,65,248,53,22,319,180,40,93,15,29,69,37,69,50,0,672
14,18,77,16,33,4,6,63,14,5,28,4,3,38,9,1,7,0,122
28,38,172,49,89,29,0,194,38,10,31,24,34,57,16,21,25,2,341
4,10,36,18,8,8,0,22,3,4,7,1,8,12,9,5,7,0,50
31,102,99,35,114,33,6,149,299,10,8,5,8,21,18,31,11,0,158
68,132,272,69,211,48,26,400,102,21,73,15,13,87,95,51,32,0,737
88,98,297,68,254,50,27,440,75,29,64,23,27,104,113,70,31,0,786
48,65,194,49,108,23,0,255,16,14,56,18,6,57,19,52,31,6,467
51,101,242,56,239,44,14,287,188,28,51,24,22,78,59,52,27,0,505
4,12,41,5,26,11,0,47,4,5,9,1,3,8,16,6,4,5,85
82,65,209,59,186,41,21,281,53,24,54,86,21,84,28,63,20,0,511
31,95,149,32,108,41,18,157,56,23,48,30,13,27,31,56,22,0,325
22,12,49,10,31,8,14,63,6,4,12,22,5,15,16,13,8,0,108
24,60,170,24,82,18,7,172,44,7,34,5,10,60,11,26,24,0,336
23,49,181,31,64,23,10,245,37,20,40,6,7,59,12,29,20,0,396
4,3,20,4,5,1,1,14,8,2,5,0,0,4,0,0,1,0,32
43,53,272,43,112,28,0,316,32,18,39,12,21,82,23,31,48,2,559
43,60,336,33,171,27,0,517,33,23,46,15,30,104,50,35,31,32,788
55,71,295,41,156,59,0,334,62,17,60,16,19,86,39,61,45,22,584
35,33,261,34,75,27,0,427,9,13,32,3,8,76,22,15,28,19,667
28,27,305,31,140,26,0,450,22,29,31,9,18,101,21,31,34,13,698
50,42,315,42,126,37,0,556,38,33,38,9,20,94,33,33,40,4,826
66,72,372,63,217,62,0,451,47,32,53,36,20,127,21,162,72,9,724
39,118,147,25,111,15,31,213,153,24,38,12,9,41,17,23,24,0,358
65,103,316,84,229,65,41,442,74,27,90,50,14,114,42,112,49,0,773
22,35,84,30,93,19,28,92,19,2,23,10,3,33,113,15,20,0,165
80,121,290,62,279,56,14,427,59,26,49,226,15,107,31,61,40,0,715
88,113,345,75,248,52,3,579,45,29,53,182,21,109,26,78,43,0,917
36,27,184,39,96,27,0,402,16,6,46,5,14,51,28,33,36,4,572
33,34,236,54,106,37,0,523,15,29,63,11,21,43,22,33,43,35,708
47,39,226,35,130,43,0,313,49,34,56,8,11,75,34,29,33,3,501
54,52,243,41,144,54,12,357,44,27,43,10,21,97,29,52,33,0,601
47,48,289,67,124,31,0,374,35,31,59,15,13,102,22,30,48,20,605
61,50,214,62,159,59,34,376,27,23,76,24,18,99,41,60,41,0,606
14,9,111,7,22,9,0,128,7,3,4,3,42,23,2,15,16,44,141
45,38,267,32,85,27,0,322,29,28,27,8,18,85,14,24,43,56,484
19,30,214,31,76,15,0,317,12,11,33,4,32,70,22,18,41,7,452
48,41,206,45,94,32,0,457,27,25,53,12,16,75,20,33,28,11,623
45,46,239,60,148,33,30,462,31,17,65,23,15,95,24,54,44,0,695
48,52,223,50,142,59,0,328,37,25,60,17,23,90,27,55,52,30,486
46,58,228,46,141,44,77,368,27,18,68,14,23,100,40,55,28,0,635
58,70,246,37,140,76,0,1415,36,22,58,15,24,73,24,53,33,65,1639
35,33,227,33,108,20,0,293,13,21,38,4,19,69,22,35,37,20,471
43,31,257,28,104,19,0,346,13,21,44,10,14,84,27,35,33,32,515
83,44,273,49,177,65,0,505,21,32,59,10,52,83,14,52,37,170,666
58,80,283,67,206,68,0,386,38,32,81,22,22,106,38,69,42,4,694
41,30,236,44,144,29,0,374,31,23,60,12,29,70,19,34,20,43,557
38,24,170,47,92,18,0,297,21,13,25,8,19,44,21,19,23,11,482
46,35,220,39,104,21,0,274,37,14,38,17,18,78,22,25,34,6,450
31,37,186,52,138,21,0,496,16,25,54,18,14,37,39,23,38,14,683
24,14,71,22,82,11,15,90,9,13,20,8,2,25,9,33,8,0,202
37,89,155,33,160,23,2,241,118,11,42,18,10,44,16,23,30,0,428
23,52,195,26,78,21,19,255,37,11,22,7,7,46,41,16,15,0,467
51,97,263,64,207,57,11,294,103,10,77,16,14,50,50,76,43,0,605
16,14,125,16,50,9,6,212,11,8,18,6,4,40,10,10,16,0,325
37,37,204,42,123,38,2,300,36,12,46,14,13,59,35,30,13,0,525
81,66,383,64,171,49,17,515,32,18,57,16,24,117,31,52,51,0,948
20,12,244,24,51,10,0,284,9,20,28,2,15,60,9,9,18,23,452
14,26,148,12,60,27,0,119,18,7,11,12,25,43,5,20,23,1,241
5,8,128,15,36,16,4,148,9,3,18,5,1,30,5,6,14,0,269
34,41,195,35,110,11,2,320,13,15,26,15,8,56,19,27,16,0,553
35,45,189,35,135,23,0,241,16,19,41,13,10,32,15,28,22,22,485
12,15,89,10,46,4,0,100,2,5,28,5,5,37,8,8,9,16,153
35,21,168,40,101,27,24,269,9,8,29,16,6,62,15,23,10,0,507
37,26,175,26,99,25,0,379,9,13,16,22,3,37,12,20,27,9,599
38,86,274,34,139,34,0,433,78,14,25,8,12,66,19,73,17,3,723
28,40,181,20,98,22,14,148,19,15,33,13,15,56,27,24,29,0,320
15,28,114,17,68,11,17,128,8,5,8,7,8,34,4,28,32,0,264
34,51,191,35,102,26,0,247,35,8,21,4,8,39,17,17,45,35,457
17,22,169,29,78,9,64,252,61,15,18,5,8,57,8,17,33,0,418
39,87,288,51,180,45,0,302,53,15,48,57,9,117,25,54,44,43,527
57,73,214,51,174,32,36,323,30,27,66,77,15,70,33,44,21,0,577
31,58,181,33,130,30,26,463,30,14,45,57,7,50,5,36,14,0,694
34,53,229,46,135,30,0,381,26,15,27,46,15,66,10,35,28,11,629
44,82,277,55,232,56,0,302,34,12,54,108,22,107,18,70,32,29,562
21,47,173,32,92,21,13,210,40,20,41,27,7,61,11,21,20,0,361
17,17,93,29,37,10,28,301,11,10,17,5,9,35,7,11,11,0,416
18,20,112,19,48,22,0,217,6,14,19,7,5,31,6,18,34,47,269
5,15,52,8,25,7,5,61,24,6,4,3,2,17,6,9,10,0,97
43,71,277,54,172,32,7,310,66,16,46,12,15,83,31,49,24,0,624
29,67,183,34,144,25,0,323,68,29,41,6,8,52,21,29,16,14,521
75,158,450,74,306,42,0,585,123,21,80,37,19,146,48,62,37,31,1086
39,32,235,48,133,23,22,266,38,27,37,9,10,71,23,24,30,0,529
26,29,220,37,93,20,1,336,20,21,24,8,11,53,8,18,42,0,557
49,62,219,57,165,46,3,390,94,16,26,10,10,55,29,36,33,0,682
37,63,308,75,143,36,9,389,69,24,65,30,12,110,31,25,39,0,655
39,43,246,46,182,35,0,351,31,20,47,5,23,85,25,15,25,24,642
41,53,212,48,122,41,0,409,37,15,45,18,29,59,15,26,30,6,646
35,66,265,46,174,25,0,588,57,34,38,7,18,91,14,37,29,20,854
5,9,82,9,8,3,1,67,4,9,3,2,3,16,3,3,17,0,124
50,31,260,43,164,21,0,289,32,44,53,11,24,82,21,43,40,28,480
51,22,207,46,126,23,0,356,24,35,50,13,10,57,26,39,29,39,509
44,29,193,43,104,28,0,324,6,17,44,11,16,47,8,38,41,33,504
48,52,173,36,141,41,11,320,32,20,55,30,22,48,19,44,37,0,515
29,49,168,36,114,16,0,231,30,19,44,9,12,57,16,38,30,2,386
47,44,220,37,144,38,0,353,25,15,33,18,8,64,17,57,49,31,566
33,44,208,22,128,30,0,658,23,16,40,29,13,50,13,42,46,38,813
52,34,239,33,125,41,16,316,15,21,49,12,17,77,13,53,45,0,554
46,58,212,70,170,45,3,388,19,28,59,25,20,52,30,72,43,0,644
13,28,86,17,43,8,4,167,3,8,14,1,4,35,14,14,6,0,267
36,93,290,55,141,41,0,369,54,30,34,22,10,61,33,27,41,30,683
33,56,306,67,156,19,14,453,64,24,49,16,13,74,25,28,53,0,758
51,109,268,64,194,49,25,439,76,26,36,7,1,39,166,36,37,0,775
33,18,95,37,64,20,0,125,17,5,34,8,3,33,54,12,8,1,217
29,59,133,25,93,26,5,187,78,9,20,6,6,33,11,57,14,0,323
25,62,162,39,134,12,19,176,74,21,35,21,11,50,12,28,25,0,352
52,98,271,50,215,45,0,357,62,26,63,92,11,76,39,47,39,15,618
41,42,251,46,130,39,30,389,21,34,32,24,21,61,31,26,33,0,685
15,9,54,14,13,13,6,139,5,6,2,4,2,16,8,4,11,0,205
14,35,199,39,80,18,0,236,18,5,19,2,8,46,10,17,46,10,440
20,23,127,25,70,11,0,185,10,8,19,7,3,30,15,24,13,4,328
35,37,168,27,94,31,18,230,22,3,38,18,6,48,14,48,21,0,422
67,80,292,75,188,48,0,550,53,35,66,15,16,96,38,62,50,12,857
57,61,294,61,161,52,4,414,31,21,57,17,14,96,35,45,47,0,741
1,1,42,5,17,5,5,80,1,0,5,0,4,7,0,4,6,0,129
6,8,91,9,32,4,5,115,9,3,4,1,4,26,4,9,5,0,205
12,4,80,3,27,2,13,67,2,12,11,2,4,15,5,6,4,0,147
39,33,251,52,130,39,10,501,14,15,36,22,15,130,15,40,34,0,734
78,63,350,86,203,65,119,606,47,47,91,26,17,203,30,107,39,0,963
52,15,237,35,116,33,0,304,9,30,24,6,8,110,14,46,37,39,469
36,66,220,36,87,37,17,263,65,28,30,13,10,51,15,40,34,0,476
33,20,160,35,65,25,4,297,10,18,23,28,9,56,10,21,19,0,445
41,35,226,58,97,31,9,344,39,25,59,17,7,71,14,40,36,0,533
9,5,35,7,13,3,0,47,3,4,7,6,1,11,1,7,8,0,71
7,9,172,23,74,12,0,247,0,11,16,4,10,36,15,15,19,13,405
90,29,190,35,170,48,18,316,30,22,80,6,10,46,32,42,66,0,562
66,40,171,44,150,31,0,357,28,18,55,8,17,41,17,36,26,11,602
24,25,203,20,80,23,10,330,6,8,21,6,14,64,11,24,29,0,532
40,28,234,27,99,26,7,264,21,18,33,8,10,91,11,28,13,0,492
41,34,210,21,83,30,1,274,14,21,26,18,8,61,9,22,31,0,484
33,29,205,24,90,30,9,250,9,11,27,12,15,59,18,25,23,0,471
42,90,333,47,140,25,15,513,34,25,50,11,11,111,22,27,34,0,880
62,304,392,78,268,50,0,489,287,34,65,20,19,126,30,25,47,4,986
38,47,209,47,123,22,0,329,34,17,27,9,11,53,28,35,61,24,516
48,52,247,36,119,26,16,362,42,24,36,5,12,66,14,30,92,0,585
38,48,232,33,126,26,19,365,49,14,35,17,11,56,21,22,73,0,589
52,105,232,33,109,33,0,281,100,32,22,19,5,74,16,26,32,5,514
50,45,226,39,125,48,37,422,29,26,41,17,28,59,21,57,29,0,685
7,3,40,4,13,6,4,58,1,6,6,2,6,6,0,7,9,0,92
37,33,245,37,123,43,0,359,19,22,42,19,16,58,27,42,23,25,584
48,55,286,43,147,47,0,355,29,20,41,20,37,81,19,57,43,37,597
46,114,162,47,227,29,0,341,51,13,55,8,7,46,97,47,33,5,604
67,112,158,55,224,46,8,419,73,16,62,7,3,39,117,65,28,0,679
66,112,194,53,215,48,2,355,64,24,61,13,7,56,138,45,15,0,622
11,14,108,20,81,6,2,150,21,8,10,6,6,30,24,6,16,0,265
54,166,335,78,291,45,0,457,153,25,85,79,14,98,28,64,59,6,815
72,95,319,65,216,62,3,352,85,20,76,26,23,91,42,68,37,0,716
77,81,352,83,221,67,0,462,60,36,103,35,27,91,40,86,54,25,786
21,24,188,25,84,23,0,339,13,7,19,14,5,62,12,23,19,0,530
47,93,214,57,169,43,3,366,65,29,59,34,13,70,24,57,33,0,608
41,40,216,60,125,24,27,383,32,12,59,23,10,75,11,55,36,0,603
47,59,215,54,166,28,0,318,57,18,51,17,11,48,49,26,10,30,570
44,50,340,71,124,26,0,504,13,22,53,21,8,80,40,50,28,1,843
12,4,50,6,18,0,0,30,7,4,4,0,4,14,17,6,2,4,58
67,69,277,87,174,44,31,639,76,45,62,14,13,69,67,44,69,0,929
29,38,174,23,74,12,0,237,30,13,22,9,9,59,30,18,20,3,374
43,26,209,27,93,16,0,341,17,16,24,4,6,76,47,14,39,35,477
33,31,193,32,106,16,0,275,22,19,28,3,7,59,34,10,33,14,457
19,28,155,22,70,18,0,257,19,6,22,4,4,41,26,10,28,33,376
22,28,185,23,86,22,0,239,17,21,19,6,9,59,22,17,27,34,374
18,19,173,16,100,15,0,308,28,15,19,1,16,53,34,17,26,18,422
77,71,316,79,215,63,92,466,64,29,75,15,17,98,100,64,42,0,875
39,38,176,20,81,35,0,248,41,19,22,6,4,54,18,19,22,32,400
44,55,303,37,96,23,0,415,29,30,41,3,19,76,33,19,53,28,642
38,33,169,28,94,10,0,345,28,17,29,9,12,50,29,16,29,32,466
17,23,175,17,63,8,0,212,12,14,15,2,3,47,13,5,24,33,347
21,26,236,34,53,17,0,298,17,22,15,5,9,86,20,14,20,13,464
32,21,220,29,68,18,0,347,27,19,25,4,6,68,28,11,33,27,487
39,40,172,33,83,20,0,227,29,15,25,7,10,46,35,20,35,5,387
34,36,200,33,94,22,0,416,30,33,15,10,15,51,31,20,50,10,570
28,56,151,42,101,37,12,285,53,31,41,12,6,49,38,41,25,0,416
48,44,204,39,113,33,0,307,31,24,41,7,11,65,52,30,40,9,478
18,18,87,15,55,9,0,144,17,15,21,5,2,26,14,12,16,6,212
33,31,238,33,102,32,0,379,26,28,19,9,10,56,42,19,42,17,580
45,30,230,39,95,22,47,1610,26,29,30,7,8,50,31,26,46,0,1865
37,18,190,43,85,23,0,358,29,17,25,11,11,35,35,16,24,56,495
48,38,280,54,111,28,0,528,22,46,48,8,18,65,34,15,46,37,748
41,31,218,55,119,30,0,427,22,31,50,3,15,42,41,17,22,20,658
33,43,223,38,79,15,0,413,39,27,21,7,6,78,29,13,35,8,581
41,57,193,68,85,8,0,294,57,10,20,9,16,28,37,14,15,11,529
22,157,189,52,187,44,0,312,101,27,36,7,10,63,41,36,20,1,621
16,109,188,28,87,34,0,278,70,22,30,5,6,39,28,16,22,9,493
5,62,97,25,43,2,9,108,44,13,14,1,2,19,18,17,7,0,216
13,13,55,7,36,8,23,44,10,13,11,4,5,19,15,11,11,0,100
23,63,162,38,76,18,0,226,29,8,28,1,30,31,38,16,29,20,376
9,5,82,16,18,3,0,85,8,12,17,8,8,24,12,4,14,0,111
49,71,368,68,141,46,0,448,57,49,42,11,13,72,43,32,34,0,838
50,55,259,65,166,39,52,529,64,33,36,12,15,81,59,44,44,0,827
39,42,263,57,140,30,0,360,33,29,34,13,11,67,34,41,37,43,589
46,60,276,52,182,40,26,341,77,31,53,10,10,65,50,55,54,0,618
46,85,247,51,195,37,0,331,83,20,39,17,14,49,36,35,26,34,639
44,92,204,60,167,30,0,452,103,16,53,19,8,49,18,26,21,5,731
12,27,94,24,60,4,3,118,15,8,26,4,6,29,41,7,13,0,193
21,96,287,63,160,27,28,439,87,29,32,11,26,66,61,12,24,0,773
45,317,162,55,176,39,54,381,350,11,40,9,4,45,31,32,28,0,679
46,278,205,55,179,45,0,363,245,29,35,10,6,49,40,12,31,66,648
30,42,269,31,130,25,18,273,79,38,29,4,15,60,28,18,20,0,527
13,12,51,9,42,3,0,98,3,3,10,3,2,11,24,8,9,0,155
34,33,272,36,70,16,0,707,23,29,48,4,13,65,10,10,30,29,907
50,48,285,41,91,26,17,409,46,19,45,12,11,72,20,19,37,0,686
61,64,320,68,171,35,0,319,59,35,77,18,11,78,45,25,54,18,618
56,53,346,66,132,57,0,363,46,33,65,18,19,83,37,36,60,5,671
42,43,372,54,86,34,4,409,20,33,43,0,13,87,21,24,39,0,764
32,73,248,45,158,26,1,251,58,29,26,9,21,57,42,30,37,0,525
40,97,222,84,172,27,6,301,96,12,42,9,6,63,63,48,26,0,584
38,152,277,38,119,37,0,341,84,24,24,3,25,78,40,21,21,12,670
20,41,119,20,74,6,0,211,48,2,9,2,9,25,36,8,16,9,327
13,26,81,15,45,13,12,133,9,10,9,2,4,19,61,20,5,0,199
22,24,163,45,78,16,0,230,8,7,24,5,4,23,33,5,13,4,452
26,34,189,30,73,30,0,208,15,9,33,6,8,44,72,12,23,11,357
18,50,88,20,57,12,25,92,199,3,9,0,1,15,3,2,6,0,124
15,10,74,11,18,4,0,46,2,4,3,2,4,8,36,10,7,6,96
6,11,68,9,22,10,6,74,2,3,7,4,0,18,17,11,14,0,130
31,119,221,36,88,19,0,407,72,11,12,2,8,63,38,16,12,12,675
53,67,180,60,90,37,0,221,40,11,34,4,13,43,106,34,25,4,394
21,86,97,19,57,10,10,120,62,17,14,11,2,35,15,2,9,0,253
9,41,93,23,46,9,0,114,38,6,5,2,4,28,18,4,4,1,225
42,50,185,47,113,23,0,252,31,11,19,2,8,46,123,19,26,36,391
7,18,62,12,41,9,0,269,7,5,7,0,8,5,38,2,4,33,309
24,20,152,27,75,13,12,219,14,7,16,5,6,28,66,13,13,0,374
44,61,227,74,107,41,0,289,34,14,36,11,14,48,135,28,34,19,470
64,90,244,65,186,42,5,682,74,20,55,3,12,46,163,41,26,0,938
35,35,236,36,119,27,0,294,34,12,22,11,11,51,121,14,26,17,463
48,46,226,36,131,34,0,333,44,11,17,5,7,53,93,38,28,16,542
39,54,209,48,151,22,0,254,59,18,39,10,7,55,116,26,17,1,429
44,83,199,56,241,62,8,245,65,17,48,18,9,60,178,44,30,0,469
40,43,220,48,115,11,0,276,25,22,27,3,9,55,115,15,17,18,447
46,72,201,51,152,35,0,200,62,12,30,6,9,67,148,31,17,10,365
21,67,180,41,121,32,14,183,52,12,25,14,9,35,152,20,18,0,322
5,4,47,4,32,3,0,54,3,3,8,0,1,12,20,0,3,1,98
62,101,285,62,209,51,0,455,95,27,52,6,41,57,37,58,15,9,828
24,85,262,39,117,19,0,260,82,21,24,4,9,54,37,12,20,13,530
23,30,171,51,118,25,0,238,47,18,16,2,220,30,25,19,13,9,257
73,70,313,57,138,28,0,492,65,33,68,13,9,81,36,22,35,18,791
76,75,262,60,179,33,18,503,75,35,53,17,7,73,55,45,38,0,808
8,12,49,6,29,0,1,32,21,2,5,1,9,21,15,0,5,0,58
75,96,409,89,254,43,3,616,84,51,97,35,18,109,47,55,50,0,1039
30,59,151,56,135,24,0,239,84,9,22,6,9,34,21,23,21,9,456
45,75,190,43,140,18,0,347,113,16,22,8,12,41,28,23,17,23,555
21,33,168,46,115,27,0,205,34,9,14,8,9,53,80,21,12,0,375
10,10,45,15,25,10,0,82,11,4,7,0,11,26,12,4,5,2,115
21,63,226,36,108,32,8,207,65,20,29,2,61,65,17,20,24,0,398
33,53,241,31,93,27,0,334,45,11,40,9,73,48,15,22,22,14,513
55,75,235,67,156,48,6,371,71,37,55,5,15,61,30,51,33,0,655
62,125,220,66,168,36,0,311,129,32,59,3,7,45,34,47,23,6,603
51,102,198,61,89,42,0,442,109,28,45,9,11,49,31,28,27,9,639
42,61,189,64,89,19,0,245,51,8,33,7,28,44,79,23,23,12,401
14,8,95,14,37,10,4,99,22,10,17,2,19,13,16,3,7,0,172
17,34,106,15,79,7,0,122,36,7,9,3,4,24,37,8,8,2,242
18,39,158,29,62,5,0,250,26,5,4,5,4,28,71,6,10,22,380
7,9,44,9,32,1,8,57,16,6,5,0,2,13,4,6,1,0,114
4,17,56,11,21,4,0,71,21,2,2,2,7,8,20,5,14,2,101
58,77,293,49,163,38,0,429,55,35,25,9,9,67,75,32,36,8,756
33,86,211,38,117,37,6,353,125,18,29,12,7,52,14,10,27,0,587
43,108,218,63,132,22,26,315,129,29,47,7,27,60,27,20,26,0,555
39,64,169,34,97,17,0,290,35,16,29,8,9,46,51,18,21,13,464
74,85,313,65,179,27,0,354,248,21,41,8,10,88,12,28,27,14,600
56,71,254,77,164,47,10,496,190,18,30,2,10,46,16,28,33,0,802
53,81,316,70,141,22,0,387,226,22,31,10,8,46,17,23,25,2,660
32,27,204,40,62,22,0,227,23,19,21,10,8,58,17,15,15,4,424
48,58,309,52,173,42,0,387,53,17,31,2,13,73,39,29,29,17,766
66,57,330,65,150,40,13,516,36,32,44,7,14,88,24,41,36,0,915
5,2,45,7,22,4,0,53,3,1,1,1,2,17,15,3,2,0,93
35,70,92,16,91,7,14,124,53,8,25,7,5,19,45,18,9,0,260
38,43,231,33,100,18,0,249,49,17,20,3,2,38,50,13,24,4,492
47,66,267,32,93,20,0,275,79,25,31,9,10,69,20,17,25,15,500
12,18,82,13,32,14,2,134,20,14,10,2,3,20,25,13,8,0,192
52,143,312,63,204,59,1,384,131,17,80,17,14,90,76,51,35,0,707
46,155,211,65,186,26,1,320,148,17,59,9,9,66,56,39,20,0,587
48,119,232,65,159,34,0,465,77,16,64,10,6,66,42,43,39,20,739
59,124,252,62,221,64,0,459,91,28,91,8,17,60,62,68,36,26,754
24,33,142,20,82,19,22,146,24,17,20,8,22,28,57,14,23,0,275
36,82,309,48,132,30,0,341,114,23,57,11,11,74,35,20,36,6,591
10,22,129,12,35,18,3,188,7,6,5,0,1,21,38,5,11,0,323
33,75,158,33,96,15,0,221,67,14,27,3,8,35,23,17,22,20,395
22,70,150,47,104,28,2,202,67,15,32,7,7,26,48,16,21,0,386
42,40,251,30,96,20,13,323,54,16,19,9,22,58,60,14,26,0,537
44,67,236,45,125,32,0,279,69,27,42,8,12,61,43,31,33,12,490
14,16,87,17,49,6,0,107,12,7,14,5,9,22,19,4,10,9,185
41,48,288,40,116,33,0,339,39,22,23,10,15,62,43,11,48,0,632
33,68,284,42,129,31,0,324,67,33,30,13,18,66,42,21,36,2,583
16,28,147,16,70,15,0,159,19,6,10,1,6,37,14,5,16,2,335
29,30,215,50,115,21,12,265,55,20,25,6,13,70,32,14,15,0,487
15,11,100,26,67,5,0,112,32,5,14,3,6,23,18,11,6,11,207
38,97,177,38,108,19,22,258,71,11,23,7,8,49,74,13,20,0,481
17,57,135,23,102,19,7,235,71,8,16,3,54,22,31,13,20,0,357
31,117,244,48,103,18,0,341,91,29,21,11,15,64,15,90,22,31,513
29,113,206,45,161,26,0,326,125,13,38,7,14,64,16,94,16,0,519
42,66,368,84,171,32,25,443,60,23,31,11,17,116,52,29,37,0,855
39,54,324,75,169,34,0,499,54,22,38,10,18,87,44,35,32,34,820
42,98,273,54,176,26,0,371,54,40,48,13,25,79,50,41,25,48,617
41,85,223,49,173,37,0,345,55,25,44,12,10,54,27,51,29,17,629
37,57,266,47,107,22,0,390,36,22,33,10,21,77,31,12,27,6,651
40,104,247,48,134,20,0,381,77,20,50,11,17,66,23,39,15,18,638
32,79,265,44,135,33,10,735,58,27,66,9,24,77,39,32,41,0,960
31,59,182,48,98,25,0,319,63,9,29,4,5,48,27,29,8,29,511
26,54,252,37,104,20,8,377,31,21,35,4,9,86,21,28,28,0,615
22,33,245,33,107,19,0,429,39,13,24,4,14,68,26,12,26,44,618
29,54,254,37,140,22,0,366,42,29,33,11,10,76,23,25,40,21,592
14,62,208,33,103,14,21,224,51,13,21,6,10,76,19,29,24,0,430
26,62,84,17,56,12,11,147,58,2,19,3,18,14,20,5,4,0,272
26,94,215,33,136,14,0,341,33,23,35,13,22,61,70,15,23,14,550
37,136,291,92,176,43,2,387,150,21,40,15,11,85,38,39,18,0,747
36,146,311,75,187,43,8,494,116,19,54,9,17,78,48,37,25,0,897
53,101,322,68,212,63,0,429,40,41,50,15,29,96,72,64,40,30,771
43,69,303,58,173,47,15,532,38,42,40,13,29,71,50,31,43,0,883
28,92,298,77,145,42,21,541,47,25,59,10,27,67,46,32,43,0,888
28,28,152,25,65,12,4,187,17,5,30,3,9,40,36,17,11,0,333
21,35,204,17,89,18,3,246,23,16,36,1,1,34,51,9,23,0,439
33,114,197,54,139,30,14,303,102,12,30,8,27,43,52,26,16,0,568
69,61,266,65,145,27,3,453,45,22,33,10,55,77,50,32,23,0,742
43,41,302,46,131,30,8,395,37,30,34,5,65,67,60,36,42,0,620
22,45,102,21,80,13,4,146,57,12,25,4,9,42,27,5,13,0,239
22,71,245,40,122,33,20,317,48,13,44,3,9,86,85,20,26,0,536
1,32,59,2,14,3,0,57,25,4,1,1,19,16,2,2,1,0,97
64,73,289,67,154,35,74,492,27,26,70,49,25,105,49,49,38,0,810
10,8,57,18,32,12,11,38,5,2,12,1,8,9,36,1,9,0,103
21,18,116,14,24,13,0,123,16,5,9,5,8,36,6,13,29,1,201
28,50,184,49,97,29,0,234,30,20,26,10,25,37,16,29,24,29,425
45,31,199,66,129,24,5,343,34,21,32,8,30,62,17,42,31,0,565
44,55,210,59,147,29,0,302,36,28,25,11,48,56,35,38,33,21,515
37,37,125,41,79,25,0,195,27,9,39,10,24,31,16,39,14,40,290
31,31,156,31,68,17,1,210,34,15,21,4,18,38,8,19,15,0,373
37,59,216,30,136,34,0,263,30,20,34,10,41,65,16,26,50,17,466
19,32,140,34,78,9,0,229,12,7,13,4,23,44,17,16,25,15,365
35,42,212,44,99,23,0,292,35,8,33,10,31,78,14,26,23,15,474
27,33,185,25,95,19,3,267,19,19,36,7,30,52,13,28,19,0,431
20,45,151,19,93,12,0,268,33,10,19,6,28,48,19,16,23,10,396
33,23,151,45,89,25,0,225,41,18,35,6,26,36,12,38,30,0,349
26,25,92,21,74,26,0,892,15,16,23,3,19,27,13,32,20,18,970
38,49,223,39,133,44,0,238,37,26,33,18,33,75,21,57,21,33,410
31,34,162,35,85,25,5,185,24,13,15,5,19,45,18,53,23,0,347
53,77,273,66,147,64,35,304,77,20,52,11,47,88,36,53,45,0,590
30,38,262,30,107,36,0,275,33,14,32,7,47,82,22,36,39,46,420
23,35,193,37,90,21,0,255,23,18,28,9,20,68,16,31,23,40,378
16,28,198,24,87,20,0,183,15,13,28,2,30,64,8,16,43,11,326
21,35,193,29,101,20,0,253,26,18,29,4,33,42,15,18,30,17,420
15,16,99,14,46,10,8,92,16,7,6,1,14,50,10,14,21,0,161
16,14,92,10,25,14,8,125,7,10,19,6,14,21,3,11,9,0,204
21,21,125,34,57,10,10,191,20,17,19,4,17,37,17,17,21,0,300
16,24,91,13,45,4,0,111,17,2,12,12,11,17,9,6,20,4,194
44,54,264,60,135,36,0,403,27,29,55,12,39,48,24,30,40,40,652
35,51,265,40,93,28,52,205,25,20,27,6,48,71,9,17,30,0,516
14,28,171,18,55,20,0,158,13,12,21,5,22,32,7,10,41,12,289
10,11,60,9,27,3,3,81,15,4,4,1,4,26,2,4,9,0,135
7,13,37,5,7,2,0,43,14,5,3,1,1,13,1,1,4,2,69
5,16,54,10,23,6,2,44,17,15,8,4,2,19,1,2,11,0,81
18,27,110,15,50,13,13,181,27,7,9,5,12,42,13,17,9,0,286
41,83,270,53,107,36,21,339,70,21,45,13,10,61,43,15,35,0,637
27,48,230,27,85,21,24,276,39,14,20,10,34,55,19,18,37,0,492
45,44,230,31,115,44,48,584,136,27,29,3,19,42,13,17,54,0,801
18,10,91,18,50,9,0,102,48,4,8,5,13,29,3,4,11,0,173
18,12,129,14,66,13,0,188,54,17,13,4,13,33,9,6,12,3,276
26,29,183,35,80,23,0,238,90,14,13,5,11,38,9,11,20,16,387
10,15,71,16,35,12,2,108,50,7,6,2,5,21,4,1,12,0,161
38,40,238,56,111,40,0,335,107,15,21,3,23,49,13,14,46,11,556
31,36,217,41,115,12,0,248,98,16,14,6,22,64,14,14,28,13,411
33,42,230,43,129,31,0,453,127,22,27,4,28,53,14,23,38,19,606
16,15,59,11,23,11,2,82,23,10,9,1,13,13,3,6,9,0,132
10,12,52,8,30,7,0,60,30,4,1,0,9,9,3,5,2,3,113
33,57,187,45,119,31,14,256,79,18,30,6,27,60,12,39,28,0,443
43,77,288,47,144,50,13,352,48,21,36,9,39,81,17,70,40,0,653
41,64,307,45,121,40,0,311,23,25,30,13,38,67,19,70,49,16,579
10,13,132,12,58,16,3,217,10,17,17,5,12,44,10,6,22,0,318
24,46,183,31,108,28,17,256,35,21,44,4,20,49,24,37,25,0,434
19,13,151,14,42,15,3,135,11,14,11,2,19,57,16,20,20,0,222
61,50,203,52,104,42,25,284,57,15,32,10,36,53,23,34,26,0,535
33,42,204,60,129,18,0,214,31,27,36,12,46,76,43,16,33,14,366
24,22,200,19,65,16,0,151,30,16,28,9,21,35,18,19,19,3,299
29,41,156,29,112,22,0,234,37,13,21,3,4,44,157,6,14,10,314
12,5,146,27,63,18,0,202,16,20,17,2,20,32,5,11,36,6,308
3,15,65,6,26,3,1,96,17,7,7,0,12,18,3,4,14,0,133
8,16,123,18,32,5,0,182,10,3,8,3,4,26,3,6,15,6,300
50,21,282,55,125,33,0,393,50,21,31,6,12,64,26,21,33,21,674
42,41,275,63,97,30,0,464,47,15,33,13,15,57,21,25,39,0,747
9,10,84,24,53,15,0,123,11,6,24,3,38,14,5,15,4,0,198
24,41,118,38,127,27,7,172,29,9,19,6,149,22,15,18,22,0,265
3,11,72,16,25,11,0,156,15,5,18,1,8,20,7,14,5,3,198
39,50,142,26,83,18,10,225,42,22,39,9,18,56,19,17,14,0,357
3,4,32,9,12,3,0,33,4,3,5,2,4,5,3,2,3,1,64
14,35,103,9,64,16,0,98,85,5,9,3,16,25,8,12,10,1,165
49,59,148,30,137,36,72,204,69,15,32,15,23,44,43,38,23,0,433
57,83,192,64,167,28,0,286,63,16,31,21,25,65,61,41,24,71,459
53,42,171,32,85,27,0,228,54,22,20,0,20,27,29,17,29,2,418
1,5,37,8,25,5,4,34,3,5,1,2,14,10,1,5,9,0,69
17,14,115,25,47,25,0,177,13,10,23,7,11,28,9,7,24,33,255
44,57,329,46,175,38,0,465,67,31,35,9,29,53,30,23,60,19,798
32,46,151,28,109,15,13,148,52,15,27,8,77,44,18,23,25,0,253
52,64,210,44,113,35,18,223,38,23,41,18,25,80,25,28,27,0,454
12,6,79,11,21,9,0,88,6,16,9,0,8,24,5,8,7,1,142
5,8,33,2,18,4,0,49,13,5,6,0,4,6,2,1,11,10,61
24,38,117,36,82,20,10,225,32,8,28,7,26,36,19,18,20,0,358
9,16,119,11,31,11,0,88,43,12,8,0,1,24,7,0,17,0,173
16,6,157,26,64,24,0,177,7,8,14,2,26,26,11,9,24,0,343
5,14,97,6,27,8,0,102,7,15,2,0,7,18,18,3,9,3,177
43,73,153,35,107,24,0,194,67,4,45,5,18,58,26,30,24,12,340
9,7,83,9,33,1,16,84,0,7,7,0,27,21,2,5,33,0,140
26,32,148,23,91,27,30,199,34,13,32,4,13,61,20,25,23,0,351
14,17,103,17,40,16,0,146,12,5,8,1,6,30,8,9,17,13,244
31,57,267,43,109,29,15,366,64,23,36,9,9,48,23,25,34,0,646
19,17,116,15,51,7,1,108,40,18,10,3,3,32,2,3,11,0,212
28,41,139,37,83,30,15,199,33,26,25,6,27,41,20,36,24,0,334
4,4,43,1,8,5,0,29,4,5,4,0,2,5,1,2,5,13,53
5,8,110,8,38,8,1,81,43,10,8,3,10,22,6,9,5,0,143
53,92,356,67,160,38,17,471,106,42,64,13,26,78,28,48,55,0,794
3,5,64,4,20,4,0,49,6,6,4,0,8,25,2,2,1,12,83
21,18,138,27,60,15,14,177,29,12,10,2,14,39,24,22,24,0,294
2,0,15,4,8,0,7,15,3,5,0,1,1,3,0,0,6,0,32
48,50,226,46,148,34,25,255,36,29,44,5,30,84,15,21,21,0,547
32,41,189,55,93,28,13,155,29,13,34,13,17,65,17,29,52,0,337
14,32,120,26,51,16,2,126,14,15,24,8,12,37,11,20,24,0,222
18,22,179,22,89,16,2,233,21,11,30,13,31,49,11,26,25,0,364
9,21,118,11,30,22,10,113,7,6,7,5,26,23,5,17,17,0,221
28,30,127,17,87,10,9,231,46,10,26,8,17,32,12,5,17,0,366
11,16,83,20,38,12,0,83,22,11,10,6,4,26,11,10,5,5,153
33,34,110,36,85,18,22,157,56,8,29,4,6,33,33,24,7,0,295
22,33,145,26,73,22,7,344,37,12,34,5,12,45,30,16,8,0,473
32,54,145,30,113,34,0,144,47,16,22,5,14,38,42,38,13,11,306
53,47,212,40,121,31,0,319,33,16,29,8,19,60,50,31,41,50,486
4,19,71,13,44,17,0,67,12,6,14,4,14,15,15,24,11,2,118
15,40,153,28,85,24,11,159,48,13,27,6,7,43,33,18,7,0,313
22,17,96,21,51,13,0,106,22,7,16,3,17,20,12,1,18,8,202
29,53,147,16,87,16,21,184,64,22,26,4,14,50,14,22,30,0,307
17,30,147,29,79,13,0,181,41,9,23,5,20,19,9,11,22,8,329
58,97,226,58,201,55,0,379,59,18,44,14,66,59,42,71,42,26,633
44,80,189,68,174,48,0,375,61,29,59,17,51,48,29,35,20,31,598
91,93,246,64,212,51,34,330,98,22,62,21,55,69,44,66,33,0,651
68,85,202,60,173,67,104,545,78,33,58,27,45,51,32,55,32,0,893
40,98,167,44,190,37,47,295,101,30,67,10,57,46,35,41,25,0,506
9,6,102,7,33,7,0,117,7,10,3,0,19,31,9,2,18,8,174
15,17,137,14,41,9,12,186,13,13,16,1,19,18,4,7,25,0,315
43,79,188,71,118,26,14,283,82,21,31,9,33,42,43,14,20,0,527
35,106,276,29,104,26,0,224,96,26,28,3,30,65,13,25,26,14,474
12,12,103,12,29,12,10,83,20,14,11,3,9,25,15,6,11,0,159
16,14,160,25,43,18,19,171,16,16,9,2,17,46,18,12,20,0,310
12,19,79,18,59,9,6,144,22,8,17,5,17,27,13,10,5,0,222
24,52,160,45,101,19,16,159,66,14,16,4,39,32,30,13,31,0,331
49,77,244,64,148,43,0,347,102,22,66,15,25,76,30,39,35,0,562
29,30,134,29,104,21,15,144,13,15,26,6,8,38,77,20,15,0,288
9,12,81,22,36,2,10,65,10,3,16,6,7,34,4,9,18,0,130
40,43,102,29,72,26,30,260,30,21,27,28,4,38,12,46,14,0,382
59,64,215,50,147,48,16,377,41,22,60,45,13,89,28,43,29,0,606
6,24,113,14,44,10,0,126,26,14,10,5,17,24,9,19,10,2,201
43,60,206,39,149,47,81,274,45,27,45,27,11,78,23,82,34,0,527
34,43,230,30,105,23,12,394,12,26,36,13,23,64,11,28,36,0,622
9,23,85,12,26,12,2,85,9,17,15,2,12,21,7,7,9,0,155
58,34,317,43,128,40,0,384,26,39,66,16,16,93,30,50,35,11,622
31,15,228,23,61,11,10,251,19,14,25,7,8,79,10,12,39,0,417
31,20,251,19,91,14,0,334,16,16,24,11,13,76,13,10,36,30,515
34,23,251,25,76,16,0,321,15,41,32,11,8,91,11,17,31,12,477
42,42,304,53,124,26,0,365,31,37,41,23,29,111,22,36,50,7,569
51,49,198,30,110,22,0,389,22,27,52,12,16,65,12,19,38,40,546
39,93,199,35,143,34,70,302,58,18,53,26,18,77,15,56,36,0,558
39,68,313,43,168,28,32,369,35,39,63,30,31,129,19,40,40,0,634
31,42,208,45,106,26,20,332,47,30,42,25,8,66,24,43,24,0,501
29,42,207,36,103,17,0,337,14,27,31,18,18,64,17,23,26,27,506
44,42,265,35,128,30,0,302,26,25,48,25,20,83,19,26,29,17,528
16,21,93,17,61,17,0,69,13,7,24,17,13,28,6,25,17,0,144
87,58,245,33,134,47,0,351,21,31,30,46,17,55,16,40,31,180,488
52,67,344,33,155,26,0,310,42,31,37,26,21,117,19,35,46,51,562
25,22,164,14,54,16,0,225,11,17,18,9,11,47,9,14,29,11,344
34,54,157,37,97,26,0,209,30,23,27,37,13,56,9,33,26,0,360
35,26,226,25,90,15,0,239,18,17,30,22,12,67,13,22,32,14,409
27,29,174,36,83,17,6,245,19,17,35,27,20,43,10,18,40,0,388
46,48,199,30,103,33,0,333,35,36,35,26,8,53,20,38,27,27,487
42,47,238,27,103,23,0,326,23,29,41,27,17,98,14,32,28,8,489
40,59,222,52,140,46,0,275,50,14,33,36,14,90,21,51,35,0,490
25,30,240,39,77,15,0,271,17,19,17,17,12,72,16,15,33,14,465
37,53,198,26,124,26,20,332,42,29,48,26,21,73,19,23,37,0,498
37,43,216,23,102,22,9,302,11,32,34,23,20,76,20,29,28,0,481
40,27,149,28,77,25,9,319,16,18,37,32,10,46,15,22,23,0,455
29,41,135,26,68,19,68,1164,13,25,31,27,4,38,9,19,25,0,1359
28,54,231,41,99,28,32,246,29,35,38,15,20,65,23,48,39,0,447
13,16,179,5,79,15,0,200,12,17,27,10,12,62,11,20,26,17,293
33,27,260,41,112,39,0,309,20,20,45,8,19,107,23,28,33,45,473
7,16,40,9,16,4,5,48,10,5,9,5,5,3,3,5,6,0,94
9,17,110,8,46,13,4,96,5,13,6,12,6,36,10,19,24,0,172
4,1,41,1,7,0,0,39,0,1,3,0,6,12,0,1,6,1,63
22,15,56,10,33,8,0,84,28,7,8,3,4,22,1,7,7,1,140
2,8,40,7,6,2,0,29,5,3,8,2,2,12,1,1,0,3,57
3,3,23,4,10,3,5,23,9,0,0,0,1,10,2,1,5,0,46
1,15,58,3,9,3,1,57,19,1,3,0,3,18,1,3,7,0,92
3,23,51,9,25,4,8,47,28,3,5,2,8,13,2,5,5,0,99
17,10,50,2,11,2,2,33,10,1,8,5,3,10,9,9,6,0,66
4,0,28,2,10,3,8,18,0,3,0,0,0,14,2,3,0,0,51
41,63,301,50,108,39,7,357,34,9,32,11,14,85,107,17,42,0,615
10,11,211,14,75,16,20,177,13,13,10,16,8,75,16,17,9,0,357
5,5,57,2,13,1,7,71,0,4,4,3,1,18,3,1,6,0,121
19,5,123,11,16,2,17,146,8,11,5,5,6,19,10,0,13,0,262
13,8,53,3,16,6,0,32,7,4,14,0,4,12,14,2,5,7,62
60,32,287,47,128,40,12,611,16,23,35,24,14,70,68,24,55,0,888
16,25,136,28,72,13,0,176,28,8,13,15,5,40,3,12,11,0,331
30,25,200,21,37,10,0,421,14,5,2,4,10,48,13,18,11,24,595
22,44,138,18,66,16,3,155,22,14,19,18,14,47,11,12,28,0,277
8,28,78,4,33,6,0,98,20,1,9,0,5,30,4,7,9,5,165
7,0,90,4,14,1,6,65,1,8,5,5,4,29,4,3,4,0,124
4,3,25,6,22,2,5,16,3,6,1,1,6,11,2,5,6,0,42
3,6,52,3,13,0,0,46,5,2,3,4,2,24,5,1,7,3,67
1,6,107,13,28,12,11,118,3,6,8,2,15,34,1,4,15,0,208
8,7,72,17,35,6,2,72,12,9,16,7,4,21,8,4,3,0,135
24,28,103,23,38,2,9,98,37,5,17,10,1,22,5,6,17,0,205
5,5,49,8,14,3,0,39,4,2,2,2,8,12,3,1,15,7,67
17,56,81,17,81,11,0,125,54,1,16,19,1,44,4,13,14,2,220
20,26,199,31,51,6,2,323,23,20,13,6,8,42,10,16,22,0,498
11,31,134,14,41,14,21,160,15,13,16,2,9,43,2,4,8,0,314
8,10,153,14,31,3,25,149,13,14,18,4,9,17,10,5,26,0,277
12,6,46,3,12,2,0,40,3,12,2,2,1,5,0,2,2,7,85
6,15,49,9,29,3,0,50,6,5,12,0,0,13,6,1,10,1,107
20,8,77,9,27,9,0,118,6,8,6,3,6,29,6,9,8,16,171
36,46,368,38,87,23,0,506,15,23,47,13,9,71,10,10,31,12,863
17,13,243,24,99,18,32,219,11,11,31,8,13,71,19,28,21,0,452
18,30,71,23,30,9,0,97,7,14,21,0,9,12,2,12,2,5,194
45,68,392,59,182,41,17,615,44,39,53,29,25,98,31,29,33,0,1038
3,2,12,0,4,1,0,23,5,0,0,4,1,3,0,0,1,3,28
6,2,43,8,12,2,14,84,5,3,3,2,6,11,0,1,9,0,131
7,24,91,7,27,6,0,86,10,4,6,7,5,35,1,4,9,6,161
13,41,207,17,54,8,1,180,40,7,9,12,5,55,4,11,23,0,355
2,32,96,10,30,5,0,66,37,5,6,4,4,21,2,2,14,12,134
39,38,459,48,120,27,40,510,40,36,35,18,58,104,9,24,55,0,902
13,25,103,12,42,13,0,169,12,3,9,2,10,28,11,11,15,28,248
20,14,227,34,48,8,0,364,12,21,24,7,7,41,8,9,38,2,546
18,33,228,31,49,21,19,356,23,30,16,10,14,68,17,9,20,0,548
52,51,417,70,158,30,10,494,43,29,41,30,21,122,26,29,86,0,855
59,38,378,60,151,25,10,654,27,42,50,13,14,99,17,43,62,0,1008
5,6,26,12,11,5,0,30,4,3,6,0,1,14,4,4,6,6,47
23,34,163,13,64,3,4,157,22,20,12,3,11,43,12,6,17,0,315
10,28,105,26,58,9,0,137,52,3,8,3,3,19,5,9,5,15,251
31,25,287,37,105,31,6,498,7,29,42,11,14,47,13,26,29,0,802
29,35,285,38,110,22,0,447,30,18,27,9,8,63,61,22,51,21,656
21,68,146,28,104,27,0,229,86,8,22,12,8,59,13,19,14,3,379
9,17,139,17,25,13,5,146,2,14,15,5,13,23,0,11,30,0,258
2,7,43,1,9,6,2,49,13,4,1,2,3,15,1,3,1,0,76
5,16,43,4,17,5,2,49,0,3,5,0,2,10,3,9,8,0,101
7,14,163,9,72,10,17,173,15,19,14,5,3,43,13,7,22,0,324
21,13,167,16,32,18,22,155,5,11,8,4,1,37,3,12,27,0,336
7,12,32,3,21,3,0,19,16,1,4,1,0,16,3,5,5,1,45
7,9,44,4,10,3,5,36,4,3,2,5,0,6,10,2,2,0,84
36,64,221,43,84,31,0,283,47,27,27,16,19,60,23,43,30,11,459
7,7,59,3,5,0,0,45,7,9,1,1,2,5,2,4,6,3,86
10,16,50,2,17,5,0,84,6,5,6,2,2,19,7,3,6,0,128
14,14,127,14,37,25,0,178,12,8,16,6,10,23,7,14,13,1,299
1,20,95,10,11,4,0,68,11,8,2,2,5,36,1,5,8,2,129
5,15,76,11,13,3,7,56,11,6,8,6,3,42,2,2,11,0,95
20,15,138,8,16,8,13,172,5,13,8,6,1,21,6,13,13,0,304
18,15,132,14,65,7,0,167,17,21,15,7,7,46,3,10,6,23,263
2,4,26,1,7,4,0,15,1,2,5,1,2,5,0,1,4,3,35
7,17,66,9,32,4,9,74,10,8,15,6,4,20,4,18,7,0,126
10,5,109,14,26,1,9,125,1,13,17,5,11,19,5,3,6,0,219
25,35,123,17,56,19,7,142,35,13,31,6,6,34,8,16,16,0,259
5,5,50,7,25,5,4,50,5,6,3,0,1,13,8,3,8,0,104
15,34,182,15,63,9,13,198,20,1,10,6,3,59,30,15,11,0,374
5,7,84,7,20,10,0,41,3,1,8,0,1,14,4,8,6,6,123
39,22,165,24,67,13,0,189,13,4,8,11,62,41,12,19,13,7,329
23,26,154,20,83,13,38,222,9,11,19,28,49,37,22,17,18,0,369
22,22,161,20,88,9,16,296,6,7,21,16,51,32,12,16,6,0,467
29,25,219,24,68,15,0,197,7,8,18,16,73,54,16,14,17,6,348
5,4,51,3,11,6,1,48,0,2,2,0,8,5,2,4,3,0,103
10,18,83,13,42,4,8,114,18,2,13,4,7,27,7,8,9,0,197
15,15,70,6,28,1,0,54,28,7,5,3,1,22,0,1,13,1,108
43,75,308,38,170,23,0,296,77,17,22,57,20,112,17,34,37,26,534
18,23,103,19,74,19,11,97,20,9,18,20,5,41,8,19,16,0,208
8,5,36,10,24,6,0,49,11,5,9,2,2,6,3,2,19,1,78
15,38,195,28,99,20,0,245,49,19,14,24,8,35,10,15,32,5,429
20,27,174,30,73,16,0,263,31,15,19,24,9,54,7,17,17,11,399
19,40,227,37,110,23,0,313,41,25,23,39,10,79,12,19,23,19,479
20,40,170,27,107,23,0,183,33,4,17,28,15,54,15,20,20,22,342
25,57,171,38,95,27,0,369,62,16,29,27,22,57,4,22,23,1,519
10,4,37,9,8,8,0,96,3,2,12,2,7,6,4,4,6,11,115
2,12,22,3,7,1,0,26,8,1,5,0,2,14,4,0,6,1,32
7,15,170,5,28,12,0,175,20,10,10,3,12,35,10,4,16,4,288
48,41,288,37,116,26,0,378,32,19,40,13,7,72,21,19,20,20,671
18,21,216,27,41,10,0,222,12,17,14,4,10,60,4,4,18,20,392
1,3,32,7,5,0,0,17,0,1,4,0,2,5,5,3,5,2,38
2,13,25,5,4,1,0,27,5,2,2,1,0,11,6,0,1,6,43
19,37,99,20,67,12,3,131,57,11,17,6,2,39,20,11,11,0,214
11,25,68,24,34,12,0,128,33,2,13,15,2,24,9,4,16,4,180
18,19,134,22,48,16,11,123,19,12,19,10,1,41,10,5,15,0,259
5,2,15,4,8,3,0,14,1,3,3,2,4,5,3,6,4,0,20
5,8,58,6,21,3,0,42,4,5,9,3,7,12,2,4,6,0,91
3,0,29,1,14,2,8,32,0,1,0,1,1,6,0,6,4,0,70
28,56,166,23,93,23,0,247,103,19,22,10,9,40,5,28,16,5,379
9,7,88,5,22,6,23,136,5,12,5,7,5,24,5,2,8,0,223
4,3,26,4,5,5,0,32,0,3,6,0,0,5,1,5,2,9,48
23,38,304,21,81,16,11,216,19,14,20,6,23,89,8,22,33,0,476
13,30,105,6,19,13,0,112,27,8,7,5,1,36,5,8,8,7,186
7,5,81,3,18,2,0,40,2,4,5,1,0,26,4,4,15,5,90
2,3,26,2,5,1,4,42,0,0,1,0,1,2,3,1,3,0,74
12,24,116,18,54,10,13,108,29,8,16,15,4,41,7,8,10,0,217
29,37,134,18,48,17,0,154,60,2,9,2,2,32,3,11,15,22,279
4,15,90,6,13,2,0,66,11,5,7,1,2,40,3,1,7,2,117
14,10,122,21,41,6,15,168,10,13,14,1,10,29,24,9,11,0,276
2,3,10,6,17,3,0,61,4,0,7,0,0,6,10,2,1,0,72
13,11,57,8,12,5,0,78,1,9,4,1,0,23,11,2,5,3,125
7,4,86,7,23,4,20,85,4,10,13,3,3,12,1,1,10,0,179
21,20,270,13,67,7,0,430,6,24,19,7,9,80,12,8,23,17,623
4,2,71,0,13,4,0,48,2,5,2,2,3,18,12,4,9,2,83
25,9,108,8,55,21,9,163,9,6,15,9,9,26,17,8,17,0,282
2,4,37,8,8,4,9,54,1,2,11,0,1,16,4,1,12,0,78
41,46,311,42,113,25,30,598,17,26,44,12,9,77,21,17,46,0,937
27,27,296,36,85,28,0,418,13,30,25,12,10,43,18,22,55,9,680
22,10,191,7,36,11,0,225,10,17,13,2,3,29,0,11,22,5,390
13,2,63,20,23,16,18,79,0,6,16,9,2,20,4,4,14,0,159
16,17,149,19,93,15,5,174,16,15,20,4,19,48,11,12,17,0,326
48,78,318,59,151,18,12,435,53,34,40,14,24,86,29,31,32,0,776
3,6,28,9,7,1,0,13,7,3,1,0,0,13,4,0,1,3,35
11,31,124,23,26,12,0,213,35,3,11,5,9,16,7,4,20,12,318
26,36,151,31,63,15,0,156,48,10,25,7,3,34,6,11,18,6,310
4,1,35,6,20,10,0,20,4,2,17,2,0,10,1,7,2,2,49
28,19,184,28,44,17,16,225,9,15,20,15,11,53,11,17,18,0,392
21,36,130,15,61,15,4,174,45,13,16,11,2,47,6,6,11,0,299
5,6,44,7,25,6,1,70,14,2,6,10,4,13,6,3,9,0,97
8,6,121,9,26,8,7,146,10,13,11,2,6,30,12,7,17,0,223
17,15,87,8,44,10,0,135,5,4,13,3,4,27,11,11,7,4,227
4,9,25,2,2,1,5,21,8,0,4,0,0,13,7,0,5,0,32
49,72,296,49,143,39,24,327,61,12,21,11,18,80,29,67,40,0,660
10,15,95,7,35,7,0,161,5,9,9,2,6,24,4,3,6,2,260
29,45,217,40,102,13,11,250,40,14,26,24,11,63,21,18,24,0,466
36,45,168,23,67,18,0,229,33,6,11,12,6,56,6,8,14,1,433
4,2,20,8,9,2,0,18,9,2,1,0,3,8,2,6,6,5,21
31,91,299,37,92,16,3,343,66,10,29,15,21,77,28,28,21,0,617
6,22,79,3,19,3,0,78,22,2,6,0,4,29,3,0,4,3,137
23,56,190,33,114,24,0,238,18,14,27,8,15,54,34,21,32,9,446
11,16,89,14,19,4,11,77,18,7,30,3,5,34,4,6,6,0,128
7,18,92,12,30,6,0,80,9,1,2,4,4,24,6,10,14,0,171
4,1,33,2,3,3,5,53,2,0,2,3,0,8,0,2,0,0,87
35,53,210,30,91,18,0,348,25,15,31,17,10,28,15,12,21,5,606
5,9,47,12,17,5,4,45,5,0,4,0,6,7,4,2,13,0,103
2,8,29,4,15,1,2,19,4,4,5,0,2,6,1,1,8,0,49
5,4,57,4,17,2,0,60,1,1,1,0,6,18,3,2,2,8,107
2,2,11,0,10,2,3,11,2,1,3,0,2,3,3,12,2,0,13
5,7,83,16,25,12,6,80,4,2,7,4,4,22,6,7,8,0,170
9,19,81,17,27,4,7,95,21,12,3,3,0,25,8,3,2,0,182
8,20,62,6,27,8,6,85,19,2,10,5,4,40,1,11,10,0,120
19,18,90,17,56,10,0,74,27,11,10,9,7,20,25,14,7,9,145
5,12,28,9,11,2,1,15,8,0,7,2,1,10,12,4,3,0,36
4,7,55,7,14,11,0,26,6,0,7,0,2,19,17,10,9,1,53
33,86,305,53,209,33,10,319,54,22,47,20,35,109,64,45,30,0,622
24,70,213,30,85,30,0,237,74,23,29,9,25,47,30,42,34,22,354
3,11,30,8,16,6,0,24,4,1,13,1,2,10,4,2,5,5,51
4,20,83,11,42,9,0,90,27,3,12,4,6,22,21,4,10,9,141
1,22,71,7,28,0,7,91,7,7,16,3,5,15,24,8,1,0,141
6,17,51,15,20,5,5,56,13,3,9,4,7,14,16,7,6,0,96
5,8,42,7,21,2,0,19,5,0,3,0,1,11,42,2,1,0,39
9,15,32,2,25,10,7,29,12,2,5,2,7,12,14,11,4,0,60
1,12,11,4,10,0,0,8,12,0,2,0,2,5,7,2,1,6,9
53,76,360,57,159,60,0,334,45,18,41,9,37,84,113,44,34,6,668
14,38,46,19,22,6,6,35,37,3,17,1,5,11,36,5,2,0,69
10,22,71,13,56,15,15,61,22,11,15,7,1,9,32,12,6,0,148
8,12,45,17,21,4,4,42,19,2,4,1,5,18,5,9,6,0,84
4,6,23,6,2,1,0,24,5,0,4,1,2,6,5,0,1,4,38
1,2,9,5,7,2,4,2,2,0,4,0,2,5,8,2,2,0,7
3,11,15,4,18,0,11,16,6,3,8,1,4,3,12,2,3,0,36
3,17,23,3,13,3,0,21,10,0,4,1,2,8,8,4,0,9,37
8,54,70,22,70,7,4,62,41,2,12,8,6,20,26,10,9,0,163
