OBEC,OKRSEK,VOLICI,HLASY,HLASY_1,HLASY_2,HLASY_3,HLASY_4,HLASY_5,HLASY_6,HLASY_7,HLASY_8,HLASY_9
503410,1,150,89,1,15,8,3,0,5,38,7,12
505781,1,580,373,26,46,41,4,1,2,107,29,117
512991,1,143,103,4,11,3,2,1,1,31,10,40
513032,1,353,186,5,10,15,1,2,0,92,30,31
513041,1,498,378,24,34,39,9,3,1,132,28,108
513075,1,290,157,6,19,4,1,1,0,61,23,42
513113,1,198,143,10,19,8,3,1,1,42,13,46
513130,1,196,137,9,18,8,4,0,0,33,17,48
513148,1,132,85,1,4,3,3,0,0,45,2,27
513164,1,291,210,6,18,15,3,0,0,92,25,51
513181,1,104,74,1,4,3,0,0,2,31,8,25
513202,1,94,60,2,5,1,0,1,0,34,5,12
513237,1,143,93,4,21,4,4,0,1,28,5,26
513261,1,197,129,10,13,11,1,0,0,60,11,23
513270,1,150,108,2,10,7,0,0,2,60,11,16
513288,1,126,79,5,5,3,1,0,1,34,7,23
513369,1,220,167,11,28,11,1,0,0,56,17,43
513393,1,353,234,8,24,20,3,0,0,87,23,69
513415,1,172,116,1,15,6,0,2,0,42,13,37
513423,1,285,188,5,18,20,0,0,0,72,10,63
513431,1,289,221,22,22,26,1,3,0,44,17,86
513458,1,1453,1070,82,120,162,15,4,9,228,98,352
513482,1,162,126,10,9,14,3,0,0,41,19,30
513504,1,312,211,6,25,23,4,2,0,76,10,65
513512,1,249,192,3,13,10,0,0,0,57,5,104
513521,1,152,99,4,17,4,1,1,0,37,8,27
513539,1,143,103,8,17,5,0,0,0,32,13,28
513547,1,263,191,6,18,20,3,3,0,60,24,57
513555,1,166,119,3,9,14,2,0,2,47,13,29
513571,1,133,96,3,9,6,0,1,1,37,8,31
513580,1,212,131,3,11,8,1,0,0,49,8,51
513628,1,200,142,11,26,11,1,0,0,43,17,33
513644,1,222,157,7,27,24,2,0,1,31,19,46
526622,1,247,182,5,13,12,5,0,0,91,14,42
528196,1,161,124,22,8,8,1,0,0,49,6,30
529303,23,119,91,2,9,12,2,0,0,25,9,32
529303,22,189,136,3,17,14,2,1,2,46,8,43
529303,21,164,129,6,15,16,1,0,0,45,13,33
529303,20,99,86,3,5,11,2,3,2,27,8,25
529303,19,849,638,29,61,65,8,1,2,203,71,198
529303,18,831,609,10,64,58,8,3,2,209,61,194
529303,17,863,588,22,61,65,6,6,6,188,66,168
529303,16,495,320,17,23,33,2,1,1,121,22,100
529303,15,753,543,24,48,77,10,4,4,172,51,153
529303,9,659,419,3,47,39,4,0,2,166,41,117
529303,8,508,316,7,30,17,2,2,4,130,39,85
529303,7,696,472,17,44,54,5,3,1,147,45,156
529303,14,625,412,21,38,54,4,0,2,120,45,128
529303,13,512,358,29,30,42,5,0,3,113,23,113
529303,12,499,354,21,36,41,4,1,0,94,32,125
529303,11,189,124,7,13,12,0,0,2,38,16,36
529303,10,552,353,13,32,22,7,3,3,148,30,95
529303,6,526,346,5,28,38,6,3,4,141,24,97
529303,5,716,453,30,53,52,8,0,2,133,43,132
529303,4,811,531,19,47,76,6,3,2,200,48,130
529303,3,543,359,11,46,26,1,4,1,158,30,82
529303,2,972,645,37,52,69,13,3,4,233,62,172
529303,1,888,306,18,32,25,6,7,2,110,26,80
529451,10,206,148,3,11,13,2,0,2,78,14,25
529451,9,370,239,13,44,25,0,1,5,87,22,42
529451,8,160,112,5,15,6,0,1,0,41,8,36
529451,7,247,170,7,15,16,1,1,0,65,19,46
529451,6,267,174,7,24,14,2,0,0,57,16,54
529451,5,101,78,0,6,6,0,2,0,42,7,15
529451,4,360,258,8,21,37,9,3,1,107,21,51
529451,3,379,243,7,19,29,2,5,0,103,21,57
529451,2,769,433,12,33,50,10,3,1,151,47,126
529451,1,633,424,22,35,41,10,5,3,166,43,99
529478,1,93,73,3,4,12,0,0,0,18,5,31
529486,6,79,63,3,0,7,2,0,1,36,4,10
529486,5,83,60,4,5,6,1,0,0,15,15,14
529486,4,67,52,5,1,12,0,1,3,19,1,10
529486,3,42,30,1,4,2,0,2,0,18,2,1
529486,2,50,42,1,3,5,1,0,0,23,5,4
529486,1,814,547,23,35,85,9,3,6,190,60,136
529516,2,850,592,40,53,56,9,8,3,185,45,193
529516,1,1314,876,53,91,100,15,5,3,258,80,271
529524,1,33,28,0,0,1,0,0,0,9,0,18
529532,1,256,196,11,27,23,3,0,2,46,24,60
529541,1,124,75,3,6,11,2,0,0,28,7,18
529559,1,97,71,3,2,3,0,0,0,30,5,28
529567,1,500,373,25,41,51,9,3,0,93,31,120
529575,1,115,60,3,3,6,4,0,0,21,5,18
529583,1,116,58,4,5,3,3,0,0,23,10,10
529591,1,192,115,3,17,16,2,2,3,28,13,31
529605,1,209,149,2,9,7,0,1,0,82,11,37
529613,1,330,169,2,22,10,8,1,1,53,18,54
529621,5,98,59,2,5,9,2,1,4,24,3,9
529621,4,60,48,5,3,3,1,0,0,23,4,9
529621,3,57,39,2,5,7,0,0,0,8,0,17
529621,2,85,59,3,11,1,0,1,1,16,9,17
529621,1,1017,680,20,68,85,6,4,5,241,65,186
529630,1,259,169,13,20,16,3,1,0,63,14,39
529648,1,725,493,14,41,37,7,2,1,217,60,114
529656,1,169,113,9,7,12,4,3,1,22,13,42
529664,1,58,26,2,2,5,0,0,0,11,3,3
529672,1,128,100,2,13,3,1,1,0,45,6,29
529681,1,98,69,0,14,3,0,2,1,29,5,15
529699,1,57,40,1,4,1,0,0,0,27,0,7
529702,3,103,68,1,3,6,1,0,1,37,4,15
529702,2,366,230,10,15,22,1,2,2,109,17,52
529702,1,95,72,1,8,6,1,1,2,33,2,18
529711,1,62,38,0,1,4,0,0,0,18,0,15
529737,1,232,161,6,12,12,1,0,4,64,25,37
529745,1,261,176,11,18,11,7,1,0,63,11,54
529770,1,112,93,4,3,4,2,0,2,53,7,18
529788,1,113,96,5,3,35,2,1,0,15,7,28
529796,2,114,81,1,9,6,0,0,2,38,3,22
529796,1,850,556,38,76,46,3,3,2,188,44,156
529818,1,429,291,10,23,29,3,3,0,95,37,91
529842,2,182,79,1,4,14,1,0,0,45,9,5
529842,1,568,345,8,22,14,5,1,2,137,44,112
529851,1,107,76,0,7,12,1,1,0,24,11,20
529907,1,150,101,6,4,6,3,0,0,51,7,24
529931,1,391,284,9,16,44,4,1,1,108,29,72
529940,1,249,190,6,26,19,2,4,3,65,10,55
529958,2,114,76,2,1,5,0,0,0,51,1,16
529958,1,656,464,29,44,55,4,1,2,133,46,150
529974,3,144,109,5,14,14,4,0,0,37,9,26
529974,2,59,45,2,5,7,0,0,0,18,1,12
529974,1,151,100,7,6,14,1,2,0,32,4,34
529991,1,316,220,9,16,29,2,3,0,94,26,41
529991,4,123,102,3,4,7,1,2,1,42,12,30
529991,3,130,104,5,7,6,0,1,2,53,9,21
529991,2,43,37,0,3,5,1,1,0,8,5,14
530000,1,348,230,7,29,31,4,1,0,67,20,71
530026,1,67,56,1,3,5,0,0,1,19,1,26
530051,1,563,352,10,29,39,4,1,2,141,44,82
530069,1,152,111,1,2,9,4,2,0,66,5,22
530093,5,134,91,3,2,11,1,0,1,40,10,23
530093,4,88,73,1,3,7,1,0,0,32,8,21
530093,3,56,44,0,2,4,1,0,1,21,3,12
530093,2,66,49,1,4,5,0,0,0,18,3,18
530093,1,131,103,8,11,21,1,1,1,27,8,25
530107,1,559,361,17,22,48,3,1,1,151,27,91
530115,3,116,92,1,8,3,0,0,0,42,17,21
530115,2,197,137,2,5,9,2,0,2,42,20,55
530115,1,299,201,7,11,23,3,1,2,86,21,47
530158,1,300,225,12,13,9,4,5,1,94,18,69
530166,2,108,68,1,3,4,1,1,2,28,13,15
530166,1,584,377,6,43,34,8,1,3,136,41,105
530174,1,148,95,5,3,19,2,0,0,34,7,25
530191,1,184,133,5,7,19,0,0,0,73,12,17
530204,1,625,430,24,41,56,2,5,1,139,39,123
530212,1,878,501,19,55,54,7,7,0,209,45,105
530263,2,152,107,8,13,7,3,1,0,30,9,36
530263,1,386,285,14,26,23,2,1,0,96,33,90
530298,1,896,577,18,49,55,8,7,0,230,61,149
530301,1,412,256,5,15,21,3,1,0,123,24,64
530310,6,111,68,3,3,6,0,0,1,23,4,28
530310,5,195,133,4,13,10,1,0,0,53,17,35
530310,4,185,117,7,18,14,2,0,0,31,17,28
530310,3,128,95,5,19,10,2,0,0,41,2,16
530310,2,709,384,8,28,32,4,0,0,169,45,98
530310,1,723,455,17,44,52,10,4,3,151,43,131
530344,3,753,510,16,47,46,8,2,3,213,46,129
530344,2,118,87,3,2,6,0,0,1,44,3,28
530344,1,104,83,3,7,2,0,0,1,36,12,22
530352,2,59,45,1,4,4,0,0,1,11,4,20
530352,1,232,158,6,8,18,1,0,0,50,19,56
530409,1,245,166,10,16,18,2,0,3,42,18,57
530441,1,988,657,37,72,55,4,4,2,214,62,207
530450,1,1035,665,31,50,58,7,2,8,280,59,170
530476,1,450,306,12,29,18,13,1,4,127,26,76
530492,1,287,218,15,22,14,0,0,0,84,16,67
530514,1,114,67,2,3,10,1,0,1,21,7,22
530522,1,239,153,11,15,8,0,1,0,58,7,53
530531,1,292,200,12,12,39,0,0,0,76,11,50
530549,1,139,107,6,7,16,4,0,1,34,12,27
530573,9,102,76,6,6,5,1,1,0,36,6,15
530573,8,136,95,5,11,10,2,0,0,40,4,23
530573,7,201,132,7,12,13,3,1,2,56,4,34
530573,6,94,63,2,12,11,1,0,0,20,3,14
530573,5,117,65,2,1,10,1,1,0,19,6,25
530573,4,143,105,5,11,10,3,1,0,30,13,32
530573,3,209,134,2,9,17,3,0,0,48,14,41
530573,2,470,315,13,22,23,9,2,4,130,22,90
530573,1,849,571,30,47,67,15,5,0,202,52,153
530573,10,51,34,0,4,2,0,0,0,14,5,9
530611,1,229,151,2,9,5,1,0,1,80,17,36
530638,1,319,233,10,21,34,7,2,0,67,27,65
530689,2,206,160,7,16,19,1,0,3,54,7,53
530689,1,464,317,20,29,17,4,3,2,145,23,74
530701,1,274,185,6,23,13,3,2,1,88,12,37
530719,1,82,59,3,1,7,0,0,0,29,3,16
530743,1,169,128,1,12,2,1,1,2,74,12,23
530751,1,250,172,7,10,23,2,5,2,69,12,42
530760,1,372,290,10,26,44,4,5,1,93,33,74
530778,1,172,145,4,9,9,2,0,2,68,9,42
530816,1,1039,665,26,56,84,9,4,3,262,49,172
530832,1,99,71,4,8,3,1,1,0,34,6,14
530841,12,177,121,5,9,16,2,1,1,39,14,34
530841,11,158,116,2,16,2,4,0,2,49,6,35
530841,10,143,107,2,10,12,0,0,0,41,8,34
530841,9,290,216,8,26,20,2,0,0,101,20,39
530841,8,325,204,12,21,24,2,0,3,63,18,61
530841,7,227,159,8,24,12,2,0,0,44,15,54
530841,6,360,252,13,24,21,2,4,0,102,19,67
530841,5,311,187,16,22,11,1,2,1,56,12,66
530841,4,690,423,11,22,26,7,1,6,197,33,120
530841,3,566,353,13,27,26,4,3,4,168,30,78
530841,2,682,375,21,48,27,6,2,1,139,30,101
530841,1,568,390,25,36,38,5,2,0,161,35,88
530859,1,219,154,13,9,9,1,3,0,80,5,34
530867,1,266,195,8,26,14,1,1,0,89,21,35
530875,1,125,78,1,4,5,0,0,0,37,5,26
530883,7,893,588,15,38,54,1,1,0,286,42,151
530883,6,665,397,12,34,39,5,2,1,175,37,92
530883,5,833,496,14,26,63,4,2,7,220,48,112
530883,4,1351,653,25,60,88,6,5,2,272,61,134
530883,3,980,665,30,53,99,3,1,6,246,73,154
530883,2,490,334,8,26,49,5,1,2,138,32,73
530883,1,913,614,14,66,71,7,6,2,229,57,162
530883,13,323,215,3,18,12,1,2,3,123,18,35
530883,12,75,57,3,7,5,0,0,0,25,1,16
530883,11,661,425,12,45,72,6,2,0,156,41,91
530883,10,903,601,29,48,56,7,3,3,255,49,151
530883,9,770,422,11,29,55,2,1,3,199,47,75
530883,8,614,406,14,34,70,4,0,1,162,30,91
530891,1,419,268,7,24,15,1,2,2,127,31,59
530905,2,874,564,19,58,68,7,4,3,229,46,130
530905,1,1024,565,15,61,49,8,1,3,231,56,141
530905,4,132,93,3,9,13,1,0,2,24,13,28
530905,3,1273,827,33,77,109,13,6,2,310,92,185
530905,7,116,73,7,3,0,2,1,1,36,1,22
530905,6,113,68,7,8,11,4,0,0,18,11,9
530905,5,88,61,2,8,3,1,1,0,19,8,19
530913,1,316,221,3,15,27,2,1,0,88,23,62
530921,1,330,257,11,29,25,0,0,2,88,28,74
530930,1,119,67,3,6,4,4,3,0,30,4,13
530948,1,778,515,14,32,38,3,4,1,224,51,148
530956,1,109,77,4,4,11,0,0,1,24,14,19
530964,1,25,22,3,3,6,0,0,0,7,0,3
530972,1,88,48,0,2,1,1,0,0,32,4,8
530981,1,201,98,1,6,3,0,0,0,44,21,23
530999,1,320,191,3,13,5,3,1,0,87,25,54
531014,1,71,55,2,5,1,3,0,0,32,2,10
531022,1,463,328,8,20,45,10,3,2,145,28,67
531031,1,122,87,3,5,11,1,0,2,33,3,29
531049,1,304,180,8,17,19,1,1,3,78,16,37
531057,13,707,442,20,53,46,6,3,3,179,44,88
531057,12,780,403,11,48,28,5,2,2,187,23,97
531057,11,974,663,34,84,85,12,2,7,185,55,199
531057,10,877,540,27,70,61,6,3,4,159,37,173
531057,9,787,426,19,67,41,4,1,2,150,28,114
531057,8,883,592,18,72,70,9,3,2,178,58,182
531057,7,711,447,20,50,50,9,2,2,124,43,147
531057,6,785,508,20,56,54,10,5,3,185,42,133
531057,5,817,526,26,59,47,9,2,5,163,56,159
531057,4,1024,772,67,73,76,9,1,3,220,92,231
531057,3,984,729,39,79,83,5,8,1,232,61,221
531057,2,865,550,46,82,44,5,1,1,144,41,186
531057,19,217,150,11,12,21,0,1,0,54,15,36
531057,18,168,121,12,16,10,0,1,0,49,6,27
531057,1,1569,605,46,84,61,9,8,4,186,54,153
531057,17,512,302,13,35,18,8,1,1,112,31,83
531057,16,80,60,1,2,7,6,0,0,17,9,18
531057,15,1113,809,47,102,95,7,9,2,248,69,230
531057,14,910,633,24,71,50,7,2,4,189,69,217
531065,1,114,85,3,14,3,0,0,0,37,6,22
531073,1,260,143,6,8,8,1,2,0,64,16,38
531081,1,734,529,18,44,52,8,5,6,213,45,138
531090,1,248,190,10,31,11,1,3,1,62,14,57
531103,1,366,248,17,30,32,7,0,2,57,24,79
531111,1,157,99,2,12,5,1,2,0,49,9,19
531120,1,361,248,1,26,34,6,2,1,99,22,57
531138,1,904,609,30,62,52,11,1,5,243,53,152
531146,1,653,463,28,62,64,5,6,2,106,46,144
531154,1,599,431,16,44,30,8,5,2,178,35,113
531162,1,215,150,6,16,6,1,0,3,64,13,41
531171,1,756,567,37,74,84,8,4,1,96,55,208
531189,4,1096,650,19,80,71,8,3,0,253,40,176
531189,3,1243,855,58,73,73,4,3,10,344,56,234
531189,2,896,559,39,60,63,9,4,3,200,37,144
531189,1,1116,555,26,69,42,11,3,4,214,40,146
531197,1,455,329,15,32,42,8,1,0,105,35,91
531201,2,216,149,8,9,6,3,1,2,73,17,30
531201,1,1118,696,49,88,53,12,5,2,223,80,184
531219,1,298,199,11,27,13,1,0,1,72,13,61
531227,1,982,655,19,81,33,16,1,3,279,64,159
531235,1,210,144,1,9,10,3,0,0,65,16,40
531243,1,1343,905,48,115,108,17,5,5,260,118,229
531251,1,420,311,16,24,18,2,2,0,114,37,98
531260,1,75,49,2,2,5,0,0,0,30,3,7
531278,1,163,111,0,15,9,2,0,0,30,15,40
531286,1,326,225,6,22,17,5,1,0,101,14,59
531294,1,1437,932,45,93,100,11,7,1,321,86,268
531308,1,155,110,6,8,5,0,1,0,50,15,25
531316,1,662,469,30,51,49,5,2,2,137,53,140
531324,2,907,567,18,62,50,8,1,2,262,43,121
531324,1,1031,665,33,75,44,11,1,5,274,48,174
531332,1,184,126,15,11,11,1,1,3,41,9,34
531341,1,328,225,9,15,8,0,3,2,134,18,36
531359,1,321,199,9,21,15,3,0,1,76,30,44
531367,1,103,67,0,1,2,1,0,1,39,7,16
531375,1,525,361,13,28,29,10,2,2,127,41,109
531383,1,71,47,5,2,11,1,0,0,20,3,5
531391,1,63,41,1,1,0,0,0,1,20,3,15
531405,1,149,93,2,9,12,1,0,0,28,7,34
531413,1,101,75,4,11,0,0,0,0,43,4,13
531421,1,83,61,1,3,10,2,1,0,22,9,13
531430,1,330,216,13,14,14,2,1,3,115,19,35
531448,1,428,271,15,25,25,6,4,1,117,23,55
531456,2,110,85,7,11,11,0,1,1,25,6,23
531456,1,773,462,21,44,54,6,3,1,173,44,116
531464,1,1370,897,44,111,97,4,1,5,294,83,258
531472,1,912,554,14,60,48,10,4,5,226,58,129
531481,1,155,100,3,6,3,3,0,0,54,2,29
531499,1,237,153,13,20,6,1,1,0,57,19,36
531502,1,377,218,6,11,8,1,3,2,98,35,54
531511,1,406,240,19,27,25,3,0,1,62,22,81
531529,1,241,121,4,9,10,1,0,0,33,11,53
531537,1,427,328,17,49,30,5,3,1,71,28,124
531545,2,72,54,2,2,6,0,0,1,22,1,20
531545,1,542,383,29,48,38,4,3,1,109,48,103
531553,1,246,171,9,11,17,1,3,1,73,12,44
531561,1,551,329,14,31,26,6,2,0,139,30,81
531570,1,146,102,6,16,4,1,0,0,27,8,40
531588,1,432,260,16,24,20,3,2,1,96,21,77
531596,3,206,153,13,29,9,1,0,1,44,12,44
531596,2,268,174,6,33,22,4,0,0,40,19,50
531596,1,1123,706,19,95,77,11,3,3,237,70,191
531600,1,535,378,15,48,36,7,4,1,140,29,98
531618,1,1536,1072,59,147,141,11,7,5,202,116,384
531626,1,343,229,5,23,13,3,5,3,89,28,60
531634,1,631,446,14,33,49,3,2,5,186,39,115
531642,1,287,198,4,8,21,2,2,3,75,8,75
531651,1,71,45,0,10,3,0,0,1,18,3,10
531669,1,411,295,9,26,22,2,4,2,122,28,80
531677,1,113,69,5,7,4,1,1,1,23,4,23
531685,1,527,342,10,34,19,4,0,2,144,33,96
531693,1,681,477,28,48,36,10,6,3,189,52,105
531707,1,159,111,5,13,8,0,1,1,30,15,38
531715,1,399,277,8,35,33,3,3,0,101,30,64
531723,2,1263,870,50,102,104,12,2,5,200,74,321
531723,1,1184,771,43,77,99,11,5,4,189,78,265
531723,3,1164,897,64,130,133,11,3,10,135,81,330
531731,1,166,95,2,7,4,2,1,0,51,6,22
531740,1,380,266,17,31,29,1,1,0,95,18,74
531758,1,421,294,15,32,28,8,1,1,73,26,110
531766,1,353,221,9,20,23,3,0,0,95,16,55
531774,1,112,83,2,7,8,0,0,2,44,8,12
531782,1,364,233,5,29,18,0,2,1,107,8,63
531791,1,397,270,15,25,14,4,1,0,117,16,78
531804,1,151,116,9,5,22,3,0,1,25,9,42
531812,1,550,407,33,54,61,8,2,0,77,35,137
531821,1,760,500,20,56,70,6,3,3,121,68,153
531839,1,678,486,24,51,44,5,1,6,170,48,137
531847,1,748,522,9,55,40,7,2,3,219,56,131
531855,1,903,517,14,69,38,7,5,6,213,43,122
531863,1,224,162,5,30,7,3,3,0,47,14,53
531871,1,178,135,10,18,10,0,0,0,55,14,28
531880,1,159,121,4,19,9,5,1,0,42,8,33
531898,1,228,178,9,26,9,2,1,2,48,25,56
531901,1,510,357,11,22,45,3,9,3,129,34,101
531910,2,154,119,5,11,16,1,1,0,31,5,49
531910,1,183,123,9,16,14,0,1,3,30,9,41
531928,1,266,163,4,12,16,1,2,0,70,11,47
531936,1,128,79,2,13,12,1,0,0,34,5,12
531944,1,913,602,25,79,49,1,11,3,202,56,176
531952,1,340,215,4,20,44,2,3,2,63,15,62
531961,3,85,57,3,6,7,0,0,0,19,6,16
531961,2,151,99,2,14,4,0,0,1,36,9,33
531961,1,349,256,8,34,23,1,2,4,58,33,93
531979,1,671,500,24,55,70,12,0,2,127,37,173
531987,1,73,55,0,6,0,1,0,0,24,3,21
531995,1,1172,763,45,66,52,6,8,3,334,73,176
532002,1,396,252,4,24,11,5,1,1,117,32,57
532011,5,137,92,0,15,15,2,0,2,25,7,26
532011,4,156,108,4,20,6,3,0,0,37,10,28
532011,3,1064,611,18,67,56,4,1,3,216,39,207
532011,2,817,508,23,31,36,7,2,1,218,41,149
532011,1,1049,677,38,61,50,9,3,2,255,69,190
532029,1,1638,1078,31,100,109,14,7,5,435,92,285
532037,1,191,136,5,21,13,1,1,0,52,7,36
532045,1,283,202,15,32,13,2,3,3,52,21,61
532053,20,876,564,11,57,43,8,6,3,212,61,163
532053,19,774,506,25,50,58,4,0,0,175,45,149
532053,18,887,517,26,60,57,9,2,3,154,51,155
532053,17,5001,872,60,121,101,8,4,3,235,94,246
532053,16,808,480,22,56,61,6,6,3,167,46,113
532053,15,1007,578,30,43,49,9,3,0,193,60,191
532053,14,597,374,31,29,38,7,3,0,123,26,117
532053,13,812,452,18,44,31,7,4,1,198,40,109
532053,12,875,551,35,53,29,6,2,2,263,53,108
532053,11,1303,901,35,105,91,8,3,1,288,100,270
532053,57,1009,664,27,71,41,10,1,3,317,43,151
532053,32,905,534,22,32,55,7,6,3,208,55,146
532053,31,916,495,20,45,28,8,4,3,239,39,109
532053,30,1042,550,19,58,44,9,8,3,226,55,128
532053,29,918,622,33,68,68,4,1,3,227,51,167
532053,28,927,531,16,55,40,17,3,1,208,37,154
532053,27,599,348,15,23,22,3,0,1,165,27,92
532053,10,950,645,40,66,69,8,4,2,202,54,200
532053,9,865,552,20,67,63,7,4,4,185,56,146
532053,8,817,468,15,44,55,13,1,3,171,43,123
532053,7,876,454,17,43,34,4,4,3,202,51,96
532053,6,747,441,16,51,47,3,1,1,184,38,100
532053,5,837,409,20,36,37,4,1,1,160,39,111
532053,4,1050,624,23,55,50,10,6,2,232,57,189
532053,26,825,557,22,58,55,11,2,2,174,57,176
532053,25,694,458,14,41,47,6,2,2,173,50,123
532053,24,752,454,26,58,45,4,3,2,149,33,134
532053,23,686,430,9,38,37,5,0,7,185,40,109
532053,22,701,421,7,40,24,8,2,3,177,51,109
532053,21,897,534,30,53,63,6,0,1,199,46,136
532053,3,976,591,25,66,54,7,5,4,204,62,164
532053,2,1026,708,25,79,70,9,4,6,245,61,209
532053,1,1094,723,35,81,70,10,2,5,245,53,222
532053,56,959,514,14,45,33,17,8,3,207,47,140
532053,55,1103,701,39,65,56,13,5,2,277,74,170
532053,54,875,524,35,44,41,6,3,1,243,33,118
532053,53,571,318,7,23,27,5,4,1,119,32,100
532053,52,756,356,14,32,28,5,3,2,144,47,81
532053,51,320,182,4,19,6,5,2,2,98,9,37
532053,50,974,531,14,57,35,17,2,1,226,50,129
532053,49,907,512,19,60,51,18,4,3,198,42,117
532053,48,1191,625,12,63,62,9,6,2,290,55,126
532053,47,798,404,12,42,25,4,5,1,181,43,91
532053,46,914,433,11,42,43,11,2,3,178,39,104
532053,45,927,564,27,54,30,7,0,0,276,41,129
532053,44,805,437,9,39,19,5,4,2,205,47,107
532053,43,839,505,18,43,53,16,1,1,205,41,127
532053,42,779,451,8,30,41,5,2,1,217,47,100
532053,41,919,450,16,47,29,7,2,1,197,45,106
532053,40,810,450,17,38,34,1,4,1,220,40,95
532053,39,1313,682,25,77,46,17,5,3,258,65,186
532053,38,912,418,14,34,44,5,0,2,182,35,102
532053,37,812,459,21,31,35,3,4,0,213,47,105
532053,36,717,367,16,22,44,6,2,1,128,39,109
532053,35,736,422,19,38,37,8,1,3,182,34,100
532053,34,795,478,21,53,45,11,4,1,200,33,110
532053,33,749,449,18,46,33,3,4,2,187,51,105
532061,1,458,293,16,16,26,3,2,2,118,26,84
532070,1,135,109,5,12,17,1,2,0,32,11,29
532088,1,265,154,7,21,14,7,2,0,41,17,45
532096,1,73,54,0,11,3,0,0,0,17,4,19
532100,1,242,154,1,14,14,1,1,1,76,10,36
532118,1,1448,935,31,80,83,9,5,3,383,112,229
532126,1,839,603,45,84,46,6,2,1,165,60,194
532134,1,103,71,2,4,13,1,0,0,30,3,18
532142,2,98,79,5,8,15,2,0,0,29,5,15
532142,1,640,393,19,41,34,4,3,2,153,29,108
532151,1,70,55,9,3,9,2,0,0,14,5,13
532169,2,1264,815,62,114,94,24,4,7,185,94,231
532169,1,1222,847,39,98,110,11,1,4,280,72,232
532177,1,477,299,14,42,28,5,1,0,128,24,57
532185,1,558,354,21,38,31,8,3,2,128,29,94
532193,2,159,124,6,21,18,2,0,1,28,9,39
532193,1,167,107,5,19,7,1,0,0,40,10,25
532207,3,154,84,1,12,4,0,2,0,33,12,20
532207,2,148,101,3,12,7,1,1,0,39,11,27
532207,1,499,266,8,30,14,7,5,1,110,30,61
532215,1,970,684,34,70,64,10,8,3,185,79,231
532223,1,1268,867,54,129,78,12,5,9,274,93,213
532231,1,30,24,0,3,2,1,0,0,11,3,4
532258,1,51,35,0,4,7,1,0,0,11,3,9
532266,1,85,64,2,3,8,1,0,0,20,7,23
532274,1,830,587,35,47,44,10,1,1,204,74,171
532282,1,360,224,11,20,19,1,0,1,91,31,50
532291,1,255,155,3,23,6,2,1,0,87,11,22
532304,1,82,65,6,11,7,0,0,0,23,9,9
532312,1,482,380,24,37,31,2,0,1,117,46,122
532321,1,215,159,6,12,11,2,0,1,64,18,45
532339,1,411,199,7,23,11,2,4,0,102,20,30
532347,1,922,626,27,83,63,13,7,2,183,47,201
532355,2,80,55,2,10,2,0,0,1,21,8,11
532355,1,327,225,5,31,20,0,3,2,66,29,69
532363,1,393,256,9,16,26,4,1,1,93,36,70
532371,1,1531,999,41,120,88,21,4,3,310,101,311
532380,1,96,83,8,5,6,0,0,0,41,7,16
532398,1,198,112,0,11,8,0,0,0,50,13,30
532401,1,227,153,3,16,6,0,1,0,73,23,31
532410,1,309,205,6,24,16,6,2,1,71,25,54
532428,1,208,137,0,15,18,1,0,0,46,14,43
532436,1,88,68,2,8,9,1,2,1,23,4,18
532444,1,974,618,20,83,45,10,2,4,251,50,153
532452,1,1421,950,29,111,66,11,4,3,375,124,227
532461,2,96,71,0,8,3,2,0,1,35,9,13
532461,1,721,375,10,33,25,9,0,3,192,31,72
532479,1,222,134,2,16,4,1,2,1,57,27,24
532487,1,441,290,16,30,24,5,2,2,121,23,67
532495,1,479,267,3,37,23,3,1,1,116,21,62
532509,1,47,36,2,4,3,1,0,0,15,2,9
532517,1,64,44,1,4,2,2,0,0,22,2,11
532525,1,495,344,42,40,26,11,1,0,103,24,97
532533,1,384,236,4,10,16,1,0,2,121,27,55
532541,1,107,76,1,6,6,2,0,1,43,3,14
532550,1,239,152,4,10,4,0,1,0,62,28,43
532568,1,193,147,1,3,29,1,0,0,57,6,50
532576,2,1281,705,28,70,50,12,4,3,280,80,178
532576,1,1149,641,35,72,42,10,5,3,258,65,151
532584,1,429,335,11,33,33,2,0,3,122,30,101
532592,1,183,132,1,12,9,1,0,0,47,26,36
532606,1,58,41,0,7,5,2,0,0,17,1,9
532614,1,85,57,3,6,5,4,0,0,18,7,14
532622,1,346,230,7,18,24,5,2,0,85,38,51
532631,1,383,290,15,36,29,2,2,1,84,27,94
532649,1,236,166,0,12,13,0,1,1,90,17,32
532657,2,108,65,3,8,6,1,1,0,32,4,10
532657,1,214,127,7,13,6,0,2,0,61,12,26
532665,1,328,198,10,20,12,1,0,1,93,18,43
532673,1,424,295,13,30,28,5,0,2,100,33,84
532681,1,601,381,19,36,23,2,6,0,173,28,94
532690,1,104,78,4,6,8,2,0,2,21,11,24
532711,1,136,91,9,10,6,4,0,0,31,9,22
532720,2,297,179,5,13,8,1,0,1,111,10,30
532720,1,1251,761,19,53,36,14,5,2,330,86,216
532738,1,408,281,18,44,18,0,2,2,86,24,87
532746,1,49,39,0,2,7,0,0,0,14,8,8
532754,1,252,157,3,22,5,2,2,0,58,18,47
532762,2,75,57,3,6,0,0,0,0,33,8,7
532762,1,261,186,9,15,10,0,5,2,75,18,52
532771,1,319,188,6,8,18,7,0,0,74,19,56
532789,1,610,464,31,48,57,4,1,2,98,60,163
532797,1,288,185,14,13,13,2,2,0,75,19,47
532801,1,255,159,5,27,12,1,4,0,64,13,33
532819,1,1245,532,27,73,55,5,5,0,166,55,146
532819,7,773,437,16,30,46,8,3,4,150,51,129
532819,6,700,378,14,45,22,2,4,0,148,39,104
532819,5,624,339,15,35,29,6,0,1,148,25,80
532819,4,728,472,14,37,39,5,2,3,208,40,124
532819,3,678,482,20,57,46,4,1,5,147,49,153
532819,2,653,396,20,28,34,9,3,1,161,53,87
532819,11,505,353,18,39,47,4,1,3,109,36,96
532819,10,731,480,23,43,51,6,3,0,182,52,120
532819,22,52,37,0,2,0,2,0,0,19,8,6
532819,19,127,45,5,5,3,1,3,1,18,0,9
532819,9,631,389,18,51,39,9,1,0,149,26,96
532819,8,662,383,16,33,31,4,4,1,155,46,93
532819,21,87,51,0,4,3,2,1,0,24,5,12
532819,20,289,178,11,22,12,0,2,3,68,12,48
532819,18,46,31,1,2,3,0,1,0,18,1,5
532819,17,817,405,14,46,30,12,3,2,162,50,86
532819,16,573,339,14,37,37,1,2,0,129,32,87
532819,15,760,488,11,64,58,9,5,2,160,47,132
532819,14,631,364,8,44,26,4,1,0,155,25,101
532819,13,488,348,12,40,29,4,2,2,142,20,97
532819,12,186,109,2,8,11,3,2,0,48,10,25
532827,1,460,297,3,40,17,2,1,6,142,17,69
532835,1,774,407,18,41,29,6,2,2,159,55,95
532835,2,747,393,14,36,22,6,5,2,165,43,100
532843,1,53,43,2,3,2,1,0,0,26,3,6
532851,1,632,424,21,50,39,2,2,2,145,30,133
532860,7,276,164,2,14,9,0,3,1,62,26,47
532860,6,223,155,9,20,14,0,0,0,70,9,33
532860,5,609,314,11,31,18,9,0,1,148,23,73
532860,4,620,319,10,23,18,1,3,2,156,27,79
532860,3,969,432,10,35,29,11,3,1,223,36,84
532860,2,862,401,12,36,20,7,2,2,180,44,98
532860,1,871,569,17,57,39,11,3,5,236,62,139
532878,1,44,27,1,4,2,0,0,0,8,3,9
532886,1,148,110,3,10,9,2,1,0,45,14,26
532908,1,578,353,22,34,13,2,1,0,162,31,88
532916,1,145,82,4,8,8,0,0,0,35,7,20
532924,1,594,369,8,52,40,8,3,3,122,40,93
532932,1,24,13,0,2,2,0,0,0,5,2,2
532941,1,180,114,1,12,18,6,0,0,44,10,23
532959,1,472,290,14,26,18,0,1,1,133,23,74
532967,1,191,141,9,13,13,1,1,0,43,28,33
532975,1,419,248,6,16,15,6,2,0,117,15,71
532983,3,306,219,12,18,19,4,1,0,94,19,52
532983,2,870,648,34,82,41,9,8,4,223,72,175
532983,1,785,502,13,42,53,6,6,3,167,40,172
532991,1,874,599,47,74,45,9,6,6,181,56,175
533009,1,291,170,9,28,10,1,0,2,63,24,33
533017,4,320,229,27,23,17,1,0,0,66,13,82
533017,3,1026,748,43,90,95,9,4,4,206,69,228
533017,2,1215,753,30,75,67,12,2,2,214,79,272
533017,1,1056,732,46,84,73,12,5,6,232,58,216
533025,1,1362,987,82,116,98,9,4,5,306,105,262
533033,1,811,546,29,58,59,12,3,7,193,45,140
533041,4,145,89,2,12,4,0,0,1,34,13,23
533041,3,171,124,3,12,7,3,0,1,64,10,24
533041,2,1058,623,29,84,49,5,4,5,219,73,155
533041,1,1114,673,23,95,46,8,5,8,270,69,149
533050,3,836,637,105,120,24,4,10,1,228,18,127
533050,2,581,326,13,17,20,3,1,2,132,49,89
533050,1,618,388,11,47,24,8,0,2,173,47,76
533068,2,92,61,1,5,10,0,0,0,37,1,7
533068,1,487,269,4,20,19,5,2,0,119,26,74
533076,1,168,132,4,8,17,0,4,0,62,7,30
533084,1,315,233,7,16,35,0,1,0,88,14,72
533092,1,461,307,12,29,41,4,1,1,100,26,93
533106,1,339,247,14,33,23,6,3,0,78,21,69
533114,3,132,90,1,16,8,2,0,1,43,8,11
533114,2,721,394,9,51,38,7,3,2,180,44,60
533114,1,760,332,8,25,18,8,4,0,179,27,63
533114,5,99,49,5,6,2,0,0,0,21,7,8
533114,4,83,51,0,7,4,1,2,0,29,3,5
533122,1,703,395,18,31,25,7,3,2,177,44,88
533149,1,638,408,21,14,30,6,2,1,168,37,129
533157,2,90,52,1,14,2,1,0,1,24,2,7
533157,1,400,243,20,24,7,4,1,2,106,22,57
533165,12,1746,444,33,45,29,13,4,2,158,49,111
533165,11,897,573,21,48,56,11,3,3,229,51,151
533165,13,1041,544,26,52,42,10,3,8,221,46,136
533165,7,983,703,38,54,54,19,2,6,275,49,206
533165,6,672,323,17,22,23,6,0,1,146,27,81
533165,16,1030,659,44,70,74,16,5,3,226,56,165
533165,15,451,302,17,28,32,4,2,1,99,26,93
533165,14,1198,812,28,81,46,27,3,1,341,86,199
533165,27,361,253,15,20,19,7,5,1,104,25,57
533165,26,807,513,25,53,35,7,4,0,243,32,114
533165,25,1016,672,34,50,45,9,3,6,329,50,146
533165,24,674,455,16,44,33,4,2,1,195,40,120
533165,23,686,460,22,36,43,7,1,0,193,37,121
533165,22,739,437,11,34,28,7,1,3,218,35,100
533165,21,765,483,15,32,50,4,4,3,225,35,115
533165,20,747,435,13,35,18,5,1,1,211,33,118
533165,19,727,413,11,36,27,2,0,3,193,37,104
533165,29,158,102,6,10,4,1,2,0,42,17,20
533165,28,518,400,18,53,38,7,0,2,153,30,99
533165,5,857,505,24,46,60,7,2,1,174,55,136
533165,4,1128,692,27,84,49,8,7,3,270,61,183
533165,3,939,637,35,66,44,9,4,2,245,56,176
533165,2,1060,731,46,80,75,15,6,4,209,74,222
533165,1,1018,571,16,46,33,17,4,9,249,57,140
533165,10,874,603,38,47,54,10,1,3,244,46,160
533165,9,632,352,26,35,28,8,1,3,112,34,105
533165,8,1032,664,30,71,63,11,2,2,238,65,182
533165,18,602,424,21,33,21,7,3,1,182,36,120
533165,17,1046,551,17,51,38,7,3,2,242,37,154
533173,1,188,127,17,16,13,2,1,1,40,10,27
533181,4,70,51,3,8,2,0,0,0,19,6,13
533181,3,83,56,4,5,5,2,0,0,25,7,8
533181,2,228,138,8,14,13,0,0,1,69,10,23
533181,1,444,264,6,30,17,3,2,0,119,21,66
533190,1,229,131,1,12,3,4,3,0,66,11,31
533203,8,436,327,15,35,61,2,1,0,71,25,117
533203,7,555,384,26,54,48,5,0,2,73,50,126
533203,6,511,362,11,36,33,3,2,5,123,48,101
533203,5,595,293,19,32,19,2,3,1,111,23,83
533203,4,1219,744,51,102,76,10,4,5,211,77,208
533203,2,811,304,15,33,30,4,1,3,84,33,101
533203,1,1093,735,41,103,64,12,1,3,218,77,216
533203,3,1051,593,28,66,49,5,5,2,224,55,159
533211,2,87,51,3,4,8,0,1,0,22,6,7
533211,1,159,84,9,6,14,2,0,0,38,5,10
533220,1,566,339,11,61,34,6,1,2,109,37,78
533238,1,452,306,15,26,15,7,1,2,140,25,75
533246,2,183,108,5,3,6,1,0,3,57,8,25
533246,1,1145,733,33,63,56,12,3,3,323,71,169
533254,1,290,185,9,17,16,3,1,0,62,18,59
533262,2,688,411,17,49,36,7,3,1,146,40,112
533262,1,759,475,20,41,41,9,2,1,182,31,148
533271,4,958,632,32,72,49,5,4,4,193,67,206
533271,8,1078,675,24,77,64,13,4,1,196,80,216
533271,7,78,51,1,2,3,0,0,0,21,4,20
533271,6,221,123,5,16,14,2,0,0,32,14,40
533271,5,620,379,17,29,28,1,3,3,121,47,130
533271,3,887,629,40,67,79,14,2,1,171,54,201
533271,2,652,438,22,41,62,8,2,0,134,50,119
533271,1,989,473,30,37,41,4,1,2,146,63,149
533289,1,610,401,23,39,32,10,2,5,124,39,127
533297,3,86,48,2,1,0,1,0,0,23,8,13
533297,2,75,44,1,7,3,0,0,0,16,6,11
533297,1,195,93,0,8,6,0,3,1,51,13,11
533301,1,503,318,20,34,37,5,0,3,91,33,95
533319,1,79,59,2,5,4,3,0,2,24,7,12
533327,1,404,252,9,29,22,1,1,1,95,20,74
533335,1,270,188,7,18,13,4,1,0,81,18,46
533343,1,399,247,15,29,24,2,5,0,101,20,51
533351,3,119,81,3,11,10,1,0,0,34,6,16
533351,2,208,153,8,9,12,0,1,0,55,9,59
533351,1,232,106,4,11,7,2,0,0,45,7,30
533360,1,376,263,9,26,15,5,2,1,86,26,93
533378,1,587,409,31,59,47,6,1,0,108,39,118
533386,3,155,90,4,6,3,0,0,2,43,10,22
533386,2,160,113,7,10,11,0,0,0,44,13,28
533386,1,478,251,9,29,27,9,2,1,89,21,64
533394,1,713,447,16,54,33,8,3,2,174,49,108
533408,3,132,85,2,11,5,0,2,0,46,4,15
533408,2,167,108,0,4,4,2,0,3,62,14,19
533408,1,211,118,2,10,8,2,2,0,54,9,31
533416,4,149,104,5,11,4,0,0,0,43,12,29
533416,3,892,608,46,75,39,2,5,7,216,50,168
533416,2,874,588,32,64,57,7,1,1,168,52,206
533416,1,895,533,27,71,53,10,4,6,170,46,146
533424,2,786,474,28,43,42,6,4,5,192,43,111
533424,1,796,494,26,41,32,5,3,1,204,51,131
533432,1,638,492,40,54,51,3,2,1,136,55,150
533441,2,67,39,2,1,1,2,0,0,22,3,8
533441,1,591,384,9,34,31,4,3,3,159,33,108
533459,1,323,208,8,9,16,4,0,1,94,13,63
533467,1,383,227,10,15,11,2,3,1,89,35,61
533475,1,258,142,2,8,7,4,0,2,69,16,34
533483,1,232,154,8,5,5,0,3,1,73,15,44
533505,1,256,137,7,13,14,8,0,2,45,13,35
533513,2,80,67,3,2,6,3,0,1,26,5,21
533513,1,179,119,4,6,7,2,0,0,57,18,25
533521,2,264,207,7,23,16,5,1,3,90,16,46
533521,1,266,169,11,22,11,1,0,0,53,23,48
533530,1,977,619,18,76,38,6,3,2,269,58,149
533548,1,305,206,6,19,16,3,1,0,65,33,63
533556,1,239,132,2,18,12,1,0,0,65,11,23
533564,4,149,98,1,3,4,0,4,2,51,8,25
533564,3,133,80,2,8,7,1,0,0,38,11,13
533564,2,132,75,1,4,2,2,0,2,47,2,15
533564,1,337,217,6,12,21,0,2,1,96,19,60
533572,1,613,403,19,44,17,5,2,6,197,27,86
533581,1,1401,774,29,69,49,11,4,2,396,51,163
533599,1,541,380,13,26,34,6,3,0,145,30,123
533602,1,198,142,4,10,10,2,2,2,65,11,36
533611,1,603,375,33,45,35,3,3,0,98,40,118
533629,1,930,579,19,80,33,11,3,6,237,71,119
533637,1,300,211,12,23,16,3,0,0,82,19,56
533645,1,402,245,7,19,8,8,4,1,130,22,46
533653,2,76,60,0,7,3,1,0,0,34,3,12
533653,1,383,265,17,17,15,3,1,0,116,33,63
533661,1,386,224,12,12,22,5,4,0,61,22,86
533670,1,708,507,31,62,46,9,7,2,117,68,165
533696,1,158,114,10,9,5,0,0,0,47,11,32
533700,2,507,351,13,34,29,5,3,0,157,30,80
533700,1,765,455,21,28,25,8,1,2,207,49,114
533718,3,197,135,16,9,14,1,0,1,35,6,53
533718,2,157,89,7,3,10,2,1,0,30,8,28
533718,1,739,488,17,57,41,4,2,4,133,65,165
533726,1,459,238,9,21,8,1,0,0,132,15,52
533734,2,79,38,5,4,3,2,0,1,6,3,14
533734,1,321,177,6,20,5,3,0,2,64,12,65
533742,2,141,93,4,11,3,2,4,1,45,7,16
533742,1,162,115,1,3,7,1,2,2,57,17,25
533751,1,389,261,26,35,20,2,4,1,100,22,51
533769,1,793,537,33,36,30,9,2,3,256,42,126
533777,1,348,211,7,17,26,4,1,3,93,17,43
533785,2,216,161,5,15,24,2,0,0,44,19,52
533785,1,520,346,21,42,30,2,0,1,111,35,104
533793,1,90,67,1,7,8,0,0,0,20,7,24
533807,4,151,108,6,11,6,3,3,0,47,11,21
533807,3,140,87,4,4,4,0,0,0,39,8,28
533807,2,570,367,16,18,32,6,3,6,140,35,111
533807,1,797,451,13,51,46,8,2,2,170,36,123
533815,2,123,81,0,3,6,4,0,0,55,0,13
533815,1,192,132,4,13,12,2,0,0,71,10,20
533823,1,200,119,2,23,3,7,0,0,40,6,38
533831,3,171,115,6,15,6,1,5,0,43,12,27
533831,2,901,651,26,72,43,8,8,4,231,80,179
533831,1,626,372,14,43,14,10,5,2,128,50,106
533840,1,1842,1203,50,104,71,86,5,5,429,123,330
533858,2,329,245,8,14,20,10,0,4,99,22,68
533858,1,810,472,15,59,27,15,2,0,205,51,98
533866,4,84,53,0,5,3,0,0,0,20,10,15
533866,3,151,82,2,5,8,1,2,0,19,12,33
533866,2,283,169,9,21,7,3,0,0,63,25,41
533866,1,354,183,12,24,6,0,1,0,79,17,44
533874,1,161,111,1,16,9,1,1,0,25,10,48
533882,1,413,247,13,30,13,5,0,0,129,10,47
533891,1,292,165,4,15,5,3,0,1,87,13,37
533904,1,505,360,17,52,40,3,1,3,94,37,113
533912,1,123,97,7,8,7,1,1,0,29,5,39
533921,5,89,48,3,6,0,0,0,0,23,4,12
533921,4,96,48,5,1,0,1,0,1,23,2,15
533921,3,126,74,4,3,4,3,0,1,35,8,16
533921,2,636,367,13,27,24,6,2,2,144,50,99
533921,1,552,352,17,44,26,10,8,4,126,38,79
533939,1,82,54,2,12,4,1,1,2,19,1,12
533947,1,1003,638,22,48,44,14,0,1,310,53,146
533955,1,137,54,0,5,3,0,2,1,26,8,9
533955,3,556,361,13,40,53,7,3,3,82,30,130
533955,2,470,302,11,16,50,4,0,0,129,20,72
533955,9,553,376,17,28,47,5,1,2,154,40,82
533955,8,790,546,29,57,59,3,0,5,174,55,164
533955,24,790,493,14,47,37,9,5,4,223,50,104
533955,23,741,451,9,41,39,3,2,1,226,39,91
533955,22,890,523,20,56,37,7,5,1,226,51,120
533955,21,918,517,16,55,26,3,3,2,262,43,107
533955,11,148,99,5,3,6,2,1,1,46,9,26
533955,10,378,281,20,30,37,2,0,2,79,26,85
533955,20,790,540,30,60,57,4,5,2,194,66,122
533955,19,857,566,33,55,72,8,5,6,194,58,135
533955,7,1293,967,49,92,117,15,11,6,317,99,261
533955,6,1224,286,22,41,45,1,1,1,56,25,94
533955,5,457,256,7,25,43,5,2,1,72,14,87
533955,4,431,267,8,29,35,2,5,0,91,19,78
533955,13,699,496,24,45,78,9,2,1,140,40,157
533955,12,641,425,13,37,47,10,5,1,155,42,115
533955,18,933,628,20,71,86,3,3,1,192,62,190
533955,17,780,467,18,38,40,13,4,2,209,28,115
533955,16,457,277,11,31,23,6,1,2,119,23,61
533955,15,650,380,13,23,25,6,5,3,156,31,118
533955,14,598,362,18,36,42,7,0,1,147,39,72
533963,1,98,59,1,8,8,1,0,0,21,5,15
533971,3,118,72,5,1,1,1,0,0,40,4,20
533971,2,106,71,4,5,4,0,0,0,42,0,16
533971,1,281,169,5,16,4,1,0,0,93,15,35
533980,1,341,223,8,18,11,1,0,1,124,18,42
533998,2,494,353,17,32,28,3,5,1,159,23,85
533998,1,516,343,20,34,33,6,6,0,125,24,95
534005,3,886,553,25,49,51,11,1,4,232,51,129
534005,2,929,444,17,53,39,4,2,4,178,31,116
534005,1,1005,671,20,51,57,7,3,2,294,38,199
534005,9,893,545,20,35,40,5,4,8,245,58,130
534005,8,823,537,26,41,48,7,3,1,224,53,134
534005,7,895,569,20,42,39,9,3,0,247,46,163
534005,6,1027,713,26,62,57,3,2,0,322,63,178
534005,5,832,464,23,43,44,12,0,1,174,56,111
534005,4,747,404,21,34,42,6,1,2,144,33,121
534013,3,105,76,3,4,2,3,0,0,42,3,19
534013,2,44,39,2,2,2,0,0,0,24,2,7
534013,1,195,122,4,11,11,3,0,1,64,7,21
534021,1,543,344,19,19,18,2,2,4,172,22,86
534030,1,391,258,15,27,20,7,3,1,99,27,59
534048,1,217,169,2,19,22,4,2,0,60,13,47
534056,1,353,237,8,27,14,1,2,2,91,28,64
534064,1,203,132,2,5,17,0,2,0,56,11,39
534072,1,243,143,13,13,9,3,1,3,59,12,30
534081,1,212,130,7,13,6,0,0,0,57,13,34
534099,2,268,154,7,13,13,1,1,1,64,11,43
534099,1,337,204,6,16,11,0,0,2,106,12,51
534102,1,568,364,7,31,24,3,0,2,185,27,85
534111,1,140,104,4,21,6,1,0,2,37,7,26
534129,1,633,406,10,45,35,12,0,1,134,28,141
534137,3,59,50,6,2,3,3,0,1,22,1,12
534137,2,53,36,3,1,3,0,0,0,18,3,8
534137,1,278,167,5,18,7,2,0,2,79,18,36
534145,1,182,125,6,6,13,0,0,0,57,8,35
534153,2,51,32,2,1,0,0,0,0,15,1,13
534153,1,280,178,5,10,5,2,2,0,74,28,52
534161,1,527,311,13,21,33,9,2,0,139,36,58
534170,1,150,94,6,8,3,3,2,0,28,11,33
534188,2,71,51,1,7,4,0,0,0,28,1,10
534188,1,756,475,21,24,42,7,5,4,212,42,118
534196,3,109,76,4,12,7,1,0,0,19,10,23
534196,2,213,141,4,9,14,3,0,0,62,14,35
534196,1,377,230,11,18,8,1,1,3,109,31,48
534200,4,47,39,0,6,6,0,0,1,9,5,12
534200,3,122,83,4,6,12,1,1,0,28,6,25
534200,2,277,196,13,17,16,1,1,0,46,33,69
534200,1,393,225,5,25,20,1,0,0,88,23,63
534218,1,89,64,0,9,6,1,0,0,26,5,17
534226,1,169,122,3,7,7,3,1,0,49,15,37
534234,1,81,62,2,7,8,0,0,0,31,0,14
534242,1,692,407,11,47,38,10,0,6,161,41,93
534251,1,152,112,0,6,3,2,0,1,69,13,18
534269,1,124,99,7,2,15,0,0,0,36,8,31
534277,1,245,165,3,11,10,0,0,0,83,13,45
534285,1,176,121,5,11,11,0,0,0,50,12,32
534293,1,139,92,2,11,6,1,0,1,50,11,10
534307,1,136,97,4,3,8,1,2,1,57,4,17
534315,1,235,149,7,8,4,2,3,0,71,26,28
534323,1,97,78,1,9,4,4,2,0,30,7,21
534331,1,505,324,4,29,23,4,3,2,158,31,70
534340,1,303,163,6,9,8,3,0,2,93,18,24
534358,1,469,280,19,28,24,5,0,0,104,14,86
534366,1,200,135,5,9,13,0,2,2,65,10,29
534374,1,133,78,5,5,0,1,0,0,39,4,24
534382,5,130,97,2,6,11,1,0,0,45,8,24
534382,4,599,401,18,50,53,4,3,3,122,44,104
534382,3,469,290,18,30,24,2,1,0,109,28,78
534382,2,965,529,27,54,44,6,0,4,210,42,142
534382,1,851,508,17,39,31,4,5,0,240,50,122
534391,2,63,49,1,1,0,1,1,0,27,7,11
534391,1,62,37,0,2,1,0,0,2,18,3,11
534404,1,95,62,3,9,2,0,0,0,32,1,15
534412,1,222,153,10,13,8,4,0,0,63,14,41
534421,1,240,142,9,20,10,1,2,1,50,16,33
534439,1,945,607,32,58,37,2,5,1,256,49,167
534447,1,506,359,21,47,24,9,5,1,119,33,100
534455,1,187,124,10,15,7,0,0,2,45,14,31
534463,1,197,138,6,26,22,2,0,0,51,7,24
534471,1,313,173,8,14,11,2,2,1,79,13,43
534480,1,511,335,2,22,14,1,2,0,167,35,92
534498,3,895,536,31,48,42,7,3,6,209,47,143
534498,2,696,382,17,38,25,8,1,2,163,44,84
534498,1,899,601,28,39,53,14,1,10,259,48,149
534501,4,114,90,4,4,9,2,0,1,34,6,30
534501,3,76,44,2,3,1,0,0,0,16,8,14
534501,2,48,37,2,4,0,2,0,0,14,8,7
534501,1,154,97,0,4,7,3,0,1,48,20,14
534510,2,285,190,2,28,18,4,1,1,71,20,45
534510,1,250,168,6,18,5,0,1,0,94,13,31
534528,1,419,264,6,28,21,7,1,2,118,22,59
534536,3,64,33,3,3,3,0,2,0,10,4,8
534536,2,65,37,0,5,2,0,0,0,15,3,12
534536,1,63,46,4,5,7,0,0,0,18,3,9
534544,1,206,114,2,13,7,0,0,0,60,10,22
534552,1,200,123,11,10,8,0,3,0,52,11,28
534561,1,380,234,7,13,22,2,1,2,105,18,64
534579,3,64,47,0,2,6,1,0,1,25,2,10
534579,2,131,82,0,5,1,1,0,0,50,11,14
534579,1,326,223,7,28,28,1,1,3,81,25,49
534587,4,172,111,8,9,3,3,1,0,68,4,15
534587,3,251,167,2,10,13,1,4,3,77,15,42
534587,2,664,448,13,23,39,3,2,2,200,45,121
534587,1,1257,692,16,48,40,10,2,8,331,68,169
534595,2,110,89,2,8,4,0,0,2,49,5,19
534595,1,559,361,18,27,21,9,0,2,155,40,89
534609,1,376,231,18,16,13,4,1,5,108,22,44
534617,3,30,24,0,0,2,0,0,0,14,0,8
534617,2,118,80,1,13,7,4,2,0,40,5,8
534617,1,973,628,16,40,62,6,3,0,285,45,171
534625,2,104,76,0,1,4,0,1,0,45,7,18
534625,1,435,287,6,22,30,3,3,1,123,21,78
534633,5,913,597,23,60,52,5,1,3,245,64,144
534633,4,1095,607,32,45,47,8,1,4,250,57,163
534633,3,68,49,5,8,1,0,0,0,22,4,9
534633,2,52,31,1,1,5,0,1,0,13,4,6
534633,1,79,50,4,3,0,2,0,0,22,6,13
534633,7,763,440,11,32,35,10,1,3,208,51,89
534633,6,888,486,11,45,32,4,2,3,215,60,114
534641,2,77,51,1,3,2,0,1,0,36,5,3
534641,1,215,126,5,8,10,0,2,1,51,8,41
534650,2,59,45,0,3,1,0,0,0,30,7,4
534650,1,545,363,22,31,22,2,2,2,148,32,102
534668,3,118,72,0,3,0,0,0,0,48,3,18
534668,2,539,295,6,14,11,1,2,3,172,17,69
534668,1,435,250,8,17,4,3,2,1,145,18,52
534676,14,674,431,17,45,56,4,2,1,140,47,119
534676,13,886,570,21,78,56,13,2,2,203,45,150
534676,12,915,568,32,65,34,13,1,2,225,50,146
534676,11,674,436,11,76,34,15,4,1,125,50,120
534676,10,1076,696,30,97,64,14,3,2,221,84,181
534676,9,715,420,17,59,39,5,0,1,132,56,111
534676,8,769,476,22,50,43,6,0,3,150,56,146
534676,7,497,282,2,23,25,3,4,4,126,26,69
534676,6,738,453,19,52,38,3,3,4,170,40,124
534676,5,656,425,13,42,43,6,1,2,137,49,132
534676,4,851,550,28,68,52,6,1,5,173,42,175
534676,3,567,408,25,41,43,5,1,3,136,31,123
534676,2,653,455,16,50,55,8,1,3,158,35,129
534676,1,1235,378,34,58,36,2,2,0,90,40,116
534676,18,1167,769,59,91,47,2,5,1,253,80,231
534676,20,909,649,34,89,53,8,2,5,187,55,216
534676,19,381,265,14,44,19,5,0,2,69,34,78
534676,17,689,433,28,61,40,8,1,3,141,38,113
534676,16,568,323,14,32,29,6,0,2,111,31,98
534676,15,770,517,33,57,42,9,2,4,170,39,161
534684,1,245,181,8,21,31,1,0,1,41,27,51
534706,1,180,124,4,9,7,0,2,4,65,12,21
534714,2,68,44,0,10,5,0,0,1,18,4,6
534714,1,269,148,7,13,9,5,1,1,50,20,42
534722,1,1057,634,28,61,44,15,3,5,230,65,183
534731,1,919,578,19,69,47,10,5,6,230,52,140
534749,1,519,306,8,41,17,3,3,1,108,32,93
534757,1,171,107,3,3,8,2,0,0,47,13,31
534765,2,257,148,10,21,5,1,0,0,70,11,30
534765,1,903,511,18,92,37,5,1,2,206,34,116
534773,1,364,187,2,23,6,1,2,1,81,23,48
534781,1,739,493,32,85,46,5,4,2,147,35,137
534790,2,110,56,1,11,6,1,1,0,19,8,9
534790,1,855,507,20,76,21,4,2,1,222,42,119
534803,3,98,67,13,2,7,0,0,0,28,3,14
534803,2,225,130,5,15,7,1,0,0,50,11,41
534803,1,308,179,9,32,16,4,2,1,48,15,52
534820,1,389,215,7,13,13,5,1,2,104,30,40
534838,2,173,108,11,12,6,0,0,0,46,8,25
534838,1,267,152,5,20,6,1,2,0,80,16,22
534846,1,434,269,6,36,15,4,2,0,107,24,75
534854,1,105,73,3,7,12,2,0,1,22,5,21
534862,1,194,145,6,26,7,0,4,0,41,9,52
534871,1,239,164,12,18,10,2,1,0,53,14,54
534889,1,126,93,7,5,7,2,0,0,50,6,16
534897,1,1131,698,29,81,58,16,7,1,200,97,209
534901,2,83,46,1,4,2,0,2,1,18,5,13
534901,1,222,138,8,18,6,3,2,0,37,23,41
534919,1,176,106,6,19,5,1,1,0,37,10,27
534935,4,369,236,14,23,18,4,0,0,72,24,81
534935,3,859,574,30,56,64,12,3,4,141,62,202
534935,2,898,562,45,47,44,9,2,4,209,51,151
534935,1,967,482,28,63,39,8,3,0,159,55,127
534943,1,238,171,7,19,7,4,0,4,59,17,54
534951,14,519,331,13,38,32,2,1,0,110,34,101
534951,13,568,352,5,50,40,4,2,1,119,41,90
534951,12,758,471,24,44,53,9,1,2,179,53,106
534951,11,1228,595,32,68,41,5,11,1,202,54,181
534951,10,713,407,14,30,35,7,2,1,165,48,105
534951,9,663,452,26,53,30,4,4,2,167,41,125
534951,8,935,620,27,79,61,12,4,4,177,76,180
534951,7,1355,477,20,60,48,5,5,0,165,44,130
534951,6,528,323,14,44,23,4,3,2,104,28,101
534951,5,856,489,17,62,31,7,4,2,166,55,145
534951,4,754,487,21,45,41,6,1,2,160,55,156
534951,3,699,428,14,38,28,10,1,0,188,22,127
534951,2,693,428,16,49,26,3,3,0,143,39,149
534951,1,894,638,30,64,48,4,3,2,217,72,198
534951,18,790,522,23,63,39,13,3,3,164,41,173
534951,17,414,259,11,29,17,4,2,2,107,29,58
534951,16,798,531,27,91,53,5,3,3,139,67,143
534951,15,856,598,39,64,59,6,3,0,168,67,192
534960,1,212,138,13,21,17,0,0,0,28,9,50
534978,1,511,300,4,74,18,5,2,0,106,22,69
534986,1,355,271,34,23,16,2,1,0,66,30,99
534994,1,155,102,1,12,3,3,1,0,45,10,27
535001,2,102,60,0,6,3,0,2,0,29,3,17
535001,1,724,406,11,60,33,3,5,0,163,41,90
535010,1,264,165,10,14,19,1,0,0,67,12,42
535028,1,1159,611,30,83,34,1,4,2,262,57,138
535036,2,337,218,8,22,10,0,1,0,90,25,62
535036,1,463,293,22,36,26,6,0,0,84,29,90
535044,2,314,165,4,25,7,4,5,1,72,13,34
535044,1,446,223,12,31,10,2,3,4,96,15,50
535052,1,1182,747,27,84,36,12,8,7,287,68,218
535061,1,337,201,5,19,17,1,3,1,94,11,50
535079,3,425,301,13,45,28,5,0,1,57,39,113
535079,2,429,287,10,21,29,2,2,1,115,23,84
535079,1,625,400,21,41,35,8,1,5,145,40,104
535087,8,892,504,30,51,52,6,3,2,206,43,111
535087,7,825,504,18,40,23,7,2,2,247,43,122
535087,6,2207,569,24,60,31,10,5,1,297,39,102
535087,5,1119,691,34,86,56,17,4,2,246,61,185
535087,4,464,259,4,31,21,3,2,1,105,22,70
535087,3,106,57,6,9,9,1,0,0,18,4,10
535087,2,274,171,4,23,14,6,1,2,70,20,31
535087,1,567,362,20,41,38,5,2,7,109,39,101
535087,14,1110,779,41,74,87,10,3,1,252,64,247
535087,13,1011,660,21,65,58,10,1,1,261,57,186
535087,12,776,544,33,63,52,5,5,3,164,60,159
535087,11,871,518,20,55,45,1,6,2,182,49,158
535087,10,813,526,22,60,37,13,2,2,215,46,129
535087,9,791,469,15,55,33,6,3,5,188,52,112
535087,15,905,584,25,67,61,12,8,2,185,64,160
535095,1,105,64,5,13,4,2,1,0,25,2,12
535109,1,170,107,3,8,5,3,1,0,45,9,33
535117,2,255,169,1,12,12,1,2,0,79,12,50
535117,1,343,208,21,35,9,1,1,0,80,8,53
535117,3,213,136,5,16,9,5,0,0,44,14,43
535125,1,152,99,0,5,3,0,2,0,57,6,26
535133,1,1021,612,28,75,52,19,5,3,181,56,193
535141,1,390,236,20,33,15,2,2,4,70,28,62
535150,1,105,63,0,7,2,1,0,0,30,7,16
535168,2,108,72,6,11,9,0,1,1,22,10,12
535168,1,414,240,15,28,13,2,0,3,91,18,70
535192,1,355,206,14,32,12,5,0,0,96,12,35
535214,2,112,77,4,10,8,0,2,2,28,0,23
535214,1,266,162,2,19,9,2,0,0,76,17,37
535222,3,447,284,15,33,30,5,3,1,92,32,73
535222,2,858,510,29,47,57,5,4,2,178,46,142
535222,1,441,271,14,28,17,6,1,1,106,22,76
535257,1,693,416,16,37,29,8,3,1,158,40,124
535265,3,150,86,4,8,9,3,0,0,28,9,25
535265,2,133,96,5,15,5,2,1,0,30,8,30
535265,1,540,340,6,46,32,3,2,1,131,31,88
535273,1,1584,1108,51,125,120,26,5,5,351,102,323
535290,1,566,347,20,49,28,3,3,5,141,39,59
535303,3,171,125,5,19,8,1,1,0,45,6,40
535303,2,72,52,2,0,4,4,0,0,30,1,11
535303,1,456,248,10,21,29,6,1,1,107,21,52
535311,1,279,197,9,9,11,5,1,2,75,23,62
535320,2,552,351,10,38,26,5,2,2,127,30,111
535320,1,1204,653,22,87,40,12,4,3,265,52,168
535338,2,335,176,4,26,9,5,0,1,62,15,54
535338,1,372,218,7,25,23,2,0,0,104,13,44
535354,1,316,158,6,14,10,0,0,2,74,23,29
535362,1,720,504,33,64,47,9,3,2,149,36,161
535389,1,373,238,7,36,18,5,1,0,86,28,57
535397,1,402,228,8,31,18,1,3,1,70,27,69
535419,11,990,600,12,42,51,7,6,10,239,52,181
535419,10,709,484,12,63,37,8,3,9,158,50,144
535419,9,997,661,34,85,42,6,5,11,191,81,206
535419,8,720,464,21,50,37,12,1,2,143,47,151
535419,7,415,268,12,29,28,6,3,1,79,27,83
535419,6,487,299,13,29,27,4,4,3,108,31,80
535419,5,770,506,25,47,27,4,2,6,199,62,134
535419,4,757,392,12,33,24,4,1,7,184,44,83
535419,3,883,629,19,70,67,7,6,12,207,67,174
535419,2,382,222,9,26,18,5,1,3,77,16,67
535419,1,1679,380,21,59,36,8,4,4,106,29,113
535419,36,958,647,31,88,51,19,2,15,166,92,183
535419,35,612,343,9,45,29,6,2,4,137,21,90
535419,34,577,346,12,35,26,5,3,2,145,30,88
535419,33,877,515,17,49,33,10,4,7,197,51,147
535419,32,886,486,15,53,20,5,1,9,223,46,114
535419,31,838,496,24,57,36,7,2,8,186,44,132
535419,30,1006,562,22,54,57,10,7,13,196,59,144
535419,29,840,499,26,56,41,9,4,3,124,49,187
535419,28,828,535,16,56,38,14,6,14,201,39,151
535419,27,1222,857,35,76,72,11,4,14,299,73,273
535419,26,673,397,9,39,18,3,2,7,190,41,88
535419,25,813,499,16,36,27,5,0,13,229,49,124
535419,44,708,450,12,51,22,8,3,8,168,31,147
535419,24,735,427,9,48,21,8,2,7,204,27,101
535419,23,686,420,7,51,27,8,6,10,160,33,118
535419,22,615,199,11,21,6,2,1,4,99,12,43
535419,21,659,413,20,36,20,7,2,3,173,42,110
535419,20,897,556,23,50,37,4,4,5,208,48,177
535419,19,588,365,7,47,25,5,1,6,163,28,83
535419,18,609,382,6,46,23,1,5,9,183,26,83
535419,17,432,272,7,30,24,4,4,6,117,23,57
535419,16,588,388,20,51,43,2,3,6,109,39,115
535419,43,522,347,19,56,46,4,2,7,81,45,87
535419,42,125,83,9,11,6,0,0,1,17,11,28
535419,41,227,167,11,29,11,1,1,0,49,21,44
535419,40,122,57,6,5,3,0,1,0,31,4,7
535419,39,125,98,14,8,9,0,1,0,30,9,27
535419,15,384,192,11,24,12,5,2,3,56,21,58
535419,14,1082,733,36,71,55,8,4,10,212,93,244
535419,13,712,472,26,45,55,4,2,11,145,39,145
535419,12,608,429,22,48,46,7,1,8,136,31,130
535419,38,626,411,14,45,30,9,0,7,155,44,107
535419,37,882,671,39,70,48,17,2,9,200,69,217
535427,9,51,37,2,4,4,0,0,0,8,6,13
535427,8,71,44,1,5,3,1,0,4,11,3,16
535427,7,213,154,5,17,10,6,2,0,40,21,53
535427,6,62,51,4,5,0,0,0,0,19,8,15
535427,5,119,96,4,12,6,0,0,1,35,8,30
535427,4,476,291,6,31,20,4,2,3,127,21,77
535427,3,942,655,41,81,65,7,8,5,216,52,180
535427,2,673,464,11,49,38,7,5,6,159,37,152
535427,1,1299,791,40,89,42,10,8,12,301,62,227
535443,5,145,90,3,9,6,0,2,2,34,7,27
535443,4,549,335,8,32,20,6,4,4,157,29,75
535443,3,745,459,23,47,29,12,7,7,161,42,131
535443,2,994,506,23,66,36,5,0,5,212,50,109
535443,1,1361,914,35,85,51,7,6,8,403,76,243
535451,6,271,166,11,14,7,1,1,0,65,12,55
535451,5,363,245,8,23,9,6,3,4,94,20,78
535451,4,1111,701,43,102,50,10,9,7,227,70,183
535451,3,1329,802,29,127,44,10,8,6,288,65,225
535451,2,989,578,24,73,59,7,7,4,190,47,167
535451,1,1554,849,54,115,102,5,4,8,226,78,257
535478,1,687,381,10,38,21,4,4,13,182,32,77
535486,1,295,200,9,9,10,7,2,4,93,13,53
535508,2,113,41,3,6,1,0,1,2,16,2,10
535508,1,103,71,2,9,1,0,0,0,39,6,14
535516,1,380,250,3,28,8,5,3,3,103,24,73
535559,1,831,536,29,56,30,9,3,5,241,31,132
535567,1,327,232,8,25,26,5,2,3,84,28,51
535583,1,737,513,23,47,41,11,2,8,177,54,150
535605,1,559,355,13,31,28,2,2,4,137,42,96
535621,2,244,131,4,12,9,0,2,5,55,13,31
535621,1,446,237,6,20,12,3,4,2,92,20,78
535630,1,612,402,17,61,14,8,6,7,144,43,102
535656,1,318,224,11,18,14,2,0,7,69,30,73
535672,8,139,104,1,15,3,1,1,1,44,10,28
535672,7,187,132,6,23,6,4,2,0,44,19,28
535672,6,125,89,1,3,12,0,0,1,46,8,18
535672,5,91,74,2,12,9,0,3,0,19,4,25
535672,4,113,83,4,6,3,1,2,1,27,11,28
535672,3,198,154,1,12,10,3,3,9,76,8,32
535672,2,931,585,19,55,43,13,1,11,196,63,184
535672,1,584,387,15,44,28,6,5,8,123,31,127
535672,9,265,165,6,17,14,0,1,4,54,15,54
535702,5,127,72,3,9,1,2,0,1,25,2,29
535702,4,159,97,3,18,3,2,0,2,32,5,32
535702,3,161,96,3,4,2,3,1,2,42,9,30
535702,2,802,560,19,51,44,7,3,7,204,58,167
535702,1,826,504,17,35,29,8,5,10,222,57,121
535711,1,188,86,2,3,1,2,2,0,51,9,16
535729,1,269,171,19,18,5,6,3,2,66,20,32
535745,1,208,136,5,10,15,0,2,2,58,12,32
535818,1,427,265,7,35,13,6,5,6,119,21,53
535834,1,195,136,5,17,11,1,0,1,48,9,44
535869,1,517,342,17,45,36,1,5,6,123,32,77
535923,2,67,42,3,7,5,0,0,1,10,2,14
535923,1,272,163,4,19,11,2,4,1,67,21,34
535931,2,146,89,6,12,8,0,1,1,36,12,13
535931,1,668,364,15,42,36,2,5,5,126,35,98
535966,1,358,232,7,25,25,7,4,3,85,22,54
535974,1,363,250,10,33,11,3,1,2,95,30,65
536008,1,624,363,6,34,17,3,1,4,151,42,105
536024,1,738,455,27,66,47,3,0,3,134,55,120
536041,4,205,126,9,12,6,1,0,4,45,18,31
536041,3,80,51,2,6,0,0,0,0,21,9,13
536041,2,167,127,3,9,11,6,0,2,51,15,30
536041,1,1125,778,44,96,65,10,7,9,256,74,217
536067,1,345,227,12,15,16,2,1,5,93,25,58
536083,1,180,108,5,6,13,2,3,0,41,8,30
536121,1,377,248,12,28,11,6,1,3,79,25,83
536130,1,347,228,16,28,15,1,0,0,89,22,57
536164,1,152,93,3,12,5,1,0,2,34,8,28
536172,1,413,277,17,35,17,4,0,0,107,23,74
536181,5,83,50,3,5,4,0,0,2,25,3,8
536181,4,187,90,4,7,5,0,0,2,44,10,18
536181,3,210,110,1,11,9,1,1,1,49,12,25
536181,2,190,104,3,9,3,0,0,0,55,15,19
536181,1,45,36,1,4,1,0,0,0,11,4,15
536202,1,306,214,8,25,20,3,0,0,81,24,53
536211,1,110,56,0,5,4,0,0,0,26,9,12
536261,1,242,150,11,19,9,0,0,3,49,15,44
536270,3,710,345,12,41,33,1,1,6,107,33,111
536270,2,87,57,3,9,4,0,0,2,28,2,9
536270,1,821,486,24,62,34,5,2,3,201,40,115
536326,5,658,459,15,56,34,5,6,8,148,47,140
536326,4,537,366,21,41,18,6,2,0,132,37,109
536326,3,794,515,30,53,59,2,5,6,132,51,177
536326,2,937,442,23,51,37,6,5,3,140,51,126
536326,11,498,308,7,39,12,2,5,3,129,30,81
536326,10,146,111,6,9,14,1,0,3,45,8,25
536326,9,335,208,9,17,11,5,0,3,77,11,75
536326,8,242,160,2,11,10,1,0,0,66,10,60
536326,7,979,687,18,72,52,20,6,5,234,69,211
536326,6,849,511,14,42,33,3,3,12,221,45,138
536326,1,867,505,24,43,29,10,3,2,207,45,142
536334,1,141,96,6,8,5,1,0,1,37,7,31
536351,1,319,244,11,38,17,1,2,4,93,21,57
536377,1,210,169,5,12,13,3,1,1,59,37,38
536407,1,213,150,8,11,4,0,0,3,70,14,40
536431,1,227,156,5,11,6,2,0,5,70,7,50
536440,1,592,414,15,42,35,8,3,2,159,24,126
536458,1,369,233,10,31,25,0,0,2,83,18,64
536491,1,535,347,19,31,15,7,1,3,107,38,126
536580,1,540,364,19,23,52,0,0,6,106,32,126
536610,1,544,384,15,45,42,3,1,5,109,37,127
536636,1,311,200,5,30,12,0,1,2,69,14,67
536652,1,554,333,13,28,19,2,3,0,121,33,114
536661,1,430,316,10,33,21,2,0,2,108,46,94
536709,1,215,168,6,23,9,1,0,4,67,23,35
536717,1,145,81,1,7,5,1,1,5,37,8,16
536768,1,291,196,11,20,20,4,1,6,69,15,50
536857,3,88,52,2,1,4,1,1,0,28,6,9
536857,2,163,113,2,2,6,2,0,0,48,21,32
536857,1,41,33,1,3,1,0,0,2,10,7,9
536938,1,546,336,19,47,20,4,3,6,121,23,93
536971,1,662,456,18,45,27,10,3,5,181,61,106
536971,3,188,147,4,17,9,7,6,1,41,12,50
536971,2,241,173,4,20,5,3,3,2,71,16,49
536989,1,321,196,9,35,12,2,1,2,66,14,55
536997,1,274,193,10,21,7,1,6,1,69,16,62
537004,8,475,269,23,23,30,1,1,1,87,25,78
537004,7,758,513,26,59,62,3,5,1,167,35,155
537004,6,963,728,39,101,64,11,2,3,242,56,210
537004,5,1391,545,22,66,63,3,6,2,188,48,147
537004,4,480,312,12,31,34,4,1,4,106,24,96
537004,3,518,324,13,58,47,4,1,1,109,22,69
537004,2,636,428,15,47,45,4,1,4,149,33,130
537004,1,915,669,33,88,95,6,7,8,180,53,199
537004,9,979,659,42,69,68,12,9,4,198,77,180
537004,15,798,500,16,70,47,8,1,2,153,42,161
537004,14,778,528,14,66,50,9,3,7,198,50,131
537004,13,750,488,10,60,47,10,3,0,192,39,127
537004,12,700,422,13,61,26,5,2,2,174,36,103
537004,11,729,400,10,42,25,3,3,2,169,43,103
537004,10,806,488,21,45,35,6,2,1,204,49,125
537021,5,42,26,0,3,0,0,1,0,16,3,3
537021,4,55,41,2,2,8,1,0,1,15,4,8
537021,3,177,117,7,6,5,4,0,0,54,8,33
537021,2,48,23,0,0,4,0,0,2,10,5,2
537021,1,366,204,6,21,15,6,2,0,86,27,41
537039,2,171,115,4,17,10,1,1,1,40,5,36
537039,1,500,316,16,27,25,2,1,3,130,41,71
537047,1,266,178,13,27,10,2,2,1,58,21,44
537055,2,124,84,1,10,8,2,0,0,27,15,21
537055,1,372,226,3,40,16,2,1,1,80,23,60
537080,1,424,249,11,24,11,1,1,1,119,22,59
537098,1,196,139,8,9,3,0,0,0,63,20,36
537101,1,184,116,18,9,6,4,0,1,45,6,27
537110,1,311,195,4,16,14,0,0,0,99,18,44
537110,2,126,79,7,7,6,1,1,1,31,9,16
537128,1,673,374,9,36,42,4,0,4,134,46,99
537152,1,628,451,18,44,27,2,2,2,151,40,165
537161,1,217,144,5,34,9,4,1,0,42,22,27
537179,1,501,328,38,38,29,5,2,2,90,26,98
537217,1,349,244,16,32,20,0,1,0,83,28,64
537225,1,277,147,4,25,8,0,2,2,65,16,25
537233,1,404,254,12,22,29,4,4,4,86,23,70
537250,1,262,128,7,19,6,1,3,0,63,8,21
537268,1,288,194,4,22,12,4,3,0,57,15,77
537276,1,429,282,16,23,17,7,0,1,115,33,70
537292,3,45,36,1,2,5,0,0,0,23,3,2
537292,2,39,27,3,2,3,0,0,0,13,1,5
537292,1,342,229,2,13,15,3,1,4,112,33,46
537306,1,71,42,0,3,2,2,1,0,22,4,8
537314,1,677,477,25,56,45,12,1,3,173,31,131
537331,2,185,127,2,13,10,1,1,1,48,16,35
537331,1,1298,823,35,76,99,14,8,7,280,101,203
537349,3,55,36,0,3,0,1,0,0,20,4,8
537349,2,65,33,1,5,1,2,0,0,19,5,0
537349,1,170,107,3,10,8,1,0,0,59,7,19
537357,1,1036,753,33,78,88,10,4,4,199,83,254
537373,2,231,153,2,32,10,2,1,0,47,14,45
537373,1,449,294,22,29,20,5,5,1,112,28,72
537390,1,604,343,7,41,20,5,1,3,164,24,78
537403,1,312,195,11,16,15,1,0,3,65,19,65
537411,3,69,52,1,4,1,3,0,0,31,4,8
537411,2,54,35,2,7,4,1,0,0,12,1,8
537411,1,842,502,18,46,24,14,0,1,240,41,118
537411,4,73,63,3,7,3,0,0,0,31,4,15
537438,1,1052,665,19,50,58,5,4,7,275,67,180
537446,3,66,51,0,10,2,0,0,0,19,6,14
537446,2,304,201,10,31,15,5,1,0,69,17,53
537446,1,714,503,27,59,40,6,3,6,173,51,138
537454,6,1092,499,26,54,62,6,5,0,134,43,169
537454,5,858,565,47,59,73,5,0,6,166,50,159
537454,4,783,506,16,48,53,2,1,4,163,49,170
537454,3,998,667,21,69,77,9,3,2,214,56,216
537454,9,1036,732,31,81,92,14,3,4,186,92,229
537454,8,1148,825,42,113,108,8,5,6,233,81,229
537454,7,1097,831,46,97,116,17,0,6,231,68,250
537454,2,112,73,1,4,4,0,0,1,34,8,21
537454,1,87,67,9,13,3,0,0,1,16,5,20
537462,1,305,197,7,29,11,0,0,1,97,12,40
537489,3,652,418,18,48,20,3,4,2,190,54,79
537489,2,851,446,25,40,27,5,4,0,209,42,94
537489,1,744,484,22,43,38,10,4,1,195,55,116
537489,5,73,54,7,5,5,1,1,0,21,7,7
537489,4,52,31,0,2,0,0,2,2,18,2,5
537497,1,236,149,5,19,12,4,0,0,53,12,44
537501,4,225,132,7,14,6,2,0,1,52,17,33
537501,3,758,423,27,44,59,13,3,7,90,54,126
537501,2,1960,736,45,104,68,9,3,8,186,100,213
537501,1,1038,641,24,81,61,4,4,4,202,70,191
537501,7,1131,637,17,66,77,12,2,0,213,67,183
537501,6,857,342,21,36,30,3,3,3,122,34,90
537501,5,1503,781,21,97,66,21,8,1,256,86,225
537551,1,276,177,9,9,6,3,1,0,90,17,42
537560,1,155,97,2,5,3,1,1,1,52,9,23
537578,1,379,269,8,22,25,5,3,2,132,28,44
537586,4,56,39,1,4,3,1,0,0,18,3,9
537586,3,365,240,12,28,13,5,0,1,76,25,80
537586,2,151,101,7,12,1,1,1,0,43,10,26
537586,1,144,94,2,9,3,3,0,0,44,7,26
537616,1,451,273,7,24,21,6,0,1,115,20,79
537624,1,430,307,16,25,27,6,3,2,99,27,102
537632,1,554,393,30,52,36,6,0,5,135,19,110
537641,2,612,367,14,28,20,4,3,0,167,39,92
537641,1,655,433,8,44,38,7,3,0,190,40,103
537641,6,334,189,6,19,24,4,3,2,83,14,34
537641,5,854,502,29,53,44,6,3,4,179,48,136
537641,4,530,384,25,31,28,2,2,2,172,20,102
537641,3,656,455,24,54,32,9,3,3,165,32,133
537659,1,383,238,21,24,19,1,1,1,85,14,72
537667,1,349,241,6,33,20,3,1,2,109,12,55
537675,2,79,48,3,3,1,1,1,0,18,8,13
537675,1,375,227,7,13,28,3,0,4,80,31,61
537683,7,773,590,26,76,80,3,2,1,140,33,229
537683,6,741,501,24,67,41,3,0,3,159,43,161
537683,5,1067,550,54,57,67,6,0,3,154,38,171
537683,4,644,458,34,48,44,5,3,3,124,47,150
537683,3,443,344,18,44,44,2,0,2,67,29,138
537683,2,927,687,43,75,70,5,4,4,208,58,220
537683,1,1263,800,29,106,90,2,6,1,259,76,231
537683,15,913,630,30,85,60,7,5,4,156,79,204
537683,14,261,173,4,8,22,2,0,0,55,19,63
537683,13,504,389,40,41,25,8,3,2,100,48,122
537683,12,414,312,17,33,26,5,2,3,96,35,95
537683,11,609,435,25,51,36,5,2,6,117,62,131
537683,10,841,620,27,64,68,7,2,7,173,44,228
537683,9,918,643,45,58,59,17,2,1,185,59,217
537683,8,857,601,32,63,46,7,2,2,191,64,194
537705,1,1156,799,42,79,72,14,4,5,260,93,230
537721,1,915,622,35,75,63,6,1,2,202,58,180
537748,1,467,279,10,33,17,1,1,2,93,28,94
537756,1,1311,725,26,60,48,2,5,9,301,79,195
537764,3,822,555,33,77,54,8,6,6,174,61,136
537764,2,855,536,26,59,36,6,8,3,243,47,108
537764,1,926,531,24,65,47,8,5,1,190,50,141
537772,1,430,293,13,19,15,11,4,0,130,31,70
537781,1,753,469,23,57,53,5,0,4,149,43,135
537799,1,161,115,5,6,10,1,0,2,54,10,27
537802,3,49,29,0,7,5,1,0,0,8,0,8
537802,2,101,59,3,4,5,3,1,0,32,3,8
537802,1,270,173,5,25,6,1,0,0,83,26,27
537811,1,789,517,17,56,28,8,8,2,219,47,132
537837,1,451,303,14,39,31,1,2,3,104,20,89
537853,1,422,269,11,33,34,2,4,2,115,28,40
537861,1,426,256,10,36,30,1,1,0,83,20,75
537888,1,487,310,16,22,37,6,3,3,128,26,69
537896,1,651,423,13,53,46,8,1,2,154,35,111
537900,1,265,167,4,12,11,1,3,0,75,22,39
537942,1,240,164,7,17,8,0,0,1,91,13,27
537951,1,62,49,0,6,2,0,2,0,23,4,12
537977,1,401,267,7,28,39,2,5,2,82,20,82
537985,1,581,383,15,33,29,3,2,5,150,42,104
537993,1,315,204,12,27,11,4,0,0,85,26,39
538035,1,377,256,7,37,11,5,3,0,109,20,64
538043,1,737,538,36,86,50,7,5,2,121,61,170
538051,1,1413,989,68,141,113,19,5,5,210,89,339
538086,1,590,456,31,60,42,5,3,2,147,40,126
538094,4,700,470,42,53,43,8,3,1,135,41,144
538094,3,1033,351,21,51,46,3,0,0,71,49,110
538094,15,1181,865,56,132,110,9,3,5,147,86,317
538094,14,69,41,0,5,1,0,1,0,23,4,7
538094,13,1056,787,45,100,71,20,2,4,270,55,220
538094,12,952,654,33,83,73,7,5,4,163,73,213
538094,11,861,585,17,60,70,7,5,2,212,56,156
538094,2,751,512,30,71,66,7,1,5,117,44,171
538094,1,1284,899,43,129,94,17,7,8,259,74,268
538094,5,721,447,18,63,53,1,2,1,141,38,130
538094,10,1132,780,49,70,110,13,4,6,201,68,259
538094,9,1147,772,27,78,73,11,3,8,276,79,217
538094,8,799,523,26,78,34,11,2,4,183,52,133
538094,7,795,534,24,55,61,2,3,2,171,68,148
538094,6,916,641,44,84,69,3,1,3,174,69,194
538108,1,534,362,15,45,25,3,2,2,121,36,113
538132,5,978,605,41,46,65,7,1,2,198,54,191
538132,4,721,516,39,81,58,8,1,2,142,51,134
538132,3,900,676,49,61,78,11,1,6,175,65,230
538132,2,1061,788,44,94,109,12,6,3,177,68,275
538132,1,839,595,35,59,64,8,4,3,149,66,207
538132,11,1234,644,36,73,79,9,8,0,184,68,187
538132,10,636,501,38,57,63,7,3,4,132,42,155
538132,9,290,175,5,17,7,4,3,2,65,14,58
538132,8,515,339,14,26,44,1,2,2,108,37,105
538132,7,1042,728,37,94,95,14,2,1,214,65,206
538132,6,727,489,23,61,48,7,2,0,125,45,178
538141,1,491,355,27,41,56,3,2,3,90,33,100
538167,1,694,486,37,54,71,6,0,3,129,53,133
538191,1,581,393,35,38,48,11,3,4,100,37,117
538221,2,371,240,11,32,18,4,2,2,57,35,79
538221,1,585,458,39,55,70,2,8,3,91,48,142
538230,1,1650,1225,100,135,122,10,5,7,350,89,407
538248,1,615,418,12,57,46,8,0,6,87,49,153
538256,1,1014,766,47,109,119,9,4,2,144,62,270
538264,1,667,452,34,74,55,2,3,1,81,35,167
538272,3,717,498,32,50,55,4,4,8,107,53,185
538272,2,691,524,39,72,61,6,1,4,108,41,192
538272,1,500,379,30,35,53,9,2,4,71,38,137
538281,2,143,89,4,13,8,1,1,0,31,5,26
538281,1,81,66,1,9,5,3,0,0,17,6,25
538299,2,1679,1165,88,123,178,25,8,4,272,114,353
538299,1,1591,1105,53,135,136,18,6,11,261,108,377
538311,2,1475,1008,54,136,127,13,5,6,206,86,375
538311,1,968,639,22,82,71,13,4,2,184,50,211
538329,1,274,168,12,22,25,2,0,2,48,14,43
538345,1,600,377,16,42,44,8,2,1,140,30,94
538370,1,538,405,25,57,48,9,5,4,97,33,127
538418,1,179,137,17,20,9,4,0,0,24,11,52
538426,1,1039,758,58,103,96,5,3,7,167,59,260
538442,1,1767,1291,110,164,138,16,12,5,290,127,429
538451,1,794,618,50,101,61,4,3,5,111,58,225
538469,1,308,225,8,15,21,2,0,2,97,16,64
538477,1,1468,955,53,153,133,14,10,2,235,81,274
538485,1,896,640,47,79,58,14,2,3,152,60,225
538493,4,308,229,16,27,30,1,2,5,38,26,84
538493,3,420,330,16,51,48,4,2,0,78,29,102
538493,2,828,590,29,83,82,5,3,1,139,70,178
538493,1,1163,788,42,90,110,6,4,4,188,83,261
538507,1,796,533,37,70,43,7,3,0,189,55,129
538515,1,899,617,40,82,61,14,1,4,178,49,188
538523,1,1807,1250,99,157,133,23,8,5,290,119,416
538540,2,656,482,22,53,45,11,1,7,136,62,145
538540,1,1274,887,50,133,104,14,6,0,205,76,299
538558,1,848,586,54,85,55,6,4,5,132,64,181
538566,1,368,257,17,33,17,0,2,5,64,29,90
538574,4,895,636,29,74,55,6,4,8,226,55,179
538574,3,1030,663,33,65,64,7,4,2,242,75,171
538574,2,1756,1106,55,137,164,21,7,8,262,125,327
538574,1,682,504,20,48,82,7,4,1,125,48,169
538582,3,158,113,10,18,18,2,0,2,23,10,30
538582,2,232,154,10,22,13,1,3,4,51,15,35
538582,1,817,579,29,89,82,8,2,2,122,46,199
538604,1,431,295,26,39,22,4,1,2,65,44,92
538612,1,408,274,9,42,33,5,2,2,57,26,98
538621,1,424,299,12,36,28,2,5,1,108,29,78
538639,1,211,116,11,17,10,6,2,1,31,12,26
538647,1,739,469,16,60,56,4,2,5,147,56,123
538655,1,655,472,38,75,47,3,2,3,96,44,164
538671,1,1129,845,78,98,87,7,4,4,197,102,268
538680,2,269,189,15,19,28,0,0,1,38,18,70
538680,1,1153,828,46,101,115,9,6,6,207,58,280
538698,1,324,246,29,30,26,2,1,1,59,31,67
538701,1,705,484,45,68,60,2,2,2,130,46,129
538710,1,357,239,13,20,35,5,0,1,55,28,82
538728,15,482,355,20,41,45,2,1,4,53,34,155
538728,9,946,735,46,85,117,8,8,5,113,57,296
538728,14,378,296,18,45,40,3,0,1,47,18,124
538728,13,129,86,7,14,6,0,0,0,22,8,29
538728,12,179,105,5,13,5,1,4,0,35,12,30
538728,11,127,93,2,17,9,1,1,1,30,13,19
538728,10,1137,800,51,93,105,5,4,2,189,70,281
538728,8,856,585,26,63,69,8,1,6,174,47,191
538728,7,872,620,47,79,64,6,2,3,121,53,245
538728,6,824,606,27,79,89,9,5,3,101,60,233
538728,5,1123,870,59,103,126,10,5,3,149,84,331
538728,4,868,634,32,63,82,12,6,2,144,63,230
538728,1,1184,894,64,105,123,11,7,2,160,89,333
538728,3,801,594,29,73,73,8,2,1,119,61,228
538728,2,1288,806,72,86,97,11,6,2,140,81,311
538752,1,951,687,58,85,86,5,1,5,150,67,230
538761,1,599,408,24,64,37,2,2,0,83,38,158
538779,1,545,352,25,40,27,5,2,2,113,30,108
538787,1,386,261,17,24,18,5,6,0,79,34,78
538809,1,1706,1219,72,163,161,15,5,7,280,111,405
538825,1,644,480,20,59,47,5,7,3,115,56,168
538833,3,157,138,12,21,15,1,0,2,30,23,34
538833,2,638,487,39,67,60,9,3,2,84,60,163
538833,1,559,401,29,59,39,10,2,1,82,44,135
538841,1,888,673,31,78,90,5,5,3,160,60,241
538850,1,755,535,35,77,69,5,2,1,118,51,177
538876,1,1180,873,84,110,109,9,3,9,154,74,321
538876,2,1298,929,69,110,123,11,0,5,193,101,317
538884,1,1175,819,62,99,116,15,6,3,166,70,282
538892,1,641,447,32,83,68,4,2,3,69,47,139
538914,1,1026,630,41,64,66,9,4,3,188,50,205
538957,3,1607,1136,78,130,143,17,5,9,223,136,395
538957,2,1566,1048,74,113,103,12,4,2,262,96,382
538957,1,1641,1285,75,164,158,15,4,8,259,154,448
538965,1,954,689,29,99,67,15,4,5,186,65,219
538973,1,251,170,21,20,12,2,0,0,38,18,59
538981,2,662,485,34,62,54,14,5,1,106,65,144
538981,1,1280,898,65,90,118,16,2,4,207,87,309
538990,1,453,309,8,39,26,2,2,0,96,37,99
539015,1,462,291,16,28,23,8,2,0,96,33,85
539031,1,640,449,35,65,51,7,0,3,122,32,134
539040,1,496,315,10,36,32,0,1,0,118,37,81
539058,1,2270,1640,107,264,227,12,4,7,320,135,564
539066,2,1107,815,64,114,94,8,3,4,152,90,286
539066,1,970,732,52,96,106,15,1,6,144,62,250
539082,1,436,303,32,39,47,9,3,2,58,27,86
539091,1,417,301,21,29,30,6,3,6,104,23,79
539104,3,47,36,4,4,3,0,0,0,8,1,16
539104,2,98,74,3,17,2,1,1,0,18,11,21
539104,1,227,175,9,19,15,1,0,0,47,20,64
539121,1,328,249,14,30,33,2,1,2,45,21,101
539139,5,1225,910,75,85,170,7,3,4,122,62,382
539139,4,990,790,45,73,124,9,1,2,130,82,324
539139,3,1038,806,47,76,119,6,4,4,157,81,312
539139,2,972,786,56,70,154,11,0,2,118,62,313
539139,1,927,692,36,69,140,4,0,3,115,58,267
539147,1,236,167,4,27,13,1,3,1,40,17,61
539155,2,229,164,10,17,4,2,0,0,51,10,70
539155,1,606,403,19,62,44,5,3,2,118,34,116
539163,2,362,273,12,43,40,5,1,2,65,20,85
539163,1,879,638,39,73,71,13,1,3,151,78,209
539171,1,434,322,13,40,36,7,1,0,109,28,88
539180,1,248,199,7,29,25,3,0,1,62,21,51
539198,3,832,621,32,58,95,11,3,4,102,34,282
539198,2,1147,837,52,89,138,6,1,3,126,89,333
539198,1,833,614,49,47,96,9,4,2,110,41,256
539201,1,660,453,25,41,50,4,2,2,124,63,142
539210,2,560,397,47,39,35,9,3,4,80,37,143
539210,1,2098,1578,115,174,209,10,3,6,260,162,639
539228,1,1242,845,61,101,96,13,3,4,198,85,284
539236,2,1348,1020,64,135,122,9,4,3,218,86,379
539236,1,1253,867,67,119,114,16,1,1,170,79,300
539244,5,1215,739,47,98,89,9,6,3,150,80,257
539244,4,1030,764,57,85,96,8,4,2,179,74,259
539244,3,1130,780,52,84,116,11,3,3,194,87,230
539244,2,1236,796,48,92,99,6,5,10,194,72,270
539244,1,1230,859,84,105,106,8,6,5,133,92,320
539252,3,285,206,11,27,24,4,2,1,49,19,69
539252,2,295,207,9,21,27,9,0,0,41,26,74
539252,1,1076,751,48,105,80,7,11,4,199,67,230
539261,1,386,303,15,40,63,2,2,0,72,39,70
539287,1,279,175,13,15,18,0,2,1,54,13,59
539295,1,624,404,26,52,43,6,8,2,100,40,127
539309,1,1035,759,45,87,89,18,1,3,178,79,259
539309,2,726,556,46,64,63,18,4,4,108,56,193
539317,1,992,652,27,63,58,5,14,2,226,78,179
539325,4,590,468,46,62,54,6,1,4,88,36,171
539325,3,1011,747,68,70,97,16,2,6,160,65,263
539325,2,962,710,58,107,113,17,2,4,117,80,212
539325,1,1059,685,42,86,92,11,4,6,151,75,218
539325,5,1032,715,78,78,83,12,4,5,173,77,205
539325,6,851,666,59,104,83,10,1,6,95,61,247
539333,2,1155,727,51,90,93,6,5,4,172,63,243
539333,1,1234,830,44,88,112,12,2,6,206,88,272
539333,6,256,163,13,28,13,5,1,0,45,13,45
539333,5,147,80,1,9,9,0,3,1,22,7,28
539333,4,310,209,12,27,11,5,1,1,57,22,73
539333,3,478,337,17,47,33,4,2,2,77,34,121
539341,1,522,366,25,39,39,2,3,1,70,40,147
539350,1,1298,928,70,139,108,20,8,2,188,80,313
539368,1,1119,691,36,70,79,15,5,2,241,54,189
539384,1,458,330,20,42,27,7,2,1,92,41,98
539392,1,673,474,31,43,45,2,1,3,138,41,170
539406,1,1067,818,67,79,136,8,6,3,137,63,319
539414,3,869,548,28,72,52,6,3,3,149,57,178
539414,2,738,473,27,61,54,5,4,0,122,37,163
539414,1,999,609,23,63,70,12,3,1,170,72,195
539422,2,443,302,27,43,32,6,2,0,62,37,93
539422,1,659,460,40,54,63,5,4,5,97,41,151
539457,1,541,382,30,41,49,5,0,0,98,33,126
539490,1,627,476,24,66,43,4,1,2,131,48,157
539503,1,954,718,54,63,83,10,2,3,158,83,262
539511,1,537,353,14,52,31,6,3,2,101,31,113
539520,1,725,517,36,57,67,7,2,5,126,58,159
539546,1,533,369,14,44,30,5,1,1,113,38,123
539562,1,273,193,17,17,18,3,1,0,62,17,58
539571,1,1773,1322,94,140,161,28,3,9,280,128,479
539597,1,2805,1944,146,254,223,33,5,10,453,157,663
539627,2,1154,785,42,93,124,11,3,4,162,97,249
539627,1,358,261,22,26,47,4,1,2,62,24,73
539627,7,911,689,37,85,117,13,5,3,109,62,258
539627,6,788,603,25,55,103,7,1,2,102,73,235
539627,5,905,713,49,70,111,2,3,6,154,71,247
539627,4,822,584,32,68,93,12,3,0,132,54,190
539627,3,870,685,53,75,115,9,2,0,97,51,283
539643,2,1127,834,48,89,116,9,2,5,173,62,330
539643,1,1526,1104,76,123,152,12,8,0,239,88,406
539651,1,897,650,57,79,82,6,3,3,144,81,195
539660,1,718,529,41,53,66,7,3,2,146,34,177
539686,1,1019,688,40,101,112,2,0,3,160,54,216
539708,1,850,606,31,70,62,7,2,4,185,45,200
539732,3,416,303,20,36,32,5,4,3,62,30,111
539732,2,161,120,10,11,8,0,2,0,34,19,36
539732,1,950,628,38,73,79,5,3,4,145,64,217
539759,2,186,133,16,19,13,3,2,1,25,8,46
539759,1,869,636,37,66,83,10,1,4,152,63,220
539767,1,1014,732,39,78,150,4,5,3,200,64,189
539775,1,615,380,21,41,37,16,2,1,91,28,143
539805,1,522,392,15,52,36,2,0,1,77,38,171
539813,1,2169,1581,118,214,221,14,17,7,315,134,541
539830,1,425,302,20,34,35,5,2,1,69,18,118
539848,2,950,676,36,113,68,9,1,5,154,77,213
539848,1,975,599,32,75,72,6,3,2,148,64,197
539856,1,1319,1010,59,105,109,11,4,3,263,91,365
539872,1,841,616,32,87,88,10,1,2,107,68,221
539881,1,974,684,41,80,96,6,6,1,163,62,229
539902,1,1286,948,51,147,111,14,3,5,174,116,327
539911,39,604,424,20,36,29,7,3,4,144,39,142
539911,22,668,308,9,23,24,3,1,1,133,18,96
539911,21,676,391,18,43,30,5,3,4,142,43,103
539911,20,607,348,13,41,38,4,3,1,141,20,87
539911,19,627,386,17,40,37,3,3,4,129,36,117
539911,18,610,372,7,39,18,6,1,2,155,48,96
539911,17,533,320,11,24,24,9,0,1,111,41,99
539911,16,734,432,14,35,30,6,3,2,190,45,107
539911,15,702,362,6,46,16,6,2,1,154,33,98
539911,14,1199,795,47,74,71,16,2,4,323,45,213
539911,13,36,25,4,2,1,0,0,0,7,2,9
539911,12,1066,663,16,53,59,9,6,4,268,63,185
539911,11,1031,645,16,53,29,5,4,2,327,64,145
539911,38,227,148,12,13,11,2,1,1,47,19,42
539911,37,289,218,14,23,19,1,2,0,68,28,63
539911,36,120,81,2,10,5,0,1,0,37,6,20
539911,35,81,63,1,9,6,1,0,2,28,6,10
539911,34,417,327,25,41,27,5,1,1,97,22,108
539911,33,301,219,11,21,39,6,0,2,78,25,37
539911,32,626,430,17,22,38,5,5,1,177,40,125
539911,2,777,443,13,36,34,10,6,6,159,42,137
539911,1,2224,573,37,57,44,6,6,3,210,54,156
539911,6,677,462,22,64,43,1,4,2,134,53,139
539911,10,679,488,45,48,44,6,1,4,120,56,164
539911,9,949,567,21,50,59,8,1,4,189,47,188
539911,31,503,322,22,29,28,7,1,0,113,33,89
539911,30,846,467,12,41,28,4,2,2,220,36,122
539911,29,845,548,16,47,49,5,4,0,244,38,145
539911,28,898,598,19,62,39,9,4,3,236,58,168
539911,27,688,412,20,38,27,6,4,5,154,48,110
539911,26,614,315,9,23,28,1,0,2,170,16,66
539911,25,473,351,10,39,32,4,1,2,142,31,90
539911,24,586,324,9,30,18,2,0,1,152,19,93
539911,23,624,396,19,31,44,3,3,2,164,28,102
539911,5,663,440,22,42,51,3,7,1,127,48,139
539911,4,914,673,49,75,63,6,2,5,171,69,233
539911,3,642,442,23,57,38,1,5,5,116,26,171
539911,8,927,556,26,60,37,8,1,2,234,29,159
539911,7,828,495,19,48,26,13,2,3,220,34,130
539953,2,865,533,19,58,28,7,4,4,223,48,142
539953,1,567,410,13,49,28,5,0,3,154,36,122
539970,1,303,200,9,13,29,0,5,1,66,24,53
539988,1,253,147,3,7,8,4,2,1,48,16,58
540013,4,604,365,7,31,36,3,5,1,150,31,101
540013,3,740,345,23,27,27,4,8,0,149,21,86
540013,2,950,639,24,61,73,10,4,1,253,58,155
540013,1,546,361,15,23,31,4,1,1,151,35,100
540021,1,282,208,12,32,13,0,2,0,72,19,58
540048,1,278,218,12,30,22,1,1,1,41,23,87
540072,1,329,205,7,11,10,5,1,0,96,17,58
540081,1,238,168,6,17,13,1,0,0,61,10,60
540099,1,344,240,4,16,32,4,1,5,58,30,90
540111,4,1188,775,30,78,98,7,10,8,238,75,231
540111,3,1133,811,32,75,105,9,0,5,254,81,250
540111,2,976,653,18,62,94,5,2,2,185,66,219
540111,1,1328,926,34,90,131,11,5,1,294,93,267
540111,6,1303,643,32,65,57,7,3,3,209,54,213
540111,5,1054,765,39,80,76,9,3,2,209,77,270
540129,5,64,52,1,4,4,0,1,0,14,4,24
540129,4,91,67,2,7,1,1,0,0,28,6,22
540129,3,157,115,7,8,6,0,0,0,36,7,51
540129,2,159,136,3,8,3,1,0,1,57,6,57
540129,1,255,191,2,12,2,0,3,0,86,29,57
540145,1,442,313,11,16,23,2,3,2,131,34,91
540153,1,351,263,9,40,12,1,0,1,114,22,64
540170,1,267,176,17,16,16,0,0,2,64,16,45
540188,1,209,137,3,23,16,1,0,2,42,18,32
540218,3,109,81,2,6,2,2,0,0,43,8,18
540218,2,116,75,2,4,7,0,1,0,26,8,27
540218,1,660,419,13,35,36,5,4,1,126,44,155
540242,1,502,319,16,29,43,3,1,3,137,20,67
540285,1,326,219,11,20,14,2,0,1,71,23,77
540315,4,100,72,5,5,3,0,0,2,33,7,17
540315,3,89,71,2,5,6,2,0,0,37,7,12
540315,2,61,41,3,1,10,0,0,0,15,5,7
540315,1,393,252,10,20,13,1,3,2,106,27,70
540323,1,374,244,10,20,31,3,0,4,62,20,94
540358,1,207,143,8,7,17,1,1,0,39,29,41
540374,2,91,72,1,5,9,0,0,0,25,9,23
540374,1,236,147,8,12,11,3,0,0,51,16,46
540391,1,441,286,4,24,26,6,2,1,107,32,84
540404,4,33,15,1,1,1,0,0,0,4,1,7
540404,3,80,50,2,3,3,0,0,1,22,5,14
540404,2,913,557,25,63,31,7,8,4,229,64,126
540404,1,684,367,11,29,25,2,4,1,190,32,73
540439,1,733,465,23,49,24,4,6,0,177,26,156
540447,1,375,253,6,19,40,3,2,0,97,21,65
540498,1,1090,658,21,66,65,8,1,3,219,66,209
540536,1,320,203,14,22,10,2,4,2,89,9,51
540552,1,880,552,20,55,46,2,3,2,193,49,182
540579,1,153,120,7,16,7,2,1,2,30,21,34
540587,1,107,88,7,8,5,0,0,0,43,10,15
540625,1,475,333,12,24,22,3,0,1,127,35,109
540714,1,803,538,22,63,51,8,3,3,188,50,150
540749,1,265,161,4,12,10,1,1,0,71,11,51
540757,4,54,30,1,2,3,0,2,0,14,3,5
540757,3,166,117,3,3,5,3,5,2,50,21,25
540757,2,728,474,18,46,57,3,4,1,165,49,131
540757,1,720,459,6,73,36,6,1,0,165,52,120
540765,5,194,162,4,14,21,1,0,1,32,20,69
540765,4,609,452,40,59,57,7,5,1,91,40,152
540765,3,1200,813,47,89,94,14,2,4,197,66,300
540765,2,1090,783,43,98,94,13,4,6,209,73,243
540765,1,1216,746,44,90,113,8,4,1,147,74,265
540781,1,595,404,13,43,42,4,0,2,130,40,130
540790,1,447,315,15,37,31,2,2,4,104,47,73
540811,1,618,401,16,32,37,2,1,2,155,39,117
540820,1,354,260,16,2,47,9,1,1,79,28,77
540846,3,90,60,0,4,8,1,2,0,17,16,12
540846,2,82,59,3,3,4,0,0,0,24,12,13
540846,1,352,244,17,21,35,3,1,1,75,23,68
540889,1,945,670,46,95,79,2,2,0,177,60,209
540897,1,207,137,4,20,19,1,2,1,27,9,54
540901,2,777,505,25,55,41,6,3,1,170,53,151
540901,1,790,516,18,52,57,2,8,1,205,42,131
540935,2,101,79,4,3,2,2,1,2,46,6,13
540935,1,914,587,23,52,49,7,4,1,231,69,151
540943,1,207,148,10,9,4,2,0,1,56,7,59
540951,1,536,361,5,40,47,2,4,2,127,41,93
540960,1,234,157,6,7,17,2,0,2,60,19,44
541010,1,186,137,11,19,17,1,0,2,26,16,45
541028,1,298,183,10,9,16,2,1,1,77,19,48
541044,3,134,102,5,5,8,1,1,2,27,16,37
541044,2,135,96,1,6,35,2,1,3,19,4,25
541044,1,814,551,29,58,81,7,7,2,152,55,160
541052,1,494,313,17,21,14,1,5,0,144,32,79
541087,1,442,290,7,25,30,0,3,0,117,27,81
541133,1,403,257,8,29,42,1,3,4,87,20,63
541206,1,650,403,16,41,38,6,1,2,159,29,111
541231,11,147,105,1,4,6,0,0,0,48,9,37
541231,10,103,77,3,12,7,0,0,0,23,12,20
541231,9,213,116,7,7,13,1,2,0,54,13,19
541231,8,185,137,2,12,11,1,2,0,61,19,29
541231,7,99,65,4,4,4,0,0,1,38,1,13
541231,6,268,203,4,29,23,3,4,0,73,16,51
541231,5,125,55,5,5,3,3,0,1,25,1,12
541231,4,637,410,11,40,30,4,3,1,203,34,84
541231,3,512,323,18,24,36,1,2,1,141,22,78
541231,2,554,352,16,37,25,5,7,1,163,27,71
541231,1,710,373,15,41,40,2,2,1,142,31,99
541257,1,334,239,6,27,24,3,1,0,78,30,70
541273,1,188,133,5,18,11,0,0,0,60,9,30
541281,13,58,41,1,5,4,0,0,0,11,6,14
541281,12,134,90,3,6,14,2,2,0,27,4,32
541281,11,116,86,4,15,8,1,0,0,14,13,31
541281,10,108,72,1,5,5,0,0,0,27,9,25
541281,9,178,120,7,16,7,3,1,0,41,11,34
541281,8,991,675,20,61,83,9,7,3,207,65,220
541281,7,557,384,14,50,55,3,3,2,101,33,123
541281,6,932,685,23,73,70,10,5,4,166,91,243
541281,5,120,56,4,4,3,0,2,0,33,3,7
541281,4,645,414,20,26,35,5,0,1,160,48,119
541281,3,688,456,15,41,46,2,3,2,175,36,136
541281,2,448,323,12,34,39,8,1,1,95,30,103
541281,1,920,534,21,60,64,8,2,1,151,48,179
541311,1,197,149,9,15,12,1,1,2,51,9,49
541320,1,306,173,0,15,7,4,5,0,60,20,62
541338,1,1059,752,32,82,89,16,2,5,220,89,217
541371,1,281,217,5,15,19,0,1,2,89,28,58
541389,1,356,270,17,18,34,4,2,1,63,45,86
541397,1,499,318,9,41,40,6,1,5,88,29,99
541419,1,259,157,10,14,28,3,2,0,45,18,37
541427,2,49,44,0,11,3,4,2,0,13,1,10
541427,1,446,308,6,38,24,6,0,2,120,23,89
541451,1,195,125,3,18,17,0,0,0,41,11,35
541508,2,119,85,3,8,5,1,1,0,38,4,25
541508,1,418,258,9,22,21,4,2,1,126,23,50
541516,1,537,355,27,37,36,2,3,1,126,38,85
541524,2,135,90,1,12,6,2,1,0,37,8,23
541524,1,188,146,8,9,24,6,1,1,44,20,33
541541,1,493,344,32,46,43,2,0,0,81,28,112
541567,1,236,156,1,10,9,1,0,1,82,15,37
541583,1,260,196,6,35,11,4,0,2,74,16,48
541591,3,106,83,0,4,14,0,1,0,23,4,37
541591,2,85,64,1,7,10,1,1,0,19,3,22
541591,1,497,316,10,28,35,6,4,2,103,20,108
541613,1,262,174,7,15,29,2,1,0,64,13,43
541656,4,699,446,20,50,43,4,3,1,187,37,101
541656,3,862,608,28,75,40,7,1,2,241,65,149
541656,2,720,464,8,47,15,8,4,1,210,48,123
541656,17,207,128,4,17,6,1,0,0,56,22,22
541656,16,933,617,26,64,60,6,2,2,245,65,147
541656,15,910,532,31,44,35,5,1,1,219,47,149
541656,14,823,470,13,50,36,7,4,2,183,50,125
541656,1,965,566,16,53,43,8,0,9,209,60,168
541656,13,993,616,22,49,63,6,6,3,224,85,158
541656,12,653,437,11,40,39,4,1,0,215,32,95
541656,11,802,543,30,53,45,8,4,1,204,61,137
541656,10,523,320,11,49,20,8,4,0,118,33,77
541656,9,749,509,32,51,36,4,3,1,185,59,138
541656,8,434,246,8,28,13,2,0,2,98,31,64
541656,7,1107,433,35,51,32,11,3,1,146,45,109
541656,6,571,370,11,32,27,4,0,0,161,39,96
541656,5,654,414,20,31,22,8,1,2,166,33,131
541672,1,172,120,0,6,5,0,0,0,68,4,37
541699,3,68,33,0,2,3,0,0,0,16,4,8
541699,2,81,40,6,3,1,0,0,0,22,2,6
541699,1,572,311,9,29,22,5,6,1,129,34,76
541729,1,334,194,8,16,9,0,2,0,104,19,36
541737,1,379,167,10,17,2,1,4,0,93,11,29
541761,1,40,33,2,3,3,0,0,0,14,0,11
541761,3,151,98,2,10,19,1,0,3,48,6,9
541761,2,26,14,0,0,4,0,0,0,5,4,1
541770,1,458,278,7,23,15,3,1,2,155,18,54
541818,1,528,322,14,37,15,5,0,3,164,27,57
541834,2,674,399,21,28,21,10,6,5,178,44,86
541834,1,598,321,26,24,26,5,6,2,147,23,62
541877,1,799,465,21,45,25,6,2,3,232,55,76
541893,1,684,377,9,33,25,7,0,0,174,40,89
541907,1,412,216,6,17,10,2,0,0,117,20,44
541940,1,211,132,9,9,6,0,0,1,68,11,28
541966,1,362,200,6,16,6,5,2,0,114,11,40
541974,1,475,301,15,25,26,11,2,2,104,20,96
541982,1,571,308,16,27,23,2,1,0,104,23,112
541991,2,759,527,30,67,63,11,2,1,146,53,154
541991,1,849,592,31,67,44,7,1,6,190,41,205
542008,1,105,57,1,2,0,0,0,2,34,10,8
542016,1,541,328,15,22,24,4,2,1,178,28,54
542032,1,746,500,25,50,25,4,6,3,229,59,99
542041,2,447,316,5,39,22,5,0,2,143,20,80
542041,1,1079,661,25,60,38,16,7,3,283,68,161
542067,1,371,228,3,30,15,0,5,0,87,22,66
542075,1,240,141,0,20,6,1,1,0,78,9,26
542105,1,708,440,17,54,34,7,4,0,179,42,103
542113,1,342,224,13,23,20,5,3,0,102,20,38
542113,2,113,83,6,13,2,1,1,0,46,5,9
542121,2,63,45,1,2,3,1,0,0,30,2,6
542121,1,578,326,11,41,18,4,2,0,136,44,70
542130,1,342,217,1,25,10,1,2,1,96,16,65
542164,4,883,578,30,65,73,8,2,2,183,59,156
542164,3,1105,627,16,69,89,10,2,2,198,72,169
542164,2,1031,573,17,74,60,9,3,2,225,58,125
542164,1,1301,921,49,122,110,12,0,7,268,80,273
542181,1,126,86,4,4,7,0,1,0,34,4,32
542199,1,480,336,29,33,35,9,0,1,136,34,59
542202,1,708,462,21,85,12,4,2,2,177,27,132
542211,1,236,147,6,16,8,0,1,3,53,12,48
542229,1,233,136,1,12,9,4,1,1,74,6,28
542237,1,224,158,1,10,10,2,0,2,83,10,40
542253,1,165,123,0,8,7,1,3,0,65,14,25
542270,1,230,136,7,11,13,0,2,0,70,9,24
542288,1,111,79,2,8,7,0,0,0,27,13,22
542326,1,584,355,9,31,40,7,1,0,158,33,76
542334,1,740,450,18,50,37,5,1,2,172,47,118
542351,2,84,52,1,4,0,1,2,0,30,5,9
542351,1,1050,630,32,60,35,20,1,5,253,54,170
542369,1,205,140,6,9,8,0,0,2,52,17,46
542377,2,94,67,5,4,3,0,0,0,29,3,23
542377,1,848,547,25,75,37,2,2,3,225,56,122
542385,1,146,96,6,10,10,0,0,1,29,11,29
542415,3,44,31,1,0,1,0,0,0,16,4,9
542415,2,109,82,0,2,3,0,0,0,31,15,31
542415,1,332,187,8,11,11,3,2,0,80,22,50
542415,5,33,27,0,2,1,3,0,0,18,0,3
542415,4,83,57,6,6,7,0,2,0,20,8,8
542431,1,260,136,1,15,5,8,2,0,71,7,27
542458,1,255,166,4,20,11,0,0,0,74,20,37
542466,1,440,302,20,34,22,7,6,3,113,23,74
542474,1,421,257,8,38,10,1,2,0,92,26,80
542504,1,122,82,0,4,4,0,1,3,49,5,16
542512,1,400,244,5,17,19,5,0,0,111,27,60
542563,1,227,138,5,17,6,0,2,0,52,14,42
542598,1,252,156,3,13,17,1,1,0,70,14,37
542601,1,231,166,9,12,12,1,2,1,85,18,26
542610,2,185,129,11,15,7,0,0,1,46,10,39
542610,1,265,182,7,18,17,4,4,2,61,14,55
544248,4,165,109,2,5,7,0,0,0,60,8,27
544248,3,44,31,0,3,0,0,0,0,19,7,2
544248,2,106,76,3,3,7,2,0,0,38,3,20
544248,1,540,348,5,38,22,9,1,2,144,40,87
551457,1,360,217,8,27,26,0,1,5,56,23,71
551465,1,42,25,4,3,4,0,1,0,4,2,7
551481,1,148,104,5,5,6,1,0,3,46,15,23
557030,2,138,113,7,17,8,1,2,1,23,7,47
557030,1,336,238,16,33,34,3,1,0,58,28,65
564087,1,175,130,5,16,8,0,1,2,60,12,26
564125,1,156,115,1,7,14,2,3,2,53,6,27
564150,1,49,41,4,9,0,2,0,0,13,7,6
564192,1,162,92,0,10,3,0,0,0,47,8,24
564214,1,77,46,1,2,3,1,2,1,21,4,11
564222,1,41,37,0,2,1,0,1,0,25,6,2
564249,1,176,113,4,7,15,2,0,1,40,11,33
564257,1,84,52,3,3,8,1,1,1,21,4,10
564273,1,85,58,2,3,8,0,0,0,16,4,25
564320,1,114,79,0,7,8,0,0,0,51,7,6
564338,1,66,49,2,3,1,0,0,1,17,9,16
564346,1,166,125,3,18,22,3,2,2,29,14,32
564362,1,124,89,0,12,14,0,1,0,22,6,34
564389,1,148,113,0,12,3,1,5,1,53,11,27
564419,1,129,93,1,3,7,0,0,0,49,11,22
564478,1,218,149,6,11,14,1,1,0,60,12,44
564486,1,859,523,14,63,34,7,4,3,177,48,173
564508,1,239,184,9,17,16,5,1,0,57,14,65
564524,1,165,112,7,14,6,0,0,2,56,14,13
564559,1,166,105,6,10,8,0,0,0,52,6,23
564583,1,110,68,4,5,6,2,1,0,32,2,16
564605,1,126,98,2,4,11,1,0,0,43,6,31
564630,2,73,50,0,5,3,0,2,1,28,1,10
564630,1,135,105,4,14,14,0,0,1,23,6,43
564664,1,68,49,1,6,4,0,2,0,21,4,11
564681,1,202,128,7,9,4,2,0,2,64,14,26
564702,1,74,52,8,12,0,0,0,0,14,5,13
564761,1,198,136,4,16,14,1,1,2,48,13,37
564788,1,59,45,0,4,0,1,0,0,24,3,13
564796,1,118,73,4,14,6,1,0,0,21,4,23
564800,1,327,212,11,35,27,6,2,1,54,18,58
564826,1,216,142,6,11,9,5,1,1,51,21,37
564869,1,375,247,9,30,28,4,0,0,55,24,97
564885,1,339,253,22,40,27,3,7,1,55,24,74
564907,1,929,599,37,102,81,7,4,4,111,76,177
564915,1,356,257,24,20,36,1,2,2,39,27,106
564974,1,612,409,26,40,37,6,4,0,111,40,145
564982,1,1032,823,72,117,106,11,2,3,129,74,309
564991,1,540,400,28,65,54,5,2,1,74,34,137
565008,1,208,149,10,26,20,4,2,0,24,8,55
565041,1,109,68,4,9,6,2,1,0,25,7,14
565130,1,89,51,5,8,4,0,0,0,23,8,3
565181,1,156,73,6,15,5,1,0,1,31,5,9
565199,1,113,44,2,6,2,0,0,0,28,1,5
565202,1,65,53,1,10,8,0,0,0,19,7,8
565261,1,157,100,5,15,7,3,0,0,26,7,37
565270,1,107,80,3,9,11,3,0,0,29,9,16
565288,1,99,80,4,7,3,2,0,0,43,5,16
565326,1,39,30,6,3,1,0,0,0,14,3,3
565334,1,130,73,1,2,8,1,0,0,41,4,16
565351,1,100,70,6,2,3,0,0,0,30,9,20
565369,1,58,34,3,3,2,1,0,0,15,3,7
565377,1,72,53,3,4,1,2,0,0,24,3,16
565385,1,74,59,4,2,7,0,0,0,21,11,14
565407,1,50,31,0,0,0,3,2,0,12,2,12
565423,1,51,35,3,3,0,0,0,0,17,9,3
565440,1,82,55,1,6,4,2,0,0,22,1,19
565466,1,154,115,8,18,3,1,0,0,47,8,30
565504,1,87,51,1,9,2,3,1,0,18,5,12
565512,1,54,32,1,2,0,0,0,0,13,7,9
565539,1,246,158,6,15,7,4,0,2,68,21,35
565563,1,242,151,8,12,13,1,0,2,62,20,33
565571,1,344,225,14,30,4,1,1,2,89,17,67
565580,1,156,94,3,10,5,2,2,1,40,7,24
565628,1,228,167,10,23,19,4,0,2,63,11,35
565636,1,191,142,6,23,8,2,1,6,39,9,48
565644,1,406,251,16,26,21,3,3,4,80,19,79
565652,1,48,36,0,4,4,1,0,0,13,8,6
565661,1,65,42,0,5,2,0,0,0,21,0,14
565725,1,110,79,2,6,5,0,0,1,42,11,12
565733,1,165,108,4,11,12,2,0,8,41,13,17
565750,1,87,60,2,3,3,2,0,0,22,12,16
565784,1,219,146,3,11,10,0,1,1,66,9,45
565822,1,68,51,7,10,1,0,0,0,17,2,14
565920,1,80,55,1,3,4,0,0,3,20,2,22
565989,1,273,216,14,32,15,4,3,0,67,24,57
566039,1,274,191,5,23,26,3,1,0,72,18,43
566047,1,160,98,6,8,4,3,1,0,35,5,36
570753,1,67,40,0,2,1,0,0,0,14,2,21
570761,1,90,64,0,4,5,2,2,4,35,3,9
570770,1,148,82,0,6,4,0,0,1,37,5,29
570788,1,899,712,45,102,56,9,3,11,166,76,244
570818,1,170,124,4,18,9,2,2,1,35,22,31
570826,3,305,222,13,30,9,1,1,1,69,27,71
570826,2,1600,1030,40,121,72,13,5,24,368,86,301
570826,1,1496,1084,54,128,85,17,3,12,346,112,327
570842,1,199,127,9,14,3,1,0,2,51,10,37
570893,1,166,114,3,10,9,1,2,0,45,5,39
570923,1,99,77,1,7,3,0,0,4,36,7,19
570940,1,194,159,7,22,17,1,0,0,42,18,52
570974,1,261,191,12,21,15,3,1,6,46,18,69
570982,1,240,174,3,41,8,2,5,0,51,11,53
570991,1,102,78,0,16,10,1,1,2,25,4,19
571032,1,153,90,2,6,6,4,0,2,38,11,21
571067,1,95,78,3,15,4,0,0,0,26,12,18
571075,1,65,58,3,4,6,0,0,1,21,1,22
571121,1,254,151,4,23,18,5,1,5,49,13,33
571148,1,104,59,2,2,4,1,0,1,22,8,19
571156,1,113,84,4,8,1,0,0,3,43,4,21
571172,1,107,80,4,1,11,2,0,1,24,15,22
571199,1,151,111,6,8,17,3,0,1,32,16,28
571211,1,538,399,30,44,38,9,1,4,96,30,147
571261,1,443,343,17,32,43,1,2,1,107,25,115
571288,1,242,169,10,20,21,0,0,0,51,11,56
571318,1,178,124,7,17,26,1,1,0,24,16,32
571326,1,98,51,1,4,7,0,0,0,21,5,13
571326,2,198,154,14,13,31,6,1,1,29,15,44
571334,1,86,57,7,16,9,0,0,0,7,6,12
571342,1,234,162,1,21,12,1,0,1,63,13,50
571351,1,572,411,19,45,47,6,1,2,130,35,126
571415,1,51,40,0,0,6,0,0,0,10,16,8
571423,1,117,97,2,12,16,1,0,0,23,13,30
571431,1,185,88,0,3,1,0,0,0,65,9,10
571512,1,87,65,4,4,4,2,0,1,25,5,20
571521,1,133,74,3,4,5,2,0,0,33,2,25
571555,1,90,59,2,6,2,1,0,0,36,4,8
571598,1,95,66,6,7,3,2,0,0,21,11,16
571601,1,268,177,4,21,14,3,3,1,64,16,51
571636,1,286,173,6,27,6,3,5,2,64,17,43
571644,1,145,94,0,10,13,3,0,0,22,14,32
571679,1,83,60,3,3,8,0,0,0,19,5,22
571687,1,110,82,1,10,0,2,1,1,25,14,28
571717,1,181,110,6,17,8,0,2,1,39,17,20
571741,1,118,81,2,10,11,0,1,0,38,6,13
571784,1,1744,1118,59,123,79,13,8,4,417,87,328
571792,1,339,211,15,29,17,1,1,0,64,37,47
571806,1,223,164,2,17,6,4,3,2,70,11,49
571814,1,437,293,15,32,21,4,0,8,104,35,74
571849,1,161,113,7,5,4,2,1,2,45,13,34
571865,1,153,117,10,11,10,2,1,2,33,16,32
571881,1,100,75,4,2,11,0,1,1,29,8,19
571938,1,220,165,3,12,13,1,3,2,42,31,58
571946,1,202,132,4,10,6,0,2,2,57,10,41
571954,1,395,255,14,38,11,3,1,0,98,18,72
571971,1,113,71,1,8,5,3,1,3,27,6,17
571989,1,215,153,12,11,6,2,1,3,68,9,41
571997,1,52,38,3,6,2,0,1,0,14,3,9
572012,1,109,66,1,8,4,1,1,1,24,10,16
572021,1,135,78,4,3,2,4,0,0,57,3,5
598241,1,61,38,1,4,7,2,0,0,12,1,11
598267,1,351,222,17,21,38,2,0,1,38,35,70
598283,1,242,184,15,20,15,3,2,0,43,17,69
598291,1,460,311,18,45,35,3,3,1,66,31,109
598305,1,297,222,27,34,24,4,1,1,34,26,71
598313,1,218,170,18,19,25,1,2,1,40,21,43
598330,1,85,58,0,4,4,2,0,1,25,6,16
598372,1,97,61,4,8,4,1,0,2,22,4,16
598381,1,875,509,49,98,18,10,10,3,113,14,194
598402,1,350,235,4,27,17,5,0,1,99,22,60
598411,1,398,260,13,24,27,2,3,3,95,24,69
598429,1,360,237,6,41,34,1,3,2,69,14,67
598437,1,112,79,3,1,11,1,0,0,34,5,24
598461,1,255,172,3,17,21,1,0,0,49,25,56
598470,1,207,135,1,8,14,1,0,0,48,12,51
598488,1,184,127,7,14,10,1,0,0,45,15,35
598496,1,138,104,6,11,5,2,3,1,45,16,15
598500,1,104,59,0,5,4,2,0,0,32,7,9
598518,1,79,40,1,5,2,0,0,1,20,3,8
598526,1,858,529,22,52,38,12,7,3,196,47,152
598577,1,62,42,1,1,9,1,0,0,12,7,11
598585,1,62,47,2,5,6,0,0,0,18,2,14
599204,1,100,77,0,4,10,3,0,3,23,11,23
599221,1,267,196,14,22,29,3,0,2,43,14,69
599298,1,132,84,2,5,8,4,2,1,28,14,20
599301,1,98,66,0,4,7,0,0,2,24,12,17
599361,1,102,77,1,12,4,0,0,0,34,4,22
599379,1,86,63,3,6,3,2,0,0,23,3,23
599387,1,219,156,0,15,13,2,2,0,74,6,44
599395,1,47,30,3,3,3,0,0,0,9,1,11
599417,1,202,149,10,15,14,2,1,0,52,13,42
599425,1,150,91,0,8,6,2,0,0,48,7,20
599433,1,416,298,23,43,28,9,1,0,73,26,95
599441,1,95,41,0,9,2,0,0,0,20,3,7
599450,1,72,56,2,7,5,0,0,0,24,9,9
599476,1,134,88,0,14,2,1,1,0,48,5,17
599484,1,89,74,3,6,3,3,0,0,40,4,15
599492,1,108,74,4,8,5,0,0,0,37,6,14
599514,1,240,155,6,16,9,0,2,4,46,20,52
599522,1,121,99,1,7,4,0,0,1,39,8,39
599531,1,228,135,7,12,4,3,0,2,57,19,31
599557,1,68,47,3,8,0,0,0,1,16,6,13
599573,1,92,68,2,5,4,1,0,0,30,9,17
599581,1,645,576,124,124,37,3,6,3,128,26,125
599590,1,161,95,5,11,8,1,0,0,28,12,30
599611,1,149,106,5,7,13,0,1,3,44,10,23
599620,1,337,201,7,25,9,5,2,0,68,25,60
599638,1,466,284,9,27,24,2,2,2,121,17,80
599654,1,59,42,1,2,1,0,0,0,21,5,12
599662,1,123,89,6,3,6,1,2,2,24,6,39
599671,1,182,122,0,11,2,0,1,2,44,9,53
599697,1,177,106,2,10,12,2,1,1,51,5,22
599719,1,479,355,48,47,49,3,3,4,94,30,77
599727,1,365,285,15,39,40,0,1,0,56,31,103
599735,1,864,611,40,98,79,8,1,2,140,60,183
599751,1,64,49,4,2,8,1,1,0,15,1,17
599760,1,129,92,1,9,7,0,0,0,34,9,32
