A53,A7,A768,A1138,A703,A47,A584,A997,A998,A999,B1114,B720,B703,B53,B768,B997,B998,B999
2,2,11,1,23,0,0,7,0,92,2,8,23,1,11,11,9,73
0,1,9,3,11,2,0,1,0,56,2,1,8,1,8,1,9,53
1,2,7,1,23,3,0,1,5,57,2,1,16,2,12,4,0,63
7,6,9,9,34,18,5,6,20,223,8,1,18,4,50,14,0,242
3,3,15,5,34,3,2,11,29,82,8,7,44,4,19,10,0,95
7,5,14,2,15,3,5,11,15,87,10,11,46,13,6,17,0,61
1,8,12,2,75,20,2,11,0,177,4,8,42,2,28,12,18,194
8,17,43,23,87,25,22,51,27,421,19,21,122,20,49,71,0,422
3,6,8,2,18,8,4,4,14,119,1,3,27,3,10,17,0,125
7,9,7,3,17,3,2,5,9,110,4,4,28,1,8,16,0,111
4,8,13,6,65,17,9,10,32,153,20,19,63,10,20,37,0,148
10,5,13,3,61,11,4,3,7,117,2,4,66,6,18,23,0,115
58,55,141,40,299,44,59,86,15,1026,37,78,372,75,187,145,0,929
10,9,28,7,30,5,9,31,38,270,11,30,90,16,39,26,0,225
8,7,22,3,44,7,6,21,21,115,2,11,63,9,19,25,0,125
2,5,10,1,39,3,1,3,12,55,3,10,44,4,9,14,0,47
7,17,12,0,14,10,2,12,6,108,6,15,31,5,10,23,0,98
8,7,10,7,51,7,10,16,21,133,11,12,58,9,22,20,0,138
10,10,9,9,32,18,0,4,0,171,8,0,39,4,22,19,10,161
0,4,10,2,15,2,1,5,6,77,1,8,15,2,23,7,0,66
3,13,13,2,9,6,3,11,4,125,8,9,21,5,18,14,0,114
4,5,20,2,23,13,5,12,4,126,1,5,29,4,25,17,0,133
2,3,8,4,22,9,3,3,1,57,4,3,27,6,13,10,0,49
16,4,14,2,45,2,2,14,9,97,1,8,99,5,2,15,0,75
10,4,15,0,37,7,16,30,22,197,6,26,58,12,24,26,0,186
10,23,56,4,25,19,4,12,0,274,8,13,39,4,58,21,17,267
11,4,54,12,97,17,6,27,11,474,12,16,104,13,55,41,0,472
8,10,19,3,90,27,9,8,14,371,10,9,104,16,28,35,0,357
10,14,21,4,40,15,12,22,5,424,13,12,82,8,18,47,0,387
3,3,6,4,29,1,1,6,4,76,6,5,33,6,11,3,0,69
5,3,12,2,39,6,1,18,1,128,0,32,38,17,12,16,0,100
6,6,16,1,30,5,1,13,0,85,1,9,46,8,18,8,2,71
3,2,7,5,17,8,0,3,5,105,4,1,16,1,14,15,0,104
11,27,48,17,27,23,14,28,0,360,22,10,46,9,70,46,23,329
20,41,41,11,47,32,18,24,0,411,25,22,80,29,70,46,14,359
38,22,69,20,63,24,14,34,0,662,16,25,137,30,70,55,5,608
7,39,50,14,38,15,6,21,0,409,18,16,66,11,79,36,18,355
44,30,88,24,87,39,20,41,0,437,26,39,121,40,101,68,26,389
35,40,96,19,74,21,34,43,0,629,32,42,135,29,116,66,15,556
11,24,52,5,37,7,18,26,0,423,12,15,64,13,55,44,31,369
28,28,63,27,28,18,21,39,0,2336,33,26,85,30,68,68,186,2092
21,43,61,26,37,20,15,32,0,516,11,28,85,23,77,61,48,438
17,14,44,3,30,11,10,29,6,246,4,23,65,13,50,32,0,223
19,14,37,2,15,14,8,19,39,468,6,3,26,9,41,19,0,531
17,29,41,18,43,17,9,18,0,583,18,16,63,10,58,42,36,532
9,14,35,9,19,9,10,16,0,502,14,17,53,7,47,33,51,401
7,22,29,7,18,17,13,31,0,483,24,16,48,10,54,27,37,411
3,15,26,9,28,8,5,15,0,462,19,20,43,4,50,25,27,383
23,39,76,20,34,29,14,24,0,501,25,27,73,12,87,46,30,460
3,3,15,3,7,1,1,3,4,39,1,2,16,1,14,6,0,39
14,15,65,17,35,30,18,53,0,850,38,27,93,14,64,65,49,747
10,44,73,24,50,26,30,40,0,881,33,39,89,17,80,60,64,796
11,8,15,8,23,10,12,14,2,176,5,15,31,8,25,13,0,182
39,10,23,9,19,7,8,23,0,215,11,12,60,31,18,45,7,169
9,16,43,4,17,20,2,27,26,317,15,16,46,11,40,22,0,331
1,3,10,0,9,5,2,16,25,234,10,5,16,4,23,10,0,237
23,23,50,8,39,35,11,21,16,300,15,20,56,20,68,47,0,300
6,8,24,7,19,12,9,16,0,342,4,5,29,8,24,19,45,309
6,27,64,19,27,22,6,18,57,814,29,34,39,5,65,42,0,846
12,24,50,15,19,11,9,8,32,684,20,14,29,7,64,26,0,704
9,19,40,12,25,19,5,15,65,630,29,24,47,7,54,30,0,648
18,16,29,8,32,11,12,25,0,396,16,6,58,19,45,18,39,346
7,31,44,7,20,15,6,18,0,284,7,19,39,4,50,38,1,274
7,28,29,3,16,14,4,10,0,204,1,10,30,9,40,34,12,179
17,22,82,12,56,20,12,19,0,462,17,20,76,13,69,28,46,433
16,22,40,10,26,18,6,11,0,261,8,14,38,12,42,30,19,247
23,31,76,10,29,21,14,35,19,456,20,22,61,16,77,58,0,460
7,14,31,12,28,10,4,23,0,526,29,14,38,12,39,27,29,467
7,24,62,21,52,19,17,23,0,749,19,23,81,13,74,45,71,648
13,30,44,15,30,15,9,31,0,536,16,23,59,12,70,39,32,472
14,35,52,22,33,20,13,21,0,536,23,24,53,7,74,37,40,488
7,9,19,2,4,11,0,9,0,197,8,7,20,0,20,22,15,166
5,39,45,19,32,36,12,33,0,686,18,19,72,13,82,47,50,606
3,24,26,9,14,15,7,20,0,396,14,18,40,5,36,25,15,361
20,6,22,12,22,10,2,9,8,188,9,13,27,12,10,25,0,203
6,7,7,0,9,4,4,9,6,40,2,9,16,3,17,6,0,39
6,12,16,3,19,9,2,9,0,419,6,8,32,16,20,21,23,369
1,2,2,2,30,3,2,8,8,115,6,2,35,2,6,7,0,115
3,9,7,5,38,19,0,15,0,221,13,2,44,6,23,15,19,195
5,21,35,5,47,27,6,21,17,462,11,20,68,4,40,33,0,470
0,0,7,1,9,4,3,12,3,87,4,4,9,2,8,7,0,92
78,29,38,20,27,34,19,44,1,725,19,34,90,60,56,43,0,713
56,38,33,8,21,36,13,25,0,608,22,25,68,39,45,33,31,575
98,33,55,24,38,40,21,39,77,920,32,38,127,86,75,69,0,918
7,2,7,4,2,9,7,7,0,109,6,7,30,4,7,11,4,85
6,7,7,0,9,4,2,3,0,84,2,6,16,10,9,5,1,73
6,5,15,2,7,9,6,3,15,100,8,3,14,3,22,14,0,104
24,16,46,6,70,9,9,25,1,269,13,25,62,21,46,26,0,282
47,55,83,14,136,34,19,45,0,580,26,39,135,46,85,84,9,589
29,46,74,21,90,40,12,22,3,751,22,40,103,44,60,78,0,741
26,53,71,28,104,39,9,30,0,990,29,39,110,30,91,77,26,948
0,5,1,0,3,5,0,2,10,94,1,5,11,5,3,2,0,93
4,6,13,1,11,9,0,7,0,102,1,5,14,5,10,21,4,93
24,18,86,17,77,27,17,70,0,792,33,35,111,43,84,57,14,751
1,12,37,9,72,32,13,10,15,328,11,23,94,3,48,32,0,318
9,14,17,13,15,15,9,11,0,318,11,13,40,2,36,37,6,276
22,16,47,12,29,15,8,34,44,388,22,20,93,32,29,64,0,355
12,13,33,14,54,36,10,13,0,368,16,20,72,12,44,55,2,332
3,4,10,5,35,7,3,8,8,125,9,5,33,3,7,14,0,137
5,1,7,2,31,6,1,4,11,67,4,3,35,7,10,9,0,67
19,39,57,11,159,31,21,26,0,848,25,31,152,22,65,50,3,863
0,1,0,0,17,2,3,2,0,91,3,8,13,2,2,11,13,64
0,6,13,2,12,4,2,9,8,74,9,7,19,0,5,12,0,78
3,3,6,1,26,6,4,5,8,51,8,1,23,5,4,3,0,69
0,2,0,1,10,4,4,6,4,74,1,13,19,2,4,2,0,64
2,4,9,6,16,5,3,8,9,136,0,5,33,18,18,9,0,115
18,35,73,17,129,38,25,25,0,709,20,31,160,22,98,65,17,656
9,24,52,10,32,22,5,21,0,493,22,9,52,10,32,42,53,448
8,18,33,13,86,21,8,16,0,521,22,3,162,13,19,25,21,459
7,10,16,8,34,18,1,6,0,301,5,12,55,2,17,11,27,272
16,21,29,20,92,33,10,26,16,621,16,19,119,20,35,42,0,633
18,22,42,17,100,29,13,19,0,584,21,19,163,10,48,34,8,541
3,7,9,5,27,9,6,12,7,263,7,8,70,8,14,13,0,228
2,1,5,2,8,4,1,0,5,86,2,8,11,7,5,7,0,74
5,10,39,6,28,15,7,11,0,410,18,28,46,11,45,32,18,333
9,3,15,2,26,10,3,5,20,54,1,7,50,5,15,19,0,50
11,13,26,4,43,33,1,16,12,331,5,7,75,10,44,23,0,326
4,0,6,3,4,3,7,4,8,42,4,1,6,5,10,5,0,50
2,4,19,4,26,9,3,8,6,110,7,4,23,6,21,16,0,114
12,27,44,22,68,51,22,33,66,666,34,46,83,9,91,51,0,697
11,23,60,27,67,34,11,47,0,1014,30,21,60,15,65,51,198,854
8,33,43,19,49,38,10,30,0,658,15,17,67,12,82,58,74,563
10,21,63,28,77,40,3,29,0,732,30,16,79,5,118,54,37,664
7,5,13,2,38,32,5,13,6,126,8,11,32,4,22,14,0,156
15,18,65,2,76,16,12,22,6,424,13,21,124,25,66,43,0,364
9,20,32,9,76,8,16,21,0,443,8,38,109,18,33,28,21,379
9,25,55,12,76,19,14,18,0,334,15,22,116,13,53,40,14,289
12,15,32,7,68,14,20,16,0,346,8,10,101,13,31,39,30,298
10,17,27,6,61,11,6,26,0,304,12,19,77,12,36,25,2,285
9,26,58,15,49,19,4,12,0,482,15,13,79,8,56,32,29,442
20,25,57,23,105,17,23,31,0,451,29,22,138,27,76,33,18,409
12,27,49,8,80,13,13,15,0,417,16,27,132,10,49,30,34,336
12,19,41,30,82,26,23,36,0,489,30,27,122,13,61,47,9,449
13,27,63,24,101,18,13,23,0,500,29,16,153,17,62,41,21,443
9,16,37,9,86,5,9,13,0,697,7,25,105,10,39,19,30,646
7,24,37,24,40,12,6,14,31,341,14,21,80,4,45,28,0,344
12,27,54,22,73,14,7,32,8,439,23,26,129,25,70,39,0,376
6,15,33,25,70,9,10,26,0,516,21,26,90,14,38,33,45,443
4,27,33,15,56,24,7,18,0,457,19,28,93,10,40,38,18,395
6,7,10,9,25,16,3,4,4,173,11,5,34,4,23,24,0,156
9,15,28,8,116,11,15,12,0,281,14,15,110,16,44,37,22,237
1,7,24,4,56,6,5,19,8,198,1,14,79,8,20,20,0,186
12,31,52,6,23,18,9,16,0,446,25,19,35,4,65,45,19,401
0,4,8,6,133,8,2,9,13,182,11,10,118,2,32,16,0,176
3,8,25,6,14,67,3,11,47,619,7,8,23,4,56,32,0,673
1,22,19,10,4,49,3,9,0,417,5,5,16,3,46,34,29,396
1,7,3,4,17,12,2,20,11,173,7,7,24,2,42,17,0,151
15,25,68,18,290,25,5,19,14,760,23,43,277,20,80,48,0,748
10,16,40,19,45,17,9,14,2,427,9,24,105,10,31,28,0,392
19,20,37,12,82,13,10,34,0,354,21,12,142,18,63,44,5,276
18,22,22,11,69,19,9,18,0,479,20,15,65,9,28,27,2,501
11,35,75,21,105,41,11,23,0,1068,35,18,141,8,77,58,64,989
6,25,53,22,116,34,8,11,0,713,29,20,124,7,49,44,48,667
4,5,20,8,35,5,0,15,5,141,4,3,37,12,24,10,0,148
15,17,31,9,48,35,15,18,8,387,14,22,49,14,53,27,0,404
13,14,29,8,95,19,8,16,0,344,21,20,111,8,31,25,20,310
0,2,9,2,23,5,2,4,0,110,5,7,15,6,16,18,0,90
12,3,40,9,16,11,2,5,9,432,26,9,40,8,40,31,0,385
0,14,2,3,8,3,2,0,16,50,4,3,11,0,4,27,0,49
19,12,21,17,46,17,14,24,0,402,12,20,54,12,36,33,25,380
1,7,9,3,28,31,1,8,13,308,2,10,63,1,10,19,0,304
10,23,31,15,199,53,4,23,29,445,18,18,236,15,46,49,0,450
12,31,54,17,170,73,9,18,0,677,27,19,239,10,61,57,29,619
8,14,29,7,75,32,7,24,10,489,9,23,89,15,53,40,0,466
42,21,40,18,50,6,10,45,0,516,21,48,80,47,55,51,4,442
41,31,78,9,43,20,24,31,0,412,11,44,76,39,69,74,21,355
29,28,52,19,36,18,28,51,0,469,15,42,67,39,39,67,46,415
29,35,65,17,22,14,9,37,0,461,17,34,56,29,62,54,40,397
22,27,44,15,45,20,20,40,0,363,15,24,77,23,62,53,29,313
21,20,32,13,21,9,13,29,0,395,17,25,35,25,39,46,32,334
21,27,41,12,19,21,17,28,0,535,18,27,34,29,52,42,59,460
57,22,79,20,50,15,20,60,0,512,27,46,94,39,61,87,27,454
45,18,71,17,53,18,34,47,24,466,27,55,84,39,53,70,0,465
40,11,29,21,47,15,22,50,62,552,15,39,76,41,39,69,0,570
14,37,36,17,23,13,17,31,0,426,18,20,27,19,49,37,17,427
29,9,23,11,19,6,13,35,68,1802,26,46,31,42,18,47,0,1805
45,8,53,19,41,14,16,42,29,413,22,36,88,57,49,60,0,368
47,24,57,4,67,10,22,44,0,368,18,40,115,47,54,60,18,291
46,16,49,9,60,20,12,36,0,365,31,44,57,43,51,46,24,317
31,22,44,19,39,31,25,40,25,364,21,34,61,26,65,55,0,378
37,36,67,23,51,15,45,56,0,588,23,24,101,48,96,80,19,527
27,38,58,18,30,22,11,28,0,529,20,34,38,35,77,55,7,495
25,31,39,17,38,20,14,42,0,412,21,21,72,15,49,60,10,390
42,15,79,17,40,21,23,32,0,404,26,38,70,28,67,57,7,380
36,23,38,21,51,15,22,40,0,614,31,41,85,45,37,74,31,516
63,44,54,26,46,27,30,65,0,490,30,58,68,61,79,99,39,411
50,26,58,7,57,6,35,52,0,301,11,35,85,62,59,68,6,266
16,30,43,17,20,14,17,42,0,484,28,36,55,25,36,55,5,443
30,14,50,14,31,6,8,40,0,574,15,44,55,31,46,60,0,516
47,27,46,20,59,25,27,77,0,575,29,69,80,57,49,87,23,509
14,4,11,2,17,0,9,16,20,147,7,13,31,16,14,16,0,143
49,18,51,33,71,19,37,51,0,695,43,52,72,38,72,96,15,636
48,47,68,10,40,26,29,48,0,455,18,44,90,36,44,72,28,439
40,42,60,11,57,16,25,60,0,525,23,31,103,30,66,81,14,488
42,29,66,10,53,23,19,52,0,436,27,30,76,47,58,52,50,390
52,26,40,3,40,11,21,34,4,452,30,44,74,75,45,56,0,359
42,42,69,21,52,33,24,63,0,602,28,56,67,35,98,66,43,555
13,18,40,27,32,32,25,40,0,476,15,34,39,33,61,48,50,423
22,21,34,3,39,14,10,37,0,394,19,28,49,23,46,54,24,331
25,26,50,10,28,16,16,49,0,497,22,24,59,26,67,55,23,441
29,22,37,6,55,12,31,50,28,444,17,39,119,51,45,71,0,372
20,18,49,11,66,12,32,72,53,420,30,50,92,48,58,76,0,399
37,18,58,40,37,26,31,49,0,524,42,34,90,49,66,84,4,451
26,15,47,11,44,17,26,33,0,460,24,37,77,37,52,71,16,365
26,16,44,16,48,14,21,54,0,370,20,23,71,27,40,64,54,310
83,27,63,29,57,19,43,65,0,516,23,46,109,91,85,82,2,464
22,18,38,18,32,32,12,43,0,429,14,29,56,16,45,64,26,394
22,25,36,9,39,27,42,42,0,383,13,27,67,34,58,76,25,325
37,10,13,4,20,12,10,23,9,144,6,12,43,13,16,26,0,166
21,5,17,4,44,7,5,13,40,122,2,21,92,15,11,21,0,116
7,10,22,7,71,14,7,25,0,410,9,18,78,5,31,42,7,383
9,18,65,17,151,38,19,50,0,820,31,38,160,16,92,63,30,757
9,12,29,11,120,28,9,33,0,544,24,18,112,10,44,43,2,542
17,25,24,14,58,15,12,33,0,286,6,21,64,28,28,41,9,287
1,2,17,1,27,4,1,12,0,102,3,9,22,2,18,12,12,89
5,9,21,3,52,10,5,13,0,154,5,13,65,8,33,26,2,120
23,22,60,19,94,16,35,69,16,747,29,74,183,29,56,96,0,634
1,5,11,2,10,2,6,12,11,110,4,21,32,9,10,13,0,81
17,18,45,8,119,25,10,41,32,420,14,36,170,30,57,55,0,373
2,1,13,6,25,10,4,5,1,107,2,5,37,1,11,8,0,110
32,28,60,6,49,16,11,36,0,517,10,32,74,43,61,56,23,456
13,5,12,2,20,0,0,15,3,42,2,7,37,9,11,7,0,39
16,5,10,0,15,4,5,12,0,120,6,7,36,15,10,13,0,100
67,16,36,5,42,15,14,42,0,312,13,17,91,60,44,42,23,259
5,3,9,5,49,3,2,7,0,111,7,7,48,7,13,9,15,88
5,6,14,8,46,10,2,16,0,194,6,14,59,9,20,23,2,168
8,5,17,6,53,14,1,13,0,180,4,6,51,16,7,23,18,172
5,10,13,8,33,6,4,12,0,145,4,8,51,5,12,23,29,104
13,5,14,1,27,11,5,17,3,88,4,10,47,11,20,14,0,78
9,1,1,3,3,1,3,9,3,86,0,3,12,7,2,14,0,81
7,1,3,1,9,2,4,5,3,63,4,8,26,7,2,15,0,36
36,39,84,27,98,26,26,65,77,824,49,71,177,38,91,85,0,791
0,3,11,4,26,4,4,8,3,73,5,9,38,2,5,6,0,71
4,2,4,4,15,2,7,10,10,77,1,14,33,4,8,11,0,64
40,14,49,10,173,11,21,47,7,330,7,42,214,33,44,88,0,274
15,7,42,18,33,16,12,38,53,265,22,46,69,19,30,47,0,266
31,15,33,8,28,14,32,37,30,419,28,51,64,31,39,42,0,392
21,8,18,9,32,26,13,46,26,279,13,38,75,18,26,57,0,251
23,16,16,6,35,12,10,11,6,280,13,13,52,20,33,35,0,249
14,22,27,9,54,15,9,29,8,251,8,36,87,8,25,46,0,228
9,9,31,13,63,10,8,35,0,231,20,9,59,14,27,27,0,253
7,12,14,7,45,9,6,26,10,297,13,8,57,21,22,28,0,284
11,5,7,0,25,11,1,5,0,69,0,7,32,10,5,16,6,58
25,20,58,7,85,25,19,46,54,375,16,36,147,38,57,71,0,349
20,11,48,10,54,13,18,32,0,256,6,31,85,14,40,43,2,241
67,22,74,26,68,24,23,72,0,567,27,49,101,67,64,80,6,549
88,34,53,16,64,29,22,60,0,868,37,53,107,99,81,67,20,770
10,13,20,10,14,15,1,14,0,317,23,9,22,14,23,23,11,289
5,1,4,2,8,2,6,4,0,36,2,1,18,1,0,4,9,33
13,5,11,6,15,10,7,6,0,131,5,2,41,18,13,9,4,112
49,31,98,35,120,55,22,69,0,770,44,38,182,42,84,91,30,738
10,47,53,19,39,23,12,21,0,1029,34,26,67,7,44,71,32,972
20,51,77,22,52,43,10,34,0,650,35,25,89,18,98,58,45,591
17,26,60,25,62,29,14,52,0,701,31,23,76,29,72,64,50,641
11,18,15,6,16,26,5,20,0,296,14,16,37,15,27,28,18,258
20,20,32,3,36,25,6,39,10,388,13,19,76,16,42,40,0,373
23,22,37,10,49,36,15,49,0,665,30,33,89,23,48,56,20,607
11,13,41,13,61,13,9,43,3,524,19,26,64,9,60,32,0,521
2,6,5,3,17,6,2,3,0,70,2,8,27,2,13,10,12,40
26,13,46,21,79,31,16,41,0,442,21,26,128,29,38,66,3,404
2,1,1,3,5,3,0,7,5,11,6,3,2,2,4,5,0,16
2,0,1,0,9,1,1,3,0,13,2,0,8,1,1,2,3,13
5,10,23,8,80,15,4,20,0,195,12,21,65,11,25,35,21,170
31,34,61,27,101,30,23,73,0,703,17,36,146,26,92,64,36,666
14,13,10,5,39,12,8,16,7,145,4,12,76,7,22,30,0,118
6,3,14,3,31,8,2,23,9,130,1,24,54,6,17,16,0,111
0,0,6,4,10,2,0,10,5,56,3,11,26,0,4,13,0,36
14,23,44,12,82,18,12,67,0,551,16,49,106,20,45,54,48,485
27,32,52,15,126,35,13,70,0,739,24,46,150,26,59,72,48,684
3,1,9,2,12,3,0,11,0,81,7,4,15,1,10,9,1,75
2,9,9,7,40,3,4,8,9,105,4,14,52,3,19,15,0,89
4,4,9,0,33,2,1,4,1,93,3,8,28,4,12,13,0,83
3,11,9,4,39,4,13,11,0,171,9,9,34,9,27,15,6,156
5,11,32,19,233,29,13,18,58,403,21,16,219,6,67,41,0,451
4,4,3,2,24,6,0,1,0,190,1,2,27,9,14,6,4,171
18,13,21,6,45,14,10,8,41,323,13,7,82,17,22,14,0,344
2,7,7,0,16,3,0,5,0,48,0,0,16,6,8,7,3,48
5,11,5,9,37,5,6,11,4,145,5,15,50,1,15,11,0,141
1,2,7,1,15,0,2,4,0,55,2,0,15,5,3,6,7,49
2,0,10,3,10,5,0,6,0,40,0,5,7,3,5,7,4,45
13,36,47,20,136,29,20,48,0,554,18,21,189,20,66,63,35,491
13,4,17,9,39,5,8,10,0,318,12,6,99,8,28,12,0,258
75,21,56,11,91,48,13,15,0,472,10,8,133,70,103,38,1,439
80,38,65,27,116,37,17,20,0,672,30,13,142,87,86,48,68,598
49,26,26,11,101,35,8,23,35,415,14,11,138,78,51,24,0,413
116,30,86,12,137,37,13,32,0,813,22,28,180,139,88,60,16,743
86,32,49,11,97,44,27,23,28,927,19,34,103,72,52,51,0,993
50,24,39,16,64,26,15,18,0,568,14,15,81,54,54,43,20,539
4,7,24,2,91,12,6,19,0,219,11,7,88,5,32,12,17,212
6,5,4,5,52,7,6,8,0,130,5,4,70,9,24,17,4,90
5,14,12,0,73,6,12,8,4,292,6,5,97,4,28,42,0,244
8,18,28,6,92,19,18,13,39,494,27,8,146,13,40,53,0,448
32,7,40,8,164,12,19,23,0,544,22,14,191,23,38,46,13,502
5,8,11,3,23,7,9,10,0,114,7,4,42,3,12,9,10,103
26,21,71,22,163,22,27,66,74,675,23,44,306,32,84,79,0,599
10,23,68,21,159,40,28,54,0,749,22,42,203,6,67,77,27,708
0,7,12,1,28,5,7,5,4,120,7,1,45,2,9,15,0,110
1,10,19,10,73,18,5,10,8,218,9,13,80,2,24,39,0,205
3,1,9,2,40,5,0,4,17,144,5,5,45,3,11,6,0,150
0,4,5,6,72,11,2,6,0,138,1,1,62,2,7,13,4,154
3,8,16,22,238,25,6,21,0,575,9,9,263,1,45,31,24,532
1,9,25,16,275,11,5,11,30,418,15,8,249,8,49,33,0,439
1,12,20,13,243,29,6,16,3,757,21,19,246,6,52,33,0,723
3,16,35,21,317,25,8,16,0,579,24,17,302,6,64,45,36,526
9,22,51,21,313,25,13,34,54,805,40,18,304,12,65,35,0,873
2,9,10,9,62,9,6,8,8,174,10,17,43,5,12,16,0,194
8,19,39,14,257,19,10,28,0,632,16,27,258,10,60,33,36,586
13,13,38,18,239,38,10,20,25,605,11,39,191,24,62,63,0,629
24,17,33,23,229,22,13,25,37,963,24,40,207,23,61,46,0,985
17,22,34,10,315,23,16,18,0,804,17,23,314,43,74,64,15,709
8,10,20,9,52,19,12,23,0,380,2,16,79,8,26,34,29,339
5,5,14,9,58,4,7,14,9,166,8,12,62,10,15,18,0,166
19,8,13,6,63,12,1,8,0,260,16,2,95,22,24,15,1,215
14,1,9,1,67,2,11,21,17,150,13,10,83,24,16,30,0,117
2,5,18,2,27,17,1,9,0,137,6,10,34,10,17,14,9,118
11,9,18,4,81,12,15,12,1,296,11,14,77,14,28,33,0,282
8,10,14,0,55,13,4,19,0,238,9,5,68,10,31,22,1,215
39,14,65,39,186,37,24,59,102,702,40,68,237,62,71,88,0,701
2,2,5,2,18,0,1,20,4,78,2,5,31,4,17,12,0,61
21,9,30,7,44,26,7,39,0,381,20,5,101,8,53,22,11,344
16,24,32,13,43,45,10,69,0,939,32,18,87,16,61,39,40,898
29,16,53,19,82,46,17,64,10,776,21,13,131,39,67,65,0,776
11,6,28,16,98,17,22,30,6,350,13,18,115,9,36,67,0,326
12,48,66,24,90,25,18,29,63,576,18,39,128,24,60,99,0,583
12,19,30,5,86,32,21,45,19,285,6,41,135,20,39,57,0,256
4,3,7,0,28,14,2,10,10,152,3,2,38,5,19,7,0,156
11,29,92,26,105,25,11,70,0,660,29,37,124,25,100,69,22,623
15,17,23,5,37,15,13,6,0,392,22,6,53,16,38,33,2,353
6,11,59,15,75,20,12,21,0,465,24,12,90,11,51,26,7,463
21,20,42,15,133,35,11,37,0,757,28,22,203,19,59,54,7,679
1,3,4,3,33,2,9,7,0,77,10,10,40,2,8,7,3,59
9,8,18,4,111,25,4,14,36,297,19,16,90,1,29,34,0,337
8,4,12,2,16,2,6,6,0,73,1,6,31,9,12,11,3,56
22,12,63,15,116,20,32,51,17,418,11,29,189,30,46,71,0,390
4,9,21,15,57,6,2,15,14,201,6,35,79,6,29,31,0,158
9,8,15,8,34,1,2,5,14,164,8,5,80,13,23,10,0,121
1,2,3,0,16,0,1,3,12,49,0,8,18,1,2,7,0,51
1,0,4,0,21,1,1,9,2,38,0,7,25,5,5,1,0,34
34,41,47,7,170,13,32,45,144,424,17,54,272,48,48,82,0,436
14,10,30,11,50,30,6,8,0,346,5,9,66,17,46,24,21,317
6,5,3,2,14,11,1,8,1,73,6,2,16,11,10,10,0,69
26,4,2,0,22,11,0,7,0,163,5,4,36,22,13,18,2,135
2,3,9,1,12,13,1,5,2,94,1,5,20,5,23,4,0,84
9,6,23,7,39,11,5,25,17,116,6,18,56,8,25,34,0,111
4,5,1,1,6,9,0,0,4,51,2,2,10,13,5,11,0,38
13,16,24,7,38,21,11,10,20,246,2,19,55,10,40,29,0,251
0,6,17,1,35,5,1,14,0,158,3,2,47,5,27,16,6,131
1,7,6,2,20,4,8,3,0,75,3,3,26,0,9,10,1,74
3,12,22,9,81,15,9,30,19,296,20,20,143,11,28,29,0,245
1,0,10,0,17,8,2,3,0,39,2,2,26,1,9,6,2,32
1,2,3,1,35,3,0,8,0,64,5,3,24,1,9,5,10,60
13,25,61,19,81,28,16,39,0,448,24,24,105,16,64,59,20,418
10,16,39,11,59,25,5,29,0,412,13,12,51,14,37,39,5,435
9,21,38,24,77,50,4,54,0,428,16,28,66,31,51,50,37,426
30,14,54,21,110,21,14,46,9,342,15,35,123,50,67,44,0,327
8,15,24,4,41,4,6,46,4,537,17,23,33,28,28,39,0,521
23,26,78,17,103,48,12,48,0,517,20,34,105,30,79,87,36,481
6,28,50,22,138,48,17,56,0,635,24,38,146,17,72,81,41,581
8,28,50,18,76,24,14,60,0,445,22,26,116,19,76,82,3,379
19,10,32,10,77,18,15,34,0,328,6,37,82,40,19,51,16,292
6,8,25,9,52,8,4,16,0,266,6,10,68,16,20,26,12,236
1,6,11,2,22,3,3,19,6,97,9,8,42,2,8,27,0,74
2,6,6,2,14,5,3,9,4,111,8,11,36,12,4,19,0,72
12,17,38,13,113,34,7,55,0,411,21,43,120,14,58,67,13,364
16,12,45,7,81,19,8,30,1,248,11,33,79,18,55,45,0,226
4,7,9,3,16,13,2,10,0,131,0,8,26,5,14,19,5,118
7,8,3,0,29,7,3,10,0,104,8,5,48,3,9,9,2,87
9,8,37,3,53,16,1,27,0,303,11,15,74,12,39,17,9,280
11,16,21,6,77,21,6,54,0,327,11,34,130,10,19,31,20,284
2,13,3,5,7,4,1,3,2,34,1,5,9,4,7,4,0,44
19,13,29,4,74,5,8,35,2,366,7,36,106,28,28,27,0,323
29,32,72,12,111,25,14,51,0,598,26,72,141,40,70,66,0,529
13,19,31,8,62,3,12,38,10,303,7,28,89,26,45,23,0,281
6,2,9,0,24,5,2,16,0,61,1,5,33,7,9,9,1,60
17,11,25,6,78,26,13,43,0,450,14,20,120,37,29,45,3,401
6,7,23,1,105,14,1,25,0,226,8,18,91,16,31,25,12,207
1,1,2,1,16,0,0,5,0,27,0,5,8,4,0,2,2,32
2,1,2,0,6,2,3,3,3,24,0,14,9,4,3,1,0,15
0,3,5,7,20,7,2,4,10,56,5,5,23,7,2,10,0,62
8,16,22,4,28,9,24,30,2,216,10,24,50,12,22,38,0,203
59,29,85,36,98,29,40,83,37,852,41,88,159,160,71,122,0,707
30,29,43,14,52,25,30,56,0,432,24,49,119,45,49,41,27,357
20,35,61,29,87,43,26,68,0,613,21,69,137,46,79,73,31,526
37,30,65,41,94,33,30,72,0,693,28,57,140,92,67,78,60,573
0,5,16,0,40,5,1,14,0,75,5,20,48,8,12,10,5,48
14,34,68,7,112,20,7,52,4,317,14,22,135,31,51,73,0,309
4,4,18,7,23,8,6,24,4,60,16,6,33,6,16,25,0,56
7,11,13,4,33,12,4,11,0,161,5,8,42,7,22,32,5,135
29,34,57,25,85,30,11,46,0,751,17,28,175,17,96,69,12,654
5,10,26,3,84,27,3,24,4,206,11,15,116,9,28,36,0,177
55,28,43,12,66,28,11,83,0,453,36,29,87,48,78,79,7,415
22,28,49,17,122,33,21,51,0,542,16,45,124,42,87,66,27,478
39,41,61,12,179,45,15,77,0,745,18,49,184,65,77,105,21,695
27,39,50,14,194,17,24,80,0,665,22,49,214,59,73,103,31,559
27,22,40,13,128,17,22,50,0,655,16,49,141,50,65,66,37,550
2,1,10,0,10,2,4,4,2,97,4,7,24,8,15,17,0,57
1,2,5,1,7,2,0,3,0,49,0,3,9,1,8,5,7,37
3,2,4,3,19,2,2,8,14,98,4,11,32,3,8,17,0,80
6,7,16,2,73,4,2,21,14,176,5,17,88,20,22,14,0,155
0,2,8,1,21,1,1,2,7,34,0,5,28,2,7,4,0,31
14,12,19,5,58,10,3,27,0,290,7,18,72,19,25,41,3,253
19,16,38,9,78,22,8,47,2,288,6,42,97,32,34,45,0,271
7,24,26,8,47,12,3,43,5,170,7,26,95,22,21,29,0,145
11,7,23,8,100,11,14,26,19,243,10,21,109,17,26,30,0,249
13,21,42,13,80,11,7,43,0,301,19,23,72,21,47,39,19,291
21,28,52,12,151,28,20,74,8,524,17,73,176,31,75,64,0,482
2,3,15,4,29,8,6,18,12,64,3,13,38,3,15,11,0,78
3,0,1,0,6,3,7,1,0,19,0,2,4,4,4,2,4,20
2,9,15,2,52,9,4,26,1,138,3,7,38,3,19,27,0,161
6,4,4,2,23,4,3,22,11,127,4,6,48,8,13,22,0,105
17,34,54,7,162,12,16,57,13,363,9,48,166,38,84,75,0,315
3,7,19,6,34,14,2,12,7,103,6,11,59,3,16,11,0,101
12,4,12,8,57,2,5,43,4,208,9,24,71,21,12,27,0,191
0,4,5,2,23,0,1,3,0,36,0,6,18,0,10,8,0,32
30,32,60,34,186,42,23,81,0,918,44,68,239,38,83,91,64,779
2,3,27,4,45,7,4,10,0,124,4,9,63,6,17,10,13,104
7,5,16,0,12,3,3,10,0,36,2,2,17,6,12,3,8,42
33,12,63,12,104,20,20,70,12,463,11,41,196,45,57,49,0,410
8,18,24,14,66,30,8,38,0,343,13,25,81,7,41,58,16,308
2,5,10,0,10,2,0,1,7,49,0,0,13,6,9,10,0,48
5,15,53,10,59,17,7,21,0,316,10,23,72,8,55,51,22,262
3,8,16,6,45,11,3,14,0,218,8,9,63,8,42,18,2,174
18,23,34,17,246,31,18,177,0,561,24,55,277,22,54,176,6,511
4,15,7,4,13,1,3,5,7,84,3,10,29,3,11,10,0,77
4,11,16,3,31,3,2,9,21,84,5,17,34,6,16,20,0,86
7,0,3,3,8,1,2,11,5,46,0,8,14,9,3,15,0,37
3,13,26,10,84,9,8,24,4,200,11,20,87,9,39,29,0,186
5,3,10,3,31,3,1,10,0,29,5,13,7,3,10,6,11,40
5,20,18,8,83,11,8,37,0,306,6,31,81,19,44,33,16,266
46,27,57,13,119,18,24,90,5,595,12,84,190,84,71,85,0,468
30,25,35,18,124,18,20,69,21,474,24,55,152,57,52,72,0,422
46,23,33,16,165,20,15,125,41,923,22,92,220,70,42,95,0,866
24,36,47,17,144,25,18,83,0,544,9,56,159,37,60,79,67,471
44,51,74,24,253,30,28,130,39,800,37,99,297,67,93,164,0,716
16,13,26,7,62,13,17,37,29,293,9,27,92,24,34,52,0,275
14,36,39,17,99,20,8,76,0,608,11,61,118,27,35,86,52,527
31,40,79,11,176,30,23,123,0,579,19,66,192,55,95,117,21,527
7,22,37,13,65,9,9,58,0,332,7,22,82,11,41,37,24,328
16,36,72,14,120,16,13,54,0,550,14,46,125,21,86,61,67,471
12,28,44,10,99,14,6,52,0,453,8,24,92,21,39,57,69,408
27,35,44,8,189,27,15,80,0,504,13,49,207,35,65,84,13,463
2,7,16,5,24,7,0,13,5,104,14,8,32,6,14,17,0,92
3,16,36,29,136,30,9,54,0,442,22,36,136,16,52,62,5,426
14,6,4,3,37,13,1,31,0,205,3,17,48,17,20,28,21,160
14,9,50,7,61,33,13,33,0,273,8,36,82,24,31,42,10,260
7,15,35,7,52,11,3,16,4,191,8,11,75,17,34,64,0,132
0,0,0,2,4,0,0,2,0,22,0,0,2,0,2,0,1,25
0,0,1,0,13,0,2,6,0,23,0,3,9,1,0,4,0,28
8,19,23,21,38,6,4,18,8,263,12,27,72,11,37,23,0,226
2,2,2,4,24,7,0,3,5,93,5,8,40,0,4,9,0,76
