A53,A47,A659,A720,A1114,A768,A1,A997,A998,A999,B1,B1114,B720,B687,B7,B768,B47,B997,B998,B999
54,43,14,44,26,122,38,49,30,965,57,27,63,64,42,165,30,61,0,876
24,24,30,46,40,76,70,65,0,1251,122,38,87,47,41,132,18,71,20,1050
41,11,18,21,25,38,46,33,0,461,52,13,45,59,18,60,12,49,1,385
53,19,18,32,26,51,23,44,2,536,43,27,35,74,23,94,19,62,0,427
41,8,30,26,20,53,18,29,3,615,21,23,47,64,13,96,10,44,0,525
26,5,15,23,12,54,17,23,0,477,35,22,21,39,10,88,5,55,6,371
30,9,24,36,26,72,93,35,0,1059,163,20,50,59,12,142,8,62,7,861
17,6,11,15,14,47,12,25,0,415,15,19,15,53,5,90,4,17,1,343
43,8,33,48,21,82,47,48,3,1243,62,18,62,107,22,141,17,68,0,1079
42,9,32,25,23,91,20,39,2,1149,45,31,54,106,14,151,11,49,0,971
2,2,2,5,7,5,0,5,0,127,0,3,3,0,1,5,2,16,8,117
8,11,6,10,6,19,2,12,5,242,4,4,18,12,5,20,7,40,0,211
15,18,8,14,9,49,1,32,10,592,4,10,11,20,15,54,5,94,0,535
3,16,3,3,3,19,16,13,0,127,14,4,6,8,3,36,9,21,4,98
4,11,3,6,2,10,11,12,0,178,18,7,10,10,1,17,12,15,4,143
1,4,3,1,4,10,8,5,0,100,10,7,1,2,4,18,1,11,5,77
1,4,0,0,0,23,4,1,1,52,4,0,3,0,2,23,0,7,0,47
6,5,4,12,7,45,20,7,0,326,20,4,17,13,2,66,2,29,0,279
25,18,8,14,21,46,7,14,0,834,6,23,18,84,2,67,16,18,1,752
26,21,12,15,23,50,17,35,0,836,23,21,12,91,7,90,21,28,21,721
3,5,0,0,7,11,3,7,0,119,0,4,0,11,5,18,3,2,3,109
5,4,0,2,6,5,0,5,5,38,2,1,1,5,2,8,3,0,0,48
3,2,1,2,9,10,5,3,3,89,5,2,3,10,2,14,2,6,0,83
19,15,11,11,17,18,11,12,6,467,17,14,20,23,10,65,1,24,0,413
18,8,9,21,16,64,18,27,7,725,28,11,21,23,16,108,4,25,0,677
29,12,21,35,11,81,17,26,3,686,48,12,40,71,10,103,8,26,0,603
35,8,9,25,18,61,25,27,3,741,41,17,24,58,16,106,8,48,0,634
88,17,28,46,31,106,41,58,9,784,61,54,68,113,23,185,14,76,0,614
17,29,13,15,14,44,21,21,0,350,29,8,15,34,14,80,19,19,2,304
23,22,11,25,9,44,8,21,11,295,17,17,31,29,9,69,19,26,0,252
32,32,10,34,12,42,13,31,0,507,34,13,37,54,10,92,17,51,8,397
33,35,13,33,21,53,28,28,0,523,36,26,50,54,12,90,33,44,1,421
18,6,4,5,11,12,1,10,0,211,7,8,11,22,6,31,8,10,8,167
11,15,2,30,19,60,20,31,0,562,22,16,26,18,12,92,14,43,0,507
18,15,6,11,20,35,6,25,0,664,10,18,19,22,7,74,9,27,14,600
4,12,4,6,23,46,8,17,0,649,11,11,16,11,4,78,12,22,7,597
21,6,16,6,11,64,11,31,8,557,28,13,25,38,19,83,3,49,0,473
24,15,18,22,20,68,23,27,0,569,38,20,32,38,11,97,13,46,2,489
39,21,18,25,35,70,23,38,0,831,67,19,27,59,16,109,13,63,4,723
25,11,23,27,25,82,22,51,0,693,46,15,52,50,24,116,9,60,0,587
59,12,31,41,28,110,54,65,0,869,65,26,55,67,16,175,9,128,5,723
40,21,23,16,22,70,43,41,5,811,71,15,39,47,23,122,15,57,0,703
38,11,20,25,34,68,23,49,18,798,33,34,46,66,18,117,11,68,0,691
26,18,13,25,26,48,25,34,0,611,47,30,27,28,12,95,15,35,11,526
22,11,26,23,27,41,23,18,0,1185,46,22,39,53,11,79,8,57,17,1044
19,16,18,21,16,47,31,36,8,644,53,21,30,30,22,69,14,38,0,579
18,14,7,20,26,35,27,42,0,639,34,10,27,36,26,69,10,23,13,580
23,1,21,21,11,62,40,24,0,624,56,13,24,56,8,116,1,51,7,495
7,3,6,7,1,3,1,7,0,42,2,1,8,10,3,4,2,11,3,33
3,1,1,3,2,11,1,7,0,98,1,7,6,3,3,28,2,16,7,54
0,6,2,9,8,22,4,19,3,265,5,2,12,4,6,33,10,36,0,230
9,6,18,9,11,52,5,26,0,459,5,12,20,20,6,75,7,52,2,396
37,13,24,17,34,44,25,27,67,585,54,20,38,45,12,58,17,71,0,558
25,24,18,31,39,55,49,57,24,782,75,19,45,45,24,127,16,53,0,700
16,21,8,6,15,20,16,28,0,199,13,11,5,6,15,42,8,19,30,180
30,11,5,24,16,56,13,42,0,471,20,23,40,35,20,84,14,52,3,377
36,22,10,32,37,63,21,44,7,540,30,18,58,68,7,101,13,56,0,461
1,8,0,5,5,17,13,12,1,117,12,6,7,2,5,18,4,12,0,113
5,2,2,4,3,22,19,3,0,188,15,6,4,6,2,40,1,8,0,166
14,14,3,25,18,40,32,26,0,447,48,9,30,33,15,77,10,25,8,364
14,9,0,6,7,22,7,30,0,323,17,10,16,24,14,36,5,16,5,275
1,5,2,7,3,14,10,7,1,219,17,4,2,8,2,26,0,11,0,199
9,9,5,8,5,11,19,14,0,210,21,4,11,10,5,33,5,21,4,176
45,5,23,40,29,61,30,44,0,702,49,22,44,76,22,96,8,75,0,587
21,11,12,21,15,45,10,19,0,440,12,10,27,33,12,50,7,43,8,392
23,15,17,13,18,58,29,37,0,853,44,16,18,49,9,99,14,43,34,737
0,4,0,1,1,9,0,3,7,85,0,4,2,3,3,12,3,8,0,75
3,6,0,0,0,13,2,6,0,131,7,2,1,5,0,7,7,9,2,121
3,4,0,6,7,19,2,7,4,220,0,6,9,5,4,33,7,12,0,196
11,11,6,9,5,19,4,9,0,246,7,2,17,12,17,29,12,11,5,208
19,11,15,10,5,30,6,10,4,163,14,2,9,14,5,28,5,31,0,165
53,37,20,50,44,100,31,59,29,877,40,43,63,70,27,106,38,86,0,827
16,2,1,6,4,10,8,13,0,236,18,5,7,10,5,10,0,5,2,234
20,11,19,30,25,69,39,26,6,1122,59,23,25,39,8,138,9,64,0,1002
39,4,27,27,36,67,51,48,0,1010,60,28,41,58,11,117,10,89,6,889
22,13,3,26,22,41,42,73,1,847,83,16,28,27,42,101,14,40,0,739
35,11,29,31,21,59,47,34,6,1062,97,28,45,68,13,111,6,43,0,924
26,4,21,17,16,59,40,24,0,993,82,19,31,56,14,98,2,49,2,847
20,5,15,19,19,49,28,14,15,905,66,22,24,29,5,87,11,40,0,805
22,9,20,9,17,54,30,19,0,954,49,6,29,48,7,101,3,39,20,832
14,6,12,10,8,26,18,17,0,579,40,7,14,29,7,82,6,18,4,483
23,13,19,18,14,57,41,18,14,523,46,10,21,30,6,76,15,61,0,475
41,9,9,21,23,69,44,38,10,991,50,18,41,56,106,117,4,38,0,825
24,10,9,1,14,21,11,13,0,306,17,11,10,22,45,33,11,22,0,238
78,20,26,37,38,96,22,61,0,791,46,18,43,69,71,131,8,62,1,720
56,26,11,40,17,88,31,52,27,863,35,23,63,67,126,133,22,39,0,703
48,26,21,43,41,111,43,70,35,1217,76,29,63,103,51,155,13,59,0,1106
12,10,6,6,18,36,7,10,3,409,10,7,12,11,8,84,7,31,0,347
33,22,18,25,19,57,43,43,8,644,63,12,55,48,19,131,13,71,0,500
32,8,21,37,18,42,22,43,30,891,33,15,47,74,13,110,9,52,0,791
37,22,20,32,21,49,19,44,22,881,23,20,33,73,15,87,15,232,0,649
36,8,13,16,12,57,13,26,0,677,25,13,20,42,10,114,3,35,10,586
21,12,11,28,19,69,20,25,0,698,27,15,36,40,8,111,10,38,3,615
30,23,25,22,14,63,51,46,0,859,65,10,43,51,33,137,14,85,15,680
38,4,23,45,14,52,9,44,26,650,15,11,72,76,22,102,6,49,0,552
6,3,6,7,10,14,7,16,3,159,8,5,6,9,2,33,6,21,0,141
12,13,10,7,14,19,15,11,0,469,13,8,15,28,12,52,7,44,9,382
64,26,33,33,28,75,61,60,21,1202,158,27,54,90,32,160,20,84,0,978
4,3,5,3,1,3,4,6,0,80,4,5,5,5,2,16,3,8,2,59
11,6,8,12,10,47,6,14,3,437,17,9,16,22,8,72,7,21,0,382
3,1,4,1,9,14,10,6,6,136,6,10,3,4,1,14,3,24,0,125
12,6,2,9,13,17,6,15,0,139,10,8,15,18,8,32,3,15,1,109
23,12,13,22,26,57,69,39,0,507,97,19,32,25,10,82,14,60,5,424
10,2,2,10,10,23,12,15,8,423,14,12,16,14,5,61,3,21,0,369
44,7,12,22,44,81,45,49,0,989,55,37,29,189,6,108,13,31,3,822
26,10,19,26,16,77,42,29,0,1036,69,19,44,62,9,114,8,75,11,870
30,2,14,16,14,62,37,22,13,1059,48,22,28,62,12,118,4,79,0,896
56,19,15,16,15,72,16,21,0,757,34,9,35,66,11,87,13,81,16,635
90,55,45,48,39,100,28,60,0,1112,36,20,75,133,26,278,45,83,14,867
4,1,1,0,2,7,1,3,4,44,1,2,0,6,0,11,1,2,0,44
0,3,0,1,0,13,0,4,1,40,0,3,1,1,0,7,0,5,0,45
1,7,1,5,3,16,5,12,0,177,7,6,10,0,4,26,6,13,5,150
3,6,0,3,6,15,0,9,8,104,1,5,4,0,2,24,7,9,0,102
21,23,11,17,11,47,18,27,0,635,18,16,33,21,10,61,9,56,2,584
68,8,34,45,43,72,60,30,0,1100,84,37,48,97,8,157,6,91,13,919
32,25,13,20,22,72,16,36,0,928,26,19,27,36,14,96,26,47,18,855
4,0,1,0,4,5,0,0,7,47,4,3,5,2,0,14,0,1,0,39
2,1,0,3,1,10,3,3,5,51,2,0,1,1,0,8,2,6,0,59
4,2,0,2,5,6,2,2,0,139,3,8,4,3,1,13,2,2,2,124
7,7,4,13,3,19,6,11,0,304,12,4,9,10,6,43,6,29,0,255
11,13,8,17,17,63,13,22,0,801,26,12,23,31,10,95,20,27,3,718
27,30,11,25,17,66,15,21,0,740,24,16,20,35,4,94,16,39,31,673
22,33,7,21,24,61,12,23,0,759,22,15,32,29,12,98,21,38,5,690
14,3,15,20,5,22,8,14,4,316,16,2,15,34,6,26,5,27,0,290
9,0,1,9,5,10,31,16,6,297,48,1,8,9,12,13,1,12,0,280
22,2,15,13,19,26,117,25,11,802,169,14,19,21,27,30,10,82,0,680
28,6,7,23,15,21,37,13,4,575,64,16,25,28,13,57,7,22,0,497
3,5,0,3,7,14,14,7,0,258,30,1,2,0,4,30,1,13,11,219
22,10,18,27,32,41,70,46,25,1207,115,22,41,29,47,104,12,38,0,1090
35,21,34,34,25,71,33,121,0,1129,53,25,51,49,59,111,21,100,32,1002
57,43,19,65,56,88,69,46,0,958,88,40,73,68,48,113,35,82,8,846
28,6,8,27,42,42,33,32,24,475,60,24,43,38,14,49,10,49,0,430
22,6,19,26,3,31,27,33,0,538,42,7,32,36,12,84,7,43,4,438
21,9,6,11,14,46,34,30,0,545,59,6,19,20,10,91,8,30,2,471
8,1,0,0,4,13,0,8,0,139,0,3,0,5,1,12,0,8,9,135
20,13,4,20,16,37,44,40,15,494,61,8,27,30,64,62,8,14,0,429
28,6,11,23,15,48,38,36,3,727,43,11,31,35,15,82,4,158,0,556
8,7,0,5,18,26,15,42,0,446,16,15,16,23,9,63,3,28,4,390
8,2,9,7,0,5,0,2,0,16,1,1,2,9,0,12,0,7,3,14
10,21,2,4,14,34,9,13,0,350,9,14,13,14,4,62,13,29,6,293
13,18,5,18,6,31,26,25,1,373,64,17,32,18,10,67,14,11,0,283
6,7,3,2,12,4,3,8,0,170,5,8,6,9,1,12,9,6,0,159
24,6,5,12,33,38,24,23,0,574,73,19,12,33,11,66,2,24,8,491
13,12,14,21,25,56,28,34,6,604,83,17,31,33,16,77,3,35,0,518
4,4,0,4,3,28,18,5,0,140,13,1,11,3,1,33,0,51,4,89
29,23,6,31,22,52,14,27,0,550,20,22,40,50,14,80,38,24,6,460
12,25,13,26,35,55,16,31,18,562,32,25,38,22,9,102,44,24,0,497
11,10,7,17,9,42,16,22,0,462,23,13,22,13,11,54,12,29,16,403
2,9,3,8,7,12,1,12,0,236,0,8,6,11,4,34,6,18,0,203
4,0,2,0,7,13,1,3,0,42,0,8,2,6,0,12,3,7,0,34
13,10,8,2,12,14,1,11,1,250,7,9,5,19,3,22,6,24,0,227
11,11,0,17,15,26,3,13,14,365,4,17,23,9,4,46,7,17,0,348
12,15,19,16,24,57,3,28,2,570,4,26,36,42,6,73,13,43,0,503
3,5,6,0,5,9,1,4,8,165,0,9,1,2,1,8,2,14,0,169
4,12,4,7,14,20,1,13,7,188,0,13,12,5,3,46,7,6,0,178
5,14,2,2,6,18,0,3,0,107,2,4,3,4,0,16,7,22,0,99
3,3,6,1,3,5,0,4,0,46,1,0,2,8,0,6,5,10,0,39
1,7,3,3,8,12,0,8,0,85,3,3,5,0,3,21,2,14,1,75
4,7,2,1,5,16,7,8,0,70,9,1,1,0,1,27,1,4,6,70
4,10,2,1,7,19,3,12,0,180,6,11,7,2,0,30,6,7,2,167
0,5,3,1,3,9,0,6,2,124,0,2,1,0,0,19,5,2,0,124
0,4,3,0,8,6,3,6,0,124,4,0,0,1,0,22,1,6,1,119
0,9,2,4,5,6,0,6,0,83,1,3,8,1,1,5,7,13,0,76
5,8,4,9,27,38,2,25,5,294,4,9,12,19,13,38,5,19,0,298
1,3,1,8,15,21,9,13,8,234,8,5,8,3,9,37,6,14,0,223
3,15,13,9,5,16,7,14,0,233,8,2,9,9,1,21,15,25,11,214
4,8,6,12,9,16,1,4,6,191,0,12,20,12,5,31,13,11,0,153
11,3,1,8,11,6,2,7,15,200,5,8,10,15,0,14,5,25,0,182
16,11,3,27,14,35,11,27,20,407,20,23,37,22,16,53,14,41,0,345
4,5,3,6,5,14,20,4,0,176,30,4,8,1,3,17,4,2,1,167
24,17,8,23,17,72,15,34,0,641,29,18,25,29,17,121,21,46,1,544
12,1,1,10,1,14,16,10,7,157,19,5,16,10,9,18,5,15,0,132
33,34,21,47,38,66,40,47,19,675,63,22,63,43,13,84,24,61,0,647
60,15,18,36,43,100,41,72,18,798,63,29,53,77,31,126,19,73,0,730
56,38,24,56,43,121,44,75,0,1322,56,47,57,68,35,177,16,109,3,1211
36,22,12,15,12,47,20,44,24,593,36,20,65,56,16,58,15,78,0,481
44,12,33,33,20,38,32,38,0,363,36,20,36,87,12,63,6,46,13,294
3,3,4,9,12,16,13,17,0,219,19,9,13,11,9,25,2,15,9,184
13,2,1,5,9,15,20,11,0,140,19,4,12,15,2,21,3,16,2,122
42,15,7,15,36,48,59,54,10,561,63,29,26,53,20,66,9,63,0,518
12,4,7,8,22,17,10,14,25,393,20,8,18,15,6,34,3,46,0,362
13,13,5,3,24,19,8,21,5,356,15,14,13,13,9,33,11,76,0,283
27,2,12,21,21,37,41,22,21,443,45,12,28,33,5,56,2,70,0,396
22,20,5,12,36,38,42,35,10,609,41,19,28,25,14,59,11,75,0,557
21,21,13,21,20,69,10,32,0,506,21,13,37,23,21,88,21,32,0,457
32,20,8,16,30,51,10,42,28,452,22,22,29,43,15,95,10,52,0,401
20,27,10,12,20,49,12,30,0,776,21,15,9,17,4,82,22,79,12,695
29,25,15,34,17,45,46,40,0,656,39,21,44,37,23,74,25,95,1,548
11,31,6,13,18,56,11,40,20,723,10,29,21,25,36,63,33,70,0,642
6,5,2,1,17,18,2,5,13,748,7,13,7,8,6,33,4,21,0,718
2,2,0,1,3,18,3,6,0,88,6,2,1,1,0,14,1,12,7,79
27,13,16,27,15,32,41,33,0,674,59,15,32,38,4,60,12,65,9,584
13,10,11,24,8,41,6,24,3,374,11,3,11,21,9,53,8,39,0,359
4,5,1,5,7,4,4,1,4,88,5,3,4,4,1,13,3,6,0,84
10,2,0,7,0,12,1,11,1,130,5,3,7,13,2,12,1,10,0,121
30,20,10,22,28,71,8,42,3,514,8,17,21,54,16,113,17,91,0,411
4,1,3,12,10,28,10,10,0,393,24,8,14,12,5,40,1,35,5,327
10,2,4,18,7,13,15,19,3,381,32,6,13,27,14,35,2,11,0,332
34,14,10,39,22,61,42,43,0,1170,69,18,57,43,45,94,17,47,1,1044
17,10,12,23,11,50,27,51,0,945,62,12,30,33,28,55,9,22,6,889
30,11,15,22,20,29,27,22,27,379,31,24,36,61,8,56,4,28,0,334
17,8,1,24,17,26,7,14,2,413,23,10,30,26,4,60,9,28,0,339
74,43,32,36,47,98,34,58,20,1244,35,46,65,111,42,146,24,98,0,1119
18,15,12,39,13,52,15,46,2,673,17,16,61,40,18,89,20,99,0,525
27,13,11,19,26,41,3,31,16,350,14,14,46,54,15,82,9,39,0,264
53,9,17,38,31,74,23,48,2,800,34,26,64,80,23,122,14,48,0,684
55,34,42,41,23,66,30,35,0,1089,35,36,70,115,17,142,25,74,4,897
42,26,17,32,42,95,12,55,0,722,27,43,57,71,35,151,27,55,10,567
18,29,0,15,15,77,2,27,0,674,5,16,16,25,18,105,20,16,26,610
21,12,8,37,13,59,5,66,0,654,2,19,5,3,4,38,4,4,162,634
7,3,2,0,4,17,1,13,13,548,1,8,3,7,13,36,7,14,0,519
0,0,0,0,1,1,0,0,0,119,0,0,0,0,0,2,0,2,6,111
32,15,25,20,28,64,16,45,11,800,19,31,42,73,38,136,21,39,0,657
8,8,4,8,8,12,2,6,14,511,1,13,17,7,18,35,9,16,0,465
8,3,3,15,12,20,4,13,0,258,7,8,14,17,4,39,2,19,8,218
7,1,6,5,9,24,7,5,2,165,5,7,5,19,2,46,3,11,0,133
5,2,2,5,9,12,0,8,0,359,2,6,12,3,2,21,3,10,16,327
48,6,16,19,13,24,4,31,25,1100,11,8,37,95,17,48,6,31,0,1033
15,23,5,13,23,39,5,23,47,437,2,16,23,30,14,74,11,22,0,438
14,14,7,15,11,47,3,19,8,404,10,10,38,18,7,84,14,16,0,345
21,20,6,11,13,33,2,28,11,483,12,14,23,34,14,67,17,11,0,436
67,23,22,46,38,99,47,38,19,1021,53,34,68,90,17,157,31,63,0,907
12,7,6,11,11,28,10,10,2,341,8,7,17,29,5,44,2,20,0,306
41,20,27,22,31,57,5,32,4,611,12,30,46,84,15,95,15,41,0,512
14,13,2,14,17,29,5,11,9,295,7,9,22,22,9,45,12,18,0,265
36,3,7,25,17,49,5,18,0,347,8,17,26,41,6,85,8,24,13,279
30,30,6,12,17,42,4,21,2,498,10,29,32,27,9,73,24,19,0,439
8,4,4,2,7,21,1,6,0,542,5,9,4,10,10,24,1,5,30,497
12,16,2,10,12,29,7,21,11,426,16,22,23,18,3,60,15,17,0,372
9,18,6,16,16,37,3,22,0,383,11,11,31,12,8,59,17,18,2,341
21,5,16,20,14,36,4,25,16,356,15,11,33,45,8,60,8,26,0,307
32,12,22,31,17,39,4,25,22,360,9,11,37,62,11,84,11,30,0,309
28,15,4,13,9,19,10,23,0,278,7,10,17,30,9,63,10,26,8,219
40,15,18,11,14,42,10,19,0,286,9,9,21,45,11,70,15,23,7,245
17,11,4,12,16,40,6,24,3,378,10,17,25,29,10,60,13,22,0,325
45,38,25,29,45,106,15,61,0,775,14,23,50,59,20,177,43,63,7,683
37,11,24,28,36,45,22,85,0,1054,37,36,46,65,29,109,10,60,42,908
42,21,14,50,37,68,18,63,0,937,28,31,67,43,20,106,27,60,18,850
26,39,7,17,32,66,16,32,4,893,17,28,30,27,17,101,30,31,0,851
42,29,13,33,24,93,22,30,7,728,33,21,47,55,21,118,15,42,0,669
14,3,2,12,10,34,6,15,0,724,9,13,25,26,9,39,0,20,56,623
13,1,8,9,19,30,3,11,0,582,8,13,21,21,11,42,5,17,5,533
20,16,9,19,25,59,2,32,0,1086,5,38,26,36,16,114,7,37,12,977
42,29,12,33,36,79,18,42,0,637,13,35,54,48,25,133,20,47,1,552
96,39,40,53,53,148,51,69,0,761,54,40,80,128,53,214,38,78,14,611
61,38,17,26,28,68,32,61,9,664,73,30,69,73,40,141,30,43,0,505
73,33,19,45,53,95,22,48,13,881,32,32,56,86,38,159,26,68,0,785
53,47,34,39,36,123,20,44,35,964,29,32,54,57,22,181,46,202,0,772
61,30,26,33,18,85,25,45,30,633,40,25,56,94,47,134,26,78,0,486
53,36,25,66,35,65,34,42,27,848,55,22,85,96,33,130,30,72,0,708
102,51,34,50,57,108,79,68,41,1141,106,46,90,172,43,205,41,89,0,939
20,32,7,20,33,41,3,18,0,1089,8,30,30,21,17,72,32,35,8,1010
76,56,29,55,50,121,21,64,34,915,20,39,81,102,12,183,36,72,0,876
41,23,20,22,35,90,15,39,8,683,29,29,27,79,21,141,23,59,0,568
90,35,36,45,24,104,41,62,22,758,63,24,81,133,27,149,53,70,0,617
23,13,25,44,17,22,14,16,0,333,9,5,56,62,10,42,7,40,20,256
33,5,24,30,13,26,14,29,14,364,22,12,46,62,16,44,7,33,0,310
30,8,24,39,8,24,15,30,3,322,21,7,59,53,14,36,10,34,0,269
65,21,47,31,15,46,12,31,0,506,16,14,44,98,16,85,22,40,28,411
41,9,25,35,13,29,16,21,5,319,16,11,47,76,8,47,12,31,0,265
24,8,6,19,24,18,10,22,0,321,10,16,36,36,8,42,8,16,15,265
18,9,13,14,17,28,7,22,0,330,12,8,27,25,7,57,9,18,16,279
38,12,14,26,15,34,12,18,0,420,12,6,31,56,5,56,6,41,2,374
45,9,27,31,14,31,12,27,7,344,13,8,44,82,6,49,8,38,0,299
45,21,22,24,23,53,13,42,0,657,20,21,54,65,8,83,20,44,53,532
20,22,12,7,26,39,2,28,0,596,7,22,25,32,22,86,18,31,14,495
10,18,8,19,13,26,11,16,0,354,7,11,32,14,16,52,8,19,8,308
14,18,7,20,30,45,6,20,0,583,6,18,29,18,10,96,19,30,33,484
9,13,9,14,22,42,1,20,6,544,6,25,24,15,3,82,7,25,0,493
11,24,9,16,14,43,5,31,0,491,8,13,26,30,10,89,15,22,8,423
38,15,14,17,20,31,0,26,0,463,7,20,37,42,6,70,10,28,0,404
33,22,11,26,24,61,8,42,0,500,4,19,36,51,12,94,13,36,1,461
14,7,5,26,14,19,4,17,13,562,10,11,29,40,3,43,6,35,0,504
5,2,0,1,6,7,2,5,60,696,1,7,3,6,0,11,6,0,0,750
38,25,18,23,21,50,11,36,15,709,15,23,34,56,6,62,21,37,0,692
27,15,15,18,27,33,6,20,7,435,10,18,28,34,7,64,23,28,0,391
19,17,8,25,31,62,6,27,4,724,2,23,42,38,15,110,24,28,0,641
17,15,4,19,21,41,8,20,7,432,10,24,23,23,6,67,11,19,0,401
14,14,7,20,18,43,5,24,13,389,8,18,30,18,8,65,13,25,0,362
12,23,8,23,22,54,8,23,0,575,8,17,39,16,7,85,19,31,23,503
25,18,12,38,23,43,5,25,0,578,4,25,42,45,10,75,14,44,11,497
10,13,5,12,14,19,3,19,15,507,6,16,25,9,9,42,14,19,0,477
12,13,9,13,11,30,4,13,20,423,6,20,12,18,8,52,12,19,0,401
22,13,6,11,20,29,6,19,9,771,9,21,20,33,4,54,12,21,0,732
11,3,0,1,8,14,6,14,0,415,9,4,5,5,6,17,5,11,1,409
9,13,8,18,22,34,7,16,0,454,9,21,19,29,8,68,10,19,1,397
20,19,8,11,16,52,3,20,0,445,7,23,10,28,9,78,14,23,4,398
33,17,9,36,34,46,3,29,28,685,5,19,37,54,6,82,13,38,0,666
3,0,1,8,9,6,0,12,47,609,3,7,5,4,7,16,4,6,0,643
0,0,2,1,2,2,0,0,0,86,1,0,2,1,1,6,0,1,8,73
11,27,7,22,30,42,8,17,3,634,16,26,30,26,11,90,29,40,0,533
21,12,6,18,29,49,13,25,8,342,9,32,17,24,23,76,10,29,0,303
28,9,10,33,12,38,7,24,0,337,11,14,45,28,11,62,9,22,1,295
33,2,17,19,2,22,1,22,13,236,4,3,33,55,3,32,3,23,0,211
17,3,9,13,1,5,3,10,9,141,2,2,18,19,2,12,2,12,0,142
18,5,21,16,4,21,3,17,16,309,8,3,28,41,6,31,6,20,0,287
36,11,23,28,16,31,13,22,0,1780,16,22,42,72,2,51,6,28,9,1712
5,7,5,18,19,26,5,9,0,261,7,17,21,8,3,39,3,14,0,243
18,16,5,20,12,59,10,22,0,464,6,8,36,38,2,75,13,25,15,408
17,15,6,17,27,38,7,30,0,561,19,20,32,30,7,75,13,21,1,500
19,18,23,19,27,53,13,26,0,680,11,23,36,49,10,92,19,18,91,529
46,10,18,33,7,58,22,17,0,515,20,16,54,58,6,75,14,30,10,443
40,13,12,23,31,60,12,29,36,949,22,38,43,92,16,92,15,40,0,847
50,35,21,22,22,71,18,38,19,770,23,24,43,60,25,126,19,59,0,687
19,19,14,24,38,47,11,37,0,876,19,38,45,37,11,91,12,44,23,765
17,7,10,35,29,40,7,20,0,885,11,36,56,35,9,74,13,30,14,772
13,19,7,21,28,48,3,32,0,662,9,28,34,20,9,102,19,25,5,582
13,14,4,19,31,31,3,20,0,630,3,22,19,19,6,68,10,17,9,592
15,8,3,22,38,30,2,16,0,648,6,33,32,19,11,77,7,20,6,571
20,6,7,10,22,36,4,23,0,642,6,25,27,21,12,69,9,40,1,560
9,17,5,12,26,47,3,22,2,530,6,16,15,16,19,83,17,23,0,478
26,23,4,11,17,55,5,24,0,638,4,24,18,31,11,123,13,19,9,551
21,21,4,7,27,50,8,28,0,684,10,33,25,42,15,89,20,24,14,578
8,14,2,6,17,35,3,21,2,825,4,18,11,13,8,83,21,13,0,762
24,23,5,17,25,47,9,21,0,644,16,19,27,36,12,79,16,27,15,568
12,14,10,20,20,56,9,27,0,602,19,22,23,28,13,101,12,27,4,521
21,16,5,13,21,52,14,33,4,684,18,29,33,30,17,90,24,32,0,590
20,15,12,31,31,63,13,36,0,588,19,42,37,38,11,95,11,39,16,501
21,32,8,19,30,61,14,24,0,728,9,26,34,29,14,101,27,33,40,624
27,27,7,31,32,75,17,32,9,570,16,17,41,35,25,124,24,34,0,511
39,27,17,25,27,68,7,43,0,577,20,26,39,58,23,100,18,38,3,505
36,19,16,24,20,54,21,35,0,659,31,23,45,49,25,95,11,37,11,557
21,17,7,14,26,52,10,31,0,581,13,20,25,33,18,89,18,32,15,496
30,17,8,22,12,47,6,28,0,590,15,28,32,38,16,86,23,31,25,466
14,16,13,24,24,43,7,26,0,627,16,24,37,17,11,86,10,20,22,551
16,15,8,16,34,57,4,15,0,544,2,22,25,25,17,90,19,25,18,466
25,28,12,17,26,56,4,28,0,549,5,11,42,32,19,103,27,31,9,466
17,23,2,16,19,50,11,25,0,627,13,8,32,21,16,85,11,22,3,579
18,16,14,13,25,42,2,23,0,661,5,28,25,33,18,97,11,21,7,569
15,14,10,25,25,46,2,27,0,629,6,25,32,16,13,87,16,26,3,569
13,24,3,13,21,48,7,10,0,628,10,27,25,13,8,82,15,30,8,549
21,14,7,14,32,59,11,21,0,513,8,31,26,28,8,119,15,16,17,424
20,24,9,30,20,78,9,31,0,497,14,26,41,36,20,104,19,23,13,422
36,7,8,19,38,34,16,40,0,713,18,29,41,40,18,87,12,43,20,603
21,16,5,19,16,49,10,26,4,644,13,12,36,41,14,67,9,41,0,577
25,18,7,19,25,35,13,26,5,600,17,24,29,38,14,70,16,41,0,524
17,9,5,18,20,40,6,16,0,634,7,25,30,29,17,65,9,44,13,526
26,16,6,21,22,31,2,29,0,703,9,21,30,43,8,55,11,38,16,625
23,13,2,9,26,60,5,19,0,498,10,22,30,27,7,82,12,19,13,433
34,32,25,27,42,70,15,35,0,678,23,23,39,61,17,144,16,48,11,576
17,19,5,27,19,50,3,30,0,629,5,17,37,28,10,100,12,25,0,565
12,20,6,13,26,52,3,24,0,596,2,23,28,26,15,97,18,24,10,509
13,23,5,12,19,64,7,19,0,568,6,21,17,22,5,106,16,25,13,499
18,20,6,11,31,40,9,21,4,602,7,27,25,29,11,77,14,19,0,553
14,27,3,27,31,40,16,24,4,599,14,30,43,35,13,96,20,19,0,515
22,22,11,13,28,56,6,23,0,594,10,34,24,32,18,94,22,26,16,499
23,9,5,8,17,45,6,20,0,592,8,26,28,20,17,76,18,13,15,504
16,15,8,11,15,39,3,30,0,536,6,27,27,24,8,77,10,10,7,477
13,14,3,14,17,39,6,16,0,533,13,18,20,17,10,67,15,11,18,466
26,20,7,15,22,51,5,18,1,695,2,27,31,34,13,100,13,36,0,604
29,26,16,21,32,84,9,37,0,643,13,23,38,36,23,127,15,30,27,565
13,23,6,14,13,71,13,27,0,618,16,27,23,32,21,93,17,31,7,531
24,25,11,11,31,82,23,41,0,540,11,27,32,37,13,110,21,34,5,498
11,17,7,22,16,34,4,23,0,688,7,28,27,28,12,54,11,23,25,607
13,27,13,19,24,67,17,26,4,639,24,26,25,38,11,96,24,38,0,567
27,21,7,20,18,73,6,28,1,643,13,21,31,28,23,109,16,22,0,581
39,38,9,22,18,70,7,32,0,556,11,25,24,33,18,124,28,28,7,493
15,14,8,15,32,42,5,24,11,729,6,30,32,35,13,62,12,34,0,671
38,23,18,40,19,62,9,35,0,604,18,25,47,74,15,113,13,36,31,476
25,11,7,29,31,49,7,54,4,880,7,37,44,35,21,87,8,49,0,809
24,8,15,18,21,40,4,21,0,822,11,29,42,37,13,75,16,34,8,708
18,9,8,22,34,57,2,28,9,639,7,24,41,30,9,86,5,42,0,582
30,13,15,26,19,47,3,25,0,927,10,29,52,51,21,78,19,35,29,781
30,8,21,49,36,49,7,34,0,803,19,27,82,54,18,90,9,47,20,671
44,27,7,39,37,76,5,25,0,717,7,35,45,52,9,111,26,47,2,643
12,14,6,19,14,52,10,20,0,608,15,16,33,16,5,78,10,21,11,550
16,20,7,8,12,34,4,24,37,792,9,16,11,14,11,46,10,21,0,816
10,12,2,11,25,32,8,19,0,697,5,17,19,18,6,54,7,18,14,658
8,12,0,1,4,9,2,11,12,87,2,3,0,5,10,23,10,8,0,85
49,15,14,31,26,52,21,29,0,462,22,23,39,55,17,90,11,30,18,394
48,17,23,24,28,67,16,32,8,625,28,16,46,78,19,111,16,38,0,536
29,11,18,20,30,34,8,34,0,530,9,19,42,35,10,59,7,26,11,496
10,23,5,17,19,30,8,16,0,418,11,12,21,19,6,59,15,21,8,374
10,10,1,12,22,47,3,20,2,699,4,21,17,19,14,69,10,28,0,644
22,19,11,18,29,51,4,26,0,632,14,37,29,25,12,81,16,36,5,557
18,12,6,16,21,28,5,18,0,637,12,16,18,26,12,67,7,20,29,554
15,23,6,17,38,55,4,24,0,805,9,35,32,10,12,89,12,46,11,731
18,17,14,21,43,46,2,26,7,892,7,32,47,30,16,95,11,58,0,790
23,11,6,24,52,50,11,29,0,806,8,45,40,32,17,91,9,45,13,712
14,13,3,18,33,39,5,41,0,714,6,33,33,25,19,73,9,31,18,633
10,17,2,7,25,45,4,15,0,623,4,21,23,21,10,69,8,30,6,556
18,23,6,13,29,31,2,22,0,910,8,31,23,25,14,73,21,23,18,818
10,15,10,8,35,35,8,28,0,680,8,27,33,24,14,82,8,32,3,598
21,17,3,15,23,67,2,42,0,496,9,27,22,12,15,106,22,20,6,447
16,27,13,21,28,67,5,35,8,539,6,28,39,34,10,98,23,24,0,497
14,29,7,23,45,60,7,21,0,589,4,29,40,32,17,100,18,35,5,515
16,28,4,23,30,52,7,34,0,529,16,28,41,25,21,102,19,26,5,440
2,8,1,5,11,18,1,7,0,170,1,5,7,5,4,27,7,7,0,160
33,13,13,19,28,35,6,25,0,503,9,24,29,34,13,70,14,19,18,445
23,23,5,14,24,48,10,33,0,695,16,11,31,27,21,107,25,33,15,589
27,8,8,32,14,29,10,16,0,684,10,18,46,37,7,66,5,35,22,582
36,18,16,23,41,49,12,43,0,5532,7,49,46,55,27,100,17,50,126,5293
6,19,6,8,28,50,12,27,14,547,13,15,17,17,12,96,19,25,0,503
25,26,11,19,25,51,7,23,0,642,12,24,37,35,15,89,16,30,0,571
27,22,22,25,17,70,8,47,0,853,13,27,46,63,18,134,20,31,18,721
22,11,11,25,24,25,5,34,0,621,10,28,31,28,14,55,7,39,17,549
24,20,14,19,20,59,11,25,21,668,13,22,31,33,11,95,21,37,0,618
29,45,18,14,18,48,17,30,0,416,17,12,14,41,40,85,33,28,8,357
18,10,14,20,23,47,8,18,0,386,8,18,33,30,20,60,12,30,14,319
18,16,8,14,19,60,11,18,2,387,14,18,25,30,23,63,21,31,0,328
18,14,12,19,26,67,7,25,0,394,14,14,32,30,33,77,16,29,17,320
12,17,8,8,17,69,4,22,0,528,5,13,16,13,29,93,11,25,9,471
22,26,16,14,19,48,11,13,6,539,14,17,37,37,54,58,13,29,0,455
13,9,4,10,14,29,6,24,0,583,11,13,15,13,19,37,10,13,15,546
15,11,4,12,12,54,8,17,4,421,7,22,21,19,13,60,17,19,0,380
25,24,11,12,21,49,14,21,0,559,9,27,30,37,15,79,15,42,21,461
7,10,3,14,22,22,2,8,0,302,2,17,19,9,8,49,7,7,2,270
22,12,9,35,27,52,17,23,0,2590,25,18,40,42,11,79,10,46,38,2478
92,27,36,44,27,70,39,42,0,653,52,23,72,154,11,124,16,77,2,499
36,14,4,27,29,54,5,27,0,604,6,23,36,30,16,85,12,33,28,531
9,19,7,11,22,53,4,31,0,501,8,30,28,30,13,73,17,19,7,432
34,20,14,25,18,65,9,23,0,482,16,17,52,55,8,77,14,29,7,415
11,19,3,14,29,79,6,25,0,519,5,10,32,18,16,95,16,19,18,476
30,15,13,18,13,51,5,33,0,327,10,8,18,34,17,82,10,21,13,292
43,16,9,17,13,44,10,25,0,410,15,10,28,50,47,66,10,35,6,320
26,20,8,12,22,46,4,25,0,397,7,11,18,36,32,71,11,33,9,332
9,10,8,16,15,33,8,19,0,317,10,10,16,18,18,50,10,21,7,275
14,25,8,15,22,33,5,18,2,373,8,15,32,16,27,50,16,27,0,324
21,14,6,16,15,21,6,13,1,408,8,6,15,29,14,48,15,23,0,363
16,10,8,18,13,26,4,10,0,478,7,14,35,31,8,42,12,38,4,392
9,9,2,6,18,15,8,13,12,363,7,15,10,11,14,36,7,13,0,342
19,18,12,11,15,48,2,16,0,408,4,13,14,29,16,63,13,16,9,372
20,7,5,22,18,54,8,15,0,598,11,21,39,34,17,70,14,35,3,503
17,13,8,19,22,43,8,19,0,704,13,25,31,31,7,73,6,21,46,600
7,9,7,23,24,30,2,11,0,547,3,15,26,16,7,44,9,20,39,481
8,7,4,13,13,26,5,18,0,698,11,18,30,21,7,58,10,25,17,595
24,11,10,19,13,28,21,18,0,331,19,13,21,28,12,60,5,28,8,281
22,22,12,22,14,34,10,19,0,313,19,13,27,29,12,44,21,37,3,263
10,16,1,16,14,31,5,11,0,474,3,13,18,18,9,60,13,14,8,422
20,7,12,18,15,39,6,18,0,560,16,19,26,35,7,69,7,25,7,484
12,17,11,22,7,28,8,19,0,561,13,7,42,29,8,53,13,23,12,485
29,12,11,27,19,40,16,18,0,394,17,6,32,47,15,81,4,41,2,321
19,10,7,11,20,37,5,30,0,480,11,13,28,25,12,48,8,23,32,419
8,10,8,10,17,42,4,15,0,452,2,11,25,21,9,59,12,29,11,387
11,15,4,6,14,22,4,13,0,467,10,8,10,18,8,47,9,14,13,419
14,11,4,16,14,25,7,13,0,682,5,12,23,17,6,42,8,23,24,626
11,12,1,11,15,35,6,18,0,663,8,7,14,20,8,47,15,13,13,627
24,26,4,22,16,45,5,25,0,459,9,11,34,36,13,88,19,24,13,379
17,6,7,25,13,32,6,13,0,428,3,20,32,30,3,64,11,26,19,339
18,16,5,10,23,66,15,17,0,478,20,19,18,26,12,88,11,21,18,415
18,19,6,9,25,46,6,21,1,417,7,24,20,16,13,60,11,25,0,392
16,10,7,11,11,39,2,20,0,346,16,14,16,27,6,62,8,29,1,283
25,16,11,12,18,45,6,28,0,496,12,13,30,26,9,71,10,40,2,444
36,24,10,27,20,53,10,28,2,479,17,18,30,52,18,85,19,34,0,416
41,18,11,26,22,53,10,48,0,587,14,17,39,45,11,83,19,23,7,558
17,14,15,19,17,79,5,29,0,567,12,13,28,26,19,112,15,28,18,491
14,14,10,10,14,24,5,18,0,555,6,12,23,20,10,41,7,19,23,503
30,22,13,26,34,39,19,26,0,649,21,27,28,56,14,79,11,39,18,565
24,13,9,18,22,49,2,27,0,477,6,11,24,36,14,84,12,24,2,428
27,25,8,16,18,29,2,25,0,563,3,20,28,32,11,51,17,29,26,496
30,16,13,19,24,72,9,36,6,559,15,14,33,33,23,111,19,37,0,499
26,13,18,22,28,71,9,32,0,679,19,24,36,34,14,114,8,33,13,603
32,16,9,12,16,52,12,25,0,302,16,10,16,16,11,66,12,18,13,298
17,18,2,20,21,34,8,21,16,419,11,22,36,25,8,47,8,17,0,402
23,30,6,20,24,43,4,25,0,421,7,27,26,33,17,74,14,28,22,348
53,18,15,32,28,64,9,34,2,574,15,19,53,66,23,112,17,48,0,476
17,17,10,11,20,51,14,21,12,436,15,15,40,21,10,80,6,20,0,402
28,8,11,16,13,43,12,14,16,493,13,22,23,48,5,73,6,25,0,439
24,21,10,22,14,50,10,33,0,559,8,21,31,32,13,87,18,43,6,484
24,12,12,17,14,52,10,19,5,557,10,13,27,23,14,71,10,29,0,525
25,6,10,17,2,35,6,15,0,272,13,6,30,13,12,43,8,14,5,244
27,16,8,23,18,38,14,20,0,407,17,18,26,38,6,64,14,25,5,358
37,6,6,28,21,55,21,23,0,347,19,8,37,50,8,82,7,35,15,283
21,12,8,13,17,31,3,21,0,431,6,8,19,29,11,48,9,34,8,385
24,20,9,19,20,75,12,34,0,549,14,11,32,39,22,82,15,43,8,496
16,12,4,29,12,49,3,21,9,309,8,5,33,30,12,59,15,23,0,279
16,11,6,15,11,30,4,25,3,362,8,13,22,23,21,40,11,17,0,328
28,13,11,18,29,69,12,32,5,545,19,20,22,30,22,100,18,37,0,494
24,18,4,32,21,38,11,25,0,482,14,13,25,34,24,62,9,34,12,428
17,26,7,13,18,36,2,27,14,397,9,15,17,20,9,56,18,25,0,388
20,13,6,16,10,52,13,18,0,333,15,7,26,31,36,59,14,18,9,266
30,33,10,25,18,53,11,32,0,481,7,17,35,47,34,74,22,45,20,392
27,29,11,20,22,42,8,22,0,477,14,14,35,33,26,76,23,29,3,405
15,11,12,19,17,52,9,27,0,447,10,14,26,22,24,61,13,26,1,412
34,21,18,49,31,69,12,34,0,763,20,34,61,53,36,102,12,58,10,645
26,18,4,30,23,33,15,34,0,663,19,23,55,50,19,66,18,51,0,545
6,13,1,19,34,21,3,17,21,892,9,25,17,25,4,44,14,15,0,874
15,11,3,17,9,16,4,10,4,348,5,15,22,16,7,38,4,19,0,311
12,14,9,15,21,45,9,19,19,1068,12,27,24,24,5,53,23,31,0,1032
42,35,23,26,35,51,7,47,18,932,19,33,45,55,30,94,33,51,0,856
5,7,1,5,7,39,4,19,23,995,6,12,14,10,7,48,6,10,0,992
4,22,5,5,27,43,3,21,2,695,5,20,16,15,6,117,17,22,0,609
39,16,12,30,14,82,24,26,6,583,28,31,44,59,11,116,16,37,0,490
46,10,9,25,26,45,11,31,7,618,12,39,43,68,13,82,15,40,0,516
34,18,17,28,19,42,18,36,4,423,19,23,34,48,15,68,18,32,0,382
50,17,15,33,19,72,20,49,16,536,33,28,49,81,11,117,13,41,0,454
32,26,16,7,31,73,8,40,22,508,23,19,30,52,12,130,25,45,0,427
12,11,5,11,19,36,10,26,0,395,16,11,24,24,9,66,13,20,6,336
37,26,13,19,30,76,13,53,5,758,15,34,35,46,24,117,16,45,0,698
26,40,5,23,53,76,14,21,2,908,24,28,34,36,23,157,36,45,0,785
43,25,18,18,28,57,2,27,0,683,7,28,26,68,22,91,21,33,6,599
15,29,5,11,28,57,11,32,24,560,24,31,17,39,22,96,20,42,0,481
81,16,15,43,33,79,18,37,8,765,35,32,38,118,27,145,16,92,0,592
21,5,13,13,16,19,6,15,10,461,10,14,7,21,9,39,5,72,0,402
72,20,20,64,31,89,21,47,3,623,26,27,65,98,22,123,21,76,0,532
65,14,22,44,34,71,14,49,0,1045,22,29,55,85,18,136,15,60,11,927
83,15,47,31,40,90,18,49,0,878,44,44,46,126,27,138,18,60,3,745
101,24,28,45,33,106,30,67,30,647,43,13,56,115,67,153,27,67,0,570
73,35,21,28,40,57,72,40,18,710,81,37,43,113,19,99,35,51,0,616
44,23,17,31,31,72,99,33,16,613,121,25,34,71,31,124,22,46,0,505
67,35,28,45,24,90,37,34,16,801,49,27,77,108,15,158,30,51,0,662
141,31,58,56,46,138,72,61,0,974,88,53,103,148,44,199,47,101,0,794
8,18,3,19,18,41,27,26,9,528,27,25,28,9,3,57,11,28,0,509
16,10,10,27,18,56,60,42,0,720,107,28,41,35,19,79,7,25,0,618
40,15,17,28,28,71,48,39,0,757,93,25,44,54,28,94,6,31,10,658
20,13,13,36,19,65,45,51,17,713,73,9,32,54,23,99,12,36,0,654
17,4,13,19,14,39,10,25,18,394,43,9,20,22,10,59,3,19,0,368
9,9,4,4,2,25,8,35,0,277,6,6,13,17,13,31,9,48,7,223
37,41,11,32,24,81,10,36,0,590,22,22,57,53,31,117,19,39,5,497
17,24,11,26,26,48,16,37,11,547,18,28,38,31,20,77,22,44,0,485
14,33,3,24,20,50,4,29,0,518,11,26,18,13,30,93,29,22,13,440
12,26,6,18,18,69,12,25,0,639,28,25,30,27,18,115,21,26,1,534
12,21,7,28,14,53,14,22,0,441,14,24,33,14,14,72,17,26,21,377
13,15,8,15,18,67,13,35,2,608,10,20,21,20,19,90,9,34,0,571
17,29,5,20,18,58,5,25,0,619,9,25,25,20,25,103,26,36,6,521
12,26,4,18,17,35,8,18,0,579,20,13,22,13,14,67,22,17,5,524
14,29,16,17,11,64,15,41,6,596,28,23,41,23,23,96,21,41,0,513
11,25,7,12,18,49,11,24,3,470,7,13,25,14,7,71,15,24,0,454
11,18,2,16,14,48,4,9,0,490,10,14,20,8,8,68,10,19,10,445
9,24,7,10,16,42,4,27,0,587,8,25,14,15,17,70,16,18,28,515
9,13,2,7,8,43,4,21,20,532,4,18,25,17,18,72,13,13,0,479
11,12,4,9,8,43,13,39,18,684,11,17,17,14,32,73,16,20,0,641
13,23,0,10,27,51,8,18,0,597,14,18,26,21,21,83,20,14,15,515
18,39,8,25,16,58,7,31,8,600,10,28,28,16,18,90,30,29,0,561
13,2,4,12,3,18,14,19,0,287,24,7,14,29,7,30,4,15,15,227
9,27,4,13,8,32,13,28,0,582,14,12,26,17,16,75,18,24,0,514
15,23,7,13,19,36,17,31,0,604,21,18,22,17,18,61,25,24,7,552
13,10,2,7,7,43,4,23,0,537,7,14,22,9,13,64,8,14,3,492
6,24,3,21,16,50,4,23,8,590,10,16,20,18,22,67,15,28,0,549
7,11,2,7,10,29,5,9,0,349,8,16,10,10,15,40,8,13,11,298
6,26,7,4,10,41,12,28,0,488,16,11,15,10,13,64,19,10,9,455
12,18,7,14,12,38,6,27,0,578,9,20,30,21,24,81,21,13,0,493
24,33,7,25,16,47,7,24,0,636,13,21,27,34,21,78,26,22,2,575
11,18,6,6,18,38,4,13,0,620,4,29,17,18,13,71,13,16,4,549
16,25,4,15,6,39,6,18,1,579,8,15,29,21,18,48,15,26,0,529
7,13,2,6,7,21,1,12,0,456,5,11,18,10,16,30,10,13,10,402
7,18,8,12,15,31,2,22,14,614,9,13,18,13,14,56,16,22,0,582
14,12,7,18,25,45,4,15,5,500,13,15,20,25,12,54,17,22,0,467
19,31,11,22,19,33,2,43,0,571,10,12,26,20,6,43,23,34,7,570
8,18,10,11,12,36,11,14,6,663,9,27,27,25,8,65,17,28,0,583
13,19,15,17,17,42,6,23,0,2566,13,24,29,23,17,87,17,18,70,2420
6,9,2,6,13,33,6,16,0,620,9,16,9,12,11,54,11,18,13,558
8,17,5,17,12,19,7,18,0,552,10,10,32,15,8,58,12,22,2,486
6,18,3,31,31,32,8,33,0,1013,14,38,30,20,20,64,12,46,56,875
7,10,2,7,17,62,5,21,4,521,12,28,9,16,8,68,15,19,0,481
9,17,14,18,20,51,19,29,0,590,21,19,18,23,6,100,16,22,16,526
21,19,10,22,15,46,9,20,10,808,18,32,42,23,20,76,17,28,0,724
32,18,11,23,26,97,14,38,0,702,35,17,34,36,27,142,18,37,16,599
13,5,3,9,19,39,4,23,0,689,13,31,16,15,16,83,13,15,19,583
7,8,0,13,6,41,8,16,0,583,9,19,11,8,10,52,3,13,25,532
15,18,10,17,18,38,16,24,11,461,20,28,25,25,19,74,15,22,0,400
26,25,10,32,18,70,8,33,0,574,27,18,41,60,21,97,23,37,2,470
27,12,4,32,12,37,19,30,16,447,46,15,38,60,7,71,10,39,0,350
22,30,9,16,26,69,13,23,4,599,28,20,30,26,28,102,24,30,0,523
13,22,26,16,13,36,8,29,20,289,18,13,35,31,12,58,20,34,0,251
17,21,10,19,21,81,10,50,0,494,20,25,31,18,35,115,23,26,3,427
19,26,15,11,22,56,3,34,0,541,7,29,24,34,20,92,21,33,4,463
13,21,11,11,18,58,10,30,0,431,26,27,31,23,19,80,14,23,10,350
15,25,6,23,20,69,10,21,0,477,15,15,29,16,21,81,18,25,9,437
14,21,2,16,28,51,11,30,0,563,19,23,25,21,14,84,13,22,14,501
16,22,5,14,22,40,14,21,18,520,25,13,36,19,10,76,14,18,0,481
21,20,3,31,29,63,12,24,0,564,21,25,43,26,15,112,18,27,2,478
11,13,10,8,16,35,7,31,0,430,19,17,18,9,19,66,13,25,4,371
10,17,6,13,25,60,3,28,0,522,3,19,22,19,9,100,12,30,4,466
53,22,33,47,31,56,34,41,21,746,44,33,78,84,16,118,11,115,0,585
24,18,7,29,16,39,18,26,16,528,59,23,34,33,22,83,19,35,0,413
9,12,6,22,23,28,0,25,0,743,6,31,37,11,14,58,6,27,30,648
8,15,10,23,23,47,6,16,0,760,9,31,28,11,12,83,17,22,30,665
17,22,4,19,22,51,3,24,0,558,7,14,36,15,15,97,24,29,17,466
14,36,8,13,20,69,7,24,14,432,9,21,18,17,26,112,26,28,0,380
14,18,5,17,17,56,6,16,10,647,9,17,23,27,16,96,14,21,0,583
24,34,24,22,35,83,32,48,8,775,48,25,40,44,27,144,34,65,0,658
20,25,14,15,15,58,16,24,10,639,30,19,27,24,20,78,15,28,0,595
9,10,7,13,7,54,11,29,48,823,14,19,26,18,12,90,11,11,0,810
7,24,11,35,27,61,7,37,3,902,10,38,58,27,14,95,16,36,0,820
11,14,9,12,20,39,5,19,0,727,9,35,20,16,11,66,12,30,11,646
12,38,7,20,23,65,11,24,0,532,18,15,29,30,29,102,28,27,10,444
24,18,15,16,22,69,14,33,0,533,29,27,39,30,22,130,17,20,7,423
21,39,4,6,27,75,10,30,0,551,19,14,26,23,18,131,24,27,3,478
25,23,19,25,21,62,7,23,0,528,11,22,27,24,18,100,27,31,0,473
19,24,7,18,19,73,12,38,0,566,22,12,29,30,18,112,26,36,1,490
14,35,6,13,15,63,22,48,0,718,33,15,19,13,21,101,28,17,4,683
0,3,1,1,8,7,2,10,0,594,4,11,3,5,2,16,10,4,41,530
0,2,1,4,5,5,1,3,0,497,2,4,3,4,1,13,3,5,19,464
9,15,1,5,18,27,3,14,0,553,7,19,1,10,9,47,9,12,30,501
3,7,0,1,7,13,1,8,0,491,1,5,4,3,3,10,4,1,31,469
4,11,3,4,9,23,7,14,0,778,11,25,8,7,7,39,12,12,47,685
15,12,7,19,9,22,14,25,0,282,18,5,14,24,8,49,13,44,0,230
22,11,13,26,24,53,64,49,30,761,94,32,41,52,22,91,6,68,0,647
5,16,1,12,15,11,11,7,0,349,14,11,24,12,3,30,10,4,4,315
23,16,11,11,27,27,13,21,27,578,17,18,27,18,7,51,19,45,0,552
29,12,17,27,51,60,93,49,24,940,103,31,46,50,18,98,13,64,0,879
15,6,11,24,17,27,60,27,7,579,65,16,38,34,32,65,3,21,0,499
1,4,4,17,17,20,3,16,0,193,4,13,3,16,3,26,4,15,0,191
8,8,3,1,2,25,1,11,2,149,4,4,2,6,3,19,3,18,0,151
6,2,0,1,2,10,1,6,0,100,3,4,1,7,1,18,3,1,10,80
25,7,8,29,19,54,59,24,0,903,64,16,31,44,1,95,6,34,23,814
22,11,7,24,17,65,41,30,5,724,51,13,32,36,8,111,14,38,0,643
40,4,9,26,20,66,64,46,2,798,82,12,34,49,25,124,5,49,0,695
47,17,10,12,27,53,11,32,6,400,17,15,12,66,7,104,11,39,0,344
46,17,13,25,29,72,53,47,12,971,82,20,57,58,23,132,17,60,0,836
26,10,14,22,8,42,24,35,17,398,38,15,31,60,14,69,12,42,0,315
5,3,4,8,4,14,8,12,8,160,9,2,16,9,0,21,2,37,0,130
1,13,7,11,7,39,3,5,7,313,7,1,7,7,7,38,12,14,0,313
7,18,1,3,6,26,18,17,5,439,14,6,8,14,7,53,13,58,0,367
5,6,0,6,3,16,2,18,1,254,6,5,2,5,1,20,2,66,0,204
30,16,10,17,12,27,14,18,13,300,23,8,14,22,13,58,10,39,0,270
7,1,8,13,6,21,27,9,0,380,25,1,10,20,5,34,1,32,2,342
24,12,17,15,16,35,16,22,1,441,20,8,22,49,17,66,12,29,0,376
13,19,12,14,9,77,6,32,12,744,10,14,44,38,24,117,16,49,0,626
16,15,7,7,7,50,10,29,15,335,27,9,28,20,11,70,12,19,0,295
16,7,11,21,12,33,25,28,7,339,40,10,18,39,9,67,11,33,0,272
34,17,15,36,20,63,67,41,19,509,104,23,41,56,21,76,10,44,0,446
58,12,16,27,25,47,72,27,14,483,94,24,63,51,13,93,9,58,0,376
28,20,12,13,13,38,39,17,7,445,41,18,22,40,14,69,21,24,0,383
33,31,37,25,26,78,18,31,0,1208,40,35,70,66,19,118,25,63,0,1051
74,21,23,42,23,54,76,56,0,622,107,20,50,79,13,85,11,76,11,539
4,10,0,13,2,22,20,13,7,179,21,9,14,5,5,37,9,7,0,163
8,6,2,1,6,9,0,7,0,103,0,7,2,8,2,8,5,7,1,102
6,23,12,16,4,7,22,13,3,373,20,12,15,15,10,30,13,22,0,342
35,8,7,13,18,47,5,23,15,373,12,25,15,36,19,62,10,39,0,326
14,31,3,16,20,54,10,24,0,425,16,52,23,22,5,69,24,20,1,365
18,19,7,19,36,42,10,32,11,455,15,35,30,26,13,65,21,37,0,407
13,22,14,16,25,46,22,36,10,680,46,25,37,32,10,64,13,51,0,606
26,9,17,30,10,32,32,26,0,392,40,8,35,36,10,52,5,29,2,357
42,55,29,33,20,49,15,39,0,528,19,18,48,60,18,80,57,56,0,454
38,20,12,47,18,54,27,30,16,516,34,22,59,46,21,72,15,56,0,453
22,19,16,17,31,51,29,15,0,564,54,25,37,22,14,78,22,35,10,467
67,49,31,52,49,99,31,81,39,1004,56,43,64,107,40,171,44,90,0,887
7,7,3,4,4,18,3,14,7,274,4,12,6,7,8,39,5,27,0,233
8,17,6,6,16,25,7,19,0,583,6,16,9,4,15,38,14,23,13,549
6,3,3,5,11,6,8,4,4,146,5,4,6,12,1,6,1,7,0,154
2,8,3,3,2,8,7,3,2,156,6,3,5,3,0,15,4,8,0,150
17,23,6,20,3,34,17,17,2,285,26,9,19,27,16,64,15,23,0,225
39,30,10,28,20,56,5,46,4,459,19,29,31,46,17,96,21,36,0,402
6,7,2,4,7,20,2,7,0,232,4,8,3,7,1,26,4,24,2,208
2,6,6,3,7,20,1,14,3,276,1,10,12,5,6,37,11,19,0,237
4,2,0,4,4,9,1,6,3,97,0,1,2,8,1,18,5,10,0,85
85,29,27,61,53,88,37,100,77,1149,58,47,110,114,46,147,24,106,0,1054
20,21,11,15,17,50,25,29,0,613,30,25,37,27,11,86,12,34,5,534
0,2,0,2,4,14,4,10,6,147,5,5,6,5,2,21,5,29,0,111
24,29,11,14,11,74,6,30,9,404,15,21,26,23,16,81,16,56,0,358
52,18,28,24,13,46,18,23,1,401,20,8,35,51,17,70,14,70,0,339
10,12,10,4,10,56,8,22,7,414,15,8,18,23,15,75,11,25,0,363
6,7,1,6,3,13,3,17,4,235,3,3,4,5,0,25,5,5,0,245
27,6,11,17,9,33,31,29,0,459,68,9,39,35,10,54,10,28,0,369
11,10,12,12,14,24,2,19,0,841,6,20,16,13,3,41,11,23,6,806
11,9,8,6,12,23,0,12,0,511,3,15,14,15,4,44,14,14,5,464
7,11,6,7,33,36,1,19,0,1150,2,21,9,18,6,62,13,30,8,1101
26,19,12,15,29,66,2,20,0,651,4,23,25,37,7,92,15,33,10,594
26,30,14,25,27,85,2,41,0,622,7,21,28,39,11,118,25,53,8,562
13,21,3,3,25,59,4,28,0,369,7,19,10,15,14,74,16,20,1,349
11,10,7,5,27,19,3,11,0,414,6,25,11,23,6,45,9,16,27,339
23,17,12,16,22,52,4,12,0,483,9,8,19,52,5,98,19,24,5,402
25,21,22,22,17,61,12,20,0,520,7,16,22,29,10,84,14,36,7,495
13,17,9,15,28,38,8,26,4,688,13,24,29,25,9,61,15,48,0,622
9,15,6,10,13,34,10,10,0,734,6,23,18,15,9,52,16,47,0,655
14,15,10,20,22,61,12,27,0,596,9,18,31,17,9,78,9,26,26,554
4,21,9,8,19,33,4,15,0,502,2,17,10,14,7,35,18,11,33,468
20,17,12,17,25,42,3,20,1,582,5,19,28,24,14,59,23,41,0,526
17,22,5,12,14,43,6,16,6,510,8,16,17,21,3,69,15,28,0,474
7,14,10,7,15,50,0,19,1,429,4,17,15,17,5,73,18,32,0,371
15,21,7,9,15,32,3,23,0,574,7,15,17,21,13,57,17,16,3,533
17,22,4,13,27,50,0,24,3,512,1,20,24,13,10,87,20,36,0,461
4,8,0,1,21,9,1,6,0,149,3,6,1,3,1,13,3,16,2,151
9,7,6,10,3,12,17,11,0,248,13,3,3,15,0,25,4,6,2,252
1,9,2,5,4,13,0,6,2,126,8,3,11,3,0,23,11,5,0,104
19,15,12,15,25,53,8,48,3,753,9,39,29,22,12,91,21,41,0,687
7,18,1,15,27,54,3,29,13,623,4,32,12,15,10,103,13,26,0,575
12,23,9,7,21,48,4,23,0,620,4,17,23,26,18,79,17,31,13,539
8,11,17,13,33,71,8,32,3,773,7,25,16,25,10,98,6,54,0,728
0,5,0,2,2,5,1,3,0,146,1,1,2,1,3,8,1,4,2,141
5,15,3,7,6,12,0,19,8,277,3,5,7,1,6,38,10,18,0,264
7,8,4,6,10,16,8,12,0,255,0,2,14,12,17,21,3,11,13,233
23,38,6,14,44,59,1,36,0,865,6,33,27,19,6,77,27,56,22,813
6,13,7,3,8,21,3,10,0,214,6,5,9,8,2,42,5,10,12,186
7,14,5,11,22,36,2,30,0,488,4,28,8,16,10,56,30,20,0,443
10,8,3,3,1,21,2,9,0,175,2,5,8,18,2,31,6,8,5,147
20,19,5,4,33,32,8,34,0,651,6,26,19,19,12,68,26,22,11,597
20,13,9,8,28,47,12,15,0,670,10,18,17,26,7,81,18,37,6,602
3,14,12,5,2,7,0,5,0,115,0,3,4,5,1,12,11,4,2,121
4,13,7,5,11,32,3,5,0,443,14,7,10,16,3,37,15,15,5,401
7,7,4,6,10,9,3,7,7,173,5,6,9,7,5,22,11,20,0,148
4,10,2,7,5,11,0,18,1,236,1,3,14,3,8,30,11,12,0,212
4,11,1,1,15,21,2,10,0,186,4,6,4,5,1,36,15,8,5,167
20,28,7,11,19,33,1,30,0,898,10,14,10,26,13,85,19,25,22,823
7,14,1,15,5,0,0,23,7,168,1,9,16,6,4,17,9,10,0,168
18,18,9,25,25,37,4,36,0,681,9,21,14,23,8,90,12,53,1,622
3,14,3,9,3,16,1,10,0,234,4,8,6,5,0,24,7,15,4,220
10,7,5,4,7,17,6,7,9,217,8,3,10,23,5,29,4,5,0,202
9,3,4,21,1,5,2,3,0,144,2,4,15,16,2,14,5,9,0,125
21,19,17,11,15,61,18,31,0,458,21,15,14,39,14,78,28,27,8,407
21,22,12,25,18,51,10,22,0,657,13,24,31,38,9,72,33,36,10,572
29,21,12,13,11,52,11,47,0,411,11,11,23,35,9,67,29,22,9,391
2,5,0,7,8,15,2,8,0,173,3,3,13,4,1,19,7,8,5,157
18,19,7,32,24,44,5,22,8,590,9,22,27,23,6,57,20,22,0,583
19,26,12,17,34,53,16,25,0,541,23,15,21,30,4,74,30,32,1,513
18,23,9,18,13,61,13,26,0,622,11,17,13,21,10,84,38,24,13,572
46,14,12,23,23,63,8,20,0,560,19,30,25,53,14,86,20,32,8,482
16,13,6,10,12,42,15,13,0,563,17,21,8,20,8,74,10,23,7,502
16,21,6,11,18,38,5,25,2,459,14,10,13,20,12,72,22,8,0,430
4,23,5,11,24,70,1,23,0,605,3,30,22,12,10,91,27,19,11,541
9,13,0,12,17,72,7,19,3,579,10,15,9,18,11,100,21,15,0,532
6,8,5,8,12,41,3,18,7,451,5,20,8,10,11,65,19,14,0,407
6,9,7,12,30,42,10,14,0,460,15,18,21,19,5,64,9,20,5,414
8,18,2,11,26,29,11,20,0,464,11,25,19,17,10,54,26,19,7,401
24,18,10,21,27,26,12,28,0,1819,13,33,37,39,13,60,28,24,13,1725
26,30,10,17,21,61,16,35,1,559,21,23,22,37,13,107,35,35,0,483
55,31,9,25,31,87,19,31,0,840,22,25,42,66,21,102,34,55,18,743
20,20,12,16,27,68,17,28,0,547,25,23,17,25,9,84,18,38,2,514
23,18,9,16,21,55,17,36,5,424,18,17,17,34,7,76,31,33,0,391
34,21,10,26,19,39,13,28,11,664,15,19,27,43,5,60,26,52,0,618
11,20,4,20,14,48,3,17,0,619,14,10,17,24,6,58,28,24,27,548
28,11,6,16,11,24,7,20,8,467,17,10,20,31,11,56,15,15,0,423
20,20,4,9,18,39,0,24,0,464,7,14,9,18,12,64,21,22,5,426
31,19,16,26,29,48,18,33,0,707,28,17,35,37,17,92,33,33,3,632
5,12,2,3,13,18,2,15,0,160,2,8,6,5,5,29,11,5,10,149
1,15,1,1,25,15,5,20,3,287,4,10,3,9,5,34,4,31,0,273
20,20,7,11,15,54,8,25,0,665,9,20,16,25,2,75,20,34,0,624
3,9,1,6,7,27,4,13,3,318,3,11,6,6,11,44,18,19,0,273
15,12,6,11,14,18,7,16,4,310,6,11,14,25,1,44,5,19,0,288
9,0,3,8,0,9,1,13,0,26,1,0,12,6,2,14,0,3,3,28
9,10,19,16,20,32,2,25,3,372,11,15,21,20,6,42,12,20,0,361
12,15,1,4,8,25,1,8,0,293,1,9,4,3,4,35,13,15,5,278
3,4,2,0,7,20,2,2,33,200,5,4,7,8,0,28,7,13,0,201
20,40,8,21,23,58,8,35,0,802,8,18,23,25,18,94,34,29,12,754
36,48,8,30,27,92,42,59,0,921,47,23,40,41,27,157,40,48,4,836
16,25,5,17,12,24,3,18,0,741,5,16,14,23,11,52,16,20,17,687
11,15,4,4,17,18,15,19,13,313,8,12,13,15,4,35,10,48,0,284
9,14,1,4,6,9,3,13,0,130,4,8,5,7,5,24,7,20,9,100
1,3,2,2,5,10,4,2,0,102,4,5,2,7,4,13,5,3,2,86
14,17,9,13,11,44,5,34,0,451,14,11,15,20,16,57,16,24,6,419
16,24,7,25,21,76,6,45,0,574,9,12,28,18,39,81,18,46,17,526
11,14,8,18,9,34,3,21,0,715,12,9,25,16,13,26,2,31,14,685
12,9,11,18,14,50,12,24,0,651,20,8,25,33,29,73,8,18,14,573
8,10,6,13,7,31,4,13,0,359,2,10,29,18,12,42,14,22,6,296
17,10,7,12,17,35,6,19,0,620,11,17,36,21,24,48,7,31,12,536
13,8,5,22,13,34,4,13,0,481,8,12,31,18,16,52,5,18,1,432
31,8,8,10,7,56,1,24,0,528,10,10,22,34,28,53,7,27,10,472
9,7,12,12,4,43,1,19,0,424,11,6,19,16,7,44,4,22,8,394
5,8,2,2,5,8,1,4,0,78,0,3,3,2,1,10,6,9,0,79
19,12,5,12,23,49,1,27,0,470,10,12,26,23,13,78,11,22,3,420
1,6,2,7,7,7,2,4,3,148,6,1,10,3,4,7,8,10,0,138
8,10,2,3,17,38,4,9,6,403,3,18,6,2,1,51,8,43,0,368
4,10,2,6,7,16,11,11,0,357,13,7,5,4,5,43,4,8,2,333
6,17,1,7,8,23,7,11,5,245,2,10,6,6,1,45,12,30,0,218
16,25,14,28,35,75,13,39,0,947,20,49,35,38,8,127,17,58,14,826
12,10,2,2,10,21,5,6,9,356,2,6,9,12,2,34,17,15,0,336
8,8,15,9,16,20,0,21,0,372,1,14,29,2,14,53,4,23,10,319
12,30,10,14,12,71,8,23,22,571,10,15,15,19,16,124,29,27,0,518
6,29,3,21,34,40,5,28,20,658,7,21,12,20,5,71,18,62,0,628
6,5,1,12,8,16,7,29,8,284,6,4,16,10,2,30,10,16,0,282
10,29,6,6,30,65,4,36,0,731,5,21,13,17,12,118,22,15,17,677
12,17,9,12,19,41,4,15,0,333,6,13,19,16,4,75,13,9,3,304
13,10,4,9,10,33,2,14,3,307,1,7,14,14,14,40,11,12,0,292
14,13,1,10,11,32,5,15,0,343,2,10,13,21,9,44,8,10,4,323
9,24,3,8,24,45,5,22,0,664,3,22,9,11,14,69,19,16,22,619
25,27,15,12,29,43,8,26,3,471,6,15,19,28,16,83,14,22,0,456
9,23,8,10,14,56,5,21,6,548,3,15,17,13,14,92,16,19,0,511
5,16,1,1,5,19,3,5,0,207,4,3,2,8,2,35,18,10,1,179
15,22,6,26,20,75,14,37,5,757,20,15,21,32,8,84,10,91,0,696
18,22,11,24,31,54,19,29,4,646,27,26,29,26,31,73,23,35,0,588
38,20,18,27,23,92,18,29,0,525,37,17,50,52,21,91,18,24,5,475
13,15,11,22,21,54,14,21,0,473,14,20,25,21,26,67,10,18,16,427
21,14,7,23,16,69,6,32,0,431,25,14,33,22,30,72,9,26,10,378
13,27,6,12,26,49,10,32,11,622,24,34,18,16,30,68,25,23,0,570
29,11,16,23,22,57,19,25,0,425,33,7,34,23,31,55,14,31,18,381
12,11,5,12,6,26,8,26,0,483,12,7,9,17,18,31,9,17,19,450
22,20,10,24,19,46,10,28,0,492,12,15,33,32,26,61,15,25,13,439
19,20,8,21,16,46,12,31,0,648,23,7,18,19,29,46,17,21,13,628
12,25,9,18,20,43,10,36,0,502,16,20,23,21,28,39,11,33,32,452
22,21,8,23,18,46,16,29,0,495,28,24,33,20,48,55,10,21,23,416
37,20,16,45,42,110,15,41,50,842,41,22,59,62,43,131,23,47,0,790
25,47,14,45,44,110,49,53,29,846,72,36,82,47,50,138,33,50,0,754
18,15,9,14,15,55,44,48,0,460,56,13,32,26,28,89,14,34,4,382
19,8,9,24,16,39,26,20,5,352,32,17,34,20,20,67,10,32,0,286
32,20,11,37,36,47,8,31,2,568,27,25,52,35,26,63,8,40,0,516
20,15,13,26,13,42,16,29,0,457,21,15,36,33,26,54,9,30,25,382
8,26,9,29,31,57,11,19,22,445,23,14,29,14,35,62,9,18,0,453
22,31,5,18,33,61,7,49,0,868,19,38,39,30,30,83,22,28,13,792
10,17,10,16,23,69,9,28,2,458,17,20,23,13,18,77,6,27,0,441
25,23,27,20,28,54,19,35,0,489,34,21,39,39,29,62,18,32,2,444
21,22,18,28,22,51,17,31,0,542,30,23,43,20,38,61,17,37,17,466
19,18,7,17,18,62,12,37,6,419,29,18,28,12,18,72,14,39,0,385
18,20,8,20,25,65,7,40,0,523,25,16,27,30,30,84,13,39,8,454
15,10,4,26,20,70,34,30,0,330,55,14,31,22,19,99,11,33,4,251
17,12,11,12,13,54,23,23,0,354,48,10,31,22,18,65,16,25,13,271
9,20,4,19,16,28,6,19,0,421,12,11,15,10,27,31,7,28,18,383
33,14,8,22,27,37,11,32,14,548,31,15,36,37,29,60,9,32,0,497
10,34,2,8,27,66,7,39,0,464,18,17,19,18,45,80,43,17,2,398
34,36,13,8,34,80,27,26,0,597,40,14,25,21,28,100,26,28,25,548
33,16,21,36,50,41,17,37,0,2826,33,57,46,44,19,55,10,36,28,2749
15,13,6,14,16,43,26,12,0,387,27,13,31,28,30,46,10,16,13,318
18,7,6,26,24,39,8,25,0,424,14,14,34,13,27,51,8,23,14,379
13,18,8,11,21,37,9,15,0,381,17,11,15,8,16,42,10,29,22,343
26,15,11,17,21,48,4,21,0,508,13,11,24,27,15,49,14,24,8,486
18,15,11,22,33,49,13,43,0,519,28,18,33,31,33,70,11,27,13,459
21,13,11,13,28,71,6,27,0,427,19,15,26,31,23,78,7,31,3,384
14,18,8,21,13,53,22,35,1,514,29,15,24,18,28,50,6,14,0,515
19,16,10,29,27,56,23,27,0,650,37,27,47,20,27,55,8,34,5,597
81,35,34,54,50,113,42,61,22,918,83,45,105,112,30,163,23,68,0,781
15,11,10,14,25,28,6,20,0,680,20,21,21,25,21,42,7,19,13,620
24,17,10,21,32,39,18,26,0,714,32,33,38,25,25,61,9,36,22,620
36,14,16,30,24,66,16,36,0,644,26,16,47,42,25,79,16,33,4,594
6,14,4,13,15,38,12,20,0,391,13,12,27,11,23,55,10,17,9,336
76,13,23,62,40,94,44,55,0,644,74,24,72,97,38,137,13,65,7,524
24,20,4,27,41,46,8,30,0,982,22,41,47,21,31,64,13,28,14,901
19,11,11,26,27,53,15,16,0,897,22,30,40,23,30,69,10,33,44,774
16,12,8,20,40,90,13,49,0,820,39,38,43,22,34,100,19,29,11,733
14,15,12,34,36,56,14,21,0,699,31,20,40,18,27,57,13,26,12,657
17,9,8,30,30,53,10,27,7,1053,20,33,43,21,32,82,11,50,0,952
21,15,8,19,22,39,20,21,18,347,23,8,29,38,19,67,9,29,0,308
11,18,12,21,0,62,13,25,9,261,24,5,18,15,26,76,13,24,0,231
3,9,4,16,14,17,4,13,0,363,7,8,15,13,5,25,5,25,2,338
16,40,3,21,25,88,22,34,0,412,31,14,30,17,40,99,30,24,2,374
6,5,3,3,18,14,2,11,0,434,1,13,10,8,7,22,5,10,35,385
13,21,9,25,34,64,18,27,27,843,35,29,34,34,32,100,22,44,0,751
28,6,11,16,21,53,14,35,4,635,30,20,37,31,31,62,14,42,0,556
39,29,25,50,34,55,41,36,9,704,49,35,80,57,24,100,32,39,0,606
32,25,14,25,25,36,35,23,0,366,39,26,26,47,17,58,16,33,1,318
51,51,13,49,47,99,30,51,21,1136,50,36,80,88,44,141,36,65,0,1008
11,6,3,8,13,17,4,7,0,183,8,7,10,12,6,19,4,28,10,148
54,46,15,36,21,70,25,45,19,678,35,24,45,80,26,123,37,61,0,578
40,40,21,29,39,66,30,51,11,763,52,42,48,62,42,108,28,56,0,652
59,33,29,42,36,99,35,46,16,784,55,39,50,83,29,158,31,77,0,657
27,14,23,16,26,35,28,26,14,530,47,20,37,37,16,58,12,39,0,473
2,3,3,9,6,16,14,8,0,187,10,3,9,5,6,25,3,7,3,177
21,14,9,25,27,41,37,19,9,543,36,11,30,37,19,75,9,21,0,507
18,9,8,32,36,29,20,55,0,813,30,14,43,48,44,75,11,31,2,722
39,15,19,34,42,56,49,69,25,978,54,31,52,86,38,83,5,58,0,919
36,11,17,27,19,35,15,21,9,764,32,9,32,69,21,49,14,29,0,699
9,8,2,11,6,19,2,11,0,100,6,2,11,13,10,18,4,11,1,92
33,8,8,17,15,28,5,25,0,247,19,16,28,37,5,40,8,37,0,196
30,11,6,20,30,35,13,35,0,312,30,20,32,42,6,51,13,30,16,252
64,30,32,48,61,76,52,59,21,832,117,42,59,74,30,126,26,108,0,693
49,35,21,40,52,90,51,69,8,842,125,32,71,45,39,130,35,53,0,727
35,22,19,42,54,95,71,30,0,943,124,37,62,45,17,134,33,60,6,793
34,17,18,44,50,65,23,29,0,817,41,49,36,56,10,105,26,67,4,703
31,30,6,31,43,79,40,44,0,731,45,35,32,40,22,110,30,79,1,641
32,40,5,21,21,60,30,35,10,654,36,16,28,53,14,82,26,47,0,606
19,37,18,35,29,50,17,42,0,812,25,27,39,27,23,79,26,84,17,712
40,47,11,45,36,86,33,59,0,852,47,30,50,50,44,100,25,82,28,753
42,15,14,26,34,66,13,35,24,452,27,26,44,48,15,91,15,69,0,386
50,26,19,57,28,90,32,56,7,655,52,14,47,54,15,137,22,71,0,608
39,31,20,29,37,74,22,43,0,691,27,29,41,57,28,104,25,68,0,607
58,30,24,36,27,67,25,65,2,561,50,28,47,57,36,99,26,94,0,458
5,9,1,9,13,16,9,22,22,193,11,6,9,14,20,19,5,27,0,188
40,22,21,39,26,88,33,50,17,696,47,21,57,82,25,124,26,70,0,580
7,17,11,23,11,38,25,24,11,336,30,11,26,20,13,58,8,43,0,294
10,11,9,13,20,35,10,10,1,277,20,17,21,23,7,53,5,20,0,230
24,28,19,28,23,68,60,50,13,898,92,19,31,53,17,110,23,77,0,789
22,29,20,30,20,49,14,38,27,682,32,14,50,39,15,84,47,82,0,568
34,33,24,33,33,64,28,42,9,768,33,36,49,55,12,102,54,67,0,660
4,4,2,0,5,18,2,6,0,168,6,6,4,5,3,30,1,9,3,142
13,12,6,17,19,37,92,28,0,667,130,8,16,21,45,48,9,23,14,577
9,0,6,6,5,13,26,9,3,358,43,8,13,22,15,21,2,7,0,304
19,14,13,37,25,45,67,42,0,794,106,16,31,31,63,68,8,22,14,697
18,4,10,21,17,36,43,22,0,855,65,20,25,31,60,54,5,14,16,736
28,10,7,20,21,37,63,34,2,801,103,6,22,40,66,65,6,17,0,698
22,5,2,6,17,20,10,11,0,166,18,11,6,18,7,36,4,19,5,135
19,13,14,21,20,54,36,24,0,487,43,15,30,35,8,83,11,36,4,423
43,37,30,28,30,62,86,49,0,918,108,32,41,57,34,100,25,59,13,814
16,6,4,11,13,30,32,17,9,306,34,9,17,20,14,50,7,15,0,278
56,10,20,33,40,51,13,54,24,511,31,34,56,94,19,98,22,49,0,409
66,33,30,37,31,99,58,48,16,663,81,28,59,101,23,136,17,65,0,571
38,18,12,33,28,52,18,47,3,613,24,21,43,39,12,70,12,85,0,556
45,22,22,36,39,61,46,49,13,725,51,24,43,61,12,87,11,100,0,669
28,13,6,20,17,27,9,18,6,298,17,7,23,37,12,53,4,23,0,266
38,29,24,33,32,90,10,67,33,819,34,38,57,60,27,132,15,77,0,735
33,35,15,33,35,86,26,40,20,654,37,26,47,45,16,114,21,51,0,620
7,10,14,22,8,30,44,19,4,941,147,23,45,26,46,138,21,57,0,596
25,14,17,23,24,46,50,37,0,804,134,30,41,67,38,151,15,53,1,510
20,2,3,16,14,47,39,24,0,765,89,24,52,27,38,121,15,35,12,517
19,36,25,44,38,88,29,38,7,824,88,21,53,44,23,112,24,68,0,715
36,26,13,18,35,43,18,37,5,638,58,21,29,52,17,78,18,32,0,564
9,7,10,18,9,24,30,18,7,284,34,14,24,34,21,50,14,22,0,203
35,37,41,54,29,71,34,60,3,785,57,22,76,102,43,162,38,87,0,562
32,39,32,50,47,61,39,59,10,797,55,44,70,79,33,105,44,84,0,652
31,3,9,7,5,13,5,8,0,176,7,3,12,39,8,21,5,18,3,141
29,22,16,23,14,34,19,24,0,737,24,20,40,45,13,58,38,36,10,634
36,28,13,31,30,50,10,42,9,658,15,18,38,45,20,79,36,32,0,624
50,31,14,25,30,62,18,29,6,859,20,17,41,58,24,106,36,67,0,755
46,29,28,49,44,89,28,57,29,895,109,35,69,67,32,122,25,87,0,748
42,38,38,42,44,61,55,47,23,667,74,27,44,72,25,88,26,72,0,629
37,14,9,24,24,61,17,36,7,426,26,20,27,32,18,81,10,50,0,391
13,7,6,8,11,26,11,12,0,185,12,13,10,10,3,34,5,30,2,160
61,42,16,43,26,53,32,62,26,667,38,23,46,81,32,102,38,105,0,563
44,31,26,26,27,58,19,47,3,702,20,24,50,71,17,86,23,80,0,612
21,13,12,9,15,21,17,23,0,338,22,6,19,16,26,32,10,26,6,306
57,47,21,51,50,61,26,47,12,1021,42,36,78,77,40,134,34,60,0,892
68,23,23,31,25,91,39,53,13,757,49,27,52,87,22,132,13,45,0,696
30,39,13,38,44,90,36,47,23,953,47,55,50,48,43,166,31,58,0,815
55,40,27,46,22,80,66,55,0,985,95,27,80,84,29,146,37,58,17,803
14,8,5,9,6,23,7,11,0,310,16,10,14,27,4,38,6,17,3,258
16,7,11,7,16,28,21,14,7,501,31,7,14,34,8,56,6,17,0,455
23,14,9,21,19,50,27,34,9,635,34,24,31,30,24,51,13,18,0,616
20,15,9,18,22,58,18,51,0,846,30,30,29,32,25,81,11,34,25,760
6,5,2,5,11,19,9,19,0,476,17,8,10,9,5,45,11,11,1,435
25,6,14,15,23,49,36,27,0,678,53,23,46,36,22,71,10,18,22,572
10,9,9,18,21,53,36,27,15,579,64,21,29,25,21,75,10,20,0,512
8,3,1,5,7,26,9,6,0,398,10,6,7,15,4,36,3,12,27,343
54,4,18,18,17,32,19,49,4,678,62,22,44,42,18,68,3,37,0,597
27,12,23,15,20,55,34,44,0,707,49,10,29,52,18,87,5,35,9,643
15,8,5,14,16,28,26,14,54,472,23,4,21,32,16,71,6,19,0,460
20,9,11,8,19,75,27,25,0,769,40,15,19,32,10,102,8,20,24,693
4,11,1,10,12,24,15,9,16,214,19,11,11,8,3,32,6,10,0,216
8,8,6,6,3,27,11,3,2,188,15,1,5,15,3,34,3,12,0,174
10,13,7,10,13,67,24,37,0,676,23,17,17,19,16,66,18,21,31,629
18,5,2,16,17,32,44,20,13,523,55,11,27,21,11,68,4,14,0,479
18,9,5,20,13,31,15,20,0,639,34,15,24,32,9,54,3,21,3,575
16,2,8,11,24,38,18,16,19,510,42,14,27,10,18,70,1,32,0,448
35,29,6,30,27,46,16,48,0,622,15,23,40,40,27,77,22,24,6,585
10,23,6,17,39,65,28,33,9,1852,40,27,29,27,15,76,17,29,0,1822
27,20,17,19,21,62,20,41,0,611,25,20,28,33,20,93,8,40,11,560
11,13,13,20,19,62,14,44,0,574,17,16,25,17,28,91,13,21,4,538
9,7,6,23,21,44,9,15,0,642,18,11,27,18,12,62,10,33,10,575
9,20,6,10,18,66,11,26,0,567,11,15,17,16,18,99,12,28,24,493
7,6,5,14,17,60,12,24,0,563,22,9,21,11,11,60,6,18,15,535
15,11,8,20,18,65,9,22,25,571,11,15,35,22,14,66,13,29,0,559
14,14,8,16,14,65,9,25,0,618,15,13,15,27,18,94,10,22,7,562
10,12,4,25,12,61,9,32,0,807,17,10,34,17,15,84,12,23,13,747
12,13,12,21,13,39,17,33,0,619,12,19,22,20,16,79,8,33,24,546
42,5,20,42,17,47,13,17,12,590,27,13,43,70,14,71,7,33,0,527
25,16,18,25,20,61,9,23,0,466,17,7,22,34,11,83,7,27,8,447
19,11,7,18,13,35,28,37,11,452,56,8,36,31,13,68,10,24,0,385
12,12,5,9,18,57,21,33,19,652,24,16,19,17,15,77,6,38,0,626
12,16,1,11,33,29,15,32,0,679,24,37,26,10,23,55,9,26,4,614
15,5,1,21,27,71,17,21,0,578,17,12,21,24,23,80,5,23,7,544
2,9,9,5,18,23,8,10,0,473,14,14,8,14,8,51,5,15,6,422
10,12,4,9,16,45,15,23,0,528,17,23,16,8,5,59,7,12,6,509
6,9,0,5,13,12,10,14,0,547,12,13,6,5,9,28,9,7,11,516
61,57,38,78,62,118,41,76,43,1058,68,45,96,107,30,225,38,141,0,882
36,33,12,20,30,85,21,52,12,924,32,31,39,56,23,155,30,85,0,774
19,23,14,16,24,50,18,28,0,1061,15,24,34,29,21,88,30,62,5,945
25,25,13,37,20,63,8,26,0,677,14,27,43,34,16,82,14,54,24,586
59,35,29,43,42,93,21,47,30,837,40,26,72,91,36,173,27,90,0,681
48,35,16,32,31,95,14,59,18,956,35,46,57,48,37,161,17,111,0,792
10,15,1,4,13,41,2,19,33,575,4,15,15,12,30,59,7,19,0,552
12,9,3,8,22,60,8,27,2,556,12,19,18,13,44,79,11,18,0,493
8,19,2,9,17,51,2,28,0,596,2,18,18,7,54,83,12,18,11,509
22,12,7,19,13,47,10,27,0,508,13,6,29,19,52,56,16,17,14,443
11,24,5,18,32,88,9,34,0,805,14,35,28,14,58,129,26,26,18,678
11,14,6,6,17,44,4,38,0,427,2,17,8,13,25,53,13,27,15,394
2,10,0,2,2,12,1,7,0,708,1,5,1,0,7,19,8,9,29,665
15,17,7,8,18,22,11,20,1,589,14,15,15,13,35,51,12,21,0,532
9,22,6,9,18,70,0,29,0,635,0,18,28,10,41,85,18,23,4,571
11,16,2,9,17,41,4,18,0,577,4,21,13,14,33,60,14,20,11,505
5,22,6,6,15,30,8,25,0,612,4,20,14,8,17,63,18,15,10,560
13,12,4,6,15,63,14,22,0,563,12,16,15,13,37,85,9,24,3,498
11,17,1,13,20,46,6,34,29,593,6,22,22,10,25,65,11,28,0,581
19,21,5,10,21,51,4,32,2,499,4,13,15,19,44,74,22,31,0,442
5,30,4,8,30,44,3,23,0,679,7,21,24,13,40,61,25,19,25,591
12,28,16,19,13,46,3,35,0,658,4,23,20,14,66,78,21,29,9,566
1,26,3,9,11,56,8,27,0,605,6,9,20,15,42,83,21,15,18,517
2,17,4,6,20,41,7,18,0,578,3,14,15,15,33,64,15,19,7,508
6,13,2,12,14,45,6,19,0,478,7,17,15,5,30,51,11,16,7,436
6,13,6,4,19,29,4,22,0,593,3,19,11,10,27,54,11,15,12,534
9,25,5,13,16,53,2,27,0,496,4,19,19,12,55,63,19,21,7,427
12,16,5,14,9,37,13,25,0,555,11,14,17,25,47,56,17,22,3,474
15,29,8,9,17,62,3,31,0,514,10,16,28,15,34,65,27,23,12,458
37,23,18,22,18,89,13,39,14,637,21,18,59,54,82,118,26,37,0,495
7,19,4,9,22,34,3,23,0,792,5,27,22,16,55,64,13,22,21,668
8,25,4,15,16,31,4,27,0,532,3,20,24,8,30,58,20,15,28,456
13,24,5,8,17,51,0,25,0,490,1,20,26,11,33,56,19,15,5,447
6,14,6,5,15,38,1,20,0,710,3,17,10,7,29,53,12,14,18,652
11,14,3,4,9,31,9,17,4,572,8,13,14,17,28,46,14,12,0,522
11,13,3,9,27,50,1,21,0,394,4,30,17,7,27,57,12,20,8,347
6,12,3,4,18,28,5,21,0,637,2,21,15,8,28,57,13,8,1,581
19,16,4,5,9,58,6,22,6,656,9,19,20,17,36,74,22,16,0,588
6,20,3,6,19,41,7,23,0,631,6,16,8,11,24,50,26,13,23,579
8,10,0,7,11,35,4,13,3,554,4,14,8,10,27,35,13,18,0,516
6,18,6,6,23,67,4,27,0,536,6,17,12,11,40,80,15,24,26,462
4,8,6,8,17,32,4,26,0,607,6,16,22,5,27,51,21,18,8,538
5,20,4,13,12,21,6,28,0,658,6,21,18,13,29,36,13,18,6,607
4,16,1,5,22,36,4,22,0,633,4,22,12,11,34,58,16,16,1,569
11,29,5,20,18,67,8,23,0,718,7,18,28,16,47,84,29,30,32,608
5,10,1,5,17,43,1,19,0,529,4,20,15,7,26,58,11,14,10,465
6,17,5,12,25,43,3,23,0,637,5,20,24,10,43,56,23,10,27,553
4,19,2,6,30,33,3,22,0,606,2,25,15,6,36,53,28,15,10,535
6,10,1,8,10,36,2,22,0,610,3,11,7,7,30,50,14,24,1,558
4,29,2,8,8,54,4,16,0,635,4,19,15,4,27,65,21,21,12,572
38,21,6,8,25,49,25,35,25,858,28,17,33,50,68,110,19,43,0,722
41,20,13,28,33,60,11,50,37,685,25,22,42,48,83,103,14,40,0,601
6,20,5,6,12,36,10,24,0,365,9,11,18,12,27,55,15,9,12,316
8,3,3,8,13,20,5,9,0,163,12,5,12,16,20,33,8,3,1,122
11,15,9,15,8,38,6,30,0,221,10,10,20,12,16,40,7,7,42,189
25,21,18,23,27,85,13,31,117,2418,17,15,50,41,40,91,29,32,0,2463
2,33,2,3,9,20,9,17,0,684,11,13,5,2,17,46,14,7,35,629
0,19,3,3,6,22,1,5,0,469,3,7,10,2,13,19,6,8,32,428
5,6,0,0,14,22,2,11,0,561,2,16,8,2,8,27,13,6,6,533
10,29,3,10,21,43,10,32,3,510,7,18,19,20,19,54,22,13,0,499
3,15,3,15,16,39,3,26,20,529,7,9,21,10,40,54,13,18,0,497
16,29,9,18,34,59,12,19,0,821,16,31,14,21,25,85,23,40,32,730
36,23,26,23,22,68,20,34,10,808,36,25,49,48,26,85,18,60,0,723
44,26,7,24,38,52,50,42,3,800,56,25,27,48,32,93,16,61,0,728
20,28,16,21,22,40,39,29,15,708,66,19,35,49,7,102,21,33,0,606
28,7,13,20,24,47,11,18,6,545,37,19,29,63,5,68,1,25,0,472
13,7,9,20,7,22,29,21,12,354,42,8,34,31,17,47,11,18,0,286
27,14,6,18,16,41,23,23,6,505,45,16,13,61,6,71,11,31,0,425
39,8,16,17,17,52,76,25,0,759,96,18,38,78,16,78,7,22,8,648
18,13,5,21,21,35,20,24,0,489,44,11,15,37,18,58,12,25,5,421
28,5,13,15,19,33,43,19,0,458,45,15,34,55,5,47,4,25,13,390
33,12,15,18,14,56,57,35,0,747,68,24,20,64,18,95,15,36,6,641
4,16,6,15,17,35,18,24,0,854,36,20,34,20,6,54,16,25,7,771
6,12,4,19,29,54,9,12,0,906,15,26,18,21,6,77,15,26,9,838
11,14,6,13,21,46,29,38,0,866,27,27,24,19,8,64,11,13,2,849
26,15,23,31,17,67,50,52,0,740,64,20,52,58,18,94,18,37,41,619
37,9,11,25,15,75,46,38,6,615,47,18,33,52,19,104,7,36,0,561
21,21,12,25,18,69,27,28,0,555,48,16,33,33,12,95,21,33,22,463
28,18,13,27,11,67,59,26,0,575,58,11,38,45,17,76,12,22,1,544
24,21,6,13,16,44,52,26,0,459,70,13,26,48,8,72,11,23,1,389
18,21,9,29,26,97,30,37,0,604,40,22,26,29,17,116,13,16,30,562
18,9,7,14,33,45,22,19,0,675,38,19,21,31,10,87,13,25,27,571
17,17,3,15,23,47,9,24,0,785,18,42,20,19,12,80,15,20,12,702
21,3,8,12,15,45,23,26,2,365,29,14,14,45,16,52,3,15,0,332
25,12,10,14,19,31,27,36,0,620,43,12,29,42,14,60,7,17,4,566
26,9,11,30,31,56,31,29,0,1398,41,25,38,41,6,69,11,16,54,1320
22,11,12,19,10,33,28,33,4,455,28,15,36,52,11,46,9,32,0,398
7,23,6,10,17,29,1,20,8,403,7,21,18,15,3,41,22,26,0,371
16,18,3,11,22,21,6,20,8,323,7,20,10,20,7,37,13,26,0,308
27,30,6,15,44,76,7,41,25,794,5,47,40,27,26,122,19,37,0,742
39,44,8,31,44,104,21,49,0,1191,26,49,40,45,32,147,51,54,0,1087
7,12,4,8,18,51,19,24,0,424,23,22,10,17,13,78,12,27,11,354
25,23,14,20,21,46,8,20,11,608,15,35,28,37,38,77,20,40,0,506
16,13,15,15,22,34,19,36,3,602,17,23,26,25,25,72,8,33,0,546
13,16,4,14,28,44,10,16,0,591,12,48,12,21,26,72,9,32,12,492
40,50,19,29,28,87,15,53,0,1164,23,34,43,42,34,149,38,64,6,1052
28,19,8,25,19,67,32,41,0,829,32,39,37,56,66,99,17,33,12,677
16,17,3,16,22,41,5,35,5,788,8,27,24,23,53,64,10,31,0,708
48,18,13,31,20,74,20,52,0,868,19,29,51,55,97,108,15,31,0,739
38,17,19,32,26,47,14,73,29,946,10,28,35,62,92,69,17,36,0,892
14,13,8,13,25,41,3,39,5,887,3,31,34,22,51,54,9,21,0,823
10,16,6,8,8,19,7,38,0,671,3,8,11,16,57,54,13,10,70,541
14,24,4,15,9,40,3,35,0,776,5,21,28,19,36,71,18,7,15,700
23,18,3,22,22,57,8,46,12,655,9,21,23,20,57,71,16,16,0,633
14,31,3,17,23,45,3,61,0,811,3,26,34,9,56,90,27,22,35,706
5,25,4,9,23,40,2,38,0,668,1,32,26,18,42,55,12,10,10,608
26,13,3,18,23,59,13,44,0,657,9,34,27,25,40,77,8,27,12,597
12,21,5,8,22,56,5,31,5,578,3,29,22,18,41,77,12,24,0,517
20,18,5,24,28,72,11,34,0,675,13,35,25,19,67,75,13,17,9,614
17,22,2,18,23,46,5,42,0,1697,10,31,23,18,56,51,12,20,73,1578
19,22,2,5,23,38,10,28,14,631,10,26,31,17,67,59,10,14,0,558
41,21,10,20,28,46,16,39,0,674,15,35,33,48,71,70,15,21,4,583
7,11,6,15,19,53,10,33,10,667,16,22,27,25,41,70,17,29,0,584
17,21,5,8,20,37,10,24,2,244,9,17,7,15,36,50,20,3,0,231
21,18,3,6,15,26,20,26,0,363,24,15,18,23,36,27,7,12,6,330
8,9,3,6,18,16,6,18,0,894,10,32,18,8,13,29,13,23,3,829
11,16,2,9,29,43,1,21,4,842,5,24,12,19,26,55,17,29,0,791
16,10,2,2,24,39,1,21,19,446,4,41,19,21,25,56,11,34,0,369
22,30,9,13,21,46,3,44,13,690,7,42,24,40,16,83,25,46,0,608
20,25,4,13,16,31,1,22,0,651,2,29,13,13,22,56,17,25,28,578
12,11,3,14,6,19,3,7,8,388,4,10,25,26,9,23,8,9,0,357
5,14,1,4,3,14,1,3,0,191,3,6,5,6,9,17,8,7,8,167
2,12,9,3,16,30,6,10,5,420,6,18,14,9,11,45,9,15,0,386
9,5,4,20,36,33,2,18,0,1050,2,56,29,9,26,41,11,44,24,935
8,12,3,8,23,40,1,32,0,813,3,23,18,11,16,55,20,34,33,727
13,17,2,14,23,55,4,22,0,884,3,35,24,13,15,53,17,41,3,830
12,18,1,8,20,31,2,15,0,635,0,31,26,11,24,52,19,23,14,542
6,10,3,9,22,13,1,17,0,686,5,41,23,4,9,44,8,23,18,592
12,23,1,10,29,32,4,38,0,844,4,36,25,14,31,70,24,30,17,742
11,18,5,13,27,54,2,25,3,628,1,30,20,22,30,71,12,37,0,563
12,21,14,17,32,54,10,43,0,614,11,49,28,16,24,50,20,33,0,586
9,24,2,10,26,48,5,21,0,752,8,35,24,15,31,71,24,16,21,652
13,25,0,7,23,51,7,17,0,666,8,28,10,12,24,49,30,28,11,609
2,16,0,7,17,27,4,14,0,694,7,26,7,6,16,37,12,10,24,636
14,24,5,23,27,41,3,23,3,734,5,21,31,19,25,63,20,38,0,675
9,25,3,10,12,51,7,33,0,590,6,31,16,12,13,56,17,28,19,542
5,24,3,8,20,37,3,30,0,595,4,22,11,5,15,49,12,29,19,559
13,15,13,19,23,49,12,28,38,621,19,35,25,31,23,65,17,41,0,575
12,22,3,8,15,42,1,20,0,462,1,23,15,12,16,61,25,21,8,403
10,16,2,10,14,24,6,16,0,656,7,19,21,6,12,38,17,22,21,591
3,26,3,5,15,47,7,27,0,1550,8,23,14,9,12,84,32,21,67,1413
8,31,1,18,18,40,2,18,0,552,8,14,25,10,13,65,27,22,0,504
15,34,3,9,15,68,3,48,0,733,12,17,18,19,31,90,35,35,22,649
13,20,6,19,23,62,7,33,0,671,7,19,27,19,20,71,23,34,9,625
9,13,5,20,26,68,9,22,0,545,10,29,26,18,18,68,25,47,5,471
7,6,3,7,12,13,16,15,0,225,13,9,15,9,10,16,7,16,16,193
34,14,16,21,40,83,16,44,14,845,21,43,47,58,44,119,18,44,0,733
41,34,19,42,52,83,50,41,11,1054,56,47,55,39,52,137,25,61,0,955
15,5,1,19,11,34,12,12,15,384,24,11,22,23,23,59,5,23,0,318
18,8,1,23,15,61,12,27,0,482,9,13,23,30,33,86,7,33,1,412
22,10,9,10,25,46,3,23,0,612,4,28,18,28,17,76,18,20,1,550
17,40,10,16,22,42,9,55,14,900,14,39,35,36,42,99,43,42,0,775
27,49,5,18,39,56,7,33,55,854,12,36,42,60,32,102,38,45,0,776
26,37,8,24,38,54,17,35,0,743,20,35,31,39,23,106,50,32,11,635
21,41,8,14,36,87,4,40,0,835,9,34,30,26,34,100,50,20,5,778
9,15,4,9,23,40,5,19,0,713,10,21,15,16,14,58,23,12,37,631
47,30,26,19,43,66,8,25,9,697,5,35,50,54,15,112,31,50,0,618
21,31,12,38,18,60,8,35,0,566,11,33,48,40,13,100,30,36,1,477
6,17,0,7,18,25,0,16,4,481,1,21,12,18,7,45,17,10,0,443
12,17,6,14,24,54,5,27,17,429,4,34,27,17,11,88,13,18,0,393
28,22,15,18,28,60,6,48,10,673,10,41,21,33,29,122,19,27,0,606
20,16,6,13,16,64,5,37,0,955,6,20,33,40,23,99,19,31,10,851
28,29,16,30,45,66,9,45,20,807,16,56,50,52,34,101,28,43,0,715
31,38,19,30,37,111,47,85,0,1084,72,45,45,52,45,219,28,59,34,883
13,10,13,16,14,56,33,19,31,567,48,16,33,34,10,69,19,62,0,481
16,14,2,12,6,39,14,12,20,343,32,15,13,13,9,45,11,21,0,319
36,33,20,39,23,51,31,59,32,826,44,29,54,50,26,100,20,97,0,730
48,30,16,45,35,94,41,71,3,1027,54,30,58,68,23,122,28,111,0,916
21,19,8,17,25,66,14,30,2,647,28,27,28,26,26,81,8,37,0,588
33,20,10,15,15,56,12,46,0,610,17,23,21,44,33,79,11,51,12,526
26,15,18,40,24,71,7,36,0,728,13,35,56,46,22,76,7,48,33,629
27,21,11,8,23,47,7,26,0,466,8,19,31,30,22,63,8,42,33,380
22,31,19,24,22,70,22,39,0,635,27,33,28,25,15,104,18,69,14,551
26,26,18,31,20,37,14,23,65,619,20,25,41,37,12,69,12,70,0,593
24,37,20,30,30,68,39,58,0,776,57,27,37,55,21,109,24,58,20,674
32,25,15,36,26,45,24,35,0,739,30,39,50,47,26,59,18,50,4,654
31,22,15,31,25,23,9,30,5,1473,14,33,34,46,28,39,9,38,0,1423
36,55,26,27,41,67,18,48,0,705,27,48,45,48,27,122,15,73,25,593
63,32,36,25,21,85,30,52,20,626,34,19,57,93,32,125,18,81,0,531
65,45,42,35,29,76,30,39,1,499,35,26,54,109,17,113,14,47,0,446
32,24,25,31,24,52,20,32,16,440,16,27,39,47,14,77,12,53,0,411
14,36,6,17,21,29,14,16,0,544,22,31,18,18,18,50,11,35,1,493
53,25,38,32,31,73,27,54,0,770,29,25,51,59,30,95,15,91,13,695
48,40,15,52,30,68,23,53,0,845,33,35,82,55,33,102,16,63,6,749
42,21,22,16,21,46,34,40,2,797,90,33,51,62,31,94,9,58,0,613
8,17,14,13,10,30,23,14,0,276,25,16,18,17,14,45,5,41,5,219
17,13,13,50,24,47,12,33,0,938,11,40,58,27,27,54,14,47,38,831
16,12,4,3,8,8,10,13,5,82,12,5,18,10,4,13,5,25,0,69
13,13,6,7,9,28,2,8,0,232,10,8,13,5,12,37,7,14,5,207
21,42,12,23,25,70,17,35,0,641,14,22,32,32,26,86,23,41,32,578
6,20,0,5,3,17,1,13,3,206,2,16,11,6,7,33,15,9,0,175
17,40,6,24,20,71,11,25,8,873,13,36,36,21,11,90,58,32,0,798
7,4,3,5,6,19,6,4,0,137,7,2,10,14,1,33,4,18,8,94
18,8,8,14,20,28,3,19,0,418,11,13,24,45,8,53,8,24,10,340
25,6,8,14,18,12,7,16,13,299,9,14,24,41,4,43,5,22,0,256
14,6,2,4,4,10,7,4,10,188,10,11,15,16,3,26,8,10,0,150
25,31,15,22,21,61,15,41,0,724,20,15,37,51,19,116,7,47,24,619
47,21,21,45,24,60,16,35,16,715,25,32,28,78,14,112,22,59,0,630
36,51,19,30,23,90,34,53,0,897,39,24,45,60,35,178,30,66,22,734
49,34,11,38,17,59,37,47,23,1147,37,26,53,107,25,107,25,62,0,1020
32,19,11,35,47,74,22,53,0,670,20,23,47,43,23,125,13,30,30,609
28,4,8,13,20,27,10,23,7,586,14,13,33,50,6,45,2,23,0,540
25,19,11,10,21,44,8,29,0,363,13,13,21,37,9,72,13,10,6,336
54,31,11,30,38,70,20,38,5,844,32,28,68,67,18,105,11,39,0,773
56,21,25,35,38,62,29,48,0,1413,35,28,97,75,17,112,20,48,1,1294
60,21,19,36,22,77,21,36,31,535,35,16,71,75,20,72,17,50,0,502
23,19,11,19,14,53,12,53,0,493,9,16,43,44,21,76,15,24,13,436
33,13,17,24,16,39,25,34,6,417,27,11,42,61,15,60,8,26,0,374
51,30,20,44,35,84,20,60,0,834,37,25,91,77,23,125,23,38,9,730
29,6,3,16,19,43,13,24,13,266,19,9,35,36,6,58,4,30,0,235
11,12,7,21,0,13,37,15,2,193,53,1,23,12,18,17,4,17,0,166
13,10,5,12,11,29,14,11,0,267,13,6,18,27,8,53,6,19,0,222
2,6,2,2,2,6,1,8,0,75,3,5,1,0,3,9,3,4,13,63
3,14,3,6,6,14,2,5,12,185,8,4,5,8,8,26,5,6,0,180
4,8,6,14,9,24,40,16,0,240,37,5,18,13,17,24,7,23,5,212
3,2,4,4,3,4,2,9,0,63,4,4,5,4,4,7,2,0,2,62
26,20,4,16,11,40,27,23,0,417,27,6,27,43,16,62,15,23,2,363
24,16,8,14,8,44,20,24,0,321,22,7,17,36,15,54,6,26,10,286
13,22,6,17,10,36,5,17,7,601,10,7,20,18,12,51,14,19,0,583
13,55,3,18,8,70,9,25,0,630,11,14,17,35,21,95,32,14,13,579
17,12,4,12,18,20,7,9,0,378,6,23,17,19,5,32,6,20,3,346
101,26,26,47,48,56,39,55,1,1014,82,50,75,81,26,115,27,116,0,841
1,5,0,1,1,8,0,0,1,138,1,3,5,2,1,10,3,12,0,118
5,6,8,2,9,8,3,11,2,121,4,7,11,9,4,16,6,17,0,101
7,11,9,14,7,17,26,6,0,186,34,6,19,12,9,24,4,15,1,159
25,21,19,22,15,74,29,36,0,755,43,17,42,39,15,82,8,34,9,707
65,74,29,42,28,80,9,51,39,902,13,43,46,81,18,115,30,253,0,720
8,15,5,8,2,27,4,9,0,200,6,3,19,17,5,43,11,10,0,164
59,30,43,47,35,68,41,43,3,877,46,27,60,147,32,139,16,50,0,729
67,22,16,31,29,69,18,33,8,542,32,14,55,123,27,93,21,42,0,428
77,43,30,34,29,78,17,70,20,892,37,32,67,140,36,148,31,70,0,729
16,13,13,18,25,42,9,35,6,555,11,21,28,37,7,53,10,67,0,498
27,33,6,26,30,58,26,42,19,829,36,29,45,28,16,117,27,41,0,757
64,22,19,47,35,47,14,38,0,696,37,37,63,61,24,95,18,77,7,563
21,17,6,30,16,49,17,38,0,598,24,22,23,20,4,60,13,61,1,564
18,20,13,25,26,55,9,30,0,548,18,24,40,16,10,77,14,55,25,465
46,27,9,28,26,77,14,29,0,680,31,25,25,43,11,93,21,75,9,603
49,21,16,27,11,55,16,52,0,1583,38,17,43,47,15,74,13,61,9,1513
20,23,21,12,10,78,33,29,0,399,40,6,21,19,14,71,18,52,16,368
44,19,7,30,26,75,21,36,3,532,43,24,35,44,11,98,11,57,0,470
32,26,10,21,28,64,7,22,0,501,23,22,32,27,8,78,9,53,12,447
31,34,13,24,26,69,15,41,9,379,48,17,34,35,12,103,29,53,0,310
20,20,6,16,16,51,17,15,6,493,16,21,25,23,8,64,13,34,0,456
49,22,22,23,23,66,14,37,9,555,44,20,42,46,15,99,17,49,0,488
31,35,4,30,26,42,18,43,12,923,21,23,37,39,19,93,27,53,0,852
26,18,4,19,24,31,28,31,11,372,57,15,13,38,15,52,13,35,0,326
28,14,6,24,7,46,43,31,14,415,66,15,30,36,9,65,8,46,0,353
25,24,9,27,14,37,17,31,0,313,27,19,27,36,16,54,24,30,4,260
38,33,18,30,24,57,98,40,34,530,124,20,44,61,24,86,20,78,0,445
16,18,11,25,38,42,2,37,0,681,9,29,39,30,16,68,17,57,15,590
46,36,16,27,30,67,20,33,0,789,34,32,51,41,19,107,17,54,12,697
30,13,9,35,33,45,15,35,0,639,23,23,25,41,18,75,14,74,21,540
55,47,15,38,30,71,53,47,0,895,62,32,87,76,17,153,28,46,1,749
2,6,4,14,7,15,26,9,2,225,38,9,14,6,2,19,4,11,0,207
35,20,17,30,20,56,84,31,0,715,299,17,35,24,11,59,14,24,6,519
38,22,10,33,22,45,100,51,0,690,297,17,44,24,15,69,11,18,1,515
4,5,0,1,15,26,1,12,0,104,5,6,0,6,2,23,3,6,0,117
6,3,0,5,8,11,15,7,0,119,14,8,7,13,2,21,2,12,2,93
6,4,2,20,3,8,3,4,7,102,4,3,18,12,1,14,2,12,0,93
6,5,2,5,4,7,2,6,0,100,4,3,5,4,2,15,4,4,5,91
3,4,0,8,2,17,2,0,2,80,8,1,4,3,7,22,2,7,0,64
14,12,5,8,6,20,18,8,0,331,26,9,10,18,4,34,10,13,0,298
2,8,4,9,1,20,5,3,0,131,25,2,10,9,1,20,4,3,5,104
1,3,3,5,1,6,11,6,3,84,14,2,3,6,2,11,5,4,0,76
18,31,15,22,23,85,32,28,0,864,55,27,37,33,14,114,27,28,1,782
17,43,16,23,13,94,23,31,0,659,29,16,31,24,12,144,27,30,16,590
20,31,14,26,13,60,14,23,11,622,30,13,33,24,7,74,13,30,0,610
49,27,29,42,21,71,18,31,1,1186,28,25,48,80,9,101,20,43,0,1121
7,6,4,4,2,13,1,8,4,117,12,6,9,8,3,23,7,18,0,80
66,47,27,51,31,99,56,70,0,842,83,43,56,77,29,140,43,79,15,724
44,18,22,32,24,56,41,28,8,453,70,26,36,67,18,65,5,39,0,400
34,27,11,30,19,37,17,30,0,519,35,20,32,52,8,61,21,36,9,450
20,45,10,31,18,45,13,18,17,490,34,22,38,35,17,68,37,26,0,430
17,51,13,33,12,45,9,28,0,579,32,17,49,34,22,65,23,34,12,499
46,23,15,27,26,59,29,33,21,555,61,31,35,58,15,90,12,47,0,485
34,20,20,19,23,56,34,27,0,771,60,21,34,51,10,72,13,27,16,700
5,10,11,9,4,23,14,12,6,119,20,3,12,13,1,28,7,14,0,115
19,18,9,6,4,32,33,18,2,227,57,7,17,23,7,44,13,30,0,170
27,18,13,24,8,49,13,15,16,510,21,23,39,44,17,64,10,30,0,445
26,32,15,17,15,41,7,34,0,652,15,27,39,42,14,94,15,26,12,555
25,59,11,34,21,64,29,42,39,970,43,30,59,56,18,99,39,54,0,896
19,10,7,12,14,49,54,20,23,525,76,13,24,14,5,66,7,31,0,497
39,72,23,31,30,57,74,47,0,586,94,35,46,73,23,96,26,59,5,502
18,14,8,25,7,23,7,22,0,196,14,7,28,16,10,31,1,33,9,171
10,10,5,5,4,8,22,9,0,108,31,5,6,11,3,9,0,7,10,99
10,12,4,7,3,16,5,8,0,120,5,2,10,9,8,29,5,10,2,105
8,13,5,5,6,13,26,15,4,126,24,6,7,16,14,30,3,16,0,105
11,16,2,7,3,7,24,14,0,133,21,11,13,8,1,21,2,9,0,131
1,3,1,4,7,3,12,4,0,77,12,6,7,0,2,7,2,9,1,66
1,7,2,0,5,2,1,9,0,70,8,4,0,0,12,6,6,5,2,54
5,6,1,1,6,10,8,7,0,140,11,7,4,6,2,22,11,6,11,104
24,45,11,24,35,81,6,25,0,1232,19,37,50,45,15,134,24,45,26,1088
14,35,7,24,26,62,12,32,0,678,17,18,25,28,16,110,26,28,8,614
24,43,4,16,22,72,13,25,3,754,20,36,30,33,18,106,23,30,0,680
28,35,3,26,21,52,21,29,39,668,36,28,44,57,13,101,31,26,0,586
28,30,10,26,33,36,25,28,0,696,27,36,27,52,18,66,20,27,9,630
45,55,37,51,25,75,32,38,0,850,35,25,66,88,17,127,39,71,20,720
50,53,19,48,35,79,51,75,0,878,62,22,56,75,29,127,38,75,15,789
15,15,3,16,13,35,9,32,21,693,20,18,29,21,11,68,13,25,0,647
28,45,16,36,18,69,40,48,0,997,56,30,55,39,20,103,26,50,7,911
36,26,8,18,17,52,28,48,6,466,37,20,38,45,11,79,27,73,0,375
60,11,14,28,26,44,60,63,0,578,103,15,36,74,10,71,8,55,11,501
25,13,4,16,12,27,16,37,15,446,27,22,30,46,8,53,11,43,0,371
15,14,7,10,17,29,3,26,4,480,11,30,30,24,3,57,8,54,0,388
54,35,30,43,42,97,80,59,20,964,87,37,68,108,37,141,27,84,0,835
21,38,9,15,18,32,43,21,0,573,44,18,34,39,18,81,34,35,12,455
94,33,35,68,50,130,39,62,22,1045,49,38,109,118,30,181,24,70,0,959
26,12,17,31,31,28,5,19,9,310,22,12,45,33,1,49,7,23,0,296
