OBEC,OKRSEK,VOLICI,HLASY,HLASY_1177,HLASY_53,HLASY_1206,HLASY_7,HLASY_47,HLASY_1200,HLASY_1439,HLASY_659,HLASY_720,HLASY_1114,HLASY_768,HLASY_83,HLASY_715,HLASY_1,HLASY_1222,HLASY_1125,HLASY_1179,HLASY_1438,HLASY_785,HLASY_1220,HLASY_1219,HLASY_98,HLASY_1052,HLASY_759,HLASY_762,HLASY_1390,HLASY_40,HLASY_1209,HLASY_1223,HLASY_1440,HLASY_1178,HLASY_1190,HLASY_794,HLASY_600,HLASY_1119,HLASY_1218,HLASY_764,HLASY_123,HLASY_1224
500020,2,715,155,2,26,4,8,5,1,1,17,11,24,44,1,1,10,,,,,,,,,,,,,,,,,,,,,,,,,
500020,1,268,68,1,10,1,1,1,,,7,9,13,17,,,7,1,,,,,,,,,,,,,,,,,,,,,,,,
500135,2,79,22,,,1,1,1,,,,7,,9,,1,,,1,1,,,,,,,,,,,,,,,,,,,,,,
500135,1,130,36,,1,,1,1,,,1,6,8,9,1,1,1,,,,2,1,2,1,,,,,,,,,,,,,,,,,,
500151,1,94,22,,1,,,7,,,2,,7,4,,1,,,,,,,,,,,,,,,,,,,,,,,,,,
500160,2,84,26,,,1,5,8,,,,3,3,1,,2,,,,,1,,,,1,1,,,,,,,,,,,,,,,,
500160,1,468,106,,10,1,5,7,,,3,7,22,27,2,,12,,,,1,,1,1,1,3,1,1,1,,,,,,,,,,,,,
500496,95,913,223,2,35,5,15,22,2,,21,22,9,61,2,2,19,,1,1,,1,1,,,2,,,,,,,,,,,,,,,,
500496,94,818,304,1,41,4,9,17,6,,27,44,29,74,3,4,26,,,2,,1,9,,,2,,,1,1,1,1,1,,,,,,,,,
500496,92,761,179,1,22,2,4,1,2,,31,35,20,40,,3,14,,1,,1,,1,,,,,,,,,,,1,,,,,,,,
500496,90,702,242,1,46,,11,12,,,30,31,27,60,,,11,,,,1,,10,,,,,,,,,,,2,,,,,,,,
500496,91,817,264,,22,4,11,25,1,,19,27,46,84,1,3,12,,,,1,,3,,,,,,1,,1,,1,2,,,,,,,,
500496,93,699,157,,15,2,5,11,2,,17,25,25,31,,,9,,,,1,,5,1,,1,,,1,,,,4,2,,,,,,,,
500496,27,683,220,,23,5,12,11,3,,21,33,19,71,2,2,9,1,,,2,,3,,,,,,,,,,2,1,,,,,,,,
500496,26,869,201,3,14,2,7,13,1,,18,33,35,53,1,3,11,,,,,,1,2,1,1,,,1,,,,,,1,,,,,,,
500496,25,1107,285,,29,2,14,23,4,,20,38,31,72,3,1,24,,,,,,5,3,,3,1,,1,2,,,1,2,,2,1,2,1,,,
500496,24,366,112,,10,3,5,8,,,16,12,17,25,1,1,4,,,,,,3,2,,,,,,,,,1,,1,,3,,,,,
500496,55,752,212,,42,7,5,9,2,,21,44,12,39,,1,18,,,,1,,3,1,1,1,1,,1,,,2,,,,,,,,1,,
500496,54,369,103,,17,3,,3,1,,9,8,14,30,,,3,,,2,1,,6,,1,2,,,2,,,,,,1,,,,,,,
500496,53,887,279,1,35,4,5,35,1,,38,31,42,49,,2,18,,1,1,1,,7,,1,,,1,1,1,1,,,1,,1,1,,,,,
500496,52,1025,262,1,31,2,6,14,2,,38,53,21,50,,,17,1,,1,1,4,9,5,,1,,4,,,,,,1,,,,,,,,
500496,23,892,350,2,47,6,24,19,2,,33,48,35,94,2,1,18,,,2,1,,3,,,1,,,,,2,3,,2,2,,1,,,1,1,
500496,22,793,359,1,79,,12,7,6,,57,58,11,59,1,4,29,,,,,,22,4,,3,,,,,,,3,1,,,,1,,1,,
500496,21,969,265,2,31,4,16,26,2,,26,20,33,62,,1,18,,2,,,1,14,,,5,,,,,,,,2,,,,,,,,
500496,20,1447,475,1,62,5,22,27,1,,62,66,50,109,1,2,36,,2,1,2,1,11,3,1,1,,,,,,,6,,,,2,1,,,,
500496,51,647,184,2,32,2,9,2,1,,24,33,15,28,1,,12,,,,5,1,12,,,,,,2,,,,1,,,,1,,1,,,
500496,50,768,206,2,23,3,16,15,3,,19,23,23,47,,,21,,,,1,1,4,,,,1,,1,,,,,2,,1,,,,,,
500496,49,783,249,,26,2,10,22,3,,19,32,30,74,2,2,8,,1,1,1,,6,1,3,5,,,,,,,,1,,,,,,,,
500496,48,869,219,1,25,5,9,8,1,,26,34,19,59,2,,17,,,,,,1,2,1,3,1,2,,,,,2,,,,1,,,,,
500496,47,1263,371,4,48,5,18,24,2,,44,64,37,62,5,4,23,,,2,3,2,8,1,,1,,,,,,,6,4,,,,,,,,4
500496,6,496,178,1,21,2,,7,3,,28,48,14,16,,1,20,,,,1,,7,,,,,,,,,,2,2,1,1,2,,,1,,
500496,5,563,231,2,17,,4,6,1,,41,63,12,10,1,2,47,,,,1,,10,2,1,2,1,,2,,,,2,3,,,1,,,,,
500496,46,809,234,1,26,5,3,13,,,19,32,48,57,4,1,13,1,1,,,,2,3,,,,,1,,,,,2,1,,,1,,,,
500496,45,1475,424,3,30,9,26,30,2,,35,76,58,87,1,4,27,,1,1,5,2,10,1,,3,1,,3,1,3,,1,2,,1,1,,,,,
500496,44,973,235,,29,5,18,21,,,19,19,23,70,,2,7,,,,4,1,9,,,1,2,,,,,,4,,1,,,,,,,
500496,43,892,264,4,20,3,16,18,2,,30,25,28,74,,3,16,,1,1,6,,1,2,,1,,2,1,1,,,4,1,,3,,1,,,,
500496,42,852,268,1,25,8,17,16,1,,34,36,22,73,3,,21,,,,1,1,4,1,1,1,,1,,,,,,,,1,,,,,,
500496,41,977,242,3,31,7,19,16,,,16,26,22,70,2,2,13,,,,,,3,2,1,,1,1,,1,1,,,,2,,1,,,1,,1
500496,40,749,225,,20,8,11,21,1,,14,19,20,66,,2,22,,,,,1,4,1,1,4,,,3,,,,4,,1,,,1,,,,1
500496,39,727,212,1,24,5,13,20,2,,11,34,21,63,1,,7,,1,1,1,,3,,,,,,,,,,2,1,,,1,,,,,
500496,38,284,78,,25,2,3,2,1,,10,14,,12,,,4,1,,,,,2,,,,,,,,,,2,,,,,,,,,
500496,37,1028,375,1,56,3,18,22,7,,29,47,36,101,2,2,23,,,,2,,15,,,2,,,4,1,,,3,1,,,,,,,,
500496,4,753,242,1,49,2,8,5,,,34,42,22,40,2,,27,,,,,,6,1,,,,,,,,,1,1,,,,1,,,,
500496,3,462,182,,20,2,2,1,,,51,41,10,16,,,33,,,,,1,2,1,,,,,,,,,,,1,1,,,,,,
500496,2,3919,266,1,32,6,5,6,,,37,67,38,36,,2,14,,,,2,,7,2,1,3,1,1,,,,,2,2,,,1,,,,,
500496,19,677,170,,20,1,7,5,2,,19,30,34,18,,1,15,,,1,3,,2,1,1,,4,,,,,,,5,,,1,,,,,
500496,18,945,293,,51,4,10,13,2,,38,37,26,56,1,,33,,,1,1,,10,2,,1,1,,2,,,,1,,1,,,,,,,2
500496,17,966,338,2,61,7,11,37,3,,33,44,23,65,2,,24,,,,1,1,6,5,2,3,,,,,,,3,4,,,1,,,,,
500496,36,792,222,,9,4,10,23,5,,17,23,23,78,2,2,9,,,2,1,2,3,1,1,1,,,,1,,,2,1,,1,,,,,,1
500496,35,866,333,,43,4,13,13,3,,69,61,38,61,3,,11,1,,1,1,1,5,3,,1,,,,,,,,,,,1,,,,,
500496,1,578,213,1,22,3,6,9,1,,31,43,17,23,2,1,36,,1,,,5,3,2,,2,,2,,,,,2,1,,,,,,,,
500496,34,884,287,1,46,3,8,12,,,35,32,30,71,,2,20,,,6,3,,6,4,,,1,,,2,,,2,2,,,1,,,,,
500496,33,771,221,1,29,6,10,11,,2,18,21,23,67,2,2,13,,,,3,1,3,1,,2,,1,,,,,1,1,,,,1,,,,2
500496,32,690,228,,40,7,13,15,1,,28,24,21,54,,1,8,,,,1,,8,,,4,,,1,1,,,,,1,,,,,,,
500496,31,983,319,,33,10,22,25,2,,18,37,34,99,1,2,25,,,,,1,5,,,1,,1,,,,,,1,1,,,,,,,1
500496,30,1106,359,2,61,,10,12,1,,48,70,23,74,,3,31,1,,1,5,2,8,,,1,,,2,,,,2,,2,,,,,,,
500496,29,659,204,2,22,3,11,27,2,,19,27,17,52,,,11,,,,,,5,1,1,3,,,1,,,,,,,,,,,,,
500496,28,560,152,,21,2,7,9,,,11,20,13,43,,2,16,,,,,,6,,,,,,,,,,,1,1,,,,,,,
500496,11,545,220,,19,3,11,8,2,,25,35,9,55,,3,30,1,1,,1,,11,1,1,1,,,1,,,,1,,1,,,,,,,
500496,10,759,308,1,32,3,16,15,2,,44,55,23,62,,,35,,,,,,12,3,1,4,,,,,,,,,,,,,,,,
500496,9,679,225,1,24,,6,13,3,,30,44,20,37,2,,26,2,,2,1,,6,1,1,1,1,,1,,,,1,,,,,2,,,,
500496,8,823,281,1,50,3,,10,4,,40,56,14,55,,1,29,,,1,,2,9,3,,1,,,,,,,,,,,1,1,,,,
500496,7,848,365,4,60,2,8,8,3,,69,70,22,55,3,1,36,,1,1,,2,6,3,,3,,1,,1,3,,2,,,,,1,,,,
500496,16,904,288,5,41,2,12,13,7,2,46,37,33,66,2,1,7,,1,,,,2,5,1,,,1,,1,,,1,1,1,,,,,,,
500496,15,721,239,,29,7,4,5,2,,49,33,29,37,,,27,,,,,,5,,1,1,,,2,1,,,3,2,,,,1,,,,1
500496,14,748,210,,38,1,4,8,2,,30,27,23,47,1,2,19,,,1,1,,4,,1,,,,,,,,,,1,,,,,,,
500496,13,616,218,4,24,6,7,9,3,,21,34,23,51,1,,25,,,,,,6,1,,,1,,,,,,1,,1,,,,,,,
500496,12,855,321,,44,,15,13,2,,51,65,21,60,,3,30,,,,1,1,6,,,1,,,2,,,,3,,1,,,1,,,,1
500496,72,828,280,,43,2,15,8,,,46,50,31,43,2,5,20,,,,,,7,,,1,2,,1,,,,2,,,1,,1,,,,
500496,71,1062,326,3,34,7,16,20,5,1,50,46,37,58,1,3,23,,,,,,6,3,1,1,1,,1,1,,,4,1,,,,3,,,,
500496,70,1545,312,2,37,5,8,21,5,,40,54,25,60,1,2,15,1,,,4,,13,6,1,4,,1,1,,,,1,,3,,1,,,,,1
500496,69,961,288,,32,5,11,13,2,,41,47,18,67,,3,21,,,,,1,13,1,2,2,,1,,,,,3,2,1,2,,,,,,
500496,68,886,268,1,28,4,8,14,2,,40,52,31,44,1,3,27,1,1,,1,,2,7,,,,,,,,,,1,,,,,,,,
500496,67,845,228,,16,3,7,8,,,20,36,28,75,2,6,17,,,,,1,4,1,,1,,,,,1,,1,1,,,,,,,,
500496,66,1043,262,,35,5,12,17,,,25,36,18,71,,,23,,1,,,,7,,1,,1,,3,,,,,5,1,,1,,,,,
500496,89,1324,376,,42,6,16,30,5,1,43,59,34,84,1,2,34,,1,1,1,1,5,3,,1,,,1,,,,1,3,,,,,1,,,
500496,88,381,122,,20,5,,5,1,,13,16,16,40,,,2,,,,1,,,,,2,,,1,,,,,,,,,,,,,
500496,87,864,261,,40,3,9,19,1,,31,31,41,57,1,1,10,,1,,,,5,1,2,2,,,,,,,2,1,,,,3,,,,
500496,86,287,116,,4,2,7,6,1,,20,16,15,24,1,,15,,,,2,1,1,,,,,,,,,,,,,,,,1,,,
500496,85,567,202,1,19,3,8,17,2,,22,16,18,54,,5,21,,,,2,,5,2,,,,,,,,,,2,2,,1,1,,,1,
500496,84,619,257,1,40,2,10,12,3,,24,37,12,50,1,1,38,1,,,3,1,10,,1,,2,,1,,,,,3,,,2,1,1,,,
500496,83,1026,311,2,42,11,12,11,3,,38,53,28,62,1,2,23,,,,,,9,2,3,3,,1,,,1,,4,,,,,,,,,
500496,65,953,217,,33,4,5,12,2,,18,44,18,61,1,,7,,1,,,,4,,1,,2,,1,,,,1,,1,,,1,,,,
500496,64,370,114,,6,4,4,3,2,,15,16,19,29,,2,6,,,,,,3,2,2,,,1,,,,,,,,,,,,,,
500496,63,542,186,3,25,5,6,12,1,,13,30,13,40,,1,25,,,,,,3,2,,2,2,,,,,,1,1,,,,,,,,1
500496,62,677,199,1,30,2,10,8,,,27,14,20,56,,,23,,,,1,,4,1,1,,,,,,,,,1,,,,,,,,
500496,61,836,288,4,39,1,6,13,1,,30,55,26,42,1,3,52,,1,1,,,5,4,,,1,,1,,,,1,1,,,,,,,,
500496,82,1044,286,,51,6,6,21,5,,18,45,28,65,4,,15,,2,,2,1,4,1,2,2,1,,1,,2,,2,,,,1,,,1,,
500496,81,1002,270,,20,3,13,24,,,27,46,26,68,2,3,18,,,,1,,3,2,,5,,,,,,,4,3,,,,1,,1,,
500496,80,842,257,1,23,4,21,13,1,,26,37,43,61,2,1,12,,1,1,,1,3,2,,,,,,,,,1,3,,,,,,,,
500496,79,972,385,1,63,5,18,23,5,,47,62,36,63,,2,30,,,,2,1,15,,,1,1,1,1,,,,4,,,,4,,,,,
500496,78,733,228,,32,5,7,9,3,,34,50,13,43,1,1,15,,,,1,,4,5,,1,,1,,,1,,1,,,,1,,,,,
500496,60,678,212,3,23,1,7,20,,,27,29,22,31,2,5,23,1,,,2,,5,1,,3,1,1,3,,1,,1,,,,,,,,,
500496,59,606,206,,29,2,5,13,2,,38,29,27,34,2,2,10,,,,,,6,1,,2,,,,1,,,,1,1,,,1,,,,
500496,58,821,254,4,24,6,12,18,,,24,28,20,84,1,3,19,,,,,,8,,,,,,,,,,2,,,,,,,,,1
500496,57,490,193,1,41,3,12,8,,,15,20,14,47,1,3,11,,1,,1,,4,,,6,,,1,,,,,1,,1,2,,,,,
500496,56,615,198,1,24,,5,10,1,,26,26,23,45,1,2,23,,,,1,,5,,,,,,,,,,2,1,1,,,1,,,,
500496,77,900,284,1,46,1,5,13,3,,33,68,22,47,1,,20,1,,,1,,8,2,,2,,,,,,1,7,,,,,1,1,,,
500496,76,598,260,,37,2,12,15,4,,44,29,24,59,,2,20,,1,,,,3,,1,3,,,1,,,,2,,1,,,,,,,
500496,75,969,270,3,50,6,11,20,,,45,34,25,40,,1,18,,,,,,7,4,,1,,1,1,1,,,1,,1,,,,,,,
500496,74,1038,321,1,52,14,26,23,3,,16,37,27,65,2,4,28,3,2,1,3,1,6,,,1,2,,,,,,,1,,,2,,,,,1
500496,73,871,252,,37,5,7,17,2,,30,34,22,64,,1,15,,1,,1,,7,3,1,2,,,,1,,,2,,,,,,,,,
500526,1,1796,387,2,47,1,15,27,2,,40,38,52,92,3,1,37,1,1,,2,2,10,3,1,2,1,,1,1,1,,,,,,3,,,,,1
500623,7,100,27,,,1,1,1,,,,7,8,4,1,,4,,,,,,,,,,,,,,,,,,,,,,,,,
500623,6,164,37,1,1,2,1,5,2,,2,5,4,6,,4,3,,,,,,1,,,,,,,,,,,,,,,,,,,
500623,5,233,59,,8,2,4,5,,,4,14,1,15,,,4,,,,,1,,,,,,,,,,,,,,1,,,,,,
500623,4,77,22,,2,,2,,,,2,2,3,8,,,,,,,,,3,,,,,,,,,,,,,,,,,,,
500623,3,110,25,,5,,1,3,,,,5,1,5,1,,4,,,,,,,,,,,,,,,,,,,,,,,,,
500623,2,115,37,,1,,1,4,2,,,6,1,12,1,,9,,,,,,,,,,,,,,,,,,,,,,,,,
500623,1,145,30,1,6,,,2,,,2,5,2,5,2,,4,,,,,,1,,,,,,,,,,,,,,,,,,,
500801,1,510,151,,11,2,13,8,2,,21,23,14,28,5,2,14,,,,1,,2,,,,,,1,1,,,,3,,,,,,,,
500852,1,2053,544,4,69,7,15,45,4,,39,79,56,132,1,7,40,2,4,,8,,15,1,,1,,,2,,,,4,4,2,,1,2,,,,
500861,4,149,31,,1,1,2,6,1,,2,7,3,5,2,,,,,,1,,,,,,,,,,,,,,,,,,,,,
500861,3,86,25,,5,2,,2,,,2,6,3,1,4,,,,,,,,,,,,,,,,,,,,,,,,,,,
500861,2,54,26,,3,,3,,,,1,2,,7,5,,2,,,,,,,,,,,,1,,,,,,,1,,,,,,1
500861,1,508,160,,15,1,8,8,,,13,11,13,25,32,3,24,,,,,,1,,,2,,,,1,,,1,,,,,,,,,2
500861,7,91,30,,2,,4,1,,,3,2,1,2,9,,4,,,,,,,1,,,,,,,,,,,,,,,,1,,
500861,6,111,25,,2,,1,3,,,1,,1,7,,,9,,,,,,1,,,,,,,,,,,,,,,,,,,
500861,5,69,34,,1,,,5,3,,4,2,,9,3,2,2,,,1,,,1,1,,,,,,,,,,,,,,,,,,
500861,9,106,48,1,5,,3,3,,,4,8,7,8,1,,6,,,,,,1,,,,,1,,,,,,,,,,,,,,
500861,8,65,24,,1,1,2,3,,,2,1,3,7,4,,,,,,,,,,,,,,,,,,,,,,,,,,,
500879,1,631,186,,28,2,10,15,,,18,27,14,48,,1,7,,,,1,,8,1,,1,1,,,1,1,,1,,,,1,,,,,
501476,3,141,39,,2,,1,2,1,,6,4,9,8,2,,,,,,1,,1,,,1,,,,,,,,,,,,1,,,,
501476,2,816,182,,19,2,17,15,5,,18,18,18,43,1,2,,,,,1,,1,9,,,,,1,,,,,2,7,1,1,1,,,,
501476,1,623,147,,12,3,9,14,4,,12,18,19,36,2,,8,,,,5,,,,,,,,,,,,2,,2,,,,1,,,
501646,3,183,58,,1,1,2,5,2,,11,7,7,11,,,7,,,,,,1,,,,,,1,,,,,,,,,2,,,,
501646,2,210,55,,6,1,4,2,,,2,2,5,22,,,5,,1,,1,,2,,,,,,,,,,,2,,,,,,,,
501646,1,1707,563,3,104,6,17,15,4,,77,88,36,106,3,2,58,,1,,8,,16,4,1,3,,,2,1,,,2,1,,,,3,,2,,
501751,4,123,44,,1,4,,3,,,3,8,2,18,1,,3,,,,,,,,,,,,,,,,,,1,,,,,,,
501751,3,220,74,,11,2,3,14,,,7,5,4,12,,,14,1,,,,,,,,,,,,,,,,1,,,,,,,,
501751,2,327,88,,3,,5,12,1,,4,10,13,18,,,17,,1,,1,1,1,,,,,,,,,,,,1,,,,,,,
501751,1,755,168,2,20,7,5,16,1,,10,24,20,34,1,2,14,,,,1,,1,2,1,2,,,,1,,1,1,,2,,,,,,,
501794,1,1279,309,1,13,5,25,20,3,,17,45,29,83,1,2,44,,,,2,,5,3,,,,2,3,,,,2,,1,1,,,1,,1,
501841,1,1215,320,1,28,8,10,42,9,1,27,41,35,72,6,2,22,,,,1,,3,,,3,,2,,2,,,,1,,,3,,1,,,
502146,4,218,58,1,2,1,4,4,,,4,14,8,10,,,3,,,1,1,1,,1,,,,,,,,,2,,1,,,,,,,
502146,3,1223,234,1,19,3,18,30,1,,13,26,37,65,4,2,6,,2,,2,,2,,,1,,,,,1,,,1,,,,,,,,
502146,2,589,108,,10,1,2,11,1,,10,14,3,32,,3,4,,,,3,1,1,2,1,3,,,,,,,,3,2,,,1,,,,
502146,1,1459,365,1,35,4,21,43,3,,20,48,33,95,,1,34,,1,,3,1,6,4,,1,1,,2,,,,5,,1,,2,,,,,
502235,1,1364,366,1,54,5,13,14,1,,37,67,36,82,3,4,27,,,,5,,6,6,1,2,,,,1,,,,,,,1,,,,,
502405,1,477,127,1,9,4,3,4,2,,12,17,19,21,,3,20,,,,,1,2,,,,2,,,1,,,,2,,2,1,,1,,,
502545,2,964,325,,30,14,10,20,3,,34,52,41,76,,4,18,,,,1,,6,1,,6,1,,1,,,,,2,1,,2,1,,,,1
502545,1,980,285,,28,1,8,17,,,35,29,26,101,5,1,20,,,,1,,2,3,,2,1,,,,,,,,2,,,3,,,,
502839,1,579,178,1,16,3,1,11,1,,9,15,26,36,4,2,40,,,2,2,,2,2,2,,,,1,,,,,1,1,,,,,,,
503142,1,473,122,,12,2,4,18,1,,12,23,4,30,,,9,,,,2,,2,1,,,,,,,1,,1,,,,,,,,,
503304,1,675,235,,23,6,12,15,,,14,28,19,50,1,5,40,1,,,7,,3,2,1,,,,2,,,,1,2,,,,1,2,,,
503444,6,396,96,,12,,6,3,1,,13,13,11,20,2,2,4,,,,,1,2,,,,,,,,,,4,2,,,,,,,,
503444,5,1242,263,,28,3,6,25,2,,10,40,37,68,3,,27,,2,,1,1,1,1,1,1,,,,1,,,,1,2,,1,1,,,,
503444,17,111,33,,2,,,3,,,1,3,5,7,,,9,,,,1,,,,,,,,,,,,,,2,,,,,,,
503444,16,156,50,,4,1,3,6,,,2,5,12,11,,,2,,1,,1,,,,1,,,1,,,,,,,,,,,,,,
503444,4,1109,301,,31,5,12,19,2,,27,36,25,84,3,1,36,,,,2,1,7,1,3,2,,,1,1,,,,2,,,,,,,,
503444,3,954,234,2,19,6,25,17,1,,16,20,35,64,3,,14,,,,2,,1,2,,,,,,,1,,1,3,1,,,1,,,,
503444,2,674,162,,19,4,11,19,2,,5,17,12,56,1,1,7,,1,,,,2,1,,,,,1,,1,,,1,,,,,,1,,
503444,15,323,97,,11,,4,5,,,6,17,6,28,3,,14,,1,,,,,,,1,,,,,1,,,,,,,,,,,
503444,14,177,52,,3,,4,8,1,,,1,,15,,,16,,,,,1,1,,,,,,1,,1,,,,,,,,,,,
503444,13,180,42,,2,,2,5,,,1,4,2,15,4,,4,,,,,,2,,,1,,,,,,,,,,,,,,,,
503444,12,297,77,,4,1,3,7,1,,6,15,1,15,1,,15,,,,2,,4,,,,,1,1,,,,,,,,,,,,,
503444,11,184,49,,3,1,4,6,,,9,9,3,7,,,4,,,,,,3,,,,,,,,,,,,,,,,,,,
503444,1,1217,290,1,33,16,18,10,3,,19,38,47,67,2,2,17,1,1,,2,,4,1,1,,,,,,1,,,4,1,,,,,,,1
503444,10,389,97,,9,2,3,4,1,,,13,9,36,,,9,1,,,2,1,4,2,,1,,,,,,,,,,,,,,,,
503444,9,76,37,,5,,1,3,,,4,2,8,5,,3,4,,,,,,1,,,,,,,,,,1,,,,,,,,,
503444,8,218,63,,7,,2,6,,,2,11,8,18,2,,6,,,,,,1,,,,,,,,,,,,,,,,,,,
503444,7,244,88,,4,1,2,11,1,,2,7,12,27,4,,6,,,,1,,7,,,,,,1,,,,,2,,,,,,,,
503622,2,117,30,,,,1,7,,,2,2,3,5,,,9,,,,,1,,,,,,,,,,,,,,,,,,,,
503622,1,445,106,,11,,1,29,1,,6,9,9,19,3,2,11,,,,1,,2,,,,,,,,,,2,,,,,,,,,
503622,4,78,25,,7,,,5,,,2,,4,3,,,4,,,,,,,,,,,,,,,,,,,,,,,,,
503622,3,59,12,,6,2,,1,,,,1,1,1,,,,,,,,,,,,,,,,,,,,,,,,,,,,
503657,4,559,150,1,18,,6,13,1,,21,20,10,39,,,12,1,,,1,1,3,,,2,,,,1,,,,,,,,,,,,
503657,3,685,128,1,9,3,5,9,3,,9,18,21,28,,1,8,,1,,2,,1,1,,,,,,,,,2,1,2,,2,1,,,,
503657,2,494,123,,9,3,6,16,,,5,8,16,50,,,6,1,,,,,2,,,,1,,,,,,,,,,,,,,,
503657,1,824,193,,26,7,9,21,1,,19,28,8,37,2,3,17,1,1,,2,,4,,1,1,,,,,,,,1,,,2,1,,1,,
503738,1,950,243,,39,2,9,20,,,14,40,24,51,2,3,26,,,,1,,1,1,,,2,,,,,,1,5,,,1,1,,,,
504246,2,197,48,,5,2,,9,,,,5,6,12,1,,2,,1,,1,,,,,2,,,,,,,,1,,,,,1,,,
504246,1,423,93,1,9,,4,4,,,5,16,15,22,3,1,11,,,,,1,,,,,1,,,,,,,,,,,,,,,
504441,3,103,22,,1,2,1,2,,,2,4,2,6,2,,,,,,,,,,,,,,,,,,,,,,,,,,,
504441,2,270,89,1,2,1,2,5,1,,12,16,7,23,1,,11,,,,,1,1,1,,,,,,,,,,2,,,,2,,,,
504441,1,817,228,,18,3,5,29,,,27,27,16,64,2,2,27,,,,1,,3,1,,,1,,,,,,,1,1,,,,,,,
504505,3,98,22,,4,,1,4,,,,1,1,5,,,6,,,,,,,,,,,,,,,,,,,,,,,,,
504505,2,717,191,1,27,1,7,11,,,21,35,18,34,,2,15,,2,1,5,,4,1,,,1,1,1,,,,,2,,,,,,1,,
504505,1,870,203,3,17,3,8,16,,,14,28,33,31,,1,23,,,,2,,10,5,,3,,,,,,,1,4,1,,,,,,,
504785,1,1043,191,,14,2,5,14,2,,18,32,23,39,1,2,34,,,,,1,,1,,,,,,,,1,,,,,2,,,,,
505013,2,808,224,3,25,4,12,10,2,,12,33,28,56,3,,17,,,,4,2,5,1,,5,,,,,,,,,1,,,,1,,,
505013,1,249,71,,,1,2,13,,,1,10,18,14,,,1,2,,,2,,6,1,,,,,,,,,,,,,,,,,,
505081,2,181,59,,4,4,,5,,,4,4,5,13,2,,14,,,,1,,2,,,,,,,,,,,,,,,1,,,,
505081,1,1105,291,,26,4,11,38,3,,39,35,28,54,5,3,37,,,,2,,2,,,1,,,,,,,1,,,,1,1,,,,
505081,3,199,59,,12,4,7,8,,,,2,3,15,,,6,,,,,,,,1,,,,,,,,,1,,,,,,,,
505111,2,320,86,,4,2,4,20,,,10,5,7,18,4,,6,1,,,,,3,,,2,,,,,,,,,,,,,,,,
505111,1,1034,324,2,33,11,10,15,2,1,31,38,30,80,6,1,36,1,,1,3,,4,2,,3,4,,2,,,,1,5,,1,,,,1,,
505161,4,364,75,,5,1,2,4,,,3,5,16,18,,,17,,,,,,1,,,2,1,,,,,,,,,,,,,,,
505161,3,1079,215,,15,7,6,9,2,,16,43,36,40,3,,20,,2,1,5,2,1,,,,,,2,,1,,1,3,,,,,,,,
505161,2,949,307,2,24,5,9,22,4,,22,49,30,76,1,3,36,,2,,,,8,3,1,,,,,,2,,5,,,,1,,,,,2
505161,1,445,87,,9,1,6,11,1,,3,8,8,30,,1,1,,,,1,,,,,,2,,,,,,1,,,1,3,,,,,
505188,5,1319,366,2,35,11,33,35,5,,25,32,46,94,3,3,17,,,,7,,6,,2,2,1,,,1,,,3,1,,,,2,,,,
505188,4,1001,279,2,43,4,15,8,1,,25,36,28,83,2,5,13,,,,3,,3,1,,2,,,2,,,,1,,,,1,1,,,,
505188,3,907,238,,18,6,16,27,2,,25,25,36,52,1,2,10,,1,,3,1,1,2,,3,,,,,2,,3,1,,,1,,,,,
505188,2,942,219,1,22,5,11,11,1,,18,19,29,76,3,1,4,,,,2,,6,1,1,,,,4,,,,,1,,,1,1,,,,1
505188,1,1123,321,3,35,5,7,15,,,31,29,44,85,1,2,36,1,,1,3,,7,2,2,4,,1,,,,,2,1,2,,1,,,1,,
505188,10,115,32,,6,1,1,5,,,1,1,6,10,,1,,,,,,,,,,,,,,,,,,,,,,,,,,
505188,9,1179,290,2,32,4,12,26,1,,27,48,37,63,,1,24,,2,,1,,5,,,2,,,1,,,,,2,,,,,,,,
505188,8,1372,408,4,49,9,20,28,8,,30,60,52,93,1,1,26,1,1,,1,3,5,2,1,1,,,1,1,,,1,7,2,,,,,,,
505188,7,1907,312,2,62,5,11,19,1,,19,42,25,69,1,2,26,,1,1,2,1,11,1,,5,1,,1,,,,2,2,,,,,,,,
505188,6,709,235,1,27,2,17,24,,,21,16,25,57,1,1,32,,,,,,3,,1,2,,,1,,,,2,2,,,,,,,,
505188,12,145,39,,5,2,1,3,,,1,4,3,16,1,,1,,2,,,,,,,,,,,,,,,,,,,,,,,
505188,11,77,22,,3,,,,,,1,2,5,5,,,3,,,,,,1,,1,,,,,,,1,,,,,,,,,,
505188,13,79,29,,,1,2,8,,,1,3,6,5,,,,,,,,1,,,,,,,,1,,,,,,,1,,,,,
505218,2,259,68,,7,,1,14,,,3,3,8,24,1,,2,,,,1,,1,2,,,,,,,,,,1,,,,,,,,
505218,1,1096,236,3,36,1,9,17,2,,21,21,26,65,3,,21,,,,,,6,1,1,,,,,,,,,,,,,3,,,,
505269,1,568,133,,29,4,7,7,,,13,12,10,33,,1,13,,,,,1,1,,,1,,,,,,,,,,,,1,,,,
505269,3,292,89,,10,,4,5,,,11,11,8,13,1,,21,,2,,,,,,,2,,,1,,,,,,,,,,,,,
505269,2,169,51,1,6,2,1,1,,,6,11,2,10,,1,6,,,,,,1,1,,,,,,,,,,2,,,,,,,,
505293,3,170,48,,8,1,2,4,,,7,4,4,7,1,3,3,,,,2,,2,,,,,,,,,,,,,,,,,,,
505293,2,164,67,1,7,2,2,7,,,12,8,6,11,,,8,,,1,1,1,,,,,,,,,,,,,,,,,,,,
505293,1,1166,294,2,28,9,12,23,4,,16,38,28,69,7,2,44,1,,,3,1,2,,,,,1,1,,,,,,1,,1,,,,,1
505366,5,118,26,,5,,,,,,1,4,4,10,,,,,,,,,2,,,,,,,,,,,,,,,,,,,
505366,4,103,29,,3,,,2,,,5,7,5,4,,,3,,,,,,,,,,,,,,,,,,,,,,,,,
505366,3,72,31,,,1,,3,,,2,2,3,14,1,,3,,,,,,,,1,,,,,,,,,,,,,1,,,,
505366,2,107,45,,,3,1,5,,,2,7,2,16,,,9,,,,,,,,,,,,,,,,,,,,,,,,,
505366,1,846,204,,13,1,14,17,2,,20,31,16,54,,5,12,1,3,1,1,1,3,,,,1,,,,,,4,1,2,,,,1,,,
505366,6,91,29,,3,,,2,,,,2,9,6,,1,5,,,,,,,,,,,,,,,,,,,,,1,,,,
505501,1,1174,237,,25,6,10,14,2,,10,31,24,83,9,1,12,2,,1,1,1,1,,,3,,,,,,,,,1,,,,,,,
505587,18,112,33,1,3,,3,3,,,2,8,,9,,1,1,,,,,,,1,,,,,,,,,,,,,,1,,,,
505587,17,92,21,,,,,7,,,1,3,,7,,,,,1,1,,,,,1,,,,,,,,,,,,,,,,,
505587,16,181,40,1,4,5,,4,1,,1,1,3,12,,1,2,1,,,,,2,,,,,,,,,,,,,,1,,,1,,
505587,4,866,233,1,22,6,25,16,2,,11,32,21,69,1,2,10,2,,,2,,2,,1,,,,,,,,2,4,1,,1,,,,,
505587,3,1006,325,1,70,2,9,19,3,,40,43,19,76,3,6,20,,,,,1,8,1,1,,,,,,,,,,,,,2,,,1,
505587,2,909,136,,28,1,9,10,1,,11,21,15,29,1,1,5,,,,2,,1,,,,,,,,,,1,,,,,,,,,
505587,12,171,48,,3,3,1,7,,,8,11,4,6,,,4,,,,,,,,,1,,,,,,,,,,,,,,,,
505587,11,346,95,1,15,1,1,4,,,5,16,7,15,1,,25,,,,,,1,,,,,,,,,,1,1,1,,,,,,,
505587,15,241,85,,12,2,2,9,1,,7,10,10,28,,,2,,,,,,1,,,,,,1,,,,,,,,,,,,,
505587,14,96,20,,4,,,2,,,1,5,,5,2,,1,,,,,,,,,,,,,,,,,,,,,,,,,
505587,13,156,45,,7,1,2,6,,,7,1,2,8,,1,8,,,,,,,,,,1,,,,,,,1,,,,,,,,
505587,10,985,245,3,20,2,23,23,3,,23,32,26,53,3,1,21,,,,2,1,4,,1,,,,2,,,,,,2,,,,,,,
505587,1,556,142,1,34,2,9,11,1,1,9,16,9,35,2,,5,,,,1,,,1,,2,,,,2,,,,1,,,,,,,,
505587,9,697,179,2,11,3,10,22,1,,10,23,16,51,3,,11,1,,,2,2,3,,,3,,,1,,,,,1,1,,1,1,,,,
505587,8,431,125,,11,2,6,14,1,,8,25,8,34,1,,11,,,,,1,,,,1,,,,,,,,,1,,,1,,,,
505587,7,800,201,,25,6,15,20,4,,9,31,24,53,3,1,6,,1,,,,,,1,1,,,,,,,1,,,,,,,,,
505587,6,748,171,,18,3,16,20,2,,9,17,22,48,1,,6,,,1,1,,3,2,,,,,,,,,1,,,,1,,,,,
505587,5,956,187,,19,3,14,15,3,,6,24,23,59,2,3,3,1,,,1,,5,,1,,,,,,,,3,,1,,,1,,,,
505609,2,1338,395,1,67,5,11,19,5,,38,51,27,79,2,5,50,1,2,2,3,1,10,3,,2,2,,,,,,2,4,1,1,,1,,,,
505609,1,1276,323,,46,4,9,21,7,,37,50,29,67,1,1,33,,,,1,,10,1,1,1,,,1,,,,3,,,,,,,,,
505650,3,219,69,1,1,,2,3,1,,19,9,6,18,1,2,3,,,,,,1,,,,,,,,1,,,,,,1,,,,,
505650,2,262,97,1,2,1,10,6,,,8,21,8,21,1,1,13,,,,,,3,,1,,,,,,,,,,,,,,,,,
505650,1,1749,439,1,54,6,11,20,4,,45,76,47,108,,,36,,,,1,1,8,2,,2,5,,1,,1,,3,4,1,,1,1,,,,
505668,1,1053,226,,31,5,10,8,1,,28,26,17,63,1,1,17,1,1,,1,,6,,2,1,1,,,,,,,,,,,,2,1,,2
505862,1,369,102,,7,,4,7,,,4,13,12,12,1,3,35,,,,,,,,,,,,,,,,3,,,,,1,,,,
506761,1,200,59,,9,1,1,9,,,4,8,4,18,2,,1,,,,,,,,,,,,,,,,1,,1,,,,,,,
506770,1,401,132,3,15,2,3,16,2,,9,28,10,35,,1,6,,,,,,,,,,,,,,,1,1,,,,,,,,,
511382,17,829,222,5,18,9,3,16,1,,10,34,28,48,1,1,35,,,,,,3,,,3,,,1,,,,1,4,1,,,,,,,
511382,16,899,283,,41,3,5,23,1,1,8,33,34,85,3,1,29,2,,,,1,4,,,2,1,,2,,,,1,2,1,,,,,,,
511382,15,890,194,,19,2,9,13,,1,4,28,24,76,2,1,6,1,,,,,6,,,1,,,,,,,1,,,,,,,,,
511382,14,660,116,1,13,3,5,8,,,11,9,19,34,,3,2,,,,,1,4,,,,,,,,1,,2,,,,,,,,,
511382,47,664,209,,32,3,6,22,1,,8,26,23,57,1,3,18,,,,1,,2,4,1,1,,,,,,,,,,,,,,,,
511382,46,597,186,,25,2,6,16,2,,9,21,24,58,1,3,7,,,,,,3,,1,1,,,,1,,,3,2,,,,,1,,,
511382,45,482,118,,8,1,8,15,1,,6,16,14,41,,,2,,2,,,,,,1,1,,1,,,,,1,,,,,,,,,
511382,27,594,106,,12,2,3,11,1,,6,11,15,26,1,,6,,4,,,,5,1,,,1,,,,,,1,,,,,,,,,
511382,26,237,58,,3,,,5,,,2,3,6,20,,,15,,1,,,1,,,,1,,,,,,,,1,,,,,,,,
511382,25,457,113,,8,,4,11,2,,4,9,14,36,,1,18,,1,,,,3,,1,,,,,,,,,1,,,,,,,,
511382,24,656,233,1,38,7,7,13,3,,10,30,29,72,3,1,6,,,,2,,7,,,,,,,,,,,1,,,2,1,,,,
511382,23,186,58,,5,,2,7,,,3,15,6,15,,1,3,,,,,,,,,,,,,,,,,,,,,1,,,,
511382,13,622,168,,27,3,5,9,1,,11,27,18,42,,1,7,1,,,4,,5,1,,4,,,1,,,,,,,,,,,,,1
511382,12,2442,161,,22,2,7,13,,,4,15,38,40,1,3,7,,,,,,,,,2,,,,,,,,2,,,4,,,1,,
511382,11,991,235,,32,4,5,19,2,,12,26,30,72,2,1,8,1,,1,3,,5,2,,5,,,2,,,,2,,1,,,,,,,
511382,10,812,222,1,35,2,9,28,3,,16,20,32,47,1,1,9,,2,,1,,8,1,2,2,,,,,1,,,1,,,,,,,,
511382,9,1063,325,,52,8,12,19,3,,29,40,43,83,1,1,22,1,,,2,,3,1,1,2,,,,,,,2,,,,,,,,,
511382,8,832,240,,29,7,15,16,1,,15,30,26,70,,1,10,,,1,2,,7,1,3,1,,,1,,,,4,,,,,,,,,
511382,44,613,178,2,30,1,3,21,,,8,16,27,57,,2,4,,,,1,1,3,,1,,,,,,,,,,,,,1,,,,
511382,43,646,187,4,14,3,7,22,2,,6,19,19,70,,3,9,,1,,3,,2,1,,,,,,,,,,,1,,,1,,,,
511382,42,655,163,2,10,1,7,12,3,,9,16,23,61,2,1,8,,,1,,,,,,2,,1,1,,,,1,2,,,,,,,,
511382,41,817,200,,14,4,10,25,1,,17,17,28,69,1,3,2,,,,,,1,,2,2,,,,,,,2,,,,1,,,,,1
511382,40,644,186,,29,1,4,27,1,,12,21,22,50,3,,8,,,,,1,3,1,,2,,,,,,,,,,,1,,,,,
511382,7,906,221,3,19,5,11,22,3,,16,20,37,66,1,,8,,1,,,,5,,1,1,1,,,1,,,,,,,,,,,,
511382,6,687,191,,26,2,9,16,,,10,18,24,66,2,1,9,1,1,,1,,,,2,,,,,,1,,,1,,,,1,,,,
511382,5,532,144,1,10,1,5,12,,,11,12,14,62,1,,11,,,,1,,,2,,,,,1,,,,,,,,,,,,,
511382,4,491,146,1,23,,6,12,,,6,21,18,51,,,4,,,,,,1,,,,,,,,,,1,1,,,1,,,,,
511382,39,813,258,1,31,6,10,23,,,15,27,39,71,1,2,21,,,,1,,2,2,,1,,,1,2,,,1,,,,,,1,,,
511382,38,675,198,2,25,,12,25,1,,8,12,35,54,,,15,,,,2,1,4,2,,,,,,,,,,,,,,,,,,
511382,37,515,106,,14,6,5,10,,,5,11,10,30,,4,4,,,,,,3,,,,,,1,,,,3,,,,,,,,,
511382,3,1012,271,1,32,3,12,21,,1,16,15,44,85,4,1,12,,,,3,2,13,1,,2,,,,,,,2,1,,,,,,,,
511382,2,835,218,,32,5,5,16,2,,19,28,23,64,,,6,,1,,,,6,,,2,,,1,,1,,5,2,,,,,,,,
511382,1,975,249,1,33,3,4,31,2,,5,22,40,81,,2,15,,,,,,4,,,,,,2,,,,2,2,,,,,,,,
511382,36,800,209,,30,3,7,21,1,,12,18,29,62,3,,6,,1,,,,11,,,2,,1,,,,,,1,,,,,,,,1
511382,35,760,212,,9,,8,28,2,,9,13,38,80,1,1,12,,,,5,,,,,3,,2,,,,,,1,,,,,,,,
511382,34,751,215,1,21,4,5,20,2,,8,21,38,77,1,2,9,,1,,,1,1,,,2,,,,1,,,,,,,,,,,,
511382,33,758,205,,22,6,8,28,,,16,16,28,63,1,,9,,,,,,3,1,,1,,,,,,,3,,,,,,,,,
511382,32,777,247,,19,6,15,26,2,,25,20,31,73,2,,11,2,,,4,,4,2,,2,,,,,1,1,,1,,,,,,,,
511382,51,658,211,6,53,9,7,13,1,,16,15,27,34,1,1,17,,,3,,,2,1,,,,,1,,,,1,1,2,,,,,,,
511382,50,489,172,,25,,4,13,1,,15,24,7,55,,2,8,1,,1,1,,7,,,,1,,1,,,,4,2,,,,,,,,
511382,49,436,93,1,2,,2,8,,,4,14,15,30,,1,6,,,,,,3,2,1,3,,,,,,,1,,,,,,,,,
511382,48,591,96,,9,3,3,17,,,4,11,9,33,,1,3,,,,,,2,,,,,,,,,,,1,,,,,,,,
511382,31,625,174,,17,6,6,17,2,,5,22,22,64,,,4,,1,,4,,3,1,,,,,,,,,,,,,,,,,,
511382,30,625,167,,12,2,10,11,2,,8,23,26,48,1,1,12,,2,,1,,2,,,1,,,1,,,,3,,,,1,,,,,
511382,29,641,149,,20,1,6,21,2,,4,15,23,48,1,1,4,,1,,,,,,,,,,,,1,,,,,1,,,,,,
511382,28,551,147,1,22,4,8,10,1,,12,8,25,33,1,2,13,,,,1,,2,,,2,,,,,,,,,,,2,,,,,
511382,22,155,39,,3,3,1,9,,,1,2,4,11,,1,2,,,,,,,,,,,,,,,,,,2,,,,,,,
511382,21,432,133,6,15,3,5,15,1,,10,15,10,31,1,,12,,,,,,7,,,,,,1,,,,1,,,,,,,,,
511382,20,550,155,2,11,,4,22,1,,10,12,12,50,,,8,,,,6,,7,2,,2,,,,,,,4,2,,,,,,,,
511382,19,280,71,,9,5,2,11,,,6,6,5,14,1,,5,,,,,,3,,2,,,,,,,,2,,,,,,,,,
511382,18,848,204,1,26,4,7,10,1,,10,34,35,57,1,,8,,,,3,,1,1,,,,,,,,,1,1,,,2,,,,1,
512231,4,120,30,,1,,1,4,2,,2,,6,10,,,,,,,1,1,,,,,,,,,,,,,,,2,,,,,
512231,3,81,19,1,,2,2,,1,,,3,3,4,,,1,,,,,,2,,,,,,,,,,,,,,,,,,,
512231,2,201,42,,1,,2,,,,3,1,15,15,,,2,,,,1,,1,,,,,,,,,,1,,,,,,,,,
512231,1,1054,223,1,23,6,8,19,1,,13,18,34,52,6,1,29,,1,,2,2,3,1,,,,,1,,,,1,1,,,,,,,,
512281,1,559,161,,25,,11,16,1,,6,17,18,47,1,2,9,,,,,1,3,1,,1,1,,,,,,1,,,,,,,,,
512401,1,155,55,,11,3,2,10,,,3,3,3,11,,,7,,,,,,2,,,,,,,,,,,,,,,,,,,
512532,1,793,190,,18,2,4,16,2,,12,29,18,49,2,,21,,,,1,,1,,,,2,2,,1,,,7,1,2,,,,,,,
512800,3,150,45,,8,,2,7,,,3,3,1,14,,,5,,1,,,,,1,,,,,,,,,,,,,,,,,,
512800,2,677,201,,21,1,8,21,,,10,18,22,64,2,3,15,1,2,,5,1,1,1,1,,,,,,,,,,,,1,1,1,,,1
512800,1,764,183,,6,5,8,13,2,,5,30,24,37,2,,31,,1,,7,1,2,4,,2,,,,1,,,1,1,,,,,,,,
512826,1,315,87,,10,2,3,9,,,4,7,9,34,,,5,,,,,2,1,,,,,,1,,,,,,,,,,,,,
512877,1,318,97,,3,,4,6,2,,5,12,14,30,1,,10,,1,,1,,1,1,,,,,1,,1,3,,,,,1,,,,,
512982,1,448,122,,6,,3,4,,,19,27,9,30,2,,16,,,,1,1,,,,,,,2,,1,,1,,,,,,,,,
513059,1,93,34,,3,3,,,1,,2,3,4,13,,,,,,1,,,1,,2,,1,,,,,,,,,,,,,,,
513067,2,206,65,,3,,5,3,,,3,5,6,21,,,16,,,,,1,2,,,,,,,,,,,,,,,,,,,
513067,1,453,131,,9,10,5,3,,,4,19,15,21,1,2,29,,,,1,,4,1,1,,,,2,2,,,,2,,,,,,,,
513105,1,184,54,,7,1,1,4,,,11,9,5,5,4,1,3,,,,,,2,,1,,,,,,,,,,,,,,,,,
513199,3,244,57,,1,1,,5,1,,10,5,8,13,,,7,,,,,,2,,,2,,,,,,,,,1,1,,,,,,
513199,2,297,88,1,4,1,2,11,1,,5,7,15,25,,,10,,,,,,1,,,,,,,,,1,3,,,,,,1,,,
513199,1,451,147,,11,1,3,17,,,18,14,20,27,3,,27,1,,,2,,,,,1,,,,,,,1,,,,,,,,,1
513211,1,453,109,,13,1,9,12,4,,2,8,22,18,,2,13,,,,1,,3,,,,,,,,1,,,,,,,,,,,
513229,1,1226,238,2,16,2,7,19,2,,13,32,37,69,2,,28,1,1,,1,,3,,,1,,,,,,,1,,,,,1,,,,
513491,2,568,137,,16,3,5,14,,,19,20,9,28,1,2,16,,,,,,,,,2,,,,,,1,,,1,,,,,,,
513491,1,792,204,,36,1,5,15,2,,9,21,31,54,1,1,17,,1,,,,3,,1,,1,,2,,,,,,2,,1,,,,,
513636,1,249,102,,7,4,12,15,4,,4,10,9,25,1,,7,,,,,1,1,,1,,,,,,,,,,,,,1,,,,
513733,1,240,70,,6,,1,6,1,,,11,6,11,,,20,,1,,1,,,2,1,,,,,,,,,1,1,,1,,,,,
513750,20,795,281,2,40,2,13,14,1,,23,40,34,50,,,43,1,,,4,,8,,,4,,,1,,,,1,,,,,,,,,
513750,19,1072,244,,22,7,13,8,2,1,19,22,46,61,1,1,22,,2,,2,1,3,2,,2,,1,,,,,1,,2,,,3,,,,
513750,18,853,250,2,19,3,9,32,2,1,9,36,28,76,,,21,,1,,1,3,4,,,,,,1,,,,1,1,,,,,,,,
513750,17,99,30,,1,,,2,,,1,1,9,12,,,,,,,2,1,,,,,,,1,,,,,,,,,,,,,
513750,16,225,52,,6,2,3,4,2,,2,8,5,11,,,7,,,,2,,,,,,,,,,,,,,,,,,,,,
513750,15,126,20,,3,,2,4,,,2,1,2,3,,,,,,1,,,,1,,,,,1,,,,,,,,,,,,,
513750,14,1254,352,1,46,7,6,29,4,,18,35,39,95,2,,52,,1,,1,1,,,2,1,2,,,,,,,5,2,,1,,2,,,
513750,6,877,235,,26,2,11,31,2,,14,26,38,48,1,2,14,1,,,5,2,7,,,,1,,,,,,2,,,,,,1,1,,
513750,5,626,178,,15,3,8,13,1,,8,16,34,54,1,,13,,,1,3,2,2,,1,,,,,,,,1,,1,,,1,,,,
513750,4,507,120,,14,2,1,5,,,3,8,20,47,1,3,3,,,,,5,4,1,,,,,,,,,2,,,,,1,,,,
513750,3,870,196,,26,3,13,21,,,18,17,26,49,1,1,10,,,,,,1,,,,,1,,,2,,2,,2,1,,2,,,,
513750,2,890,229,2,15,9,9,28,1,,20,30,27,54,3,1,15,,1,,,4,5,,,2,,,,1,,,,,2,,,,,,,
513750,1,854,223,1,30,3,5,20,3,,27,30,21,50,2,1,15,,,,2,2,4,,,,,,,,,,4,3,,,,,,,,
513750,13,448,109,,5,8,5,13,1,,8,11,15,19,,1,19,,,1,,,,,1,,,,,,,,,1,1,,,,,,,
513750,12,637,165,,18,6,7,14,1,,10,13,21,53,1,,13,,,1,1,,3,,,1,,,,,,,1,1,,,,,,,,
513750,11,771,250,,35,8,13,17,6,,31,19,19,58,,3,22,,,,1,2,5,,3,,,,,,,,4,,1,,1,,,2,,
513750,10,1076,160,2,29,,6,7,,,15,23,19,27,2,,17,,,,2,,6,,1,,,,2,,,,,,,,,,,,,2
513750,9,1028,219,,15,9,7,32,3,,10,34,42,42,1,4,10,,,,1,,1,,1,3,,1,1,,1,,1,,,,,,,,,
513750,8,777,176,,24,4,6,18,1,,22,20,17,40,,4,13,,,,2,,3,,,1,,,1,,,,,,,,,,,,,
513750,7,940,300,1,67,1,5,22,,,28,49,29,66,1,,16,,,,,,8,,,,,,,,,,3,4,,,,,,,,
513768,3,170,69,,6,1,,6,1,,1,5,8,,,,37,,,1,,,1,1,,,,,,,,,,,1,,,,,,,
513768,2,162,48,,10,1,1,2,,,5,9,3,7,2,,5,,,1,,,1,,,,,,1,,,,,,,,,,,,,
513768,1,1058,323,1,42,7,14,18,1,,14,43,19,58,5,2,75,3,,,4,,6,2,,2,,,,,,,4,1,2,,,,,,,
513873,1,384,177,,17,5,2,12,,,16,15,9,36,1,,50,,3,,1,1,3,1,,2,,,1,,,,,,,1,1,,,,,
514047,1,203,78,,13,6,6,3,1,,13,9,7,10,1,,7,,,,,,1,,,,,,,,,1,,,,,,,,,,
514055,8,116,27,,2,,,7,,,,2,11,3,,,,,,,,,2,,,,,,,,,,,,,,,,,,,
514055,7,126,31,,8,2,3,,,,,2,4,5,2,,3,,,,,,,,,,,,,,,,,,2,,,,,,,
514055,6,879,169,,22,1,30,7,1,,7,15,20,46,1,1,11,,,,,,1,,,1,,,,1,,,2,1,1,,,,,,,
514055,5,978,149,,12,2,20,14,2,1,14,6,23,30,2,1,20,,,,,,1,,,,,,,,,,,,,,,1,,,,
514055,4,783,203,,12,3,22,19,,,9,20,26,70,,1,15,,,,2,,,,,1,,1,1,1,,,,,,,,,,,,
514055,3,580,149,,20,3,23,14,1,,8,13,15,37,,,9,,,,2,,,,,,,,1,,,,2,1,,,,,,,,
514055,2,785,163,,19,7,24,15,1,,15,16,22,24,2,,10,,,,,1,3,,,,,1,,,,,2,,,1,,,,,,
514055,1,623,128,,14,3,14,12,,,5,7,18,35,1,,17,,1,,,,1,,,,,,,,,,,,,,,,,,,
514152,1,925,211,3,18,1,8,12,,,14,23,29,54,7,4,33,,,,1,1,2,,,,,,,1,,,,,,,,,,,,
514446,1,175,64,,5,1,2,13,,,4,11,12,12,,,1,,,,,,1,,,,,,,,,,,,1,,,,1,,,
514471,1,453,143,,16,1,7,14,1,,4,15,22,45,4,,5,,,,,3,2,2,,,,,1,,,,,,,,1,,,,,
514497,1,267,75,,9,4,2,6,,,7,4,7,16,2,,4,1,,,4,,,,,2,1,,1,1,,,,2,,1,,,,,,1
514527,1,50,17,,6,,,,,,3,2,1,4,,1,,,,,,,,,,,,,,,,,,,,,,,,,,
514705,9,91,17,,3,,,1,1,,1,2,2,2,,,2,,,,1,1,,,,,,,,1,,,,,,,,,,,,
514705,8,169,46,,7,,,,,,2,2,11,13,,2,9,,,,,,,,,,,,,,,,,,,,,,,,,
514705,11,253,75,,5,1,1,7,1,,4,,10,25,,,15,,,,2,,,,,,,,,,,,,,3,,1,,,,,
514705,10,381,104,,8,7,8,5,,,3,4,19,30,2,,11,,,,,1,1,2,,,,,,,,,2,,,1,,,,,,
514705,2,527,144,5,16,,2,6,,,12,15,31,31,,1,16,,,1,1,,4,2,,,,,,,,,1,,,,,,,,,
514705,1,679,158,,15,6,2,21,,,10,15,29,40,,1,10,,,,1,1,2,1,,,,,,,,,3,,1,,,,,,,
514705,7,911,227,,23,9,9,13,,,12,30,14,65,2,1,35,,,,3,,5,1,1,1,,,,,,1,1,,1,,,,,,,
514705,6,716,191,,19,2,16,13,,,20,13,43,36,,,16,,,,2,,3,,,2,,,2,,,,1,,1,,,1,,1,,
514705,5,914,249,2,28,3,21,13,1,,23,12,27,70,,,20,,1,1,6,4,4,,,4,,,3,1,,,1,2,1,,,,1,,,
514705,4,819,204,,17,5,10,25,,,12,19,32,59,,,15,1,,,2,,1,1,,1,,,,,,,1,,2,,,,,,,1
514705,3,1054,136,,22,3,5,7,2,,5,17,26,32,,1,9,,,,3,1,1,,,,,,1,,,,,,1,,,,,,,
514772,1,230,73,,4,2,8,16,,,6,7,5,11,3,,11,,,,,,,,,,,,,,,,,,,,,,,,,
514802,1,208,48,,6,,2,3,1,,4,5,5,13,,,5,,,,,,2,,,,,,,,1,,,1,,,,,,,,
515191,1,593,94,,5,1,7,7,1,,16,4,13,22,2,,9,,,1,2,,,,,1,,,,,,,,,1,2,,,,,,
515329,1,304,78,1,1,1,3,6,2,,6,6,5,18,,,26,,,,,,1,,,1,,1,,,,,,,,,,,,,,
515418,1,350,99,,12,,4,10,,,10,11,9,30,,,9,,,,1,,3,,,,,,,,,,,,,,,,,,,
515477,1,205,92,,8,,,13,1,,8,13,8,22,,,9,,,,3,1,2,,,,,,1,,1,,,1,1,,,,,,,
515787,1,156,35,,2,1,4,,,,2,2,4,11,1,,6,,,,,,,,,,,,,1,,,,,,,,1,,,,
515825,1,91,12,,,,,,,,1,2,,4,,1,3,,,,,,1,,,,,,,,,,,,,,,,,,,
516201,1,660,152,2,23,2,5,5,2,,11,17,22,25,3,1,20,,1,,1,,6,1,,2,,,,,,,2,,1,,,,,,,
516350,1,70,33,,6,,1,4,,,,1,,11,,1,5,,,,,,,,,,,,4,,,,,,,,,,,,,
516619,1,1004,290,,21,4,7,21,,,16,28,32,84,8,2,37,,,,2,,9,,2,1,,,3,1,,,,2,4,,2,4,,,,
516635,1,321,92,,9,3,4,7,,,8,10,2,17,,3,22,,,,,,4,,,,,,1,,,,,1,,,1,,,,,
516686,1,395,125,,16,3,6,10,2,,6,11,5,32,1,4,21,,,,,,1,,,1,,,,,,,1,,2,,,3,,,,
516694,1,584,143,2,18,3,1,15,1,,18,11,13,26,5,1,19,,3,,1,,1,1,1,,,,,,,,,3,,,,,,,,
516864,1,168,48,,10,,2,5,,,1,7,10,7,,,4,,,,,,,,,,,,,,,,,,,,1,,,1,,
516899,1,392,86,,10,2,3,8,,,6,9,17,19,,,9,,,,,,3,,,,,,,,,,,,,,,,,,,
516911,1,235,36,3,1,1,1,5,,,,5,9,4,,,3,1,,,1,,1,1,,,,,,,,,,,,,,,,,,
517101,5,74,23,,3,,,5,,,,2,3,9,,,1,,,,,,,,,,,,,,,,,,,,,,,,,
517101,4,116,19,,2,1,,1,1,,,,4,10,,,,,,,,,,,,,,,,,,,,,,,,,,,,
517101,3,99,27,,1,2,,8,,,,2,1,5,1,2,5,,,,,,,,,,,,,,,,,,,,,,,,,
517101,2,76,18,,3,,2,2,,,3,,3,2,,,2,1,,,,,,,,,,,,,,,,,,,,,,,,
517101,1,621,142,,16,5,12,19,1,,20,9,6,34,1,,14,,,,,,3,,,,,,,,,,,,,,2,,,,,
517151,1,655,180,3,9,6,8,22,,,13,28,18,40,1,1,23,,,,,1,3,,,2,,,,,,,,,2,,,,,,,
517208,1,113,45,,3,,2,13,,,,,5,8,,,12,,,,1,,,,,,,,1,,,,,,,,,,,,,
517224,1,217,67,,2,2,4,10,3,,1,4,8,20,1,,3,1,,,1,1,1,,,1,,1,1,,,,1,,,1,,,,,,
517275,1,125,46,,,,4,3,,,6,3,8,14,1,,1,,,,2,,2,,,,,,,,,,,,,,2,,,,,
517321,1,194,62,,5,2,7,10,,,,3,3,21,2,,1,,,,,,,,,1,,,,1,,,,2,,1,1,,2,,,
517437,1,124,40,,1,,1,3,1,,2,3,12,10,,,3,,1,,2,,,1,,,,,,,,,,,,,,,,,,
517445,1,146,61,,5,5,1,5,,,3,7,3,15,1,,11,,,,,1,2,,,1,,,,,,,,,,,,,,,,1
517534,1,928,236,2,26,4,14,20,2,,24,21,30,60,1,,20,,,,2,,5,,1,1,,1,1,1,,,,,,,,,,,,
517569,1,225,51,,11,2,2,5,1,,5,6,3,15,,,,,1,,,,,,,,,,,,,,,,,,,,,,,
517585,1,331,81,,8,2,4,8,,,10,10,8,23,,,7,,,,,,,,,,,1,,,,,,,,,,,,,,
517607,1,1234,368,,29,4,20,29,2,2,18,19,59,111,2,2,44,1,1,1,3,,7,,,1,,1,,1,1,,,5,,1,,,1,2,,1
517615,1,208,53,,5,,4,2,1,,3,1,6,13,,,10,,2,,,,3,,,,,,,,,,,,3,,,,,,,
517666,1,390,87,3,4,4,3,10,,,9,7,12,19,1,2,7,,,1,1,,,,1,,,1,,,,1,1,,,,,,,,,
517747,1,498,138,,21,,8,4,2,,11,18,10,38,,,18,,,,,,4,1,,1,,,,,,,,,1,,,,,1,,
517836,1,135,47,,6,,3,2,2,,3,5,7,12,,2,3,,,,,,,1,,,,,,,1,,,,,,,,,,,
517844,1,487,118,,6,7,6,6,1,,5,18,9,33,1,2,18,,1,,1,,2,,,2,,,,,,,,,,,,,,,,
517887,1,497,124,,5,3,8,10,,,16,8,17,28,,,19,1,,,,,2,1,,3,,,1,,,,,2,,,,,,,,
517909,1,677,189,,12,3,1,9,2,,15,36,29,34,,,38,,,,2,2,,1,2,,,1,2,,,,,,,,,,,,,
518026,1,272,89,,5,2,3,5,1,,2,14,11,31,,,10,,,,,,1,1,,,,,,,,1,1,,1,,,,,,,
519031,1,336,163,,14,4,2,7,3,,22,23,28,28,,,21,,,,1,1,5,,1,,,,,,,,,1,,,,2,,,,
519146,2,989,206,1,26,9,16,6,3,,12,20,30,43,3,,23,,,,,,4,1,,,,1,,,3,,2,,1,,1,1,,,,
519146,1,1047,252,1,27,6,17,13,1,,18,31,30,49,2,3,34,,,,2,,5,,1,,,,2,,,,8,,2,,,,,,,
519651,2,821,198,,16,1,4,20,1,1,32,14,15,59,,1,23,,,1,5,1,1,,1,,,,1,,,1,,,,,,,,,,
519651,1,838,177,3,18,3,11,10,1,,24,8,16,48,2,2,21,,,,3,,,2,,,,,1,,,2,,2,,,,,,,,
520047,1,355,143,,15,3,9,12,,,12,18,16,44,1,,9,,,,1,,,,,,,1,,1,,,,,,,,,,1,,
520306,1,453,142,,8,1,6,8,3,,15,17,8,22,,1,47,1,,,,1,,,,2,,,,,,,,,2,,,,,,,
520420,1,712,164,1,24,,6,17,2,,30,15,13,38,2,1,7,,2,,3,,,,,,,,1,,1,,1,,,,,,,,,
521531,1,732,169,,17,1,6,15,1,,13,17,11,32,,2,42,1,,,1,1,2,,1,,,,,,,,,3,1,,,1,,1,,
522775,1,191,69,,,4,2,5,1,,3,1,2,14,1,,31,,,,1,,2,,,,,,2,,,,,,,,,,,,,
523453,1,186,66,,2,1,1,4,,,2,11,15,17,1,,7,,,,1,,1,,,1,1,,,,,,,,,,1,,,,,
523640,1,450,145,,15,3,11,14,,,7,17,18,42,1,1,8,1,,,,,4,,1,,,,,,,,1,,,,,1,,,,
523704,19,697,237,,49,2,10,11,,,40,22,24,54,1,1,13,,1,,1,,3,2,,1,,,1,,,,,1,,,,,,,,
523704,18,676,175,2,8,1,10,11,,,29,24,28,46,,,11,,,,1,1,,,,,,1,,,,,1,,,,,,1,,,
523704,17,776,202,3,14,2,9,18,1,,31,23,30,54,,,6,,,,,,4,,1,1,,1,2,,,,1,,1,,,,,,,
523704,30,112,34,,,1,6,6,,,1,,,14,,,5,,,,,1,,,,,,,,,,,,,,,,,,,,
523704,29,871,218,10,27,3,10,14,2,,17,35,34,43,3,,9,,,,2,1,4,,,1,1,,1,,,,1,,,,,,,,,
523704,28,897,199,7,18,2,13,19,4,,17,27,23,48,,,9,,,,,,5,,,1,,,,,1,,,2,1,,,1,,,1,
523704,16,689,186,4,5,7,10,22,4,,17,8,32,53,2,,10,1,,,2,1,1,,,6,1,,,,,,,,,,,,,,,
523704,15,545,184,2,14,1,7,16,,1,40,15,20,55,4,,5,,,,,,1,,,,,,,,,,1,2,,,,,,,,
523704,14,821,280,3,41,1,21,22,1,,43,25,28,63,1,1,12,,,1,3,,7,,,1,,,3,,,,1,,2,,,,,,,
523704,13,643,225,3,31,6,3,18,,1,31,27,21,47,4,1,17,,1,1,2,1,3,,1,,1,,,,,,1,4,,,,,,,,
523704,12,619,192,3,27,3,6,14,1,,27,30,9,40,,,23,,,2,,,4,,1,,,,,,1,,,,,,1,,,,,
523704,11,715,229,4,25,4,11,15,3,,31,19,23,58,1,,17,,1,,2,2,5,2,,1,,,,,,1,2,,,,1,1,,,,
523704,10,708,186,5,17,4,5,8,,,33,13,33,47,,2,5,,,,,,5,3,,2,,,,,,,4,,,,,,,,,
523704,27,749,166,3,11,3,7,14,2,,14,19,32,42,,2,4,,3,,2,,1,1,1,,,3,,,,,1,,,,1,,,,,
523704,26,592,121,3,10,2,6,4,2,,14,16,25,20,,3,10,,,,,,2,1,1,,1,,,,,,1,,,,,,,,,
523704,25,768,310,4,48,6,13,17,,,44,28,37,71,2,1,23,,,,1,1,5,2,,2,,,1,,,,4,,,,,,,,,
523704,24,745,207,7,19,4,2,15,1,,23,13,47,57,1,2,9,,1,,3,,2,,,,,,,1,,,,,,,,,,,,
523704,23,507,203,2,29,3,11,9,1,,19,32,23,46,,1,20,,,,,,1,1,,,,,,,1,,4,,,,,,,,,
523704,22,816,236,1,33,4,10,14,1,,30,17,36,67,,,13,,,,2,,5,,,1,,,,,,,,,2,,,,,,,
523704,21,750,214,5,23,4,8,9,,,40,20,31,28,,2,22,,,,2,,11,1,,3,,,3,1,,,,1,,,,,,,,
523704,20,789,240,5,30,5,4,12,1,,36,30,32,57,,1,12,,1,,3,,4,1,1,1,,,,,,1,2,,,,1,,,,,
523704,2,741,189,4,22,4,6,11,2,,20,14,38,53,,2,7,,,1,2,,1,1,,,,1,,,,,,,,,,,,,,
523704,1,1613,218,4,34,4,1,8,1,,42,25,32,41,1,1,10,,,,2,,6,,,2,,,,,1,,1,,,,1,,,,,1
523704,9,688,159,2,15,,4,6,1,,18,19,38,38,1,1,7,,,,,2,2,1,1,,,,,,,,,2,,1,,,,,,
523704,8,699,188,2,21,1,7,14,,,20,18,33,51,,1,8,,1,,2,,2,,,2,,,1,,,,1,1,2,,,,,,,
523704,7,631,182,1,7,4,4,21,,,19,18,31,59,,,9,,,,2,1,1,,,1,,,1,,,,2,,,,1,,,,,
523704,6,769,199,3,20,1,12,17,,,32,16,20,56,,,14,,,1,,,4,1,,,,,1,,1,,,,,,,,,,,
523704,5,623,173,3,13,6,9,27,,,15,12,17,54,,1,7,1,,,,,4,,1,1,,,,,,,,2,,,,,,,,
523704,4,574,160,,14,2,6,11,,,16,11,28,60,,,5,,1,,,,2,,,,,,,,,1,,2,,1,,,,,,
523704,3,618,173,3,12,2,9,21,,,23,13,20,48,3,2,8,,,,3,,1,2,,,,2,,,,,,,1,,,,,,,
523917,3,335,74,1,15,1,2,1,3,,7,5,4,27,,,,,1,,1,,2,1,,1,1,1,,,,,,,,,,,,,,
523917,2,533,106,,4,2,5,7,2,,9,11,10,20,2,3,17,,,,3,,4,2,,,,1,,,,,,3,,1,,,,,,
523917,1,628,171,,18,10,8,12,1,,8,9,24,54,,,4,1,,,4,,6,,,4,,,3,,,,3,1,,,1,,,,,
524891,1,675,152,1,15,6,7,17,,,5,18,21,49,,,2,,,,,,5,,1,,,,2,2,,,,,,,1,,,,,
525227,1,218,55,1,3,,,8,,,11,9,7,8,,,6,,,,1,,,1,,,,,,,,,,,,,,,,,,
525588,3,832,280,2,45,1,9,16,2,,45,22,34,61,1,1,31,,2,,,1,4,1,,1,,,,,,,,,,,,,,,,1
525588,2,854,219,2,18,4,8,10,4,,37,22,21,48,2,3,29,,,,4,,2,,,1,,,,1,,,,1,2,,,,,,,
525588,1,818,252,1,41,2,7,15,1,,32,21,23,68,3,,29,,,,,1,1,1,,2,,,,,,,,4,,,,,,,,
525804,3,112,27,,3,,1,,2,,3,8,1,8,,,,,,,,,,,,,,,1,,,,,,,,,,,,,
525804,2,402,103,,9,2,2,17,,,10,5,18,28,,2,3,,,,,,3,1,,2,,1,,,,,,,,,,,,,,
525804,1,569,133,2,7,4,2,17,3,,12,15,26,29,,1,3,1,,,2,,1,,,,,,2,,,,4,,2,,,,,,,
525880,1,404,98,,2,3,7,14,,,7,7,19,18,2,,15,,,,,,,,,,,,1,,,,1,1,1,,,,,,,
525979,1,606,141,5,12,3,4,14,1,,16,11,20,31,,1,18,,,,,,,,,1,,,,,,,2,1,1,,,,,,,
526169,1,231,71,,7,4,2,6,,,8,13,11,9,1,3,5,,,,,,,,,1,,,,,,,,1,,,,,,,,
530727,1,528,143,,10,1,4,20,1,,28,11,10,23,2,,13,,1,,,,8,,,,1,,8,,,,,1,1,,,,,,,
532894,1,326,104,,9,4,3,7,1,,9,3,11,31,1,1,18,1,,,,,2,,,,,,1,,,,,2,,,,,,,,
533491,1,481,106,6,12,5,3,11,2,,19,17,6,17,1,,3,,,,,,2,,,2,,,,,,,,,,,,,,,,
533688,1,405,96,,6,5,12,6,1,,12,4,8,27,,1,10,,,,,,,,,,,,,,,,,,3,,,1,,,,
534927,1,852,296,2,20,5,4,32,,,24,37,31,49,10,,65,,1,,2,,2,,1,,,,1,1,,,4,4,1,,,,,,,
535532,2,843,158,,12,,6,22,1,,7,19,12,70,2,,4,,,,,,,,,,,,,,,,,,,,3,,,,,
535532,1,1070,191,2,10,2,8,15,,,11,18,30,57,8,1,19,,1,,,1,1,,,,,,1,,,,1,,1,,,1,,2,,1
535532,3,675,83,1,8,,1,4,,,3,13,12,27,4,,6,,,,1,,2,1,,,,,,,,,,,,,,,,,,
535770,1,281,68,,14,,3,2,1,,10,3,3,9,,2,21,,,,,,,,,,,,,,,,,,,,,,,,,
535885,1,323,105,,5,1,1,13,,,13,9,8,31,1,1,20,,,,,,1,,,,,,,,,,,,1,,,,,,,
536091,1,689,155,1,11,4,3,18,,,31,11,23,44,,,2,,,,1,1,1,,,1,,,,,,,1,2,,,,,,,,
536113,1,159,44,,2,,1,4,,,3,4,13,9,1,,3,,,,,,1,1,,,,,,,,1,,,1,,,,,,,
536148,3,243,58,,1,2,4,13,,,1,13,13,8,,,1,1,,,,,,,1,,,,,,,,,,,,,,,,,
536148,2,948,224,,14,5,16,17,,,6,22,39,67,1,4,15,1,,1,4,,3,,1,2,,,,1,,,1,2,1,,,1,,,,
536148,1,1043,228,1,19,12,9,29,1,,10,19,28,67,2,,17,,,1,2,1,2,1,,1,2,,,,,,1,2,,,1,,,,,
536288,1,556,123,,12,2,3,13,,,21,16,10,17,4,2,13,,,,1,,5,,,,,,1,,,,,2,1,,,,,,,
536385,11,574,118,,18,1,4,5,1,,10,18,29,28,,,2,,,,,,,,,,,,,,,,,,1,,,1,,,,
536385,10,1070,292,1,34,4,17,17,,,30,30,38,92,1,1,9,,,,2,1,4,6,,3,1,,,,,,1,,,,,,,,,
536385,9,755,149,1,12,4,10,14,,,12,8,27,41,2,2,7,,,,2,,3,,2,1,,,1,,,,,,,,,,,,,
536385,8,1020,250,6,22,1,13,22,1,,24,23,37,67,,,16,,,,2,1,5,4,1,,1,1,,,,,2,,1,,,,,,,
536385,7,877,226,2,19,4,8,12,2,1,25,21,23,81,1,3,6,,,,1,,11,,1,,,2,,,,,2,1,,,,,,,,
536385,6,987,210,1,17,3,13,21,1,,20,25,19,65,3,3,8,,,,2,1,4,,,,,,1,,,,1,,1,,,,,1,,
536385,5,518,141,2,9,2,5,12,,,21,27,15,31,,,10,,,,,,3,,,,,,,,,1,3,,,,,,,,,
536385,4,1470,230,1,24,4,8,12,2,,24,34,30,67,,1,10,,,,2,,3,,2,,,,2,,,1,2,,1,,,,,,,
536385,3,1122,262,2,26,2,10,26,1,,19,23,44,85,1,,11,,,1,4,,2,,1,,,1,1,,,,1,,1,,,,,,,
536385,2,654,218,4,33,,13,12,,,27,35,25,35,2,,18,1,,,3,,3,2,,1,,2,1,,,,,1,,,,,,,,
536385,1,339,136,3,13,,4,13,1,,18,14,24,26,,1,12,,,,2,,3,1,,1,,,,,,,,,,,,,,,,
536393,2,96,18,,,,,1,,,3,2,1,6,,,2,,,,2,,,,,,1,,,,,,,,,,,,,,,
536393,1,421,126,1,2,3,2,10,,,14,8,10,35,,,36,,1,,,,1,,1,1,,,,,,,,1,,,,,,,,
536521,3,131,22,,,,,2,,,3,5,3,3,,,1,,,,2,,,3,,,,,,,,,,,,,,,,,,
536521,2,105,22,,1,,1,2,,,2,,4,6,,,6,,,,,,,,,,,,,,,,,,,,,,,,,
536521,1,751,124,,7,4,4,12,1,,15,13,15,40,4,,5,,,,1,,,,,,,,1,,,,1,,,1,,,,,,
536571,1,442,100,5,4,4,9,8,2,,7,6,11,26,2,,7,,,,1,,,1,,2,,,,2,,,,,1,,1,,1,,,
536687,2,100,43,,5,2,,5,,,1,5,5,9,,,2,,,,,,4,,,,,,1,,1,,,2,,,1,,,,,
536687,1,420,91,,9,1,3,13,1,,6,3,7,30,2,1,1,,,,2,,2,1,,2,,,,,,,3,1,2,,,,,1,,
536733,1,593,161,1,17,3,6,13,3,,44,1,16,46,,,6,,,,,,2,,,,,,,,,,1,,1,,1,,,,,
536814,1,256,59,,,,1,1,,,14,10,1,17,,,13,,,,,,,,,,,,,2,,,,,,,,,,,,
537284,1,519,149,,7,5,2,16,1,,18,12,6,41,1,1,26,1,,,2,,2,1,1,,,,,,3,,2,,,,1,,,,,
537713,1,1026,265,4,6,7,8,22,2,2,38,27,23,67,5,,41,,,,1,,4,2,2,,,,,,,,2,,1,,1,,,,,
539961,5,166,36,,1,,3,4,,,1,4,8,12,,1,1,,,,1,,,,,,,,,,,,,,,,,,,,,
539961,4,436,79,,11,,3,8,2,,12,6,6,21,,,3,,,,1,1,3,,,,,,,,,,1,1,,,,,,,,
539961,3,586,115,,9,1,7,7,1,,14,20,17,26,3,,3,,,,4,,,,1,1,,,,,,,,1,,,,,,,,
539961,2,1055,212,1,30,4,16,15,2,,16,20,27,52,1,1,8,1,,1,4,,1,,1,,,,,2,,,5,1,1,,2,,,,,
539961,1,482,93,1,8,1,11,3,2,,9,17,19,17,1,,1,,1,,1,,,,1,,,,,,,,,,,,,,,,,
540005,1,161,40,,5,,,3,,,5,5,2,10,1,,4,,,,,,2,,,,,,1,,,,1,,1,,,,,,,
540030,2,568,174,,26,10,4,16,,,13,24,18,32,1,1,15,1,,,2,2,,,1,,,,4,,,,,,,,1,,1,1,,1
540030,1,1333,310,2,39,5,10,33,4,,28,45,36,75,,3,15,,,,4,,3,1,,,,,,,,,4,1,1,,,1,,,,
540161,1,302,80,,5,5,4,15,,,4,13,6,18,1,1,3,,,,,1,1,,1,2,,,,,,,,,,,,,,,,
540196,4,114,35,,,,4,2,,,2,12,4,10,,,,,,,,,,,,,,,,,,,,,,,1,,,,,
540196,3,741,192,,26,2,5,17,1,,13,14,18,63,3,,20,1,,,1,,1,1,1,,2,,,,,,2,1,,,,,,,,
540196,5,153,57,,7,,2,12,,,7,9,5,7,,,3,,,,,,2,,,,,,,,,,,,,1,2,,,,,
540196,2,786,220,2,13,1,9,25,2,,18,38,18,59,4,,18,1,,,1,3,1,,1,,,,,,,1,,2,1,,,,,,1,1
540196,1,638,183,2,24,1,9,15,2,,13,26,15,39,2,,22,,,,2,,3,1,,,,1,,,,,2,1,2,,,,,1,,
540226,2,411,91,3,8,4,,5,,,9,8,21,19,1,,7,,,,,,4,,,,,,1,,,,,,,,1,,,,,
540226,1,979,235,,34,1,11,21,1,,26,24,26,65,1,,9,,,,3,,5,,,,2,,1,,,,,1,,,,3,,,,1
540234,2,165,40,1,1,1,2,2,,,2,4,3,18,2,1,2,,,,,,,,,,,,1,,,,,,,,,,,,,
540234,1,544,135,1,10,1,5,8,2,,19,13,20,39,1,1,13,,,,2,,,,,,,,,,,,,,,,,,,,,
540331,4,121,48,,6,1,5,7,,,4,1,8,6,7,,,,,,1,,2,,,,,,,,,,,,,,,,,,,
540331,3,83,23,,1,,,1,,,3,5,2,8,1,,1,1,,,,,,,,,,,,,,,,,,,,,,,,
540331,2,101,35,,3,1,,1,,,,3,2,18,2,,2,,,,,,3,,,,,,,,,,,,,,,,,,,
540331,1,131,33,1,2,,,1,,1,2,4,4,12,2,2,,,,,,,1,,,,,,,,,,,1,,,,,,,,
540366,1,313,69,,8,,,9,1,,5,11,12,15,1,1,1,,,,,1,2,,2,,,,,,,,,,,,,,,,,
540382,2,319,54,,4,1,3,5,,,4,2,14,15,,,2,,,,1,,1,2,,,,,,,,,,,,,,,,,,
540382,1,1753,390,2,17,8,25,57,4,,33,25,52,108,3,2,37,,,,3,,4,,1,2,1,,2,,,,1,,2,,1,,,,,
540471,9,200,67,4,1,,1,5,,,10,10,,24,1,,8,,,,2,,,,,,,,,,,,,1,,,,,,,,
540471,8,172,58,1,3,,1,4,2,,4,13,10,12,,,6,,,,2,,,,,,,,,,,,,,,,,,,,,
540471,7,285,65,,5,2,8,6,,,9,6,5,11,2,,8,,1,,1,,,,,,,,,,,,,1,,,,,,,,
540471,6,873,213,2,15,2,11,25,,,17,25,23,67,2,,13,,2,,,,3,1,,1,1,1,,,,,,1,,,1,,,,,
540471,5,934,274,1,28,5,13,29,1,,25,29,27,84,3,,19,1,,,,2,1,,2,,,1,1,,,,,2,,,,,,,,
540471,4,1539,278,2,29,14,13,15,2,,22,43,29,69,1,1,14,,,,2,,7,1,,3,,,1,,1,,4,2,,,2,,,,,1
540471,3,821,192,6,12,4,15,20,1,,15,20,18,55,3,1,10,,,,1,1,5,,,,,,,,,,,3,,,1,1,,,,
540471,2,1021,269,7,17,8,10,41,,,22,36,26,71,4,1,10,,1,,,2,4,,3,,,1,1,,,,,,2,,1,1,,,,
540471,1,1184,388,4,45,6,16,31,7,,30,35,47,109,5,6,23,1,,,1,3,11,1,1,2,2,,,,,,1,,,,,1,,,,
540471,12,129,22,,2,,,6,,,,,2,2,2,,8,,,,,,,,,,,,,,,,,,,,,,,,,
540471,11,112,31,,4,1,,6,,,2,1,3,10,1,,,,,,,,1,,,,,,2,,,,,,,,,,,,,
540471,10,124,23,,8,,1,4,,,1,3,2,2,,,,,,,,,1,1,,,,,,,,,,,,,,,,,,
540471,13,145,52,,5,,,6,,,5,6,,9,,1,19,,,,,,,,,,,,,,,,1,,,,,,,,,
540480,2,169,26,,,2,,3,,,1,3,4,2,4,2,4,,,,,,,,,,,,,,,,,,,,,,1,,,
540480,1,888,257,4,24,3,10,13,1,,27,30,36,48,6,1,44,,,,3,,6,,,,,,,,,,,,1,,,,,,,
540501,3,161,42,,2,2,,2,1,,7,5,4,15,,1,1,,,,,,,,,,,,,,,,2,,,,,,,,,
540501,2,1293,351,6,47,4,8,17,,,82,46,33,57,,,24,,,,1,,10,1,1,3,,,1,,,,6,,4,,,,,,,
540501,1,1260,312,1,55,2,10,16,3,,49,36,40,57,,1,22,,1,,2,,3,,1,2,1,1,1,,,,4,2,,,1,,,1,,
540510,2,187,55,,8,1,3,4,,,3,5,6,10,,,12,,,,1,,,,,,,,,,,,,2,,,,,,,,
540510,1,689,156,5,8,6,5,11,,,10,16,23,29,2,4,26,,2,,,1,2,,,1,,,3,,,,1,,1,,,,,,,
540544,4,107,28,,1,2,1,1,2,,6,2,3,6,,1,2,,,,,,,,,,,,1,,,,,,,,,,,,,
540544,3,104,36,,2,,2,5,,,,6,,11,3,,2,,,,1,,,,,,2,,,,,,,,,,,2,,,,
540544,2,146,51,,7,,2,6,,,11,3,5,8,,,7,,,,,,2,,,,,,,,,,,,,,,,,,,
540544,1,721,296,2,22,14,10,32,,,12,24,62,64,4,6,20,,,,6,,8,,,,2,,,,2,,2,4,,,,,,,,
540595,1,275,66,,9,,1,10,,,3,5,15,18,,,2,,,,,,,,,2,,,,,,,,,,,,,1,,,
540609,4,65,22,,3,2,3,3,,,1,,5,5,,,,,,,,,,,,,,,,,,,,,,,,,,,,
540609,3,73,25,2,3,1,2,4,,,2,,4,4,,,,,,,1,,,1,,,,,,,,,,,1,,,,,,,
540609,2,113,27,,11,,2,2,1,,,2,2,4,1,,2,,,,,,,,,,,,,,,,,,,,,,,,,
540609,1,259,83,,9,,4,13,1,,5,6,8,24,,,7,,,,3,,2,,,,,,,,,,1,,,,,,,,,
540650,2,86,13,,,1,,,,,2,,,9,,,1,,,,,,,,,,,,,,,,,,,,,,,,,
540650,1,481,117,1,9,4,2,14,2,,8,5,22,26,,,14,,,,4,,,,,1,,,,,,,,1,1,,,2,,,1,
540684,1,820,191,2,12,3,2,24,4,,12,22,31,41,,,21,,1,,5,,3,,,,,,,,1,,1,1,,,4,1,,,,
540731,1,174,40,,,,1,7,,,6,2,5,10,,2,4,,,,,,2,,,,,,,,,,,1,,,,,,,,
540773,2,1283,348,1,29,5,20,23,,,58,31,20,70,2,1,68,,,,4,,8,,,1,1,,,,1,1,2,1,1,,,,,,,
540773,1,1196,337,1,34,4,9,23,,,46,38,25,66,3,2,65,,,,2,1,8,1,,,,,3,,,,1,3,,1,1,,,,,
540854,1,388,152,,3,1,4,8,,,13,17,16,26,,,58,,,,,,4,,,1,,,,,,,1,,,,,,,,,
540862,1,878,224,,16,11,9,19,1,1,28,11,31,76,,,3,1,,,7,1,3,,1,,,1,,,,,3,1,,,,,,,,
540862,3,801,192,2,22,3,5,3,3,,25,12,26,74,1,,11,,,,,1,3,,,,,,,,,,,,,,,,1,,,
540862,2,926,230,,15,8,2,16,3,,32,17,14,74,4,1,19,,2,,6,,4,2,,3,,,,,,,4,3,,,,,,,,1
540871,3,65,22,,3,,,1,,,3,3,,10,,,2,,,,,,,,,,,,,,,,,,,,,,,,,
540871,2,106,26,,,1,,6,,,2,,1,12,1,1,1,,,,1,,,,,,,,,,,,,,,,,,,,,
540871,1,348,75,1,3,4,,2,2,,23,8,9,13,,,6,,,,1,,1,,1,,,,,,,,,,1,,,,,,,
540919,1,648,178,1,5,4,5,19,1,,29,16,11,40,,,42,,,,1,1,1,,,,,,,,,,,,,,1,,,1,,
540978,5,48,8,,,,,1,,,,2,,2,,,2,,,,,,,,,,,,1,,,,,,,,,,,,,
540978,4,173,41,,5,,1,3,,,9,3,2,4,1,,9,,,,1,,,,,,,,1,,1,,,,1,,,,,,,
540978,3,336,80,1,8,2,1,10,1,,13,5,7,13,,2,14,,1,,,,,1,,,,,,,,,,,,,1,,,,,
540978,2,554,136,1,6,,9,8,2,,25,12,21,22,2,,19,1,,,1,,1,,,,1,,,,,,3,1,,,1,,,,,
540978,1,908,204,1,24,1,7,26,,,20,13,19,45,,,36,,2,,,3,2,,,,,,1,,3,,,,,,1,,,,,
540986,2,89,38,,3,2,1,2,,,1,3,8,12,,,1,,,,2,,2,,,,,,,,,,1,,,,,,,,,
540986,1,882,196,6,29,4,2,13,1,,19,20,23,54,5,,7,,,,,,,2,1,1,1,,,1,,,,2,,,5,,,,,
541036,1,501,80,3,6,1,5,9,,,8,11,5,20,1,,8,,,,1,1,,,,1,,,,,,,,,,,,,,,,
541079,4,32,5,,,,1,,,,1,,1,,,,2,,,,,,,,,,,,,,,,,,,,,,,,,
541079,3,60,23,,6,1,,4,,,2,,4,3,,,3,,,,,,,,,,,,,,,,,,,,,,,,,
541079,2,67,21,,4,2,,,,,1,3,3,,,,3,,,,,,,,,,,,1,,4,,,,,,,,,,,
541079,1,1266,227,,25,4,9,16,,1,8,32,25,62,14,1,17,,,,4,,2,,,,1,1,,,,,,3,1,,1,,,,,
541079,5,45,21,1,3,,1,1,,,,5,1,3,2,,1,,,,1,,1,,,,,,,,,,,,1,,,,,,,
541109,1,908,203,,18,6,6,12,2,,49,9,31,50,,1,13,,1,,1,,2,2,,,,,,,,,,,,,,,,,,
541117,1,554,131,,9,7,1,18,2,,6,11,16,37,,,12,,,,,2,7,,,,1,,,,,,1,,1,,,,,,,
541125,1,344,109,,6,2,10,8,,,6,7,6,22,1,1,34,,,,1,,2,,,,,1,,,,,1,1,,,,,,,,
541168,4,71,14,,,,,1,,,6,,1,,,,3,,,,,,,,,,,,,,,,1,,2,,,,,,,
541168,3,193,32,,6,2,2,3,,,1,,3,14,,,1,,,,,,,,,,,,,,,,,,,,,,,,,
541168,2,85,29,,6,,,1,,,1,4,6,6,1,,4,,,,,,,,,,,,,,,,,,,,,,,,,
541168,1,635,119,1,17,1,3,11,1,,14,6,17,21,,,23,,,,,,1,,1,,1,,,,,,,,,,1,,,,,
541168,5,657,196,3,29,6,10,15,,,15,16,13,53,,2,25,,,,,2,5,,,1,,,,,,,,,1,,,,,,,
541214,1,416,99,,9,2,3,7,1,,7,10,8,33,1,1,15,,,,,,,,1,,,,,,,,1,,,,,,,,,
541222,1,976,213,,23,5,10,23,,,19,35,17,52,3,,9,,1,,2,,,3,1,1,,1,3,,,,2,,3,,,,,,,
541249,1,1034,169,2,12,3,11,12,1,,14,11,24,57,1,2,11,,,,,1,3,,,2,,,,,,,,1,,,,1,,,,
541265,4,71,20,,7,1,,1,,,,4,,4,,1,1,,,,1,,,,,,,,,,,,,,,,,,,,,
541265,3,117,26,,,,1,,,,1,5,6,12,,,1,,,,,,,,,,,,,,,,,,,,,,,,,
541265,2,989,235,1,25,3,9,16,2,1,23,18,36,61,1,1,30,,1,,,1,1,1,,1,,,,,,,,,,1,,2,,,,
541265,1,938,248,2,25,2,18,30,2,,23,24,29,64,,2,14,,,1,3,2,,,,,,,,,,,7,,,,,,,,,
541265,5,145,43,,10,1,2,4,,,4,,2,11,1,,5,,,,,,1,,1,,,,,,1,,,,,,,,,,,
541303,1,1032,221,2,16,8,22,18,1,,11,23,28,70,,,15,,1,,1,1,2,,,,,,,,,,,,2,,,,,,,
541346,1,343,84,,5,3,3,9,,,5,10,12,16,,1,13,1,1,,1,,1,1,,1,,,,,,,1,,,,,,,,,
541354,8,816,257,,29,4,8,21,4,,33,22,30,69,2,1,21,,1,,1,1,3,,1,1,,1,2,1,,,,,1,,,,,,,
541354,7,1031,281,,22,4,14,25,2,,45,31,29,84,1,1,11,1,,,1,,5,,1,1,,,1,,,,,,2,,,,,,,
541354,6,1015,300,1,21,1,21,28,,,22,26,31,105,2,3,23,3,1,,1,,2,1,1,2,,,3,,,,1,,1,,,,,,,
541354,15,159,43,,8,,1,2,,,7,3,,8,,,12,,,,,,2,,,,,,,,,,,,,,,,,,,
541354,14,58,23,,3,,,1,,,,3,3,4,,,8,,,,,,,1,,,,,,,,,,,,,,,,,,
541354,13,182,61,1,1,2,,1,1,,12,5,4,18,1,,10,,,,,,1,,,,,,,,,,1,,2,,,1,,,,
541354,5,814,228,,24,8,3,16,,,47,23,18,56,,1,21,,,,3,1,2,1,,1,,,1,,1,,1,,,,,,,,,
541354,4,822,192,,20,1,7,6,1,,28,39,13,37,,,34,,1,,1,,1,,,1,,1,,,,,,,,,,1,,,,
541354,12,711,229,1,19,8,14,11,1,,26,17,36,48,4,,31,,,,5,1,3,2,,,,,,,,,,,,,2,,,,,
541354,11,469,128,2,11,,4,2,,,13,4,16,48,,,23,,,,,,,2,,1,,,,1,,,1,,,,,,,,,
541354,3,707,205,,22,4,6,6,1,,29,19,21,43,3,2,42,,1,,,,2,,3,,,,,,,,,1,,,,,,,,
541354,2,1300,243,,41,,18,8,3,,33,24,19,47,1,,36,,,,,1,4,,,1,1,,,,,,5,,1,,,,,,,
541354,1,1195,429,4,38,6,14,32,3,,77,32,44,88,,3,58,,,,5,2,7,2,3,2,1,,1,,,1,2,,,,1,2,,1,,
541354,10,822,199,,13,3,20,14,1,,21,23,13,64,1,,16,,,,2,1,2,,,,,,1,,,,2,1,,,,,1,,,
541354,9,958,240,,20,5,12,23,2,,26,31,28,55,,1,16,,1,,4,1,4,6,,,,,1,,,,2,2,,,,,,,,
541478,1,687,169,3,14,1,8,7,1,,19,26,11,46,2,1,21,,1,,,1,5,,,,1,,1,,,,,,,,,,,,,
541575,2,169,43,4,3,3,1,15,1,,1,1,3,8,2,,,,,,,,,1,,,,,,,,,,,,,,,,,,
541575,1,854,190,5,8,6,15,25,2,1,15,23,23,47,1,2,6,,2,,,,3,,1,,1,,,,,1,,1,,,1,,1,,,
543543,1,189,35,,,1,1,11,,,3,,6,7,,,5,,,,,,,,,,1,,,,,,,,,,,,,,,
544710,1,105,36,,3,,3,2,,,4,1,2,9,,,10,,,,,1,,1,,,,,,,,,,,,,,,,,,
545279,1,408,78,,3,6,1,7,1,,6,3,12,28,1,1,3,,,,1,,2,,,,,,,,,,1,,,,,,,,,2
546976,1,120,40,,2,1,1,10,,,5,6,3,5,1,,3,1,,,1,,,,,1,,,,,,,,,,,,,,,,
547018,1,487,153,,8,3,11,15,,,20,20,13,34,2,1,19,,,,3,1,,,1,1,,,,,,,,1,,,,,,,,
547026,1,791,230,1,36,7,1,13,,,24,26,17,48,2,,25,,,1,1,,12,,1,3,,,2,,2,,2,4,1,,,,,,,1
547077,1,1049,374,,59,4,10,16,6,,60,60,27,61,1,3,35,,,,5,,11,,1,3,,,3,1,2,,1,4,,,,1,,,,
547093,1,41,16,2,3,,3,1,,,,,2,4,,1,,,,,,,,,,,,,,,,,,,,,,,,,,
547123,1,167,44,,2,,6,4,,,2,3,8,7,2,,6,,,,2,,,,,,,,,,2,,,,,,,,,,,
547433,1,575,235,1,17,5,5,29,1,,11,19,37,68,1,1,28,,,,3,1,1,1,,,,,,,,,2,,,1,1,,,2,,
547450,1,232,63,,1,1,5,4,,,11,18,2,11,1,,6,,,,,,1,,2,,,,,,,,,,,,,,,,,
547514,1,148,44,,5,3,1,11,,,2,4,2,9,3,,3,,,,,,,,,,,,,1,,,,,,,,,,,,
549967,1,88,50,,2,5,4,,1,,4,,2,4,2,,19,,,,,1,,,,1,,,,,,,2,1,2,,,,,,,
549983,1,126,36,,1,1,3,2,,,1,3,5,9,,1,10,,,,,,,,,,,,,,,,,,,,,,,,,
552011,1,607,164,1,23,6,10,6,,,13,26,15,29,,2,20,,,,1,,6,1,,2,,,,,,,2,,,,,,1,,,
552020,1,659,225,,38,4,12,9,,,40,35,25,33,4,1,12,,,1,1,,6,1,,,,,,,,,1,1,1,,,,,,,
552038,1,171,46,,6,1,3,1,,,1,7,2,12,,3,6,,,,2,,1,,,,,,,,,,,1,,,,,,,,
552062,1,171,72,,2,,2,,2,,5,22,4,9,1,,16,,3,,2,,,,2,,,,1,,1,,,,,,,,,,,
552071,1,188,59,,1,1,,2,,,4,5,4,12,,,28,,,,1,,1,,,,,,,,,,,,,,,,,,,
552089,1,493,178,2,22,1,4,7,4,,18,19,18,43,3,1,20,,,,4,1,4,1,1,1,,,,,,1,2,1,,,,,,,,
552119,1,1112,239,,30,4,11,22,,,13,25,30,69,,,26,,,,1,1,1,,,2,1,,,1,,,,1,,,1,,,,,
552151,1,948,215,1,20,2,1,12,,,20,40,34,37,1,2,33,,,,1,1,3,,,2,,,,,,,2,1,,,,1,,,,1
552160,1,749,164,2,12,5,6,15,1,,13,16,23,31,3,1,19,,,,1,,,,,4,6,,,,2,,,1,1,,,2,,,,
552178,1,376,116,,17,1,5,11,,,1,13,9,22,,,33,,,,1,,,,,,,,,,,,,2,,,,,,,,1
552186,1,1159,312,3,32,3,24,25,4,,18,19,37,70,12,1,40,,1,,3,2,5,,2,,,1,2,,,,,3,3,,2,,,,,
552194,1,151,53,,2,,3,5,,,2,3,7,12,3,1,13,,,,1,,,,,,,,1,,,,,,,,,,,,,
552216,1,397,106,1,9,3,2,2,1,,8,18,11,17,3,3,15,,,,2,,2,1,1,3,,1,2,,,,,1,,,,,,,,
552232,1,549,161,,14,4,2,15,,,11,20,13,45,5,1,25,,,,1,1,4,,,,,,,,,,,,,,,,,,,
552259,1,189,55,1,7,1,,5,,,2,1,6,17,1,,11,,1,,,,,,,,,,,,,,1,1,,,,,,,,
552267,1,282,83,,8,,3,8,,,4,7,12,10,,,24,3,1,,,,,,,,,1,,,1,,,1,,,,,,,,
552305,1,141,28,,4,1,,1,,,7,3,4,5,,,1,,,,,1,1,,,,,,,,,,,,,,,,,,,
552313,1,258,70,1,9,1,1,5,1,,5,8,2,31,1,,4,,,,,,1,,,,,,,,,,,,,,,,,,,
552330,1,165,54,,8,,3,1,2,,6,5,1,12,1,,14,1,,,,,,,,,,,,,,,,,,,,,,,,
552348,1,569,137,,15,6,6,5,3,,10,19,21,32,2,,9,1,,,4,,3,,,,,,,,,,1,,,,,,,,,
552356,1,365,116,,9,4,3,10,,,4,12,28,31,1,,2,,1,,3,,4,,,2,,,,,,,,1,,,,1,,,,
552364,1,342,112,1,19,,2,10,1,,12,22,7,10,2,1,13,1,,1,1,,2,2,,,1,,,,,1,2,,,,,1,,,,
552372,4,86,29,,,,2,,,,2,3,4,,,,18,,,,,,,,,,,,,,,,,,,,,,,,,
552372,3,145,27,,1,1,,3,1,,2,2,2,5,3,,2,,1,,2,,,,,1,,,,,,,,,1,,,,,,,
552372,2,196,41,1,4,4,6,4,,,6,3,4,3,3,1,1,,,,,,,,,,,,,,,,,,,,1,,,,,
552372,1,833,193,1,23,3,9,24,1,,14,21,9,51,1,2,26,,,,,3,3,1,,,,,,,,,,,1,,,,,,,
552381,1,631,159,,7,4,8,15,1,1,19,18,24,38,4,1,14,,,,1,1,,,,1,,,,,,,2,,,,,,,,,
552399,1,189,48,,5,,,2,,,3,6,4,9,,,17,,,,,,,1,,,,,,,,,1,,,,,,,,,
552402,1,516,194,2,17,3,4,10,4,,22,27,11,26,,,33,4,,,,,19,1,4,,,,,1,,,2,2,2,,,,,,,
552411,1,1177,251,1,17,6,6,34,1,,30,31,20,57,2,1,27,1,2,,2,1,3,2,,1,,,,1,,,,3,1,,,,,,,1
552429,1,162,46,1,3,2,3,8,,,3,8,7,7,,,3,,,,,,,,,,,,,,,,,,,,,,,,,1
552437,1,381,131,,10,6,4,21,1,,11,10,11,24,1,1,15,,1,,3,3,3,,1,1,1,,,,,,1,1,,,1,,,,,
552445,1,494,123,,11,2,1,13,3,,10,27,12,31,2,,7,,,,,,1,,1,2,,,,,,,,,,,,,,,,
552755,1,187,79,,6,,,9,,,3,7,14,23,,1,11,,,,1,,,,,,1,,,1,,,,1,1,,,,,,,
552771,1,284,77,,9,,1,7,,,3,9,9,21,1,,12,,,,2,,2,,,,,,,,,,,,,,1,,,,,
552780,1,331,138,,7,1,4,8,1,,11,5,31,29,,1,32,,,,,,1,,1,,,6,,,,,,,,,,,,,,
552810,1,131,35,,2,1,,2,,,3,6,8,7,2,,1,,,,2,,,,,1,,,,,,,,,,,,,,,,
552836,1,196,37,,1,,,2,1,1,2,3,3,9,1,,3,,,,,,9,,,1,,,,,,,,1,,,,,,,,
552844,1,390,94,1,17,1,2,4,1,,8,9,16,24,,,5,,1,1,,,1,,1,,,,,,1,,,,,,1,,,,,
552879,1,448,112,,13,4,6,11,,,2,8,29,23,3,,9,,,,,,,,1,,,1,,,,,,,,,,2,,,,
552887,1,198,46,,3,3,2,4,,,4,7,6,6,1,1,4,,,,1,,3,,,,,,,,,,,1,,,,,,,,
552909,1,498,99,1,9,4,5,5,2,,4,13,17,17,1,1,7,,,,2,,,1,,1,,,,,,,,,,9,,,,,,
552950,1,176,45,,1,,2,7,,1,3,6,4,21,,,,,,,,,,,,,,,,,,,,,,,,,,,,
552968,1,128,40,,5,,,3,,,1,2,2,13,,,14,,,,,,,,,,,,,,,,,,,,,,,,,
552984,1,53,28,,5,1,2,2,,,1,4,2,5,,,4,,,1,,,1,,,,,,,,,,,,,,,,,,,
553000,1,262,62,,3,2,2,16,,,7,4,9,15,,1,3,,,,,,,,,,,,,,,,,,,,,,,,,
553191,1,63,9,,1,2,1,1,,,,,2,2,,,,,,,,,,,,,,,,,,,,,,,,,,,,
553212,1,36,19,,2,,,,,,1,2,,10,1,,1,,,,1,,,,,,,,1,,,,,,,,,,,,,
553221,1,513,146,1,17,1,17,8,,,19,20,17,31,1,,3,,,,3,,5,,,,,,,,1,,,,1,,,1,,,,
553247,1,224,43,2,3,4,,,,,4,8,5,9,2,2,3,,,,,,,,,,1,,,,,,,,,,,,,,,
553301,2,115,22,,4,,1,2,,,1,4,1,3,,,5,,,,,,,,,,,,,,,,1,,,,,,,,,
553301,1,194,55,1,7,2,1,3,1,,7,4,12,7,,,5,,,,,,,,,,,,,,1,,,,1,,1,,,1,,1
553336,1,313,84,1,5,,1,3,,,9,16,8,30,,,9,,1,,1,,,,,,,,,,,,,,,,,,,,,
553344,1,171,60,2,6,2,,3,,,9,3,11,13,1,,7,,,,,,,,,,,,,,,,,1,,,,2,,,,
553352,1,266,87,,8,,1,5,1,,12,7,4,30,,,14,,,,,,4,,1,,,,,,,,,,,,,,,,,
553379,1,1119,403,1,15,3,5,19,1,,201,18,52,66,,1,7,,,,2,,4,1,,,1,,1,,,,,3,,,1,,,1,,
553387,1,124,42,,12,,3,1,,,4,5,6,2,,1,6,,,,,,1,,1,,,,,,,,,,,,,,,,,
553395,1,158,42,,7,1,,3,,,4,1,7,10,1,,5,,,,,,1,1,,,,,,,1,,,,,,,,,,,
553468,1,614,104,1,6,1,4,14,1,,7,7,12,35,2,1,,,2,1,6,,,,,1,,,,1,,,1,1,,,,,,,,
553476,1,538,137,,6,2,1,10,4,,28,13,9,29,6,,23,,,,1,1,1,,,,,,2,,,,,,,,,1,,,,
553484,1,603,120,,7,5,5,36,2,,4,9,10,27,1,,11,,,,,,,,1,1,,,,,,,,,,,,,,1,,
554103,1,172,64,,6,1,1,4,,,10,9,6,17,2,,1,,,1,,1,,,,,,,1,,,,,1,,,,1,,,1,1
554146,1,168,44,,8,,4,,,,6,6,8,8,1,,1,,,,,,2,,,,,,,,,,,,,,,,,,,
554901,2,163,58,,5,1,1,,,,14,6,3,21,2,,2,,,,1,,2,,,,,,,,,,,,,,,,,,,
554901,1,1227,366,1,44,10,12,16,4,,52,57,37,69,,1,31,,,,5,,10,1,1,2,2,,2,,,,2,3,2,,,1,1,,,
554944,1,541,137,,14,3,3,11,3,,16,22,12,30,3,,7,,,,,2,3,1,,,,1,1,,,,1,2,1,,,1,,,,
556998,1,543,149,4,14,4,8,2,2,,6,15,13,55,1,,17,,,,1,,5,,,,,1,,,,,,,,,,1,,,,
557196,1,227,64,,3,3,3,8,,,5,3,5,18,,,9,,,,2,,,,,1,,2,,,,,1,,1,,,,,,,
557218,1,335,71,8,4,,,8,,,,3,8,16,3,,16,1,1,,,,,,,,,,,1,,,,1,,,,,1,,,
558419,1,1151,299,,35,4,13,12,1,,21,42,47,78,1,,29,,1,,1,,9,2,,,,,1,,,,,,1,,,,,,1,
568392,1,1055,302,,42,6,12,20,,,22,36,21,69,1,3,43,2,,,5,,9,,,,,,2,,1,1,4,2,1,,,,,,,
568872,1,682,200,1,15,4,7,12,1,,24,20,16,39,3,2,47,1,,,,,4,,,2,,,,,1,,,1,,,,,,,,
568911,1,213,50,,1,1,3,4,,,3,4,1,4,1,,26,,,,1,,1,,,,,,,,,,,,,,,,,,,
568961,1,358,112,,14,,11,10,1,,8,7,9,20,,,21,1,,,,1,1,2,1,2,,,,,,,2,1,,,,,,,,
569003,1,514,113,2,11,2,,4,1,,13,24,11,27,1,2,7,,,,2,,5,1,,,,,,,,,,,,,,,,,,
569054,1,126,32,,3,,,,,,2,6,3,3,1,1,11,,,,,,1,,,,,,,,,,,,1,,,,,,,
569135,1,245,57,,4,1,2,3,1,,2,7,10,19,4,,3,,,,,,,,,1,,,,,,,,,,,,,,,,
569143,1,358,79,1,1,1,10,9,,,4,8,11,12,,1,16,,,,2,,,1,,,,,,,,,,1,,,,1,,,,
569178,1,257,66,2,6,,1,11,,,2,9,4,23,,,5,1,,,1,,,,,,,,,,,,1,,,,,,,,,
569194,1,134,25,1,3,,1,3,,,,2,1,9,,,2,,,,,,,,,1,,,,,,,,,1,,,,1,,,
569259,1,202,55,,4,1,,9,2,,1,2,8,15,,,8,,,,,1,,1,,,,,,,,,,1,,,,2,,,,
569267,1,184,78,,5,9,,10,2,,10,2,11,14,,,12,,1,,,,1,,1,,,,,,,,,,,,,,,,,
569275,1,177,44,,5,,,2,,,,2,8,10,1,,12,,1,,,,,,,,,,2,,,,,,,,,,,,,1
569283,1,113,29,,,1,2,2,,,2,1,7,8,1,,5,,,,,,,,,,,,,,,,,,,,,,,,,
569305,1,456,148,,10,1,7,4,3,,18,15,10,22,1,,52,,,,,1,,,,1,,,,1,,,1,,,,,1,,,,
569330,1,153,58,,21,,2,2,,,12,4,4,8,,,3,,,,,,2,,,,,,,,,,,,,,,,,,,
569356,2,1094,207,,11,10,2,12,,,22,18,57,39,,,28,,,,,1,4,,3,,,,,,,,,,,,,,,,,
569356,1,875,212,3,11,5,13,17,4,,22,21,23,66,,1,7,,2,,3,,6,,,2,,1,1,1,,,1,,,,,1,,,1,
569372,1,149,26,,6,2,3,7,,,2,3,2,1,,,,,,,,,,,,,,,,,,,,,,,,,,,,
569381,1,407,92,,5,2,5,10,,,5,21,6,17,1,,6,,,,,,,1,1,,,,,,,,1,,,6,4,,,,,1
569437,1,512,102,2,13,,2,8,,,12,13,9,29,2,,9,,,,1,,1,,,,,,,,,,1,,,,,,,,,
569445,2,926,305,,51,5,4,8,2,,63,34,31,61,2,1,18,,,,5,1,5,1,,5,,,,,1,,2,2,1,,2,,,,,
569445,1,934,245,3,42,1,9,21,1,,25,34,13,59,1,,12,,,,,,6,3,,4,1,,,,,,6,,2,,1,1,,,,
569453,1,460,89,,5,7,6,22,,,1,1,14,26,,,2,,,,3,,,,1,,1,,,,,,,,,,,,,,,
569542,1,358,119,,10,3,1,7,1,,13,11,19,19,2,,25,1,,,1,,3,,1,,,,1,,,,,,,,,,,,,1
569771,1,145,54,,1,2,,6,,,10,6,,11,,1,15,,,,1,,1,,,,,,,,,,,,,,,,,,,
569798,1,269,56,,,,,11,1,,6,2,8,14,1,1,9,,,,1,,,,,,,,,,1,,,1,,,,,,,,
569844,1,326,88,2,14,,1,9,,,11,10,11,21,,1,2,,,,,,2,,,2,,,,,,,,2,,,,,,,,
570061,1,223,78,,7,1,8,10,,,4,4,7,16,,2,14,,2,,2,,1,,,,,,,,,,,,,,,,,,,
570079,1,687,202,,19,2,11,16,,,16,13,36,48,,,25,,,,1,,3,1,,1,,,2,1,,,3,1,3,,,,,,,
570095,1,188,51,1,2,2,,5,2,,9,2,6,8,2,1,9,,,,,,1,,,,,,,,1,,,,,,,,,,,
570117,1,31,11,,1,,,1,,,3,,2,,,,4,,,,,,,,,,,,,,,,,,,,,,,,,
570141,1,273,96,,4,4,,6,,,9,2,13,36,,,21,,,,1,,,,,,,,,,,,,,,,,,,,,
570281,1,112,32,,2,,2,1,,,3,2,7,10,,,1,,2,,1,,,,1,,,,,,,,,,,,,,,,,
570338,1,174,50,,11,,1,8,,,10,3,1,10,,,5,,,,1,,,,,,,,,,,,,,,,,,,,,
589250,42,944,314,2,45,2,16,16,2,,27,41,50,65,1,3,28,,,,3,,3,2,,,,,2,,,,2,2,,,1,1,,,,
589250,41,1095,319,,31,2,11,16,,,27,33,58,102,1,1,14,,,,4,,10,,,1,,1,3,,,,1,1,,,,2,,,,
589250,40,796,245,,25,5,7,15,3,,15,23,52,66,3,1,22,,,,1,1,3,,,2,,,,,,,,,,,1,,,,,
589250,39,855,193,1,16,1,10,17,,,14,23,44,27,3,1,21,,2,,2,,2,,,2,,,1,,,,4,,,,2,,,,,
589250,38,1048,267,1,65,3,8,9,1,,15,37,31,41,2,3,30,1,3,,2,,10,,,1,,,2,,,,1,,1,,,,,,,
589250,37,795,219,1,19,2,13,11,,,21,29,27,48,,1,30,,,,,,5,,,2,,,2,,,,2,,1,,1,3,,,,1
589250,36,813,168,,14,,7,20,2,,6,30,24,54,2,,3,,1,,,1,,,,4,,,,,,,,,,,,,,,,
589250,44,347,95,,10,,3,13,,,9,11,11,21,2,,7,,,,2,,1,,,,,,,3,,,,,,,2,,,,,
589250,43,922,290,1,50,4,10,22,5,,19,32,37,76,,2,15,,,,2,1,8,,,3,,,,,,,,1,1,,1,,,,,
589250,35,665,182,,22,4,7,18,,,12,29,26,43,,1,11,,,,3,,,1,,,,,,,,1,1,1,1,,,,,,,1
589250,34,460,116,1,10,6,9,10,,,8,7,15,34,,1,7,,1,,,,3,1,,1,,,,,,,1,,1,,,,,,,
589250,33,697,184,,12,5,12,35,,,10,27,19,35,2,,13,2,,,3,2,3,,,1,,,,,,,,2,1,,,,,,,
589250,32,616,184,1,13,2,22,14,2,,7,14,27,61,,2,10,,,,,,5,,,1,,,,,,,,1,1,1,,,,,,
589250,1,2003,150,,28,4,11,4,4,,10,19,31,24,,,6,,,,1,,1,,1,3,,,,,,,2,1,,,,,,,,
589250,29,734,179,3,27,3,9,14,1,,1,15,29,53,1,1,13,,,,,,,1,1,4,,,,,,,,3,,,,,,,,
589250,28,853,286,2,59,6,8,24,,,18,24,33,71,2,2,23,,,,,1,3,1,,1,,,3,,2,,1,,1,,1,,,,,
589250,27,717,208,,26,2,2,22,2,,11,33,24,55,3,,17,,,,1,,3,,,,,1,,,,,1,2,,1,2,,,,,
589250,26,956,230,1,34,,13,7,1,2,13,34,26,66,,,15,,,,1,1,9,3,,1,,,1,,,,1,,,,,,,,,1
589250,25,796,214,4,30,2,13,20,,,14,22,39,48,2,2,8,,2,,,,4,,,1,,1,,,1,,,,1,,,,,,,
589250,24,780,199,,22,5,8,31,1,,16,21,34,32,1,3,9,,,,4,,7,1,,1,,1,,,1,,,1,,,,,,,,
589250,23,951,183,1,21,2,9,16,2,,16,23,32,39,3,5,4,,,,2,,2,,,,,,,,1,,,,4,,,,,1,,
589250,22,920,190,2,14,8,8,12,1,1,9,24,28,52,1,1,14,,2,,1,2,3,1,,,,,1,,,,2,1,,,,2,,,,
589250,21,622,157,,24,2,6,17,1,,8,14,24,38,3,4,10,,,1,,,3,,,,,,,,,,1,,,,1,,,,,
589250,20,650,145,,10,,15,11,,,7,14,30,45,2,,5,,,,,1,1,,,,,,,,,,3,,1,,,,,,,
589250,19,838,180,1,24,,8,11,,,10,24,43,31,1,,16,,,1,1,,4,2,,,,,,,,,2,,1,,,,,,,
589250,18,895,203,1,16,4,17,18,,,21,22,40,40,1,2,9,,,,7,1,1,,,,,,1,,,,,1,1,,,,,,,
589250,17,780,193,1,16,5,13,14,4,,15,23,41,36,1,3,7,,,,4,1,2,,,2,1,,,,,,,2,,,,,,2,,
589250,16,835,222,,20,6,14,16,,,18,24,42,60,1,,11,,,,3,,2,,1,1,1,,,,,,,,2,,,,,,,
589250,15,938,205,1,30,9,11,9,1,,23,30,23,40,,2,10,,,,2,,5,1,2,2,,,1,,,,1,,,,1,1,,,,
589250,14,579,181,2,32,2,8,7,2,,22,23,23,37,,,15,,,,,,4,,1,,,,,,,,,,,,1,1,,,,1
589250,13,1038,214,,22,2,13,16,2,,11,32,27,56,,5,17,,,,2,,2,,,3,1,,,,,,3,,,,,,,,,
589250,12,824,200,,30,4,15,12,1,1,11,16,27,52,,1,19,,,,1,,5,,,1,,,,,,,2,1,,,,,1,,,
589250,11,580,192,,22,6,18,18,2,1,5,22,26,44,,7,9,,,,1,,6,,1,2,,,,,,,2,,,,,,,,,
589250,10,669,208,1,18,1,13,12,,,17,28,32,39,,1,27,,,,3,,7,1,,1,,2,2,1,1,,,,1,,,,,,,
589250,9,792,219,,28,3,4,11,1,,18,26,24,70,,1,21,,,,3,,2,,,,,,,,,,6,1,,,,,,,,
589250,8,747,223,2,22,2,9,25,1,,7,20,29,72,2,3,9,1,,2,2,1,2,1,,1,,,2,,1,,2,2,,1,1,,1,,,
589250,7,874,238,,37,3,6,22,2,,19,44,19,42,1,3,21,2,,,3,,8,1,,2,1,,,,,,2,,,,,,,,,
589250,6,828,242,,59,4,14,9,1,,20,26,27,47,1,1,19,,,1,1,,3,2,,1,,,3,,,1,1,1,,,,,,,,
589250,5,766,232,,32,2,5,18,5,,21,22,36,69,,1,12,,,,3,,,1,,1,1,,,,1,,1,,1,,,,,,,
589250,4,712,165,,25,4,2,2,2,1,14,30,31,33,,,9,,,,,,6,,1,1,,,,,,,1,,,,2,,,1,,
589250,3,864,190,,30,3,4,13,,,15,21,34,41,1,,13,,,,3,,4,,1,,,,,1,,,,,2,,2,2,,,,
589250,2,598,130,,17,3,6,4,1,,12,22,17,33,,4,6,,,,2,,1,,,1,,,,,,,,1,,,,,,,,
589250,31,705,206,,20,4,11,13,,,13,22,38,46,1,2,23,,,,3,,4,1,,,,,,2,,,2,,,,1,,,,,
589250,30,703,199,2,24,2,16,14,1,,8,19,30,59,,2,17,,,,2,,,,,,,1,,,,,2,,,,,,,,,
589268,1,846,192,,23,7,4,33,1,,8,15,29,42,2,,18,,,,,,2,,,1,,,,,,,1,1,,,3,,,,,2
589276,2,136,44,2,1,2,2,6,1,,1,8,6,7,,,6,,,1,,,,,,,,,,,,,1,,,,,,,,,
589276,1,292,61,2,2,4,4,8,,,4,1,5,20,1,,2,,1,,2,,3,,,,,,,,,1,,,,,1,,,,,
589284,1,241,48,,2,,1,7,,,2,7,6,13,1,,3,,2,,,,1,,,,,,,,,,3,,,,,,,,,
589292,1,361,87,,5,2,4,11,,,1,12,7,12,1,2,23,,,,3,,1,,,1,,,1,,,,1,,,,,,,,,
589306,1,106,30,,4,,,9,,,4,2,2,3,,,4,,,,2,,,,,,,,,,,,,,,,,,,,,
589314,2,62,15,,,,,2,,,,4,3,2,1,,1,,,,1,,,,,,,1,,,,,,,,,,,,,,
589314,1,620,129,,16,2,6,13,1,1,6,14,12,36,2,2,14,,1,,1,,,,,,,,,,,,1,,,,1,,,,,
589322,2,123,25,,6,,2,3,,,,2,4,1,,1,5,,,,,,,,,,,,,,,,,1,,,,,,,,
589322,1,1097,175,1,14,2,3,13,3,,19,14,23,42,,1,26,1,1,,1,,7,,2,,,,,,,,2,,,,,,,,,
589331,1,176,48,,6,,2,2,,,4,5,2,14,,,11,,,,,,,2,,,,,,,,,,,,,,,,,,
589349,1,327,93,,7,1,4,13,1,,4,13,12,20,2,,13,,,,,,,,,1,,,,,,,,,,,2,,,,,
589357,1,260,57,1,7,,1,8,,,4,11,3,8,,,12,,,,,,1,,,,,,,,,,,,,,,1,,,,
589365,1,434,108,,14,2,5,8,,,12,10,7,30,2,1,10,,,,1,2,2,,,,,,2,,,,,,,,,,,,,
589381,1,826,216,1,18,5,28,26,,,11,17,15,54,4,1,28,,,,1,,1,,,,,,,,1,,,2,1,,2,,,,,
589390,1,430,105,,18,3,7,21,1,,2,3,15,21,1,,8,1,1,,,,,,,,,,2,,,,,,,,1,,,,,
589403,3,132,29,,2,,,2,1,,8,4,5,3,,,1,,,,,,3,,,,,,,,,,,,,,,,,,,
589403,2,98,21,,,1,,3,2,,4,4,3,2,,1,,,,,,,1,,,,,,,,,,,,,,,,,,,
589403,1,840,178,1,28,,8,21,,,16,14,21,51,,1,9,,,1,4,,,,,,1,,1,,,,,,1,,,,,,,
589420,1,412,132,1,13,4,,21,1,,5,10,11,37,1,1,17,,,,,,3,,,,,1,,,,,4,1,,,,1,,,,
589438,1,272,75,,5,2,3,5,1,,15,15,3,13,,2,5,,,,3,1,,,,,,,2,,,,,,,,,,,,,
589446,1,613,128,,2,,6,13,,,9,9,26,27,,,31,,,,,1,3,,,,,,,,,,1,,,,,,,,,
589454,1,445,104,,11,,3,17,2,,4,8,22,25,,1,4,,,,,,,,,4,,,1,,,,,,,,2,,,,,
589462,1,420,101,,8,3,6,11,2,,7,11,12,23,,,11,,,,1,2,,,,1,,,,1,,,1,,,,,,1,,,
589489,1,380,81,,4,2,2,7,,,4,12,7,22,3,1,12,,,,1,,,,,,,,,,,,,2,,2,,,,,,
589497,1,206,50,,,3,5,4,,,4,2,3,13,1,,14,,,,,,,,,1,,,,,,,,,,,,,,,,
589501,1,286,45,,2,4,2,3,,,3,4,12,11,,,2,,,,,,1,,,,,,1,,,,,,,,,,,,,
589519,2,69,13,,,,5,2,,,,1,2,2,,,1,,,,,,,,,,,,,,,,,,,,,,,,,
589519,1,654,142,,8,3,11,4,2,,,16,14,35,,,40,,2,,,,3,1,,2,,,1,,,,,,,,,,,,,
589527,2,153,20,,4,1,1,,,,2,1,1,4,,2,,,,,1,3,,,,,,,,,,,,,,,,,,,,
589527,1,165,37,,,,1,,,,,3,9,13,1,,9,,,,,,,,,,,,,,,,,1,,,,,,,,
589535,1,165,39,,5,2,,2,,,3,5,8,10,,1,2,,,,1,,,,,,,,,,,,,,,,,,,,,
589543,1,620,165,1,25,6,10,16,3,,8,16,20,31,3,1,16,,1,,1,,1,,,,1,,,,,,,3,1,,,1,,,,
589560,2,72,16,1,1,,,6,,,,2,2,2,1,,,,1,,,,,,,,,,,,,,,,,,,,,,,
589560,1,361,77,,6,1,9,8,1,,2,10,5,15,1,,14,,,,,,,,,3,,,,1,,,,1,,,,,,,,
589578,1,381,117,1,17,,3,22,1,,10,10,9,24,,1,8,,,,1,,2,2,,1,,,,,,,,1,1,,,2,1,,,
589586,1,237,70,2,3,1,3,4,1,,2,3,11,18,,3,16,1,,,1,,,,,1,,,,,,,,,,,,,,,,
589594,1,294,62,,3,1,1,7,,,3,5,8,8,3,2,15,,,,,1,1,,,1,1,,,,,,1,1,,,,,,,,
589608,1,676,135,,7,3,3,24,,,5,13,17,35,,,16,,,,2,1,2,,1,,,,,1,,,1,4,,,,,,,,
589616,1,233,80,,5,,14,13,,,3,10,8,14,,,11,,,1,,,1,,,,,,,,,,,,,,,,,,,
589624,6,100,31,,3,3,2,5,,,1,3,6,4,,,3,,,,,,,,,,,,,,,,,,,,,,,,,1
589624,5,116,39,,2,2,2,8,,,2,4,6,5,,,2,,,,5,,,,,,,,,,,,,1,,,,,,,,
589624,4,148,47,,2,,2,10,1,,3,3,4,7,2,,7,,,,1,,2,,,1,,,2,,,,,,,,,,,,,
589624,3,127,43,,3,1,,2,1,,1,4,9,14,,,8,,,,,,,,,,,,,,,,,,,,,,,,,
589624,2,863,226,,27,1,10,29,2,,20,20,6,46,,1,52,1,,,3,,7,,,,,,,,,,,1,,,,,,,,
589624,1,920,237,2,24,2,12,29,1,,16,16,45,43,,1,38,,,,1,,3,3,,,,,1,,,,,,,,,,,,,
589632,2,962,249,,37,1,17,15,1,,16,25,39,50,1,1,29,,,,2,2,3,,,2,,,,,1,1,,4,,,1,,,,1,
589632,1,1353,284,,25,7,16,16,4,,19,36,25,80,1,4,29,1,1,,3,1,8,,1,3,,,,,,,1,1,2,,,,,,,
589641,1,232,71,,2,,5,12,,,3,2,6,19,1,,13,,,,,1,1,,2,2,,,,,,,,,2,,,,,,,
589659,1,1306,286,1,38,4,10,21,4,,31,33,25,71,,1,29,,2,1,3,,5,,3,2,,,,,,,,1,,,,,1,,,
589667,1,480,112,,6,3,6,11,2,,9,19,18,20,,1,9,1,,,,,3,1,1,,,,,,,,,2,,,,,,,,
589675,2,77,29,,2,,2,3,,,,1,4,7,,,6,,,,,,1,,,,,,,,,,1,,,,2,,,,,
589675,1,414,133,,12,3,3,7,,,10,13,12,26,,,45,,,,,,,,,,,,1,,,,,,,,1,,,,,
589683,1,315,76,,14,,2,,,,6,9,5,28,,1,8,,,1,,,,,,,1,,,,1,,,,,,,,,,,
589691,3,83,37,,7,,,2,,,4,,6,7,,,9,,,,,,,,2,,,,,,,,,,,,,,,,,
589691,2,157,67,,2,1,5,10,1,,1,8,1,14,1,,21,,,,,1,,,,,,,,,,,,,1,,,,,,,
589691,1,361,110,,16,1,8,2,1,,6,12,2,33,,,24,,,1,,,2,,,,,,1,,,,1,,,,,,,,,
589705,4,118,23,,1,,,2,,,1,3,1,2,,1,11,,,,,1,,,,,,,,,,,,,,,,,,,,
589705,3,65,21,,,,,4,,,,3,2,7,2,,,,,,,,,,,1,,,,,,,2,,,,,,,,,
589705,2,70,25,,,4,4,1,,,,3,5,6,,,2,,,,,,,,,,,,,,,,,,,,,,,,,
589705,1,220,38,,4,,7,3,,,5,2,2,8,,,3,,,,,,,,1,,,,,,,,,2,,1,,,,,,
589713,1,302,111,,15,1,3,8,4,,8,8,11,20,2,,21,2,,,1,,3,,,,,,,,,,4,,,,,,,,,
589721,1,421,105,,2,3,12,16,4,,11,8,15,23,1,,4,,1,,1,,2,1,,,,,,1,,,,,,,,,,,,
589730,1,1274,327,,41,5,7,27,3,,21,38,47,89,,1,28,,,,2,,5,3,1,2,,,1,,,,2,1,1,,,,1,,,1
589748,3,146,41,,2,,2,7,,,1,7,10,8,,,,,,,1,1,,,,,,,,,,1,,,,,1,,,,,
589748,2,103,38,,3,,4,10,,,,7,2,10,,,1,,,,,,,,,,,,,,,,,,1,,,,,,,
589748,1,315,68,,8,1,2,9,1,,2,7,10,15,,1,10,,2,,,,,,,,,,,,,,,,,,,,,,,
589756,2,940,198,,36,5,20,15,2,,10,17,20,37,,,31,,,,,,1,,1,,,1,,,,,,2,,,,,,,,
589756,1,649,144,1,12,7,22,20,,,6,9,20,31,,1,8,,,,,,1,,,,,1,2,,,,2,,,,1,,,,,
589764,1,1147,211,1,14,2,11,18,,,28,7,28,54,5,1,27,,2,,,,5,,,3,,,,1,,,1,,,1,2,,,,,
589772,1,264,66,,5,2,5,9,,,2,3,8,18,,,8,,,,2,1,1,,,1,,,,,,,,,,,,1,,,,
589799,1,211,40,1,3,,3,11,,,1,6,4,8,,,1,,,,,,1,,,,,,,,,,1,,,,,,,,,
589802,1,378,112,2,19,3,5,3,2,,9,11,15,16,1,,24,,,,,,1,,,,,,,,,,,,1,,,,,,,
589811,1,142,62,,8,1,,2,,,2,5,1,13,,,27,,,,,,,,,3,,,,,,,,,,,,,,,,
589829,2,133,30,,2,1,2,4,,,3,2,2,12,,,,,,,,,,,,2,,,,,,,,,,,,,,,,
589829,1,1251,257,1,27,3,5,15,2,,12,40,39,64,1,,26,,,,1,,6,2,,5,,,,,,,3,,3,,2,,,,,
589837,1,281,69,,5,1,,9,,,,17,3,12,1,,15,,,,,,2,,,,,,1,,,,2,1,,,,,,,,
589845,1,1027,276,1,36,3,10,24,,,16,36,41,53,2,2,26,,,,2,1,6,2,,2,,,,,,,3,5,1,,4,,,,,
589853,1,226,58,1,6,1,3,4,,,7,2,8,10,6,1,8,,,,,,,,,,,,,1,,,,,,,,,,,,
589870,1,597,143,1,9,5,6,10,3,,3,11,15,34,1,,31,,1,,5,,2,2,,1,,,,,,,,2,,,1,,,,,
589888,1,567,151,,17,2,3,9,1,,16,11,19,24,1,1,41,,1,,1,,,,,,,,,,,,1,2,1,,,,,,,
589896,5,115,26,,5,2,2,1,,,2,,2,9,,,3,,,,,,,,,,,,,,,,,,,,,,,,,
589896,4,173,44,,9,,3,1,,,4,2,7,6,,1,7,,,1,1,,,,1,,,,,,,,,,,,,,,,,1
589896,3,229,55,,8,,8,5,,,1,4,10,7,,,7,,1,,1,,1,,,1,,,,,,,,1,,,,,,,,
589896,2,770,184,,26,1,8,23,1,,10,12,27,43,1,1,19,,,,3,,1,2,,2,,1,1,,,2,,,,,,,,,,
589896,1,638,164,,37,,7,13,4,,14,14,19,25,1,4,20,,,,,,3,,,1,,,,,,,,1,,,,1,,,,
589918,1,249,55,,10,,1,2,,,4,10,11,7,,1,4,,,,,,,,,1,,,1,,,,,1,,,,2,,,,
589926,1,818,194,1,17,2,11,17,1,,4,21,14,39,5,,55,,,,,,4,,,,,,,1,,,,1,,,,,,1,,
589934,2,109,36,,7,1,1,1,,,,2,,7,,,13,,1,,,,,,,,,,,,,,2,,,,1,,,,,
589934,1,924,232,,27,3,16,18,4,,12,18,27,51,2,3,33,1,6,,1,,3,,2,2,,,,,,,,1,,,2,,,,,
589942,2,185,46,,2,1,2,5,,,2,12,4,9,,,3,,,,5,1,,,,,,,,,,,,,,,,,,,,
589942,1,700,158,,6,3,7,14,,,9,7,15,34,,,52,,,,1,1,3,2,,,,3,,,,,,1,,,,,,,,
589951,1,162,31,,2,1,1,2,,,4,1,7,3,,,9,,,,1,,,,,,,,,,,,,,,,,,,,,
589969,1,83,25,,,2,4,2,1,,3,4,1,5,,,,,,,2,,1,,,,,,,,,,,,,,,,,,,
589977,2,82,41,,1,1,2,7,3,,,4,1,17,,,1,,,,,,2,,,,,,1,,,,1,,,,,,,,,
589977,1,416,83,,11,,4,7,1,1,4,4,9,20,1,1,16,,,,2,,,,,,,,1,,,,1,,,,,,,,,
589993,1,211,70,,3,1,,7,,,7,9,13,14,1,1,9,,,,,,2,,1,,,,,,,,,,2,,,,,,,
590002,1,273,50,,1,,3,8,,,1,1,13,10,,,9,,,,,,,,,2,,,1,1,,,,,,,,,,,,
590011,1,456,153,,20,,5,9,,,22,28,17,34,1,2,9,,,1,,,4,,,,,,,,,,1,,,,,,,,,
590029,1,1302,317,3,47,5,8,21,4,,18,34,36,83,5,1,31,,1,,1,2,8,1,3,1,,1,1,1,,,,,,,,,1,,,
590045,1,69,18,,,,1,2,,,3,1,3,6,,,1,,,,,,,,1,,,,,,,,,,,,,,,,,
590053,2,127,25,,6,1,,3,,,2,4,3,2,,2,,,,,,,1,,,,,,,,,,,,1,,,,,,,
590053,1,314,70,,6,,7,9,,,5,5,5,22,4,,4,,,,1,,1,,,,,,1,,,,,,,,,,,,,
590061,1,119,46,,5,,1,3,,,4,3,2,9,,,16,,,,2,,,1,,,,,,,,,,,,,,,,,,
590070,1,345,106,,,1,5,9,,,2,8,19,37,4,1,14,,1,,,,1,,,,,,1,,,1,,1,,,1,,,,,
590088,3,46,31,,6,,2,4,,,1,2,4,3,,,8,,,,,,,,1,,,,,,,,,,,,,,,,,
590088,2,167,63,,2,1,4,4,,,2,13,3,8,1,,24,,,,,,1,,,,,,,,,,,,,,,,,,,
590088,1,272,104,,6,1,14,7,,,2,8,6,8,1,,45,1,,,2,,,,,,,,2,,,,,,,,,,,,,1
590096,1,210,47,,10,2,2,6,,,1,2,3,8,5,1,3,,,,,,,,1,1,,,,,,,,,,,1,,,,1,
590100,1,392,102,1,3,2,4,11,,,11,6,27,21,3,,8,,,,1,,1,,,,,,,1,,,,2,,,,,,,,
590118,1,241,42,,1,,2,5,1,,3,3,7,9,,1,9,,,,,1,,,,,,,,,,,,,,,,,,,,
590126,2,559,71,2,12,,2,3,,,8,11,14,9,,,3,1,,,,,2,,1,,,,,,,,1,,2,,,,,,,
590126,1,535,99,,16,2,4,2,,,4,17,20,16,1,,14,,,,,,,,1,,,,,,,,2,,,,,,,,,
590134,1,365,97,,13,2,12,7,,,3,6,16,24,,2,7,,,,,,5,,,,,,,,,,,,,,,,,,,
590142,1,415,88,,12,,2,6,1,,7,12,13,20,1,1,12,,,,1,,,,,,,,,,,,,,,,,,,,,
590151,1,142,47,,9,1,,1,,,5,4,4,15,,,4,,1,,1,,1,,,,,,,,,,,,1,,,,,,,
590177,2,257,65,1,10,,2,4,,,6,5,11,10,,4,7,,,,2,,1,,,,,,,,,,,,,,2,,,,,
590177,1,244,83,,4,1,2,7,4,,4,8,8,26,2,1,13,,1,,,,,1,,,,,,,,,,,1,,,,,,,
590185,3,241,56,,7,4,1,6,,,3,10,7,10,1,2,4,,,,1,,,,,,,,,,,,,,,,,,,,,
590185,2,401,96,,8,1,5,20,,,6,13,8,14,,,9,,,,3,,5,,,1,,,1,,,,,1,,,,,,1,,
590185,1,692,195,,19,6,8,18,3,,15,18,18,50,1,1,17,,1,1,1,2,4,1,1,1,3,,2,,,,2,1,,,1,,,,,
590193,1,481,108,,6,3,6,10,,,7,10,21,33,,,7,1,,,1,,3,,,,,,,,,,,,,,,,,,,
590207,1,419,135,,13,9,3,12,,,7,10,6,17,,2,47,,,,,,,,2,1,,,,,1,1,,1,,,2,,,1,,
590215,1,390,99,,16,1,2,9,1,,10,14,12,17,1,,10,1,,,,,1,,,,,,,,,,,1,1,,,2,,,,
590223,1,292,75,,7,,1,2,,,3,9,16,19,1,2,10,,,,2,,,,,,,,,,,,2,,,,1,,,,,
590240,1,433,112,1,8,5,4,12,1,,7,10,16,27,,,14,,1,,2,,,,,,,,,,,1,,,2,,,,,,,1
597414,2,111,25,,,,1,4,,,2,5,8,5,,,,,,,,,,,,,,,,,,,,,,,,,,,,
597414,1,355,77,,5,,3,12,2,,2,8,16,14,2,1,6,,,,,,,,,,,,4,,,,,1,,1,,,,,,
597678,4,78,16,,,,2,2,,,,1,7,4,,,,,,,,,,,,,,,,,,,,,,,,,,,,
597678,3,855,169,2,22,4,7,18,,,4,20,18,59,,,4,1,,,2,1,2,,1,2,,,,,,,,1,,,,1,,,,
597678,2,864,150,1,15,5,9,24,1,,4,13,21,41,,2,3,,,,,,1,,,3,,,,1,,,,5,1,,,,,,,
597678,1,463,78,,8,1,4,10,,,4,15,14,15,2,,1,,,,1,,,,,1,,,,,,,,1,,1,,,,,,
597678,6,32,9,,1,,,1,,,,,1,4,,,,,,,1,,,,,1,,,,,,,,,,,,,,,,
597678,5,92,8,,2,,,1,,,,1,1,1,,,2,,,,,,,,,,,,,,,,,,,,,,,,,
597686,2,114,21,2,3,1,3,,3,,,1,1,6,,1,,,,,,,,,,,,,,,,,,,,,,,,,,
597686,1,118,37,,1,1,1,4,1,,3,3,7,11,,,4,,,,,,,,,,,,,,,,,,,,1,,,,,
597996,3,698,139,1,11,3,14,17,1,1,6,10,19,37,,,8,,,,1,,5,,,1,,,,,1,,1,1,,,,,,1,,
597996,2,689,130,1,18,2,12,13,4,,4,14,18,30,2,,3,2,,,1,,1,1,,1,,,,,,,2,,,1,,,,,,
597996,1,895,119,1,10,7,7,18,3,,3,10,15,28,1,1,3,,1,,1,,5,,2,,,,,1,,,,2,,,,,,,,
597996,7,96,52,,11,,,3,,,4,7,6,10,,,8,,1,,,,2,,,,,,,,,,,,,,,,,,,
597996,6,33,13,,1,1,3,,,,1,4,1,2,,,,,,,,,,,,,,,,,,,,,,,,,,,,
597996,5,245,61,,6,4,2,5,,,5,3,9,23,,,1,,2,,,,1,,,,,,,,,,,,,,,,,,,
597996,4,553,114,,8,2,9,8,1,1,8,9,16,34,,,12,,,1,1,,3,,,,,,,,,,1,,,,,,,,,
