OBEC,OKRSEK,VOLICI,HLASY,HLASY_53,HLASY_1206,HLASY_7,HLASY_794,HLASY_47,HLASY_1438,HLASY_1440,HLASY_659,HLASY_720,HLASY_1114,HLASY_768,HLASY_1,HLASY_600,HLASY_1125,HLASY_1119,HLASY_1390,HLASY_1200,HLASY_785,HLASY_1190,HLASY_1220,HLASY_40,HLASY_1219,HLASY_1177,HLASY_1439,HLASY_1218,HLASY_715,HLASY_1178,HLASY_1223,HLASY_762,HLASY_98,HLASY_764,HLASY_1222,HLASY_1224,HLASY_1052,HLASY_1209,HLASY_759,HLASY_123,HLASY_1179,HLASY_83
500194,1,157,36,2,1,3,6,2,1,1,2,1,9,6,2,,,,,,,,,,,,,,,,,,,,,,,,,,,
507610,1,69,32,11,,,,,,,4,2,,11,3,1,,,,,,,,,,,,,,,,,,,,,,,,,,
507628,1,153,43,8,,3,,5,,1,6,3,4,8,5,,,,,,,,,,,,,,,,,,,,,,,,,,,
507644,1,60,33,,,1,,1,1,2,4,4,2,15,2,,1,,,,,,,,,,,,,,,,,,,,,,,,,
507652,1,64,24,1,1,1,,,,,,5,1,8,1,1,,4,1,,,,,,,,,,,,,,,,,,,,,,,
507695,1,97,27,3,,1,,5,,,3,5,1,6,3,,,,,,,,,,,,,,,,,,,,,,,,,,,
507717,1,364,71,4,1,1,,5,1,2,2,15,11,12,8,,,3,,2,1,1,2,,,,,,,,,,,,,,,,,,,
507733,1,114,44,5,3,3,,3,2,,3,4,,13,8,,,,,,,,,,,,,,,,,,,,,,,,,,,
507784,1,162,56,7,1,5,,5,,,6,6,7,14,1,,,,,1,,,1,1,1,,,,,,,,,,,,,,,,,
508004,1,170,63,1,1,6,,3,,,11,11,3,14,6,1,,,1,,1,,3,,,1,,,,,,,,,,,,,,,,
508152,1,481,111,5,2,8,,8,3,3,3,20,10,29,6,,1,,,2,2,,2,,,3,1,2,1,,,,,,,,,,,,,
508357,1,141,46,5,2,6,,2,,1,2,3,2,12,9,,1,,,,,1,,,,,,,,,,,,,,,,,,,,
508501,1,347,109,21,4,3,,7,2,,17,17,6,19,5,,1,1,1,1,,,,,1,,,,,1,1,1,,,,,,,,,,
508683,1,66,24,2,,,,1,,,6,5,3,3,2,,,1,,,,,,,,,,,,1,,,,,,,,,,,,
509078,1,380,125,14,2,12,,5,,1,16,26,18,20,1,,1,,1,1,,,1,,2,1,,1,,,1,,1,,,,,,,,,
509108,1,250,96,18,2,2,,11,,,4,28,8,16,2,,1,,,,1,,1,,,,,1,,,,,1,,,,,,,,,
509116,1,169,65,,2,6,,4,,,1,13,7,12,14,,1,,,1,,2,,,,,,,,1,,,,1,,,,,,,,
509141,1,271,90,14,3,2,,5,1,1,1,11,23,18,1,3,,,,2,2,,,,,,,1,,,,,,,1,1,,,,,,
509191,1,164,48,9,3,2,,2,1,,4,9,8,10,,,,,,,,,,,,,,,,,,,,,,,,,,,,
509621,3,94,36,1,,1,,2,,,8,6,1,11,3,,,,,,,,1,,,,,,1,,,,,,,,1,,,,,
509621,2,77,34,5,6,,,3,,,1,5,7,3,,,,,,,,,3,,,1,,,,,,,,,,,,,,,,
509621,1,277,79,6,3,3,,9,3,2,7,17,5,12,2,,1,,,,,,3,,2,,,,1,1,,,,,2,,,,,,,
509752,1,84,41,11,,3,,1,1,,3,8,2,2,5,2,,,,2,,,,1,,,,,,,,,,,,,,,,,,
510068,1,155,46,6,,,,,1,1,5,8,5,4,6,,,,,1,,,2,,2,1,,,,,,,,,,,,4,,,,
513661,1,323,74,,2,3,,6,,,1,23,1,18,13,,,1,,1,,,2,1,1,,,,,,,,1,,,,,,,,,
529729,1,96,40,5,,,,3,4,,2,11,4,5,3,,,,,,1,,,1,,,,,,,,,,,,,1,,,,,
529753,1,61,18,,,,,3,1,,1,3,4,4,,,,1,,,,,,,,,,,,,,,,,,,1,,,,,
529761,1,84,35,3,,2,,2,,,,5,4,9,5,,,1,,,,,2,,,1,,,,1,,,,,,,,,,,,
529877,1,60,24,3,,,,4,2,,,2,6,4,,,,,,1,1,,,,,,,,,,,1,,,,,,,,,,
529885,1,75,30,4,,1,,9,,,,4,3,2,6,,1,,,,,,,,,,,,,,,,,,,,,,,,,
529893,1,76,31,6,2,3,,2,,,1,1,5,9,2,,,,,,,,,,,,,,,,,,,,,,,,,,,
529915,1,53,17,1,,,,3,1,,1,4,3,4,,,,,,,,,,,,,,,,,,,,,,,,,,,,
529923,1,97,39,5,2,2,,5,,,,5,13,2,4,,,,,,,,,,,,,,1,,,,,,,,,,,,,
529966,1,132,43,3,4,2,,4,,,3,10,4,4,3,,,,,,1,,2,,,,,,,1,,,,,1,,,,1,,,
529982,1,152,45,4,2,2,,5,,1,3,6,5,5,3,,,,,1,,,2,1,,,,,2,2,,,1,,,,,,,,,
530018,1,59,27,1,,5,,,1,,1,8,,5,2,1,,1,,,,,,,,,,,,1,,,1,,,,,,,,,
530034,1,289,77,8,,3,,8,,,6,22,4,17,1,1,,,2,,,,2,,1,2,,,,,,,,,,,,,,,,
530042,1,63,27,3,,2,,5,,,8,,2,5,1,,,,,,,,,,,,,,,,,,,,,,1,,,,,
535176,1,205,76,18,,3,,4,,,9,6,9,20,3,,,,,1,,,,,,2,,,,,,,,,,,1,,,,,
535206,2,1153,315,50,5,10,,19,2,1,60,47,24,53,13,,,,5,5,,,9,3,2,1,,,,1,,,,,,,1,,3,1,,
535206,1,941,322,54,10,11,,22,,,51,43,26,60,21,,,,,,,,10,,,2,,,,1,,,3,2,,,6,,,,,
535231,1,136,58,14,,,,1,,,9,6,,24,4,,,,,,,,,,,,,,,,,,,,,,,,,,,
535249,1,254,79,16,1,2,,5,2,,17,7,7,12,4,,,,,,,,4,,2,,,,,,,,,,,,,,,,,
535281,1,239,69,3,1,3,,3,,,16,14,3,19,5,,,,,,,,,1,,,,,1,,,,,,,,,,,,,
535346,1,350,107,21,1,5,,5,,1,20,16,5,16,10,,,,,3,,,3,,,,,,1,,,,,,,,,,,,,
535371,1,175,47,4,,1,,10,1,,,10,7,7,1,1,,,,,,,1,,,3,,,,,,,,,1,,,,,,,
535401,1,169,58,13,2,2,,4,6,,4,10,2,12,2,1,,,,,,,,,,,,,,,,,,,,,,,,,,
535435,1,293,79,16,4,4,,1,1,,6,8,3,15,8,,,2,2,1,1,,1,,,,,,1,3,,,,,1,,,,1,,,
535460,1,77,44,,1,1,,2,,,13,4,,6,10,,,,,1,1,,4,,,,,,,,,,,,1,,,,,,,
535494,1,375,107,19,2,3,,5,,1,13,14,11,28,9,,,,,,,,1,,,,,,,,,,,,,1,,,,,,
535524,1,136,47,4,,1,2,4,,1,1,14,4,5,8,1,,,,,,,,,,,,,2,,,,,,,,,,,,,
535541,1,225,93,12,2,,,8,1,,25,15,6,14,5,,,,,1,,,1,,2,,,,,,,,,,,,1,,,,,
535575,1,79,53,9,2,2,,,,,7,13,2,14,1,,,,,,1,,,,,,,,,1,,,,,,,1,,,,,
535591,1,212,76,16,1,2,,7,,,9,5,11,7,12,,,,1,,1,,1,,1,,,,1,1,,,,,,,,,,,,
535613,1,104,45,9,6,1,,1,2,,4,1,2,10,1,,1,,,,1,,2,,1,,,,2,,,,,,,1,,,,,,
535648,1,573,189,24,1,4,,10,2,,31,26,19,51,2,,,,1,,,,10,,1,,,,2,,,1,,,,,1,2,,,1,
535664,1,243,105,11,1,2,,7,1,4,14,23,6,21,7,1,,,1,,1,,1,1,1,,,,1,,,,,,,,1,,,,,
535681,1,107,43,4,,,,1,,1,7,19,1,5,,,2,,,,,,,,,,,,2,,,,,,1,,,,,,,
535699,1,237,69,5,2,,,3,,,8,12,11,13,10,,,2,,,,,,,1,,,1,1,,,,,,,,,,,,,
535737,1,460,172,23,1,4,,5,3,3,26,22,7,46,10,,1,,1,1,1,,6,1,,,,,3,1,,,3,,,2,,1,,1,,
535753,1,458,127,18,,1,,10,,1,30,21,7,17,8,1,,4,,2,1,,1,,,1,,,2,1,,,1,,,,,,,,,
535761,1,278,86,14,,,,7,,,14,10,11,15,2,1,,,1,,,,4,,1,,,,1,1,,2,,,,,2,,,,,
535788,1,332,122,26,,6,,9,,,10,7,30,19,8,,3,,,,,,,,,2,,,,1,,,,,,,1,,,,,
535796,1,313,87,16,2,1,,2,,2,7,16,9,23,2,,,,,1,,,3,,,2,,,,1,,,,,,,,,,,,
535800,1,414,125,20,2,4,,3,4,1,23,23,8,16,4,1,,,,,1,,5,,2,,,,1,1,,,,,,,6,,,,,
535826,1,718,215,39,,9,,21,,1,15,32,15,51,13,,,1,2,2,,,6,,1,2,,,,1,,,,,,,,1,,,,3
535842,1,87,48,7,3,2,,4,1,,5,6,6,8,3,,1,,,,,,,,,,,,,,,,2,,,,,,,,,
535851,1,125,44,6,,1,,2,,,5,9,2,3,10,,,,2,,,,3,,,,,,1,,,,,,,,,,,,,
535877,1,272,95,14,1,3,,13,,,8,9,10,14,14,,,,1,,,1,,,1,3,,1,,1,,,1,,,,,,,,,
535893,1,347,114,14,1,6,,5,4,,10,17,9,20,13,1,,,,5,,,7,,,1,,,,1,,,,,,,,,,,,
535907,1,195,83,,2,1,,1,2,,8,14,6,17,22,,,,,,,,2,,,,,,1,6,,,1,,,,,,,,,
535915,1,38,23,,,,,2,2,,1,2,1,4,1,,,,,2,,,2,,,2,,,,,,,1,,,,3,,,,,
535940,1,171,52,3,2,4,,1,,,1,5,12,16,7,,,,,,,,,,,,,,1,,,,,,,,,,,,,
535958,1,261,106,7,4,5,,5,,2,12,16,14,22,14,,,,,,1,,,,,,,,1,,,,1,,,,,,,,2,
535982,1,241,43,2,4,3,,6,,,2,6,4,9,2,,1,,,,,,,,,,,,,1,,,,,,,1,,,,2,
535991,2,204,57,3,3,1,1,7,,1,10,11,4,7,2,,,,,,,,3,,1,,,,,1,,,,,1,,,,,,1,
535991,1,312,82,11,3,3,,,,1,18,10,12,13,4,,,,2,,,,1,,1,,,,,1,,,,,,,,1,1,,,
536016,1,385,114,18,3,4,,16,,,5,22,6,27,6,2,,,,3,,,1,,,,,,1,,,,,,,,,,,,,
536032,1,52,22,4,1,1,,1,,,,,2,10,,1,,,1,,,,,,,,,,,,,,,1,,,,,,,,
536059,1,129,51,15,,1,,,,1,10,3,8,10,2,,,,,,,,,,,,,,,1,,,,,,,,,,,,
536075,1,143,35,3,,3,,4,1,,4,3,3,,10,,,,,,,,,,1,,,,,,1,,,,1,,,1,,,,
536105,1,93,41,12,1,1,,4,,,2,5,3,6,2,,,,,,,,2,,2,,,,,1,,,,,,,,,,,,
536156,1,87,30,4,,,,1,,,2,6,3,8,4,,,,,,,,,1,,,,,,,,,1,,,,,,,,,
536199,1,98,32,4,,,,6,1,,1,8,2,7,,,,,,,,,,,,,,,,2,,,1,,,,,,,,,
536229,1,72,40,6,,,,,,,3,11,2,5,11,,,,,,,,,1,,,,,,,,,,,,,,,,,,1
536237,1,77,26,,2,,,1,,,1,4,1,4,10,,,,,,,,1,,2,,,,,,,,,,,,,,,,,
536245,1,258,83,24,1,2,,5,3,,4,12,4,21,1,,,,,,,,2,,3,,,,,,,,,,,,,1,,,,
536253,1,249,54,8,9,,,2,1,1,1,6,7,12,1,2,2,,,,1,,,,,,,,1,,,,,,,,,,,,,
536296,1,146,36,7,1,3,,,,,,7,1,15,,,,,,,,,,,,,,,,,,,,,1,,1,,,,,
536300,1,116,49,2,2,,,1,,,5,2,,8,27,,,,,,,,,,,,,,,,,,2,,,,,,,,,
536342,1,83,25,1,,3,,2,,,3,,4,6,3,,,,,,,,2,,,,,,,,,,,,,,,,,,1,
536369,1,60,33,5,1,,,1,,,2,3,1,9,9,,,,,,,,,,,,,,,,,,,,,1,,,,,,1
536415,1,36,16,3,,1,,1,,,3,3,,4,,,,,,,,,,,,,,,,1,,,,,,,,,,,,
536423,1,35,18,,3,,,1,,,,4,3,1,2,1,2,,,1,,,,,,,,,,,,,,,,,,,,,,
536466,1,247,44,2,2,5,,5,,,6,8,2,8,1,,,,,,,,2,,,,,,1,,,,1,,,,,,,,1,
536474,1,90,38,5,,3,,2,1,,2,7,7,8,2,,,,,,,,1,,,,,,,,,,,,,,,,,,,
536482,1,57,13,1,,,,2,,,2,2,3,3,,,,,,,,,,,,,,,,,,,,,,,,,,,,
536504,1,50,17,8,,,,,,,2,1,,3,3,,,,,,,,,,,,,,,,,,,,,,,,,,,
536512,1,154,28,2,,4,,1,,,1,3,4,7,4,,,,,1,,,,,,,,,,,1,,,,,,,,,,,
536539,1,63,31,5,,,,,,,6,,7,6,3,,,,,,,,1,,,,,,1,,,,,1,,,1,,,,,
536547,1,100,34,4,,1,,7,,,9,2,2,4,3,,,,,,,,1,,,1,,,,,,,,,,,,,,,,
536555,1,113,42,8,1,4,,2,,,5,,3,13,5,,,,,,,,1,,,,,,,,,,,,,,,,,,,
536563,1,184,63,1,3,1,,5,,,9,10,13,13,5,,,,,,,,,,,1,,,,,,,1,1,,,,,,,,
536598,1,198,72,6,1,1,1,4,1,,5,15,10,12,4,,,2,,1,,,5,1,,,,,,,,,,,,,,1,2,,,
536601,1,131,45,5,1,3,,4,1,,2,3,3,14,7,,,,,,,,,1,,,,,,,,,,,,,,1,,,,
536628,1,80,39,2,1,3,,12,,1,,3,2,6,6,,,,,1,,,,,,,,,,,,,,,,,1,,,,,1
536644,1,126,32,3,,5,,1,1,,,2,4,7,3,1,,1,,,,,,,,,,,,1,,,,,2,1,,,,,,
536679,1,62,27,4,,2,,,,,,1,4,6,7,,,,,1,,,2,,,,,,,,,,,,,,,,,,,
536695,1,82,29,5,,,,3,,,1,5,1,9,3,1,,,,,,,,,,,,,,,,,,,,,,,,,1,
536725,1,86,41,6,2,1,,3,,,4,4,9,4,2,,,1,,1,1,,,,,,,,,,,,,1,2,,,,,,,
536741,1,135,49,7,,2,,3,,,7,6,5,12,5,,,,,,,,,,,,,,1,1,,,,,,,,,,,,
536750,1,92,35,3,1,,,7,2,,1,10,4,4,1,,,,,,,,2,,,,,,,,,,,,,,,,,,,
536776,1,123,45,5,,2,,2,,,6,2,12,14,2,,,,,,,,,,,,,,,,,,,,,,,,,,,
536784,1,103,36,7,,6,1,2,,,5,3,1,8,,,,,,,1,,1,,,,,,,,,,,,,,1,,,,,
536792,1,64,25,6,,,,2,,,2,2,4,8,,,1,,,,,,,,,,,,,,,,,,,,,,,,,
536806,1,136,30,3,2,3,,5,,,,3,,10,3,,,,,,,,,,1,,,,,,,,,,,,,,,,,
536822,1,97,19,1,1,1,,2,,,3,3,,6,,,,,,,1,,1,,,,,,,,,,,,,,,,,,,
536831,1,73,24,4,,2,,3,,,1,3,2,6,1,,1,,,,,,,,,,,,,,,,,,,,,1,,,,
536849,1,342,97,20,,2,,2,,,15,10,3,26,6,,,,,2,2,,6,,,,,,1,,,1,,,,,1,,,,,
536865,1,195,74,20,,5,,8,1,,10,9,4,10,2,2,,,,,,,,,,,,,,1,,,,,1,1,,,,,,
536873,1,53,19,4,,,,1,,,,3,6,2,1,,,,,,,,,,,,,,2,,,,,,,,,,,,,
536881,1,267,111,12,,3,,2,,,22,28,5,29,7,,,,,,,,3,,,,,,,,,,,,,,,,,,,
536890,1,105,28,1,,3,,4,1,,1,4,4,6,2,,,,,,,,1,,,,,,1,,,,,,,,,,,,,
536903,1,40,19,,,10,,2,1,,3,,2,1,,,,,,,,,,,,,,,,,,,,,,,,,,,,
536911,1,62,23,1,,2,,5,1,1,1,3,,7,,,,,1,,,,,,,,,,,1,,,,,,,,,,,,
536920,1,184,55,4,3,1,,2,2,,5,7,5,20,,,,,,,,,1,,,,,,,,,3,1,,,,1,,,,,
536946,1,74,29,3,,,,1,2,,,,1,4,18,,,,,,,,,,,,,,,,,,,,,,,,,,,
536954,1,58,20,2,,1,,1,,,,1,6,4,3,,,,,,,,2,,,,,,,,,,,,,,,,,,,
536962,1,172,52,8,,1,,2,,1,11,12,8,1,7,,,,1,,,,,,,,,,,,,,,,,,,,,,,
537063,1,47,29,4,,3,,,,,3,13,,3,,,,,,1,,,2,,,,,,,,,,,,,,,,,,,
537071,1,158,50,6,3,4,,6,,1,1,3,6,16,,,,,,2,1,,,,,,,1,,,,,,,,,,,,,,
537136,1,44,19,3,,,,,1,,3,5,1,4,1,,,,,,,,,,,,,,,,,,,,1,,,,,,,
537144,1,76,30,5,2,,,1,1,,3,3,7,,7,,,,,,,,,,,,,,1,,,,,,,,,,,,,
537187,1,82,32,1,,,,1,,,2,7,4,14,1,,,,,,,,,,,,,,1,,,,,,1,,,,,,,
537195,1,59,23,4,,1,,1,,2,1,3,,6,1,,,,,,,,1,,,,,,2,,,,1,,,,,,,,,
537209,1,250,77,10,2,2,,6,2,,8,9,2,19,9,2,,1,1,,2,,,,,,,,,2,,,,,,,,,,,,
537241,1,94,28,3,1,2,,4,,,,7,,5,,,,,3,,,,1,,,,,,,1,,,,,,1,,,,,,
537322,1,39,10,2,3,1,,,,,,2,1,,,,,,,,,,1,,,,,,,,,,,,,,,,,,,
537365,1,44,16,2,,,,,,,2,3,5,2,2,,,,,,,,,,,,,,,,,,,,,,,,,,,
537381,1,130,56,2,2,1,,2,5,2,4,7,10,14,4,,,,,,,,,,,,,,,2,,,,,,,1,,,,,
537420,1,136,16,3,,2,,1,,,1,2,,4,2,,,,,,,,,,,,,,,,,,,,,,,,,,1,
537519,1,234,87,14,,8,,18,5,,10,9,8,11,4,,,,,,,,,,,,,,,,,,,,,,,,,,,
537527,1,38,15,6,,2,,1,1,,1,1,1,2,,,,,,,,,,,,,,,,,,,,,,,,,,,,
537535,1,67,22,1,2,,,2,,,1,8,,5,2,,,,,,,,,1,,,,,,,,,,,,,,,,,,
537543,1,105,31,4,,2,,2,,1,1,1,6,10,1,,,,,,,1,,,,,,,,,,,,,,,2,,,,,
544256,86,936,384,75,2,7,,24,3,3,62,51,20,85,22,,1,,,2,1,,11,1,2,3,,,4,1,,,,,,,1,1,,,2,
544256,85,724,208,17,1,6,,17,1,1,21,25,21,81,12,,,,,,,,3,,,,,,,,,,1,,,,1,,,,,
544256,82,1232,463,84,4,12,2,17,7,1,79,57,22,97,39,,1,,,6,1,,14,,10,,,,2,1,1,,,2,1,,,2,,,1,
544256,81,848,281,31,4,11,,16,,4,39,41,26,66,22,,,,,5,,,11,,,1,1,,1,1,,,1,,,,,,,,,
544256,80,675,227,33,4,7,,14,,3,28,34,23,56,12,,,1,1,3,,,1,,,1,,,,2,,,1,,,,2,1,,,,
544256,88,829,337,70,4,4,,9,4,2,60,55,17,59,25,,,,4,7,1,,5,,5,1,,,,4,,,,,,,1,,,,,
544256,87,701,256,45,3,10,,15,,1,32,30,23,53,31,,,,,1,,,9,,,,,,,,,1,,1,,,1,,,,,
544256,84,915,253,33,2,10,,9,1,2,33,35,40,56,16,,,,1,2,1,,6,1,,1,,1,2,,,,,,,,1,,,,,
544256,83,512,159,17,5,4,,21,,1,19,12,15,33,16,1,1,,,,,,4,,1,,1,,2,,1,,,,,2,,1,,,2,
544256,90,326,103,19,3,3,,8,1,1,10,13,10,24,3,,,,2,,1,,,,2,,,,1,1,,,,,,,,1,,,,
544256,89,1002,325,51,3,13,,25,1,3,31,55,20,70,18,1,,1,7,3,3,,8,1,2,1,,,2,1,,,1,,,1,1,,1,,1,
544256,76,736,252,46,7,4,,4,1,5,45,33,22,52,18,,,,2,1,,,7,1,1,,,,3,,,,,,,,,,,,,
544256,75,693,212,42,2,9,,14,,3,26,31,16,44,11,,,,,2,1,,5,,1,1,,1,2,,,,,,,,1,,,,,
544256,74,991,345,45,5,11,,22,5,5,54,67,18,65,16,1,,1,,6,,,10,1,4,4,,,1,,,,1,,,,1,1,,,1,
544256,79,1423,507,122,6,15,,15,2,7,81,58,37,94,22,1,1,,2,,,,25,,4,2,,,3,1,,,2,,1,,1,,3,,1,1
544256,23,1018,311,40,5,11,1,11,2,6,55,58,35,44,16,1,,,1,1,1,,14,,3,,,,1,,,2,1,,1,,1,,,,,
544256,2,721,248,50,1,2,,4,5,,62,47,21,19,16,,,,,4,,,10,,4,,1,,2,,,,,,,,,,,,,
544256,22,785,226,45,4,3,,6,3,2,27,24,22,30,28,,,1,2,2,1,,9,,4,2,,,4,1,,,2,1,,,2,,,,1,
544256,21,804,239,34,1,9,,14,2,1,28,37,19,55,15,3,,,1,6,,,5,,2,,,,2,,,1,,,,,3,1,,,,
544256,20,576,182,28,,3,,16,,1,18,26,19,41,13,,,,,1,,,4,,1,1,,,1,1,,,,1,,2,3,1,,,1,
544256,1,3806,306,58,7,3,,14,,7,43,63,29,45,13,,,,1,2,,,7,,3,,2,,1,1,,1,1,,,1,1,,,,2,1
544256,73,525,189,24,3,4,,12,1,2,29,27,11,42,19,1,,,,,,,2,,3,2,,,2,1,,1,,,,,1,,,,2,
544256,72,726,255,36,4,3,,22,4,1,23,32,22,53,27,,,1,1,1,,,12,,1,6,1,,2,2,,,1,,,,,,,,,
544256,71,784,298,48,3,4,,9,3,5,65,46,32,34,25,,,,1,5,1,,5,2,2,,,,2,2,,1,2,,,,,,,,1,
544256,19,647,225,35,,6,,11,1,,46,30,16,48,11,,,,,1,1,,8,,2,3,,,,,,,,1,,1,1,2,,,1,
544256,18,873,298,60,2,9,,10,3,4,49,71,29,30,18,,1,,,1,1,,6,,1,1,,,1,1,,,,,,,,,,,,
544256,17,1080,315,54,2,5,,10,3,4,43,54,24,59,30,,,,2,1,,,7,,3,1,,,3,3,,,,,,,5,,2,,,
544256,16,735,217,24,2,1,,23,1,2,33,38,16,47,11,,,,1,4,,,7,,1,,,,1,1,,,2,,,,1,1,,,,
544256,15,288,85,13,,3,,10,,,12,16,10,10,5,,,,,,1,,1,,,,,,1,2,,,,,,,,,,,1,
544256,14,955,276,47,4,11,,17,,1,33,51,20,52,18,1,,,,3,,1,5,,1,2,1,,3,2,,,,1,,,2,,,,,
544256,13,623,173,16,5,9,,16,2,,14,21,15,55,7,,,,,1,1,,5,,1,1,,,1,1,,,1,,,,1,,,,,
544256,12,727,205,31,4,10,,24,,1,26,21,23,41,7,,,,2,1,1,,2,1,,1,,,2,1,,,1,1,,,,,3,,1,
544256,11,776,241,40,4,9,,16,1,2,33,30,22,55,9,1,,,2,3,,,10,,1,,,,,2,,,,,,,,,,,1,
544256,10,572,138,13,1,1,,15,1,,11,20,13,38,5,,1,2,1,1,1,,4,1,,1,,,2,2,,,2,,,,,,,,2,
544256,9,734,234,34,3,9,,21,,2,35,41,14,43,10,1,1,,,1,1,,6,,4,,,,,,,,2,,1,,3,,1,,1,
544256,8,732,252,31,4,13,1,22,1,1,17,38,18,69,23,,,,,4,,,5,,,2,,,1,1,,,,,,,1,,,,,
544256,7,663,207,35,2,6,,16,1,,31,27,12,52,10,1,,,1,3,3,,3,,,,,,,2,,,,,,,2,,,,,
544256,6,769,243,25,2,18,,24,3,4,31,32,17,50,19,,,,,,,,7,,3,2,,,4,,,,1,,,,1,,,,,
544256,5,730,211,28,1,7,,16,3,2,28,26,22,45,11,,,1,,3,,,9,,,1,,,3,2,,,,,,1,1,,,,1,
544256,4,593,187,19,3,10,,21,1,1,22,22,15,33,20,,,1,2,1,1,,,,2,4,,,3,,,,1,,,1,1,,,,3,
544256,3,768,232,41,3,6,,9,1,,28,32,26,56,16,1,,,1,3,,,5,,,1,1,,1,,,,,,,,1,,,,,
544256,38,670,199,19,3,3,,21,2,,24,28,23,49,5,,,,,2,2,,13,,,1,,,2,,,,,,,,1,,,,1,
544256,37,677,183,21,3,3,,17,4,1,15,25,34,45,7,,,1,,2,,,2,,1,,,,1,,,,1,,,,,,,,,
544256,36,796,202,24,2,9,,14,1,4,15,22,25,66,10,,,,,,1,,3,,3,,,,,1,,,,,,,2,,,,,
544256,35,833,205,25,,7,,30,3,1,23,27,21,54,2,,,1,1,1,,,3,,1,1,1,,,2,,,,,,,1,,,,,
544256,34,700,218,30,10,2,,16,2,,33,17,22,48,18,1,,1,,4,,,8,,1,2,,,,,,,,,,,1,1,,1,,
544256,70,725,250,53,3,7,1,8,,2,31,41,18,55,14,,,,,2,,,8,,2,,,,2,,,,1,,,,2,,,,,
544256,69,646,245,37,2,8,,22,2,6,33,39,18,43,8,1,,1,1,9,2,,5,,,2,,,2,,,,,1,,,2,,,,1,
544256,68,852,335,45,3,13,,12,1,3,55,65,24,49,29,1,,,1,2,2,,17,,2,1,,,4,,,,2,,2,,1,1,,,,
544256,67,393,147,21,,5,,8,,,26,29,14,20,16,,,,1,2,,,1,,,,,,1,1,,1,,,,,1,,,,,
544256,66,680,222,29,1,12,,9,4,,32,34,19,47,16,,,,1,2,,,4,,3,,,,,1,,2,2,,,1,2,,,,,1
544256,65,671,235,43,2,6,,5,2,2,53,34,15,49,11,,,,1,2,,,6,,1,,1,,,1,,,1,,,,,,,,,
544256,64,627,172,32,1,5,,8,1,2,33,37,15,20,7,,,,2,2,,,1,,,1,,,,1,,,1,,,,3,,,,,
544256,63,634,191,31,1,2,1,11,1,1,20,38,17,30,21,,,,,4,,,3,,,2,1,,3,3,,,,,,,,,,,1,
544256,62,925,220,18,5,7,,25,3,2,23,28,29,51,6,,,,,5,2,,5,,1,,,,1,,,2,4,,,,3,,,,,
544256,61,899,185,16,2,14,,13,2,,19,37,30,23,14,,,,,6,1,,1,1,,2,,,1,,,,,,1,,2,,,,,
544256,60,961,226,28,6,9,1,12,1,3,14,39,26,47,21,1,,1,,2,2,,5,,2,,,,1,,,,,,,,1,1,,,,3
544256,59,1086,295,36,8,6,,25,3,2,24,41,38,60,21,1,1,2,4,4,,,5,,1,5,1,,2,1,,,2,,,,1,,1,,,
544256,58,1083,146,25,4,6,,8,2,,13,23,22,27,5,,1,,,2,1,,2,1,1,,,,1,,,,,1,,,1,,,,,
544256,57,998,188,12,,3,,16,1,1,17,30,36,44,10,,,1,,,,,4,1,4,2,,,2,,,,,,,,3,1,,,,
544256,56,1306,313,37,3,7,,25,3,4,31,41,40,77,17,,,,3,3,1,,7,,2,1,2,,2,2,,,2,,,,2,,1,,,
544256,55,827,180,19,5,,,19,1,,23,33,23,49,2,1,,,,,,,,,1,,,,1,2,,,,,,,1,,,,,
544256,33,883,248,29,3,9,,28,1,2,21,23,35,65,13,1,1,,,5,,,2,,,,,,3,4,,,,,,,1,1,,,1,
544256,32,1605,516,94,11,14,,25,1,1,113,89,27,84,26,,1,1,,3,3,,7,,3,2,,1,2,2,,,,,,,4,,1,,,1
544256,31,608,173,22,6,8,,11,1,1,17,17,26,35,5,,3,,1,3,2,,7,,1,2,,,1,1,,,1,1,,,,,,,1,
544256,54,1302,345,52,6,14,,16,1,3,47,51,34,67,30,1,1,,2,4,3,,5,,3,1,1,,1,,,,1,,1,,,,,,,
544256,53,1142,277,30,8,14,,20,5,1,25,43,41,53,13,,1,,1,1,2,2,3,,3,2,,,2,3,,1,1,1,,,1,,,,,
544256,52,928,268,26,7,7,,23,4,1,30,44,27,64,16,1,,,,2,2,,3,,3,2,,,1,,,,,,,1,3,1,,,,
544256,51,1042,344,62,4,7,1,15,2,,66,46,30,55,23,,,,5,1,,2,11,1,,,,,1,3,,,1,,,,5,1,,,2,
544256,50,372,126,37,2,4,,9,,,15,11,6,32,3,,,,2,2,,,1,,,1,,,,,,,,,,,,,,,1,
544256,49,794,206,14,7,2,,23,1,1,24,28,33,47,8,,1,,2,1,1,,5,,,,1,,,2,,,1,,2,,1,,,,,1
544256,48,778,176,23,3,3,,14,3,,10,26,25,48,10,,,,1,2,,,3,,,2,,,1,,,,,,,,1,,,,1,
544256,47,871,223,24,4,9,,28,1,2,31,27,18,49,14,,,,,1,1,,5,2,4,,,,1,1,,,,,,1,,,,,,
544256,46,766,214,16,5,5,,20,,1,25,19,25,66,9,,,,1,3,1,,3,1,3,1,,1,,2,,,,1,,,3,2,,,1,
544256,30,400,132,27,2,,,7,1,,16,30,8,19,11,,1,,,,1,,5,1,,1,,,1,,,,,,,,,,,,1,
544256,29,768,243,35,4,6,1,22,,3,26,33,27,64,13,1,,,,2,1,,4,,,,,,,,,,,,1,,,,,,,
544256,45,810,207,21,3,14,,25,2,,12,16,23,58,12,1,,,,1,3,,2,,,,,,2,5,,1,,,,,1,,,,5,
544256,44,793,198,19,1,9,,19,,,34,27,16,45,10,,,,,2,2,,3,,1,1,,1,,2,,,,1,1,1,1,,,,1,1
544256,43,714,212,17,1,15,,26,1,2,20,26,12,55,15,2,,,1,3,,,5,2,2,,,1,,3,,,1,1,,,,,,,1,
544256,42,740,204,24,4,10,1,30,5,1,24,18,20,47,7,,,,1,3,,,3,,2,,,,1,1,,,1,,,,,,,,1,
544256,41,745,237,20,4,7,,46,1,2,13,33,21,65,6,1,,1,,3,,,5,,1,,2,,2,1,,,,1,,,,,2,,,
544256,40,479,152,14,4,8,,9,1,2,24,22,17,27,7,,,,4,1,,1,3,,,,,,1,3,,,,2,,,1,,,,1,
544256,26,456,123,25,,4,,5,1,,17,23,8,32,1,,,,1,,,,2,1,1,,,,,,,,,1,,1,,,,,,
544256,25,518,154,11,7,10,,12,1,1,13,25,23,32,7,,,,,2,,,5,,2,,,,,,,,2,,,,1,,,,,
544256,24,517,148,19,1,4,,4,,,40,29,6,17,13,1,,,,1,,,6,,4,1,,,,2,,,,,,,,,,,,
544256,39,644,208,22,2,5,,17,2,1,22,28,24,52,16,,,1,,1,1,,5,,,,,,4,1,,1,2,1,,,,,,,,
544256,28,942,279,47,4,8,,12,,2,31,45,28,74,7,,1,,,2,2,,4,,,4,,,,5,,,1,,,,1,,,,1,
544256,27,765,253,61,1,10,,13,1,2,30,38,19,48,16,,,,,1,,,6,1,,,,,2,2,,,,,,1,,,,,1,
544256,78,1013,315,56,1,7,,42,2,2,35,35,20,61,11,,,1,1,7,4,,12,,4,4,,,1,4,,,2,,,,2,,1,,,
544256,77,951,346,72,4,14,,18,4,3,48,56,28,60,21,,,,5,1,,,7,,,3,,,,,,,,,,,1,,,,1,
544272,1,1231,445,56,12,14,,28,3,7,62,65,35,101,34,,,,3,3,,,15,,,2,,,,1,,,1,,,1,2,,,,,
544281,8,134,41,4,1,7,,1,,,2,5,2,14,2,,,,,,,,3,,,,,,,,,,,,,,,,,,,
544281,7,67,16,2,1,,,3,,,,2,2,4,,,1,,,,,,,,,,,,,1,,,,,,,,,,,,
544281,6,80,24,6,,1,,1,,,2,1,2,4,3,1,,,,2,,,1,,,,,,,,,,,,,,,,,,,
544281,5,192,82,8,2,5,,5,3,1,8,11,9,12,8,1,2,,,2,,,2,,,,,,,,,,,,,,3,,,,,
544281,4,141,38,5,,1,,7,,,4,8,3,6,2,,,,,,,,,,1,,,,,,,,1,,,,,,,,,
544281,3,341,81,17,4,2,,3,,2,9,7,9,20,3,,,,,2,,,1,,,1,,,,,,,,,,,1,,,,,
544281,2,1066,286,32,1,15,,14,5,,24,38,17,58,55,,,,2,,2,,13,,1,,,,3,1,,,2,,1,,2,,,,,
544281,1,1296,342,34,7,26,,26,2,1,29,38,21,79,50,1,,1,1,4,2,1,7,2,3,,,,1,,,,1,3,,,,,1,,1,
544299,3,611,175,32,1,9,,6,2,3,22,17,15,34,16,,2,1,,,1,,6,,,,,,1,1,1,,,,,,1,3,,,1,
544299,2,124,51,6,,2,,,1,,7,12,6,7,4,,,1,,,,,1,,,,,,,,,,2,,,,2,,,,,
544299,1,727,218,48,,,,12,,,22,31,9,39,31,,,,1,,,,7,,1,2,1,,,4,4,,1,,,,4,,,,1,
544329,1,290,59,4,1,,,8,,,8,3,4,23,4,,1,,,,,,1,,,,,,,,,,1,,,,,1,,,,
544361,1,437,123,18,1,6,,21,1,,21,8,10,21,5,,,,,1,,,5,,1,1,,,1,1,,,,,,,1,,,,,
544388,7,32,17,3,,3,,,,,3,1,2,3,2,,,,,,,,,,,,,,,,,,,,,,,,,,,
544388,6,44,20,7,,1,,,,,3,,,4,4,,,,,,,,,,,,1,,,,,,,,,,,,,,,
544388,5,66,31,1,,1,,,,,10,2,4,3,9,,,,,,,,,,,,,,,,,,,,,,1,,,,,
544388,4,80,27,4,,,,1,1,,8,4,4,4,1,,,,,,,,,,,,,,,,,,,,,,,,,,,
544388,3,46,21,2,,,,3,1,,1,1,2,7,,,1,,1,,,,,1,,,,,,,,,,,,,,1,,,,
544388,2,82,31,4,1,1,,2,,,1,9,,6,6,,,,,,,,,,,,,,,,,,,,,,1,,,,,
544388,1,971,228,23,3,10,,19,5,2,26,29,33,55,15,,,,,,,1,4,,,,,,1,,,,,2,,,,,,,,
544400,1,383,112,22,1,5,,9,1,1,11,15,8,17,12,,1,,1,2,,,5,,,,,,,1,,,,,,,,,,,,
544426,7,50,28,3,1,,,2,,2,,3,6,7,2,,,,,,1,,,,,1,,,,,,,,,,,,,,,,
544426,6,60,30,6,,2,,3,,,2,5,1,9,,,,,,,1,,,,,,,,,,,,,,1,,,,,,,
544426,5,90,38,7,1,2,,5,,,1,6,3,7,3,1,,,,,,,,,,,,,,,,,,,,,2,,,,,
544426,4,121,53,5,1,1,,6,,,7,8,11,7,3,,1,,,,,1,,,,,,,,,,,2,,,,,,,,,
544426,3,107,43,2,4,3,,3,,,5,4,4,7,8,,,1,,,,,,,,,,,,2,,,,,,,,,,,,
544426,2,112,47,15,,2,,6,1,,2,3,1,9,3,,,2,,,,,2,,1,,,,,,,,,,,,,,,,,
544426,1,768,200,33,2,9,,13,,2,21,15,19,38,14,,,1,,1,3,,4,2,1,,,,1,11,,,,1,,1,4,1,2,,1,
544442,3,100,24,8,,,,2,1,,,3,2,2,,,,,,,,,2,,4,,,,,,,,,,,,,,,,,
544442,2,360,101,14,2,4,,2,,1,13,16,7,19,15,,,,,1,,,1,,,4,,,1,,,,,,,,1,,,,,
544442,1,554,188,34,1,3,,4,,2,34,22,14,27,27,1,,1,2,1,1,,8,,1,,,,,,,,3,,,,2,,,,,
544442,4,202,71,12,1,1,,6,,,11,14,5,12,4,,,,,,,,2,,,1,1,,,,,,1,,,,,,,,,
544451,1,268,50,6,,2,,3,,1,1,5,11,16,3,,,,,,,,,,,,,,2,,,,,,,,,,,,,
544485,7,198,48,5,,,,12,,,6,8,,8,6,,,1,,,1,,,,,,,,,1,,,,,,,,,,,,
544485,6,186,51,5,,8,,2,1,3,3,12,3,6,6,,,,,,,,,,,,,1,1,,,,,,,,,,,,,
544485,5,173,52,5,,1,,10,,1,4,4,7,13,2,,,,2,,,,,,,,,,1,1,,,,,,,,,,,1,
544485,4,229,89,25,2,1,,4,,,14,9,8,16,1,,,,1,1,,,4,,,,,,,,,,1,,,,1,,,,1,
544485,3,1278,431,99,4,20,,22,6,2,65,64,24,76,17,,1,,,,,,9,,2,2,,,3,4,,,5,,,,4,1,,,,1
544485,2,1074,313,65,5,10,,19,,1,45,36,27,44,17,,1,,1,5,2,2,15,,,1,2,3,1,3,,,,,2,,4,,2,,,
544485,1,1068,328,61,2,20,,13,2,3,45,52,29,59,12,,1,1,4,3,1,1,3,,4,,,,,3,,2,1,,,,6,,,,,
544493,2,186,69,8,1,1,,6,,,11,11,10,6,11,2,,,,,,,1,,1,,,,,,,,,,,,,,,,,
544493,1,1021,321,71,2,10,,11,3,1,40,61,16,54,20,,,,1,1,1,,15,,,1,1,,3,2,,,3,,1,,,,1,,2,
544515,2,91,32,3,,,,6,1,1,2,3,4,10,,,,1,,,,,,,,,,,1,,,,,,,,,,,,,
544515,1,965,213,17,4,12,,47,,,13,18,25,39,17,1,,3,,1,,,7,,,1,,,1,6,,,1,,,,,,,,,
544523,2,216,98,14,5,1,,4,,1,14,5,6,27,1,,,,,2,1,,5,2,,,,,,3,,,1,,,,2,2,,,2,
544523,1,479,184,44,4,5,,14,2,2,22,17,17,25,15,1,,,3,2,3,,1,,,,,,,1,,,,,,,4,,,,,2
544540,1,171,31,,1,,,1,2,,2,10,2,8,2,,,,,2,,,,,,,1,,,,,,,,,,,,,,,
544558,1,1269,462,74,9,10,,19,4,6,54,68,37,104,37,,,1,3,1,,,15,,2,1,,,3,,,,2,3,1,,4,3,1,,,
544591,4,66,24,1,,1,,5,1,,3,5,3,1,2,1,,,,,,,,,,,,,,,,,,,,,1,,,,,
544591,3,76,14,2,,1,,2,,,1,2,3,2,1,,,,,,,,,,,,,,,,,,,,,,,,,,,
544591,2,96,40,8,2,,,4,,,1,8,1,7,8,,,,,,,,,,,,,,,,,,1,,,,,,,,,
544591,1,351,55,3,4,2,,9,,1,9,12,2,5,4,,,,,,,,1,,,,,,,,,2,,,,,,1,,,,
544612,2,119,41,6,1,3,,6,1,,3,7,2,3,4,,,,,,,,,,,,,,3,,,,,,,,2,,,,,
544612,1,189,56,10,3,1,,4,1,,4,9,7,6,2,,,,,,,,1,,,,,,,2,,,,,,1,2,,3,,,
544639,5,118,41,3,,4,,11,,,,6,4,7,3,,,,1,,,,1,,,,,,,,,,,,,,,,1,,,
544639,4,40,15,2,2,,,,,,,,4,4,1,,1,,,,,,,,,,,,,,,,,,1,,,,,,,
544639,3,67,17,,,,1,4,,,1,1,1,5,2,,,,,,,,,,1,1,,,,,,,,,,,,,,,,
544639,2,125,28,1,4,1,,1,,,4,5,1,9,1,,,,,,,,,,,,,,,,,,,,,,1,,,,,
544639,1,455,121,9,3,4,,14,,,12,9,13,26,15,1,2,,1,,,,1,,2,1,,,3,1,,,,,,,4,,,,,
544663,1,1059,392,96,1,13,1,28,2,1,52,52,26,59,39,,,,2,,,,10,,1,,,,1,2,,,2,2,,,2,,,,,
544663,3,197,72,13,1,,,3,,,10,17,4,5,11,,,,3,1,,,2,,,2,,,,,,,,,,,,,,,,
544663,2,628,205,24,1,4,,6,1,2,38,42,17,31,19,3,2,,2,,,,1,,1,,,,,1,2,,3,,2,,1,2,,,,
544736,3,168,67,11,2,,1,1,,,5,14,8,5,13,,,,,1,,1,2,,,,,,1,2,,,,,,,,,,,,
544736,2,162,45,7,5,,,3,,,4,4,2,16,2,,,,,1,,,,,1,,,,,,,,,,,,,,,,,
544736,1,1534,417,74,6,11,2,22,1,3,42,53,14,89,63,1,1,2,5,7,,,11,1,1,1,,,1,3,,,1,,,,,1,,,,1
544736,4,87,21,2,1,5,,,,,2,1,2,2,2,,,1,,1,1,,,,,,,,,1,,,,,,,,,,,,
544744,3,64,23,3,1,,,3,1,,,8,,,3,,,,,,,,,,1,1,,,,,,,,,1,,1,,,,,
544744,2,94,49,11,,,,4,1,,7,2,4,8,3,,,,,2,,,1,,2,,,,1,,,1,1,,,,,,,,1,
544744,1,157,32,4,,,,4,,,4,3,,3,8,,,,1,,,,1,,,2,,,,1,,,,,,1,,,,,,
544761,2,139,59,9,1,1,,5,2,,4,15,,12,3,,1,,,,2,,2,,,,,,1,,,,,,,,,,,,,1
544761,1,378,104,17,4,5,,4,,,5,14,9,19,8,,,,,2,1,,10,,,2,,,1,2,,,,,,,1,,,,,
544779,4,627,178,32,1,5,,16,,,23,15,18,28,31,,,,,,,,3,,,,,,3,1,,,1,,,,,,,1,,
544779,3,242,68,5,1,,,9,1,,13,9,12,11,1,,,3,,,,,1,,,1,,,1,,,,,,,,,,,,,
544779,2,1169,304,45,,13,,25,1,,29,39,43,49,31,,,,2,5,1,,7,2,1,2,,,2,1,,,1,2,,,2,,1,,,
544779,1,1449,438,68,6,10,,33,4,1,48,56,46,85,38,1,1,1,2,3,4,,21,1,1,1,,,1,,,1,,1,1,,2,,,,,1
544795,2,643,216,45,5,1,,13,1,6,26,35,16,32,12,,,,1,3,,,15,,1,2,,,,,,,,,,,2,,,,,
544795,1,830,290,86,4,6,,13,,2,43,36,27,47,7,,,,3,3,1,,5,,,1,,,2,,,,2,,,,1,,,,,1
544795,3,434,129,37,1,,,4,,1,18,24,5,19,2,,,,2,2,,,8,,1,,,1,1,2,,,,,,,1,,,,,
544809,2,135,63,7,1,2,,4,2,,18,4,8,13,,,1,,,2,,,,,1,,,,,,,,,,,,,,,,,
544809,1,433,115,22,,8,,9,,1,14,16,5,21,9,,,,,1,,,1,,,1,,,1,3,,,,,,,3,,,,,
544817,3,52,26,,,3,,2,,3,1,4,3,6,1,,1,,2,,,,,,,,,,,,,,,,,,,,,,,
544817,2,189,51,6,,,,1,,,7,8,4,17,1,1,2,2,,,,,,1,,,,,,1,,,,,,,,,,,,
544817,1,93,31,4,3,,,,,,1,9,1,10,1,,,,,1,,,,,,,,,,,,,,,,,1,,,,,
544825,1,288,98,8,1,,1,,1,1,4,36,5,13,21,,,,1,4,1,,,,,,,,,,,,,,1,,,,,,,
544868,3,195,49,5,2,4,,11,1,,1,7,5,7,4,,,,,,1,,,,,,,,,,,,,,,1,,,,,,
544868,2,1030,324,26,8,25,,33,1,3,26,44,43,71,30,,,,3,1,1,2,3,,3,,,,1,,,,,,,,,,,,,
544868,1,800,164,9,4,14,,42,1,,8,26,25,19,2,,,,2,1,,,7,,,,,,1,,,,,,,1,1,,,,1,
544884,2,103,45,3,2,,,7,1,,2,3,6,19,,,,1,,,,,,,,,,,,1,,,,,,,,,,,,
544884,1,540,128,14,5,3,,4,,,26,12,10,25,18,,,1,1,1,,,,2,,1,,,,1,,,,1,,,,1,,,2,
544892,2,135,46,10,,,,4,,,9,2,3,9,7,,,,,,,,1,,,,,,,,,,,,,,1,,,,,
544892,1,505,100,14,3,5,,9,1,1,13,14,13,13,4,,,,1,,,,5,,,3,,,1,,,,,,,,,,,,,
544965,1,143,55,7,2,7,,2,,,7,5,1,18,1,,,,,1,,,,1,,,,,1,1,,,,,1,,,,,,,
544973,1,948,276,61,4,5,,8,,1,67,33,19,44,8,1,,,,1,2,,15,,1,,,,1,3,1,,,,,,,,,,1,
544981,3,140,54,6,,2,,2,,,9,7,10,12,2,,,,1,,,,,,,,,,,1,,,,,,,2,,,,,
544981,2,921,291,41,2,11,,24,1,8,38,31,24,64,29,1,,,,5,,,5,,,4,,,,2,,,1,,,,,,,,,
544981,1,965,344,65,9,9,,15,,3,32,48,54,63,15,,,,3,3,,,11,,2,1,,,2,5,1,1,,,,,1,,1,,,
545007,1,699,241,61,1,4,,18,3,,25,36,16,36,19,1,,,,6,,,5,,,1,,,4,1,,,1,2,,,,1,,,,
545015,3,77,41,1,,3,,,,1,9,12,1,8,2,,,,,1,,,,,,,,,,1,,,1,,,,,1,,,,
545015,2,73,38,3,,2,,1,,,9,3,3,13,1,,,,,,1,,,,,,,,1,1,,,,,,,,,,,,
545015,1,260,89,13,1,4,,7,1,,15,7,3,22,5,,,,,2,,1,3,,,,,,3,,,,,,,,,1,,,1,
545023,3,125,41,8,1,,,2,,,2,7,10,6,4,,,,,,,,1,,,,,,,,,,,,,,,,,,,
545023,2,320,69,6,2,3,,11,1,,8,1,6,21,6,,,,,,,,3,,,,,,1,,,,,,,,,,,,,
545023,1,93,27,4,1,,,,3,,3,4,2,7,1,,,,1,,,,,,,,,,,,,,1,,,,,,,,,
545066,2,734,242,49,8,3,,5,,1,50,28,25,32,25,1,,1,,,,,5,,,1,,,3,1,,,,,2,,2,,,,,
545066,1,1291,340,63,3,8,,9,,,64,53,24,62,24,,,1,,5,,,12,,2,,,,4,2,,,,,,,4,,,,,
545074,1,930,318,67,12,11,,12,3,1,47,50,27,44,10,,2,1,1,1,2,1,12,,2,1,,,3,,,,,,,,3,,1,,4,
545082,1,396,144,28,4,6,,10,3,,12,17,15,32,8,,,,,,,,1,,,2,,,,1,1,,2,,1,1,,,,,,
545091,1,181,69,13,1,4,,1,1,,16,8,5,9,3,,,,1,,,,2,,,,1,,,,,,,,1,,3,,,,,
545104,1,455,109,19,6,,,4,,,6,24,8,25,7,,,,3,1,2,,2,,,,,,,,,,1,,,,,1,,,,
545121,1,1108,305,42,2,3,,11,5,1,33,40,31,77,28,,,,2,4,2,,7,1,2,3,,,2,3,,1,1,,,2,,1,,,1,
545139,1,690,174,25,7,6,,11,1,,17,19,19,39,18,,,,,3,1,,2,1,,,,,2,3,,,,,,,,,,,,
545155,6,75,24,,,2,,2,,,1,6,3,7,3,,,,,,,,,,,,,,,,,,,,,,,,,,,
545155,5,42,15,2,,1,,,,,,1,1,1,6,,,,,,2,,1,,,,,,,,,,,,,,,,,,,
545155,4,72,19,2,,1,,4,,,2,3,2,3,,,,,,,,,,,,,1,,,,,,,,1,,,,,,,
545155,3,121,36,2,,,,6,,,2,2,8,12,1,,,,,3,,,,,,,,,,,,,,,,,,,,,,
545155,2,61,20,1,,,,,1,,,2,7,9,,,,,,,,,,,,,,,,,,,,,,,,,,,,
545155,1,334,78,17,3,3,,13,1,,2,10,5,14,5,,,,,2,,,2,,1,,,,,,,,,,,,,,,,,
545171,5,682,177,20,2,4,,12,,3,13,17,27,57,8,,3,,1,,1,,4,,,,,,,,,,2,,2,,,1,,,,
545171,4,957,227,46,3,6,,12,1,1,19,29,21,45,20,1,,,2,3,1,1,5,,2,1,,,3,2,,,,,1,,,2,,,,
545171,3,333,89,4,1,3,,8,,,8,9,16,31,2,,,,,1,,,2,1,1,,,,1,,,,1,,,,,,,,,
545171,2,626,195,19,3,7,,20,1,1,18,18,23,46,21,,2,1,,,,,4,,2,,,,1,2,,1,,,1,,3,,,,1,
545171,1,601,192,21,2,11,,15,2,,17,28,21,48,14,,,,1,1,,,6,,,,,,1,3,,,,,,,,,1,,,
545171,11,345,74,19,2,1,,4,1,1,3,4,9,18,4,,,1,2,,,,1,1,1,2,,,,,,,,,,,,,,,,
545171,10,90,36,6,,2,,2,,,2,2,1,6,9,,,,5,1,,,,,,,,,,,,,,,,,,,,,,
545171,9,78,21,1,1,1,,,,,1,4,1,5,6,,,,,,,,1,,,,,,,,,,,,,,,,,,,
545171,8,60,16,,,,,5,,,,3,1,7,,,,,,,,,,,,,,,,,,,,,,,,,,,,
545171,7,116,42,4,,6,,11,,,4,1,5,7,3,,,,,1,,,,,,,,,,,,,,,,,,,,,,
545171,6,225,70,1,,,,11,,,1,8,15,24,,3,,,2,,1,,,,,,,,1,3,,,,,,,,,,,,
545201,8,376,127,7,2,6,,18,2,,24,16,8,23,12,2,,,,3,,,1,,2,,,,1,,,,,,,,,,,,,
545201,7,742,186,25,2,3,,18,1,1,14,26,20,54,7,,,,,1,1,,,,2,,1,,2,1,,,2,,,,4,1,,,,
545201,6,555,138,12,3,7,,13,2,4,15,21,13,31,7,,,,,,,,4,,2,2,,,,1,,,,,,,1,,,,,
545201,5,658,164,21,2,2,,6,7,3,9,18,19,44,14,,,,,2,3,,6,1,,1,,,,1,,,,,2,1,1,1,,,,
545201,4,1020,232,33,4,3,,11,,,13,47,42,42,13,1,,,,3,,,7,1,3,2,,,1,3,,,,1,1,,,,,,1,
545201,3,759,176,14,4,5,,19,5,6,20,32,25,32,3,,,,,2,1,4,,,,,,,2,,,,,1,,,1,,,,,
545201,2,996,360,61,4,15,,31,4,6,49,30,21,74,33,1,,1,,6,,,10,,,,,,2,5,,,,4,2,,,,1,,,
545201,12,61,28,2,,4,,2,,,7,3,,9,,,,,,,,,1,,,,,,,,,,,,,,,,,,,
545201,11,91,34,4,,2,,1,,,7,5,1,5,2,,,,,,,,2,,,2,2,,,,,,,,,,,,1,,,
545201,10,84,23,2,1,3,,3,,,2,2,2,6,1,,,,,,,,,,,,,,,,,1,,,,,,,,,,
545201,9,200,67,15,1,2,,12,,,4,12,6,10,1,,,,,,,,,,,,,,1,,,1,1,,,,,,,,,1
545201,1,912,194,30,6,5,,16,,2,16,43,18,26,15,5,,,,1,,,7,1,1,,,,1,,,,,,,,,,1,,,
545228,1,1700,526,111,10,14,,18,3,,74,73,37,108,36,,,2,2,3,1,,20,,2,,,,4,1,,,1,2,,,1,,1,,2,
545261,1,618,197,36,2,2,,13,4,3,36,25,20,21,17,,,,3,2,,,5,,,3,,,2,,,,,,,,,,,,3,
545287,4,113,44,6,,2,,1,2,,3,3,1,19,3,,1,,,,,,,,1,,,1,1,,,,,,,,,,,,,
545287,3,95,28,3,1,,,2,,,2,8,,4,4,1,,,,,,,,,,2,,,,1,,,,,,,,,,,,
545287,2,522,141,16,2,5,,6,1,,11,23,18,36,3,,,,1,,1,5,5,,2,,1,,2,,,,,,,1,,,,,2,
545287,1,146,72,20,,2,,3,3,,,16,6,9,4,,,1,,1,1,,4,,,,1,,,1,,,,,,,,,,,,
545317,1,301,85,9,1,3,,4,,4,11,12,11,7,2,1,4,,,,,,7,,3,,,,1,,,,2,,,,1,,1,,,1
545341,3,852,213,16,4,6,,16,3,2,22,25,34,58,6,,,,1,3,,,10,,,,,,1,3,,,1,,,,2,,,,,
545341,2,1316,309,41,8,10,,24,5,2,37,46,28,62,13,,,,,9,,2,8,,3,,,,3,3,,,1,,,,3,,,,1,
545341,1,769,196,23,2,7,,22,2,1,16,18,32,48,8,,,1,1,1,,,6,,1,2,,,,2,,,,,1,,2,,,,,
545368,1,336,78,9,,1,,4,4,,11,14,3,22,2,,,,,1,,,2,2,1,,,,2,,,,,,,,,,,,,
545376,1,296,57,3,2,3,,3,4,,3,11,11,14,,,,,,1,,,,,,,,,2,,,,,,,,,,,,,
545384,4,31,11,1,,,,1,,,2,1,,4,2,,,,,,,,,,,,,,,,,,,,,,,,,,,
545384,3,81,30,,,2,,1,,,,6,5,7,3,,,1,,,,,2,,,,,,,,,,,,,,2,,1,,,
545384,2,104,29,,,,,1,,,1,4,7,11,2,,,,,,,,2,,,,,,1,,,,,,,,,,,,,
545384,1,28,17,2,2,3,,4,,,,1,,3,,,,,,,,,,,,,,,,,,,,,,,,,,,2,
545384,7,220,48,3,1,2,1,5,2,,1,11,4,12,3,1,1,,,,,,1,,,,,,,,,,,,,,,,,,,
545384,6,28,11,,,,,3,,,6,1,,1,,,,,,,,,,,,,,,,,,,,,,,,,,,,
545384,5,25,12,2,1,,,2,,,3,2,,2,,,,,,,,,,,,,,,,,,,,,,,,,,,,
545392,13,690,161,27,1,5,,15,2,1,11,23,15,40,6,1,,,1,4,,,2,,1,1,1,,1,1,,,2,,,,,,,,,
545392,12,522,145,15,3,4,,5,2,3,10,21,13,49,8,,1,,,1,1,,3,,,,,,4,,,,2,,,,,,,,,
545392,11,325,106,20,2,,,,,,14,25,7,12,7,1,,,,4,,,4,,1,,,1,,1,,,1,,2,,4,,,,,
545392,10,710,257,52,2,5,,19,,,35,25,12,44,40,1,1,,1,2,,,11,,1,,,,3,,,,,,,,2,1,,,,
545392,9,551,180,44,4,4,1,1,1,1,36,34,6,21,12,3,,,,,,,3,,1,1,,,1,,,,,,1,,3,,1,1,,
545392,8,765,245,58,2,1,,3,3,4,61,32,21,20,22,,1,,1,3,,,7,,1,,,,3,,,1,,,,,1,,,,,
545392,7,516,165,25,6,9,,8,,1,21,21,5,35,16,1,,,,1,,,9,1,,,,,1,2,,,2,,,,1,,,,,
545392,6,814,187,30,1,9,,8,3,2,25,37,23,26,13,,,1,,3,,,2,,,1,,,,,2,,,,,,,,1,,,
545392,5,973,220,27,5,6,,15,,2,22,38,23,47,14,1,,,1,2,,,3,,1,,,,2,5,,,,,,,5,,,,,1
545392,4,633,190,21,3,6,2,19,2,1,28,27,26,39,7,2,,,,,,,,,,1,,,,,,,3,,,,3,,,,,
545392,3,801,231,28,3,11,1,24,1,1,20,36,18,50,10,7,,,2,2,,,5,,2,4,,,2,2,,,,,1,,1,,,,,
545392,2,460,164,30,1,7,,15,2,,17,18,18,37,7,,,,,1,,,4,,,1,,,2,,1,,,,1,,2,,,,,
545392,1,705,214,28,3,9,,30,3,2,31,29,15,33,10,3,,,,,,,10,,2,,,,2,3,,,,,,,1,,,,,
545392,16,510,187,52,,5,,10,1,1,20,24,5,34,22,,,,,3,,,5,,1,1,,,1,,,,,,,,2,,,,,
545392,15,516,146,29,1,6,,14,2,,14,22,14,27,9,1,,,,,,,2,,,,,,2,3,,,,,,,,,,,,
545392,14,827,210,22,1,9,,25,4,,19,22,15,58,20,,,,2,,,,5,,1,,2,,1,2,,,,,1,,,,,,1,
545406,1,1018,218,23,4,6,,17,,,10,24,33,68,16,2,1,,,,2,,1,,1,1,1,,4,1,,,,1,,,2,,,,,
545414,1,654,187,40,2,12,,20,6,,19,15,16,27,17,,1,,1,3,,,1,,1,,,,3,1,,,,,,,2,,,,,
545431,1,836,214,38,3,7,,13,2,,26,28,21,35,22,,,2,,1,3,,6,,,1,,,,1,,1,3,,,,1,,,,,
545449,1,415,80,5,2,5,,16,3,,4,13,6,19,3,,,,,,,,1,,,1,,,2,,,,,,,,,,,,,
545457,1,688,200,25,1,10,,27,,2,33,17,13,52,4,1,,,,1,,,3,,1,,,,2,1,,,,1,2,,1,,3,,,
545465,1,1007,182,18,3,6,,25,2,,17,17,28,45,9,,,,,1,1,,2,2,2,,,,2,1,,,,,,,,1,,,,
545473,2,107,19,1,,1,,1,,1,,1,2,9,2,,,,,,,,1,,,,,,,,,,,,,,,,,,,
545473,1,915,265,43,2,4,,11,2,4,31,38,30,53,28,,,,3,2,,,7,,,1,,,,,,,,,3,,3,,,,,
545481,1,1082,364,56,3,8,1,23,1,1,45,59,38,81,15,1,1,,2,1,3,,7,,,1,,1,3,2,,,3,2,,,,,,,3,3
545490,1,843,299,45,7,10,,29,1,2,32,45,28,53,19,1,,3,5,3,2,,6,,1,1,1,,2,1,,,,,1,,1,,,,,
545503,1,386,75,12,,6,,9,2,,7,4,10,16,1,,,,,1,,,1,,,2,1,,,2,,,,,,,,,,1,,
545511,1,881,208,43,1,11,,20,1,,17,25,14,49,8,2,,,,,,,9,,2,1,,,1,1,,,,,,1,2,,,,,
545511,2,891,196,28,6,6,,36,4,,13,21,14,46,8,,,,1,2,2,,2,,1,2,,,3,,,1,,,,,,,,,,
545520,1,676,143,22,,5,2,12,3,,14,14,17,35,3,1,,,,2,,,4,1,1,,,,5,,,,2,,,,,,,,,
545546,1,1014,240,29,7,8,,22,2,,25,28,34,68,6,,,,,2,,,2,,,,,,4,,,,1,1,1,,,,,,,
545554,1,814,220,31,6,10,,11,4,1,23,20,23,51,24,2,,,1,,1,1,10,,,,,,,,,,,,1,,,,,,,
545554,2,575,138,22,,1,1,8,,2,15,20,11,36,10,,,,,1,,,3,1,2,1,,,1,,,,3,,,,,,,,,
545562,8,661,180,23,4,2,,19,2,,7,17,39,41,14,,,,,1,,,6,,,,,,2,,,2,1,,,,,,,,,
545562,7,889,143,19,2,3,,14,5,,11,14,22,32,8,,1,,1,1,,,5,,,,,,1,2,,,,,,,1,,1,,,
545562,6,856,231,27,4,10,,23,,,13,23,27,73,22,,,,,2,1,,4,,1,1,,,,,,,,,,,,,,,,
545562,5,265,87,8,,1,1,9,,,7,11,17,24,4,,,,,,,,,,,,,,2,1,,,,,,,1,,,,1,
545562,4,513,136,12,4,2,,23,,,9,6,24,39,8,,,,,1,2,,2,1,,,,,,1,,,,,1,,,,,,,1
545562,9,256,65,3,,2,,4,,,8,3,13,19,12,,,,,,,,,,,,,,1,,,,,,,,,,,,,
545562,3,484,101,12,7,5,,10,1,3,6,9,15,25,6,,,,,,,,1,,1,,,,,,,,,,,,,,,,,
545562,2,630,147,20,2,6,,24,,1,10,18,13,39,9,,,,2,1,,,1,,,,1,,,,,,,,,,,,,,,
545562,1,578,143,11,4,8,,6,,,14,15,20,35,16,1,,,,,,,3,,2,,1,,1,1,,,,,1,,3,,,,1,
545571,3,261,72,10,5,1,,5,,,2,13,13,11,5,1,,2,,,2,,1,,,,,,,,,,1,,,,,,,,,
545571,2,659,219,29,2,5,,20,7,2,21,35,21,32,29,,1,,4,2,1,,5,,,,1,,,1,,,,,,,1,,,,,
545571,1,1343,413,62,4,13,,23,3,,33,88,46,81,35,,,,3,2,,,9,1,1,1,,,1,4,,,,1,,,2,,,,,
545597,1,457,147,35,2,3,,4,1,,18,20,15,32,1,,,,,1,,,7,,,,,,,4,,,2,,,,2,,,,,
545601,2,688,89,11,1,1,,12,,,9,8,14,21,3,,,,3,,,,1,,1,,,,1,,,,,3,,,,,,,,
545601,1,645,130,2,3,10,,19,6,,8,19,13,40,2,,,,,,,,2,1,,,,,2,,1,,,,,,1,,,,1,
545619,1,1042,156,15,2,5,,26,,,8,8,18,54,2,,,,,3,2,,8,,1,1,,,1,,,,,,,,1,,,,1,
545627,1,358,85,14,,,1,2,1,,9,16,2,12,23,,,,,1,,,2,,,,,,,,,,,2,,,,,,,,
545643,1,390,104,13,1,4,,11,1,,9,10,9,26,8,,,1,,4,,,5,,,,,,,,,,,,,,,,,,2,
545660,1,424,100,10,3,3,,8,,,3,8,16,42,3,,,,,1,1,,1,,,,,,1,,,,,,,,,,,,,
545694,1,188,47,16,1,,,,1,,4,5,3,12,1,,,,1,1,,,,,,,,,,,,,,,,,,,2,,,
545716,1,190,67,15,1,1,,6,,,9,4,5,19,2,,,,,,2,,1,,,,,,,,,,,,,,1,1,,,,
545724,1,519,113,12,1,5,,3,1,,10,15,17,20,20,,,,,1,,1,,,2,,,,3,,1,,,,,,1,,,,,
545732,1,164,49,17,,1,,2,,,5,11,1,7,,,,,,,,,3,,,1,,,,,,,,,,,1,,,,,
545767,1,301,99,22,1,4,,7,1,,16,15,3,18,1,1,,,,2,1,,2,2,2,,,,,,,,,,1,,,,,,,
545775,1,344,98,7,2,2,1,14,7,,7,6,15,25,4,1,,,1,,,,1,,,1,1,,,,,,,,2,,,,,1,,
545805,1,295,88,7,4,2,,5,2,,8,10,7,20,20,,,,,1,,,,,1,,,,,1,,,,,,,,,,,,
545813,1,189,53,5,1,3,,3,,2,4,4,10,6,9,2,,,,1,,,,,,,,,3,,,,,,,,,,,,,
545821,3,969,227,22,3,7,,17,3,,32,24,24,58,14,1,,,1,1,2,,4,1,2,1,,,1,2,,,1,,2,2,2,,,,,
545821,2,1003,286,46,8,13,,26,2,2,32,29,19,50,34,,,,,1,1,,12,1,1,3,,,,2,,1,2,,,,1,,,,,
545821,1,1169,347,47,2,18,,22,4,5,42,40,29,57,51,,,,2,2,1,,11,1,,1,,2,2,1,1,,1,2,,,3,,,,,
545830,3,1041,246,16,2,10,,37,1,1,13,31,41,61,8,17,,,,,1,,1,,2,,1,,1,2,,,,,,,,,,,,
545830,2,1008,188,18,4,13,,21,3,2,12,29,21,33,9,8,,,,1,,,3,1,2,1,,,1,1,,,5,,,,,,,,,
545830,1,985,150,22,2,,1,10,1,2,3,20,28,36,2,8,,,2,3,1,,2,,1,,,,1,1,,,,,,,2,2,,,,
545848,2,820,237,44,2,7,,22,3,1,35,27,18,29,12,,,,5,11,,,6,,2,2,,,3,2,,,,,1,,5,,,,,
545848,1,1000,228,36,3,10,,22,3,,24,21,20,48,17,,1,1,,5,,,9,,2,,,,,1,1,,,1,,,2,1,,,,
545864,1,627,174,21,1,5,,12,,2,29,22,10,27,16,5,,2,5,3,,,4,,4,2,,,1,,,,2,,,1,,,,,,
545872,1,326,129,9,,5,,,2,,2,9,4,9,83,,,,,2,,,1,,1,1,,,,1,,,,,,,,,,,,
545881,22,591,154,13,1,2,1,10,6,2,16,24,11,49,7,,,,,2,,,6,1,1,1,,,1,,,,,,,,,,,,,
545881,19,403,139,13,1,,,3,2,2,18,21,14,31,12,1,,1,1,4,,,5,,3,,,,2,1,,,,,,,2,,,,,2
545881,18,559,182,22,3,24,2,8,,1,25,26,15,33,5,,,3,1,,,2,6,,1,,,,3,,,1,,1,,,,,,,,
545881,17,987,246,30,9,5,,37,,2,17,30,21,62,15,,,,1,3,,,4,,2,,,,1,2,,,,,,1,,,,,2,2
545881,16,766,291,49,,9,,16,,20,28,47,17,76,16,,,1,1,1,,,7,,,1,,,1,1,,,,,,,,,,,,
545881,15,1148,388,61,6,14,,13,,28,65,38,28,101,19,,,,,1,,,4,1,1,,,,4,2,,,,,,,2,,,,,
545881,14,810,226,25,3,14,,14,,3,29,30,32,56,4,,1,,1,1,,,8,,,1,1,,,2,,,,,,,1,,,,,
545881,29,161,62,3,,3,,15,3,2,2,17,5,8,1,,,,1,,1,,1,,,,,,,,,,,,,,,,,,,
545881,28,182,59,7,1,3,,2,1,2,10,9,1,12,4,,,1,2,,,,2,,1,,,,,,,,,,,,1,,,,,
545881,27,220,64,10,,3,,3,,1,5,19,5,11,2,,,,1,1,,,3,,,,,,,,,,,,,,,,,,,
545881,26,193,64,8,1,4,,14,2,5,4,9,6,11,,,,,,,,,,,,,,,,,,,,,,,,,,,,
545881,25,46,18,5,,,,1,,,3,3,1,5,,,,,,,,,,,,,,,,,,,,,,,,,,,,
545881,24,193,86,10,2,6,,8,,5,6,3,10,25,1,,4,,1,3,,,2,,,,,,,,,,,,,,,,,,,
545881,23,219,79,6,2,1,,3,,13,1,13,5,24,7,,,,,,1,,,,,1,,,,1,,,1,,,,,,,,,
545881,20,724,217,31,2,12,,13,3,6,32,38,13,39,11,,,,,2,,,4,,1,,2,4,1,,,,1,,,,1,,1,,,
545881,21,719,149,17,2,10,,7,5,2,4,29,15,31,9,3,2,2,,,1,,3,2,,,,,3,,,,,,,,1,,1,,,
545881,13,717,199,19,4,14,,19,,6,14,20,20,60,5,,1,,,2,3,,3,,3,1,,1,,,,,,,,,3,1,,,,
545881,12,827,192,10,3,18,,24,,7,15,10,27,57,10,,,1,1,1,1,,4,,2,,,1,,,,,,,,,,,,,,
545881,11,695,209,17,3,11,,38,1,13,14,17,19,65,4,2,1,,,,,,1,1,,,,,,1,,,,,,,,,,,1,
545881,5,453,120,6,2,5,,8,1,3,10,19,10,39,7,,,,,2,1,,2,1,,,,,2,,1,1,,,,,,,,,,
545881,4,1044,363,55,2,12,,19,1,6,69,43,32,76,23,,3,,,3,2,,11,,2,,,,2,,,1,,,,,,,,,1,
545881,3,769,211,17,3,14,1,26,2,8,21,44,20,34,8,,1,,1,3,,,3,1,,,,,1,1,,,,,1,,1,,,,,
545881,2,1577,316,61,3,15,,23,2,10,42,43,20,63,7,,2,,,8,1,,5,2,1,3,,,2,1,,,1,,,,,1,,,,
545881,1,469,159,25,3,11,,7,2,8,27,15,22,12,11,,,,,2,3,,3,2,,,,,3,,,,,,1,,2,,,,,
545881,10,513,137,14,2,16,,16,3,,8,10,12,44,3,,,,,2,,,2,,,,,,,1,,,1,,2,,1,,,,,
545881,9,446,123,8,,8,,12,1,5,5,17,13,42,5,,,,,,,,6,,,,,,,,,,,,1,,,,,,,
545881,8,401,96,7,3,6,,15,,1,5,14,8,29,3,1,,,,1,,,1,,1,,1,,,,,,,,,,,,,,,
545881,7,469,172,21,,10,,13,,2,19,25,20,36,8,,1,3,,,,,6,,1,1,,,,2,,,,1,,,3,,,,,
545881,6,437,132,14,3,14,,11,,6,8,21,14,30,6,,,,,1,,,1,3,,,,,,,,,,,,,,,,,,
545881,30,565,213,27,2,16,,13,2,7,21,28,23,45,13,,1,1,,2,,,4,3,3,,,,1,,,,,,,,1,,,,,
545902,1,228,71,15,,2,,6,,,8,11,8,9,3,,,,1,,,,1,,,,,,,2,,,,,1,,4,,,,,
546020,1,166,54,11,,1,,5,2,,8,3,,9,8,,1,,,,1,2,,,,,1,,,,,,1,,,,,,,,,1
546038,2,120,33,2,,1,,1,,1,3,1,2,8,10,,,,,,,2,,,,1,,,,,,,,,,,1,,,,,
546038,1,437,132,24,1,8,,1,3,,7,17,5,27,27,,4,1,1,,,1,,1,,1,,,3,,,,,,,,,,,,,
546054,1,441,116,11,1,6,1,5,,,3,30,6,38,7,,1,,,,,4,,,1,,,,,,,,,,,,,,1,,,1
546089,3,448,84,9,2,5,,12,,,12,9,13,14,2,3,,,,,,,2,,,,,,,,,,,,,,1,,,,,
546089,2,987,209,28,4,20,,15,4,1,22,25,29,41,10,,,,1,2,1,,2,,,,,,,,,,,,,,2,1,1,,,
546089,1,1014,154,7,3,18,,17,2,,16,17,22,38,7,,,,,2,,1,1,1,,,,,,,,,1,,,,1,,,,,
546097,2,142,49,5,5,,,6,,,,5,11,16,,,,,,,,,,,,,,,1,,,,,,,,,,,,,
546097,1,641,183,29,3,3,,16,,,17,31,13,33,25,,,,,,1,,1,,,2,,,,,2,,,,,,6,,,,,1
546101,2,168,50,4,1,1,,4,,2,14,7,5,8,2,,,,,1,,,1,,,,,,,,,,,,,,,,,,,
546101,1,424,95,8,5,3,1,6,,3,1,13,19,26,1,,1,,,,,,5,1,,,,,,,,,,,,,,,,,,2
546127,2,529,160,25,2,5,,25,,,6,15,9,34,29,,,,1,2,,1,2,1,,,,,1,2,,,,,,,,,,,,
546127,1,458,148,21,,1,,16,,,17,16,18,35,12,,1,,,,,1,,,1,,,,2,1,,,,2,,,4,,,,,
546127,14,316,86,19,1,2,,9,,,4,19,10,12,5,,,,,,,1,1,,1,,,,,,,,,,1,,,,,,1,
546127,13,305,90,5,3,2,,3,1,,6,6,12,38,9,,,,,,,2,,,1,,,,2,,,,,,,,,,,,,
546127,12,238,48,6,,1,,7,,,2,5,3,9,12,,,,,,,1,,,1,,,,,,,,,,,,,,,1,,
546127,11,230,73,,,4,,4,,,4,2,7,22,24,,,,,,,1,3,1,,1,,,,,,,,,,,,,,,,
546127,10,424,123,12,1,5,,17,,1,4,15,10,35,11,1,,,2,1,,4,,,,,1,,1,,,,2,,,,,,,,,
546127,9,430,136,20,,9,,10,1,,12,21,16,21,11,,,,,2,,,4,,1,1,,,2,,,,1,,,,2,1,,,,1
546127,8,502,149,26,2,5,,13,1,,15,9,12,39,20,,1,,2,1,1,,,,,1,,,,,,,,,,,1,,,,,
546127,7,571,140,36,2,6,,5,,,7,24,10,21,19,,,,3,,,2,2,,,,,,,,,2,1,,,,,,,,,
546127,6,361,103,7,,2,,16,,,4,14,9,32,16,,,,,,,1,,1,,,,,,,1,,,,,,,,,,,
546127,5,521,160,20,1,4,,14,1,,17,24,16,29,15,,,,,,,11,2,,,,,,2,,,,,,,,1,,,,,3
546127,4,637,166,23,2,6,,13,3,1,7,23,17,34,21,1,,,1,1,,5,3,,1,,,,1,1,,,,,1,,,,1,,,
546127,3,523,207,26,3,3,,9,,,13,26,12,36,68,,1,,,,2,3,2,,,,,,,,,,,,,1,1,,,,,1
546143,1,495,80,9,7,7,,6,,,2,11,11,21,3,,1,,,,,,,,,,,,,,,,1,,,,1,,,,,
546151,1,602,159,32,1,11,,11,2,,18,24,16,20,15,,,1,2,,,,,,,,,,3,,,,,,,1,,2,,,,
546291,2,52,20,,,2,,1,2,2,1,1,4,2,3,,1,,,,,,,,,,,,,,,,,1,,,,,,,,
546291,1,124,45,7,1,3,,5,2,1,8,2,1,12,,,,,,1,,,,,,,,,,,,,,,,,1,,,,1,
546305,1,70,34,1,2,2,,,,1,1,7,4,11,2,,,,,,,,,,,,,,,,,,1,,,,1,1,,,,
546364,2,92,32,15,2,1,,,,,3,5,,4,,,,,,,,,1,,,,,,,1,,,,,,,,,,,,
546364,1,406,113,11,5,5,,20,,1,6,14,2,33,2,,,,1,4,,,4,3,1,,,,1,,,,,,,,,,,,,
546381,1,199,54,5,2,4,,3,,1,10,10,6,8,1,,,,,,,,4,,,,,,,,,,,,,,,,,,,
546402,1,340,88,3,2,2,,14,1,1,15,8,15,19,2,,,,1,,,,2,,,,,,,1,,,1,,,,1,,,,,
546445,1,266,106,11,,3,,3,,,8,20,5,22,27,,,,2,,,3,,,,1,,,,1,,,,,,,,,,,,
546461,5,75,35,1,2,1,,4,1,,4,4,3,9,,,,,,1,,,1,,,,,,,2,,,2,,,,,,,,,
546461,4,129,38,,3,3,,6,,,,3,9,13,,,1,,,,,,,,,,,,,,,,,,,,,,,,,
546461,3,77,29,4,1,3,,3,,,3,2,5,7,,,,,,,,,1,,,,,,,,,,,,,,,,,,,
546461,2,902,230,16,3,5,,26,5,,21,21,32,70,21,,,,,,,1,3,1,,,,,2,3,,,,,,,,,,,,
546461,1,498,114,18,4,3,,13,3,1,6,7,13,29,8,,,,,1,,,2,,,1,,,1,,,,,,,1,3,,,,,
546500,4,129,25,4,,2,,6,,,,2,6,2,1,,,,,,,,1,,,1,,,,,,,,,,,,,,,,
546500,3,66,16,1,,1,,4,,,3,3,3,1,,,,,,,,,,,,,,,,,,,,,,,,,,,,
546500,2,66,28,5,,1,,2,1,2,2,2,2,7,2,,,,,,1,,,,,,,,,,,,,,,1,,,,,,
546500,1,643,208,28,3,9,,14,,8,23,31,23,37,14,,1,,1,3,2,,5,,,1,,,1,1,,,,,,1,1,,1,,,
546542,3,141,52,8,2,3,,5,,,3,5,6,13,2,,,,,,,,,,,,,,2,,,2,,,,,1,,,,,
546542,2,73,32,6,,2,,1,,1,3,5,,5,6,,,,1,,,,2,,,,,,,,,,,,,,,,,,,
546542,1,1587,408,58,11,16,,37,4,8,37,53,42,93,18,,3,2,,8,2,,4,,,,,,4,1,,2,,1,,,3,,,,1,
546615,3,85,31,7,,,,,,,6,4,,7,6,,,,,,,,,,,,,,,,,1,,,,,,,,,,
546615,2,94,45,6,,,,,,,2,10,4,6,7,,,,2,,,,6,,,,,,,1,,,,,,,,1,,,,
546615,1,1023,312,33,3,15,2,40,5,3,27,56,26,54,33,,,,,3,,,6,,3,,,1,,1,,,,,,,,1,,,,
546623,1,452,109,9,1,3,,10,1,,9,15,8,32,9,3,1,,,1,1,,4,,,1,,,,,,,,,,,1,,,,,
546666,2,137,35,5,2,2,,3,,1,,11,,8,,,,,,,,,1,,,,,,1,,,,,,1,,,,,,,
546666,1,400,78,11,,7,,6,,2,5,13,5,22,3,,,,,,,,1,1,1,,,,,,,,,,,,,,,,,1
546674,1,1484,377,54,2,32,,22,6,1,39,38,47,82,22,,,1,,3,3,,3,,4,1,,,6,1,,1,1,,,1,4,1,1,,1,
546712,1,411,123,21,3,4,,11,,,8,8,9,24,26,,,,2,,,,3,,,,,,1,2,,,,,1,,,,,,,
546798,4,193,34,,,2,,11,,,9,,2,6,1,,,,,,1,,,,,1,,,,,,,,,,,,,,,,1
546798,3,617,128,12,1,5,,22,3,2,10,27,18,18,3,,,,,1,,,1,,,,,,,4,,,,,,,1,,,,,
546798,2,655,120,19,2,4,,7,1,3,12,17,19,27,,,,,1,,,,3,,1,,,,2,,,,,1,,1,,,,,,
546798,1,1160,273,52,5,21,,37,1,5,29,35,26,40,2,,,1,,2,,,7,3,,,,,2,1,,,1,,,,3,,,,,
546801,2,897,192,26,5,8,,15,2,,16,20,23,56,6,,,,,,,,4,,1,,,,2,1,1,,2,1,,,3,,,,,
546801,1,953,220,25,4,16,,19,2,3,12,42,15,52,15,,,,,2,2,,6,,2,1,,,1,,,,,,,,1,,,,,
546844,3,102,28,5,,2,,3,,,,1,6,7,4,,,,,,,,,,,,,,,,,,,,,,,,,,,
546844,2,108,33,4,,,,3,,,10,3,1,9,,,,,,1,1,,1,,,,,,,,,,,,,,,,,,,
546844,1,359,124,17,1,11,,16,1,1,15,16,7,29,5,,,,2,,,,1,,1,,,,,,,1,,,,,,,,,,
546917,1,422,94,9,1,5,,12,4,,4,15,10,22,3,3,,,,1,,1,3,,,,,,,1,,,,,,,,,,,,
546968,3,98,21,2,,1,,,,,1,3,1,7,4,,,,,,,,,,,,,,2,,,,,,,,,,,,,
546968,2,146,51,4,1,2,,1,,,4,13,11,6,5,1,,,,,,,,,,,,1,1,,,,,,,,1,,,,,
546968,1,248,60,8,2,1,,6,2,1,4,6,5,23,2,,,,,,,,,,,,,,,,,,,,,,,,,,,
546992,2,61,29,3,1,1,,7,,1,,6,1,7,,,,,,,,,,2,,,,,,,,,,,,,,,,,,
546992,1,338,69,6,,,,8,,2,6,11,12,14,1,,,,2,,,,1,,1,1,,,1,,,,,,3,,,,,,,
547069,1,459,120,16,1,12,,11,,,8,9,15,36,3,,,1,,1,,,2,,,,,,,3,,,,,,,1,,,,1,
547085,2,177,54,8,1,4,,,,,8,8,7,9,3,,,,,1,1,,,,,,,,,,,,,,1,,3,,,,,
547085,1,305,132,14,7,3,,12,2,1,12,13,19,37,3,,,2,,,,,4,,,,,,1,1,,,,,,,1,,,,,
547166,3,635,186,39,4,4,,33,1,,14,24,21,26,12,1,,,,2,,2,,,2,,,,,1,,,,,,,,,,,,
547166,2,755,223,23,7,14,,45,2,,4,22,30,51,5,2,1,1,,1,1,4,3,,,,,2,3,1,,,,,1,,,,,,,
547166,1,631,131,20,2,3,,21,,,15,24,13,17,12,,,,,,,,1,,1,,,,,,,,,,,,2,,,,,
547204,1,416,96,11,4,1,,12,,,5,3,17,23,12,,,,,,,2,4,,,,,,,,,,,,1,,1,,,,,
547212,1,387,77,9,2,5,,10,2,,9,16,5,16,1,,,,,,,,,,,,,,,,,1,,,1,,,,,,,
547221,2,114,50,4,1,2,,5,,,2,8,9,12,3,,,,,,1,,2,,1,,,,,,,,,,,,,,,,,
547221,1,593,156,21,4,7,,11,4,2,18,24,8,30,8,1,,1,,2,3,,4,,1,,2,,3,,,,,,1,,,,,,1,
547239,2,183,42,2,1,,,4,,2,3,3,7,12,3,,,,,,,,3,1,,,,,,,,,,,1,,,,,,,
547239,1,1017,269,41,10,17,,19,,11,29,28,17,60,13,1,,1,,3,,,2,1,3,,,,2,,,1,,,,,9,1,,,,
547247,3,62,29,3,1,2,,5,1,,,2,1,10,2,,1,,,,,,1,,,,,,,,,,,,,,,,,,,
547247,2,103,40,4,,1,,5,,,1,5,6,12,1,,,1,,,,,2,,2,,,,,,,,,,,,,,,,,
547247,1,234,72,10,1,2,,10,,,5,3,11,24,2,,1,,,,,,1,,,,,,1,,,,1,,,,,,,,,
547263,8,50,21,4,,1,,5,1,,1,5,1,1,1,,,,,,,,,,,1,,,,,,,,,,,,,,,,
547263,7,71,38,1,1,2,,1,1,,2,4,2,8,13,1,,,1,,,,,,,,,,,,,,,,,1,,,,,,
547263,6,89,36,3,,,,3,,,,16,2,3,5,,1,,,,,,2,,,,,,,,,,,,,,,,,,,1
547263,5,91,30,4,,,,4,,,3,4,1,11,1,,,2,,,,,,,,,,,,,,,,,,,,,,,,
547263,2,403,98,19,5,2,,13,,1,9,16,4,12,16,,,,,1,,,,,,,,,,,,,,,,,,,,,,
547263,1,598,202,35,1,5,,15,3,,12,28,22,48,20,,,,1,5,,,5,,,,,,,,,,1,,,,1,,,,,
547263,4,104,44,5,,,,11,1,,2,4,6,10,4,,,,,1,,,,,,,,,,,,,,,,,,,,,,
547263,3,395,124,12,1,3,,18,2,,10,17,18,31,4,1,,,1,2,,1,,,,,,,,,,,1,,,,1,1,,,,
547263,10,35,14,3,,,,1,,,1,1,1,2,5,,,,,,,,,,,,,,,,,,,,,,,,,,,
547263,9,26,14,2,,,,1,,,2,2,,2,2,,,,,,,,3,,,,,,,,,,,,,,,,,,,
547280,7,226,79,14,1,5,,8,,,3,19,4,21,3,,,,,,,,,,,,,,,1,,,,,,,,,,,,
547280,6,251,69,13,2,4,,7,1,,4,10,8,18,,,1,,,,,,,,,,,,,1,,,,,,,,,,,,
547280,5,100,29,,1,1,,2,,,,3,4,9,1,,1,,,1,,2,3,,,,,,,1,,,,,,,,,,,,
547280,4,49,15,4,,1,,2,,,,1,2,2,1,,,,,,,,,,,2,,,,,,,,,,,,,,,,
547280,3,872,169,19,4,8,,22,,,14,20,19,40,9,,2,,,1,,,7,,1,,,,2,1,,,,,,,,,,,,
547280,2,730,177,22,2,10,,22,,1,18,27,24,33,6,,1,1,,1,1,2,3,,1,,,,1,,,,,,,1,,,,,,
547280,1,677,160,27,3,12,,7,1,2,23,18,20,18,19,,1,3,,1,,,,,1,2,,1,,,,,,,,,1,,,,,
547336,12,470,121,21,5,6,,4,2,1,13,18,7,26,6,,,,1,2,1,,3,,,1,,,2,,,,,,,1,,,,,1,
547336,11,567,305,65,3,6,,20,3,1,54,39,9,51,36,2,1,,1,3,3,,5,,,1,,,,1,,,,,,,,1,,,,
547336,10,247,152,24,4,3,,14,,,20,8,13,37,11,,,,,3,1,,7,,,,,,2,,,1,2,,,,2,,,,,
547336,9,850,260,32,4,14,,17,3,,32,49,19,41,28,1,1,1,,2,3,1,3,2,2,1,,,1,,,,,,1,,1,1,,,,
547336,8,1073,314,63,2,9,,17,4,4,31,56,26,55,21,2,,1,,1,3,,7,,3,,,,2,,,2,5,,,,,,,,,
547336,7,1020,308,53,5,16,,22,3,,30,39,42,56,23,,,,2,,,,2,,2,1,,3,1,4,,,1,,,,3,,,,,
547336,6,779,266,31,4,17,,12,1,1,44,38,23,50,21,1,,,,1,5,,4,,3,1,1,,2,2,,1,,,,,3,,,,,
547336,5,773,294,54,3,11,,19,,3,37,68,17,46,21,,,,2,3,,,3,,2,,,,,2,,,1,,,,2,,,,,
547336,4,302,79,7,,4,,4,1,,11,12,5,21,8,1,,,1,,,,1,1,,,,,1,,,,,,,,,,1,,,
547336,3,104,36,6,1,1,,2,,,3,3,9,6,3,,,,,1,1,,,,,,,,,,,,,,,,,,,,,
547336,2,650,191,29,1,13,,19,,3,26,25,12,49,5,,1,,,1,,,2,,1,,,,4,,,,,,,,,,,,,
547336,1,266,77,19,2,5,,3,1,,5,8,4,14,6,,,,,3,,,4,1,,,,,,2,,,,,,,,,,,,
547441,4,69,30,4,1,,,8,1,,3,6,,3,2,,,,1,,,,1,,,,,,,,,,,,,,,,,,,
547441,3,141,56,10,,7,,3,1,,1,12,2,6,5,,,,,1,1,,3,,,,,,1,1,,,,,,1,,,,,,1
547441,2,121,32,14,,,,,,,,8,2,,7,,,,,,,1,,,,,,,,,,,,,,,,,,,,
547441,1,252,87,14,2,7,,4,,,7,20,7,9,14,,1,,,,,,,,,,,,,,,,1,,,,,,,,,1
547468,1,208,66,18,1,7,1,6,,,6,9,3,11,2,,,,,2,,,,,,,,,,,,,,,,,,,,,,
549240,29,96,34,5,1,1,,4,2,,4,2,2,10,,,,,1,,,,,,,,,,,,,,,,,,1,,1,,,
549240,13,1010,330,53,9,13,,20,3,,36,49,38,56,37,,,1,1,2,,,3,,,1,1,,1,1,,,,,,1,4,,,,,
549240,28,328,114,23,,6,,8,2,,15,20,13,10,2,,,,,3,,,5,2,2,,,,1,,,1,,,,,,,1,,,
549240,27,428,141,26,5,3,,12,1,,15,22,6,30,5,,,,,3,,,1,,3,1,,,2,1,,3,,,1,,,,,,,1
549240,6,703,192,16,4,3,,29,2,,16,39,20,48,6,,,,,,1,,3,2,1,1,,,1,,,,,,,,,,,,,
549240,4,651,178,18,2,4,,27,,2,8,18,24,52,10,,,,3,,,,3,1,,1,,,2,1,,,1,,,,1,,,,,
549240,25,703,226,54,1,8,,7,,1,44,27,8,40,8,,,2,,,,,13,,3,,,,,,1,6,,,,,2,,,,,1
549240,26,999,252,33,3,9,,11,2,2,29,38,22,58,14,1,,,2,4,,,3,,,,,,2,10,,3,,,,,1,,,,5,
549240,5,886,227,30,2,9,,30,2,,15,22,28,64,7,,3,2,,2,,,5,,1,,,,1,,,,,,,,2,,1,,1,
549240,11,643,205,18,1,12,,35,1,,20,34,12,48,15,,,,,1,,,3,,1,1,,,1,,,,,,,,1,,,,1,
549240,9,803,278,41,7,15,,18,5,,29,44,20,69,16,2,,,,1,,,6,,2,,,,,3,,,,,,,,,,,,
549240,10,1072,339,68,4,14,,20,2,3,32,36,39,89,10,1,,,1,1,4,,8,,2,1,1,,,,,1,,,,,,,1,,1,
549240,8,458,151,35,,6,,4,,2,22,20,10,20,12,,,1,2,1,,,3,,3,1,,,4,2,,,1,,,,2,,,,,
549240,7,557,200,31,8,5,,16,,,19,19,19,37,19,,,1,,6,3,,10,1,1,1,,,2,,,,,,,,2,,,,,
549240,3,855,342,59,3,6,,34,2,1,51,40,35,74,14,,,,,4,1,,11,,4,1,,,1,,,,,,,,,1,,,,
549240,2,605,174,43,2,3,,19,1,,27,30,14,25,4,,,,,2,1,,1,,1,,,,,,,,,,,,,1,,,,
549240,1,1375,248,49,3,4,1,6,4,3,35,45,16,33,24,,1,,,2,,,11,,1,1,,,1,1,,,1,2,,,4,,,,,
549240,24,1165,407,63,9,12,,21,1,2,46,62,41,89,17,2,1,1,,7,2,,16,,2,2,,,1,3,,3,,,,,,1,,,3,
549240,23,1024,252,40,4,11,,14,4,1,45,41,26,39,14,,1,,1,,,,4,,,,,,,2,,,,,,2,,3,,,,
549240,22,973,206,17,3,10,,37,3,,19,22,43,33,7,1,,1,,,,,1,,,1,,,2,1,,3,,,,,1,,,,1,
549240,21,1004,200,18,2,7,,42,,,19,29,14,39,9,1,1,1,,3,1,,2,,4,1,,,1,3,1,1,,,,,,1,,,,
549240,20,1183,285,36,3,12,,34,3,,21,38,32,79,3,2,4,1,,,1,1,7,,2,3,,,,,,1,,,1,,1,,,,,
549240,18,673,215,32,4,8,,27,2,,21,23,19,55,7,1,1,,,7,,,3,,1,,,,1,1,,,,,,,1,,1,,,
549240,19,778,233,31,3,15,,22,1,,35,21,14,58,13,,,,,2,,,11,,,,,,3,,,1,1,,,,2,,,,,
549240,15,1092,358,71,7,10,,20,3,,50,49,29,66,21,,,1,,,1,,12,,,,,,2,8,,1,,2,2,,3,,,,,
549240,16,1004,253,34,6,8,1,9,3,10,33,45,30,30,19,,2,2,1,1,2,,6,1,,1,,,2,1,,4,1,1,,,,,,,,
549240,17,762,208,47,2,13,,9,,1,35,31,15,30,20,,,,,,,,4,,,,,,,,,,,,,,,,,,1,
549240,14,647,176,20,3,2,,11,3,,36,28,13,23,19,,,,2,,,,4,,,1,,,1,1,,1,3,,,1,3,,,,1,
549240,12,914,338,80,2,14,,16,,1,64,32,26,47,31,,1,1,1,1,,,14,,1,,,,2,1,,1,,,,,1,,,,1,
549258,4,117,39,5,1,3,,4,,,2,7,5,8,3,,,,,1,,,,,,,,,,,,,,,,,,,,,,
549258,3,89,42,3,,,,4,,,8,5,7,8,4,1,,,,,,,,,2,,,,,,,,,,,,,,,,,
549258,2,86,27,2,1,,,2,1,,1,3,8,5,3,,,,,,,,,,,,,,,1,,,,,,,,,,,,
549258,1,439,108,21,2,10,,13,,2,7,13,11,17,6,,,,,,,,1,,1,2,,,,,,,2,,,,,,,,,
549266,3,72,19,5,1,,,3,1,,,,2,5,,,,,,,,,,,,,,,,2,,,,,,,,,,,,
549266,2,99,32,1,1,3,,4,,,3,3,7,8,2,,,,,,,,,,,,,,,,,,,,,,,,,,,
549266,1,932,249,49,6,13,,20,2,,31,41,10,52,8,1,1,1,,4,1,,1,,4,,,,,1,,,,1,,,1,1,,,,
549291,1,317,105,26,2,5,,2,,1,17,17,13,10,5,,,,,2,,,,,1,,,,,1,,,,,,,1,1,1,,,
549304,1,234,56,5,2,,,14,1,,1,6,5,9,4,,,,,,,,3,1,,,,,,2,,,1,,,1,1,,,,,
549321,1,126,56,3,2,2,,5,,,12,7,5,14,1,,,1,,,1,,2,,,,,,,,,,,,1,,,,,,,
549339,2,75,28,6,,,,4,,,3,4,,9,,,,,,,,,1,,1,,,,,,,,,,,,,,,,,
549339,1,758,162,20,1,4,,14,4,1,18,28,19,28,8,,,,,,2,,5,,1,4,,,1,2,,,,,1,,,,,,1,
549347,1,953,245,28,1,9,,13,9,,40,46,25,49,6,1,,,,3,3,,4,,3,1,1,,,1,,1,,,1,,,,,,,
549363,4,136,59,13,,1,,6,1,,4,12,4,12,,2,,,,,,,,,2,,,,1,,,1,,,,,,,,,,
549363,3,110,34,4,1,1,,8,1,,2,5,3,2,3,,,1,,1,,,1,,,,,,,,,,,,,,,,1,,,
549363,2,115,25,4,,1,,4,,,4,5,2,3,,,,,,,,,2,,,,,,,,,,,,,,,,,,,
549363,1,363,97,23,,2,,11,,2,15,14,13,9,4,,1,,,,,,1,,,1,,,,,,,,,,,,1,,,,
549371,1,209,63,9,3,1,,10,1,,7,3,7,11,8,,,1,,,,,,,,,,,1,,,,,,,,1,,,,,
549380,2,88,31,5,1,1,,3,,1,5,6,4,5,,,,,,,,,,,,,,,,,,,,,,,,,,,,
549380,1,177,49,6,1,2,,6,1,1,5,1,3,9,5,1,,2,1,1,,,,1,,,,,1,1,,,,,,,,,,,1,
549380,4,81,37,7,1,3,,5,,,5,3,2,7,2,,,,,,,,1,,,,,,,,,1,,,,,,,,,,
549380,3,107,43,6,2,1,,4,,,10,6,4,5,3,,,,,,,,,,,,,,1,,,,,,1,,,,,,,
549398,1,215,59,6,,4,,1,,,7,11,2,15,2,,2,,,1,,,2,1,,,,,2,1,,,,,,2,,,,,,
549410,1,230,66,12,1,6,,3,,,3,18,4,7,4,,,,1,,,,3,,,,,,1,,,1,,,,1,1,,,,,
549428,2,114,43,12,,5,1,,,,2,,2,12,9,,,,,,,,,,,,,,,,,,,,,,,,,,,
549428,1,272,92,15,3,3,,7,2,,13,19,8,9,6,,1,,,3,,,,,,,,,,,,1,1,,,,1,,,,,
549452,2,196,40,1,,1,,2,1,4,8,5,5,5,5,,,,1,,1,,,,,,,,1,,,,,,,,,,,,,
549452,1,672,214,20,3,5,,11,2,,16,36,10,58,37,,,,1,4,,,1,,2,,,,1,,,,,,1,,1,,1,,3,1
549479,1,222,56,8,,1,,15,,,2,9,7,13,1,,,,,,,,,,,,,,,,,,,,,,,,,,,
549487,2,144,56,7,,3,,7,,,3,9,5,12,1,,,,,2,,,,1,,2,,,1,,,,1,,,,,1,1,,,
549487,1,403,106,8,2,,,8,2,,11,19,20,17,10,,,,,4,,,4,,,,,,,,,,,,,1,,,,,,
549495,1,473,117,21,7,5,,8,,,17,7,13,25,10,,,1,1,,,,,,,,,,,,,,,,,,,,2,,,
549509,3,58,12,,,1,,1,1,,4,,,3,1,,,,,,,,,,,,,,,,,,,,,,,1,,,,
549509,2,48,15,2,,5,,1,,,5,1,1,,,,,,,,,,,,,,,,,,,,,,,,,,,,,
549509,1,229,51,15,1,1,,4,,,4,6,1,13,,,2,,,,,,1,,1,,,,1,,,,,,1,,,,,,,
549517,3,174,60,13,1,,,5,1,,8,8,4,10,8,,,,,,,,,,1,,,,,1,,,,,,,,,,,,
549517,2,246,71,11,5,5,,6,,,13,12,4,5,6,,,,,1,,,2,,,,,,,,,,1,,,,,,,,,
549517,1,826,261,35,,7,,13,1,,39,45,19,47,37,,,,,,,,8,,5,,,1,,1,,,1,,,,1,,,,1,
549525,1,173,71,2,2,5,,9,,2,2,8,14,19,1,,,3,,,,,2,,2,,,,,,,,,,,,,,,,,
549541,1,147,64,19,,,,6,1,1,1,6,8,10,10,,,,,,,,1,,,,,,1,,,,,,,,,,,,,
549568,1,223,45,4,2,,,5,,,5,10,1,11,2,,1,,,,,,2,,,,,,1,1,,,,,,,,,,,,
549576,9,113,26,3,1,1,,1,,,3,8,,5,3,,,,,,,,,,1,,,,,,,,,,,,,,,,,
549576,8,95,33,8,,3,,,,,6,3,1,6,4,,,1,,,,,,,,,,,1,,,,,,,,,,,,,
549576,7,757,215,23,1,9,,24,3,3,20,20,18,59,15,,1,,,5,,,1,,2,,,,2,1,,4,,,,,,,,,4,
549576,6,1044,304,30,2,21,,21,3,1,37,31,18,106,15,1,,1,1,1,2,,6,,3,1,,,2,1,,,,,,,,,,,,
549576,5,905,244,26,,18,,19,2,1,22,27,25,70,24,,,,,,,,5,,1,1,,,,,,,1,,,,1,1,,,,
549576,4,981,286,53,1,7,,27,1,,24,39,32,69,13,1,,1,1,3,,,3,,,3,,,1,,,1,1,,,,2,1,2,,,
549576,3,1086,231,44,,18,,25,,3,29,31,19,41,7,,1,,1,2,1,,1,,2,1,,1,3,,,,,,1,,,,,,,
549576,2,963,292,65,4,12,,29,,4,30,33,29,61,18,,,,,1,,,4,,,,,,1,,,,,,,,1,,,,,
549576,1,946,269,45,2,10,,31,,1,26,48,15,51,19,,,,,1,,,11,1,1,,,,,2,,,2,,,1,1,,1,,,
549584,3,67,20,3,,1,,,,,2,4,2,5,2,,,,,,,,,,,,,,,,,,1,,,,,,,,,
549584,2,76,53,5,,3,,,,,15,7,7,6,7,1,,,,,,,,,1,,,,,,,1,,,,,,,,,,
549584,1,805,204,31,3,9,,9,3,,18,39,19,43,8,,1,1,,1,2,,4,,1,2,,,5,,,,1,,1,,2,,,,1,
549592,2,95,36,2,,2,,1,2,,9,6,1,5,2,,,1,2,,,,1,,1,,,,,,,,,,1,,,,,,,
549592,1,1153,299,44,4,17,,36,4,1,25,22,38,66,15,1,1,,2,6,1,,7,2,,,,,,1,,1,4,,1,,,,,,,
549606,1,207,44,3,1,1,,8,,,3,2,8,4,8,,1,,,,,,1,,1,,,,,,,,,3,,,,,,,,
549614,1,82,28,8,,,,3,,,1,4,6,4,1,,,,,,,,,,,,,,,,1,,,,,,,,,,,
549631,1,577,166,18,,6,,6,,,27,28,14,18,26,1,,,,2,,,15,,4,,,,,,,,,,,,1,,,,,
549657,1,128,47,16,4,1,,4,,2,2,5,2,9,1,,,,,,1,,,,,,,,,,,,,,,,,,,,,
549681,1,245,83,12,3,2,,1,1,1,11,9,12,22,3,,,,,3,,,2,,,,,,,1,,,,,,,,,,,,
549703,2,56,20,2,2,1,,1,,,1,3,1,3,1,,,,2,,,,1,,2,,,,,,,,,,,,,,,,,
549703,1,204,84,28,2,6,,5,,,10,8,5,14,,1,,,,1,1,,1,,1,,,,1,,,,,,,,,,,,,
549711,1,284,109,8,,2,,12,3,1,11,37,3,18,11,,,,,,,,1,,1,,,,,,,,,,,,1,,,,,
549754,1,307,64,11,1,3,,4,,,6,13,9,11,4,,,1,,,,,,,,,,,1,,,,,,,,,,,,,
549771,3,1147,284,50,4,15,,18,2,2,15,33,27,75,18,1,1,,,1,2,,5,,3,2,,,4,2,1,,,,1,,2,,,,,
549771,2,833,201,15,3,15,,16,2,4,13,22,19,59,12,1,1,1,,1,1,,6,1,2,,,,3,,,2,1,,,,,,,,1,
549771,1,1067,262,38,5,7,,39,2,1,17,20,22,81,15,1,,,,1,,1,3,,,1,,,2,1,,2,2,,,,,,,,,1
549771,11,64,19,3,,,,2,,,7,2,,3,,,,,1,,,,1,,,,,,,,,,,,,,,,,,,
549771,10,41,18,4,,,,3,,,,1,2,7,,,,,,,,,,,,,,,1,,,,,,,,,,,,,
549771,9,205,54,7,,3,,4,,,10,4,6,12,3,,,1,,,,,1,,,,,,,3,,,,,,,,,,,,
549771,8,181,49,6,,2,,3,1,,6,4,4,11,5,,,,3,,,,1,,,,,,,1,,,,,,1,1,,,,,
549771,7,67,18,2,,,,2,,,1,4,2,1,3,,,,,,,,1,,,,,,,2,,,,,,,,,,,,
549771,6,114,28,3,,4,,,1,,3,6,2,1,5,,,,,1,,,,,,,,,,,,,,,,,,,,,2,
549771,5,144,27,2,1,,,2,,2,3,3,7,5,,,,,1,,,,,,,,,,1,,,,,,,,,,,,,
549771,4,72,25,1,1,2,,1,,,2,4,1,4,,1,1,3,,1,,,,,,,,,1,,,,1,,,,1,,,,,
549797,1,237,51,7,1,5,,7,1,1,5,7,3,6,6,,1,,,,,,,,,,,,,1,,,,,,,,,,,,
549801,1,427,125,16,2,5,,7,2,,11,22,3,36,15,1,,,,,1,,1,,,,,,1,,,,1,,,,,,,,1,
549827,1,330,83,9,1,3,,4,,1,6,13,13,23,4,1,,,,4,,,1,,,,,,,,,,,,,,,,,,,
549843,2,155,51,5,,2,,2,1,,7,11,2,6,4,,,1,,3,,,,1,,,,,3,3,,,,,,,,,,,,
549843,1,965,220,38,6,7,,23,1,,30,34,11,41,10,,,1,,1,1,,10,,1,2,,,,,,,,,1,1,1,,,,,
549851,1,227,84,10,2,4,,20,,,6,13,3,11,6,,,,,1,3,,,,,1,,,,,,3,,,,,,,,,1,
549860,1,291,89,9,2,1,,7,,2,6,15,7,24,12,,,2,,,,,1,,,,,,,,,,,,,,1,,,,,
549878,1,220,77,9,3,2,,3,4,,12,17,7,12,4,,,,,3,,,1,,,,,,,,,,,,,,,,,,,
549932,1,142,53,3,1,3,,5,,,6,14,1,19,1,,,,,,,,,,,,,,,,,,,,,,,,,,,
549975,1,179,52,5,2,,,8,,,5,5,10,4,1,,2,,,2,,,,,,,,,3,,,3,,,,,,,,,2,
549991,1,273,93,10,,3,,8,,,9,16,15,19,5,,,,,2,,,1,1,1,,,,2,,,,,,1,,,,,,,
550001,1,141,48,5,,2,,2,,,6,9,3,10,5,,,,,5,,,,,,,,,1,,,,,,,,,,,,,
550027,1,646,192,25,6,6,,21,1,1,13,21,13,47,17,1,1,1,2,3,1,,4,,4,2,,,2,,,,,,,,,,,,,
550035,1,294,65,8,3,,,9,2,,6,10,1,20,2,,,,,1,1,,1,,,,,,1,,,,,,,,,,,,,
550043,1,139,24,1,,3,,2,,2,,7,,7,,1,,,,,,1,,,,,,,,,,,,,,,,,,,,
550060,1,263,88,23,1,3,,5,,1,8,18,5,15,4,1,,1,1,,,,1,,,,,,,,,,,,,,,,1,,,
550094,9,411,117,19,1,6,,13,,,9,7,14,31,11,1,,,,,,,1,,,,,,1,,,,,,1,,2,,,,,
550094,8,911,276,66,1,9,,12,5,2,41,40,14,51,20,,,,,1,1,,8,,3,,,,,,,,1,,,,1,,,,,
550094,7,1384,354,69,5,18,,18,1,1,48,50,22,75,21,,,,2,3,1,,11,,4,,,,1,,,,,,,,2,1,,,1,
550094,6,1002,229,23,2,9,,31,1,,20,27,28,63,6,,1,2,1,,1,,5,,1,1,,,2,,,,,,,,1,,1,,2,1
550094,5,770,235,28,8,11,,28,3,4,15,21,20,53,12,,2,1,1,3,1,,3,1,5,,,,6,2,,,,3,,,1,,,3,,
550094,4,903,278,42,5,8,,32,3,1,35,34,15,49,35,,,,,3,,,9,,1,2,,,1,2,,1,,,,,,,,,,
550094,3,932,290,46,,13,,19,1,,49,43,16,60,25,,2,2,,2,,,4,,3,,,,3,,,,,1,1,,,,,,,
550094,2,1107,350,53,3,16,,23,1,,56,46,33,73,29,1,,1,,,,,6,,2,,,,1,,,1,1,,,,2,1,1,,,
550094,1,1436,296,40,7,15,,19,2,1,35,48,36,53,22,,,1,2,1,,,6,1,,1,,,,3,,,1,,,,1,,,,,1
550116,1,255,60,12,2,3,,4,,,2,8,9,15,2,,,,,,,,,,,,,,1,2,,,,,,,,,,,,
550124,1,275,79,7,2,12,,7,,,14,11,,16,7,1,,,,,,,1,,,,,,,1,,,,,,,,,,,,
550159,1,223,75,5,,4,1,10,1,,7,10,13,17,,2,,,1,,,,,,1,1,,,1,,,,,,1,,,,,,,
550167,4,38,21,1,1,,,,,,2,3,,5,4,,,,,1,,,,,,,,,,,,,,,,4,,,,,,
550167,3,75,23,8,1,,,1,,1,,2,2,5,,,,,,,,,,,1,,,,,1,,,,,,,,,,,1,
550167,2,112,34,12,,,,2,,,1,1,6,7,4,,,,,,,,,,,,,,,,,,,,,,,,1,,,
550167,1,1035,246,37,3,9,,15,7,,36,31,21,48,18,1,1,,2,2,,,3,,,1,1,,1,4,,1,,,,2,,,,,2,
550183,1,309,83,7,,2,,8,2,,7,11,4,26,4,,,,1,1,1,,,,,,1,,,2,,,,2,,,,1,3,,,
550205,1,307,54,9,,,,6,,,7,10,7,5,2,,,,,1,1,,1,,1,,,1,,1,1,,1,,,,,,,,,
550221,1,398,96,8,,6,,4,2,,18,15,10,19,8,,,,,2,,,3,,,,,,,1,,,,,,,,,,,,
550230,1,1119,305,30,10,9,1,23,4,,34,41,32,79,24,,,,3,1,2,,4,3,,,,,1,3,,,,,,,1,,,,,
550248,1,278,73,10,,3,2,7,3,1,2,8,7,16,13,,,,,,,,1,,,,,,,,,,,,,,,,,,,
550264,1,430,108,25,1,16,,10,1,3,8,7,10,12,2,,2,1,2,2,,,4,,2,,,,,,,,,,,,,,,,,
550329,1,392,81,13,,5,,11,1,,3,7,7,22,6,1,1,,,,,,3,,,,,,1,,,,,,,,,,,,,
550337,1,189,114,18,1,,,4,1,,36,23,5,13,7,,,,,,,,3,,3,,,,,,,,,,,,,,,,,
550345,1,251,69,5,2,8,,4,1,,6,8,9,13,6,,,,,,1,,3,,1,,,,,,,,,,1,1,,,,,,
550353,1,572,151,31,,3,,19,3,,20,29,15,14,7,,1,,,,,,5,,1,,,,,,,,2,,,,1,,,,,
550361,2,658,169,18,1,2,,17,1,1,21,29,17,32,19,1,,2,2,,1,,2,1,1,,,,,1,,,,,,,,,,,,
550361,1,906,225,41,3,6,,12,2,,32,39,12,53,14,,,,,2,1,,2,,1,,,,,,,1,1,,1,,,,,,2,
550396,1,158,44,8,1,,,1,,,2,10,1,14,5,,,,,,,,1,,,,,,,,,,,,,,,,,,1,
550418,4,89,33,5,1,,,2,,,2,4,10,3,5,,,,,,,,,,,1,,,,,,,,,,,,,,,,
550418,3,102,28,6,1,,,4,1,,5,2,,3,3,,,1,1,,,,,,,,,,,,,,,,,,1,,,,,
550418,2,91,26,2,,1,,1,1,,2,6,3,9,,,,,,,1,,,,,,,,,,,,,,,,,,,,,
550418,1,243,67,4,3,4,,2,1,1,6,6,11,17,5,,,,,,,,1,,2,,,,1,,,2,,,,,1,,,,,
550426,1,291,85,3,,2,,3,2,,10,24,8,16,8,1,,,2,3,,,3,,,,,,,,,,,,,,,,,,,
550434,1,463,124,16,,10,,5,1,1,11,11,17,34,6,1,,,,3,1,,3,,,,,,1,1,,,1,,,,,,1,,,
550442,4,650,163,23,1,5,1,15,1,,16,19,25,26,18,1,1,,,1,1,,4,,2,2,,,1,,,,,,,,,,,,,
550442,3,511,146,25,2,2,,17,,1,16,8,12,36,11,2,,,1,,3,,2,,2,,,,2,2,,,,,1,,1,,,,,
550442,2,555,108,24,1,1,,5,,2,14,16,14,20,8,,,,,,,,1,1,,1,,,,,,,,,,,,,,,,
550442,1,360,90,10,2,3,,7,2,,10,9,15,20,4,,,,,2,,,3,,2,,,,,,,,,,,1,,,,,,
550451,1,423,127,24,3,1,,17,3,,19,11,12,26,3,,1,,,,,,3,,,,,,1,,,,2,,,,,1,,,,
550485,1,128,50,6,1,,,7,2,,3,6,5,8,5,,,,3,,,,1,,1,,,,,,,,,,1,,,,,,,1
550515,4,72,23,2,,3,,1,,2,1,,,1,9,,1,,,,,,,,1,,,,1,1,,,,,,,,,,,,
550515,3,87,22,6,,3,,3,,,2,1,,6,1,,,,,,,,,,,,,,,,,,,,,,,,,,,
550515,2,349,110,24,4,3,,9,2,,14,14,10,16,6,,,,,1,1,,4,,,,,,1,,,1,,,,,,,,,,
550515,1,453,134,19,6,3,,25,1,1,19,14,7,19,10,,,,,,2,,3,,,2,,,,,,,1,,,2,,,,,,
550523,1,162,83,18,3,1,,7,,,11,22,3,12,1,,,,,2,,,1,,1,,,,,1,,,,,,,,,,,,
550531,1,233,57,8,1,1,,9,1,,10,7,9,4,2,,1,,1,,,,1,,,,,,,,,,,,,,2,,,,,
550540,1,729,195,19,2,11,,13,,1,14,21,18,44,39,,2,,2,2,1,,5,,,,,,,1,,,,,,,,,,,,
550540,4,101,31,9,,3,,,,,4,2,,6,5,,,,,,,,1,,,,,,1,,,,,,,,,,,,,
550540,3,95,29,1,1,1,,,,,,5,3,4,5,,,,,1,,,4,,,,,,3,,,,,,,,1,,,,,
550540,2,66,15,1,,2,,3,,,,,4,2,3,,,,,,,,,,,,,,,,,,,,,,,,,,,
550558,1,486,124,17,1,1,,14,,,12,15,10,33,14,,,,,1,2,,,,,,,,1,,,1,,,,1,,,1,,,
550574,1,336,127,17,5,5,,10,1,1,14,22,6,17,19,,,1,2,1,1,,4,,,,,,,,,,,,,,,1,,,,
550582,2,126,50,2,,,,2,,,4,8,7,11,10,,,,,,,,4,,,1,,,1,,,,,,,,,,,,,
550582,1,124,44,3,1,2,,2,,,6,5,6,8,8,,,,,,,,,,,1,,,,,,,,,1,,,1,,,,
550604,1,99,28,4,1,,,5,1,,1,,3,5,2,,,,,,2,,1,,,,,,2,,,,,,1,,,,,,,
550621,7,47,10,2,1,1,,,1,,1,1,,1,2,,,,,,,,,,,,,,,,,,,,,,,,,,,
550621,6,146,32,14,,,,4,,,2,5,1,3,,,,,1,,1,,,,1,,,,,,,,,,,,,,,,,
550621,5,71,39,2,2,2,,10,,,4,6,5,4,1,,,,,,,,1,,,1,,,1,,,,,,,,,,,,,
550621,4,101,41,2,2,,,2,,,6,4,7,11,,,,,,,,,3,1,,,,,,,,,1,,,,2,,,,,
550621,3,119,44,3,,1,,10,2,,2,1,11,7,4,,,,,,,,2,,,,,,,,,,,,,,,1,,,,
550621,2,92,32,6,,,,7,,,4,3,4,6,1,,,,,,,,1,,,,,,,,,,,,,,,,,,,
550621,1,619,199,46,,5,,28,,,13,25,12,46,10,,2,,,1,,,7,,2,,1,,,,,,1,,,,,,,,,
550647,7,958,181,20,3,4,,11,,,20,26,32,48,9,,,,1,,,,4,,,,,,1,,,,,,,,,2,,,,
550647,6,1142,204,26,,17,,15,1,,16,24,33,40,12,1,1,2,,1,,,6,,1,1,2,,,,,,,,1,,3,,,,1,
550647,5,726,160,18,1,12,,8,4,1,16,18,19,42,10,1,,,,,1,,3,,,,,,,1,,,1,,3,1,,,,,,
550647,4,713,151,27,,5,,11,3,,11,14,23,32,15,,,,,1,2,,,,,1,,,3,1,,,,,1,1,,,,,,
550647,3,878,239,34,2,18,,17,1,1,21,25,16,49,30,,,1,2,5,1,,4,,,,1,,1,7,,,1,,,,1,,1,,,
550647,2,514,115,11,,3,,10,3,1,13,12,7,28,18,,,1,1,1,,,,,1,,,1,1,,,,,,,,1,1,,,1,
550647,1,1057,209,46,,1,1,3,1,,33,31,20,35,21,,,1,,1,1,,7,,1,1,,,1,,,,1,,,1,1,,,,1,
550655,1,391,95,13,5,4,,5,2,,7,15,7,25,3,,,,,,1,,1,,,1,,,1,,,4,,,,,1,,,,,
550663,1,1351,368,53,9,6,,38,8,2,40,44,41,65,38,,2,2,1,5,1,,5,1,,,,,,2,,1,2,,,1,1,,,,,
550671,1,1143,205,34,1,4,1,25,,1,24,29,18,48,7,,,,,3,,,5,,,,,,,3,,,1,,,,,1,,,,
550671,2,923,182,21,4,7,,27,3,,15,25,21,46,7,,,,,,1,,1,,1,,,,1,1,,,,,,,1,,,,,
550671,3,932,135,13,2,,,15,,,15,23,5,39,16,,1,,,,1,,2,,,1,,,,2,,,,,,,,,,,,
550680,1,298,79,10,4,5,,10,1,,7,9,5,12,10,,,2,,,,,3,,,,,,,1,,,,,,,,,,,,
550698,2,61,24,3,,,,1,,,4,10,,4,2,,,,,,,,,,,,,,,,,,,,,,,,,,,
550698,1,195,50,17,,4,,1,1,,2,3,3,13,3,,,1,,,,,,,1,,,,,,,,,,,,,,,,1,
550701,1,266,46,3,2,3,,1,,,4,3,7,18,2,,,,,,,,1,,,,,,,,2,,,,,,,,,,,
550728,5,151,64,3,,8,,5,,,8,2,5,25,5,,,,,1,,,,,,1,,,,,,,,,,,,1,,,,
550728,4,103,32,7,1,1,,3,,,2,4,1,7,2,1,,,,,,,1,,,,,,,,,,,,,,,2,,,,
550728,3,79,39,2,1,,,5,2,,11,3,,14,,,,,,1,,,,,,,,,,,,,,,,,,,,,,
550728,2,105,33,3,,,,3,,3,3,3,4,10,2,,,,,,2,,,,,,,,,,,,,,,,,,,,,
550728,1,959,203,35,3,8,,27,,,17,15,19,57,12,1,,,,1,,,5,,,,,,,,,,2,,,,1,,,,,
550761,1,96,31,3,,,,4,1,,3,4,,11,,,,,,,,,,,,,,2,1,1,,,,,,,,1,,,,
550787,8,408,133,21,3,2,,12,2,,18,13,9,35,13,,,,,1,,,2,,,,,,,1,,1,,,,,,,,,,
550787,7,755,241,22,7,14,3,22,3,1,19,23,29,70,14,3,,,,1,1,,,1,1,,,,1,,,2,2,,,,2,,,,,
550787,6,802,237,39,1,11,,17,4,,25,21,32,64,9,,1,2,,,1,,3,1,1,,,,,2,,1,,,,,2,,,,,
550787,5,630,196,25,5,8,,17,,1,33,28,18,51,3,,,,,1,1,,1,,1,,,,2,,,,,,,,1,,,,,
550787,4,191,38,9,2,4,,6,,,,2,4,4,5,,,,,,,,,,1,,,,,,,,1,,,,,,,,,
550787,3,343,133,33,1,2,,11,,,7,19,8,31,16,,,1,,,,,4,,,,,,,,,,,,,,,,,,,
550787,27,865,233,34,5,8,,16,1,1,29,28,23,49,14,1,,,1,3,,,6,2,,2,,,1,2,1,1,2,,,,2,,,,1,
550787,26,1027,326,48,5,8,,21,3,3,24,43,31,92,24,,,,,6,1,,2,2,2,1,,,2,2,,,,,,2,3,,,,1,
550787,25,989,306,57,4,9,,18,3,3,43,29,27,77,17,,,,1,,1,,6,,,1,,,1,,,,,,,1,3,4,1,,,
550787,2,271,76,1,1,2,,2,,1,10,16,6,28,3,,,,,,,,3,,,1,,,,,,,,,,,2,,,,,
550787,1,589,174,35,1,14,,11,,1,16,34,13,32,11,,,,,,,,4,,,1,,,,,,,,,,,1,,,,,
550787,23,822,231,21,2,7,,23,4,,14,25,31,76,11,,,,,4,,,5,,1,,,1,1,,,3,,,,,,,2,,,
550787,22,904,253,24,4,10,,25,1,,29,38,38,64,7,,,,,1,2,,6,,,1,,,,,,,1,,,,2,,,,,
550787,21,840,191,21,2,5,,17,,1,12,31,23,53,12,,,2,2,1,,,1,,4,,,,,2,,1,,,,,1,,,,,
550787,20,751,197,15,4,14,,16,3,1,16,20,32,58,7,,2,,1,1,,,6,,,,,,1,,,,,,,,,,,,,
550787,19,567,162,18,5,9,,14,1,1,7,11,12,67,8,,,,,1,,,1,,,,,,,1,,,1,,,2,2,,1,,,
550787,18,650,181,37,3,6,,9,1,,24,23,15,54,4,,,,,,,,1,,,1,,,,,,1,,1,,,1,,,,,
550787,17,34,16,1,1,2,,,,,4,1,,6,,,,,,,,,,1,,,,,,,,,,,,,,,,,,
550787,16,788,261,44,3,14,,25,1,1,16,28,23,74,12,,3,1,1,3,,,3,1,1,,,,3,1,,1,,,,,1,,,,1,
550787,15,651,198,22,2,12,,17,1,2,14,25,21,52,13,1,,,1,2,,,1,,1,5,,,,,,1,,,,,4,,,,1,
550787,14,901,301,37,,14,,21,2,2,32,26,36,95,15,1,,,,5,2,1,2,,,,,,4,,,,1,,,1,4,,,,,
550787,13,1191,218,34,5,11,,10,,3,28,27,17,46,20,,,,,5,,,6,,,,,,2,,,1,2,,,1,,,,,,
550787,12,668,220,28,2,10,,22,1,1,30,26,6,68,10,,,,,,1,,9,,1,,,,3,,,,,,,,2,,,,,
550787,11,813,216,19,4,9,,11,4,2,29,21,27,53,17,4,1,,2,1,1,1,2,,,,,,5,1,,,,,,1,,,,1,,
550787,10,544,139,17,5,2,,18,1,,17,22,8,26,9,,,,2,2,,,4,,2,,,,,2,,,,,,,1,,1,,,
550787,9,725,194,27,3,7,,17,,,21,17,9,59,22,,1,,1,,,2,,,1,,,,1,3,,3,,,,,,,,,,
550809,1,1285,288,19,6,26,,28,1,2,26,36,29,75,24,1,1,,,3,,,4,,,1,,,,2,,1,1,,,,1,,,1,,
550817,2,46,17,2,1,2,,3,,,,2,,2,2,,,,,1,,,2,,,,,,,,,,,,,,,,,,,
550817,1,772,207,24,7,10,,13,2,1,17,28,25,47,10,4,1,,2,1,2,,2,,2,,1,,1,1,,,,,5,,,,1,,,
550833,1,160,39,5,,,,2,,,4,2,2,18,4,,,,,,1,,,,1,,,,,,,,,,,,,,,,,
550850,11,17,13,5,,,,,,,2,2,,4,,,,,,,,,,,,,,,,,,,,,,,,,,,,
550850,10,47,9,2,,,,,1,,,,,4,,,,,,1,,,,,,,,,,,,,,,1,,,,,,,
550850,9,41,24,2,,,,,1,,4,5,1,7,1,,,,,1,,,,,,,,,,,,,,,2,,,,,,,
550850,8,69,23,2,1,,,4,,,3,3,4,1,1,1,,,1,,,,1,,,,,,1,,,,,,,,,,,,,
550850,7,68,27,1,2,2,,1,1,1,,4,2,7,4,,,,,,,,2,,,,,,,,,,,,,,,,,,,
550850,6,90,30,12,,,,1,,,1,3,3,6,1,1,,,,1,,,,,,,,,,,,,,,,,,,1,,,
550850,1,1023,249,50,2,9,,20,1,,35,45,23,37,6,,,,,2,1,,8,1,2,,,,,2,,,,,1,,2,1,,,1,
550850,5,1093,356,77,4,20,,13,1,2,42,42,28,87,18,,,,2,1,,,10,,1,3,,1,1,,,,,,2,,1,,,,,
550850,4,1086,286,45,9,16,,36,4,2,21,41,18,52,9,2,3,3,1,1,2,,7,,,,,,3,1,1,2,1,,,,6,,,,,
550850,3,1024,345,60,1,22,,31,4,3,50,48,32,48,21,1,2,2,,,1,1,6,,3,1,1,,2,,,,,,1,,,1,3,,,
550850,2,735,206,21,7,17,,18,1,,16,30,11,54,11,,,,,1,,,4,1,3,2,,,1,2,,,,,,2,4,,,,,
550906,2,53,25,4,,2,,2,,,1,,5,8,,,,,,,,,3,,,,,,,,,,,,,,,,,,,
550906,1,347,73,9,1,4,,6,1,1,3,6,9,18,3,,,1,,3,,,2,,,,,,,4,,1,1,,,,,,,,,
550922,2,138,45,2,5,1,,3,,,,4,6,16,3,,,,2,,,,1,,,,,,1,1,,,,,,,,,,,,
550922,1,590,125,5,6,8,,6,,3,10,28,15,24,10,,,,,3,,,1,1,,1,2,,,,,,,1,,,,,1,,,
550949,1,154,40,5,2,2,,5,,1,4,6,3,8,,,,2,,,,,1,,,,,,1,,,,,,,,,,,,,
550957,3,87,33,,,,,8,,,,3,5,10,2,,,,,,,,1,,,,,,,,1,,,,,,,,1,2,,
550957,2,109,31,11,,2,,1,,,5,2,1,3,2,,,1,1,,,,1,,,,,,,,,,,,,,,1,,,,
550957,1,541,176,28,2,10,,12,3,5,16,21,10,46,11,,,,1,2,1,,3,,,,,,1,1,,1,,,,1,1,,,,,
550965,1,367,82,7,2,4,,4,1,,11,10,3,33,,,1,,1,,,,4,,,,,,,,,,,,1,,,,,,,
550981,2,48,25,4,,,,,,,2,11,3,1,2,,,,,,,,2,,,,,,,,,,,,,,,,,,,
550981,1,177,39,1,2,1,,8,,,1,9,4,7,4,,,,,,1,,,,,,1,,,,,,,,,,,,,,,
551015,1,293,74,1,2,5,,2,,,12,8,7,23,8,,,,,1,,,2,,,,,,2,,,,,,,,1,,,,,
551023,3,77,28,4,2,,,5,,1,6,,2,6,2,,,,,,,,,,,,,,,,,,,,,,,,,,,
551023,2,56,17,4,,3,,4,,,2,,,4,,,,,,,,,,,,,,,,,,,,,,,,,,,,
551023,1,70,20,2,,,,4,,1,2,2,2,7,,,,,,,,,,,,,,,,,,,,,,,,,,,,
551040,2,61,14,,,1,,2,,,,3,1,5,,,,,,,,,,,,,,,,1,,,,,,,1,,,,,
551040,1,154,50,6,,,,8,1,3,7,12,,9,1,,,,,,1,,1,,,,,,,,,,,,,,,1,,,,
551040,3,40,9,,,1,,1,,,,1,1,5,,,,,,,,,,,,,,,,,,,,,,,,,,,,
551104,2,62,37,,,2,,1,1,,,1,14,15,1,,,,,1,,,,,,,,,,,,,1,,,,,,,,,
551104,1,79,27,6,,4,,6,,,1,2,1,4,,,,,,,1,,,,,,,,,2,,,,,,,,,,,,
551121,1,142,59,6,1,1,,4,1,,6,10,5,18,3,1,,,,,,,,,,,,,,1,,,,,,,1,1,,,,
551139,1,269,64,12,,,,6,,1,14,7,3,12,3,,,2,1,,,,,,,,,,,3,,,,,,,,,,,,
551155,2,37,11,,,1,,,1,,4,2,1,,,,,,,1,,,,,,1,,,,,,,,,,,,,,,,
551155,1,174,51,12,,,,4,2,,7,1,12,6,4,,,,,1,,,1,,,,,,,,,,,,1,,,,,,,
551163,1,158,46,3,,2,,,2,,2,2,13,13,2,,1,,3,,,,2,,,,,,,,,1,,,,,,,,,,
551180,4,82,30,1,1,1,,1,2,,4,5,7,7,,,,,,,,,1,,,,,,,,,,,,,,,,,,,
551180,3,62,20,4,,,,2,,,,4,,10,,,,,,,,,,,,,,,,,,,,,,,,,,,,
551180,2,62,33,2,,1,,4,,,4,1,4,10,3,1,2,,,,,,1,,,,,,,,,,,,,,,,,,,
551180,1,108,37,6,1,5,,3,1,1,3,4,,3,4,,1,,,,,,3,,,,,,1,1,,,,,,,,,,,,
551201,1,1097,335,53,6,14,1,23,2,3,30,46,42,53,42,2,,1,,1,,,4,2,4,,,1,1,,,,1,2,,,1,,,,,
551261,1,190,60,9,1,2,,6,1,,3,7,11,13,4,,,,,,,,1,,,2,,,,,,,,,,,,,,,,
551333,3,70,23,1,,,,2,3,,2,5,,6,,2,,,1,,,,,,,,,,,,,,,,,,1,,,,,
551333,2,101,34,9,,1,,2,,,1,4,,6,9,1,,,,,,,,,,,,,,,,,,1,,,,,,,,
551333,1,202,46,3,4,1,,3,2,,1,9,3,12,6,,,,,,1,,,,,,,,,,,,,,,,1,,,,,
551341,1,226,72,5,1,4,,6,6,,4,15,2,8,18,,,,,,,,1,,,,,,,,,1,,,,,,,1,,,
551350,2,79,28,1,1,4,,1,,,3,5,1,4,5,,,,,,,,,,,,,,,1,,,,,2,,,,,,,
551350,1,518,123,12,1,5,,11,1,,15,18,15,32,4,1,,1,,1,,,2,,1,,,,,2,,,1,,,,,,,,,
551384,1,558,126,10,1,3,,10,3,,20,25,11,23,11,,,,1,,1,,4,,,,,,,,,1,1,,,,1,,,,,
551392,1,222,76,6,1,5,,7,1,1,5,6,9,23,3,,1,,3,1,1,,,,,,,,,1,,1,,,1,,,,,,,
551414,1,227,55,2,3,1,,6,,1,6,7,13,11,2,,,,,,1,,1,,,,,,,1,,,,,,,,,,,,
551473,1,237,83,15,1,6,,2,,,19,25,4,2,6,,,,,,,,1,,,,,,2,,,,,,,,,,,,,
551490,1,196,52,12,1,1,,,1,1,7,6,6,6,7,,,,,1,,,3,,,,,,,,,,,,,,,,,,,
551503,1,199,77,9,,5,,9,,,9,4,4,25,5,,,,,,,,2,,2,,,,,,,,,1,,1,,1,,,,
551520,1,248,63,10,3,2,,7,,,7,14,3,3,5,,,,,,,,2,,1,,,,2,,,3,,,,,1,,,,,
551538,1,308,102,11,2,8,,8,,,16,10,10,27,5,,2,,1,,,,1,,,,,,1,,,,,,,,,,,,,
551554,1,289,80,10,,4,,11,,,1,14,5,27,4,,,,,1,1,,,,1,,,,1,,,,,,,,,,,,,
551562,1,532,119,9,1,4,,12,5,,3,21,17,21,7,2,2,,,4,,,1,,,3,1,,1,1,1,1,,2,,,,,,,,
551571,1,90,33,1,,3,,,1,,3,4,3,15,1,,,,,,,,1,,,1,,,,,,,,,,,,,,,,
551597,1,106,34,4,,,,,,,9,5,5,3,2,,,,,,1,,1,,,,,,1,,,,,,,,3,,,,,
551601,1,222,83,20,,6,,3,,,5,12,8,23,3,1,,,,,,,,,,,,,1,,,,,,,,1,,,,,
551619,1,267,55,3,1,,,8,1,,8,6,6,14,2,1,,,,,,,,,,1,,,2,1,,,,,1,,,,,,,
551627,2,52,22,,2,,,2,,,,1,6,10,,,1,,,,,,,,,,,,,,,,,,,,,,,,,
551627,1,206,48,6,,3,,4,4,,,7,7,9,5,,,1,,,,,,1,,,1,,,,,,,,,,,,,,,
551635,1,204,52,3,2,3,,2,,,3,12,6,15,1,,,,,,1,,2,,,,,,2,,,,,,,,,,,,,
551643,2,99,49,10,,4,,1,,,4,3,7,14,2,,,,,2,1,,,,,,,,,1,,,,,,,,,,,,
551643,1,270,74,9,1,2,,2,1,,11,19,9,16,1,,,1,,,,,,,,,,,,2,,,,,,,,,,,,
551660,4,40,16,3,3,1,,,,,2,,,4,1,,,,,,,,2,,,,,,,,,,,,,,,,,,,
551660,3,66,36,3,,1,,,,1,3,,4,17,4,,,,,1,,,,,1,,,,,1,,,,,,,,,,,,
551660,2,49,21,2,,,,2,,,3,4,6,3,1,,,,,,,,,,,,,,,,,,,,,,,,,,,
551660,1,856,211,21,7,11,1,14,1,,24,28,20,40,21,,,,5,,,,8,,,,,,2,1,,3,,,3,,1,,,,,
551678,3,58,30,2,,,,1,,1,3,2,2,16,1,,1,,,,,,,,,,,,,,,,,,1,,,,,,,
551678,2,83,30,1,2,1,,1,,,1,5,1,5,10,,,,1,,,,,,,1,,,,,,,,,,,,,1,,,
551678,1,364,110,20,3,,,8,1,,5,17,12,24,6,,,,,7,,,,,3,,,,,2,,1,,,,,,1,,,,
551716,2,107,40,,,,,2,,1,2,9,3,17,2,,3,,,,,,,,,,,,,,,,,,1,,,,,,,
551716,1,912,241,20,2,10,,17,3,4,23,30,28,68,17,,1,,,3,,,8,,,1,,,2,,,1,,,,,1,2,,,,
551741,1,176,53,10,,1,,11,,,5,3,7,8,6,,,,2,,,,,,,,,,,,,,,,,,,,,,,
551759,1,220,57,7,2,2,,5,,,6,3,7,8,8,,,,,5,1,,1,,2,,,,,,,,,,,,,,,,,
551775,2,48,18,,,1,,2,,,,4,5,2,1,,,,,,2,,,,,,,,,,,,,,,1,,,,,,
551775,1,106,37,3,1,2,,6,,1,,3,2,18,,,,,,,,,,,,,,,,,,,1,,,,,,,,,
551791,4,50,15,3,,2,,,,,1,3,,2,1,,1,,,,,,1,,,,,,1,,,,,,,,,,,,,
551791,3,69,27,3,,1,,4,,,2,2,4,9,1,,,,,1,,,,,,,,,,,,,,,,,,,,,,
551791,2,90,29,4,,3,,1,,,5,6,,8,2,,,,,,,,,,,,,,,,,,,,,,,,,,,
551791,1,498,119,24,2,2,,6,2,2,13,17,15,23,5,1,1,,,,,,1,,,1,,,,,,3,,,,,,1,,,,
551830,1,249,54,7,1,3,,8,,,4,12,8,7,,,,,,1,1,,1,,,1,,,,,,,,,,,,,,,,
551856,3,44,8,2,,1,,,,,,2,,2,,,,,,,,,1,,,,,,,,,,,,,,,,,,,
551856,2,95,36,2,,2,,3,,,2,5,8,9,1,,,,1,,,,,,1,,,,1,,,,,,,,1,,,,,
551856,1,566,122,21,5,7,,3,,,7,25,11,27,12,,1,,,,,,1,,,,,,1,,,,,,,,1,,,,,
551899,2,127,30,1,,1,,4,1,,7,2,,10,1,,,,,,,,1,,,,,,,1,,,1,,,,,,,,,
551899,1,128,52,3,,1,,3,,,3,8,6,12,12,,1,,,1,,,,,,1,,,,,,,1,,,,,,,,,
551937,1,102,35,2,,2,,2,,,4,5,,13,,,,,,,,,3,,,,,,,1,,,,,,,3,,,,,
551953,9,917,257,45,2,10,,19,1,,30,23,23,69,17,,,,,2,,1,2,,4,1,,,4,1,,,,,,,2,1,,,,
551953,8,527,163,20,1,3,,19,5,,21,20,12,45,7,,,,2,2,,,3,,,1,,1,,,,,,,,,1,,,,,
551953,7,651,163,38,3,4,1,11,1,,20,22,9,22,11,2,,,,3,,,3,1,5,1,,,4,1,,,,,1,,,,,,,
551953,6,958,287,35,7,10,,17,3,3,35,51,11,64,23,,,,2,1,1,,15,,,3,1,,2,1,,,,1,1,,,,,,,
551953,10,346,101,15,1,2,1,7,2,,21,8,6,23,7,,,,,,,,5,,,1,,,,,,,,,,,,,2,,,
551953,11,341,65,14,2,3,1,7,,,7,7,6,10,4,,,,,,,,3,,,,,,,,,,,,,,1,,,,,
551953,5,785,198,32,1,3,,16,3,,18,27,12,50,14,,,,3,,1,,6,,1,3,,,3,,,1,3,,,,1,,,,,
551953,4,260,53,6,,,,4,,,11,6,2,16,4,1,,1,,,,,1,,,1,,,,,,,,,,,,,,,,
551953,3,267,69,7,,2,,9,,1,7,10,6,16,5,,,,,3,,,,,1,,,,1,,,,1,,,,,,,,,
551953,2,98,40,8,3,2,,1,1,,2,5,3,5,4,,,,,1,,,2,,,,,,,3,,,,,,,,,,,,
551953,1,133,22,2,1,5,,1,,,,1,1,6,4,,,,,,,,1,,,,,,,,,,,,,,,,,,,
551961,2,97,32,3,1,2,,1,,1,3,3,4,5,5,,,,,,,,1,,,,,,,2,,,,,1,,,,,,,
551961,1,344,84,5,,4,,12,2,,12,8,13,21,3,,,,,1,,,1,,,,,,,,,,,,1,,1,,,,,
551970,3,756,248,25,3,9,,25,4,,32,35,33,59,9,1,,,2,1,,,3,,,,,,1,,,3,,,2,,,,1,,,
551970,2,785,288,36,3,8,,33,7,1,34,37,24,66,21,,,,,1,1,,3,,3,1,,,4,,,,3,,,,,,,,2,
551970,1,710,175,25,6,5,2,14,,,23,26,16,28,18,2,,1,,3,,,3,,,,,,3,,,,,,,,,,,,,
551970,5,103,38,3,1,,,2,,3,1,8,7,6,,,,,,2,1,,,2,,2,,,,,,,,,,,,,,,,
551970,4,75,32,6,1,5,,1,,2,1,8,4,1,1,,,,,1,,,1,,,,,,,,,,,,,,,,,,,
551988,1,266,57,4,,9,,1,3,,5,9,4,13,,2,2,,,,1,,2,,,,,,2,,,,,,,,,,,,,
552046,41,267,61,7,,1,,1,2,3,11,7,5,17,1,,,,,,,,6,,,,,,,,,,,,,,,,,,,
552046,40,134,57,9,,1,,1,,,4,5,3,19,9,,1,,1,,1,,,,,,,,3,,,,,,,,,,,,,
552046,39,796,236,38,8,6,,8,3,5,38,40,21,45,8,1,,1,,,,,11,,2,,,,,,,,,,,,1,,,,,
552046,38,829,313,53,1,7,,8,,1,47,56,28,84,10,2,,2,2,1,,,5,,1,,,,1,,,,,,,,2,1,,,1,
552046,37,297,104,14,2,6,,4,1,,10,17,11,21,2,,,,,1,,,11,,1,,,,1,,,,,,1,,1,,,,,
552046,36,258,89,11,5,3,,8,1,,9,8,7,23,5,,1,1,,3,2,,,,,,,,1,,,,,,1,,,,,,,
552046,35,259,91,9,1,2,,7,1,,13,12,6,24,3,,,,4,,,,6,,1,,,,,,,,,,,,2,,,,,
552046,34,823,251,60,2,4,,6,1,2,34,34,23,54,5,1,1,,,2,,,15,,2,1,,,1,,,,,,,,3,,,,,
552046,33,598,185,27,,4,,3,3,2,33,34,17,49,3,,,,,1,,,8,,,,,,,,,,,1,,,,,,,,
552046,32,194,60,8,3,1,,7,,,4,9,3,9,7,1,,,3,1,2,,2,,,,,,,,,,,,,,,,,,,
552046,31,171,60,7,,2,,1,,,12,10,8,16,3,,1,,,,,,,,,,,,,,,,,,,,,,,,,
552046,30,1052,357,65,2,17,,14,3,,65,51,22,81,14,,1,1,2,3,,,9,,1,2,,,1,,,,,1,,,2,,,,,
552046,29,489,194,33,3,11,,12,1,,41,18,14,34,9,2,,,1,3,,2,5,,2,,,,,2,,,1,,,,,,,,,
552046,28,635,168,28,2,5,,18,4,3,13,9,23,50,4,1,,2,,1,,,2,,,,,,,3,,,,,,,,,,,,
552046,27,692,166,15,5,7,,14,,1,16,24,27,46,2,1,,,,1,,,3,1,,1,,,1,,,,,,,,,,,,1,
552046,7,724,260,18,4,12,,29,1,1,30,43,35,62,5,,2,,,2,,,6,,3,1,,,,2,,,,,,,1,,,,3,
552046,6,775,272,43,7,11,,15,3,3,36,36,25,55,12,3,,,,2,,,12,,,,,,3,,,1,1,,,,2,,,,1,1
552046,5,385,154,30,1,2,,6,,,43,15,10,24,10,,,,,2,,,5,,4,,,,,,,,,,,,2,,,,,
552046,4,684,207,34,6,11,,14,,,31,33,21,31,14,,,1,,2,,,6,,1,1,,,,,,,,,,,,,,1,,
552046,3,807,240,35,,6,,7,3,1,52,46,16,49,5,,,,,1,,,11,,5,,,,,2,,,,,,,,,,,1,
552046,26,710,181,20,6,5,,26,3,4,14,16,26,47,3,,1,,1,2,,,2,,,1,,,,,,1,,,,,2,,,,,1
552046,25,809,194,18,3,13,,14,4,2,26,31,26,42,4,,,,,1,1,,5,,,,,,,,,,1,,,,2,,,,1,
552046,24,799,175,15,3,7,,11,4,1,23,34,17,42,2,,,,,3,1,,3,,2,1,,,1,3,,,1,,,,,1,,,,
552046,23,838,226,35,2,10,,23,2,,25,29,23,50,3,,2,,2,2,1,,5,,2,,,,4,,,2,2,,1,,1,,,,,
552046,22,771,152,12,2,5,,12,2,1,11,33,18,45,1,,,,,1,1,,3,,,3,,,,,,,,,,,1,,1,,,
552046,21,843,214,33,4,7,,17,1,1,20,19,29,56,5,3,,1,,2,2,,1,,,1,1,,2,3,,,1,,,1,1,,1,,2,
552046,20,548,180,31,4,10,,11,3,,17,13,18,56,4,1,,,1,2,,1,1,,1,3,,,3,,,,,,,,,,,,,
552046,2,658,186,21,5,3,,9,2,2,39,32,13,26,5,1,1,1,3,2,1,,7,,3,,,,2,1,,,1,,,,3,1,,,2,
552046,1,1717,393,71,2,8,,11,1,5,95,86,20,43,12,1,,,,2,3,,27,,3,,,,1,1,,,,,,,1,,,,,
552046,19,900,253,36,3,8,,10,3,3,36,54,19,61,4,,,,1,2,1,,5,,4,,1,,,1,,,,,,,1,,,,,
552046,18,612,156,11,3,13,,22,3,1,12,17,9,40,10,,,,,1,1,,6,,,1,,,3,2,,,,,,,,,,,1,
552046,17,914,272,52,2,10,,17,3,3,32,26,21,76,18,,,,,4,,1,3,,,,,,1,,1,,,,,1,,,1,,,
552046,16,690,188,15,,10,,26,2,2,21,30,17,53,1,,,,1,,,,6,,1,,,,2,,,,,,,,,,,,1,
552046,15,617,179,30,2,13,,17,,1,14,14,21,49,5,1,,,2,1,,,3,,3,,,,,,,,,,,,1,,2,,,
552046,14,628,209,25,2,7,,17,1,2,13,23,28,72,8,1,1,,2,2,,,3,,,1,,,,,,,,,,,1,,,,,
552046,13,781,265,25,4,19,,49,1,,23,23,12,81,6,,,,,1,,,7,,2,,,1,1,2,,1,,1,,,2,,,,4,
552046,12,835,205,16,2,13,,30,1,1,15,22,24,60,5,,,,2,2,,,6,2,,,,,1,,,,,,,1,,,,,1,1
552046,11,660,212,23,5,13,,14,5,,25,26,21,53,7,,1,1,,2,2,,7,,,2,,,2,,,,,,,1,,,2,,,
552046,10,597,168,17,1,8,,9,3,2,20,24,21,47,7,,,,,1,1,,1,,4,,,,1,,,,1,,,,,,,,,
552046,9,960,291,42,5,18,,11,2,1,33,33,27,78,13,,,,,4,2,,14,,2,,,,3,2,,,,,,,,1,,,,
552046,8,713,232,38,3,5,,18,,,41,48,17,37,8,1,,,,,,,8,,1,3,,,1,1,,,,,,,1,,,,1,
552054,4,688,186,19,2,6,,33,1,,14,15,24,41,12,,2,,,1,1,,5,,,1,,,2,1,,,,,,,5,1,,,,
552054,3,698,156,23,1,9,,23,2,,15,21,14,32,5,,1,1,,1,2,,1,,,,,,,2,2,,,,,,,,1,,,
552054,2,641,186,22,4,3,,25,,2,25,26,23,38,5,,,,,3,1,,5,,,,,,3,,,,,,,,1,,,,,
552054,1,651,201,36,1,5,,16,3,2,36,13,26,40,12,,1,,,1,1,,1,,1,,,,2,,,,,,,1,,,,,3,
552054,6,641,218,40,3,8,,26,4,,20,22,20,46,17,,1,,,1,1,,3,1,,1,,,2,,,,,,,,1,,1,,,
552054,5,791,261,35,1,9,,45,8,2,20,34,21,46,20,3,,,4,1,1,,6,,,2,,,,2,,,,1,,,,,,,,
552054,7,105,27,4,,1,,1,,,4,5,,10,2,,,,,,,,,,,,,,,,,,,,,,,,,,,
552097,1,203,80,23,2,1,,5,,,8,10,7,15,2,,,,,1,,,1,,2,2,,,,,,,1,,,,,,,,,
552101,1,527,164,20,4,5,,13,2,2,22,22,11,37,10,,,2,5,3,,,2,,,,,,1,1,,1,,,,,,,1,,,
552127,1,45,16,1,1,,,1,,,1,3,,7,,,,,,,,,,,,,,,,,,,,,,,,,2,,,
552135,1,181,50,8,1,,,4,1,,6,10,1,17,1,,,,1,,,,,,,,,,,,,,,,,,,,,,,
552143,1,312,82,7,,,,3,8,,10,12,1,20,4,,,2,3,,1,,4,,,1,,,,1,,4,,,,,1,,,,,
552208,2,85,35,2,,1,,4,1,1,2,7,1,7,,1,,,,,,,,,,,,,1,,,,,1,2,,2,2,,,,
552208,1,253,80,15,,1,,1,1,,12,16,2,22,1,,,,,,2,,2,,,,,,3,,,,,,,,2,,,,,
552224,1,117,45,3,2,3,,4,1,,11,1,8,11,,,,,,,,,1,,,,,,,,,,,,,,,,,,,
552241,1,681,132,16,3,4,,9,2,2,12,14,11,49,2,,1,3,1,1,,,2,,,,,,,,,,,,,,,,,,,
552275,1,211,59,6,,12,,5,,1,7,6,4,13,1,2,1,,,,1,,,,,,,,,,,,,,,,,,,,,
552283,1,641,173,21,1,5,,10,1,2,12,27,25,44,11,1,,1,,3,2,,4,,1,,,,,,,,,,,,,,,,2,
552291,1,112,30,10,,,,1,,1,2,6,1,7,1,,,,,1,,,,,,,,,,,,,,,,,,,,,,
552321,1,304,106,29,1,2,,6,2,1,15,11,7,10,18,,,,,1,,,1,,,1,,,,,,,,,1,,,,,,,
552453,1,92,35,4,,2,,2,1,,2,4,3,5,2,,,4,,2,,,1,,,2,,,,,,,,,,,1,,,,,
552461,1,669,237,35,7,10,,8,3,1,26,42,32,41,14,,,2,5,4,1,,5,,,,,,,,,,1,,,,,,,,,
552461,3,111,34,10,,,,4,1,2,4,3,1,6,,1,,,1,,,,,,,,,,,1,,,,,,,,,,,,
552461,2,616,156,17,,2,,7,,1,26,36,13,43,7,1,,,,,,,1,,,,,,1,,,,,,,,1,,,,,
552470,2,83,28,10,,,,2,,,,5,,7,4,,,,,,,,,,,,,,,,,,,,,,,,,,,
552470,1,325,91,16,2,2,,9,,3,12,13,5,18,9,,,1,,,,,1,,,,,,,,,,,,,,,,,,,
552496,3,311,76,11,1,1,,6,2,,6,13,11,17,2,,,,,1,,,,,1,,,,1,,,,2,,1,,,,,,,
552496,2,654,188,36,1,7,,11,1,,22,21,19,37,11,,2,,,1,,,5,,2,2,,,1,2,,,1,,2,1,1,1,,,,1
552496,1,973,301,60,,13,,22,2,1,46,45,24,43,23,,,2,,4,1,,5,1,1,1,,,,3,1,,1,,,,1,1,,,,
552534,5,141,46,3,,2,,5,,,1,16,3,5,5,,,1,3,,,,1,,,,,,,,,,,,,1,,,,,,
552534,4,353,93,13,1,2,1,6,,,15,2,9,21,14,,,,1,,,,4,,,,,,,1,,,1,,,,,,,,2,
552534,3,229,75,6,1,8,,6,,,7,11,6,21,2,2,,,,1,,,4,,,,,,,,,,,,,,,,,,,
552534,2,420,112,18,,3,,10,1,2,15,22,7,17,9,,,,,1,3,,1,,1,,,,1,1,,,,,,,,,,,,
552534,1,502,149,15,,4,,6,2,,18,25,10,27,28,,,,,2,,,4,,4,,,,1,3,,,,,,,,,,,,
552585,1,608,167,25,3,8,,13,,1,12,34,13,34,12,2,,,,3,1,,3,,,2,,,,,,,1,,,,,,,,,
552666,2,598,132,19,2,4,,7,,,25,16,14,28,2,,,3,1,1,,,5,,,1,,,2,1,,,,,,,1,,,,,
552666,1,867,264,53,3,7,1,14,2,,43,34,12,67,8,1,,,2,1,,,7,,6,1,,,,,,,2,,,,,,,,,
552704,3,729,171,29,3,8,,15,4,,13,22,15,37,10,,,,,2,,,4,,,2,,,2,2,,,3,,,,,,,,,
552704,2,737,181,30,2,10,,19,3,2,15,31,7,37,12,2,,,,,,,3,1,,2,,1,,,,,1,1,,,1,,1,,,
552704,1,688,187,28,5,5,,22,3,,14,20,12,53,9,1,,1,3,2,,,4,,,,,,2,,,,1,,,,,1,,,,1
552712,1,107,34,3,2,3,,4,,2,2,10,1,5,1,,,,,,,,,,1,,,,,,,,,,,,,,,,,
552721,1,326,79,7,2,4,,15,1,,24,9,3,9,,,,,,2,,,2,,,,,,,,,,,,,,1,,,,,
552747,1,228,62,7,3,1,,3,2,,3,19,7,7,3,1,1,,1,,,,3,,,,,,,,,,,,1,,,,,,,
552763,1,254,90,20,,2,,4,1,1,3,14,4,19,17,,,,,2,,,2,,,,,,,,,,,,,,,1,,,,
552798,1,187,60,13,2,1,,7,,,3,3,6,17,2,,,3,1,1,,,1,,,,,,,,,,,,,,,,,,,
552801,5,86,40,9,,1,,8,,2,4,4,2,3,3,,,2,,,,,2,,,,,,,,,,,,,,,,,,,
552801,4,75,24,5,,2,,4,,,2,5,,4,1,,,,1,,,,,,,,,,,,,,,,,,,,,,,
552801,3,53,28,1,,3,,3,,,3,6,2,5,2,,,,,,,,3,,,,,,,,,,,,,,,,,,,
552801,2,118,31,,,2,,4,,1,4,2,6,9,1,,,,,,,,,,,1,,,,1,,,,,,,,,,,,
552801,1,811,285,30,6,5,,21,2,,27,47,23,76,13,,1,,2,5,,,19,,,,,,2,,,4,,,,,,2,,,,
552828,4,214,35,1,,2,,,2,1,2,9,3,10,1,,,,,,1,,,,,,,,2,1,,,,,,,,,,,,
552828,3,1173,358,53,2,14,,28,,,68,54,26,61,22,1,1,,1,4,,,8,,7,1,,,,3,,,2,,,,1,,,,1,
552828,2,991,270,56,3,15,,22,3,,25,22,30,61,13,,,,1,6,1,,3,1,,1,2,,1,1,,,,1,2,,,,,,,
552828,1,812,240,65,9,4,,11,1,1,36,33,22,31,10,,,,1,,1,,7,2,1,1,,,,,,,1,,1,,1,,,,1,
552852,1,67,26,2,1,1,,4,,1,,3,1,9,2,,,1,,1,,,,,,,,,,,,,,,,,,,,,,
552861,1,94,19,,,1,,2,,1,,1,1,10,,,,1,,,,,,1,,,,,,,,,,,,,,,,1,,
552895,1,256,56,5,,1,,7,,,7,15,6,11,1,,,,,1,,,1,,,,,,1,,,,,,,,,,,,,
552917,1,400,78,7,1,3,,3,,1,5,15,9,17,5,1,,1,,2,,,3,1,1,2,,,,1,,,,,,,,,,,,
552925,1,193,56,6,1,1,,3,3,,7,8,,20,5,,,1,,1,,,,,,,,,,,,,,,,,,,,,,
552933,1,322,122,16,,8,,7,,1,16,21,7,30,1,,,2,,1,1,,6,,,,,,,,,,1,,,,1,,1,,2,
552941,1,130,66,9,,1,,6,,4,17,10,3,10,,,,1,,,,1,,1,,1,,,,,,,,,,,1,,,,,1
552976,1,166,67,5,2,,,5,1,,16,8,3,22,2,,,,,1,,,,,,,,1,,1,,,,,,,,,,,,
552992,1,611,129,15,1,3,,14,2,1,15,16,7,37,7,1,,,4,1,,,1,,,,,,2,1,,,,,,1,,,,,,
553018,1,456,133,19,,4,,15,2,1,16,15,12,30,3,1,,,1,5,,,5,,,,,,3,,,,,,,,,,,,1,
553034,1,222,59,5,,2,,5,,1,5,7,11,14,4,,,,,1,,,3,,,1,,,,,,,,,,,,,,,,
553069,6,479,192,36,5,7,,17,2,,27,25,12,40,7,,,,,4,1,,2,1,1,1,,,1,1,,,,,,,,1,,,1,
553069,5,1111,333,45,8,10,,17,1,2,43,41,39,86,13,,,,,4,,1,7,1,1,,1,,4,,,,4,2,,,1,,,,,2
553069,4,860,306,34,3,20,,22,3,3,32,40,19,90,15,1,,,,1,,,12,1,1,2,,,3,1,,,2,1,,,,,,,,
553069,3,623,198,25,1,13,,8,2,5,25,22,17,55,5,,,,2,2,1,,5,,2,1,,,,,3,,,,,,2,,,,,2
553069,2,648,257,26,3,16,,18,3,1,36,50,22,57,7,,,,,3,3,2,6,,1,,1,,1,,,,,,,,1,,,,,
553069,8,777,217,29,1,11,,14,2,1,32,36,17,46,10,1,,,1,5,,,5,,1,,,,1,2,,,,,,,2,,,,,
553069,7,464,225,48,,5,1,16,,2,17,30,18,52,8,,,,3,3,,,13,,2,2,,,2,1,,,1,,1,,,,,,,
553069,1,864,291,57,5,13,,13,2,5,21,51,12,79,9,,2,1,1,3,2,,6,1,1,1,,,1,1,,,3,,1,,,,,,,
553077,3,190,89,14,3,,,3,,,9,28,7,21,,,,,,2,,,1,,,,1,,,,,,,,,,,,,,,
553077,2,144,40,3,1,3,,3,,,5,9,4,7,2,,,,,1,,,1,,1,,,,,,,,,,,,,,,,,
553077,1,79,40,5,2,5,,1,,,1,3,,17,2,,,,,,,,,,,,,,,,,1,,,,,1,2,,,,
553085,2,58,31,2,1,2,1,,,2,4,1,3,3,10,,,,,,,1,,,,,,,1,,,,,,,,,,,,,
553085,1,81,27,3,1,2,,2,,,2,6,2,2,3,,,,,,,,,1,,,,,,2,,,,,1,,,,,,,
553123,1,299,72,9,5,4,,14,,,9,6,7,10,4,,,,,,,,,,,,,,1,,,,,,,,2,,1,,,
553131,1,829,203,23,5,6,,22,4,3,33,27,6,41,12,1,,2,,5,1,,6,,,2,,,2,,,,,,,,2,,,,,
553131,9,144,43,3,1,4,,3,,,2,3,6,15,3,,,,,1,,,2,,,,,,,,,,,,,,,,,,,
553131,8,81,7,,,,,,,,2,3,,1,,,,,,,,1,,,,,,,,,,,,,,,,,,,,
553131,7,796,226,24,3,13,,22,,,15,26,11,80,9,1,,,,5,1,,5,1,2,4,,,2,1,,,,,,,,,,,1,
553131,6,676,186,22,4,13,,15,3,,28,14,15,53,3,1,,3,,3,1,1,3,,,1,,,2,1,,,,,,,,,,,,
553131,5,613,150,21,1,6,,5,,1,12,20,16,56,4,1,1,2,,1,,,1,,,,,,1,,,,,,,,,1,,,,
553131,4,922,301,47,4,13,,48,2,1,25,25,17,91,7,1,,,1,2,,,5,,2,4,,,4,,,,1,,,,1,,,,,
553131,3,1001,303,48,3,8,1,20,5,10,45,33,28,63,19,1,,,1,4,,,1,,,3,,,4,,,1,,,,,3,,,,1,1
553131,2,617,190,32,2,8,,12,3,5,24,26,9,41,12,,,,,2,,,3,1,,1,,,3,2,,,1,,,,3,,,,,
553140,4,79,28,5,2,,,3,,,3,1,8,6,,,,,,,,,,,,,,,,,,,,,,,,,,,,
553140,3,277,67,10,,3,,8,,,14,10,3,8,7,,,1,2,1,,,,,,,,,,,,,,,,,,,,,,
553140,2,49,21,2,,,,1,,,,2,,11,,,2,,,,,,1,,,,,,,2,,,,,,,,,,,,
553140,1,61,28,4,,5,,1,,,6,4,,6,2,,,,,,,,,,,,,,,,,,,,,,,,,,,
553166,3,363,126,18,2,3,,4,,,19,19,7,28,7,,,2,,,,2,2,,6,2,,,4,,,,,,1,,,,,,,
553166,2,114,32,5,,3,,4,1,,7,6,3,1,2,,,,,,,,,,,,,,,,,,,,,,,,,,,
553166,1,125,32,3,3,4,,,,,2,4,3,10,3,,,,,,,,,,,,,,,,,,,,,,,,,,,
553174,1,231,65,11,3,3,,4,2,1,3,10,5,11,8,,,,,1,,,2,,,,,,1,,,,,,,,,,,,,
553182,1,263,90,12,,9,,5,,,14,15,5,6,18,,,,,1,,,,,3,,,,,1,,,1,,,,,,,,,
553204,1,302,57,9,1,3,,5,2,3,7,9,5,7,3,,,,,,,,1,,1,,,,,,,,1,,,,,,,,,
553239,2,108,41,7,1,1,,1,,,4,12,6,5,1,,,,1,,1,,1,,,,,,,,,,,,,,,,,,,
553239,1,531,129,23,4,4,,7,,1,11,26,19,21,3,,,,1,1,1,,5,,,,,,,,,,,1,,,1,,,,,
553255,1,216,82,10,5,6,,9,2,,8,11,4,15,4,3,,,,,,,2,,,,,,,,,,,,,,,,,,3,
553263,1,229,65,11,8,1,,3,,,12,7,5,9,3,,,,,2,,,1,,,,,,,,,,,,,1,2,,,,,
553271,5,924,279,44,4,9,,8,4,5,28,20,36,72,20,,,1,,7,,,9,,1,1,1,,,4,,1,1,,,,2,,,,,1
553271,4,983,228,40,2,11,,8,3,2,14,24,36,57,12,,,,,1,1,,7,,1,,,,4,1,1,,,,,,2,1,,,,
553271,3,941,292,34,2,9,,17,1,,34,29,32,67,38,1,,2,4,3,1,,12,1,,1,,,1,,,,,,,,1,,,,2,
553271,2,702,174,23,5,15,,8,1,6,14,17,20,39,13,,,,2,,1,,3,,1,1,,,,4,,,1,,,,,,,,,
553271,7,156,42,2,3,,,,,1,3,4,6,17,1,,,,,,1,,3,,,,,,,,,,,,,,,1,,,,
553271,6,851,248,44,1,8,,20,3,4,21,29,40,47,11,,1,,2,4,1,,2,2,,,,2,3,2,,,,,,,1,,,,,
553271,1,657,135,8,5,10,,10,3,3,7,12,12,44,13,1,,2,,1,1,,1,,,,,,1,,,,,,,,,,,,1,
553280,1,127,34,4,1,,,1,,,3,5,4,9,5,,,,1,,,,,,,,,,,,,,,,,,1,,,,,
553298,1,269,62,12,1,2,,6,,,11,6,3,21,,,,,,,,,,,,,,,,,,,,,,,,,,,,
553310,1,139,55,6,,4,,6,,,7,9,6,9,2,,,,,,,,2,,1,,,,,1,,,1,,,,1,,,,,
553328,1,138,50,11,,5,,9,,,2,4,5,7,2,,,,1,,,,,,2,,,,,,,,,,1,,1,,,,,
553361,1,209,67,5,2,,,4,,,6,8,5,19,8,1,,,4,,,,,,2,,,,,,,,,1,1,,1,,,,,
553409,1,320,75,7,4,4,,4,,1,7,13,4,19,1,,,,,4,1,4,2,,,,,,,,,,,,,,,,,,,
553417,2,648,216,47,2,4,,20,,2,29,45,11,41,4,,,1,,1,,,2,,1,1,,,1,,,,1,,,,1,,,,1,1
553417,1,85,26,2,1,3,,2,,,,6,3,9,,,,,,,,,,,,,,,,,,,,,,,,,,,,
559016,1,73,33,2,,3,,,2,,5,3,1,11,,,1,,,,,1,,,,2,,,2,,,,,,,,,,,,,
560171,1,34,19,,,,,1,3,,1,3,,6,4,,,,,,,,,,,,,,,,,,,,,,1,,,,,
560197,1,56,27,6,,,,,,,6,5,1,4,3,,1,,,,,,,,,,,,,1,,,,,,,,,,,,
560201,1,81,36,4,,1,,4,,,2,4,3,15,1,,,,,,,,1,,,,,,,,,,,1,,,,,,,,
560219,1,147,41,1,3,1,,3,1,,2,6,4,13,,,,,,4,,,2,,,,,,,,,,,,,1,,,,,,
560243,1,108,44,8,,1,,4,,,5,8,3,14,,,,,,,,,,,,,1,,,,,,,,,,,,,,,
560278,1,213,63,7,,4,,6,,,2,6,11,13,3,,,,,1,,,1,,,,,,4,,,,,,,,2,,3,,,
560391,1,29,24,4,,1,,,,2,3,2,6,2,2,,,1,,,,,,,,,,,,,,,,,,,,,1,,,
560405,1,116,39,2,4,2,,3,,,4,5,2,14,3,,,,,,,,,,,,,,,,,,,,,,,,,,,
560430,1,143,46,8,1,,,,,,10,6,1,8,5,,,,,1,1,,3,,,,,,,,,,1,,1,,,,,,,
560448,1,170,69,4,2,2,,8,,2,9,5,2,17,8,,,1,4,,2,,3,,,,,,,,,,,,,,,,,,,
560481,1,134,53,5,,2,,,,,11,6,,10,8,,,,,,,,2,2,,,,,1,,,,,,,,1,,,,5,
560511,1,78,42,8,2,,,3,,,5,7,3,10,2,,,,,,,,,,,,,,,,,,,,1,,,,,,1,
560529,1,117,47,,2,,,6,,,5,7,5,12,7,,,,,,,,3,,,,,,,,,,,,,,,,,,,
560553,1,45,19,,1,2,,3,,,,1,5,6,,,,,,,,,1,,,,,,,,,,,,,,,,,,,
560626,1,83,27,,2,3,,7,,,,10,,2,,,,,,,,,,,,1,,,2,,,,,,,,,,,,,
560634,1,93,21,3,,2,,2,,,1,3,3,5,2,,,,,,,,,,,,,,,,,,,,,,,,,,,
560669,1,119,48,5,,3,,2,,,16,2,,12,6,,,,,,,,,,1,1,,,,,,,,,,,,,,,,
560987,1,42,18,,,,,1,,,2,2,2,3,1,,,1,1,,,,1,1,,,,,,3,,,,,,,,,,,,
560995,1,60,28,3,3,4,,1,,,3,1,4,6,2,,,,,,,,,,,,,,1,,,,,,,,,,,,,
561029,1,115,46,6,1,5,,3,1,,6,7,2,11,2,1,,,,,,,,,,,,,,,1,,,,,,,,,,,
561037,1,73,34,5,1,3,,,,,5,4,6,7,1,,,,,,,,,,,,,,,,,,,2,,,,,,,,
561045,1,95,27,6,1,2,,1,,,3,,1,9,2,,,,,,,,,,,,,,1,,,,1,,,,,,,,,
561053,1,154,61,6,1,1,,10,,,6,6,8,14,1,1,,,,4,,,1,,,,,,,,,,,,1,,1,,,,,
561061,1,135,54,9,1,,,4,,3,5,16,6,5,1,,,,,,,,2,1,,,,,,1,,,,,,,,,,,,
561070,1,92,39,3,,5,,2,,2,2,4,6,8,1,,,,,3,,,,,,,,,1,,,1,,,,,1,,,,,
561088,1,222,87,14,4,3,,6,,,13,13,10,8,2,,,,,,,,1,2,,2,,,2,4,,,2,,,,1,,,,,
561509,1,58,29,,,2,,4,,,10,,3,7,1,,,,,,,,,,,,,,,,,,,,,,2,,,,,
561517,1,120,36,2,2,9,,3,,,3,6,2,7,,,,,,,,,,,,,,,,,,,1,,,,,,,1,,
561525,1,112,29,3,,,,2,,,5,6,5,5,3,,,,,,,,,,,,,,,,,,,,,,,,,,,
561550,1,47,28,3,1,,,,,,10,3,3,5,2,,,,,,,,,,,,,,1,,,,,,,,,,,,,
561568,1,89,29,3,,,,,,,5,4,9,4,,,,,,1,,,,,3,,,,,,,,,,,,,,,,,
561576,1,73,31,1,,1,,3,,,6,,3,13,3,,,,,,,,,1,,,,,,,,,,,,,,,,,,
561649,1,115,48,6,,4,,2,1,,9,7,3,12,2,,,,,,,,,,,,,,,,,,,,,,2,,,,,
561673,1,85,24,3,,3,,1,,,5,3,1,4,,,,,1,,,,,,1,,,,1,,,,,,,1,,,,,,
561690,1,32,19,,1,,,2,,,5,1,,7,1,,,,,,,,,1,,,,,,,,,,,,,,1,,,,
561703,3,52,22,1,,,,4,,,,7,3,6,,,,,,,,,1,,,,,,,,,,,,,,,,,,,
561703,2,113,25,,1,1,,4,1,,,1,6,11,,,,,,,,,,,,,,,,,,,,,,,,,,,,
561703,1,222,63,4,5,1,,2,,2,6,6,12,20,2,,,,,,,,1,,,,,,1,,,,,,,,1,,,,,
561711,2,92,41,3,,2,,4,1,,3,3,9,10,1,,,,,,,,2,,,,,,,1,,,,,,,1,,,,,1
561711,1,283,73,10,2,4,,5,1,1,9,15,7,16,,,,,1,,,,,1,1,,,,,,,,,,,,,,,,,
562068,1,175,47,4,,3,,3,2,,2,7,8,9,4,,1,,,,,,1,,,,,,1,1,,,,,,,,,,,1,
562084,1,104,31,7,2,2,,3,,,,3,,7,4,,,1,1,,,,1,,,,,,,,,,,,,,,,,,,
562122,1,154,53,10,1,6,,,,,8,7,8,10,2,,,,,,,,,,,,,,,,,,,,1,,,,,,,
562149,1,32,19,9,,,,3,,,3,1,,2,1,,,,,,,,,,,,,,,,,,,,,,,,,,,
562157,1,93,43,13,,1,,4,,,2,6,7,6,3,,,,,,,,,,,,,,1,,,,,,,,,,,,,
562165,1,176,77,14,,2,,6,,,10,20,7,10,8,,,,,,,,,,,,,,,,,,,,,,,,,,,
562181,1,148,70,22,2,2,,6,,,2,6,5,21,,,,1,,,,,,,,,,,1,,,,,,,1,,1,,,,
562190,1,97,32,1,,,,4,,,2,4,5,8,3,,,,,1,,,,,3,,,,,,,,,,,,1,,,,,
562211,1,176,60,9,3,1,,7,,1,5,18,3,10,,,,,,,,,1,,,,,,1,,,,,,,,1,,,,,
562254,1,145,42,4,,,,,,,7,6,4,14,1,,,,,,,,1,,,,,,,2,,,,,,,,,,,3,
562271,1,98,41,11,,1,,1,,,2,4,5,15,,,,,,,,,1,,,,,,,,,1,,,,,,,,,,
562289,1,75,26,,,1,,,2,,8,7,1,5,1,,,,,,,,,,,,,,1,,,,,,,,,,,,,
562301,1,172,56,11,3,3,,1,,,3,13,2,10,5,,,,1,1,,,1,,1,,,,,,,,,,,,1,,,,,
562319,1,116,32,6,,,,3,,,,4,1,4,9,,,,2,,1,,,,,2,,,,,,,,,,,,,,,,
562327,1,242,93,6,,7,,8,,2,6,5,3,9,45,,,,,,,2,,,,,,,,,,,,,,,,,,,,
562360,1,275,65,8,,2,,7,,,3,6,10,20,3,,,2,1,,,,,,,,,,1,,,,,,1,,,,,,1,
562378,1,190,58,10,3,3,,,1,,16,4,5,10,3,,,,,,1,,,,1,,,,,,,,1,,,,,,,,,
562386,1,298,73,11,,1,,9,,,1,8,10,21,5,,,,,2,,,1,1,,1,,,,,,,,,,,2,,,,,
562416,1,36,14,1,,,,,,,,1,,,11,,,,,,,,,,,,,,,,,,,,,,,,,,1,
562424,1,42,10,,,1,,1,,,2,3,1,2,,,,,,,,,,,,,,,,,,,,,,,,,,,,
562459,1,99,42,4,1,5,,1,,,10,3,3,14,,,,,,,,,1,,,,,,,,,,,,,,,,,,,
562467,1,295,110,20,1,4,,5,,1,11,28,7,17,5,,,,,,,,6,2,,,,,1,1,,,1,,,,,,,,,
562475,1,165,59,10,,5,,3,,4,6,4,6,19,1,,,,,,,,,,,,,,,1,,,,,,,,,,,,
562491,1,76,36,3,2,1,,2,1,1,,6,4,11,,,,,,,,,1,,,,,,1,,,,3,,,,,,,,,
562548,1,90,29,6,,2,,4,,,4,7,,5,,,,,,,,,,,,,,,,,,,,,,,,,,,1,
562599,1,191,62,4,2,2,,11,,7,6,5,4,17,1,,,,,,1,,1,,,,,,,,,,,,,,1,,,,,
562602,1,122,51,4,2,,,12,,1,3,10,7,7,1,,2,,,1,,,1,,,,,,,,,,,,,,,,,,,
562629,1,100,27,1,,1,,2,,,6,4,5,7,,,,,,,,,,,,1,,,,,,,,,,,,,,,,
562637,1,126,37,5,1,3,,3,,,2,3,,14,1,,,,,2,,,2,,1,,,,,,,,,,,,,,,,,
562653,1,68,27,6,1,1,,1,,,2,8,,8,,,,,,,,,,,,,,,,,,,,,,,,,,,,
562670,1,102,26,4,1,,,1,,1,1,4,2,10,,,,,,,,,2,,,,,,,,,,,,,,,,,,,
562688,1,154,56,10,,1,,8,1,,8,9,2,15,,,,,,,,,,,,,,,,,,,,1,,1,,,,,,
562696,1,42,24,2,2,2,,1,2,1,3,3,1,4,1,,,,,1,,,1,,,,,,,,,,,,,,,,,,,
562726,1,87,46,8,,1,,,,,6,6,4,1,17,,,,,1,,,1,,,,,,,,,,,,,,,,,,,1
562734,1,107,29,7,1,2,,1,,1,1,6,2,1,1,,,,,,,,4,1,,,,,,1,,,,,,,,,,,,
562742,1,75,24,1,,,,,,2,,3,2,12,2,,1,,,,1,,,,,,,,,,,,,,,,,,,,,
562769,1,95,38,3,1,1,,4,,,6,3,4,9,,,,,,,,,,1,,4,,,,,,,,,,,,,,,2,
562785,1,65,23,,,2,,8,2,,,,3,7,1,,,,,,,,,,,,,,,,,,,,,,,,,,,
562807,1,151,77,8,4,4,,3,2,,5,8,12,23,4,,2,,,,1,,,,,,,1,,,,,,,,,,,,,,
562815,1,178,56,7,3,1,,1,,,6,9,10,13,4,1,,,,,,,,,,,,,,,,,,,1,,,,,,,
562831,1,68,26,3,,3,,,1,,3,1,2,9,2,,1,,1,,,,,,,,,,,,,,,,,,,,,,,
562840,1,324,79,21,,,,1,,,6,15,5,15,8,,,,,,,,7,,,,,,,1,,,,,,,,,,,,
562866,1,107,25,6,1,3,,3,,,1,2,4,3,,,,,1,,,,,,,,,,,,,,,1,,,,,,,,
562904,1,110,35,3,,,,1,,,1,9,1,14,6,,,,,,,,,,,,,,,,,,,,,,,,,,,
562955,1,67,34,2,1,,,1,,,8,1,6,5,6,,,,,,,,2,,,1,,,1,,,,,,,,,,,,,
562963,1,67,32,12,,4,,1,,,3,1,,9,,,,,,,,,2,,,,,,,,,,,,,,,,,,,
563030,1,126,56,7,,,,4,,1,5,18,3,5,8,,,2,,1,1,,,,,,,1,,,,,,,,,,,,,,
563145,1,123,56,4,3,1,,3,,,9,6,2,18,3,,,,,1,,,3,,2,,,1,,,,,,,,,,,,,,
563153,1,60,32,9,,1,,,1,,3,2,,13,,,,,,1,,,,,,,,,1,,,,,,,,,,,,,1
563170,1,43,31,2,2,5,,2,4,,5,2,,8,1,,,,,,,,,,,,,,,,,,,,,,,,,,,
563196,1,58,43,10,,4,,1,1,4,3,3,4,12,1,,,,,,,,,,,,,,,,,,,,,,,,,,,
563234,1,128,35,6,1,4,,3,,,3,2,2,6,1,,,1,2,1,,,1,,,,,,,,,,,,1,,,,,1,,
563251,1,104,39,9,,1,,3,,,3,6,6,5,3,,,1,,,,,,,1,,,,,,,,,,,,,1,,,,
563307,1,172,62,10,2,3,,3,2,1,3,10,3,18,4,,,,1,,,,,,,,,,,1,,,,,,,1,,,,,
563366,1,63,28,5,,6,,1,1,,5,2,4,1,1,1,,,,,,,,,,,,,,,,1,,,,,,,,,,
563374,1,97,22,7,,1,,,,,4,1,1,7,,,,,,1,,,,,,,,,,,,,,,,,,,,,,
563447,1,78,24,2,,2,,3,,1,1,,1,12,,,1,,,,,1,,,,,,,,,,,,,,,,,,,,
563455,1,158,38,2,2,4,1,5,1,,5,7,,8,2,,,,,,1,,,,,,,,,,,,,,,,,,,,,
563544,1,95,56,7,,4,,5,1,,7,13,4,5,6,,,,,,1,,1,,,,,,,,,,,,1,,,,,,,1
563587,1,136,57,12,1,4,,5,,,6,9,3,10,1,,,,4,,,,,,,,,,,,,,,1,1,,,,,,,
563625,1,60,27,2,,1,,2,,,6,6,2,5,,,,,,,1,,,,,,,,,,,,,,1,,1,,,,,
563650,1,139,49,6,,,,4,,,5,11,5,10,5,,,,,,,,1,,,,,,,,,,,,,,2,,,,,
563722,1,79,29,5,,,,7,,,3,,4,7,1,,,,,,,,,,,,,,,,,,,,,,2,,,,,
563765,1,131,61,9,,5,,2,,1,3,3,2,22,4,,1,,,,2,,4,,1,,,,1,,,,,,,,1,,,,,
563897,1,194,65,6,1,2,,3,2,,3,2,10,21,7,,1,,3,3,,,,,1,,,,,,,,,,,,,,,,,
563927,1,30,7,1,,,,3,,,,,1,2,,,,,,,,,,,,,,,,,,,,,,,,,,,,
563951,1,52,14,5,,,,,,,2,,,2,2,,,,,1,,,2,,,,,,,,,,,,,,,,,,,
563978,1,88,50,11,,,,1,,,16,8,2,6,,,,,,,,,4,,,,,2,,,,,,,,,,,,,,
563986,1,491,125,20,5,7,1,12,1,,9,27,5,26,2,,1,,1,1,,,1,,,1,,,2,2,1,,,,,,,,,,,
598593,1,157,65,9,,1,,7,3,,8,8,6,7,5,,,3,2,1,1,,,,,1,,,2,,,,,,,,,,1,,,
598607,1,305,115,30,1,2,,1,,,23,25,5,12,6,,,,1,2,,,3,,1,,,,1,1,,,,,,,1,,,,,
598615,1,68,26,1,,,,2,1,,,1,4,4,12,,,,,,,,,,,,,,1,,,,,,,,,,,,,
598623,1,190,63,17,,1,,2,1,2,4,7,6,6,15,,,,,,,,,,,2,,,,,,,,,,,,,,,,
598631,1,61,26,3,2,4,,,1,,3,4,3,4,,,1,,,,,,,,,,,,,,,,,,,,,,1,,,
598640,1,46,20,1,,1,,1,1,,1,7,6,2,,,,,,,,,,,,,,,,,,,,,,,,,,,,
598658,1,90,37,2,,2,,1,,,6,2,8,13,2,,,,,,,,,,,,,,,,,1,,,,,,,,,,
598780,1,178,49,3,1,1,,7,5,,3,2,4,12,3,,,,,1,,,5,,,,,,,,,,2,,,,,,,,,
598801,1,93,41,5,,,,10,,,3,4,2,10,2,,,,1,1,,,,,,,,,1,,,,1,,1,,,,,,,
598828,1,113,34,6,,1,,3,,,2,12,1,3,2,,,,2,1,1,,,,,,,,,,,,,,,,,,,,,
598844,1,171,64,4,2,6,,4,1,,11,3,5,23,1,1,,,,1,,,,,,,1,,,1,,,,,,,,,,,,
598852,1,121,24,2,,2,,3,,,,2,1,12,,,,,,,,,1,,,,,,,,,,1,,,,,,,,,
598861,1,210,63,6,,8,,4,1,,14,6,4,10,6,,,2,,,1,,,,,,,,1,,,,,,,,,,,,,
598887,1,64,31,5,2,,,1,,,6,6,4,5,2,,,,,,,,,,,,,,,,,,,,,,,,,,,
598895,1,280,99,11,1,5,,14,1,,23,13,10,17,1,,,,,2,,,,,,,,,1,,,,,,,,,,,,,
598909,1,61,41,9,,2,,5,,,5,6,3,7,1,,,,,,,,2,,,,,,1,,,,,,,,,,,,,
598950,1,79,29,,1,1,,2,,,4,6,1,9,1,1,,,3,,,,,,,,,,,,,,,,,,,,,,,
598976,1,46,20,2,,2,,1,,,1,2,,4,1,,,,2,,,1,,,1,,,,1,,,,,,1,,,,,,1,
598992,1,84,26,,,,,6,,1,,3,13,1,1,,,,,,,,,,,,1,,,,,,,,,,,,,,,
599000,1,51,29,7,,,,4,,,3,5,,9,1,,,,,,,,,,,,,,,,,,,,,,,,,,,
599026,1,121,34,,,,,5,,,2,13,,9,2,,,,,,,,1,,,,,,2,,,,,,,,,,,,,
599034,1,76,18,2,,1,,,,1,1,3,2,5,,,1,,1,,,,,,,1,,,,,,,,,,,,,,,,
599042,1,376,112,24,1,5,,5,,5,6,23,4,22,8,,,1,1,1,,,2,,1,,,,1,,,,,,,,,,,,2,
599115,1,258,87,13,,2,,13,,,19,13,8,12,2,,1,,,,,,3,,,,,,1,,,,,,,,,,,,,
599123,1,293,105,23,4,1,,8,1,,8,17,3,24,3,,,,2,,,,5,2,2,,1,,1,,,,,,,,,,,,,
599255,1,84,28,,,1,,1,,,2,4,,12,5,,,,,,,,3,,,,,,,,,,,,,,,,,,,
599263,1,115,24,6,,2,,3,,,5,1,2,5,,,,,,,,,,,,,,,,,,,,,,,,,,,,
599271,1,225,92,11,7,6,,4,3,,10,14,2,23,5,1,,,,2,,,,,,1,,,,,,,,,1,,1,,,,,1
599280,1,106,39,2,,,,6,,,3,7,4,7,4,,1,,,,,,2,,,,,1,2,,,,,,,,,,,,,
599778,1,35,17,2,1,1,,,,,2,4,3,1,2,,,1,,,,,,,,,,,,,,,,,,,,,,,,
