A53,A1138,A7,A768,A721,A1142,A47,A1153,A1066,A997,A998,A999,B227,B1114,B720,B1455,B1464,B768,B1454,B997,B998,B999
8,1,13,15,12,17,4,6,3,8,0,70,10,3,12,13,11,12,15,8,1,72
10,9,17,29,8,13,9,5,5,10,0,159,7,12,9,10,11,23,28,18,12,144
0,1,9,9,0,1,4,5,2,1,5,18,3,1,6,0,1,13,5,2,0,24
13,7,7,18,13,1,9,0,6,1,10,70,2,5,12,5,16,22,6,12,0,75
6,2,13,20,8,5,9,4,0,6,8,90,11,2,7,6,6,9,25,14,0,91
4,2,5,20,6,2,6,4,0,0,0,112,7,7,7,1,3,13,14,1,2,106
4,6,4,12,7,3,5,5,6,2,11,74,6,9,13,5,3,9,17,9,0,68
3,2,7,20,4,2,3,5,1,5,3,68,1,2,5,1,2,7,12,6,0,87
10,3,10,14,4,4,5,1,5,3,1,83,15,3,12,6,10,8,15,3,0,71
64,35,60,83,22,64,16,39,6,23,0,493,26,25,36,43,25,97,112,24,6,511
103,26,82,89,17,51,31,24,8,22,0,553,40,19,47,37,31,93,130,34,36,539
3,8,12,10,3,5,5,9,2,5,0,89,2,4,13,6,2,12,11,8,1,92
0,0,2,13,3,7,0,0,1,2,1,28,3,3,3,8,0,5,5,1,0,29
2,2,6,10,5,12,1,5,4,6,0,31,9,1,10,2,2,13,12,4,0,31
4,6,19,21,1,9,8,12,7,13,1,162,21,10,17,12,0,18,14,1,0,170
20,7,20,22,9,23,3,11,4,12,0,178,17,20,23,14,4,22,32,5,20,152
24,7,15,17,8,2,16,14,1,9,0,309,8,11,17,6,9,25,39,20,18,269
2,0,5,11,3,0,3,1,1,1,4,29,2,3,4,2,1,11,1,7,0,29
10,3,16,26,9,8,6,5,0,3,0,151,4,6,22,7,8,22,28,14,6,120
7,1,10,30,6,13,3,7,2,7,4,148,4,8,22,10,5,27,29,9,0,124
11,3,8,23,4,2,10,7,0,5,0,202,19,6,16,8,4,18,22,11,0,171
4,4,7,20,2,5,4,0,0,0,13,66,12,5,2,1,3,16,14,11,0,61
3,7,11,24,5,17,6,8,5,3,14,123,7,12,5,13,5,20,12,7,0,145
4,6,6,16,2,4,0,1,3,0,4,27,5,2,2,3,6,13,5,5,0,32
0,2,14,4,1,2,2,2,3,4,11,37,6,0,4,6,4,8,6,4,0,44
6,7,1,12,4,4,8,5,2,4,0,82,2,2,7,8,2,9,7,3,2,93
15,0,2,3,7,15,1,9,2,2,0,65,7,2,11,11,2,5,30,2,1,50
4,0,2,12,6,8,13,6,1,2,0,50,1,0,0,3,1,8,56,5,0,30
2,0,6,6,3,1,4,2,0,0,5,16,1,1,0,2,0,3,13,3,0,22
5,4,4,5,0,0,6,0,1,1,0,60,2,0,2,0,4,6,8,5,11,48
0,3,9,6,5,14,5,0,0,0,0,35,8,7,5,9,4,3,8,1,4,28
11,13,14,24,1,3,21,3,6,9,0,223,8,20,14,3,12,15,12,16,15,213
4,1,1,12,2,1,2,2,1,3,0,23,5,2,2,0,5,6,5,0,5,22
3,6,8,14,2,2,7,1,2,3,0,112,3,5,10,2,8,10,18,4,12,88
5,5,5,26,12,1,6,6,3,6,1,41,6,3,13,1,2,21,21,3,0,47
7,1,7,17,1,0,0,17,1,1,15,45,7,5,12,0,6,21,14,8,0,39
4,4,18,25,1,3,6,12,0,2,7,131,7,7,7,2,5,32,6,5,0,142
1,6,10,29,9,2,4,16,1,9,4,134,7,4,16,3,9,29,19,7,0,131
0,2,7,2,3,0,1,1,0,1,6,16,3,2,3,2,6,3,4,2,0,14
5,1,10,24,1,5,12,18,1,4,11,97,2,4,11,8,2,23,5,7,0,127
0,2,4,12,4,0,1,1,1,0,14,52,0,1,7,0,2,6,9,3,0,63
1,2,7,14,2,0,1,14,7,4,7,43,3,0,10,3,4,17,4,1,0,60
3,0,1,21,0,1,2,3,3,0,8,31,0,1,11,1,0,13,11,1,0,35
3,2,3,2,2,0,0,2,0,5,2,10,5,0,2,0,0,1,10,1,0,12
1,1,8,14,1,0,4,14,1,1,8,63,0,0,4,2,3,22,25,5,0,55
4,1,12,10,1,2,7,0,0,1,0,97,41,0,3,0,0,5,1,4,4,77
4,1,4,6,2,4,6,0,2,1,5,55,6,3,6,3,6,5,5,4,0,52
0,2,0,7,4,2,0,17,1,2,2,42,1,2,10,5,0,7,15,0,0,39
5,2,5,11,3,0,9,20,2,0,10,64,7,5,7,2,2,9,19,4,0,76
0,0,1,8,1,2,3,19,0,1,3,37,3,1,9,1,2,13,6,8,0,32
7,3,8,12,9,4,3,8,0,1,0,107,4,7,5,7,8,24,21,2,4,80
3,7,4,15,2,3,1,6,0,2,7,46,1,1,10,4,3,7,14,3,0,53
5,0,2,1,1,0,1,2,2,1,0,20,0,0,4,2,0,1,6,2,2,18
6,8,12,23,9,4,12,8,6,8,8,164,12,10,11,5,2,23,18,9,0,178
6,0,2,16,4,9,1,17,2,3,13,62,6,1,17,2,6,11,37,3,0,52
0,2,3,7,4,2,1,0,1,3,0,20,0,0,2,0,1,7,7,5,1,20
2,6,8,15,3,4,5,13,2,6,11,90,2,3,16,7,5,12,20,9,0,91
2,5,9,17,14,1,7,4,5,4,10,100,4,4,17,2,3,21,41,8,0,78
2,0,0,7,3,0,0,0,0,0,5,43,2,0,4,2,3,2,4,2,0,41
5,0,2,7,22,2,0,5,2,3,0,52,1,1,6,4,9,8,23,3,2,43
7,1,5,15,11,0,3,4,3,1,7,80,3,3,2,1,7,20,13,6,0,82
2,6,7,11,1,5,3,8,1,3,0,83,7,2,2,7,2,7,5,4,7,87
7,4,5,11,2,0,1,4,3,1,13,24,7,2,3,2,2,10,5,2,0,42
5,2,11,13,11,2,16,9,1,9,6,121,2,6,9,2,5,18,35,20,0,109
3,0,5,11,1,0,6,7,6,4,5,91,3,2,20,2,0,10,7,8,0,87
2,9,12,16,4,0,5,3,2,10,6,121,17,2,5,1,4,3,2,7,0,149
4,0,8,25,2,0,5,5,1,3,8,77,9,4,16,0,2,19,12,9,0,67
17,10,10,35,16,4,13,8,5,6,10,182,8,4,24,3,6,32,34,11,0,194
26,23,41,103,28,40,47,13,30,21,0,560,37,21,64,28,42,86,66,48,63,477
18,29,58,93,28,33,84,9,26,25,0,588,32,20,60,28,43,107,43,83,53,522
20,25,44,101,29,42,44,22,20,19,0,600,31,31,46,21,33,75,53,43,43,590
8,25,39,90,46,53,21,24,32,17,0,609,35,23,50,43,66,63,72,41,40,531
12,23,67,91,30,28,69,17,32,13,0,592,45,22,67,33,47,87,38,44,24,567
26,26,35,95,60,31,24,17,43,15,19,542,49,21,78,29,57,69,83,32,0,515
28,35,49,111,47,66,45,21,32,32,0,524,33,29,61,39,61,102,77,34,45,509
27,22,62,110,31,59,42,10,26,10,0,568,36,17,55,30,43,81,53,26,34,592
25,10,33,61,26,42,18,7,28,15,0,457,30,13,58,27,37,65,66,27,24,375
36,22,23,76,52,50,13,23,41,27,138,502,28,16,116,49,95,69,117,22,0,491
35,16,56,124,50,50,52,14,35,25,0,483,41,30,64,56,45,119,73,50,20,442
26,33,37,100,21,51,48,15,26,15,0,455,29,15,69,35,37,82,59,42,36,423
36,13,31,98,62,60,22,19,28,18,43,426,39,12,58,31,98,88,95,32,0,403
27,18,34,82,28,30,32,12,24,7,0,380,28,15,44,22,41,63,59,35,32,335
48,12,37,101,30,48,18,8,29,23,0,372,16,15,55,49,28,65,82,24,29,363
38,24,31,102,54,51,26,19,36,16,0,354,20,13,42,38,68,87,86,37,12,348
22,11,55,73,21,31,46,6,24,10,0,431,40,7,44,22,24,70,48,22,34,419
58,13,56,102,76,71,49,19,43,9,3,445,48,16,71,52,84,103,98,47,0,425
48,9,51,115,90,63,37,27,26,25,0,475,47,19,53,62,102,97,103,42,21,420
40,17,29,93,56,67,23,10,21,16,26,480,15,9,77,37,58,90,71,33,0,488
20,7,33,68,23,25,20,7,16,7,0,371,30,9,38,14,27,40,45,19,23,352
35,21,44,75,66,65,34,14,36,31,55,2221,31,24,93,62,83,76,80,37,0,2211
30,11,37,75,42,41,20,11,25,24,0,492,27,10,68,21,49,64,60,22,25,462
10,12,59,74,27,30,22,7,24,13,0,576,16,7,52,27,35,72,37,23,52,533
66,17,34,125,64,67,26,23,51,19,139,495,47,14,89,67,94,96,142,31,0,546
38,15,64,140,65,57,21,19,39,10,0,518,54,18,67,49,87,101,75,22,29,484
24,17,44,119,40,42,22,13,17,15,0,426,32,15,52,27,60,76,74,27,18,398
39,9,31,98,36,50,28,11,39,23,0,442,26,11,52,37,36,86,72,28,5,453
36,18,57,90,39,50,33,8,29,18,0,526,34,15,49,41,41,79,67,50,42,486
41,7,11,40,43,77,7,16,39,25,8,401,25,10,60,46,64,39,88,21,0,362
39,15,24,84,57,33,20,13,27,18,0,320,16,13,75,37,56,51,74,30,6,292
15,10,53,91,43,38,42,9,28,15,0,461,28,14,44,35,52,67,46,41,26,452
22,14,20,48,54,46,14,9,34,13,0,462,15,13,56,28,67,49,67,15,25,401
27,7,38,60,46,31,22,18,23,12,0,450,24,10,48,25,42,57,55,19,58,396
36,13,24,63,52,72,14,18,34,22,0,563,24,9,85,48,81,62,74,26,49,453
22,13,39,75,41,47,13,6,39,17,0,441,45,19,67,25,59,59,61,23,37,358
32,18,47,97,27,40,30,10,29,14,0,557,38,14,40,33,34,104,62,29,54,493
22,23,35,82,47,35,29,18,47,14,0,591,24,18,94,27,40,64,55,39,73,509
16,17,28,82,38,32,32,20,29,25,0,592,31,16,51,23,38,80,68,26,41,537
21,32,59,98,53,38,33,17,37,17,0,604,26,24,80,27,40,95,63,39,28,587
25,15,37,83,44,44,51,9,27,13,73,472,34,18,64,51,71,74,74,51,0,456
18,17,64,80,32,27,51,13,21,18,0,601,40,13,36,35,34,95,52,35,52,550
23,30,46,162,34,41,36,15,25,23,0,509,39,23,63,34,32,133,68,36,47,469
24,27,47,134,48,62,35,20,33,18,0,520,43,16,56,41,71,136,58,44,17,486
41,15,34,85,53,44,18,16,45,17,0,542,31,16,62,33,50,67,89,23,60,479
25,17,24,61,55,49,17,11,33,9,1,497,16,11,79,42,63,50,60,7,0,471
24,19,25,60,39,54,16,10,29,11,0,569,26,10,72,40,58,52,64,21,31,482
27,25,83,116,32,35,57,13,20,21,0,574,24,18,49,14,42,127,36,35,58,600
42,20,48,104,43,62,31,10,32,27,29,531,33,16,84,32,67,87,99,43,0,518
61,21,39,116,71,67,35,11,81,30,0,434,32,22,99,52,71,94,111,52,23,410
13,25,28,65,21,20,20,12,52,6,0,492,23,31,117,13,24,61,40,34,22,389
13,10,43,58,19,32,21,7,19,11,0,293,20,5,36,26,31,55,39,24,23,267
44,8,49,102,50,56,38,13,46,22,0,612,35,18,84,37,64,67,107,41,26,561
46,7,49,123,64,54,31,19,22,21,78,592,37,22,85,49,84,102,112,59,0,556
33,19,36,97,50,67,19,13,23,11,24,441,35,11,80,44,76,104,77,34,0,372
40,15,38,95,46,43,20,15,26,22,65,413,27,19,68,31,51,117,93,36,0,396
37,19,35,72,42,41,19,7,24,21,0,499,31,19,57,30,54,63,92,23,48,399
27,13,34,100,46,42,45,17,31,22,17,509,29,20,92,47,47,87,66,41,0,474
17,15,36,70,19,48,21,4,28,20,0,563,27,19,52,26,51,62,55,23,42,484
22,15,46,97,26,66,32,15,37,11,0,591,25,15,60,35,48,94,52,28,75,526
39,16,41,117,67,88,45,19,35,24,0,542,26,21,95,54,87,80,113,47,4,506
32,15,53,135,39,63,36,13,32,17,0,593,39,17,58,44,52,100,70,31,55,562
39,25,50,93,39,39,45,18,34,19,0,452,23,9,86,27,47,77,60,41,57,426
4,4,10,24,12,8,6,2,8,0,8,71,7,3,9,7,11,21,17,3,0,79
40,25,30,95,42,21,21,19,17,11,4,303,23,19,59,21,38,72,71,25,0,300
34,15,67,98,24,73,54,15,36,17,0,534,34,19,46,49,57,76,59,55,53,519
54,16,44,105,46,71,10,14,42,27,0,552,34,14,96,41,64,89,89,21,31,502
34,14,48,127,45,63,28,14,29,11,0,596,34,20,73,57,59,73,97,31,36,529
44,25,46,100,46,54,68,14,44,22,0,487,18,17,64,41,67,104,65,57,44,473
22,12,51,105,52,61,79,19,27,19,0,531,39,23,74,25,74,81,52,57,36,517
4,7,8,25,4,4,14,6,3,2,0,100,6,3,8,7,3,36,11,14,16,73
8,2,10,29,7,2,7,5,9,8,0,143,9,3,14,2,7,26,18,17,11,123
20,11,12,41,8,14,3,8,7,6,23,137,22,12,19,8,17,20,56,5,0,131
7,3,2,7,9,2,1,1,4,4,1,51,2,4,4,3,3,10,18,3,0,45
9,0,12,30,16,13,3,7,3,13,30,199,16,3,21,13,24,22,56,9,0,171
0,4,5,3,0,1,4,0,0,0,4,40,4,0,3,0,0,6,4,4,0,40
3,0,2,23,0,0,3,3,1,5,0,51,2,5,7,1,2,14,8,2,2,48
6,5,13,26,10,5,5,5,9,2,23,224,20,2,25,4,8,43,26,13,0,192
8,16,0,16,3,6,8,2,3,10,0,101,2,14,9,4,4,12,21,8,0,99
1,2,1,12,5,4,3,0,1,4,5,92,3,2,16,3,5,14,6,1,0,80
55,31,53,136,72,128,34,23,41,39,0,1038,48,39,104,100,60,127,150,57,18,947
22,29,44,90,35,25,37,27,9,21,0,591,29,19,49,23,36,106,46,40,40,542
3,1,2,19,8,3,4,6,6,7,10,70,3,0,25,8,5,13,17,6,0,62
10,4,4,16,11,10,8,2,9,4,5,96,5,8,16,9,12,13,21,6,0,89
17,9,21,43,12,13,17,6,18,7,0,305,14,7,26,13,11,37,25,23,12,300
14,8,14,27,8,6,9,17,12,6,0,252,7,10,24,9,23,17,35,19,4,225
5,2,2,12,9,2,1,1,3,1,15,27,3,4,6,1,7,15,10,5,0,29
5,10,4,23,5,6,2,8,3,9,9,71,3,7,18,5,2,13,23,6,0,78
16,10,18,40,16,6,14,1,5,7,13,204,15,11,22,9,17,33,40,17,0,186
5,5,7,23,7,8,9,8,2,6,3,155,9,6,3,6,2,23,19,11,0,159
23,6,22,32,9,5,11,7,4,14,0,473,8,9,18,5,12,30,55,11,5,453
6,0,5,14,5,6,6,9,1,9,0,78,0,0,7,6,3,12,15,8,5,83
20,15,28,102,17,15,24,7,12,11,0,481,34,26,43,10,19,76,52,34,10,428
1,0,6,5,4,5,5,2,0,1,0,28,2,0,5,5,8,7,6,5,0,19
1,0,0,1,0,0,1,0,0,0,0,9,0,0,0,0,0,0,2,0,0,10
3,0,1,11,4,2,0,1,4,2,0,74,2,6,6,5,1,6,5,5,4,62
4,7,19,43,18,3,16,6,10,13,0,279,13,14,20,12,13,52,29,15,25,225
2,8,15,29,2,2,2,0,0,2,0,98,10,6,2,2,6,19,10,4,2,99
16,7,22,35,6,12,8,7,1,7,0,227,12,4,15,14,7,30,24,8,26,208
4,5,2,2,4,6,2,0,1,0,3,67,2,2,7,7,2,1,6,3,0,66
6,5,7,4,1,10,8,1,4,0,12,70,5,5,7,10,4,4,13,7,0,73
16,14,33,55,23,68,31,10,11,23,0,561,14,13,45,107,13,57,32,37,26,501
27,5,34,33,15,82,33,4,14,13,0,445,13,11,25,133,9,44,35,23,30,382
14,6,20,41,21,73,19,3,13,19,0,460,7,7,31,95,7,38,41,33,19,411
30,22,39,90,25,88,15,10,19,20,35,633,13,14,41,143,21,72,62,23,0,637
12,15,32,43,10,58,23,4,12,11,0,765,12,13,39,98,14,58,39,21,31,660
5,5,14,10,3,10,8,7,1,2,8,119,3,8,8,31,2,9,24,9,0,98
4,9,20,41,13,16,17,2,7,6,0,237,11,9,18,25,7,48,29,17,3,205
6,6,18,11,3,3,19,3,7,4,0,98,5,4,18,6,5,15,9,11,15,90
2,4,4,12,1,1,5,0,1,2,6,13,2,0,5,2,0,15,2,8,0,17
3,7,16,41,6,5,21,1,5,4,0,179,8,10,14,18,3,37,13,19,1,165
15,4,16,26,8,10,21,3,2,4,4,173,7,6,13,14,7,36,19,12,0,172
7,0,15,33,6,8,8,6,4,0,0,213,5,9,10,8,2,29,14,9,10,204
5,3,6,12,0,0,8,2,0,1,4,62,0,0,4,1,1,18,2,3,0,74
6,1,3,16,1,0,11,2,0,3,12,174,0,3,10,4,4,22,23,15,0,148
11,10,20,40,18,14,17,13,5,4,30,303,7,7,27,13,31,37,43,19,0,301
15,6,24,35,6,9,8,18,8,9,6,137,19,3,22,3,7,27,39,13,0,148
7,5,10,18,6,5,7,1,1,9,9,95,4,2,13,7,3,15,17,5,0,107
34,14,40,78,38,22,28,14,19,28,0,434,21,19,52,26,43,76,61,42,10,399
6,4,3,8,2,0,5,0,1,8,2,30,4,3,3,3,17,6,3,4,0,26
23,28,19,69,22,20,13,11,12,17,8,410,13,11,23,15,82,56,39,27,0,386
8,7,7,18,6,9,3,3,2,7,6,56,4,3,12,2,4,18,13,8,0,68
11,11,16,53,22,24,10,16,14,16,30,234,13,12,50,42,29,48,51,10,0,202
9,7,16,38,12,16,9,5,8,1,2,119,18,5,23,24,4,18,33,15,0,102
0,2,14,8,1,5,8,1,0,3,0,96,0,3,4,9,3,12,0,7,3,97
7,8,12,31,3,7,15,9,3,3,4,223,12,4,31,6,11,29,30,27,0,175
31,8,14,48,19,26,15,9,21,11,0,268,12,7,38,28,12,54,69,24,1,225
11,7,31,56,8,15,13,4,4,5,31,391,11,15,38,34,4,42,34,16,0,382
2,1,10,14,4,5,6,5,2,7,0,63,4,2,15,1,2,20,6,9,9,51
21,7,12,39,5,4,15,9,1,7,8,293,8,13,12,11,8,46,30,7,0,286
16,7,13,29,4,7,12,17,2,9,1,171,10,7,11,6,7,24,24,15,0,184
8,1,9,11,1,3,12,9,1,6,0,64,1,2,5,2,3,20,21,4,4,63
2,2,11,14,0,1,5,2,1,3,0,42,2,0,4,2,1,3,14,2,9,46
10,3,8,6,1,9,13,2,2,5,0,134,3,3,9,8,3,13,14,18,6,116
14,7,12,45,7,2,12,11,10,4,16,154,7,8,20,7,12,30,17,17,0,176
1,1,7,26,1,0,1,12,1,6,0,101,3,1,8,1,6,22,7,7,10,92
9,9,27,43,10,12,22,16,8,3,0,183,13,16,19,10,14,40,34,9,7,180
10,4,10,18,8,6,4,15,1,4,0,208,9,3,16,15,4,23,14,11,1,192
1,3,7,17,2,3,9,6,4,9,0,37,3,5,11,4,7,14,11,11,1,31
2,3,14,17,3,5,16,4,3,6,0,156,3,5,12,0,7,10,9,22,24,137
5,2,12,23,4,2,6,9,8,11,7,200,4,6,12,4,12,13,21,13,0,204
0,2,5,15,3,3,1,0,0,2,0,32,2,2,4,0,5,12,1,5,3,29
19,20,52,108,14,29,23,28,16,19,25,694,45,27,41,24,23,86,76,35,0,690
0,5,10,21,4,4,3,6,5,4,0,85,12,8,18,3,5,11,4,5,8,73
3,1,4,16,0,0,4,3,1,6,0,92,1,2,5,2,2,19,2,7,1,89
3,1,9,14,1,3,3,3,0,0,0,46,1,0,1,2,1,11,8,2,2,55
8,9,27,69,5,5,16,21,4,4,6,400,13,9,19,18,7,58,38,24,0,388
7,4,22,34,12,12,18,3,4,7,0,212,6,11,15,33,4,41,18,15,20,172
5,3,4,4,1,1,6,0,0,2,5,38,0,4,4,0,1,8,2,11,0,39
8,3,8,4,0,2,7,3,1,2,21,90,0,0,4,1,6,11,35,4,0,88
17,3,15,18,4,0,4,2,1,1,0,113,7,6,4,4,1,7,25,8,0,116
8,4,7,26,0,2,4,3,5,10,0,211,4,2,11,2,3,19,27,6,10,196
22,6,15,25,5,11,13,12,10,14,0,288,6,9,16,16,6,26,48,12,4,278
72,14,40,72,17,31,15,42,12,11,0,617,22,18,30,22,19,77,114,39,40,562
60,27,45,72,11,15,27,25,20,15,0,762,23,14,21,11,9,78,127,34,43,719
49,6,34,44,11,13,18,16,16,13,0,566,27,12,22,11,11,34,91,29,32,517
43,17,19,43,7,18,17,25,14,15,0,534,14,13,30,17,15,45,91,21,39,467
73,17,17,34,8,12,13,20,17,7,38,860,20,18,25,9,12,26,152,28,0,826
3,1,12,10,2,3,10,60,2,2,10,162,8,5,23,8,6,25,34,10,0,158
11,7,8,27,1,17,10,3,3,2,1,180,2,1,7,19,1,22,19,13,0,186
6,13,17,38,8,6,12,10,5,6,24,260,13,8,32,8,8,30,18,16,0,272
6,3,5,22,3,0,6,1,2,5,0,74,2,2,9,7,7,12,4,5,0,79
3,4,27,41,0,1,12,12,0,3,12,115,11,5,10,2,1,38,8,14,0,141
4,8,19,14,4,8,6,1,2,3,0,139,7,6,8,18,1,12,3,6,3,144
12,9,26,51,7,12,18,8,4,12,1,347,18,13,18,9,14,45,38,16,0,336
4,7,4,24,6,7,17,9,5,2,8,163,10,9,23,3,2,23,20,11,0,155
1,2,4,11,7,3,7,3,5,2,2,58,5,2,7,2,5,6,14,11,0,53
17,4,22,42,20,26,7,27,10,13,0,301,19,14,34,12,26,41,42,18,0,283
78,29,93,121,60,43,49,21,23,27,10,883,55,32,87,39,76,109,162,50,0,827
7,5,12,27,6,14,5,1,3,11,0,179,2,7,17,18,4,29,4,8,1,180
2,5,5,13,4,4,7,3,6,2,0,82,5,5,5,1,1,15,4,5,2,90
10,3,4,15,3,9,5,2,3,5,4,86,3,3,9,1,15,15,21,4,0,78
1,0,2,14,11,5,5,4,2,5,4,64,2,3,11,2,12,15,8,0,0,64
31,7,24,54,18,8,10,16,8,11,10,333,10,10,26,10,19,55,71,13,0,316
8,10,14,43,11,6,20,2,3,9,7,192,8,13,13,11,5,34,26,9,0,206
18,15,21,42,12,18,30,12,16,10,31,278,47,23,35,16,10,59,36,20,0,257
15,8,35,58,13,14,38,30,13,20,0,593,27,21,30,29,10,64,36,48,27,545
11,5,19,44,9,7,18,8,14,10,0,273,14,8,22,5,9,38,51,9,5,257
2,2,8,23,0,1,5,7,2,3,0,45,2,1,9,2,2,18,12,6,4,42
19,7,38,33,3,9,31,33,2,18,0,514,6,15,22,10,7,55,34,25,14,519
0,0,12,21,0,3,14,16,1,2,5,154,18,4,10,5,1,17,7,7,0,159
2,2,1,9,0,0,4,5,2,3,0,65,2,3,4,1,0,4,1,1,9,68
2,1,3,10,1,0,12,11,0,0,0,117,4,2,3,0,1,17,6,11,6,107
3,0,6,10,1,4,2,0,0,2,7,101,2,5,4,4,4,8,11,1,0,97
28,38,46,96,23,20,28,19,9,26,10,726,22,30,64,19,20,99,77,35,0,703
28,30,37,80,23,24,28,9,15,27,0,834,15,15,54,36,23,122,67,30,21,752
13,3,14,44,9,20,15,8,21,12,0,242,19,5,40,12,12,47,33,13,7,213
4,4,13,12,11,4,10,16,2,3,11,89,9,5,7,4,4,17,17,13,0,103
2,3,4,15,1,10,1,0,4,4,8,70,3,1,11,10,1,17,5,7,0,67
7,6,5,15,6,2,4,3,0,2,3,68,2,4,10,2,7,9,8,6,0,73
11,7,27,31,16,12,2,8,6,4,24,198,13,10,26,12,29,37,35,12,0,172
29,25,47,146,39,45,52,31,28,21,85,590,57,20,80,38,67,120,83,53,0,620
15,5,16,24,5,11,5,19,6,5,0,146,4,3,9,9,21,27,23,10,11,140
1,2,4,10,2,0,16,3,0,3,0,50,3,4,10,0,3,20,5,7,0,39
9,8,13,32,15,8,7,11,3,8,14,96,17,7,15,15,19,23,29,7,0,92
9,5,18,56,6,2,9,3,3,5,10,230,10,9,22,7,10,41,20,15,0,222
1,0,7,17,2,5,2,8,2,3,4,54,5,0,6,4,7,17,4,3,0,59
17,5,8,40,4,11,14,4,7,6,0,178,11,8,12,10,6,32,32,10,21,152
26,28,46,87,25,70,31,17,24,24,0,650,18,21,67,44,35,93,76,33,30,611
17,21,34,75,31,58,30,11,16,12,0,561,26,29,49,37,23,83,81,41,35,462
6,6,9,20,5,4,9,2,5,7,0,149,4,9,19,1,13,20,17,11,1,127
5,4,12,28,10,6,7,7,7,5,0,172,6,7,15,6,10,23,37,6,3,150
11,0,15,19,1,8,4,0,3,3,15,94,2,1,7,5,10,29,21,4,0,94
0,1,1,11,3,3,0,0,5,2,7,43,2,1,12,0,3,5,0,2,0,51
50,18,33,97,25,55,36,18,21,16,0,610,29,25,44,42,20,81,121,37,16,564
30,17,33,98,43,72,16,33,31,20,34,653,26,21,79,42,66,59,131,43,0,613
0,3,6,6,0,2,4,3,1,1,6,19,5,2,9,2,2,4,3,5,0,19
6,3,11,12,0,2,4,6,1,1,8,108,6,2,5,3,2,11,12,3,0,118
2,1,4,9,0,3,11,2,1,2,3,42,1,4,3,1,2,9,7,4,0,49
5,1,7,4,0,1,2,3,1,1,6,25,3,1,0,1,1,8,8,4,0,30
14,0,10,7,3,2,8,5,1,5,11,87,3,0,3,0,1,12,32,12,0,90
5,6,12,28,6,12,9,3,3,4,20,89,10,3,13,11,9,31,20,3,0,97
3,7,2,21,4,2,8,8,2,7,0,79,6,3,7,9,4,19,11,6,6,72
4,1,10,15,1,4,3,1,1,1,4,70,3,1,11,4,2,10,15,8,0,61
6,3,3,7,3,9,4,24,7,1,0,107,3,4,5,13,4,11,14,6,4,110
7,7,14,15,8,7,10,5,6,4,0,115,11,4,12,14,9,18,13,17,7,93
22,16,25,61,18,35,13,16,8,13,24,339,12,9,26,48,36,59,40,26,0,334
16,9,24,31,8,14,7,6,5,15,0,193,16,6,18,11,6,43,44,12,8,164
39,8,20,63,61,45,8,25,29,21,66,222,38,9,50,36,52,28,104,24,0,266
20,9,22,64,21,27,15,9,15,11,16,412,18,15,42,18,21,70,51,8,0,398
1,0,3,16,1,4,13,4,1,3,0,124,1,2,6,2,1,12,10,5,2,129
3,1,1,6,0,0,0,2,2,0,2,30,0,4,9,2,0,7,3,3,0,19
1,3,10,5,2,0,5,11,0,5,7,75,6,3,2,1,0,21,4,12,0,75
5,2,3,9,0,1,1,7,2,2,0,125,2,4,4,0,0,17,13,2,12,103
5,5,9,29,1,0,6,4,1,9,0,32,5,4,7,4,1,17,14,7,1,41
0,4,5,3,1,1,8,0,0,1,3,83,2,3,3,1,1,11,0,9,0,79
8,1,7,25,2,2,1,12,2,3,1,105,9,0,5,7,3,23,16,10,0,96
2,4,9,22,5,2,5,3,1,2,0,161,8,6,7,3,2,21,1,3,2,163
8,2,2,20,18,2,9,15,4,4,16,104,1,1,7,10,15,28,17,17,0,108
1,0,3,7,1,4,5,21,4,4,9,68,9,1,5,8,0,4,18,0,0,82
6,6,21,16,1,4,4,12,3,6,0,198,32,3,6,7,1,27,14,6,0,181
5,4,4,19,0,3,5,8,8,2,1,102,9,3,9,7,2,19,12,3,0,97
3,3,17,32,6,5,17,26,8,24,0,325,19,15,26,10,5,29,16,21,8,317
3,4,19,22,2,2,11,5,0,2,5,111,11,2,7,5,3,30,6,10,0,112
3,0,11,5,7,1,9,4,2,1,2,60,1,1,5,1,4,17,4,8,0,64
7,5,11,10,16,2,4,1,3,4,0,120,4,4,7,2,15,12,12,4,6,117
7,8,13,23,9,4,12,4,4,8,0,233,12,8,16,4,10,25,15,18,13,204
19,8,11,38,8,6,17,35,8,2,4,307,13,4,32,21,8,29,33,8,0,315
1,2,2,13,15,6,1,4,5,1,5,40,2,0,15,15,4,11,17,3,0,28
4,1,5,9,10,1,0,3,0,1,9,21,4,0,14,3,1,6,18,0,0,18
2,0,3,5,8,0,1,0,2,4,0,21,2,0,4,2,5,2,6,3,2,20
14,2,13,23,6,7,11,17,3,3,7,179,8,4,18,22,4,32,50,17,0,130
9,4,11,32,7,14,16,75,12,4,10,238,22,7,32,29,8,31,50,24,0,229
64,17,35,115,43,18,24,136,25,25,0,732,30,13,76,27,36,103,156,31,50,712
51,20,37,116,21,21,47,67,20,24,0,877,19,15,55,20,23,114,85,35,52,883
37,13,33,100,26,15,50,43,20,10,0,528,28,19,49,23,23,83,89,36,4,521
60,30,37,127,50,6,33,90,10,11,0,727,20,24,55,22,48,120,182,41,7,662
62,15,42,151,37,27,33,107,27,25,0,884,29,35,85,32,45,141,139,41,16,847
32,23,29,121,28,22,17,69,14,8,7,517,24,16,45,24,37,92,120,19,0,510
8,8,11,54,2,9,25,36,0,5,0,375,15,6,14,7,10,53,18,18,30,362
9,8,12,29,0,4,5,11,5,7,10,230,14,4,16,7,1,26,26,14,0,222
16,2,27,23,8,1,11,10,1,7,3,389,33,7,19,3,9,35,29,19,0,344
4,4,4,23,4,1,8,14,1,7,12,142,11,9,24,4,3,19,15,6,0,133
5,5,11,28,12,6,10,29,7,2,8,176,19,7,9,12,9,35,42,15,0,151
2,0,12,9,5,1,1,0,3,0,0,88,15,2,6,0,2,9,6,1,5,75
0,0,20,6,1,7,0,2,0,3,0,31,12,1,1,2,2,9,1,3,3,36
0,3,7,1,2,0,1,1,2,0,0,42,6,1,0,0,1,2,6,0,3,40
5,3,76,51,2,7,6,6,5,4,0,550,79,9,9,4,2,53,15,16,31,497
11,11,74,47,12,9,20,9,6,11,3,564,60,10,16,17,10,58,28,18,0,560
9,0,7,14,3,3,1,16,3,1,3,115,9,6,10,2,3,20,20,4,0,101
6,3,14,21,5,1,3,38,8,3,0,162,22,4,16,3,5,23,22,9,3,157
3,9,8,13,0,0,3,13,0,0,0,102,8,4,7,0,1,23,16,7,1,84
1,1,2,7,1,0,8,18,2,0,0,49,1,2,3,0,1,7,10,2,0,63
8,10,12,54,8,4,12,68,9,11,8,307,21,10,42,8,15,55,52,21,0,287
11,0,1,2,0,0,1,19,4,4,5,69,7,0,9,1,1,5,26,3,0,64
24,10,43,54,14,14,22,75,13,24,0,538,43,12,67,14,21,56,70,16,10,522
23,8,48,72,16,29,25,94,10,16,0,707,71,11,61,44,22,83,85,30,9,632
26,11,20,72,29,4,15,21,1,11,0,513,14,10,21,5,16,70,62,24,9,492
13,10,19,58,29,11,23,15,8,6,0,498,15,9,29,3,34,60,40,24,12,464
13,6,17,43,12,3,24,16,11,13,8,248,10,10,25,10,10,32,42,30,0,245
0,0,5,5,1,0,1,17,1,5,0,40,3,2,6,2,2,10,17,3,0,30
0,0,7,17,2,3,3,16,3,5,0,53,4,2,7,4,1,17,10,7,5,52
7,5,23,32,10,2,14,37,10,10,0,319,16,11,21,1,5,43,29,25,45,273
5,4,9,27,3,2,17,7,3,2,5,254,9,3,4,4,15,20,25,15,0,243
13,3,11,15,3,5,4,20,4,6,6,145,4,5,17,11,9,17,37,9,0,126
21,8,31,46,9,7,30,28,5,7,0,292,26,11,35,11,8,44,71,28,3,247
1,11,19,33,6,5,13,14,4,10,0,271,8,6,17,9,10,34,38,18,1,246
20,8,17,41,12,11,16,136,13,17,1,450,20,13,44,16,19,76,69,11,0,474
1,1,2,7,1,2,9,1,1,3,8,103,2,2,3,2,3,12,11,7,0,97
8,3,12,54,9,11,10,11,5,5,5,141,10,10,11,12,9,36,24,17,0,145
3,1,4,7,0,0,4,0,1,15,0,52,5,1,3,0,0,12,1,10,2,53
4,17,16,21,9,5,10,7,5,35,3,214,11,13,21,12,3,29,23,43,0,191
6,4,26,52,7,13,27,33,2,14,0,299,28,12,20,14,12,48,39,13,33,264
8,3,17,29,6,2,10,44,0,4,6,128,10,5,13,4,7,38,38,10,0,132
1,4,27,44,7,2,11,4,0,7,6,153,13,10,10,4,5,30,11,14,0,169
6,3,17,32,4,6,22,42,3,2,0,163,4,5,14,7,3,25,53,14,4,171
2,0,2,13,2,0,8,13,0,0,8,46,6,1,1,0,0,10,24,6,0,46
1,1,13,8,0,1,8,7,0,5,0,69,9,0,6,1,0,5,14,5,9,64
5,11,13,14,4,4,21,39,6,7,0,137,5,3,20,4,2,21,46,11,15,134
20,5,5,21,11,2,4,24,1,5,14,115,9,5,22,3,3,7,72,7,0,99
12,7,34,37,20,14,20,79,14,17,0,380,18,12,45,14,6,33,105,14,18,369
10,3,27,31,11,14,30,64,9,8,0,271,9,7,32,11,7,35,95,24,2,256
23,20,80,61,7,7,42,70,8,14,0,548,29,26,28,10,7,79,113,24,49,515
10,24,39,57,10,10,42,91,7,9,0,569,24,20,37,11,5,64,129,28,52,498
47,13,71,90,17,19,22,113,19,19,0,480,24,10,55,11,14,92,177,26,47,454
19,12,41,65,12,32,24,97,16,18,0,331,14,13,33,16,7,58,154,22,29,321
17,9,48,42,14,10,19,94,30,19,0,502,12,13,47,8,15,43,154,21,29,462
21,14,45,43,13,10,15,56,13,11,0,366,8,5,32,15,9,49,125,17,4,343
17,11,36,34,12,18,20,73,9,15,4,505,10,16,21,15,5,33,104,18,0,532
7,0,5,14,8,3,14,15,0,2,0,99,0,4,16,4,6,15,21,16,6,79
4,5,5,16,1,0,5,8,1,2,16,117,7,0,15,2,7,21,10,8,0,110
3,2,7,5,0,3,6,12,0,2,0,117,1,4,3,2,0,16,8,0,11,112
39,14,39,70,17,7,20,107,10,27,0,611,26,23,65,19,22,98,118,29,4,557
0,4,6,12,0,0,3,4,0,3,0,48,1,3,6,2,1,14,4,2,3,44
38,15,39,89,15,16,33,111,12,19,1,671,26,20,81,12,13,85,182,32,0,608
2,0,3,5,1,12,2,6,0,0,0,47,1,2,0,3,1,6,9,6,8,42
17,9,22,38,8,7,7,44,6,7,0,364,11,17,26,13,4,55,59,17,10,317
10,4,13,25,3,3,3,17,1,9,21,97,6,7,10,5,3,19,40,10,0,106
6,4,10,31,11,7,7,13,1,4,0,119,6,4,15,6,7,35,24,5,0,111
1,3,10,9,0,1,3,25,4,8,4,56,3,2,3,1,1,23,7,12,0,72
0,0,3,5,0,0,0,19,2,5,0,52,1,2,12,0,2,8,19,1,3,38
19,5,9,41,10,7,14,30,1,8,9,196,12,4,16,8,5,30,56,16,0,202
4,0,1,16,6,7,1,3,4,4,0,50,2,1,5,9,5,5,15,4,8,42
5,5,15,19,4,4,10,8,0,4,3,146,5,4,17,4,7,18,10,17,0,141
1,3,14,13,1,2,13,7,3,5,44,144,4,5,8,4,3,24,9,7,0,186
1,2,3,7,0,2,3,3,0,7,0,155,8,4,3,0,4,8,9,6,32,109
11,2,4,22,3,4,9,9,1,6,30,203,13,5,12,14,13,28,14,13,0,192
13,3,9,37,8,4,3,26,2,1,0,136,7,4,8,13,4,33,31,7,0,135
8,15,54,80,46,21,27,25,16,9,0,637,16,15,58,36,58,102,47,28,12,566
26,8,33,65,69,23,27,30,6,15,0,669,10,12,41,41,59,75,83,47,42,561
17,7,21,48,4,7,27,22,5,21,0,305,6,6,38,7,16,53,46,33,0,279
31,9,30,56,5,14,16,23,6,13,0,525,9,12,51,12,5,42,79,23,19,476
3,11,5,10,5,14,8,5,0,3,0,91,0,3,8,9,2,8,18,4,4,99
8,1,8,11,1,2,10,4,0,2,12,76,4,4,6,2,0,13,10,9,0,87
8,3,5,19,0,11,12,0,1,7,6,110,4,1,10,12,1,20,24,15,0,95
2,2,3,20,1,0,6,8,4,9,0,157,3,5,4,1,4,14,9,10,8,154
3,0,5,23,3,2,8,3,0,1,0,54,2,2,7,2,2,24,9,5,10,39
2,5,1,10,1,5,8,0,5,1,0,192,2,4,11,5,1,20,14,11,5,157
5,1,10,18,3,0,11,13,1,1,0,180,2,4,9,4,6,25,11,14,13,155
9,3,13,21,7,10,5,2,9,2,0,92,3,1,7,12,35,16,12,10,1,76
5,3,16,26,4,1,4,25,1,4,0,181,11,9,12,2,4,31,16,11,5,169
0,4,3,12,1,1,10,5,1,3,9,34,1,3,5,2,1,13,12,5,0,41
1,3,8,9,2,0,3,7,3,3,3,42,6,2,11,1,2,10,13,5,0,34
3,6,2,23,5,3,32,15,0,1,8,89,6,4,11,5,4,24,23,14,0,96
6,7,8,2,1,4,7,1,0,1,0,20,2,7,3,1,0,9,6,7,0,22
2,3,11,22,2,4,4,7,5,3,7,123,11,2,8,2,4,11,13,1,0,141
6,3,7,10,1,3,5,14,0,3,1,67,7,3,10,1,4,9,13,7,0,66
1,3,1,4,3,0,2,4,0,5,1,40,3,3,7,0,4,1,7,6,0,33
1,2,3,9,2,0,7,8,1,5,1,38,8,7,7,3,0,8,6,4,0,34
0,1,5,22,2,2,9,10,1,2,0,77,30,4,5,1,0,6,7,3,9,66
0,1,29,29,9,1,8,4,6,5,3,130,8,2,16,4,8,25,9,10,0,143
6,11,22,31,10,6,37,9,3,5,0,362,11,13,23,9,12,51,19,28,21,315
8,9,27,65,6,12,47,16,5,4,21,400,23,15,36,12,8,69,33,36,0,388
12,2,13,26,4,1,2,5,0,6,6,125,9,3,15,5,11,24,22,6,0,107
2,2,6,21,1,1,2,5,5,4,0,100,8,1,9,3,4,26,15,7,6,70
6,1,7,18,9,1,8,35,6,9,0,191,4,7,25,2,7,20,49,9,2,166
6,3,17,17,0,5,10,2,4,7,0,81,11,0,7,3,1,22,15,12,14,67
8,4,19,42,8,7,22,9,2,4,3,151,12,10,9,3,6,39,24,22,0,154
1,0,9,17,3,3,9,2,3,0,0,143,6,6,8,1,0,13,10,10,1,135
3,7,5,18,10,9,9,8,3,3,0,100,6,7,9,6,13,10,13,9,2,100
4,4,9,9,0,1,7,7,5,7,0,124,2,3,4,4,1,12,4,9,11,127
8,6,18,46,10,3,30,24,3,8,6,537,12,13,25,3,9,41,31,36,0,529
2,0,1,22,0,1,5,24,0,1,2,45,0,0,7,0,1,17,21,10,0,47
5,21,34,65,16,13,32,121,3,12,23,562,16,22,49,21,6,101,198,40,0,454
3,7,13,18,4,0,14,4,1,2,0,145,11,7,6,2,2,19,11,6,4,143
1,3,9,14,1,0,6,5,0,3,1,61,6,1,2,1,0,20,5,5,0,64
4,6,13,10,4,7,17,12,1,8,0,119,5,1,4,6,4,16,6,12,8,139
69,16,74,64,20,38,14,20,21,4,11,472,75,12,58,38,21,73,99,23,0,424
33,17,70,46,17,27,15,8,15,12,0,480,34,21,29,29,17,59,53,17,46,435
32,14,52,55,14,20,24,8,9,17,0,607,30,22,45,13,16,78,38,22,59,529
37,20,98,71,18,22,25,11,12,12,0,570,72,18,57,21,17,100,58,26,47,480
59,15,71,77,37,73,21,10,22,16,0,566,64,23,46,70,33,73,109,28,16,505
41,10,51,56,13,54,9,11,6,8,0,391,47,11,39,45,16,49,83,16,1,343
18,8,40,46,15,14,6,6,13,8,0,278,35,12,16,16,16,50,42,17,7,241
18,17,56,86,15,57,25,13,15,6,0,430,59,21,44,40,16,95,42,26,31,364
27,6,48,49,6,22,10,16,3,4,0,276,45,10,30,24,5,43,60,9,14,227
32,11,65,67,20,42,21,9,11,12,0,461,44,13,38,38,15,79,52,19,57,396
21,9,47,56,20,21,21,13,14,6,0,454,52,16,25,11,18,56,59,26,59,360
20,16,53,52,18,20,22,6,7,8,0,422,46,11,42,9,7,68,40,14,7,400
28,15,70,63,16,40,24,12,9,12,0,431,67,11,31,31,26,75,63,29,8,379
35,9,65,68,14,34,30,14,17,9,0,487,46,6,39,24,15,73,61,22,41,455
25,10,28,37,13,23,14,9,22,5,0,367,30,7,36,8,11,27,42,10,49,333
34,11,84,48,4,25,9,25,19,10,0,492,57,10,39,24,15,61,52,13,12,478
2,2,5,6,1,7,4,6,3,4,0,61,14,6,6,10,1,5,9,3,3,44
77,14,76,101,38,48,33,17,20,8,0,424,56,21,58,40,52,85,108,32,25,379
59,10,57,48,10,36,13,13,10,17,0,467,34,9,44,31,15,45,54,22,12,474
20,11,38,61,12,21,15,7,7,10,13,1002,36,18,27,10,5,72,50,13,0,986
48,17,88,56,22,38,21,10,12,13,0,557,58,14,53,25,22,64,77,23,31,515
11,4,21,14,4,12,0,4,0,3,3,109,23,1,12,18,3,18,18,2,0,90
19,4,33,29,10,26,10,9,8,6,16,148,28,5,16,26,15,29,45,7,0,147
12,3,17,14,5,13,8,3,5,9,0,80,13,1,8,13,3,8,21,4,6,92
15,8,24,32,13,5,6,7,7,6,0,208,23,19,17,4,10,23,11,6,18,200
19,11,30,41,8,23,10,15,6,3,44,269,24,11,34,23,4,44,42,22,0,275
18,15,52,60,17,45,31,27,8,19,9,483,19,23,31,87,15,56,74,29,0,450
4,1,14,15,0,16,5,8,5,5,0,105,8,4,10,7,1,16,9,16,3,104
5,8,25,16,2,6,12,18,2,6,0,171,25,5,9,10,4,26,10,10,5,167
22,12,70,86,13,46,21,26,18,14,0,472,33,18,32,58,8,68,52,26,28,477
27,22,79,82,11,36,31,35,12,8,0,497,56,8,32,41,11,95,45,23,35,494
18,20,75,76,16,44,25,33,35,15,0,876,69,27,62,58,21,44,56,28,64,804
23,8,27,41,5,16,11,11,12,4,0,317,20,11,21,14,7,42,37,16,20,287
9,16,36,29,1,15,10,8,3,10,0,477,15,18,21,29,5,31,23,14,12,446
6,4,2,18,3,4,5,1,1,2,16,79,2,4,0,14,3,18,11,2,0,87
4,11,49,46,8,13,18,15,2,6,0,409,17,9,15,15,6,26,19,16,9,449
9,8,34,44,6,15,19,21,11,6,0,507,26,6,25,18,7,40,42,14,23,479
5,1,44,44,7,23,17,13,7,2,0,655,24,10,15,26,10,50,18,13,44,608
8,2,7,20,3,15,7,6,4,8,9,103,6,5,15,13,8,14,17,8,0,106
12,5,13,48,18,40,8,14,12,10,0,216,12,8,36,71,7,27,23,7,4,201
14,5,16,35,21,61,5,12,7,14,3,253,13,5,32,58,15,33,36,22,0,232
16,10,5,15,9,19,5,0,5,3,0,134,6,6,15,18,10,21,23,11,1,110
20,6,30,37,18,64,19,12,11,19,0,331,16,16,25,63,30,50,62,19,9,277
23,10,15,33,15,51,22,7,8,6,0,295,6,15,23,49,10,30,56,22,12,262
35,12,33,69,24,40,19,15,7,8,0,426,17,24,30,43,20,83,61,24,21,365
25,7,34,43,48,52,16,12,6,16,0,374,17,10,23,46,27,40,69,21,23,357
34,13,38,75,32,70,4,5,10,18,0,383,16,12,24,64,27,70,61,24,20,364
24,10,31,62,32,54,15,13,11,12,0,294,14,18,15,43,26,76,60,17,14,275
28,14,33,45,29,57,15,6,12,17,0,690,15,20,59,48,26,53,54,28,12,631
32,15,22,57,32,62,28,12,20,4,0,539,8,15,36,75,18,62,78,23,9,499
19,16,5,52,18,45,7,8,3,20,29,331,17,11,35,43,18,24,49,18,0,338
6,6,6,24,7,15,4,4,0,3,0,123,4,5,4,22,8,25,15,8,0,107
13,5,49,45,10,34,1,28,7,13,0,209,18,9,21,82,13,36,39,10,0,186
1,3,20,21,2,2,5,7,0,4,5,157,24,0,7,2,2,35,12,5,0,140
5,5,4,16,2,6,11,0,1,3,3,114,17,4,8,9,3,21,14,11,0,83
25,27,29,49,18,22,8,7,10,12,3,609,32,17,17,23,13,58,50,18,0,591
38,22,27,99,40,30,33,13,27,11,0,552,59,36,55,30,29,86,81,33,22,461
33,14,41,102,17,16,21,23,10,17,0,561,40,24,41,23,24,88,56,27,17,515
25,9,22,68,17,28,9,17,11,6,0,561,47,21,51,32,20,47,52,8,11,484
15,13,42,77,10,11,18,12,5,9,0,486,37,16,36,15,14,71,49,19,9,432
1,0,0,3,0,3,4,1,1,6,0,33,1,0,1,2,3,3,4,4,2,32
3,3,8,18,0,2,13,1,0,3,1,74,1,8,1,1,0,15,2,11,0,87
21,5,16,50,8,5,13,4,8,5,0,231,14,7,23,5,10,30,39,9,25,204
27,15,48,62,31,32,13,6,6,9,3,379,35,12,32,22,21,55,58,20,0,376
14,9,44,62,3,12,12,19,6,6,0,343,26,5,27,12,3,64,29,16,22,326
12,1,5,12,1,0,5,1,6,6,0,89,4,4,8,0,6,11,15,2,5,83
14,4,8,21,4,2,7,4,4,2,7,118,8,5,2,3,0,27,30,2,0,118
8,8,37,43,2,9,15,7,1,4,0,264,22,11,7,9,3,51,17,10,0,268
2,9,20,43,11,29,16,4,1,6,0,254,24,16,21,24,9,33,22,17,4,225
13,7,16,44,11,48,8,16,2,8,12,275,10,9,31,30,11,44,48,7,0,270
5,1,9,5,1,2,2,1,0,1,1,46,6,3,4,1,0,6,10,3,0,41
2,9,12,28,2,25,9,5,1,1,0,134,5,5,7,11,3,29,29,4,9,126
25,15,32,68,16,35,14,18,5,15,0,358,15,15,22,30,4,92,62,9,9,343
27,12,30,76,23,53,8,36,6,12,1,563,25,15,48,28,20,73,76,13,0,549
1,0,4,9,1,10,4,8,3,0,3,83,4,3,9,3,6,8,13,6,0,74
48,17,42,111,22,67,17,37,11,12,20,562,36,22,64,30,28,124,131,19,0,512
43,11,61,74,15,90,27,28,12,14,0,536,26,19,44,28,11,100,81,30,22,550
61,14,61,125,27,79,23,39,19,22,0,868,27,17,71,44,17,155,135,30,41,801
18,3,23,79,11,10,30,14,3,8,21,389,24,21,38,12,21,64,28,23,0,378
21,25,21,94,28,21,33,14,15,19,7,564,26,17,40,21,15,69,96,22,0,556
16,6,18,64,13,8,23,5,11,13,0,245,18,5,21,9,8,60,38,3,30,230
14,7,21,72,15,21,33,13,17,5,0,309,13,12,27,13,16,70,57,19,20,280
14,6,7,17,7,5,18,8,6,6,15,640,17,9,19,3,7,24,34,10,0,626
30,12,12,50,23,12,21,11,20,3,60,440,20,21,38,20,21,41,98,18,0,417
25,14,16,80,21,11,28,12,18,13,0,397,22,24,27,8,12,47,77,18,19,381
27,17,38,41,22,11,15,12,5,8,0,515,7,12,30,12,6,46,77,20,1,500
12,14,21,62,17,17,13,10,20,6,5,407,21,15,26,21,6,50,61,13,0,391
10,9,18,63,12,18,36,9,6,10,0,410,21,11,24,12,10,57,42,19,18,387
21,6,30,41,13,14,36,15,18,9,0,514,22,9,20,13,8,45,63,21,79,437
13,12,26,46,15,14,27,11,14,14,0,472,34,10,24,15,19,44,50,20,16,432
6,7,22,36,2,12,24,4,8,8,1,324,17,9,13,10,7,35,23,20,0,320
11,12,15,41,18,8,18,6,8,4,0,377,24,14,21,14,8,31,37,17,30,322
13,15,28,38,14,6,19,3,17,3,0,346,23,7,20,9,13,37,45,19,9,320
3,4,8,33,7,12,7,0,2,3,0,126,6,3,14,6,3,14,21,4,1,133
6,4,5,18,5,3,12,0,5,2,6,68,2,4,8,9,3,11,13,9,0,75
7,3,11,23,6,13,19,6,3,3,0,134,15,5,13,7,2,11,17,9,8,141
9,28,49,63,18,6,18,2,8,11,18,614,19,29,14,8,14,42,33,13,0,672
9,16,24,34,9,46,14,9,10,9,30,385,18,23,42,39,15,39,46,14,0,359
9,2,14,14,1,27,3,4,5,4,0,58,6,10,17,18,3,14,10,4,9,50
7,5,21,16,2,11,14,27,4,11,0,261,25,8,19,8,2,12,27,7,11,260
0,6,6,7,0,1,4,5,1,2,0,119,9,7,2,3,2,11,1,8,5,103
3,1,11,25,8,20,12,16,3,5,10,223,15,2,15,16,7,31,21,8,0,222
11,10,10,39,1,14,2,0,4,3,16,136,5,3,12,8,7,46,25,8,0,132
83,17,66,63,17,35,11,41,12,8,0,543,22,21,53,35,16,77,124,16,10,522
6,8,31,37,1,21,12,39,5,6,6,251,31,4,14,42,6,44,26,11,0,245
3,4,7,17,2,8,5,7,2,1,0,62,5,5,5,10,2,12,15,5,1,58
3,8,10,18,5,14,3,6,2,3,0,128,7,4,14,9,4,6,31,6,6,113
3,1,12,14,1,5,6,7,1,3,0,159,17,5,3,4,1,20,7,5,12,138
6,5,53,38,5,3,20,15,6,12,2,282,47,11,13,9,2,34,15,20,0,296
0,7,36,15,1,3,5,4,4,9,0,148,42,5,8,2,0,14,7,9,1,144
12,5,38,26,2,3,16,15,3,9,0,339,54,4,4,4,2,28,17,9,16,330
5,6,45,35,1,12,11,8,3,6,0,211,56,15,13,7,1,25,5,6,10,205
1,1,10,4,0,4,5,0,0,1,0,60,3,4,0,0,0,7,3,5,6,58
5,2,17,20,4,3,5,3,2,7,0,194,21,2,16,2,3,29,12,8,17,152
11,13,11,33,5,20,12,15,8,9,16,288,6,13,26,57,3,31,25,11,0,269
31,18,22,43,27,38,18,15,11,5,16,517,15,11,40,20,16,49,89,16,0,505
23,20,35,49,26,36,15,19,7,16,0,353,11,12,36,27,23,49,69,19,26,327
32,22,32,112,54,78,28,19,16,14,0,474,14,22,55,56,36,93,91,30,19,465
12,2,6,24,8,15,0,4,3,8,4,86,2,2,14,13,10,16,33,2,0,80
32,16,33,95,21,76,24,32,21,16,0,589,21,17,59,66,17,92,69,30,135,449
20,4,5,24,7,39,11,5,4,3,33,171,8,17,29,25,9,32,65,8,0,133
31,10,23,59,34,39,15,19,13,13,3,246,20,13,43,24,20,55,81,25,0,224
25,12,47,79,19,57,30,15,14,15,0,598,17,13,56,38,23,74,88,18,61,523
29,9,41,90,23,56,16,10,22,16,0,478,21,14,53,27,13,75,73,22,62,430
35,16,43,79,35,47,23,17,23,7,0,549,20,19,49,42,28,79,71,24,27,515
30,23,34,55,27,52,23,14,4,16,0,442,17,28,42,29,14,64,60,18,22,426
12,7,40,59,21,66,11,23,9,8,2,325,22,13,31,35,21,45,89,11,0,316
19,8,34,52,21,71,25,20,5,25,36,335,19,10,43,69,31,63,93,32,0,291
9,6,13,18,9,14,16,8,6,4,0,175,2,4,13,10,13,22,27,11,0,176
13,3,11,22,1,4,5,13,7,5,0,213,3,4,12,6,0,23,20,6,13,210
50,15,38,101,28,80,16,26,24,26,0,564,27,23,86,70,29,77,95,29,15,517
4,6,5,21,6,12,2,13,0,0,0,94,7,4,10,6,1,21,30,8,0,76
15,17,18,51,5,18,12,5,14,20,17,350,17,16,24,16,11,49,79,11,0,319
7,4,12,27,8,4,11,11,7,6,0,221,11,9,17,9,3,32,30,3,5,199
0,1,0,12,0,0,4,2,9,0,0,32,5,1,2,0,1,5,5,3,2,36
12,10,12,41,11,20,9,8,10,4,7,311,7,15,14,20,6,35,54,15,0,289
5,9,23,35,9,32,13,3,4,7,2,112,7,10,20,32,7,22,11,9,0,136
7,3,21,23,10,8,3,10,6,5,0,107,10,2,9,15,12,21,23,7,4,100
1,3,5,25,7,36,4,9,1,6,16,129,12,3,10,25,17,27,20,3,0,125
26,9,27,44,7,23,18,13,9,11,7,330,29,9,33,13,11,75,49,21,0,284
20,11,21,37,13,22,6,9,12,9,5,209,16,14,26,13,16,37,46,18,0,188
21,3,14,29,11,12,14,13,10,8,20,122,13,3,21,15,8,30,41,11,0,135
20,6,13,26,2,7,5,11,8,6,13,131,20,9,16,7,6,27,32,6,0,125
21,7,12,20,8,15,4,27,1,3,0,215,16,11,17,13,3,27,54,8,9,175
6,3,7,7,0,3,15,13,2,4,9,171,14,3,14,5,4,18,9,15,0,158
2,4,2,5,4,3,8,10,2,4,0,81,5,0,11,4,3,3,24,5,0,70
4,2,21,24,3,5,18,33,2,8,0,290,13,9,16,6,5,35,24,9,19,274
28,14,37,48,17,19,22,79,7,8,0,555,25,16,33,28,18,59,64,30,60,501
8,10,4,9,6,4,0,1,4,4,0,52,1,6,11,10,5,10,10,5,1,43
14,12,10,5,11,5,3,4,4,1,0,51,4,3,13,4,5,7,28,4,1,51
66,13,63,82,26,21,9,7,12,20,0,349,35,23,32,26,26,63,109,13,0,341
7,1,7,19,6,2,7,6,3,4,4,82,9,3,6,4,3,22,23,4,0,74
18,15,18,65,11,22,17,19,5,10,0,265,42,3,20,14,13,44,57,18,11,243
5,7,31,54,4,39,15,8,6,7,0,442,13,9,72,31,7,51,31,19,13,372
15,9,52,25,5,11,10,5,9,12,13,174,37,8,29,15,5,22,35,11,0,178
13,5,21,30,5,13,9,2,6,8,0,144,11,11,13,9,9,21,25,9,1,147
4,7,11,15,1,12,7,11,1,2,3,83,5,8,13,6,1,13,23,5,0,83
16,13,16,37,10,9,12,10,9,6,0,173,14,11,18,7,11,20,41,10,12,167
6,1,4,4,8,7,0,3,4,1,1,72,4,1,14,9,12,6,13,2,0,50
10,1,4,21,9,16,2,11,1,4,7,136,13,3,13,7,3,23,35,4,0,121
58,13,17,43,14,15,22,3,5,4,6,192,11,13,23,18,2,43,69,16,0,197
13,7,38,29,12,31,6,10,5,8,7,264,23,11,34,33,12,30,56,7,0,224
4,27,20,37,2,7,20,6,1,13,0,230,11,13,21,2,10,39,25,16,12,218
39,6,25,49,11,21,9,15,6,6,4,328,19,14,27,15,5,48,64,14,0,313
45,9,30,37,19,33,4,11,6,7,1,257,21,9,16,34,15,38,80,5,0,241
13,2,6,16,10,21,1,13,7,5,14,110,19,3,13,8,12,21,40,10,0,92
61,11,40,62,12,31,40,16,18,16,0,498,50,10,41,27,19,75,90,52,21,420
29,7,36,48,8,13,41,12,18,8,0,384,40,10,32,24,19,51,44,50,31,303
25,21,37,51,10,18,26,8,4,12,0,639,15,26,19,18,10,50,52,33,41,587
20,9,39,51,5,12,35,11,5,11,0,320,26,10,16,9,12,53,37,27,0,328
36,21,35,66,17,42,41,18,7,12,0,562,34,9,39,43,11,52,84,49,30,506
68,15,31,64,23,35,25,12,15,12,0,514,46,18,43,41,35,48,82,35,31,435
64,19,27,75,20,30,39,19,12,13,0,339,29,9,32,29,29,59,90,55,16,309
25,12,19,29,4,8,12,4,6,5,0,418,23,7,25,10,11,29,50,13,1,373
23,7,18,31,12,10,14,8,5,6,42,277,21,12,27,6,19,29,56,19,0,264
8,4,15,22,0,2,7,9,4,2,0,173,19,3,9,3,5,22,28,14,11,132
31,3,12,37,5,5,13,4,5,11,0,315,21,7,25,4,7,27,43,33,6,268
48,28,35,59,15,24,23,10,9,16,0,730,30,14,58,27,12,67,101,48,39,601
44,24,35,52,11,29,36,19,8,9,0,509,46,12,36,26,18,44,68,57,72,397
16,12,24,40,9,21,27,11,11,7,17,310,25,14,19,19,7,54,39,24,0,304
30,14,47,60,36,16,35,27,6,10,0,543,36,5,34,9,40,57,77,45,25,496
13,10,21,28,20,20,18,6,5,5,0,183,18,4,23,15,18,33,21,12,9,176
5,1,12,8,5,31,5,1,2,4,0,96,12,0,7,5,4,10,31,4,14,83
8,9,15,16,1,5,8,4,0,12,0,121,7,3,7,9,3,20,21,8,3,118
9,7,18,37,6,21,5,9,4,2,6,207,24,6,15,12,5,28,28,19,0,194
3,6,3,10,12,39,8,4,4,5,4,89,8,0,15,28,11,16,10,14,0,85
11,6,28,34,4,14,20,17,4,9,40,291,46,10,21,17,12,32,24,29,0,287
9,11,33,46,12,12,35,74,6,11,0,535,10,10,21,8,14,59,83,37,16,526
16,21,33,49,7,12,36,54,4,11,19,636,14,19,18,9,11,50,119,31,0,627
9,4,16,22,8,7,13,8,3,5,12,211,7,8,19,9,3,21,35,18,0,198
9,1,8,35,40,6,22,4,0,6,3,71,7,4,10,14,26,24,28,16,0,76
14,5,8,16,5,7,3,5,6,2,0,105,6,3,10,9,3,21,23,10,2,89
49,34,54,113,43,38,71,16,15,17,0,877,55,16,68,35,49,101,84,71,44,804
17,30,30,68,6,7,65,45,8,12,18,516,18,16,34,9,15,67,112,53,0,498
34,11,21,72,10,20,21,7,10,11,14,363,36,12,31,16,8,52,59,25,0,355
0,0,5,13,1,6,9,14,1,3,8,48,9,2,4,6,1,6,12,5,0,63
27,33,65,94,33,56,34,95,12,15,25,865,48,24,62,50,32,106,119,50,0,863
9,9,25,29,12,8,18,15,5,2,37,322,30,4,23,7,9,20,32,29,0,337
23,8,27,27,41,30,18,10,5,11,0,281,32,4,32,19,31,19,64,10,27,243
0,5,9,11,0,7,7,2,1,0,0,36,7,1,2,4,0,14,5,2,9,34
5,1,10,5,11,8,0,2,0,2,0,39,7,0,3,3,9,8,10,1,1,41
3,0,6,14,1,8,3,0,0,1,0,60,5,0,5,6,1,15,7,6,6,45
12,15,18,52,16,44,12,9,8,5,0,236,27,6,30,26,10,44,26,21,2,235
12,7,29,59,25,28,24,9,6,10,0,400,24,15,34,23,22,49,36,16,2,388
11,6,10,24,16,22,11,3,2,7,6,191,15,5,22,23,16,17,27,10,0,174
10,10,13,30,17,17,6,5,3,3,0,163,17,18,7,13,12,19,15,8,3,165
10,5,9,43,13,30,4,5,3,6,15,131,23,2,15,17,12,41,25,7,0,132
2,0,1,9,3,15,3,3,2,3,0,40,3,0,8,14,4,6,3,3,8,32
0,0,8,8,1,2,2,0,0,1,2,37,12,2,0,1,2,4,0,2,0,38
19,17,28,72,28,52,23,10,11,18,0,520,52,14,59,39,30,52,62,26,39,425
7,14,33,69,25,26,57,14,6,6,0,271,34,13,24,24,23,47,29,38,31,265
29,11,36,59,25,44,47,25,12,13,0,496,55,13,39,32,34,77,51,31,46,419
16,9,12,47,17,34,15,9,15,3,0,281,21,7,32,34,18,27,38,14,23,244
15,13,14,80,24,49,27,15,15,7,0,323,20,8,22,38,27,60,49,25,15,318
32,9,31,99,49,62,37,20,16,7,0,423,52,19,38,47,44,66,63,30,32,394
2,3,3,14,33,0,1,1,0,0,0,41,6,1,2,1,12,12,15,2,0,47
18,14,53,73,14,10,38,20,7,18,0,524,17,24,29,12,10,81,72,24,51,469
26,10,32,56,1,8,24,9,6,17,0,567,29,20,31,8,14,62,60,42,11,479
6,0,10,12,10,13,13,10,3,7,0,109,11,5,12,13,3,20,32,13,4,80
2,6,3,9,5,22,4,5,0,3,2,27,2,4,6,19,7,12,2,9,0,27
37,18,45,70,17,17,26,33,17,9,37,512,83,7,45,23,11,60,91,60,0,458
4,10,16,27,3,12,3,16,11,10,1,143,13,1,32,6,4,20,20,16,0,144
20,30,39,39,18,12,37,8,11,6,0,467,14,13,36,11,10,45,53,41,28,436
34,29,36,86,30,12,27,21,23,14,15,686,27,23,54,16,27,86,85,52,0,643
52,38,48,100,31,18,42,23,12,17,0,591,27,19,51,27,34,100,122,38,45,509
6,5,19,37,8,3,22,4,8,7,0,223,8,6,16,4,6,32,39,22,5,204
27,38,50,77,21,18,45,17,14,17,9,532,33,32,52,13,28,101,59,50,0,497
16,9,18,36,17,9,21,11,10,17,5,321,11,11,34,15,14,48,38,22,0,297
39,9,28,58,26,17,15,20,10,18,0,403,22,11,41,22,24,55,68,15,53,332
0,6,9,7,1,9,2,4,8,1,6,74,5,5,13,4,0,6,6,7,0,81
6,6,11,29,16,16,8,4,8,3,0,92,11,5,13,28,11,14,12,11,12,82
3,8,10,23,4,12,3,7,3,5,5,99,17,10,18,5,3,8,17,10,0,94
27,30,87,84,16,42,27,15,20,12,0,785,57,32,47,56,20,114,51,28,17,723
10,3,10,27,14,18,13,10,8,7,0,200,8,4,7,13,10,28,38,8,40,164
6,3,7,29,3,3,10,5,4,7,17,167,8,6,11,3,6,21,30,12,0,164
7,15,11,21,2,7,6,4,1,5,0,160,18,12,18,9,4,25,13,12,6,122
4,8,20,27,2,5,6,5,3,5,0,139,26,5,8,1,2,18,13,24,5,122
2,1,5,8,2,0,3,5,7,5,4,65,5,1,8,1,7,8,5,4,0,68
30,12,32,49,9,17,10,7,5,8,0,323,38,5,18,17,15,34,59,15,12,289
6,13,14,17,9,2,22,17,15,6,17,303,21,14,22,4,28,26,25,14,0,287
17,8,11,69,9,4,6,10,5,7,0,348,32,3,43,8,14,50,35,31,2,276
39,15,9,24,2,4,11,2,3,7,0,109,7,18,9,1,1,18,47,6,26,92
3,1,10,19,4,4,5,3,2,3,23,66,5,5,7,5,2,18,13,9,0,79
6,4,16,15,3,4,7,5,2,6,25,82,5,5,17,4,9,17,9,8,0,101
4,4,20,26,4,11,9,4,10,0,0,108,11,0,13,8,8,20,9,12,10,109
17,13,15,56,13,21,14,9,3,6,0,236,22,7,12,15,15,40,31,16,5,240
9,5,21,14,11,4,7,17,12,11,0,255,22,5,20,12,9,20,16,14,8,240
12,4,33,23,6,10,20,11,5,7,10,236,22,5,20,15,7,23,35,19,0,231
7,9,15,20,7,9,10,12,2,4,0,144,21,10,11,9,7,24,10,12,6,129
31,43,56,93,38,41,37,24,10,18,11,529,90,19,63,28,53,69,49,33,0,527
21,19,29,72,20,31,24,15,5,16,0,400,63,6,20,19,25,38,54,26,37,364
15,22,28,78,25,32,19,21,17,14,0,466,73,22,39,25,22,41,49,25,42,399
0,4,16,6,3,2,5,4,6,3,7,103,13,4,15,3,4,5,6,10,0,99
7,1,9,16,0,18,6,3,3,1,0,164,3,9,11,16,3,14,12,6,1,153
11,9,18,34,3,12,8,7,0,5,0,295,21,15,28,8,4,22,26,16,15,247
2,10,4,8,5,33,3,5,4,1,0,62,7,6,13,23,5,13,6,5,4,55
13,4,10,30,8,53,6,4,5,2,11,144,13,3,19,54,7,24,19,9,0,142
17,19,21,37,16,19,11,27,9,14,8,346,29,9,36,24,28,22,43,13,0,340
29,19,49,71,27,15,32,26,19,24,23,451,31,30,42,18,31,58,98,32,0,445
15,10,29,43,14,31,15,14,4,18,0,319,43,9,14,33,4,37,30,21,25,296
34,17,124,93,25,42,37,28,14,29,0,1235,98,28,107,39,28,91,107,54,68,1058
16,10,18,33,10,15,13,11,6,8,0,208,14,9,21,10,7,35,65,12,2,173
1,0,7,5,3,4,0,1,0,2,2,48,9,0,1,3,2,1,6,0,0,51
4,5,7,8,19,4,7,3,5,2,0,112,7,2,8,5,22,14,8,5,10,95
16,14,18,51,17,6,9,9,6,8,9,173,33,14,22,13,11,34,24,12,0,173
4,5,9,17,2,8,9,4,2,1,7,89,16,5,11,8,6,15,6,8,0,82
21,17,41,73,19,25,36,11,11,12,19,458,33,21,36,38,24,79,46,19,0,447
26,15,45,66,5,20,38,19,20,17,0,420,28,18,47,20,17,72,73,41,8,367
10,0,5,21,8,9,4,1,0,1,1,49,7,2,4,6,12,14,11,9,0,44
14,6,11,16,3,7,4,2,0,3,0,141,6,3,7,3,7,15,20,7,6,133
41,42,55,159,17,57,41,28,16,34,0,1037,73,34,54,45,32,142,130,66,60,891
13,4,11,28,1,10,4,7,3,4,19,217,9,12,22,15,9,17,21,9,0,207
3,10,11,15,5,16,1,7,0,2,4,96,22,3,7,12,4,16,15,8,0,83
12,1,7,28,6,16,9,0,2,4,14,129,21,9,14,6,8,17,25,17,0,111
3,8,11,15,5,8,14,8,5,7,0,132,22,1,9,8,6,18,17,12,15,108
13,9,12,20,6,10,11,4,4,6,3,116,16,7,17,5,2,9,35,13,0,110
12,8,13,26,0,5,15,8,0,15,13,175,17,12,14,4,6,26,25,16,0,170
3,3,9,5,5,4,6,4,0,5,0,99,8,1,7,2,12,12,9,4,0,88
1,2,7,3,1,6,15,1,4,4,0,84,4,7,8,3,3,9,5,15,2,72
3,13,23,30,5,6,19,8,5,8,10,178,21,12,11,2,17,20,9,13,0,203
29,15,46,80,20,23,62,21,17,28,0,610,33,24,39,32,83,80,37,62,13,548
26,17,43,67,28,28,51,26,11,28,0,688,22,23,66,33,68,66,60,46,40,589
36,9,55,61,27,21,66,13,13,15,0,705,37,13,39,11,44,74,45,55,102,601
39,20,68,50,33,36,57,20,14,12,0,965,31,23,67,31,76,67,79,37,46,857
2,3,18,19,5,3,13,2,4,3,12,95,3,5,11,4,12,12,11,13,0,108
3,9,16,40,8,48,5,3,2,3,0,102,14,2,15,27,11,24,14,7,3,122
23,23,29,46,11,9,32,13,7,9,0,647,13,36,27,18,15,36,53,39,1,611
14,17,28,74,8,9,33,7,9,10,0,507,14,17,13,16,11,65,44,33,28,475
26,21,24,48,5,7,22,7,6,11,0,314,6,19,21,6,5,47,43,32,6,306
11,15,41,67,5,12,31,8,13,13,0,409,27,22,43,14,14,57,43,25,25,355
18,5,21,48,3,16,14,11,5,4,0,202,48,10,15,18,0,36,30,15,1,174
31,17,30,48,8,8,29,7,7,7,0,494,22,18,20,12,7,46,72,24,34,431
2,2,4,7,1,2,0,1,2,1,0,12,4,5,0,0,4,3,1,6,0,11
4,3,4,3,0,5,0,0,1,0,1,12,0,3,4,9,0,4,5,2,0,6
8,4,3,9,2,5,4,1,2,3,0,81,6,1,14,6,2,8,14,3,6,62
17,2,7,30,9,12,4,7,4,7,5,142,9,2,21,9,10,16,33,6,0,140
1,4,3,8,5,3,9,2,1,5,2,30,4,2,9,2,2,11,11,5,0,27
0,2,5,6,1,5,8,3,3,0,2,36,7,3,5,2,0,3,6,10,0,35
19,10,30,55,13,7,32,15,9,9,0,339,13,17,28,6,17,53,50,30,20,304
5,11,10,20,3,0,4,16,4,2,3,127,9,6,15,3,2,30,20,7,0,113
2,3,6,7,0,1,4,4,6,4,5,104,23,1,4,3,4,6,11,7,0,87
2,2,20,34,6,4,13,23,5,7,28,265,7,5,21,5,11,31,53,11,0,265
2,2,0,13,1,0,1,1,2,2,9,39,4,2,5,0,3,1,5,3,0,49
12,6,15,24,3,2,5,4,3,3,16,205,10,4,23,4,5,14,36,11,0,191
11,2,5,16,2,1,0,2,1,0,0,89,4,5,10,2,2,8,23,6,5,64
20,8,4,22,7,5,9,4,5,3,12,116,3,12,19,6,6,8,28,13,0,120
61,22,19,44,5,13,27,6,11,17,28,284,10,12,45,9,9,34,115,26,0,277
18,2,20,29,5,1,24,2,9,5,0,227,10,11,18,9,2,26,41,18,16,191
2,1,14,8,1,0,7,4,0,4,18,165,6,3,17,1,4,8,7,5,0,173
5,2,5,17,0,0,6,2,3,3,0,130,4,6,2,1,1,13,0,3,9,134
12,9,9,11,6,7,10,3,7,3,0,144,6,9,8,3,4,17,26,19,5,124
35,20,19,49,8,11,19,7,17,16,0,478,19,19,34,5,11,51,49,31,24,436
33,19,25,46,7,16,29,6,23,9,1,577,28,11,70,9,11,39,73,26,0,524
97,24,26,76,17,7,41,11,24,11,0,539,15,16,53,15,21,80,121,31,56,465
59,18,50,98,25,18,31,9,25,15,0,465,18,27,61,15,13,99,105,31,27,417
69,28,27,80,18,10,21,14,34,15,0,587,16,22,78,12,11,76,110,21,35,522
78,22,33,95,25,16,28,16,27,18,0,423,20,24,70,20,19,73,124,34,2,395
68,20,21,76,33,4,22,11,27,15,0,330,18,15,58,10,24,56,108,29,42,267
63,8,30,44,18,11,20,11,20,15,12,281,15,6,58,9,10,26,126,26,0,257
55,13,32,85,9,16,34,3,22,16,0,464,30,10,65,18,5,57,63,37,16,448
50,21,28,94,23,15,38,14,42,5,0,453,18,16,75,17,14,66,80,45,18,434
64,7,28,90,18,21,56,17,29,12,4,437,23,18,58,13,8,89,105,46,0,423
70,23,19,65,25,18,16,11,27,19,0,1569,23,25,82,13,25,56,135,24,36,1443
66,19,25,52,19,10,19,7,22,6,0,337,15,11,37,11,22,45,88,28,13,312
80,25,45,99,17,14,20,16,45,23,26,560,27,18,83,18,23,73,125,33,0,570
62,18,35,81,18,11,30,11,30,6,0,475,19,20,58,16,12,65,94,24,13,456
67,28,65,79,19,11,53,7,11,7,0,488,22,13,59,7,9,103,102,45,9,466
63,18,26,57,14,8,20,4,13,13,0,472,11,17,46,7,9,62,86,28,51,391
54,20,26,68,20,14,26,8,19,9,0,590,21,18,49,17,9,63,84,27,12,554
31,20,57,64,13,5,39,13,18,19,0,520,27,30,58,6,14,62,60,41,43,458
48,18,17,37,16,4,30,16,18,10,26,367,13,19,41,11,25,23,90,32,0,353
62,22,40,98,14,20,32,14,18,27,0,760,26,34,66,13,17,90,134,46,75,606
40,17,38,67,17,10,43,7,11,25,0,626,17,14,44,8,15,82,65,22,61,573
59,29,67,97,19,9,26,13,30,18,0,922,39,37,84,13,16,93,110,49,98,750
29,13,35,74,12,10,29,7,22,13,0,588,13,31,34,16,18,70,63,35,30,522
56,48,56,100,28,9,36,13,31,29,0,842,29,30,69,12,22,111,117,42,53,763
81,14,24,70,23,17,39,15,24,11,5,836,21,22,67,15,27,77,124,53,0,753
8,1,4,19,0,1,4,2,0,0,0,58,1,0,5,4,1,13,11,3,1,58
32,24,26,68,11,37,24,6,15,10,12,360,19,34,35,32,21,48,64,26,0,346
21,24,21,69,6,4,32,13,14,10,0,507,6,28,38,8,4,64,41,28,55,449
7,4,11,30,2,8,9,2,2,4,4,72,3,13,13,10,6,22,12,14,0,62
22,14,27,106,10,13,23,24,16,13,7,654,28,24,54,21,14,74,67,34,0,613
4,8,3,26,0,0,7,7,1,1,0,77,6,6,2,1,1,23,12,4,4,75
5,2,10,25,4,18,11,7,3,4,0,215,2,2,12,8,4,24,34,8,5,205
3,0,19,11,3,3,14,25,0,15,14,218,14,14,15,1,6,25,50,13,0,187
8,12,11,20,9,2,14,17,2,1,2,160,2,10,14,0,4,24,37,15,0,152
14,5,15,33,18,6,18,23,4,7,0,152,4,4,18,6,4,39,51,16,15,138
42,24,34,66,12,13,21,87,15,20,0,473,28,19,59,12,16,71,124,22,3,453
6,0,7,8,1,2,10,25,1,1,9,144,1,4,13,0,0,10,46,8,0,132
1,2,3,8,9,1,2,17,2,1,0,49,3,3,4,5,1,3,19,7,0,50
15,7,19,43,11,22,19,47,5,18,10,238,23,10,13,13,6,36,67,20,0,266
5,12,9,40,13,14,14,40,2,11,0,438,0,1,35,8,7,59,66,32,2,388
2,3,14,35,5,16,17,7,4,7,0,192,6,9,10,5,7,32,13,14,8,198
8,16,14,39,11,5,11,16,3,4,0,189,8,14,20,4,16,47,33,7,7,160
9,5,18,50,7,3,12,67,2,8,0,383,41,6,21,5,6,52,60,14,29,330
46,23,89,167,26,14,28,25,14,27,0,683,42,27,58,19,37,130,114,26,73,616
40,26,42,142,12,13,27,8,21,17,0,599,18,22,53,17,17,108,77,29,37,569
45,8,55,150,34,19,11,15,10,13,0,709,30,15,70,22,24,137,127,22,44,578
32,11,35,93,16,13,14,7,8,12,0,582,18,14,44,18,18,61,100,16,41,493
21,17,57,79,16,6,18,6,8,20,0,418,21,10,41,14,11,84,55,18,33,379
40,17,46,97,14,14,16,11,9,18,0,707,20,24,50,16,15,81,82,27,40,634
41,25,55,171,15,14,27,10,13,15,0,630,30,22,47,15,6,124,96,42,45,589
42,23,37,172,22,8,24,8,15,19,0,818,18,22,73,24,22,142,91,35,32,729
30,10,32,99,25,12,14,12,11,17,0,609,27,10,60,21,35,85,85,27,8,513
23,11,40,115,7,5,15,2,8,14,10,417,18,12,41,5,19,78,69,17,0,408
26,7,32,100,11,17,14,7,6,16,0,576,18,16,39,20,17,67,65,27,17,526
19,10,14,80,15,8,7,8,2,11,0,292,9,6,24,8,9,67,53,7,20,263
33,10,21,115,21,18,8,14,17,20,0,856,19,9,52,16,17,59,79,18,72,792
14,11,15,39,7,4,1,5,2,4,26,220,9,8,18,11,13,47,35,5,0,202
2,4,1,38,0,2,4,6,4,1,12,158,2,3,17,2,8,23,23,8,0,146
12,5,29,45,8,3,9,8,7,5,0,207,10,7,20,7,13,44,34,18,8,177
9,8,15,65,3,13,12,2,11,10,6,281,18,12,30,13,13,62,27,17,0,243
4,0,4,15,4,1,4,2,8,3,5,73,6,1,15,0,3,15,9,5,0,69
31,16,30,65,17,6,16,10,6,9,77,416,26,9,38,9,4,56,68,19,0,470
44,13,19,89,46,18,36,30,15,21,12,449,22,24,31,17,40,57,166,26,0,409
7,9,11,37,5,7,17,20,3,6,4,245,10,13,15,3,4,41,38,15,0,232
11,2,7,25,10,10,3,38,3,6,0,167,12,2,18,11,8,19,53,2,3,154
39,25,27,61,26,5,29,15,30,14,0,578,24,18,51,13,13,83,96,28,46,477
2,0,5,12,2,4,4,1,1,0,0,56,0,2,7,1,0,5,4,3,8,57
3,6,4,16,5,1,1,10,2,8,1,123,2,4,9,1,2,13,13,5,0,131
6,13,46,75,8,72,51,32,10,11,0,584,23,25,43,18,11,95,88,37,24,544
16,20,24,65,13,84,28,27,13,9,11,767,7,13,41,25,7,102,69,24,0,789
23,22,34,84,12,74,24,51,17,16,0,562,24,26,43,21,26,92,93,31,29,534
23,15,21,55,8,44,36,42,14,4,0,477,14,22,45,32,13,55,68,23,28,439
3,4,13,26,14,1,7,3,2,5,6,98,16,6,9,4,8,20,12,8,0,99
25,22,24,75,8,8,41,26,2,19,0,596,12,21,32,3,9,87,62,27,26,567
4,14,21,31,16,10,8,5,5,7,5,355,10,5,28,11,9,36,21,7,0,354
5,5,5,22,2,0,10,3,4,5,0,86,0,2,8,0,6,16,17,5,5,88
14,8,7,19,4,4,29,6,4,13,7,277,8,14,20,4,11,28,32,28,0,247
25,5,31,46,49,13,10,7,13,9,0,413,12,8,57,9,44,43,65,7,33,343
10,8,11,28,7,1,65,2,4,5,15,286,7,15,19,4,3,28,41,14,0,311
2,10,9,15,0,6,10,12,4,3,0,108,0,14,15,2,2,12,14,11,4,105
8,19,12,36,11,0,12,5,12,4,0,302,14,8,27,3,14,48,19,23,3,262
7,0,10,16,3,0,14,1,13,8,1,145,13,2,10,0,9,15,25,12,0,132
6,5,8,27,5,3,9,4,3,3,0,147,7,3,15,2,11,9,14,12,3,144
11,10,12,24,15,2,21,60,7,8,0,296,6,16,36,4,5,33,71,17,14,264
22,19,31,90,11,11,34,98,14,24,8,677,28,34,63,13,24,93,132,49,0,603
8,11,9,29,2,2,20,26,1,12,2,231,13,22,18,4,9,29,36,21,0,201
9,5,16,16,0,5,2,8,8,9,7,78,9,7,8,6,5,12,23,6,0,87
19,9,13,43,35,5,13,8,7,2,0,161,17,6,11,5,24,39,41,15,13,144
4,1,9,25,5,2,5,2,2,3,0,100,5,3,14,1,6,19,22,4,9,75
17,0,0,1,13,2,3,11,2,3,0,76,1,3,13,0,4,4,34,1,12,56
41,33,76,118,34,40,58,32,17,33,0,754,84,54,64,32,42,114,93,37,17,699
14,0,6,20,1,3,10,3,1,3,0,83,4,2,3,3,2,12,26,13,3,76
69,57,69,132,34,19,51,47,30,21,24,1281,27,53,87,22,37,124,209,63,0,1212
4,1,0,5,5,2,2,0,0,4,0,38,0,0,2,3,3,6,4,2,0,41
4,6,7,16,1,5,8,6,3,5,6,96,4,6,12,4,0,15,8,10,0,104
11,14,36,59,7,22,42,25,17,17,0,560,15,18,31,16,10,75,54,46,59,486
19,18,22,67,7,12,10,15,20,17,41,346,7,12,52,6,9,58,60,11,0,379
32,4,2,13,16,2,9,2,3,6,6,121,5,1,12,2,5,6,68,6,0,111
48,4,6,17,13,1,5,6,5,3,6,190,5,0,34,3,6,12,107,11,0,126
40,28,40,73,19,11,32,21,10,12,4,692,20,38,36,10,50,67,61,24,0,676
19,17,25,32,11,4,22,24,3,15,0,286,7,35,26,2,2,42,58,33,5,248
12,21,28,60,17,7,55,12,8,12,0,566,22,22,35,9,18,59,52,29,4,548
18,17,26,75,27,53,18,73,18,19,40,467,16,22,48,68,15,84,85,77,0,436
15,12,35,47,9,27,22,68,8,19,0,517,15,26,24,25,21,56,49,27,38,498
29,14,50,62,17,39,37,63,13,26,0,513,25,14,46,31,29,74,112,46,29,457
3,3,5,14,2,4,8,68,1,0,1,169,4,2,9,2,3,19,60,10,0,169
5,10,14,31,5,9,15,87,6,6,0,462,18,9,20,3,4,45,57,13,16,465
6,3,8,21,0,14,23,29,1,7,0,149,4,3,10,3,2,31,28,19,23,138
4,9,16,24,2,1,5,108,6,0,12,341,1,3,19,6,2,42,84,6,0,365
34,10,28,65,3,2,22,4,5,5,25,275,10,13,36,2,10,50,49,21,0,287
18,2,4,10,5,0,0,10,2,1,6,107,6,1,19,2,1,10,50,4,0,72
16,7,18,36,5,16,8,11,3,8,0,165,12,12,19,15,7,24,30,17,11,146
22,14,42,48,18,8,27,12,4,16,0,524,13,18,33,5,10,89,71,23,33,440
39,37,51,82,32,28,27,11,21,13,0,604,17,34,52,14,27,87,115,38,28,533
41,14,16,55,52,13,8,64,18,26,0,570,19,9,58,14,28,39,197,12,68,433
0,2,9,13,0,1,6,2,4,0,0,30,4,4,7,3,0,6,5,1,5,32
13,6,14,29,15,7,10,13,11,9,15,218,10,12,36,15,12,27,29,23,0,196
24,27,25,73,19,26,27,5,10,8,0,689,13,35,25,22,27,51,43,17,21,679
15,18,28,43,10,9,27,5,5,7,0,424,6,21,17,12,14,57,33,19,47,365
18,19,35,97,15,21,51,4,11,6,14,485,13,33,28,23,36,76,41,44,0,482
14,6,14,19,13,4,9,4,2,0,9,201,0,6,8,5,15,8,18,10,0,225
39,38,60,105,21,21,49,15,17,28,9,665,23,41,50,16,45,88,67,49,0,688
40,18,21,102,27,30,31,20,23,6,0,620,10,19,41,23,65,89,64,33,4,590
7,5,8,21,1,9,14,3,2,7,13,184,10,10,21,5,9,29,16,13,0,161
28,25,31,79,22,29,18,24,8,16,0,507,24,26,48,25,12,60,67,25,29,471
5,1,6,31,10,4,6,12,4,2,9,100,9,0,8,2,4,18,20,5,0,124
7,4,3,16,23,0,5,3,5,7,20,133,10,1,22,2,15,18,7,14,0,137
3,8,12,30,46,9,15,3,9,7,4,285,7,11,21,7,17,37,38,11,0,282
7,22,4,24,36,5,16,3,4,12,22,319,10,7,11,5,4,30,26,16,0,365
21,7,14,33,17,3,31,7,10,6,45,247,10,10,37,8,15,25,40,33,0,263
4,3,13,47,6,5,6,2,2,5,0,226,15,11,25,1,3,25,17,3,5,214
15,39,29,79,28,28,22,259,25,15,0,919,39,34,111,33,27,103,249,51,25,786
19,15,39,88,12,13,27,180,7,13,0,528,31,16,50,15,16,128,153,41,9,482
11,12,33,50,12,18,9,94,5,16,0,430,19,17,40,13,9,66,93,11,31,391
34,31,53,88,29,14,50,266,36,33,0,1061,38,28,127,19,22,133,275,50,60,943
17,8,30,53,5,12,19,107,11,13,0,572,11,18,44,6,10,61,118,35,56,488
16,14,25,35,9,12,12,113,5,11,0,408,17,16,32,11,13,46,71,20,43,391
20,10,16,43,15,22,18,105,19,7,0,450,25,18,49,6,15,58,109,25,8,412
20,20,11,34,25,11,11,96,10,14,0,988,17,22,59,7,24,27,157,17,25,885
34,18,16,63,24,30,19,186,16,16,0,574,20,30,72,31,24,91,193,35,0,500
19,19,18,38,20,14,16,98,12,15,0,509,13,21,45,9,18,45,141,21,12,453
7,1,5,8,2,1,8,2,2,4,14,114,3,5,8,0,2,7,19,6,0,118
53,17,63,74,13,11,53,7,6,15,0,597,16,19,36,15,12,105,37,50,56,563
87,28,33,72,11,4,55,6,8,23,0,813,23,29,53,3,11,100,69,56,38,758
12,4,7,20,1,3,6,3,3,7,11,114,7,2,14,2,5,15,21,9,0,116
23,14,17,44,4,4,14,1,9,6,0,320,3,19,18,5,4,36,29,15,23,304
