A53,A7,A166,A47,A720,A768,A1,A1114,A997,A998,A999,B166,B687,B344,B720,B1468,B768,B997,B998,B999
14,23,6,12,19,78,3,22,20,0,126,4,11,14,15,12,29,22,11,205
11,10,10,3,15,61,15,4,13,15,59,4,9,22,23,10,11,20,0,117
9,8,8,16,15,78,1,22,16,8,66,7,8,10,15,15,48,25,0,119
9,2,8,6,9,21,3,14,7,0,39,3,6,15,2,4,9,13,3,63
26,16,10,26,25,74,4,14,19,16,116,23,16,8,13,9,34,21,0,222
13,8,1,19,6,26,3,8,10,12,66,12,6,7,12,5,22,18,0,90
66,92,16,60,73,188,25,86,73,0,610,22,52,35,42,58,76,65,12,927
8,24,8,34,15,53,8,33,20,0,107,11,9,7,6,39,23,35,19,161
11,6,2,6,6,24,6,7,11,9,29,2,8,11,9,7,11,12,0,57
1,2,23,16,7,35,1,9,6,1,70,13,4,3,3,15,15,15,0,103
6,3,0,3,0,14,12,5,2,0,21,1,5,11,1,2,1,2,1,42
10,12,5,17,13,45,3,25,14,0,75,4,3,8,19,2,20,31,9,123
6,24,13,11,15,91,53,11,17,0,120,9,17,59,18,34,28,17,0,179
9,21,3,1,3,13,0,7,4,3,35,7,10,9,2,3,13,1,0,54
8,2,8,12,24,44,18,17,17,0,49,15,16,19,22,2,10,19,2,94
4,13,10,11,13,50,2,7,5,11,44,6,7,6,12,15,24,14,0,86
5,2,1,7,6,15,7,9,4,0,39,2,0,9,2,3,6,12,2,59
10,9,11,6,7,15,4,10,11,0,35,7,6,8,9,6,8,10,0,64
5,6,18,13,11,55,6,9,8,2,72,17,6,7,9,5,21,12,0,128
19,10,12,15,21,77,16,10,19,0,120,16,11,25,9,13,40,8,1,196
25,37,5,27,50,138,19,38,49,29,249,2,12,20,23,129,63,36,0,381
1,4,2,1,0,12,2,6,9,3,24,4,3,1,2,6,4,4,0,40
10,2,8,16,11,38,26,21,13,0,57,5,14,24,17,17,14,12,5,94
3,1,2,2,5,14,2,10,4,3,39,2,3,2,5,7,10,13,0,43
9,11,8,25,16,92,2,32,19,0,154,6,7,4,16,25,31,27,11,241
5,2,0,1,4,16,4,5,6,2,38,2,4,2,5,7,3,7,0,53
47,45,33,36,67,221,38,111,71,20,363,15,44,55,43,182,69,58,0,586
22,1,17,5,9,24,19,9,16,0,30,10,14,13,15,3,10,11,8,68
46,18,34,28,48,120,30,32,39,4,242,17,37,29,33,47,63,51,0,364
33,10,14,22,42,70,22,39,30,11,96,10,43,22,33,36,30,28,0,187
65,15,14,21,33,111,21,27,56,50,177,23,76,18,43,21,33,61,0,315
24,12,17,7,27,79,7,24,21,0,135,21,21,9,14,15,19,28,13,213
31,9,6,19,16,62,24,22,15,0,87,8,10,21,8,14,13,16,19,182
12,33,6,16,12,42,9,12,14,0,75,9,9,8,7,25,8,9,1,155
18,25,7,27,31,90,6,27,39,21,196,5,5,11,13,95,22,25,0,311
11,2,12,5,19,46,2,16,11,1,52,10,8,13,12,5,15,11,0,103
48,14,28,15,55,112,8,11,36,29,103,24,36,24,51,18,54,26,0,226
86,40,42,34,68,151,19,55,101,0,228,31,67,63,87,23,76,51,0,426
72,41,37,34,61,161,25,46,61,123,255,29,71,96,44,22,72,65,0,517
43,37,23,37,41,127,15,24,41,0,167,23,49,22,35,13,63,34,21,295
60,40,21,24,49,140,31,25,61,5,184,26,40,41,44,17,84,45,0,343
41,35,20,24,41,90,11,38,33,0,219,12,24,26,25,13,45,41,59,307
38,21,14,37,33,98,14,30,25,0,192,13,28,26,26,11,44,33,11,310
14,6,7,6,4,15,1,6,3,0,39,0,11,6,9,0,6,15,6,48
19,7,19,14,9,33,14,7,8,4,35,6,10,43,6,3,18,23,0,60
31,22,18,12,43,113,12,25,38,13,143,13,30,25,37,14,40,34,0,277
71,27,22,34,39,143,19,36,43,18,178,22,54,52,46,32,52,46,0,326
5,8,4,11,4,32,4,5,11,8,41,3,4,14,9,6,11,14,0,72
24,32,7,28,33,129,17,28,21,0,191,13,20,34,16,18,54,26,33,296
77,54,38,36,66,162,35,79,86,0,504,18,67,79,55,42,70,54,41,711
59,71,17,40,85,175,31,71,75,0,450,12,51,69,65,32,68,54,54,669
40,30,8,35,36,146,13,26,37,0,209,9,33,38,36,26,67,44,4,323
58,22,31,27,59,162,22,28,46,1,210,12,46,50,39,15,82,34,0,388
90,52,23,46,77,158,26,46,60,0,334,23,47,89,51,22,77,73,44,486
65,34,33,22,41,106,17,21,44,0,185,24,60,56,25,22,45,32,22,282
41,48,29,26,54,136,19,83,46,0,321,16,28,39,38,29,67,54,37,495
74,40,29,22,47,116,42,39,78,0,238,41,65,53,47,19,49,51,30,370
50,25,19,15,57,111,10,25,28,0,182,11,40,29,41,5,30,33,49,284
57,31,31,25,33,104,29,46,44,0,226,13,44,50,43,24,56,37,18,341
98,40,50,28,76,205,34,43,91,21,264,28,106,98,64,37,75,56,0,486
37,15,19,41,29,111,6,27,31,0,216,11,36,31,33,12,59,24,22,304
28,31,14,27,34,97,12,31,53,0,166,8,41,37,34,10,42,45,9,267
25,22,17,40,31,116,16,34,48,0,216,9,23,39,24,17,65,37,13,338
23,18,24,26,33,92,9,36,36,0,343,11,28,23,25,18,42,41,5,447
32,24,16,41,52,101,15,22,48,15,220,17,38,45,40,17,36,31,0,362
87,24,23,21,75,112,37,57,65,49,811,16,83,59,48,12,60,51,0,1032
28,10,6,17,24,110,17,20,14,0,194,13,19,12,22,9,41,34,0,290
31,34,20,27,31,87,35,58,33,0,181,15,29,40,25,26,22,28,19,333
13,2,9,15,7,18,3,6,8,8,67,5,9,11,8,3,8,9,0,103
3,5,6,11,10,46,4,14,11,4,62,12,3,6,8,6,13,10,0,118
19,17,6,16,25,76,13,20,11,25,98,12,13,21,27,6,29,34,0,184
6,9,4,27,12,49,3,13,17,0,83,3,4,5,11,0,34,23,6,137
8,12,4,20,18,55,10,12,18,0,112,11,5,13,13,6,20,10,13,178
9,12,4,3,5,18,7,5,5,4,22,2,6,9,6,8,14,4,0,45
1,6,4,14,3,25,17,3,2,5,41,9,0,9,3,20,7,10,0,63
14,7,1,3,5,40,4,17,9,0,95,7,12,3,2,14,18,10,9,120
31,21,8,12,31,77,38,28,19,0,168,8,20,21,18,28,35,19,33,251
65,15,7,18,70,96,75,32,40,0,395,10,46,54,31,36,43,37,20,536
8,15,4,14,26,64,16,10,21,2,101,5,14,10,16,37,32,16,0,151
51,17,9,36,54,165,75,37,42,0,224,17,36,56,31,36,87,69,16,362
60,24,15,20,41,124,53,33,34,24,225,15,37,44,31,43,42,40,0,401
30,16,6,24,25,130,31,32,31,0,223,8,21,27,17,36,32,36,22,349
37,21,11,25,28,115,27,27,21,0,231,19,28,21,19,40,42,40,2,332
45,32,8,26,46,142,20,37,48,0,256,8,31,34,28,88,33,31,17,390
48,44,14,50,54,138,64,46,36,9,414,6,25,66,27,83,40,28,0,642
63,57,25,54,55,196,45,33,47,0,255,14,54,35,27,144,50,57,8,441
28,27,7,36,29,93,33,24,24,15,194,6,28,36,13,78,18,23,0,308
64,27,9,34,39,128,42,38,41,0,168,7,32,36,21,82,39,34,8,331
1,2,0,12,9,21,5,1,3,0,32,5,0,6,1,11,2,4,0,57
8,7,3,16,8,58,10,10,15,9,58,3,10,4,4,38,21,17,0,105
4,15,3,13,3,35,25,14,6,0,85,3,5,11,5,41,14,7,0,117
54,36,11,37,44,193,34,53,41,0,296,8,26,32,14,141,32,30,15,501
26,51,9,27,27,138,16,27,17,0,186,8,14,16,12,107,35,15,10,307
21,39,6,26,40,96,30,36,27,0,158,3,12,29,25,79,24,21,11,275
34,41,3,28,30,133,18,28,35,0,187,4,19,16,13,111,28,20,7,319
23,45,10,31,20,132,21,46,18,0,205,10,16,15,9,111,44,22,32,292
25,53,6,48,14,130,28,37,25,0,194,5,13,22,9,106,33,26,26,320
25,26,6,33,42,99,39,30,27,0,237,8,19,25,14,102,23,16,21,336
5,7,4,4,12,24,28,12,7,0,52,1,1,23,11,11,19,6,4,79
46,25,8,33,24,170,23,57,37,0,221,14,31,24,19,68,58,46,6,378
0,6,2,4,1,10,0,2,5,6,23,0,2,0,5,7,2,4,0,39
2,2,2,1,2,29,10,4,2,0,38,1,2,10,0,1,11,3,6,58
1,3,0,3,1,12,0,4,7,0,22,0,1,4,0,2,6,3,2,35
23,20,18,9,12,58,12,14,24,12,79,3,24,20,9,9,34,42,0,140
37,26,12,35,20,73,9,19,27,0,134,8,16,7,12,42,24,43,30,210
4,5,3,14,9,22,3,11,1,0,42,4,1,7,8,6,22,7,4,55
10,2,3,4,6,27,14,2,3,0,27,1,11,11,0,5,13,2,5,50
24,13,18,39,22,97,18,39,22,0,183,7,15,27,34,11,53,39,17,272
52,33,28,42,57,147,53,55,49,0,462,28,34,72,46,30,66,68,7,627
19,10,7,17,17,51,6,23,11,0,122,7,22,2,14,8,26,26,7,171
0,1,1,5,4,14,8,9,2,4,14,1,1,7,1,1,5,2,0,44
4,6,4,6,14,51,7,17,9,7,61,2,4,11,8,6,17,22,0,116
8,11,6,18,15,51,3,33,6,0,111,1,1,9,7,8,22,31,0,183
66,55,30,62,46,165,28,88,46,0,428,15,43,46,22,24,56,125,6,677
57,43,21,79,45,168,31,60,51,3,399,18,34,53,39,29,67,115,0,602
6,23,5,7,2,36,3,13,8,0,75,9,6,4,1,6,16,13,1,122
53,53,29,52,37,156,19,59,45,0,325,17,46,23,22,35,70,72,6,537
5,0,5,4,7,8,10,2,6,0,39,6,5,10,1,2,3,6,4,49
17,12,10,11,22,43,9,12,18,3,107,5,9,17,14,24,21,24,0,150
3,0,0,1,2,11,33,4,2,11,39,1,5,27,2,5,2,1,0,63
23,32,13,23,24,123,85,30,23,3,156,19,11,76,16,73,58,24,0,258
7,13,2,15,10,41,23,13,17,0,64,3,4,16,6,27,4,8,3,134
42,23,27,24,18,109,13,49,42,8,152,22,44,15,39,11,47,64,0,265
13,10,4,21,20,61,10,24,28,5,93,6,26,11,17,16,30,20,0,163
6,13,4,14,8,37,4,13,1,0,28,3,1,3,2,16,8,7,4,84
0,5,6,2,6,32,2,2,0,1,32,5,0,3,6,6,5,3,0,60
10,1,3,8,7,11,7,5,11,0,30,4,6,3,4,4,8,8,3,53
12,2,15,20,10,36,17,4,4,1,51,12,6,18,7,17,21,14,0,77
56,26,24,27,53,163,62,50,39,0,291,61,32,68,29,41,49,47,10,454
9,14,6,11,10,39,21,25,13,4,103,16,3,10,18,15,20,22,0,151
1,9,10,9,9,28,5,7,5,0,44,7,1,4,4,5,12,7,1,86
1,6,1,5,3,25,6,4,11,0,14,3,5,6,5,6,14,6,6,25
3,7,6,5,6,35,13,9,10,0,25,4,4,12,3,6,14,13,1,62
7,6,4,12,12,22,0,11,6,0,53,3,3,0,13,12,9,14,6,73
39,47,28,63,46,167,15,35,30,19,213,25,32,40,44,28,98,61,0,374
6,7,11,13,10,35,16,13,11,11,68,1,11,24,8,6,18,23,0,110
5,9,3,12,5,48,12,27,9,9,94,3,4,10,3,6,23,23,0,161
52,61,21,50,44,159,49,38,47,0,257,18,33,32,21,19,39,25,77,514
47,38,14,34,47,121,27,27,35,0,355,13,38,70,34,18,57,60,8,447
7,6,3,1,9,14,9,3,13,0,52,0,3,16,8,1,7,8,4,70
5,5,5,4,11,16,20,2,6,7,30,0,3,26,4,4,5,4,0,65
9,9,1,22,12,45,3,19,8,0,110,9,3,4,4,3,30,29,1,155
9,19,5,24,11,49,6,14,11,0,91,5,11,7,14,20,18,15,1,148
38,47,20,48,76,187,26,37,28,14,296,20,28,31,42,66,78,37,0,515
16,11,6,20,29,66,27,11,12,6,75,9,9,28,14,13,17,23,0,166
8,18,11,8,24,68,11,10,12,2,86,7,6,11,17,31,15,17,0,154
2,3,2,4,5,27,2,4,2,0,18,1,8,5,4,1,19,8,4,19
6,12,2,12,13,39,12,4,14,11,65,7,12,10,13,12,6,13,0,117
2,5,3,2,7,15,1,8,5,3,12,2,1,5,4,0,7,8,0,36
6,1,3,16,7,8,5,9,0,0,44,2,2,8,3,2,7,7,2,66
14,10,6,28,21,91,4,35,17,37,137,15,16,10,13,26,43,31,0,246
6,6,5,6,2,28,5,7,3,0,38,3,8,2,3,8,12,4,4,62
69,73,39,106,75,269,54,94,85,0,466,19,56,81,60,49,132,110,15,808
18,5,15,8,26,40,14,16,17,0,101,19,13,7,15,7,9,14,13,163
25,24,29,35,58,146,16,48,46,0,205,16,35,45,29,21,70,49,11,356
4,8,18,19,17,38,17,14,14,0,66,10,6,15,10,10,24,15,17,108
5,14,5,14,9,55,2,17,7,0,105,6,6,2,5,15,32,16,7,144
6,11,6,16,7,35,13,9,12,9,86,4,5,7,7,30,13,7,0,137
35,26,16,46,55,211,13,76,39,0,599,49,22,16,31,21,86,47,0,844
2,12,4,2,6,12,5,5,1,0,36,3,0,5,5,10,5,4,2,51
7,11,11,11,14,35,14,15,8,3,54,4,4,9,7,30,12,15,0,102
14,15,33,43,16,90,29,20,27,0,149,5,13,23,20,50,46,21,17,241
54,37,62,48,48,173,97,44,61,0,439,39,43,73,40,141,69,50,35,573
35,45,13,36,46,135,28,58,29,6,222,4,20,31,33,34,47,31,0,453
17,17,10,18,12,57,36,25,13,0,157,2,9,57,11,11,20,13,40,199
10,8,9,16,10,28,7,23,10,0,64,1,7,12,6,1,7,31,2,118
0,5,0,2,2,18,14,2,1,0,17,0,1,12,0,6,1,1,4,36
5,0,1,5,4,19,2,6,0,3,12,1,2,6,2,7,5,10,0,24
2,10,7,11,14,46,21,14,10,0,47,4,8,21,7,23,17,12,8,82
12,6,0,10,8,31,3,6,6,11,72,4,15,5,4,1,17,3,0,116
27,32,18,39,39,157,20,30,26,0,240,45,24,11,24,26,52,28,7,411
23,19,17,28,28,135,12,23,35,0,242,27,24,9,19,15,43,35,2,388
2,3,10,2,3,20,1,6,0,0,51,6,2,2,1,1,13,7,2,64
0,5,4,5,1,25,4,6,5,2,34,4,1,6,2,0,8,11,0,59
3,2,4,6,6,12,2,16,2,0,49,1,1,5,6,3,11,8,3,64
33,46,62,46,33,140,30,41,40,0,330,30,21,49,40,29,62,64,8,498
6,3,5,0,2,8,0,4,0,0,10,3,4,0,2,5,3,7,1,13
3,10,7,6,18,37,16,16,17,10,108,6,2,7,12,4,11,18,0,188
5,3,3,0,2,5,1,3,5,0,10,3,4,2,2,3,6,3,2,12
25,18,11,24,20,81,26,40,15,7,124,7,14,16,20,16,61,37,0,220
14,9,2,13,20,41,9,10,13,0,67,6,8,3,13,13,12,9,10,124
7,10,2,27,13,47,5,10,7,0,104,3,10,3,1,12,14,16,2,171
76,65,21,75,57,214,27,65,55,0,436,9,53,23,49,76,104,69,35,673
8,4,3,1,6,8,6,3,4,0,17,5,10,4,6,2,1,3,3,26
56,41,10,39,24,158,36,75,48,10,424,10,39,27,15,37,64,72,0,657
13,9,6,21,13,64,12,11,10,0,102,3,7,22,8,10,31,26,0,154
1,2,2,2,2,10,3,1,5,0,16,1,2,8,1,0,0,4,2,26
2,1,1,4,3,4,0,6,2,0,15,0,3,0,2,0,2,2,6,23
1,0,1,2,1,21,0,5,1,6,14,0,1,6,0,1,12,5,0,27
1,1,0,0,1,13,5,4,0,1,25,0,2,12,1,0,1,4,0,31
6,0,0,8,3,18,7,15,4,1,32,0,5,6,6,2,4,14,0,57
4,1,4,2,6,36,2,4,4,0,38,1,5,1,5,1,21,4,3,60
6,11,5,5,8,22,3,7,11,0,21,4,4,18,2,1,6,5,0,59
13,8,9,4,7,22,8,4,12,2,48,1,6,6,2,5,8,15,0,94
10,12,3,15,6,54,18,11,12,3,42,2,14,15,3,19,29,10,0,94
43,36,10,67,36,149,16,59,23,0,272,12,24,28,20,25,64,67,26,445
39,27,15,49,28,104,41,41,19,0,295,3,20,43,18,21,27,66,27,433
64,37,16,59,65,180,45,57,42,13,333,14,51,54,46,26,76,71,0,573
0,13,4,9,11,20,6,11,5,0,30,1,4,15,4,20,1,12,6,46
21,11,4,6,12,18,6,13,7,18,28,0,18,13,20,9,11,19,0,54
10,6,7,11,14,48,3,6,23,3,55,4,12,9,12,5,22,11,0,111
37,16,20,20,29,79,7,26,21,0,128,21,22,26,36,4,37,39,2,196
46,28,44,43,51,162,34,42,52,0,359,24,38,99,33,14,64,74,2,513
55,36,30,48,65,167,42,52,41,0,429,17,54,55,46,14,76,78,27,598
48,40,37,50,61,181,27,55,77,0,283,16,58,44,49,23,81,77,25,486
70,27,34,24,70,146,38,44,52,15,206,28,59,73,53,35,48,62,0,368
4,0,0,4,5,13,1,5,8,0,10,0,5,2,6,2,9,3,6,17
4,0,5,2,11,10,1,1,10,0,14,2,5,4,5,11,3,4,2,22
14,1,8,15,3,27,1,16,2,0,77,11,10,1,4,3,13,11,8,103
5,7,9,5,2,26,14,5,12,0,66,8,7,16,4,4,8,7,2,95
15,26,2,24,23,93,33,13,12,5,138,4,6,32,8,41,31,20,0,242
33,3,14,17,33,80,7,13,38,0,128,12,29,17,32,8,38,37,0,193
44,39,76,58,37,130,46,32,41,6,204,24,27,63,38,38,74,54,0,395
5,6,48,7,24,49,39,8,11,8,65,40,13,31,13,20,17,19,0,117
13,14,40,5,11,37,70,13,27,0,99,43,9,42,10,10,16,19,5,175
19,11,81,12,20,51,47,19,24,34,76,101,20,39,14,15,19,9,0,177
6,15,8,14,20,63,10,7,8,0,121,5,8,14,10,21,16,19,0,179
34,39,19,46,34,184,25,61,62,4,253,103,24,22,12,50,59,38,0,453
7,7,4,10,9,22,10,20,10,0,55,4,10,12,7,5,4,15,5,92
58,16,11,39,56,126,20,46,33,0,259,21,34,22,35,18,61,28,10,435
26,21,7,36,42,129,7,21,24,0,255,12,13,4,31,13,62,21,34,378
63,35,41,74,45,178,35,58,58,0,428,54,53,40,39,28,85,50,1,665
10,6,1,15,5,51,5,21,5,0,105,5,9,9,4,5,26,11,8,147
23,24,13,30,35,126,4,41,30,0,161,5,31,13,26,19,49,33,2,309
5,2,1,1,2,10,6,5,4,3,18,4,4,2,4,0,5,8,0,30
24,13,15,16,11,91,8,26,20,0,164,20,17,18,8,13,49,20,10,233
5,10,8,11,10,55,11,14,15,7,57,9,2,5,8,8,22,19,0,130
22,33,18,29,26,99,20,30,24,0,152,7,18,16,13,110,25,20,15,229
21,9,9,13,17,62,5,14,13,0,107,20,7,15,18,3,31,16,17,143
4,6,12,8,1,26,3,5,3,0,36,17,1,9,1,6,17,10,0,43
16,23,10,17,22,104,13,16,18,0,140,9,8,15,10,33,25,14,8,257
16,12,10,13,12,78,39,21,15,0,122,11,11,39,2,53,18,20,2,182
13,26,31,40,21,55,12,17,9,11,146,2,18,14,9,98,7,16,0,217
10,22,3,14,11,33,13,12,8,0,81,4,7,12,6,23,15,13,13,114
19,22,7,16,12,69,25,20,13,7,80,2,18,21,12,21,31,37,0,148
4,6,3,16,10,25,7,9,3,3,44,8,3,2,3,20,16,18,0,60
7,12,9,10,3,27,4,5,11,3,41,59,5,4,0,2,5,4,0,53
9,4,3,11,10,14,2,8,9,0,24,36,1,3,0,4,3,6,1,40
2,2,0,7,2,20,4,3,10,0,28,19,1,4,0,0,7,2,4,41
10,11,5,12,15,73,7,15,55,4,82,55,11,8,9,31,18,11,0,146
7,12,5,23,14,54,18,8,16,0,107,3,4,24,5,22,16,10,16,164
32,65,27,57,47,199,19,49,37,0,323,18,21,27,30,23,121,52,7,556
16,24,9,20,16,99,11,23,19,0,176,9,16,16,12,21,40,24,9,266
7,1,6,0,10,17,2,2,7,1,13,4,6,10,5,2,4,1,0,34
5,6,12,5,9,46,13,10,14,16,59,24,8,8,8,3,16,16,0,112
7,8,11,7,15,8,13,7,8,0,63,15,6,7,11,3,5,6,5,89
14,15,2,17,12,50,4,19,19,24,66,4,12,5,18,41,15,17,0,130
5,5,5,24,5,21,2,6,11,0,63,2,3,0,11,15,6,15,6,89
34,11,13,20,9,45,0,17,11,5,68,13,23,11,17,8,29,22,0,110
5,10,4,26,9,27,4,11,3,0,69,2,4,1,7,9,19,15,8,103
36,77,21,90,60,250,50,102,65,21,595,14,35,54,56,111,84,63,0,950
16,26,4,27,31,60,12,24,15,11,103,7,21,29,13,20,35,30,0,174
33,38,21,30,23,86,18,45,47,24,203,8,30,46,21,36,34,51,0,342
9,8,1,11,4,24,10,24,13,0,49,5,11,12,7,5,8,11,2,92
9,13,4,22,11,53,8,35,9,19,169,8,5,9,10,6,12,35,0,267
0,7,3,6,11,16,4,8,7,0,19,8,0,1,7,1,6,2,0,56
19,14,16,7,10,31,6,0,10,7,54,18,11,9,14,8,15,10,0,89
10,8,5,3,8,20,3,16,4,1,29,12,5,5,6,6,5,14,0,54
8,3,2,5,5,36,5,15,3,0,33,7,10,1,14,2,8,12,1,60
3,2,3,4,5,18,2,2,10,1,34,5,8,2,4,3,15,5,0,42
16,16,3,11,15,32,4,13,15,0,77,4,18,4,15,11,17,14,11,108
60,16,15,7,48,70,36,23,44,63,116,37,61,38,42,21,29,62,0,208
4,6,1,3,12,34,3,10,10,16,56,8,7,11,9,5,13,15,0,87
21,13,15,17,26,95,10,27,22,86,130,23,26,19,33,22,30,43,0,266
14,7,3,12,21,53,4,12,17,12,40,7,18,14,15,11,43,28,0,59
2,3,4,2,6,20,4,9,3,1,21,9,2,3,6,1,12,9,0,33
13,8,8,4,14,25,1,7,13,0,41,8,12,1,22,5,6,13,5,62
26,4,7,10,19,60,4,13,20,13,48,12,28,15,24,15,29,15,0,86
13,7,6,8,15,32,10,11,13,13,56,8,8,9,15,5,11,25,0,103
0,0,4,2,3,9,2,7,6,4,14,5,2,4,2,5,1,11,0,21
4,7,5,10,9,18,1,13,5,0,34,3,1,3,9,5,7,12,0,66
3,1,2,11,1,22,2,3,0,2,28,3,0,4,1,3,17,11,0,36
6,10,9,8,6,26,1,8,9,4,49,14,4,1,10,1,2,15,0,89
5,1,2,11,3,15,10,14,8,0,81,1,4,7,3,7,9,12,6,101
21,4,14,11,18,37,18,32,22,6,80,13,19,22,20,4,22,37,0,126
23,14,11,17,35,56,9,16,12,4,110,14,12,9,23,19,20,33,0,177
3,8,5,5,8,18,3,4,12,0,31,4,6,5,5,7,9,10,1,50
11,13,12,5,6,51,22,11,9,20,81,9,14,28,12,16,26,17,0,119
2,5,0,2,2,17,3,3,0,7,18,2,4,2,2,2,8,2,0,37
3,1,2,15,8,31,7,10,5,0,43,6,2,4,2,0,12,13,7,79
8,7,1,5,10,16,9,5,7,15,32,7,9,9,2,8,13,11,0,56
10,4,11,14,1,29,1,5,3,4,80,7,11,2,0,3,25,17,0,97
70,11,17,8,32,84,19,22,48,13,99,52,59,32,32,9,35,40,0,164
6,10,6,8,12,45,8,11,13,0,58,1,10,10,9,33,14,5,13,82
3,8,1,17,9,30,8,22,13,5,62,6,4,3,8,14,12,15,0,116
2,8,2,16,4,22,0,4,3,0,38,1,1,0,3,5,18,8,0,63
21,6,11,10,21,115,18,44,31,7,180,13,21,27,16,19,48,44,0,276
13,12,6,7,13,20,4,7,6,1,48,3,6,5,4,15,7,19,0,78
5,9,12,7,14,40,3,15,8,41,57,7,4,40,16,5,11,10,0,118
18,5,14,9,20,58,3,11,25,0,99,17,13,13,11,4,27,18,11,148
61,33,19,26,56,153,23,37,42,15,238,27,50,31,42,19,44,50,0,440
91,46,16,29,79,244,25,62,78,0,368,44,52,62,73,26,96,68,39,578
112,53,32,39,91,261,35,61,88,0,430,22,126,46,57,28,93,65,115,650
30,12,12,9,11,34,8,25,18,5,67,24,32,9,18,3,24,16,0,105
8,10,17,11,17,43,9,19,15,0,44,8,5,12,14,8,31,16,3,96
65,43,30,66,58,198,17,53,43,13,260,19,55,42,47,24,74,77,0,508
23,6,6,15,9,49,16,6,8,1,49,5,9,6,15,3,22,14,0,114
4,6,4,3,0,17,1,10,5,3,19,1,4,3,5,2,8,6,0,43
22,8,14,15,15,83,19,16,14,0,110,13,19,22,24,9,52,26,3,148
3,4,2,7,7,12,4,6,5,8,17,9,5,6,14,7,8,7,0,19
20,8,12,7,20,45,9,16,33,4,56,22,22,10,31,4,16,32,0,93
15,2,11,7,20,41,8,13,14,0,45,20,12,5,21,7,9,16,1,85
65,21,42,18,59,121,42,31,76,39,204,57,89,30,54,15,31,48,0,394
59,29,37,38,81,228,30,43,69,26,277,33,55,21,81,45,80,94,0,508
35,9,7,12,29,77,12,14,19,11,125,14,21,6,22,23,22,23,0,219
31,30,19,38,45,146,15,30,42,0,274,25,38,18,29,25,56,48,2,429
35,10,3,14,30,38,1,11,20,7,87,22,38,15,15,6,16,15,0,129
35,27,13,53,38,111,26,49,26,0,321,23,23,10,29,17,41,84,7,465
20,17,5,17,15,70,7,29,14,0,124,5,18,10,16,6,30,15,5,213
12,9,3,9,10,21,10,16,11,13,45,3,7,11,10,11,8,12,0,97
20,8,2,11,8,39,9,21,12,2,81,3,3,12,8,6,13,16,0,152
15,19,8,21,21,125,27,47,20,0,179,8,7,29,25,22,48,29,4,310
53,27,11,27,27,168,26,72,39,0,318,11,28,37,31,43,35,62,10,511
47,47,28,30,47,161,15,42,47,24,256,27,28,31,38,35,49,60,0,476
39,8,14,8,30,56,7,23,32,59,111,10,42,14,28,15,26,37,0,215
16,8,6,24,6,39,3,24,12,0,83,13,16,8,7,2,22,22,6,125
20,10,2,9,15,38,2,9,9,11,77,0,8,14,6,4,6,13,0,151
31,15,6,16,15,45,3,32,15,4,64,6,12,11,16,7,14,33,0,147
55,42,22,30,33,110,31,32,37,9,224,10,44,47,33,22,51,52,0,366
52,25,6,35,40,110,15,55,40,4,254,19,28,38,31,18,49,64,0,389
78,32,16,43,63,162,25,56,55,6,476,11,42,55,42,48,71,84,0,659
51,31,11,39,35,113,12,29,26,0,174,6,27,31,41,16,63,54,8,275
66,45,11,20,53,108,15,57,36,0,212,11,39,30,46,30,36,57,30,344
83,50,26,27,64,121,16,61,53,10,273,23,53,65,44,29,42,71,0,457
59,33,18,29,40,119,13,43,34,0,255,6,35,28,33,26,60,63,25,367
6,8,2,5,3,18,2,12,1,0,58,2,2,6,0,2,7,16,9,71
136,81,29,80,90,287,62,133,69,38,553,30,78,59,57,57,137,237,0,903
61,31,34,36,72,166,16,67,43,0,281,37,53,22,54,30,43,59,1,508
13,2,10,10,14,36,4,14,15,3,53,21,12,7,14,2,20,17,0,81
50,28,41,37,86,195,23,46,49,36,323,74,32,25,76,30,79,57,0,541
29,15,8,11,12,44,0,32,12,13,94,16,26,4,9,16,26,15,0,158
47,63,63,68,81,240,11,91,55,0,458,56,45,17,54,33,97,81,39,755
43,42,34,67,47,230,7,75,41,0,623,42,27,22,41,23,118,65,47,824
1,5,4,7,6,14,2,9,0,0,30,6,1,2,4,7,4,5,0,49
49,22,18,14,38,88,21,37,37,16,213,37,36,23,46,16,43,24,0,328
7,9,4,10,9,30,5,36,14,6,49,14,6,11,16,2,22,16,0,92
13,15,10,29,14,53,3,14,18,0,88,18,11,4,14,9,32,16,10,143
20,3,11,13,10,40,1,29,11,0,53,9,6,21,5,7,13,28,5,97
1,5,1,6,19,27,6,8,9,0,51,9,1,2,14,2,12,8,6,79
8,4,2,11,5,52,18,12,13,1,60,9,4,13,6,7,30,19,0,98
29,14,8,17,25,81,4,18,24,4,89,12,21,27,17,1,31,23,0,181
7,6,3,10,10,27,7,8,2,15,72,2,7,4,11,6,13,17,0,107
4,4,9,9,1,15,1,11,8,6,30,6,1,12,4,5,7,5,0,58
6,1,5,5,3,8,3,5,2,0,17,3,2,7,2,2,0,3,1,35
1,5,6,4,2,26,1,3,9,0,39,0,4,9,0,1,14,9,8,51
7,14,23,18,11,63,3,8,14,0,136,20,4,19,6,9,26,23,23,167
19,14,10,20,18,79,1,28,17,10,139,8,16,6,11,30,36,11,0,237
38,17,20,15,27,93,18,13,39,0,140,21,40,20,34,20,34,47,1,203
2,16,14,17,10,27,0,16,4,13,54,18,5,1,5,3,13,10,0,118
18,19,10,20,28,92,6,32,20,15,176,12,11,4,30,4,40,33,0,302
13,17,14,23,27,51,11,30,18,7,123,28,12,13,12,10,34,27,0,198
5,2,3,11,6,27,2,7,7,7,46,9,7,4,6,2,12,17,0,66
89,44,33,39,60,203,28,59,69,24,323,44,89,36,52,59,90,60,0,541
5,12,6,4,6,38,2,17,11,0,48,12,8,6,9,5,14,11,3,81
2,7,0,1,7,35,3,6,11,0,47,2,8,5,7,1,18,5,8,65
5,10,8,11,21,47,5,19,12,0,72,11,11,4,10,7,17,20,11,119
5,4,0,6,4,34,7,6,5,2,13,2,4,4,7,5,22,4,0,38
55,59,23,68,66,250,37,64,55,0,469,22,42,38,61,62,116,86,63,656
3,2,1,5,2,10,0,1,2,0,8,0,2,0,3,9,3,3,3,11
27,32,8,23,26,96,11,35,26,0,129,18,14,8,31,21,46,33,9,233
43,27,14,25,62,136,13,39,68,9,313,42,48,10,56,12,37,53,0,491
73,40,17,32,79,146,18,38,68,54,286,81,45,19,56,24,60,66,0,500
62,26,31,45,67,192,20,46,55,33,289,40,53,38,57,20,80,94,0,484
3,2,4,4,5,27,6,15,19,0,46,12,11,1,6,2,18,11,0,70
39,25,35,43,36,132,24,25,38,3,235,68,30,19,31,11,66,37,0,373
18,9,6,8,12,58,6,14,20,10,56,3,21,9,22,5,20,24,0,113
13,5,6,4,1,20,1,7,1,3,20,0,12,0,3,18,14,3,0,31
1,4,4,4,5,13,1,3,1,6,13,5,4,0,4,0,8,8,0,26
13,3,6,13,5,29,1,10,13,13,41,3,10,8,12,5,10,21,0,78
3,4,3,8,12,21,0,8,1,9,35,4,1,1,5,3,6,14,0,70
8,10,7,13,13,14,5,11,4,0,69,10,5,5,6,7,12,11,4,94
9,22,3,14,7,31,3,14,14,21,63,7,20,9,12,10,20,21,0,102
14,17,9,14,17,29,1,16,11,0,81,15,5,7,14,10,22,6,2,128
70,43,49,58,59,168,20,63,53,34,256,60,69,35,55,38,79,70,0,467
34,48,42,39,53,178,17,72,56,0,333,38,38,29,40,25,65,65,39,533
33,40,29,25,20,126,15,28,28,0,231,36,29,22,16,11,58,29,5,369
60,48,41,47,61,152,19,65,46,0,313,46,42,26,45,23,62,68,31,509
59,50,39,43,55,129,20,70,57,0,393,36,69,24,36,33,61,53,15,588
60,59,55,55,87,225,32,94,59,0,643,65,60,34,81,26,90,98,12,903
48,35,57,57,60,177,17,76,49,0,327,39,51,24,50,25,83,60,17,554
3,7,3,17,11,46,8,13,10,9,57,5,7,15,6,5,19,22,0,105
2,1,4,8,9,20,3,11,3,0,10,10,0,4,1,8,10,17,6,15
65,20,14,16,40,80,7,12,47,12,167,19,45,21,31,16,35,40,0,273
3,6,8,14,13,27,17,15,6,0,31,1,2,15,6,10,18,9,9,70
26,17,21,20,30,117,22,26,23,18,158,42,16,19,31,7,40,31,0,292
14,3,8,12,8,76,2,23,7,0,71,10,11,7,10,7,24,16,5,134
4,4,4,8,9,37,10,6,13,7,46,11,3,15,9,5,12,8,0,85
32,18,17,16,47,113,23,31,35,26,203,35,31,16,42,9,43,49,0,336
59,53,22,67,66,229,12,82,66,0,477,21,24,89,44,28,89,86,57,695
13,3,50,14,7,31,1,3,3,0,48,46,4,5,8,1,11,8,6,84
54,33,227,39,47,140,10,47,42,0,284,184,28,27,44,43,76,70,1,450
1,4,7,11,1,15,0,4,4,0,52,18,0,2,1,1,7,19,2,49
26,21,40,31,23,93,7,23,26,5,185,8,2,255,7,8,16,11,0,173
35,6,7,4,22,49,11,7,36,25,49,25,27,21,31,5,19,34,0,89
7,9,1,6,11,30,5,8,14,6,56,5,8,5,14,8,12,15,0,86
2,1,2,1,4,15,3,3,0,2,18,6,2,5,1,0,2,8,0,27
10,8,5,6,9,33,8,12,12,4,32,15,8,6,13,6,4,14,0,73
5,2,4,4,8,28,6,0,5,0,30,10,9,6,1,1,11,6,10,38
58,44,52,35,55,191,36,52,56,44,265,104,52,36,49,12,85,74,0,476
60,19,32,22,47,158,30,53,46,25,222,79,35,27,38,11,52,55,0,417
75,25,49,31,43,154,24,53,53,37,286,87,61,23,63,15,66,45,0,470
26,21,13,18,18,77,13,21,19,3,124,13,18,15,25,16,29,22,0,215
11,18,9,5,8,38,3,10,12,0,107,14,0,6,11,8,15,14,11,142
144,31,25,36,98,201,36,49,87,20,262,34,138,61,50,27,89,89,0,501
10,18,4,16,14,62,6,15,16,22,57,3,9,5,12,16,28,35,0,132
40,19,9,17,35,72,5,22,32,22,139,20,27,17,27,9,22,41,0,249
136,39,50,23,80,211,22,54,89,68,291,50,108,44,71,35,88,133,0,534
42,14,10,20,24,67,13,21,21,12,75,15,28,17,24,29,35,50,0,121
42,31,6,29,16,113,4,40,31,0,179,14,26,10,16,14,39,32,15,325
6,7,3,11,15,49,3,11,4,0,73,7,9,1,12,3,27,12,7,104
23,16,23,11,16,30,15,16,18,2,94,31,14,52,18,6,11,13,0,119
19,10,6,17,23,76,16,19,20,10,147,10,14,19,15,15,30,30,0,230
13,15,10,22,11,40,5,16,10,4,65,12,13,5,10,14,25,18,0,114
7,4,8,13,7,32,1,14,8,1,47,11,6,8,6,5,18,14,0,74
6,9,3,9,6,55,2,9,7,5,65,6,6,1,8,13,41,14,0,87
19,12,6,11,8,48,0,11,4,0,104,11,6,4,13,1,24,14,3,147
7,4,6,6,2,22,0,16,16,0,55,9,8,0,4,6,14,15,2,76
26,3,4,8,19,45,9,16,15,4,71,2,29,10,14,5,12,8,0,140
5,11,9,22,8,56,3,14,13,0,77,3,6,8,7,14,35,29,4,112
9,8,9,7,7,36,4,5,6,14,57,7,5,16,8,7,20,7,0,92
7,5,2,3,8,13,0,6,2,0,16,5,6,0,3,9,3,5,2,29
18,15,18,30,35,74,5,42,19,0,141,14,9,5,17,17,32,35,24,244
2,1,9,4,7,22,0,10,2,0,47,7,1,2,2,3,14,5,0,70
31,16,12,21,21,70,8,35,17,2,148,7,27,33,31,10,26,36,0,211
16,10,25,15,19,64,0,18,23,3,95,24,15,9,21,9,25,39,0,146
9,11,11,11,13,75,7,24,13,0,78,9,8,8,0,4,37,21,3,162
16,9,16,12,26,76,15,20,16,0,84,16,17,28,16,9,40,11,6,147
22,17,7,14,26,64,7,25,26,5,112,11,20,13,10,13,21,24,0,213
22,5,11,4,8,39,6,18,20,5,69,13,12,6,16,7,13,12,0,128
0,2,7,15,10,17,2,10,9,0,49,8,7,8,4,0,9,10,6,69
5,22,25,33,22,48,9,15,27,30,151,28,10,15,24,10,18,48,0,234
0,5,1,2,5,42,0,11,9,0,35,4,3,5,2,5,14,10,7,60
4,4,5,8,5,28,1,5,12,13,41,7,4,9,8,6,15,15,0,62
52,29,24,53,44,147,19,28,24,0,238,16,36,33,35,23,52,69,22,372
4,1,0,5,9,6,0,13,7,34,528,2,1,0,8,1,1,5,0,589
76,48,4,13,47,95,46,35,52,23,179,11,60,88,38,35,19,32,0,335
20,33,9,56,38,173,18,34,38,0,281,8,10,40,20,17,88,47,43,427
33,21,9,36,43,103,17,52,46,0,244,4,26,51,32,18,56,29,17,371
34,37,7,50,48,129,26,57,50,7,273,12,21,54,38,30,42,63,0,458
27,55,8,35,36,137,22,61,37,0,375,8,12,51,20,20,34,31,53,564
56,52,14,39,69,182,35,80,61,0,518,9,45,89,49,22,60,58,29,745
41,46,14,49,66,130,38,59,49,0,354,14,32,86,24,17,56,48,10,559
58,44,18,45,56,190,39,47,50,0,387,10,47,88,38,17,77,34,55,568
55,51,16,35,80,159,29,62,60,42,365,14,47,108,46,25,60,43,0,611
50,48,13,48,59,153,29,37,35,0,229,7,38,77,30,21,70,55,0,403
31,59,7,46,56,153,28,44,41,0,269,17,24,73,28,26,53,42,33,438
36,57,16,52,31,142,32,27,24,7,215,7,17,87,20,23,46,44,0,395
68,48,14,60,69,184,40,41,38,0,227,22,44,125,36,32,61,52,8,409
65,62,10,65,70,166,47,50,50,5,354,17,47,131,34,24,57,61,0,573
29,48,12,49,43,161,28,49,43,0,300,9,26,72,30,18,50,48,41,468
31,45,8,33,64,132,32,41,32,0,254,15,25,88,35,19,46,33,19,392
28,22,6,21,33,70,17,32,25,0,291,3,25,23,18,21,24,37,6,388
28,24,8,5,20,49,25,12,29,18,86,15,41,17,15,16,7,17,0,176
6,6,3,9,7,28,22,16,3,0,34,7,3,17,5,1,8,10,13,70
3,5,1,1,7,10,5,9,11,10,41,10,4,5,8,4,2,11,0,59
67,48,27,50,64,135,72,22,57,0,262,14,44,42,40,115,44,35,8,462
41,66,15,77,40,227,28,72,52,0,473,10,16,29,39,75,115,63,34,710
7,13,6,32,9,61,5,24,18,0,117,2,6,5,1,29,37,29,9,174
16,11,5,11,6,22,5,8,8,0,32,1,6,6,2,20,5,12,7,65
19,9,37,19,16,75,31,28,15,0,124,43,23,14,26,9,38,14,2,204
153,78,16,61,78,170,174,37,77,0,404,20,128,194,73,65,79,58,63,568
42,27,33,26,43,127,30,33,50,0,240,42,60,18,32,23,70,31,11,364
37,24,32,46,49,145,37,57,45,10,301,32,45,37,43,32,37,43,0,514
8,7,3,13,17,54,10,14,10,0,135,4,6,25,6,12,21,18,5,174
5,18,1,38,12,118,9,27,14,0,204,6,10,4,11,40,37,24,7,307
42,37,59,19,42,96,133,40,46,18,215,79,47,101,28,20,44,31,0,397
73,27,64,47,58,155,72,54,50,0,257,97,58,72,39,34,41,37,28,451
20,11,6,8,23,46,42,5,16,0,77,4,6,40,13,31,22,7,17,114
5,3,14,2,12,15,4,11,6,6,20,27,10,5,5,5,7,9,0,30
29,34,19,42,56,88,28,60,29,1,332,4,9,35,32,69,19,41,0,509
4,2,21,7,7,10,12,4,7,0,34,13,7,6,3,8,9,6,6,50
0,1,6,3,9,9,34,4,5,12,36,9,7,35,4,2,4,5,0,53
5,21,6,12,14,30,7,15,10,11,57,7,2,10,15,12,23,11,0,108
41,34,20,29,43,118,39,26,60,0,350,23,62,26,33,41,54,44,4,473
0,2,1,6,0,13,0,9,3,0,12,2,0,2,0,3,4,11,1,23
37,64,17,68,39,188,41,47,42,0,443,5,36,46,24,95,81,53,21,625
6,9,12,8,13,26,17,10,11,3,26,17,12,12,6,13,7,17,0,57
50,60,18,35,42,153,44,33,44,0,367,2,33,21,34,116,48,23,19,550
74,54,30,44,61,181,67,78,53,3,514,3,43,101,39,115,72,35,0,751
73,62,31,66,69,221,43,104,56,0,386,14,30,84,31,113,66,64,56,653
0,2,2,16,0,9,0,4,2,3,19,1,1,0,0,0,7,7,0,41
33,22,7,13,15,70,49,28,22,7,161,11,29,37,27,16,37,23,0,247
5,9,6,27,4,78,2,15,9,6,102,2,1,6,3,7,33,10,0,201
14,26,20,33,26,109,35,32,35,14,229,16,15,34,18,32,46,43,0,369
61,24,18,42,45,117,39,29,46,0,217,13,63,28,25,31,49,30,7,392
2,2,1,7,2,21,1,14,7,2,53,2,3,2,5,5,8,12,0,75
10,14,2,27,10,66,5,27,14,9,148,7,7,9,13,34,16,27,0,219
15,16,4,19,18,58,9,17,9,0,127,6,15,3,13,27,11,19,7,191
36,24,15,38,40,163,21,48,27,11,400,1,23,11,26,90,42,29,0,601
13,20,7,12,21,50,22,27,12,2,133,3,5,15,22,31,20,10,0,213
3,6,0,13,4,22,3,12,1,0,36,0,0,3,0,5,13,10,3,66
19,25,4,42,32,110,13,48,32,0,192,5,24,15,21,26,47,46,14,319
18,3,6,13,16,27,16,21,8,0,66,12,12,20,12,4,16,27,1,90
1,3,1,1,2,24,3,8,1,2,26,3,3,0,3,5,9,1,0,48
5,5,0,6,4,20,2,7,6,5,45,4,5,0,7,11,8,5,0,65
14,13,13,8,8,29,32,17,21,12,69,12,16,28,8,7,11,20,0,134
71,13,14,13,41,64,19,25,42,1,110,18,81,33,23,22,26,21,0,189
73,38,14,31,46,106,47,38,66,113,233,33,97,38,40,45,65,37,0,450
92,32,16,28,63,127,43,39,62,0,228,29,104,43,44,37,47,38,35,353
37,6,7,6,17,41,16,12,17,0,114,14,37,8,7,11,16,18,17,145
68,19,12,15,36,71,48,25,55,0,161,28,73,47,22,13,40,21,29,237
98,55,17,30,70,158,40,81,87,0,322,38,98,46,35,34,77,46,121,463
129,27,38,31,79,186,80,53,91,0,275,57,162,73,31,50,109,46,27,434
88,29,24,21,56,98,58,41,77,18,208,48,112,66,42,36,44,34,0,336
7,1,3,3,9,20,0,10,10,4,29,4,13,4,4,6,3,7,0,55
10,3,2,0,10,17,6,6,16,0,52,4,14,9,6,3,8,7,0,71
50,27,46,46,65,120,132,49,40,0,233,55,45,99,45,35,49,48,18,414
10,2,19,10,14,51,51,8,20,6,67,48,4,30,12,3,19,18,0,124
1,6,1,12,0,23,1,1,2,5,30,0,0,0,2,3,8,11,0,58
0,8,1,5,0,6,0,10,1,0,19,3,0,0,0,6,1,1,3,36
1,1,0,4,3,15,3,1,1,0,13,1,0,2,3,0,5,1,1,29
1,2,0,4,3,13,7,11,4,0,29,0,3,6,2,3,5,3,0,52
6,3,0,6,1,8,1,3,1,0,11,1,2,0,1,3,7,4,0,22
1,6,0,6,3,11,0,3,1,0,23,0,0,1,2,9,4,1,6,31
20,50,9,82,42,149,30,36,40,0,298,4,31,21,34,96,37,50,11,472
2,13,3,5,6,15,9,17,4,0,41,3,0,5,2,5,4,10,4,82
0,4,1,3,2,11,3,2,0,0,15,0,0,1,0,8,6,4,6,16
1,8,3,10,9,41,5,26,21,6,69,10,1,8,7,3,18,14,0,138
8,18,13,31,17,80,8,19,8,0,154,1,3,6,5,41,27,26,8,239
23,11,48,17,30,102,21,22,32,0,144,88,11,24,11,18,40,24,4,230
9,2,6,3,16,25,19,14,6,5,33,25,6,10,16,10,9,8,0,54
28,23,11,31,26,89,13,30,23,0,185,7,21,7,16,29,33,33,6,307
33,29,12,42,25,93,6,53,30,10,293,5,40,5,13,31,37,52,0,443
53,57,19,70,58,164,30,60,42,0,239,5,49,24,24,93,45,79,25,448
7,17,0,26,2,22,9,7,9,0,70,1,0,9,1,15,18,21,4,100
6,21,6,12,16,55,5,9,12,0,89,4,9,3,7,18,11,27,0,152
39,47,16,46,53,134,31,47,38,3,246,9,45,22,18,78,52,47,0,429
43,67,18,51,40,153,20,72,39,0,361,7,34,19,16,50,77,62,35,564
35,52,14,59,41,198,33,58,41,0,401,5,27,29,21,80,70,56,47,597
56,49,15,48,39,153,23,65,36,0,230,3,51,15,19,70,49,54,14,439
33,43,6,31,35,95,15,53,48,0,699,3,29,18,15,33,27,48,15,870
39,45,16,60,50,124,18,39,29,3,262,3,36,13,22,63,40,75,0,433
18,53,5,40,23,117,42,35,32,0,280,6,22,30,21,44,39,52,33,398
4,29,6,44,25,102,14,46,20,0,282,4,4,8,7,43,47,49,34,376
13,13,12,7,11,47,24,4,7,0,46,3,13,15,4,20,16,6,3,104
25,24,18,20,19,100,76,31,33,6,187,14,30,60,23,59,28,21,0,304
26,47,73,56,33,135,29,47,41,39,439,25,30,30,36,38,48,59,0,699
78,43,47,52,44,144,61,49,69,0,234,49,89,61,41,48,49,56,8,420
6,9,1,18,9,67,8,22,9,0,109,6,2,1,11,8,25,12,2,191
219,54,12,51,64,220,83,51,63,0,317,21,172,70,63,49,127,54,9,569
113,44,9,29,48,125,39,44,40,10,220,15,65,43,28,32,56,49,0,433
84,21,8,11,43,87,28,33,33,6,321,14,78,26,36,18,38,23,0,442
70,26,2,19,23,64,18,19,30,0,172,3,50,16,10,11,34,19,41,259
70,47,9,25,30,108,26,31,30,0,225,7,54,18,25,33,64,28,12,360
135,24,17,33,50,131,47,32,43,0,264,9,99,38,29,27,59,29,25,461
109,43,9,51,46,97,30,32,44,0,232,12,94,35,25,24,62,33,0,408
90,37,7,39,35,128,31,37,48,81,250,14,92,32,39,29,59,47,0,471
9,8,5,7,9,25,14,10,10,0,58,3,4,12,13,2,19,3,4,95
14,3,2,5,12,26,23,13,7,2,68,6,19,22,12,5,17,9,0,85
11,5,1,8,10,22,7,13,5,0,52,4,5,5,4,5,4,7,9,91
132,40,18,41,66,134,33,60,75,6,366,21,103,44,47,30,49,59,0,618
49,31,13,31,27,90,25,36,33,1,215,10,55,22,24,32,47,29,0,332
24,11,6,23,17,74,20,29,12,14,208,1,22,10,20,20,23,26,0,316
4,7,16,10,12,24,16,7,5,0,32,40,2,8,8,8,20,10,0,37
13,22,10,10,15,53,25,10,22,0,89,14,14,16,15,46,18,12,5,129
18,8,8,5,17,30,5,1,12,0,43,4,7,3,20,8,10,6,17,72
29,52,23,60,35,151,29,58,46,27,426,19,39,39,50,28,52,52,0,657
17,33,5,40,32,120,18,41,25,0,204,5,15,20,25,25,44,39,4,358
13,6,10,22,22,61,22,15,20,4,74,5,19,19,8,8,34,16,0,160
1,11,7,31,4,50,5,11,0,1,74,1,4,4,2,19,27,19,0,119
1,12,4,20,2,21,0,10,9,0,56,3,0,4,4,7,2,7,16,92
8,27,14,18,19,91,19,28,17,0,257,8,14,21,11,12,38,34,7,353
42,18,9,11,17,76,51,20,21,8,140,11,34,40,22,42,20,19,0,225
44,31,41,24,46,97,154,22,64,5,232,37,55,112,43,17,32,39,0,425
10,6,17,8,5,39,4,22,16,4,64,10,9,5,12,6,31,13,0,109
3,8,1,10,7,30,7,23,5,3,98,1,4,4,3,4,11,10,0,158
3,6,6,10,5,32,9,5,5,6,43,6,2,11,6,15,12,11,0,67
30,34,8,55,44,157,8,69,46,19,336,5,22,14,43,62,68,63,0,529
7,8,1,4,17,41,9,11,9,0,99,4,10,6,6,2,19,15,1,143
8,8,9,5,18,38,11,8,21,5,65,21,9,2,9,6,10,15,0,124
8,4,11,0,1,11,13,3,3,0,22,28,4,4,2,17,2,0,2,17
15,7,4,4,6,21,16,4,4,0,29,0,9,10,5,6,2,2,4,72
14,2,0,2,5,23,4,6,8,6,27,1,10,8,0,3,6,9,0,60
12,7,2,4,10,20,5,14,14,0,32,2,5,4,9,5,12,8,12,63
25,8,14,8,14,45,44,11,31,0,128,15,37,32,16,20,22,7,13,166
9,6,2,15,6,21,2,6,4,0,40,2,3,1,5,6,6,11,16,61
12,30,7,7,22,62,25,11,23,8,126,12,19,14,13,34,25,9,0,207
20,34,6,23,11,57,62,13,20,14,93,7,16,56,12,65,11,15,0,171
13,18,25,23,28,73,35,30,30,0,131,33,23,21,20,19,35,16,3,236
16,19,9,37,28,102,8,45,31,10,441,3,12,3,13,32,42,41,0,600
4,5,5,3,4,15,5,4,4,3,30,2,10,3,11,3,8,2,0,43
20,37,52,45,36,129,20,46,36,0,336,14,27,33,30,26,40,34,7,546
7,6,19,14,21,45,28,15,15,1,63,24,14,16,11,10,17,9,0,133
0,11,3,14,5,23,1,9,4,3,66,0,1,5,3,16,0,8,0,106
7,11,2,24,7,81,13,31,12,0,140,1,7,12,7,11,26,27,7,230
12,15,7,29,10,64,5,33,18,0,180,6,12,2,14,30,15,18,8,268
5,2,1,1,0,6,7,1,3,0,13,1,4,11,1,0,0,4,3,15
64,18,12,18,40,107,40,39,46,0,228,11,40,63,20,50,49,44,7,328
70,38,24,24,57,101,56,48,40,76,615,12,48,67,49,60,39,63,0,811
16,17,10,16,30,62,6,30,23,1,157,2,11,10,26,31,9,24,0,255
16,13,5,28,21,54,2,21,20,0,73,3,16,11,22,28,29,18,5,121
33,43,6,27,42,124,25,44,57,5,303,7,45,31,23,51,51,49,0,452
62,42,19,24,90,151,50,57,77,19,385,12,44,69,69,80,47,51,0,604
74,57,23,59,56,170,47,60,69,36,285,19,60,63,49,96,92,57,0,500
35,30,4,37,40,128,11,33,54,0,195,9,27,20,31,44,51,40,21,324
41,29,9,33,46,121,18,33,37,17,170,4,37,34,29,48,62,40,0,300
29,44,11,39,41,124,13,41,35,0,182,3,32,38,23,48,48,29,23,315
58,47,11,47,43,188,28,30,56,0,250,12,36,47,27,65,92,50,8,421
71,42,17,30,60,187,29,45,71,0,242,10,43,57,35,74,79,51,8,437
74,20,12,25,80,112,32,41,52,0,182,10,64,44,37,58,50,44,14,309
33,34,11,37,42,126,24,44,38,0,325,10,20,32,29,61,47,47,15,453
47,25,28,22,50,94,18,23,54,0,245,12,31,40,22,47,36,39,5,374
55,35,19,32,61,135,30,45,41,15,278,8,37,38,41,63,48,50,0,461
63,44,12,18,46,107,36,26,56,0,187,11,47,47,37,66,47,39,21,280
77,77,42,68,77,197,53,98,71,0,375,26,47,44,49,108,73,94,80,614
11,9,16,3,11,39,16,11,22,4,56,24,19,13,19,13,10,16,0,84
67,32,24,51,47,169,85,84,66,0,279,18,61,64,46,90,79,57,3,486
4,8,10,12,7,58,12,23,9,0,175,3,3,5,10,22,10,18,13,234
12,6,7,3,18,32,11,7,5,0,59,7,3,10,9,18,13,11,10,79
10,3,2,10,4,8,2,3,7,0,36,2,8,0,4,7,4,4,6,50
9,12,4,29,17,36,6,42,19,14,301,1,8,4,5,13,15,30,0,413
27,18,9,42,13,62,25,31,43,0,236,11,47,9,16,26,27,48,18,304
15,3,2,5,4,16,5,3,5,0,35,3,14,1,5,3,12,7,4,44
9,4,2,10,5,34,2,14,4,3,57,3,9,0,2,2,14,11,0,103
21,9,3,21,18,54,6,29,21,0,166,3,19,5,13,15,21,18,29,225
51,31,17,42,30,113,28,53,34,0,396,13,51,20,16,26,55,45,21,548
10,10,2,15,28,48,18,44,23,0,109,9,4,18,15,11,22,27,9,192
65,55,10,29,55,189,50,40,63,0,283,6,34,62,38,179,62,32,16,410
29,51,7,30,52,171,24,57,39,0,294,3,27,23,28,162,55,21,27,408
54,53,11,40,48,183,36,51,78,0,305,4,37,55,33,140,78,55,8,449
47,45,14,26,67,201,42,65,61,0,293,10,30,41,41,173,54,31,20,461
86,86,20,36,84,257,33,80,97,0,295,15,48,49,50,228,85,56,46,497
67,44,15,33,85,146,37,64,88,7,358,11,35,51,48,134,43,40,0,582
65,47,19,30,64,240,13,83,90,0,339,12,29,40,28,171,64,52,27,567
86,49,24,34,90,212,55,88,104,19,312,13,51,62,57,246,62,53,0,529
13,12,1,5,16,25,5,22,26,0,394,1,8,12,7,25,10,17,14,425
4,9,2,4,11,23,1,14,12,0,28,0,0,8,4,31,8,7,10,40
8,4,3,5,4,23,2,3,15,10,16,0,13,3,4,37,4,8,0,24
4,8,2,9,10,33,0,24,12,1,77,2,3,5,4,26,6,6,0,128
47,45,15,32,85,198,21,99,67,0,412,16,32,33,39,122,72,56,12,639
32,10,5,9,30,95,21,24,33,0,125,3,14,26,25,61,16,14,8,217
35,41,17,38,46,207,28,48,58,0,305,8,23,43,15,129,62,41,22,480
51,66,22,42,64,195,28,57,96,9,342,5,38,58,27,206,55,65,0,518
57,48,11,18,67,168,16,59,73,0,697,5,44,28,36,96,32,40,4,929
26,21,68,17,27,71,30,13,20,17,159,78,17,32,15,18,33,20,0,256
31,20,22,17,26,96,14,46,37,19,168,13,18,27,27,44,44,38,0,285
9,5,5,7,6,23,14,3,7,0,57,15,8,10,11,7,15,13,1,56
14,28,15,49,25,110,16,38,20,0,228,16,10,7,16,35,37,49,0,373
19,19,15,10,24,84,18,39,37,20,120,20,19,21,23,16,51,27,0,228
2,2,8,3,3,4,4,5,3,14,54,3,0,3,1,7,1,8,0,79
67,41,106,35,50,150,103,50,82,0,284,28,55,97,53,167,49,51,0,468
2,6,10,8,11,34,7,24,8,0,96,4,5,10,9,5,17,12,0,144
57,32,35,28,90,157,136,77,53,0,319,15,41,116,57,77,49,63,10,556
40,26,18,19,60,135,104,57,65,12,254,22,43,96,49,70,42,52,0,416
7,6,11,5,2,13,7,17,5,0,22,0,2,6,5,14,3,20,12,33
56,21,19,35,43,107,24,55,27,18,155,9,45,39,32,37,54,49,0,295
85,30,27,49,71,147,34,40,43,17,254,25,42,54,71,63,49,75,0,418
14,11,8,7,21,59,10,24,26,0,96,10,11,8,23,9,25,27,2,161
14,11,2,5,11,46,8,14,14,0,53,6,9,7,7,19,17,14,11,88
49,30,24,30,64,128,44,47,35,7,228,22,30,32,39,61,56,44,0,402
47,19,52,24,75,173,59,67,65,0,245,25,40,70,58,102,60,47,1,423
15,31,19,14,10,70,32,24,25,0,158,16,15,21,16,37,18,28,15,232
21,25,81,17,44,135,64,47,36,9,269,85,25,70,24,40,45,32,0,427
26,30,46,16,25,128,43,38,37,11,239,54,31,36,29,32,45,22,0,390
54,8,11,13,41,114,30,36,40,9,156,12,44,35,36,57,42,40,0,246
20,14,10,25,20,67,4,26,15,14,92,18,15,11,13,12,33,30,0,175
17,1,9,3,7,23,12,16,8,0,44,10,27,9,4,5,6,9,5,65
184,66,49,46,201,293,75,109,109,0,775,53,172,65,117,63,112,110,68,1147
120,57,26,56,99,254,49,68,55,15,374,23,107,48,67,62,123,83,0,660
82,61,17,41,101,190,30,57,52,0,306,20,60,30,55,52,80,62,29,549
42,36,11,19,53,186,27,55,63,0,290,17,43,23,41,33,69,56,18,482
71,60,26,24,56,169,36,58,55,0,330,15,62,27,47,35,61,62,4,572
69,42,25,33,75,163,69,65,46,18,271,26,60,69,38,30,76,55,0,522
7,4,2,7,6,14,1,13,4,0,37,2,11,2,5,2,1,5,3,64
11,7,10,5,17,42,12,8,11,3,48,4,14,15,9,12,11,8,0,101
53,30,33,22,39,114,21,39,48,0,198,14,67,32,46,42,48,33,4,311
45,24,37,33,55,122,40,54,40,0,201,13,53,38,69,41,70,36,8,323
33,27,29,26,39,97,23,41,40,6,155,10,35,20,43,49,38,35,0,286
50,21,29,17,40,97,29,36,27,7,213,13,37,34,32,42,43,40,0,325
40,16,23,29,46,110,41,41,27,7,171,13,28,46,33,40,47,32,0,312
14,12,13,7,12,48,5,10,10,3,82,5,16,1,20,10,22,9,0,133
14,9,11,13,21,65,11,27,17,0,72,9,6,13,12,15,26,33,1,145
24,12,10,6,23,61,7,17,15,12,83,16,22,7,26,31,17,10,0,141
47,19,30,33,41,114,45,77,40,17,262,75,30,42,26,41,47,47,0,417
36,9,12,16,33,57,8,15,18,0,89,9,25,6,15,13,24,15,7,179
5,5,2,11,7,24,4,10,4,0,44,3,1,0,5,17,13,8,4,65
10,4,3,8,4,19,4,6,5,0,35,1,1,2,1,9,8,8,9,59
8,4,5,9,7,33,5,12,7,0,76,0,6,3,5,29,5,7,3,108
3,1,0,13,2,21,2,8,3,0,19,0,0,2,0,5,4,19,1,41
58,31,34,59,52,218,29,87,58,0,389,39,56,16,35,115,93,68,34,559
41,23,11,50,35,167,19,88,63,0,479,9,23,10,28,70,67,62,33,674
40,33,25,59,22,152,18,77,40,6,296,22,32,12,17,84,60,72,0,469
1,2,6,5,6,18,5,3,2,0,15,6,2,2,9,1,1,2,1,39
10,5,0,0,6,16,1,6,8,0,41,0,9,3,6,5,5,5,7,53
2,10,3,7,6,25,8,3,8,5,47,3,10,8,5,10,12,5,0,71
10,12,3,11,9,54,9,28,8,0,106,3,6,4,3,15,20,18,0,181
57,45,39,46,87,83,62,40,75,0,272,38,56,57,50,71,44,50,33,407
72,58,20,27,69,269,34,83,67,0,354,16,73,58,52,81,127,42,45,559
111,62,39,58,111,272,55,69,126,0,466,29,81,55,80,115,98,83,57,771
72,50,11,37,48,208,23,61,71,0,298,8,67,37,36,85,88,61,5,492
69,29,15,34,53,138,53,56,45,12,271,24,51,53,44,70,61,51,0,421
85,29,14,38,41,204,21,57,76,0,317,9,73,53,38,60,76,57,14,502
57,33,13,41,38,114,15,63,48,0,541,12,52,31,24,37,49,45,31,682
70,50,27,32,43,219,19,76,75,0,376,27,48,51,61,63,98,51,10,578
80,41,11,26,45,180,25,52,64,0,331,7,54,41,36,54,89,31,38,505
70,45,63,55,133,234,92,107,88,27,384,28,57,86,80,262,54,88,0,643
82,47,44,51,84,219,57,78,56,12,301,18,54,43,45,255,76,57,0,483
68,37,44,25,71,152,48,65,77,0,352,18,51,50,42,200,50,41,1,486
9,5,6,6,13,29,2,5,7,0,38,0,4,3,4,26,6,4,1,72
46,22,36,22,77,155,102,44,78,0,172,10,46,98,61,117,56,48,3,315
71,35,35,28,98,135,104,47,80,0,238,15,54,121,61,149,46,34,19,372
6,3,2,19,5,31,13,3,7,0,49,5,5,13,3,10,15,11,4,72
14,15,8,28,14,78,6,51,18,9,178,6,12,6,6,48,23,32,0,286
65,21,37,19,44,105,41,42,32,15,194,36,42,40,50,45,36,36,0,330
9,12,3,21,8,59,12,23,18,13,94,2,13,14,12,13,23,15,0,180
66,44,33,27,85,171,69,47,62,4,294,21,54,57,52,156,58,37,0,467
8,23,12,33,32,117,19,61,41,4,247,9,3,24,23,39,51,46,0,402
27,15,25,14,26,76,59,45,26,11,143,9,25,57,30,33,31,40,0,242
4,5,9,4,15,9,5,10,5,0,30,3,1,5,5,25,0,8,12,37
7,14,15,24,18,70,14,43,17,0,124,4,7,10,12,81,23,18,10,181
6,11,8,7,10,43,17,27,10,2,52,11,8,11,18,20,25,9,0,91
4,5,1,4,9,27,5,1,9,5,43,5,7,9,5,4,14,5,0,64
32,30,21,16,59,138,115,50,59,4,227,22,34,123,43,50,54,40,0,385
4,8,13,11,15,28,13,12,26,16,66,9,9,14,13,29,16,16,0,106
18,15,49,32,26,110,24,57,35,11,189,39,43,21,27,27,33,51,0,325
3,3,6,6,9,13,1,10,2,0,13,5,5,1,6,8,3,4,1,33
7,10,16,2,7,56,9,10,13,1,50,8,3,4,6,34,18,17,0,91
16,16,16,11,14,31,14,27,14,0,98,14,22,17,8,15,20,23,12,126
24,5,13,14,14,45,35,22,28,0,72,5,16,40,17,21,15,18,3,137
9,12,10,13,21,43,9,24,10,0,98,2,4,14,22,18,20,15,18,136
10,16,21,12,27,86,22,36,17,11,273,14,16,17,19,28,20,29,0,388
6,6,10,3,16,36,10,12,24,0,57,3,10,7,11,32,11,21,1,84
21,5,27,13,13,42,44,14,15,0,90,17,24,34,15,20,13,17,0,144
1,6,16,5,10,55,33,10,14,1,52,9,7,30,14,17,13,14,0,99
25,6,44,6,52,79,16,30,37,14,124,13,22,33,50,55,33,28,0,199
0,3,0,3,10,11,2,4,6,0,20,3,4,0,2,3,5,7,1,34
15,3,13,0,23,42,20,17,28,0,62,20,29,19,10,14,16,9,2,104
17,11,18,8,21,69,18,23,11,0,87,4,4,2,4,115,7,19,13,115
2,2,4,2,6,9,6,6,5,0,19,7,4,9,4,1,5,4,4,23
48,46,27,63,77,237,23,85,64,52,711,22,49,31,49,75,82,84,0,1041
16,29,23,20,31,126,58,36,38,4,184,17,23,37,19,70,49,44,0,306
16,16,6,7,22,44,20,19,10,0,67,6,7,19,10,36,21,24,0,104
11,12,6,2,9,34,6,3,14,0,32,5,5,7,6,16,14,12,0,64
11,7,14,22,17,57,10,29,27,0,138,13,22,8,9,8,23,33,5,211
16,7,14,36,34,72,14,26,23,11,96,17,15,15,32,15,33,49,0,173
30,44,18,36,46,137,26,62,33,0,291,17,22,25,41,59,55,49,5,450
46,21,21,20,33,73,20,27,30,0,175,20,25,22,29,12,27,33,3,295
5,1,0,13,5,23,3,3,2,0,28,2,3,4,5,5,5,4,4,51
11,6,12,3,12,19,17,19,6,0,44,6,9,10,12,19,5,16,1,71
9,5,2,4,16,13,1,0,12,1,43,3,7,4,11,11,5,8,0,57
7,6,11,1,21,23,7,18,13,1,45,8,8,10,3,9,6,14,0,95
4,10,6,11,12,18,37,13,15,1,33,4,9,41,9,26,10,12,0,49
20,30,12,41,27,128,43,58,39,14,297,7,26,34,23,50,43,32,0,494
25,23,29,26,26,81,8,43,15,8,118,13,16,7,17,39,51,43,0,216
6,3,3,9,5,21,1,10,5,0,20,1,5,2,4,11,10,4,2,44
18,13,45,20,33,91,43,36,31,0,132,37,18,37,31,14,37,38,6,244
25,24,14,39,24,137,16,47,49,13,255,5,15,13,15,62,42,27,0,464
15,11,3,11,19,31,4,22,17,0,140,7,18,6,7,7,5,19,17,187
11,14,9,14,14,26,18,10,23,1,91,12,8,15,15,10,13,9,0,149
32,18,21,26,49,117,69,43,38,3,156,7,30,57,45,61,42,27,0,303
2,1,11,4,5,17,6,10,4,0,18,6,5,9,4,4,6,8,1,35
7,6,14,9,2,17,10,8,9,0,13,3,8,12,4,7,6,15,5,35
10,7,17,5,21,30,3,24,12,6,62,11,10,4,12,26,18,20,0,96
4,3,19,4,2,24,0,11,7,0,64,16,0,4,5,2,12,12,6,81
33,14,92,22,35,57,5,27,38,25,135,87,32,10,39,17,31,33,0,234
18,94,13,32,45,167,41,71,45,0,247,1,22,25,35,165,44,32,19,430
80,29,40,35,60,127,43,64,96,0,623,31,74,53,56,25,54,89,45,770
57,42,21,52,65,227,35,67,85,0,353,21,51,51,75,36,94,87,42,547
38,17,8,15,38,77,14,20,57,6,141,11,39,16,24,20,30,50,0,241
77,72,26,27,55,163,35,35,76,0,378,27,60,55,41,35,82,63,10,571
99,44,45,34,79,211,58,73,114,0,318,39,111,80,64,47,79,92,9,554
54,52,48,74,91,207,27,90,114,0,714,44,60,32,60,54,84,105,17,1015
75,40,30,26,78,170,36,40,65,8,216,29,86,47,53,20,50,74,0,425
110,35,38,45,100,190,42,40,93,0,300,40,82,63,53,47,68,76,5,559
51,42,31,39,70,175,31,85,86,0,301,39,47,41,47,48,70,97,17,505
72,35,19,33,74,144,32,65,75,0,346,28,59,43,47,40,48,84,16,530
3,2,1,7,8,14,7,7,3,5,23,4,0,2,4,10,13,8,0,39
26,27,11,17,48,114,25,67,42,3,193,26,30,13,32,36,45,40,0,351
17,5,10,10,15,33,8,15,11,0,70,6,6,14,14,11,10,21,5,107
29,26,44,42,41,120,5,36,50,2,207,63,22,7,30,19,65,52,0,344
10,5,14,8,10,40,11,5,18,0,38,5,13,11,12,8,20,9,6,75
89,57,48,31,86,196,51,94,67,0,401,36,86,46,86,67,111,69,10,609
90,61,38,41,91,190,37,100,73,0,392,43,108,50,76,69,87,62,29,589
74,15,20,17,76,104,31,72,61,0,420,25,66,34,65,36,50,57,13,544
116,37,33,32,77,202,67,80,73,0,320,37,120,87,69,61,112,71,9,471
51,37,17,35,57,148,19,50,64,6,264,21,69,20,56,41,61,34,0,446
13,5,2,6,20,42,4,12,16,3,124,9,17,4,19,20,15,18,0,145
43,21,20,41,56,155,37,55,51,5,289,11,36,34,43,62,56,44,0,487
