OBEC,OKRSEK,VOLICI,HLASY,HLASY_53,HLASY_7,HLASY_166,HLASY_47,HLASY_5,HLASY_137,HLASY_720,HLASY_721,HLASY_768,HLASY_1114,HLASY_714,HLASY_1127,HLASY_1,HLASY_156,HLASY_769,HLASY_1177,HLASY_155,HLASY_1176,HLASY_724,HLASY_1125,HLASY_1173,HLASY_2,HLASY_1182,HLASY_1178
513890,1,138,83,6,2,3,5,1,9,14,2,31,10,,,,,,,,,,,,,,
514161,1,82,42,5,3,10,5,1,,4,2,9,3,,,,,,,,,,,,,,
514195,1,98,66,1,2,13,14,1,2,5,1,20,7,,,,,,,,,,,,,,
514276,1,317,182,8,5,30,28,3,1,8,2,75,17,1,1,1,2,,,,,,,,,,
530387,1,173,115,17,4,18,4,3,2,11,5,33,10,3,,4,,1,,,,,,,,,
530425,1,147,107,10,9,11,5,2,,13,7,27,14,2,,3,,,1,1,1,1,,,,,
530433,1,298,179,3,13,50,17,,1,4,,48,32,,,2,2,5,,,,,2,,,,
530468,1,697,442,43,21,61,28,10,5,50,12,131,53,8,1,9,1,1,,,1,3,,3,1,,
530484,1,395,257,23,5,43,7,8,2,31,19,89,22,2,,1,1,,,1,1,,1,,,1,
544337,2,181,86,6,6,18,9,,1,7,3,29,4,,,1,,,,,,1,1,,,,
544337,1,169,119,10,14,19,7,,,8,5,31,21,1,,1,,,,,,,,1,,1,
544345,1,300,216,17,10,24,19,1,2,32,6,64,27,5,,3,,,,,2,,,1,,2,1
544353,1,229,157,17,7,35,18,1,,7,,46,22,1,,,3,,,,,,,,,,
544477,1,1807,1215,135,53,166,65,18,11,126,55,392,113,26,3,19,1,5,2,1,10,3,1,7,,3,
544531,1,401,258,22,11,34,11,2,3,34,7,87,34,3,,2,,,2,,2,1,,1,,1,1
544582,1,252,192,31,6,35,5,,1,32,10,48,12,4,,5,,,,1,,1,,1,,,
544604,1,128,87,17,2,15,3,2,,21,3,20,4,,,,,,,,,,,,,,
545937,1,185,129,16,21,11,16,2,2,18,2,28,10,,,2,1,,,,,,,,,,
545953,1,261,183,13,14,41,15,1,3,16,10,42,17,2,1,1,,,,,4,,3,,,,
545996,1,255,121,8,5,15,15,2,1,3,2,37,23,,,5,2,,,,,3,,,,,
546232,1,119,89,3,5,15,9,1,2,7,,30,10,2,,1,,,1,,,1,,,,2,
546259,1,185,112,8,15,9,16,,1,8,,37,17,,,,,,,,,1,,,,,
546267,1,218,126,4,9,13,20,1,3,4,4,42,17,,,2,2,,,,1,1,3,,,,
546275,1,111,76,6,2,6,5,1,1,9,3,27,8,2,,2,2,,,,,,2,,,,
546283,1,194,138,31,2,35,2,,1,13,6,27,16,1,,2,,,,,,2,,,,,
546577,1,325,212,21,7,15,8,4,1,48,16,50,23,10,,4,,,,,,1,2,,,,2
546585,1,432,271,18,19,24,18,1,4,20,7,115,28,2,,4,,,1,,,1,1,2,,3,3
546593,1,696,378,30,12,44,27,4,5,31,9,138,53,10,,2,,,,1,3,1,3,2,,3,
546607,1,540,281,12,13,50,28,1,3,12,1,97,45,6,,1,,,,2,,3,4,,2,,1
546631,1,571,272,19,21,28,15,7,,27,14,100,28,,,8,,1,,1,1,2,,,,,
546658,1,130,98,15,4,19,5,,3,7,1,33,4,,,3,,,,,,2,,,1,1,
547476,1,232,174,36,5,29,9,1,2,33,10,32,6,,,7,,,,,1,1,,,1,1,
547484,1,160,125,8,5,23,11,1,3,7,2,44,10,2,,8,,,,,,,,,,1,
553638,1,145,68,5,3,12,6,2,,1,,23,13,1,,,,,,,1,,,,1,,
561380,9,554,335,25,21,31,25,7,1,29,10,114,61,3,,6,,,,,1,,1,,,,
561380,8,646,404,35,35,57,32,13,4,39,8,116,48,5,1,6,1,,1,,,2,,,,1,
561380,7,954,521,70,22,51,27,8,1,87,20,151,54,6,1,6,1,1,,,13,1,,1,,,
561380,6,586,356,27,30,37,29,7,4,27,17,118,48,2,1,3,1,,,,4,,,,,,1
561380,5,793,579,94,31,57,49,11,1,66,20,181,41,6,,14,,,,,2,1,1,1,2,1,
561380,4,985,667,57,33,61,47,10,3,92,29,230,75,12,,8,,,,3,,1,,3,1,2,
561380,3,330,164,30,6,14,5,1,,26,13,36,23,3,1,4,,,,,1,1,,,,,
561380,2,607,355,29,24,35,22,8,1,42,14,131,34,8,,3,,,,1,,1,1,1,,,
561380,1,2413,526,69,30,43,32,15,5,70,24,126,79,6,1,16,2,,,,5,2,1,,,,
561380,12,751,428,48,39,34,29,10,1,62,19,107,56,7,1,11,,1,,,1,,2,,,,
561380,11,396,257,31,10,21,19,3,1,32,24,69,30,7,,5,,,,,3,,,1,,,1
561380,10,614,201,9,14,14,20,5,,23,2,75,21,5,,3,1,1,1,1,2,2,1,1,,,
561380,34,761,356,30,26,38,24,6,3,35,5,119,52,7,,4,,,,2,,1,2,2,,,
561380,33,589,286,21,17,28,19,5,1,35,6,101,40,4,1,2,,,,,3,1,1,1,,,
561380,32,611,325,27,19,32,20,3,5,40,5,94,53,7,,5,3,,,,6,1,3,,1,1,
561380,31,560,247,10,22,28,23,3,4,29,4,76,39,3,2,,,,1,,,1,,,1,1,
561380,13,756,424,40,28,38,39,4,2,42,14,159,37,2,,7,,,1,1,6,2,1,1,,,
561380,44,77,56,7,2,8,2,3,2,4,,22,6,,,,,,,,,,,,,,
561380,43,1068,499,32,19,31,43,15,8,49,27,161,88,7,,12,,,,,1,4,,1,,1,
561380,42,1161,581,31,54,54,48,10,8,62,19,179,79,15,3,5,,,,1,5,4,1,,2,1,
561380,41,985,527,30,30,50,47,8,,81,12,157,77,16,,10,1,,,1,,4,1,1,,1,
561380,40,271,159,17,8,20,6,1,,21,5,40,34,,1,2,,,1,,,1,,1,,1,
561380,39,356,247,61,8,23,21,2,1,32,12,59,22,1,,1,,,,,,,,1,,3,
561380,38,466,277,15,14,15,32,4,3,23,5,106,51,4,,1,,1,,1,,,,,,2,
561380,37,284,113,5,5,13,7,,4,19,3,39,14,1,,1,1,,,,1,,,,,,
561380,36,516,343,32,24,18,46,4,1,36,11,113,45,4,,4,1,,,,1,1,,,1,,1
561380,35,420,184,10,7,19,17,4,,19,3,65,29,4,,3,1,,,,,,2,1,,,
561380,21,1014,377,23,36,34,29,7,6,33,9,119,69,,2,3,2,,,1,2,1,,1,,,
561380,22,838,254,10,14,17,20,2,1,28,12,89,44,,,8,1,2,,,2,1,1,,2,,
561380,20,790,294,24,18,17,31,4,2,30,10,102,45,2,,3,,,,,,1,1,2,1,,1
561380,19,537,304,30,24,40,11,13,2,32,8,104,25,4,,3,2,,1,,4,,,,,,1
561380,18,426,254,15,18,21,13,2,2,21,12,110,24,5,1,7,,,,1,,1,,,1,,
561380,17,311,186,9,23,15,16,6,2,17,8,63,18,,,4,,,,,,2,,,2,,1
561380,16,695,413,35,19,49,30,4,3,46,12,162,27,8,1,9,,,2,,2,,,2,1,,1
561380,15,394,244,29,16,22,22,7,1,22,7,97,14,2,,2,,,,,1,,,2,,,
561380,14,671,375,34,37,28,35,2,1,47,7,128,37,3,1,5,1,,,,1,1,2,1,3,,1
561380,30,367,201,7,15,22,7,2,2,23,4,67,39,10,,2,,1,,,,,,,,,
561380,29,639,290,16,27,31,21,,3,18,12,90,54,1,3,6,2,,,,2,1,,1,,,2
561380,28,938,474,36,27,53,29,7,1,44,21,153,77,10,,8,,,1,,,5,,1,,1,
561380,27,703,335,16,24,30,23,3,4,40,11,114,58,4,,3,,1,1,,,1,2,,,,
561380,26,726,377,15,26,40,27,7,2,36,4,146,61,6,1,3,2,,,,,,,,,1,
561380,25,259,117,3,12,13,13,3,1,4,2,45,18,,,3,,,,,,,,,,,
561380,24,866,408,20,26,42,39,7,4,36,10,142,58,7,,8,,,,1,6,,1,,,,1
561380,23,545,278,21,21,17,31,3,2,27,5,98,41,3,1,1,,2,,1,1,1,,1,,1,
561398,1,299,169,24,3,26,12,4,2,8,4,51,31,1,,3,,,,,,,,,,,
561401,1,109,76,12,1,8,8,1,2,15,5,21,2,,,1,,,,,,,,,,,
561410,1,491,215,26,13,12,24,1,4,14,10,72,33,,,1,2,,,,2,,,1,,,
561428,1,162,95,8,3,14,8,4,1,16,1,17,13,4,,2,1,,,,1,2,,,,,
561444,2,316,161,12,6,26,22,1,2,10,3,45,22,5,1,4,,,,,,1,,,1,,
561444,1,629,290,8,22,32,37,3,4,14,5,104,33,10,,7,4,,,,1,1,2,,,3,
561444,3,119,66,,2,4,20,1,,1,1,18,14,2,,,2,,,,,,,,,1,
561479,5,1018,529,62,19,44,48,6,5,44,15,187,70,9,1,9,1,,,1,2,1,4,1,,,
561479,4,845,426,30,46,37,57,2,4,36,5,136,51,6,,5,,3,,1,,3,4,,,,
561479,3,1285,692,94,55,56,62,17,6,74,9,188,82,11,,21,,1,,,7,5,2,1,,1,
561479,2,334,163,17,4,28,8,2,5,16,8,57,7,6,,4,,1,,,,,,,,,
561479,1,155,95,4,1,7,14,2,,9,7,24,19,,1,6,,,,,,,,1,,,
561495,6,122,75,8,7,8,2,,,8,,28,7,,,3,,,,,1,3,,,,,
561495,5,163,94,5,1,9,7,2,,10,6,42,7,,,2,,,,,2,,,1,,,
561495,4,488,312,53,11,35,15,3,1,31,9,113,24,5,,5,,,,,6,,1,,,,
561495,3,1064,704,96,51,59,42,8,4,107,45,209,57,1,,11,1,1,,1,4,1,3,1,1,1,
561495,2,1098,616,72,41,49,53,10,6,67,23,193,69,11,2,9,,1,,,4,,2,3,1,,
561495,1,1368,659,50,51,71,42,11,8,70,15,225,95,6,1,9,1,,,,,2,,1,1,,
561533,3,117,64,7,3,4,10,,1,5,6,15,7,1,,2,,,,1,,1,1,,,,
561533,2,157,83,11,4,6,11,2,,5,2,29,8,,,4,,,,,,,,,,1,
561533,1,1143,645,49,20,77,61,6,6,57,26,204,93,6,2,20,2,1,,4,6,1,1,,,1,2
561541,1,518,322,10,22,56,38,4,5,26,3,113,40,,,2,1,,,,1,,,,1,,
561584,1,423,204,11,14,21,23,2,5,10,9,75,24,3,,3,,,,,1,2,,,,1,
561592,1,576,396,52,19,40,27,8,3,35,12,123,63,3,1,6,1,,,,,,2,1,,,
561606,1,546,324,24,20,34,50,2,1,31,7,100,38,3,,9,,,,,2,,3,,,,
561614,1,204,101,7,9,23,16,3,1,10,1,13,12,5,,,,,,,,,,,,1,
561622,1,136,94,8,4,30,12,1,,8,3,16,9,1,,1,,1,,,,,,,,,
561631,1,1196,618,45,48,95,40,4,10,63,12,215,58,2,,13,4,2,,1,,2,1,1,2,,
561631,7,108,52,6,2,10,5,2,,6,1,9,4,1,,2,,1,,,,1,,1,,1,
561631,6,135,81,8,10,6,3,1,1,7,4,27,7,,,6,,,,,,,1,,,,
561631,5,106,73,4,4,9,8,,,9,4,25,8,1,,1,,,,,,,,,,,
561631,4,99,56,4,4,10,8,,,6,2,5,8,3,,3,2,,,,1,,,,,,
561631,3,203,126,10,1,11,9,,,19,7,48,12,,,3,,,,,3,1,,,,2,
561631,2,1054,646,37,35,77,74,6,4,53,17,260,60,4,,2,,2,,,5,4,1,,,5,
561657,1,85,65,,2,10,6,,,5,,31,9,,,2,,,,,,,,,,,
561665,1,672,336,14,25,37,22,2,1,32,8,128,44,6,,6,1,2,,,3,1,2,,,2,
561681,5,715,407,15,31,63,35,3,5,31,9,140,47,8,,4,3,1,,3,,3,4,2,,,
561681,4,397,190,10,13,17,17,2,4,22,4,68,24,4,,,3,,,,1,,,1,,,
561681,3,860,396,32,30,44,34,9,,38,13,118,37,12,,13,,1,,1,5,5,1,,1,1,1
561681,2,824,455,41,35,52,33,3,3,30,7,168,50,13,,8,1,,,,1,3,3,2,,,2
561681,1,342,167,12,10,42,14,1,2,9,6,39,24,5,,1,1,,,,,1,,,,,
561720,2,115,56,9,3,5,6,1,1,4,,23,3,1,,,,,,,,,,,,,
561720,1,515,268,16,13,26,37,5,3,26,7,85,37,3,,2,,,,,1,4,1,1,,,1
561738,1,158,122,13,4,23,9,3,,18,11,34,2,,,2,,,,,1,1,1,,,,
561746,1,482,276,15,19,43,45,1,5,20,2,95,20,,1,,1,,2,,,5,2,,,,
561827,2,71,44,5,1,6,2,,,4,2,17,5,1,,1,,,,,,,,,,,
561827,1,197,133,15,9,17,18,,,9,2,38,21,1,,,,1,1,1,,,,,,,
561835,6,196,120,11,3,15,18,2,1,4,1,28,25,3,,5,,,1,1,,,1,,1,,
561835,5,918,500,27,43,39,60,10,3,62,14,158,62,5,1,7,2,,,,2,2,1,,2,,
561835,4,1294,586,45,37,52,66,6,3,59,14,185,84,8,,10,,1,1,1,5,1,3,3,2,,
561835,3,935,521,29,27,45,48,3,8,57,11,222,53,10,,1,3,1,,,,2,,,1,,
561835,2,874,448,28,33,31,45,5,3,27,6,187,58,7,2,4,1,1,,1,1,2,2,1,,,3
561835,1,987,515,22,26,54,54,6,4,46,11,204,75,4,,3,1,1,,,1,1,1,,,1,
561851,1,249,177,14,11,27,37,,1,10,2,47,21,,,3,,,,,,,3,1,,,
561860,13,637,381,42,20,48,25,3,2,42,19,129,31,10,1,4,,1,1,,2,,,1,,,
561860,12,615,337,29,30,59,20,9,3,39,13,77,36,12,,1,,2,,,2,1,1,,1,1,1
561860,11,563,387,34,21,61,20,10,3,32,24,126,38,4,,2,2,,,1,3,4,1,1,,,
561860,10,522,320,12,19,51,23,12,1,29,14,104,33,3,1,3,5,,,,3,4,1,,,,2
561860,9,477,306,22,22,46,30,5,3,41,9,87,20,5,2,4,2,,1,1,2,3,1,,,,
561860,8,651,368,18,29,45,27,1,2,27,5,154,46,4,,1,2,,,,1,1,,1,2,2,
561860,7,736,496,66,27,80,22,4,3,49,16,163,46,6,,6,,,,1,3,2,,1,1,,
561860,6,643,395,31,36,62,29,4,3,38,15,120,30,9,,6,3,1,,,1,2,1,2,,2,
561860,5,609,305,29,14,42,28,5,4,18,14,97,45,4,1,1,1,,,,,,1,,,1,
561860,15,759,480,35,27,67,34,7,4,45,33,144,66,3,1,5,3,1,,1,3,,1,,,,
561860,14,760,484,43,36,68,27,2,3,46,17,162,45,8,1,5,1,1,1,1,5,3,1,2,1,5,
561860,2,857,335,27,22,51,22,4,1,36,10,93,46,6,,4,3,3,,1,1,4,,,,,1
561860,1,509,305,14,13,47,23,,5,35,9,109,38,2,,4,,,,1,2,1,1,,1,,
561860,4,665,407,49,25,58,22,8,1,37,18,115,56,2,,6,,1,1,,5,,1,,,1,1
561860,3,688,361,35,23,58,17,4,,38,13,94,59,9,,1,,,,,3,2,2,1,,2,
561878,1,641,401,23,18,113,39,5,13,35,3,113,33,3,,,,,,,1,,,,,2,
561886,1,260,178,11,9,25,27,3,2,8,1,54,27,,,9,,,,,,,2,,,,
561894,1,493,337,45,13,67,10,1,3,30,14,93,38,2,3,6,,,,2,4,2,,,,3,1
561959,1,327,218,13,9,61,9,1,1,24,11,56,27,,,4,1,,,,,,,,,1,
561983,1,608,325,29,23,19,24,6,3,22,2,140,35,9,1,6,1,,,,2,1,,,,1,1
561991,1,360,241,18,11,65,12,2,4,15,14,59,33,8,,,,,,,,,,,,,
562017,3,781,252,12,10,11,77,1,4,8,7,79,30,6,1,1,1,,,,,,2,,1,,1
562017,2,511,199,12,21,5,43,,1,14,,52,42,1,1,2,,1,,,1,,2,1,,,
562017,1,241,116,11,5,10,20,,,11,4,34,13,,1,,1,,,1,1,,2,,,2,
562025,1,1242,707,63,25,120,35,4,1,52,26,269,88,2,1,7,1,4,,2,4,2,,,1,,
562050,1,640,390,44,15,52,32,7,4,46,19,116,29,3,2,10,3,,1,,2,4,1,,,,
562076,1,584,369,45,22,46,23,4,1,41,23,110,30,7,,9,,,,,4,,,2,1,,1
562092,3,1120,702,47,46,42,75,12,14,98,22,207,62,11,3,6,15,3,2,5,6,8,6,2,,7,3
562092,2,1370,605,41,38,55,74,7,9,43,11,227,80,7,,2,1,,,2,4,1,2,,,1,
562092,1,943,483,33,28,70,36,5,2,33,6,182,66,5,1,4,1,,1,1,6,1,1,,,1,
562106,2,240,146,12,9,14,7,,1,7,3,62,22,4,,4,,,1,,,,,,,,
562106,1,573,301,33,14,32,43,2,4,27,6,96,36,3,,4,1,,,,,,,,,,
562114,1,261,128,12,5,14,10,6,2,8,4,36,25,2,,2,2,,,,,,,,,,
562131,1,541,347,31,15,69,30,7,1,39,9,83,46,2,,6,1,,1,,3,3,,,1,,
562173,1,158,96,4,3,22,10,4,1,6,2,34,6,2,1,,,,,,,1,,,,,
562203,1,159,99,10,5,14,8,,1,8,1,36,11,4,,,,,,,1,,,,,,
562220,1,540,282,21,11,28,26,3,2,14,8,103,46,3,,2,,,1,2,4,2,1,2,,2,1
562238,1,81,50,1,11,3,7,,,6,,12,10,,,,,,,,,,,,,,
562246,1,569,339,39,15,35,26,4,3,30,14,105,50,6,,7,,,,,1,2,1,1,,,
562262,3,402,140,1,5,45,26,,2,7,2,29,16,1,,,1,,,,1,1,1,2,,,
562262,2,805,503,22,24,137,52,2,,37,18,141,51,9,,7,1,,,,2,,,,,,
562262,1,1060,590,34,31,137,54,4,2,37,20,163,82,6,,3,2,1,,1,4,2,5,1,,1,
562297,3,124,40,3,1,1,8,1,,3,,13,8,2,,,,,,,,,,,,,
562297,2,696,360,41,26,41,40,2,5,29,12,104,37,3,,11,2,,,1,1,4,,,,1,
562297,4,143,69,5,1,2,22,2,,9,1,21,3,,,3,,,,,,,,,,,
562297,1,615,290,23,18,47,45,9,,19,6,72,34,4,,3,1,1,,,4,,2,,,1,1
563510,15,788,499,73,17,38,20,4,2,85,28,124,86,7,,6,4,,,,3,,1,,1,,
563510,14,753,439,58,22,33,9,7,2,87,20,122,57,8,,5,,,,1,2,2,3,,,1,
563510,13,689,481,63,26,40,27,6,3,70,23,167,35,8,,5,1,1,,,3,,,,,1,2
563510,12,718,442,65,30,34,20,8,4,63,20,143,34,6,1,9,,,,,4,1,,,,,
563510,11,684,405,56,38,12,29,5,2,51,14,133,42,6,,7,,,,,1,5,1,,1,2,
563510,10,598,405,47,28,41,25,4,2,47,18,144,35,8,,4,1,,,,,,,,,1,
563510,9,566,332,39,19,18,19,7,,59,14,103,45,1,,6,,,,,,,,1,,1,
563510,8,686,335,30,29,16,28,2,8,47,8,101,50,4,,4,1,,,1,3,2,1,,,,
563510,7,817,535,76,21,52,12,10,4,88,27,145,61,13,2,9,,,,,12,1,1,,1,,
563510,6,776,505,58,12,44,22,4,5,100,21,144,71,4,,5,2,2,,2,6,1,,1,1,,
563510,5,812,411,72,13,34,22,7,5,62,19,102,53,12,,4,,,,,2,2,,,,2,
563510,4,612,308,26,35,14,20,1,1,43,11,100,45,4,2,3,,,,,2,1,,,,,
563510,3,725,386,58,35,26,27,4,4,39,10,108,47,7,,8,,,,,7,4,,,,1,1
563510,2,811,431,77,30,40,13,5,2,73,31,100,35,6,,10,2,,,,5,2,,,,,
563510,1,1910,338,64,15,24,16,7,1,76,18,51,50,8,1,3,,,,,2,2,,,,,
563510,46,657,448,66,17,35,20,1,2,66,20,137,50,11,,6,1,,2,,10,1,,2,,1,
563510,45,621,447,66,18,39,15,5,3,76,39,133,28,6,,9,,1,1,1,,3,2,1,,1,
563510,44,598,388,65,21,36,24,5,5,53,15,103,42,6,1,3,3,,1,,2,1,2,,,,
563510,31,482,339,39,23,29,20,2,1,71,23,77,29,6,,5,,,,,6,6,,,,,2
563510,30,613,409,48,20,33,32,3,2,49,26,111,60,7,,5,1,1,,1,3,4,1,,,1,1
563510,29,916,572,69,31,61,18,7,9,72,29,192,51,13,1,7,1,1,,,6,,,3,,,1
563510,28,759,425,37,38,21,29,6,3,53,11,167,40,8,,4,1,,,1,1,1,,1,,2,1
563510,27,614,376,41,29,27,27,3,5,47,19,120,37,5,1,9,1,1,,,2,1,1,,,,
563510,26,676,464,63,22,28,20,9,7,65,11,158,63,9,,7,,,,,1,,,1,,,
563510,25,848,520,62,33,34,29,9,2,101,31,139,52,7,2,5,,1,,,5,,4,1,1,1,1
563510,24,833,546,84,25,45,46,6,5,76,20,143,63,12,1,12,,,,,4,1,1,,,2,
563510,19,575,417,73,24,34,10,3,3,71,22,131,29,6,,5,1,,,1,3,,,,,1,
563510,18,681,360,32,27,22,23,7,2,53,10,108,57,4,,4,,,1,2,3,1,2,1,,,1
563510,23,765,375,50,16,28,13,4,4,62,22,118,33,6,1,9,1,2,1,,2,1,1,1,,,
563510,22,880,541,77,23,50,31,6,8,100,25,129,62,14,1,3,1,,1,,9,,1,,,,
563510,21,615,315,30,18,15,18,,1,67,9,113,30,6,,2,2,,1,,2,,,,,1,
563510,43,218,140,27,,17,2,2,2,22,9,35,19,2,,1,,,,1,,1,,,,,
563510,42,1018,581,61,23,47,34,16,2,104,32,138,92,10,1,7,1,,3,2,2,1,2,,,1,2
563510,20,755,495,54,50,26,40,6,4,72,19,152,44,8,,7,2,1,,1,5,,1,,1,1,1
563510,17,830,517,62,32,35,21,7,5,72,36,168,52,16,1,1,1,,,,,2,3,1,2,,
563510,16,721,466,53,29,45,23,5,5,71,18,137,52,7,,12,1,,,1,2,2,1,1,,1,
563510,41,859,587,78,26,33,25,8,7,78,29,204,51,5,,6,2,3,3,3,5,6,8,1,2,2,2
563510,40,928,533,62,31,30,40,8,1,77,18,172,62,10,3,8,3,1,,1,3,,,1,,2,
563510,39,696,397,34,23,32,28,7,3,58,17,121,58,4,,2,2,,,1,4,1,,1,,,1
563510,38,567,352,43,17,29,14,12,3,56,21,104,38,4,,4,,1,1,,1,2,1,,,1,
563510,37,723,408,50,33,25,17,3,3,57,11,147,42,4,,7,,1,1,,4,3,,,,,
563510,49,713,476,67,19,56,10,11,1,67,29,134,54,9,1,5,2,,,2,3,1,1,,1,2,1
563510,48,687,421,46,24,36,12,6,4,67,29,118,47,7,,19,1,,,1,3,1,,,,,
563510,47,817,534,82,21,31,37,9,4,76,37,154,60,7,,7,1,,,1,3,2,,,1,1,
563510,36,677,450,64,21,35,23,7,4,67,17,144,45,13,,8,,,,,,,,1,1,,
563510,35,589,377,45,32,19,16,7,3,54,27,108,44,11,,7,,,,,1,1,1,,,,1
563510,34,915,627,105,19,50,22,5,1,99,31,199,57,11,1,17,,,,,,8,,1,,,1
563510,33,628,381,38,22,21,30,5,1,47,10,131,62,6,,4,,,,,3,1,,,,,
563510,32,624,405,51,24,23,33,13,6,42,25,126,42,4,,13,2,,,,1,,,,,,
563528,1,277,210,37,9,12,11,9,1,40,16,45,21,,,6,,,,,1,1,,,,1,
563536,1,304,233,66,4,32,8,4,,38,17,42,9,3,,5,,,,,2,,,2,,1,
563552,3,557,250,13,9,41,23,3,4,21,11,72,38,,,3,2,1,,1,1,5,1,,,,1
563552,2,1192,655,35,25,90,63,6,10,86,20,206,85,7,,11,,,,,4,2,1,3,1,,
563552,1,793,437,20,21,66,43,2,9,56,11,132,59,4,,7,,,2,,4,1,,,,,
563561,1,479,302,37,19,29,25,1,3,39,3,92,33,3,,9,,1,,,2,2,2,,2,,
563579,3,160,107,12,1,15,1,2,1,8,9,49,4,3,,1,,,,,,,,1,,,
563579,2,275,198,16,12,46,11,5,4,21,5,52,17,4,,3,1,,,,,1,,,,,
563579,1,282,195,28,17,32,8,1,4,21,11,57,8,6,,1,1,,,,,,,,,,
563595,1,1076,649,82,19,69,20,7,3,109,41,198,64,14,1,7,1,,,1,4,,2,1,1,3,2
563609,2,165,98,5,7,13,7,1,1,14,6,20,12,2,,3,1,2,1,1,2,,,,,,
563609,1,713,471,57,21,80,28,8,5,59,20,123,42,9,1,14,2,1,,,,1,,,,,
563617,1,168,106,6,,15,9,,5,6,4,32,19,1,,3,,,,,,3,,1,,2,
563633,1,772,462,72,28,40,35,2,6,67,23,136,30,5,,8,,2,,1,3,2,,2,,,
563641,3,111,84,9,4,13,1,1,,12,6,27,8,1,,,,,2,,,,,,,,
563641,2,190,133,11,16,18,9,3,,24,7,23,9,6,,3,,,,,1,1,,,,2,
563641,1,549,397,64,23,47,10,1,1,64,26,107,35,3,,12,,,1,,,1,,,,2,
563668,3,200,140,23,2,25,6,1,,19,7,35,10,3,1,4,1,,,,,,3,,,,
563668,2,329,201,24,9,31,24,1,4,30,10,40,16,5,1,4,1,,,,,,1,,,,
563668,1,338,211,33,2,34,17,4,2,1,11,41,14,4,,5,,,,1,6,,,,3,,33
563676,1,235,146,17,15,23,8,3,5,11,11,29,20,,,3,,1,,,,,,,,,
563684,1,189,134,20,9,20,8,,1,19,8,34,6,4,,4,,,,,,,,,,1,
563692,3,131,65,15,3,6,,3,1,8,11,13,4,,1,,,,,,,,,,,,
563692,2,102,70,15,1,5,1,,,11,9,11,13,1,,2,,,,,,,1,,,,
563692,1,1279,794,77,38,86,58,9,12,113,25,231,111,12,,13,1,,,,3,4,,1,,,
563706,3,139,102,3,4,15,9,1,,17,3,27,13,1,,4,2,1,1,,,1,,,,,
563706,2,127,87,19,3,12,4,,3,16,4,15,9,1,,1,,,,,,,,,,,
563706,1,736,548,107,16,114,22,13,5,61,47,111,27,11,,6,,,,,5,,1,,,1,1
563714,1,456,322,38,15,30,18,3,2,57,12,94,36,13,,,,,,1,1,,,1,,1,
563731,1,645,413,66,21,19,24,5,1,70,17,117,44,7,,10,1,1,,,5,,2,,,2,1
563749,4,447,307,35,6,26,37,3,1,52,20,77,41,2,,1,1,,2,,1,1,,,,,1
563749,3,415,260,30,10,26,29,1,5,37,2,81,28,4,1,3,,,,,1,,1,,,1,
563749,2,213,133,15,13,11,12,,,21,3,30,19,3,,3,,1,,,2,,,,,,
563749,1,427,308,33,17,43,34,6,3,47,14,78,24,3,1,1,,,,1,1,1,,,,,1
563757,2,413,277,29,10,30,17,4,8,29,9,80,39,6,1,3,1,1,,1,4,1,3,,,1,
563757,1,420,220,28,16,31,11,,6,27,5,50,39,1,,2,,,,,3,1,,,,,
563773,1,130,98,20,5,9,12,1,,14,5,20,9,1,,,,,,,,2,,,,,
563781,1,670,455,47,14,79,29,5,5,71,17,124,36,12,2,6,2,,1,1,1,1,,,,1,1
563790,1,2109,1396,202,80,162,61,22,21,184,66,392,142,20,,12,2,1,,,13,3,4,3,,1,5
563803,1,455,327,24,15,49,17,7,1,41,15,109,37,3,,4,,,3,,1,,,1,,,
563811,3,344,231,39,13,19,4,2,5,32,9,57,30,4,,8,,,,,7,,1,,,,1
563811,2,936,598,101,26,36,35,4,8,90,19,181,64,8,,16,,2,1,,3,,,,2,1,1
563811,1,1214,707,135,34,50,46,6,12,101,25,174,88,11,1,10,1,,,3,4,1,1,1,,3,
563811,4,417,186,15,9,16,17,1,1,15,2,65,34,1,,3,,,,,4,1,,1,,1,
563820,7,64,40,14,,1,3,,,5,2,13,2,,,,,,,,,,,,,,
563820,6,202,128,12,5,15,13,3,,18,2,32,24,1,1,1,,,,,,,,,,1,
563820,5,1238,762,84,45,71,68,10,7,87,29,217,88,12,2,10,,2,2,1,19,2,2,1,,,3
563820,4,1247,486,36,43,26,42,7,3,64,11,134,89,9,1,7,,1,,,6,2,,3,,2,
563820,3,931,521,38,42,36,56,2,7,28,11,189,86,6,,9,3,,,,3,4,1,,,,
563820,2,973,511,44,34,33,34,4,6,49,19,189,75,10,,9,,,,,1,2,1,,,,1
563820,1,414,245,20,13,15,30,3,2,31,4,69,43,1,,3,2,,,,,8,,,,,1
563838,3,568,345,40,21,34,34,4,6,31,12,108,37,2,,1,2,,,1,6,1,1,1,,2,1
563838,2,907,449,54,15,35,42,5,2,54,14,137,61,4,,4,3,,,,12,4,2,,,1,
563838,1,717,359,29,21,44,31,,1,35,13,127,41,1,,4,1,,,,8,,2,1,,,
563846,1,112,70,5,8,16,8,,,6,3,16,4,,,2,,,,,1,1,,,,,
563854,1,723,492,60,23,63,31,5,7,59,35,123,53,3,,20,1,,,1,5,1,,,1,1,
563862,3,35,25,2,3,,2,,,8,1,4,4,,,,,,,,1,,,,,,
563862,2,29,21,4,,2,2,,1,4,1,3,3,,,,,,,,1,,,,,,
563862,1,354,253,24,10,38,26,1,3,44,9,60,20,3,,,1,,,,7,3,,2,1,1,
563871,2,1053,607,52,36,68,33,7,6,56,43,199,80,6,,12,,,,1,2,1,2,1,1,1,
563871,1,792,483,71,17,82,22,2,3,60,43,96,57,2,,17,,,,,6,3,,,1,1,
563871,9,277,190,16,12,31,13,3,2,32,10,41,16,3,1,,,,2,,3,1,1,3,,,
563871,8,262,188,21,7,31,13,,3,22,6,51,18,,1,8,,,,,1,1,,3,,2,
563871,7,209,162,23,6,26,8,1,4,20,12,38,19,2,,,,,,,2,,1,,,,
563871,6,91,57,6,,7,6,2,2,14,5,7,5,,,,3,,,,,,,,,,
563871,5,272,177,12,6,22,11,1,1,33,8,50,17,1,,10,,,,2,1,,1,1,,,
563871,4,808,447,43,35,44,27,4,4,64,21,126,47,10,,10,,1,1,,5,1,,2,,1,1
563871,3,1088,673,65,40,102,58,6,3,95,44,160,64,9,,15,,2,,1,4,2,2,,,1,
563901,4,118,72,3,,11,4,,,8,1,24,12,,,4,,1,,,,,,1,2,1,
563901,3,190,131,7,11,18,10,2,,17,6,33,18,1,,3,1,,,,4,,,,,,
563901,2,142,82,6,8,12,1,1,,10,1,37,3,3,,,,,,,,,,,,,
563901,1,268,164,14,18,30,8,2,1,16,1,43,18,3,,4,,,,,1,3,2,,,,
563919,1,785,518,24,9,138,49,3,4,34,12,163,59,12,1,1,,7,1,,1,,,,,,
563935,2,232,80,6,9,16,12,,,3,1,25,6,,,,,,,,,2,,,,,
563935,1,462,227,9,18,24,32,,5,11,5,74,39,3,1,,1,,,,4,,1,,,,
563943,1,90,59,6,2,10,3,,,4,2,17,15,,,,,,,,,,,,,,
563960,6,47,30,2,2,7,1,,,2,2,9,2,3,,,,,,,,,,,,,
563960,5,232,142,15,10,22,5,3,,15,1,35,26,2,,6,,1,,,,,,,,1,
563960,4,83,47,3,4,8,4,2,,7,2,10,4,,,3,,,,,,,,,,,
563960,3,80,44,2,,6,4,,,7,2,18,5,,,,,,,,,,,,,,
563960,2,884,573,47,48,76,57,12,2,59,11,156,67,12,1,12,,,,3,,2,3,3,1,1,
563960,1,801,495,48,14,65,49,3,2,52,11,154,53,18,,17,,2,,1,2,1,1,,1,1,
563994,1,415,227,19,8,34,17,2,1,15,5,82,40,1,1,1,,,,,,1,,,,,
564028,1,808,508,59,33,52,39,3,6,30,12,192,56,6,,9,2,,,2,3,,2,1,,1,
564028,6,1033,619,64,44,76,48,7,2,44,18,193,104,4,,3,1,,,1,2,2,5,,,1,
564028,5,715,439,55,45,46,34,7,,36,12,134,47,3,,13,,,,,,1,3,3,,,
564028,4,1262,749,107,50,70,61,5,6,68,24,259,71,4,,9,1,,,,6,4,3,,1,,
564028,3,1318,560,74,27,57,64,7,3,35,21,172,57,8,,17,,1,,1,5,2,7,2,,,
564028,2,832,431,50,43,45,24,10,8,24,11,140,58,5,,5,1,1,,,1,,2,2,,1,
564036,1,385,237,8,15,41,24,1,,9,7,92,34,1,,1,,,,,1,,2,,,1,
564044,4,224,145,10,4,33,11,2,1,11,5,40,12,6,,6,,,,,,1,1,2,,,
564044,3,430,267,20,25,50,18,5,2,18,9,86,25,2,,3,1,,,,,,3,,,,
564044,2,726,384,24,26,81,21,9,1,22,8,121,49,5,1,8,2,1,,,1,2,1,,,1,
564044,1,844,468,48,33,78,29,3,5,42,17,136,54,2,1,9,1,1,,,2,1,,2,,4,
564052,1,193,147,13,13,16,21,5,1,13,3,33,20,1,,6,,,,,,2,,,,,
564061,2,1109,727,81,49,70,37,12,9,98,33,231,77,7,,11,,2,,,7,,3,,,,
564061,1,1142,681,43,37,74,59,11,7,75,15,250,83,4,,13,,,,,3,2,2,,1,2,
564079,1,184,99,2,8,26,14,1,1,6,3,24,9,,1,,,,1,,,,2,1,,,
564095,8,362,222,11,10,45,21,2,,12,3,71,33,6,,2,,1,,,2,,2,,,,1
564095,7,212,109,7,,24,7,1,1,16,1,40,8,3,,,,,,,1,,,,,,
564095,6,242,146,10,6,55,19,1,2,9,,27,12,3,,2,,,,,,,,,,,
564095,5,905,507,25,8,161,35,5,2,17,4,166,71,3,,5,1,1,,,1,1,1,,,,
564095,4,790,507,26,22,169,35,4,6,23,2,142,66,2,1,2,2,,1,,3,,1,,,,
564095,9,180,108,4,1,29,8,,,8,3,31,15,2,,,,,,1,2,,3,,,,1
564095,3,1077,506,23,24,148,49,2,2,27,2,150,61,2,,4,1,1,,1,4,2,1,2,,,
564095,2,1019,630,26,31,170,50,7,1,30,12,213,71,2,,6,,,,1,8,1,1,,,,
564095,1,1300,697,32,34,181,46,3,7,55,9,209,90,7,,8,,1,,1,8,3,2,,1,,
564109,1,782,464,18,15,142,33,3,3,25,9,146,55,6,1,3,,,,,3,,,1,,,1
564117,5,292,176,13,9,32,13,,1,20,3,49,28,1,,,1,2,,1,1,1,1,,,,
564117,4,1007,631,31,34,151,33,5,8,62,10,211,59,9,1,4,3,1,,3,3,2,1,,,,
564117,3,1016,650,43,34,128,50,2,8,65,21,184,86,6,1,10,4,,,1,1,,3,2,,,1
564117,2,1340,625,45,31,139,33,6,5,51,16,190,74,15,,7,,6,,,1,1,2,2,1,,
564117,1,1258,734,63,44,175,49,4,2,65,6,209,86,5,1,6,2,7,1,,3,3,2,1,,,
564133,1,527,274,15,7,109,31,6,,22,6,48,19,3,,3,,,,,4,,,,,1,
564141,1,285,192,11,16,41,5,2,2,21,2,53,26,6,,,1,,,,1,1,3,,,,1
564168,1,390,232,19,13,45,17,3,4,13,11,60,41,2,,4,,,,,,,,,,,
564176,1,272,215,20,7,37,4,3,1,26,16,59,31,4,,2,1,,,,3,,1,,,,
564184,2,213,121,9,4,11,12,,,10,1,48,22,,,1,1,,,,2,,,,,,
564184,1,460,276,34,16,38,16,7,1,20,7,98,30,5,,1,,,,,2,,,,,,1
564206,1,423,268,22,19,23,22,2,1,25,9,93,33,2,2,12,,,,,2,,1,,,,
564231,1,1170,733,87,38,111,62,10,1,68,43,179,99,7,,11,5,1,2,,4,1,,1,,2,1
564265,4,132,80,10,2,8,6,,1,11,4,27,8,2,,,1,,,,,,,,,,
564265,3,567,308,28,21,33,43,4,2,18,5,109,30,3,,5,,2,,1,3,,1,,,,
564265,2,1152,432,28,36,47,61,3,7,23,5,146,65,1,,2,3,,,,2,3,,,,,
564265,1,1108,557,56,39,64,52,6,3,31,10,195,70,9,,9,1,,,,6,1,4,1,,,
564281,1,564,360,18,14,47,19,12,6,39,31,111,46,4,,5,,1,2,,2,,1,,,2,
564290,1,920,591,37,73,57,49,6,2,51,13,204,64,13,,10,,3,,1,6,1,,,,1,
564303,1,536,431,45,28,54,31,7,2,34,26,118,52,14,2,6,4,1,1,,2,3,,,,1,
564311,1,223,106,9,3,17,19,1,2,4,1,33,8,4,,1,,,,,,1,3,,,,
564354,1,1030,645,68,40,69,45,5,7,60,22,214,95,4,1,6,,,,,2,2,4,1,,,
564371,3,520,265,24,15,35,21,7,1,15,16,86,31,4,,3,1,1,,,,3,,,,2,
564371,2,691,382,19,24,46,36,2,1,28,9,137,64,4,,7,,1,,,1,2,1,,,,
564371,1,1077,548,28,40,73,56,5,,37,8,187,76,5,,11,6,,,,,1,7,2,1,5,
564397,2,141,106,3,3,21,14,3,2,12,4,23,13,3,,2,,2,,,1,,,,,,
564397,1,495,280,23,8,53,31,1,5,32,14,70,29,2,1,3,1,,1,,,,4,,,,2
564401,1,128,83,17,4,7,,2,,12,6,16,10,8,,,,,,,,1,,,,,
564427,1,769,545,59,11,85,26,7,7,78,34,165,41,9,,16,,,2,,2,,,1,,2,
564435,1,344,237,28,22,30,10,1,2,32,10,51,41,3,,,1,,,,,5,,,,1,
564443,1,244,158,19,14,29,3,1,,9,4,56,15,4,,2,,,,,1,,1,,,,
564451,2,81,46,2,2,17,1,2,,4,1,9,8,,,,,,,,,,,,,,
564451,1,86,60,14,1,17,,,,9,4,12,1,,,1,,,,1,,,,,,,
564460,1,850,625,99,30,102,20,10,2,72,49,149,54,12,,12,,,,,5,3,2,1,,2,1
564494,5,490,231,9,11,38,29,1,1,14,2,92,31,,,2,,,,,1,,,,,,
564494,4,108,68,6,6,7,12,,,2,,21,14,,,,,,,,,,,,,,
564494,3,124,73,5,11,12,7,1,,3,,21,10,,,1,,,,1,,,1,,,,
564494,2,240,138,18,14,20,26,,,8,1,37,12,1,,1,,,,,,,,,,,
564494,1,140,81,2,,14,22,,3,4,2,26,6,,,1,,1,,,,,,,,,
564516,1,257,193,20,8,24,12,2,10,28,8,53,16,5,,2,1,2,,,1,,,,,1,
564532,2,79,50,3,4,2,8,,,9,,15,6,2,,,,,,,,,,,,1,
564532,1,386,239,19,18,18,22,2,2,24,7,94,28,,,4,,,,1,,,,,,,
564541,1,228,126,8,10,18,8,1,,12,4,44,9,,,6,,,,,2,,2,,1,1,
573400,1,132,82,9,4,26,7,,2,7,,20,4,,,3,,,,,,,,,,,
573418,1,477,360,43,14,65,28,4,1,47,9,78,52,2,,12,,1,,,,1,1,1,1,,
574201,2,81,60,2,2,10,10,1,1,4,1,21,4,,,3,,,,,,,,1,,,
574201,1,112,81,14,3,12,5,1,,5,5,26,5,1,,3,,,,,1,,,,,,
576964,7,727,483,39,27,67,38,8,8,43,14,164,56,8,1,7,,,,,2,,,,,1,
576964,6,606,310,30,22,31,33,5,4,22,4,104,31,6,,12,1,,,1,3,,,,1,,
576964,5,695,414,39,25,54,57,1,1,44,8,105,42,11,1,12,2,,1,,5,1,3,1,1,,
576964,4,636,458,74,21,78,22,4,3,34,20,120,46,14,2,12,1,,,,2,1,,,1,3,
576964,3,662,254,41,10,28,15,1,1,36,7,67,28,7,,11,,,,,1,,1,,,,
576964,10,846,541,42,28,68,60,4,4,56,18,169,57,16,,12,,1,1,2,1,,1,,,,1
576964,9,995,586,46,42,104,46,7,9,64,7,159,50,15,2,20,,,4,,1,5,2,2,,1,
576964,8,714,498,43,34,82,45,12,1,33,7,152,58,9,1,14,,,3,,2,1,1,,,,
576964,2,536,334,53,20,65,21,6,3,40,11,60,25,13,1,9,,,1,,4,,1,,,1,
576964,1,411,261,32,8,49,19,3,2,24,13,63,27,6,,8,1,,,,2,,1,,1,1,1
576972,1,221,163,14,12,22,4,2,,25,4,52,14,4,1,6,,,,,,2,,,,1,
576981,4,161,122,4,4,25,12,3,,6,3,27,9,5,,16,3,,,,2,1,2,,,,
576981,3,156,113,21,5,14,11,3,2,16,3,12,14,2,,4,1,2,1,,,,1,,,,1
576981,2,266,206,17,7,27,10,6,3,23,5,57,34,2,,13,,,,,1,,,,,1,
576981,1,317,232,43,10,33,4,,,31,17,41,27,,1,14,,,,,2,2,1,5,,1,
576999,1,687,443,25,21,94,30,7,6,47,8,120,60,10,,9,,,,,2,2,1,,,1,
577006,1,469,336,29,14,47,24,1,5,26,9,102,34,5,12,20,,,,,2,2,,1,,1,2
577014,1,201,144,10,15,20,8,1,,29,3,43,9,2,,3,,,1,,,,,,,,
577031,1,170,114,9,9,20,10,2,1,14,2,21,13,,,11,,,1,,,,,1,,,
577049,1,97,66,5,2,15,5,2,3,8,,21,3,2,,,,,,,,,,,,,
577057,1,458,298,28,11,63,16,3,3,19,7,91,26,6,,20,1,1,,1,1,1,,,,,
577073,1,536,355,23,13,85,44,2,3,46,11,60,38,6,2,13,2,,4,,,,,,2,1,
577081,1,1339,987,227,46,152,51,10,10,139,59,184,60,17,2,21,1,1,,,4,2,,,,1,
577111,1,71,47,,7,4,4,,1,7,,15,6,,,1,1,,,,,,1,,,,
577120,2,568,372,44,18,61,9,4,9,40,7,108,33,6,,26,,,1,,,1,,1,,3,1
577120,1,940,672,63,43,92,54,14,13,88,17,171,62,15,2,31,1,1,,,2,1,1,1,,,
577146,1,488,346,45,18,56,14,4,5,36,19,98,33,3,,9,,1,,1,2,,,,,2,
577154,2,128,98,14,3,16,6,2,1,8,4,33,7,,,3,,,1,,,,,,,,
577154,1,655,439,68,27,94,29,,4,44,12,90,43,6,4,13,,,1,,3,1,,,,,
577162,2,124,53,3,4,6,5,2,2,6,,12,10,1,1,,,,,1,,,,,,,
577162,1,1224,748,73,39,109,31,5,10,73,29,206,90,11,1,61,,1,,1,4,3,,1,,,
577162,3,61,42,13,3,2,1,1,,5,4,11,1,,,1,,,,,,,,,,,
577162,4,42,30,2,2,6,,1,2,3,1,8,1,1,,1,,,,,,1,,,,,1
577171,1,403,275,26,10,53,19,4,5,28,2,86,28,3,1,7,,,,,,,1,1,,1,
577189,3,55,40,3,,7,4,,3,5,11,3,2,,,1,,,,,,,,,,,1
577189,2,60,47,9,5,8,2,,,3,2,13,2,3,,,,,,,,,,,,,
577189,1,102,70,9,3,13,12,2,,4,3,8,9,,,5,,1,,,,1,,,,,
577197,5,360,232,27,15,23,9,4,3,16,7,67,32,1,,18,1,6,,,1,1,,,,1,
577197,4,1331,876,171,40,86,33,21,5,93,31,213,96,10,3,43,1,5,,,14,2,1,5,2,,1
577197,3,687,484,68,19,48,41,7,5,52,14,127,54,12,,24,2,4,1,,4,,1,,1,,
577197,2,977,633,62,42,63,51,14,4,77,12,182,76,8,,20,3,5,1,2,2,4,1,2,1,,1
577197,1,1055,704,104,29,82,36,11,6,56,27,191,98,8,1,43,1,3,1,2,,3,1,,,1,
577201,1,157,116,13,5,25,7,4,,14,5,35,4,,1,3,,,,,,,,,,,
577219,1,642,465,49,34,82,28,1,4,48,19,124,52,9,,7,,,,,1,2,2,1,,,2
577227,1,156,112,10,7,15,6,3,1,16,7,29,15,,,1,,,,,2,,,,,,
577235,2,260,172,14,11,30,16,4,,15,4,49,12,4,,11,,1,,,,1,,,,,
577235,1,1068,629,66,40,64,36,6,8,64,17,219,62,10,1,16,1,1,1,,2,1,7,1,,6,
577243,1,397,297,23,12,60,32,4,4,18,8,92,26,1,,11,1,,2,,,1,1,,1,,
577294,1,760,492,60,20,53,32,3,8,52,12,133,79,9,,27,1,,,,1,,,,,2,
577308,4,855,560,68,36,61,38,4,2,76,19,146,45,3,2,41,,1,2,1,3,1,3,3,2,2,1
577308,3,1192,743,81,55,93,54,9,6,105,35,192,64,8,1,30,2,1,1,,1,2,1,1,1,,
577308,2,1101,726,96,57,91,33,5,4,88,28,185,60,19,1,47,,2,1,1,3,1,,3,,1,
577308,1,958,566,82,26,63,20,7,4,88,34,158,48,5,3,18,1,2,,,1,1,1,1,,1,2
577308,7,127,78,4,7,4,5,,1,6,2,29,9,9,,1,,,1,,,,,,,,
577308,6,62,39,1,6,4,3,1,1,2,2,16,2,,,1,,,,,,,,,,,
577308,5,173,120,10,5,17,12,4,,19,8,29,10,1,,2,,1,,,1,,,,1,,
577316,4,318,239,28,15,61,6,4,2,32,14,50,17,3,,5,,,1,,,1,,,,,
577316,3,65,43,1,2,7,1,2,,1,5,11,4,,,4,1,1,,,2,,,,,1,
577316,2,433,264,31,14,37,20,4,1,26,20,60,24,6,,13,,2,,,2,1,1,,,,2
577316,1,524,393,48,16,79,22,2,6,54,23,86,34,,,8,1,1,,,4,5,2,1,,1,
577324,1,338,249,24,17,40,14,2,5,30,19,61,22,3,,5,,3,,,2,,,1,,,1
577332,1,457,323,32,21,50,16,3,,36,7,97,34,9,1,10,1,,1,,2,2,1,,,,
577341,1,526,369,34,26,40,13,4,1,58,9,111,38,8,1,18,,,4,,3,,,,,1,
577359,1,915,661,86,24,96,34,4,6,103,42,188,48,12,1,5,1,4,,,5,,,,,2,
577367,1,166,111,13,7,18,10,1,1,17,6,24,8,3,,1,,,,1,,,,,,1,
577375,2,44,31,7,1,3,3,,1,2,1,10,2,1,,,,,,,,,,,,,
577375,1,261,171,11,8,36,9,1,1,21,6,35,18,1,,20,,,,,,,,,,3,1
577391,1,194,130,10,6,19,10,2,3,11,6,39,10,3,,7,2,1,,,1,,,,,,
577405,1,971,590,33,27,83,65,,5,76,23,143,71,11,2,27,2,7,1,1,4,4,2,,1,2,
577413,1,720,500,51,36,87,21,6,8,68,27,143,26,4,,12,,,2,1,1,2,3,2,,,
577421,1,209,138,4,4,22,11,3,1,14,2,46,14,4,6,5,,,,,1,,,,,1,
577430,1,350,251,28,10,32,14,2,1,19,14,46,42,11,2,24,,,,,3,,,,1,1,1
577448,1,74,51,,4,8,1,,,2,4,26,5,,,1,,,,,,,,,,,
577456,2,871,580,84,33,94,37,4,9,53,30,109,79,12,1,28,1,1,,,3,,1,,1,,
577456,1,1423,870,112,40,122,45,6,18,106,30,211,103,19,3,32,4,2,1,1,10,1,1,,,3,
577464,1,217,159,8,5,41,6,1,4,16,7,48,7,1,2,7,1,,,1,3,1,,,,,
577472,1,1030,620,67,27,87,47,6,8,76,24,185,56,7,,14,2,1,3,1,4,,2,,,1,2
577481,1,96,76,7,4,14,2,1,,8,2,27,5,,1,3,1,,,1,,,,,,,
577499,1,806,590,86,29,99,30,6,8,49,14,145,67,6,,33,,6,,,8,,,,,4,
577529,1,533,345,21,17,48,42,6,2,39,7,108,24,4,2,17,,3,4,,1,,,,,,
577545,2,82,58,10,,10,4,,,3,,16,10,1,,1,,,,,,,1,,1,1,
577545,1,489,308,20,14,37,25,4,1,31,8,120,34,3,,10,,,,,,,,,,1,
577553,2,324,209,18,11,32,11,3,1,12,1,66,35,4,1,8,,,1,,,,4,,,1,
577553,1,1135,831,66,33,169,43,9,6,58,31,164,60,2,1,179,1,1,,1,1,4,1,,1,,
577561,1,145,106,15,6,20,4,2,2,9,,31,12,,,5,,,,,,,,,,,
577570,1,172,131,8,15,17,5,3,,26,3,28,12,2,,10,,,,,1,,,1,,,
577596,2,80,54,10,2,8,,,1,9,5,12,6,,,,,,,,,,,1,,,
577596,1,378,244,20,11,40,17,1,1,22,5,82,32,2,,8,2,,,,,,,1,,,
577600,1,97,76,7,2,8,8,,,18,1,19,7,1,,1,,,,,1,,,,,1,2
577626,6,497,297,21,19,40,23,5,1,49,17,82,18,5,1,5,1,2,,,2,1,4,1,,,
577626,5,990,695,111,31,83,32,11,5,87,72,178,45,9,,19,1,,,1,3,6,1,,,,
577626,4,806,541,90,53,90,30,7,,60,36,106,41,7,2,14,,1,,,1,1,,2,,,
577626,3,1423,741,137,26,91,19,9,5,123,88,130,62,17,2,14,1,3,1,1,3,2,3,2,,2,
577626,2,949,626,87,35,100,28,10,10,96,41,117,60,13,1,18,1,3,,2,1,,,,2,1,
577626,1,1460,969,137,64,154,60,11,6,113,78,200,89,7,,32,,7,1,,5,2,2,,,,1
577626,13,490,314,46,11,38,25,5,3,48,28,66,24,6,,5,,,,3,1,3,1,1,,,
577626,12,898,572,54,52,75,34,10,5,80,33,131,62,15,,12,,,,,5,1,1,,1,,1
577626,11,1072,772,98,59,116,30,10,4,79,49,211,78,9,,16,1,,,1,5,2,2,1,,,1
577626,10,548,343,25,24,52,15,4,3,33,24,96,43,6,,16,,,,,2,,,,,,
577626,9,856,541,35,56,64,40,1,2,57,20,177,64,10,,8,2,2,1,,1,,1,,,,
577626,8,695,398,50,33,39,27,2,5,44,36,108,35,5,1,6,,,,1,1,2,2,,,,1
577626,7,917,618,86,40,75,44,8,5,82,51,164,33,10,,13,,,,,4,,1,2,,,
577642,1,180,120,24,4,8,7,1,,11,4,27,23,1,,1,,2,,,2,2,1,2,,,
577651,1,755,474,30,23,92,43,6,6,65,13,105,55,9,,16,3,2,2,,3,,,,1,,
577669,1,315,210,34,14,26,17,2,5,28,19,36,10,4,,7,2,2,1,,2,,1,,,,
577677,1,478,352,50,16,42,39,1,4,50,8,95,31,5,,8,1,,,,,,,2,,,
577685,1,335,246,30,21,32,25,5,,19,15,69,15,7,,3,,,,,4,1,,,,,
577693,5,34,21,1,2,1,,,1,2,,6,6,,,,,,,,1,,1,,,,
577693,4,49,35,4,,4,4,,1,7,2,6,,2,,3,,,,,,1,,,,,1
577693,3,117,85,7,1,19,1,1,2,11,4,21,13,,,4,1,,,,,,,,,,
577693,2,155,106,15,6,12,4,1,1,15,4,21,11,3,1,9,,,,,2,,,,,1,
577693,1,791,586,61,26,100,43,4,10,56,27,151,53,8,2,26,,3,2,,6,,3,2,2,1,
577707,1,407,250,15,8,43,9,1,1,33,9,70,40,2,,14,,,,1,2,,,,,2,
577723,1,146,93,5,5,16,8,,1,15,3,22,13,,1,2,1,,,,1,,,,,,
