A53,A659,A720,A1114,A768,A47,A997,A998,A999,B166,B720,B53,B1470,B768,B997,B998,B999
3,3,1,4,12,0,7,0,125,5,3,9,2,20,15,2,99
45,23,26,12,22,9,38,14,417,57,35,61,16,43,40,0,354
1,8,6,8,8,7,11,8,90,11,16,9,1,13,27,0,70
2,5,11,6,22,10,8,0,288,5,8,14,3,23,32,8,259
36,26,23,11,34,22,33,9,310,37,35,63,10,44,50,0,265
9,4,14,3,11,2,9,0,235,8,20,23,2,13,15,5,201
13,9,16,6,12,3,12,0,133,16,12,21,3,18,18,4,112
2,5,6,8,10,7,14,11,138,12,25,12,6,14,28,0,104
5,10,5,6,9,1,7,12,100,25,13,4,1,13,16,0,83
6,12,8,10,27,7,14,0,197,39,17,12,6,27,22,8,150
1,10,5,0,8,9,5,0,66,14,6,3,1,8,17,4,51
5,5,2,1,9,1,10,5,59,10,3,9,2,13,11,0,49
4,11,8,1,7,4,10,0,105,34,4,1,4,11,9,1,86
5,3,7,14,22,9,13,0,121,11,5,9,1,26,25,5,112
0,6,4,12,16,3,4,5,104,11,5,1,1,19,19,0,98
13,2,8,6,7,3,1,8,91,9,5,10,1,10,16,0,88
13,12,17,5,13,1,21,10,142,24,21,28,8,25,18,0,110
12,14,21,11,31,3,31,0,234,31,19,15,16,40,24,0,212
6,15,10,3,13,6,7,0,106,29,7,4,1,14,11,1,99
14,10,23,3,12,6,14,1,212,41,19,12,4,25,16,0,178
41,29,34,6,16,3,29,15,138,62,23,67,10,21,19,0,109
119,114,93,38,88,13,88,73,906,208,111,160,56,90,81,0,826
19,6,8,2,16,6,11,1,93,13,11,17,5,16,12,0,88
16,3,19,9,21,3,17,2,230,17,34,26,5,23,17,0,198
5,12,5,6,29,4,19,0,174,35,18,15,3,32,25,1,125
7,8,5,6,20,4,14,10,82,13,11,7,4,22,12,0,87
18,3,8,1,0,0,13,0,107,13,13,13,0,13,10,0,88
12,10,18,5,21,6,15,2,177,30,28,9,7,21,22,0,149
14,5,10,0,9,2,8,0,118,4,26,16,2,10,10,4,94
9,4,8,5,7,3,21,0,83,17,23,10,7,10,6,0,67
5,10,3,5,9,6,16,0,150,19,8,5,1,11,21,6,133
20,14,14,6,14,4,14,10,117,50,4,25,3,14,17,0,100
29,28,11,1,10,2,12,0,151,29,18,43,8,19,13,1,113
7,7,13,2,14,10,7,2,193,29,8,10,3,25,35,0,145
10,12,8,3,9,7,8,7,111,17,11,10,2,9,14,0,112
7,9,5,2,15,3,3,1,80,17,11,11,0,26,2,0,58
10,6,11,0,7,4,10,0,150,18,22,25,0,16,9,6,102
12,4,13,4,2,1,26,3,112,44,13,16,2,8,9,0,85
7,9,1,4,6,4,9,0,58,29,9,11,1,5,17,0,26
61,43,41,20,53,25,51,11,566,125,66,105,17,62,61,0,435
35,34,41,27,61,16,64,0,544,113,55,67,14,68,57,11,437
35,32,18,10,33,9,49,0,425,81,32,55,12,51,34,14,332
38,43,32,21,54,12,44,0,521,81,40,80,23,69,59,14,399
49,54,31,22,51,17,52,5,462,99,34,104,8,61,60,0,377
20,22,24,16,52,17,31,0,481,64,25,32,7,56,44,19,416
17,7,12,15,39,12,36,0,357,37,17,26,9,54,47,14,291
36,50,36,12,30,15,69,0,482,94,40,66,9,36,54,13,418
45,16,34,7,31,10,40,0,436,53,57,75,14,42,34,6,338
40,45,19,7,27,11,37,0,317,76,22,49,9,41,34,42,230
8,6,2,4,10,1,11,33,162,22,11,24,5,18,16,0,141
13,2,21,13,49,14,30,0,399,42,22,20,6,69,52,7,323
25,20,26,9,34,15,30,0,372,48,29,42,6,43,42,12,309
50,42,35,12,41,4,46,11,560,86,45,94,26,55,40,0,455
33,30,31,19,56,10,61,1,569,74,49,70,13,68,61,0,475
19,15,25,10,35,7,27,0,408,46,32,25,4,50,31,11,347
54,63,64,25,64,22,74,0,604,108,72,81,13,72,75,9,540
21,13,21,14,27,11,37,2,734,51,27,36,11,34,40,0,681
5,6,10,3,19,5,10,3,147,17,8,12,3,25,13,0,130
28,11,9,10,27,14,19,4,214,29,24,21,1,43,29,0,189
16,9,2,4,5,5,11,7,109,15,14,18,8,22,13,0,78
13,10,21,7,14,1,22,1,178,27,21,16,5,24,16,0,158
9,14,7,3,24,5,8,0,198,26,10,21,5,30,22,3,151
7,4,5,0,13,1,9,1,64,12,10,6,1,17,7,0,51
9,7,22,4,26,5,26,2,258,42,27,18,5,27,18,0,222
26,5,11,9,32,7,20,0,270,33,19,32,10,46,33,5,202
31,14,21,10,31,14,33,1,617,56,52,30,11,55,45,0,523
25,16,38,17,46,11,32,0,442,59,32,30,12,65,56,9,364
8,8,5,5,3,0,7,4,59,23,6,6,2,5,5,0,52
1,5,6,1,5,5,7,0,59,9,8,0,1,11,10,3,47
7,3,1,2,4,1,4,1,59,12,1,6,3,0,6,0,54
2,1,6,0,9,2,7,0,42,9,8,2,2,6,10,2,30
2,2,0,4,2,2,6,0,24,2,1,3,0,4,10,2,20
5,0,1,1,10,1,6,0,27,6,2,5,0,5,4,4,25
37,27,24,11,54,17,77,0,565,99,39,47,12,55,64,8,488
70,57,62,37,71,19,73,15,747,123,78,110,24,98,94,0,624
49,43,73,29,66,9,69,0,727,109,88,81,23,92,61,35,576
2,0,4,2,5,0,5,0,14,9,0,0,0,8,3,1,11
14,12,18,4,22,6,28,0,165,40,15,15,6,19,30,0,144
10,11,9,10,8,4,6,0,79,12,6,13,2,8,12,13,71
0,3,4,1,16,1,7,2,60,10,6,4,0,19,15,0,40
47,44,34,20,37,4,42,11,293,94,39,54,25,51,37,0,232
0,5,9,1,9,0,5,0,94,8,12,4,2,8,5,5,79
2,5,2,4,2,3,7,0,90,2,2,5,3,10,5,0,88
10,9,5,3,9,2,8,0,145,34,2,23,3,5,12,2,110
3,5,6,5,12,4,23,13,158,29,11,13,1,20,32,0,123
5,4,7,4,13,5,30,0,258,11,10,12,7,20,41,5,220
0,0,2,3,3,2,5,0,79,6,2,1,0,4,7,12,62
6,0,1,1,11,1,1,1,36,3,0,7,0,12,1,0,35
4,5,2,2,0,2,9,0,33,23,2,1,1,0,5,0,25
7,5,2,2,9,0,8,1,50,13,3,12,0,6,8,0,42
31,35,35,23,50,13,65,10,767,116,68,45,13,79,52,0,656
5,11,15,2,28,16,18,0,167,20,11,14,3,30,32,4,148
15,16,26,10,55,22,71,0,507,62,32,25,4,78,67,8,446
18,18,4,3,5,2,24,2,94,36,6,14,11,6,17,0,80
3,7,10,6,18,3,11,0,74,16,5,11,1,13,16,11,59
1,2,7,1,9,3,3,5,70,3,7,4,4,8,6,0,69
2,2,2,1,5,0,3,2,42,6,2,1,0,3,3,0,44
3,0,5,2,3,0,0,2,98,6,7,4,0,8,6,0,82
11,10,8,9,27,7,14,0,284,19,10,15,11,31,22,8,254
6,1,5,5,17,12,6,0,46,9,3,5,4,10,16,4,47
7,4,0,2,7,2,1,5,36,11,2,4,1,10,7,0,29
5,4,12,5,28,7,15,0,172,24,7,15,2,38,21,10,131
12,7,13,5,17,8,18,6,185,19,21,20,4,26,22,0,159
4,2,2,3,17,2,12,0,72,20,4,3,0,18,9,3,57
4,7,8,1,4,1,38,2,54,44,4,9,4,5,6,0,47
6,6,4,6,9,4,15,0,67,11,5,9,5,14,16,0,57
43,33,56,27,50,20,55,0,573,83,54,66,20,60,88,16,470
23,17,15,11,25,6,22,12,319,61,31,21,4,30,36,0,267
2,2,9,8,13,1,12,0,132,15,11,5,6,10,12,2,118
11,31,32,11,31,12,17,0,406,47,18,21,45,39,30,14,337
3,3,8,6,7,1,12,4,62,23,6,7,3,9,11,0,47
6,4,5,3,6,1,9,1,121,16,3,9,1,15,8,0,104
20,10,22,5,21,5,44,14,258,59,37,19,6,23,39,0,216
14,8,17,5,22,3,15,2,166,21,25,23,9,33,14,0,127
4,4,2,5,21,6,7,0,66,8,2,2,1,22,19,0,61
33,39,30,15,46,8,36,12,446,96,47,54,14,52,54,0,348
6,7,15,4,9,3,5,8,88,16,5,9,2,9,12,0,92
6,1,2,3,5,0,1,0,45,4,2,9,2,6,3,1,36
6,9,6,5,8,3,5,4,116,13,3,6,5,17,12,0,106
10,8,8,3,11,7,21,5,257,26,12,15,6,14,24,0,233
4,4,11,4,4,1,5,6,91,13,17,6,2,7,19,0,66
10,5,8,11,19,4,14,0,61,13,8,10,2,20,23,2,54
2,1,4,0,4,0,8,7,26,4,8,0,4,10,3,0,23
15,9,13,2,21,4,25,0,256,35,31,17,2,30,19,3,208
2,5,4,0,14,0,4,0,40,22,4,0,0,7,1,3,32
20,11,12,13,32,9,24,16,483,44,47,40,11,38,46,0,394
2,0,2,3,8,8,7,13,124,26,4,1,0,12,20,0,104
4,0,4,10,1,0,11,0,95,18,3,2,3,5,13,1,80
1,2,4,3,11,0,13,0,56,11,6,3,2,4,15,1,48
0,0,2,0,2,0,0,0,51,3,3,5,0,11,1,1,31
3,2,10,1,3,1,3,0,43,5,14,5,1,4,4,1,32
8,6,12,1,4,4,25,3,67,27,14,8,5,6,10,0,60
19,17,8,21,48,10,47,9,368,32,25,33,36,57,41,0,323
10,4,16,1,16,3,7,0,58,20,8,10,3,20,12,0,42
3,11,11,1,13,5,15,0,141,18,15,10,4,12,15,8,118
3,10,4,13,21,6,18,5,219,30,13,8,4,36,29,0,179
13,9,2,3,19,3,21,0,230,31,5,23,1,31,26,10,173
2,3,3,2,11,8,8,3,67,5,2,12,2,6,4,0,76
14,22,21,4,57,1,27,2,441,52,34,28,9,68,25,0,373
13,7,7,3,9,3,10,7,97,33,4,16,2,12,8,0,81
5,5,6,5,19,12,14,3,114,30,5,6,0,23,19,0,100
38,34,27,22,39,4,45,0,448,92,44,45,8,69,45,3,351
26,17,22,22,46,14,43,0,678,64,35,30,11,60,49,7,612
17,5,11,3,5,0,12,0,120,18,16,22,2,16,16,3,80
38,17,28,14,28,3,26,0,249,39,36,55,8,45,34,0,186
39,24,35,19,58,18,36,16,664,73,56,57,13,87,60,0,563
7,15,14,19,35,3,38,5,288,33,20,12,12,43,44,0,260
9,3,2,1,5,0,9,7,75,10,10,3,13,10,2,0,63
13,3,6,1,11,3,15,4,135,20,6,10,11,13,15,0,116
11,6,4,5,11,2,12,1,144,21,7,15,0,8,15,0,130
4,4,8,7,8,1,10,2,81,10,6,7,1,12,20,0,69
11,12,28,11,38,10,29,0,581,47,41,32,7,55,38,8,492
43,18,26,12,33,4,48,3,555,66,47,55,35,64,39,0,436
17,13,30,7,79,12,41,6,566,78,24,54,20,77,41,0,477
5,4,8,0,10,6,2,6,84,11,7,9,4,12,12,0,70
5,1,5,4,9,2,14,9,71,11,4,4,0,10,16,0,75
2,4,3,1,14,0,12,4,19,13,1,6,1,14,6,0,18
10,18,8,3,17,3,21,10,147,32,15,15,5,27,12,0,131
17,8,8,2,20,6,13,2,168,24,25,26,6,17,8,0,138
63,46,45,32,84,17,57,26,682,122,64,100,24,93,55,0,594
38,33,25,29,59,15,50,10,796,102,58,69,9,87,67,0,663
15,12,23,9,32,16,21,10,321,49,20,22,10,32,33,0,293
20,20,26,8,23,2,9,3,196,28,23,32,6,37,23,0,158
9,3,5,1,4,3,5,1,84,11,9,10,0,6,6,0,73
17,8,4,9,11,4,19,0,169,22,10,21,5,19,18,7,139
14,17,6,4,16,10,32,8,195,54,10,17,4,21,20,0,176
10,2,5,2,9,2,17,3,88,28,7,9,4,10,17,0,63
4,4,2,2,3,1,13,5,69,16,6,6,1,5,5,0,64
2,2,6,5,10,2,9,0,93,13,8,2,0,18,13,3,72
3,6,9,1,19,1,8,0,154,14,8,8,3,14,22,6,126
7,1,7,0,6,0,17,1,57,11,17,11,0,9,4,0,44
2,4,2,2,5,0,11,1,91,19,2,5,4,4,6,0,78
6,8,12,4,6,2,7,0,107,17,15,13,2,6,13,0,86
1,1,14,7,13,4,19,0,148,23,11,5,2,15,15,4,132
20,15,13,24,29,4,24,0,327,35,19,24,2,59,39,8,270
34,25,35,30,61,21,78,0,551,79,42,51,10,64,79,24,486
4,2,1,0,1,2,3,0,38,3,5,2,1,5,3,3,29
5,1,9,7,21,12,12,6,156,17,11,7,1,12,26,0,155
11,22,21,10,26,2,30,0,194,60,16,16,6,25,21,10,162
15,7,11,8,16,2,16,20,137,27,17,29,5,19,17,0,118
26,13,20,4,34,3,14,16,349,52,38,38,4,46,22,0,279
10,9,12,13,26,8,15,0,177,27,11,13,1,37,29,5,147
7,2,0,0,12,4,9,4,45,11,3,7,0,11,5,0,46
0,3,3,11,6,13,15,3,124,22,6,1,1,27,34,0,87
11,9,7,4,15,13,21,1,177,38,4,21,3,11,32,0,149
8,20,20,8,25,7,41,3,268,70,33,17,2,32,40,0,206
4,6,3,5,31,6,14,0,108,29,4,5,4,20,13,8,94
49,35,34,29,74,12,85,8,717,138,47,67,9,73,60,0,649
5,3,0,0,23,1,6,1,65,7,1,6,3,18,3,0,66
11,9,11,6,13,2,14,4,112,25,18,14,4,16,22,0,83
9,7,9,8,14,2,10,0,95,21,12,21,3,13,13,0,71
11,11,16,0,16,0,8,0,88,36,12,10,1,12,11,4,64
8,5,11,8,25,7,37,0,187,31,12,11,6,34,51,5,138
8,16,18,7,18,5,26,0,231,65,20,13,4,18,29,7,173
11,2,4,5,18,2,13,3,170,41,15,11,1,18,26,0,116
15,18,16,9,28,17,14,0,254,41,27,29,5,32,35,0,202
14,11,9,9,14,7,13,0,243,29,18,22,3,17,22,8,201
19,13,19,11,81,27,34,0,491,57,30,23,2,100,52,17,414
22,18,10,16,45,19,24,4,418,45,18,30,7,50,51,0,375
22,24,25,8,42,17,33,0,540,51,30,43,5,60,36,27,459
38,15,22,11,37,11,44,0,385,40,21,38,6,60,53,1,344
15,6,12,1,24,9,15,0,133,27,12,9,5,25,19,6,112
8,14,6,5,19,4,24,5,184,40,10,6,7,17,22,0,167
1,5,3,3,13,3,11,4,84,37,5,0,0,8,6,0,71
29,16,18,32,64,19,47,0,663,124,32,26,13,85,52,10,546
18,18,21,18,38,19,45,0,475,66,13,18,9,50,49,20,427
13,15,23,31,45,18,30,0,635,97,29,12,10,54,55,8,545
15,30,26,33,85,26,71,0,1059,150,27,29,15,66,95,14,949
28,33,34,21,67,6,77,0,707,142,37,27,10,65,82,24,586
14,14,13,27,26,7,38,4,368,60,16,21,10,36,27,0,341
31,27,36,26,43,17,75,16,656,143,39,31,14,55,71,0,574
9,9,8,12,31,8,17,0,238,45,17,10,0,25,31,0,204
4,7,5,0,4,4,5,0,49,9,6,3,5,4,4,9,38
19,17,22,16,48,8,38,0,482,80,33,29,3,58,46,4,397
46,38,34,27,54,25,55,3,630,155,25,41,14,58,68,0,551
14,16,12,16,33,10,35,16,612,99,17,15,4,39,38,0,552
16,27,19,15,49,9,26,0,438,113,21,23,14,50,31,11,336
18,7,17,5,25,9,34,0,309,28,24,14,7,32,24,26,269
28,18,27,27,101,21,57,0,617,52,32,32,39,81,66,17,577
22,22,39,20,75,15,52,0,816,56,38,34,23,74,62,22,752
3,8,12,1,15,4,10,0,83,17,13,4,5,16,10,1,70
51,25,45,27,91,15,79,0,896,81,60,87,27,127,73,16,758
10,4,9,4,15,2,3,6,72,9,11,6,8,13,4,0,74
9,12,5,2,10,2,7,3,66,5,3,4,19,17,7,0,61
2,4,7,2,6,1,5,2,57,16,3,5,0,8,3,0,51
11,8,9,11,23,2,34,4,218,43,12,8,1,32,19,0,205
34,16,21,7,26,10,28,5,195,56,22,39,10,23,28,0,164
4,2,0,7,3,2,10,0,91,6,4,3,0,7,12,0,87
18,12,33,23,48,8,33,0,619,52,45,23,2,52,51,15,554
7,14,1,4,20,0,12,9,55,18,8,12,1,20,9,0,54
5,3,2,1,2,0,3,0,9,0,2,6,0,3,6,1,7
6,1,1,0,5,3,8,6,70,8,2,8,1,11,7,0,63
1,1,9,1,9,5,7,12,169,17,12,2,1,24,13,0,145
11,8,5,19,31,9,15,0,232,23,10,12,2,40,34,2,207
1,5,2,2,8,1,7,0,48,6,3,0,1,12,10,3,39
14,14,12,9,28,8,23,0,340,57,20,15,4,32,35,7,278
9,4,9,1,8,2,9,0,89,7,3,11,5,12,8,12,73
15,13,10,3,13,6,22,9,224,41,7,18,10,27,23,0,189
28,13,25,15,44,18,43,2,515,24,35,53,7,59,66,0,459
14,14,25,15,47,20,35,0,570,16,36,40,9,51,59,7,522
55,56,43,23,71,12,67,13,619,60,68,115,29,75,86,0,526
42,37,47,24,57,33,51,30,629,51,48,91,17,60,85,0,598
20,22,38,11,36,11,36,0,573,36,34,58,15,40,55,7,502
53,36,51,15,36,16,41,19,612,51,56,117,26,33,62,0,534
45,22,44,17,26,9,51,10,488,33,49,76,18,34,52,0,450
34,20,33,26,32,16,46,0,614,45,46,74,11,53,66,32,494
39,24,39,15,41,6,39,0,592,40,48,82,19,43,63,0,500
110,54,42,39,54,25,80,30,628,64,67,169,40,74,98,0,550
68,55,55,26,59,34,67,23,592,74,57,126,32,83,80,0,527
75,46,51,12,42,16,53,61,558,75,72,129,14,53,56,0,515
15,6,15,5,11,5,16,10,142,10,17,31,5,10,16,0,136
13,2,8,2,4,3,16,10,117,12,11,24,4,10,28,0,86
50,29,50,25,57,19,54,0,1296,41,49,124,12,63,83,7,1201
13,9,20,7,20,11,32,7,414,24,30,35,8,31,48,0,357
4,7,4,2,5,0,10,3,47,15,6,1,2,5,10,0,43
90,45,58,22,62,26,90,0,653,92,74,139,19,88,98,0,536
70,45,51,15,60,17,52,9,614,41,72,136,24,55,70,0,535
1,6,9,3,8,0,15,0,78,17,10,3,5,4,12,4,65
15,6,12,6,13,2,9,0,196,13,19,18,1,13,27,2,166
37,17,45,13,39,22,50,6,534,47,69,48,18,70,75,0,436
17,12,8,9,12,5,15,0,178,19,18,17,4,13,22,5,158
28,24,27,7,22,4,27,19,247,34,40,59,17,25,25,0,205
7,1,4,6,14,2,4,0,119,12,7,0,0,15,8,3,112
9,14,14,4,32,11,28,15,245,14,18,22,7,29,30,0,252
30,26,38,11,48,15,59,0,675,56,48,68,16,77,82,15,540
44,52,42,6,30,13,31,79,460,85,69,74,25,49,39,0,416
24,25,22,5,40,28,48,4,401,28,33,55,13,71,99,0,298
10,6,8,5,28,8,17,0,135,20,9,22,4,29,40,4,89
103,57,88,23,59,18,57,42,359,105,104,128,36,58,56,0,319
42,20,39,33,37,24,34,0,849,36,56,65,22,50,87,24,738
72,52,44,27,78,44,63,0,734,66,58,121,16,92,113,21,627
65,34,42,26,69,33,68,5,1044,66,80,120,29,80,125,0,886
70,42,63,32,86,40,68,16,1190,52,60,99,28,100,137,0,1131
25,25,18,14,10,7,15,4,347,54,33,36,4,20,43,0,275
5,8,10,0,13,8,14,0,155,14,14,10,3,23,18,5,126
42,43,50,20,40,16,58,22,850,55,62,115,24,64,82,0,739
19,6,16,4,26,7,23,2,207,14,18,29,4,31,42,0,172
32,29,44,25,56,39,41,4,713,34,47,87,12,60,167,0,576
9,9,11,4,11,21,16,0,129,18,13,16,1,18,42,0,102
103,76,72,25,56,27,71,67,983,107,113,169,48,77,123,0,843
34,11,14,9,32,13,18,0,288,25,34,51,4,39,37,12,217
4,0,1,3,2,6,5,4,56,14,3,3,0,2,7,0,52
16,4,4,0,9,7,13,7,107,23,12,13,5,7,15,0,92
14,19,10,4,31,4,19,0,232,28,13,31,7,29,25,7,193
69,38,77,26,94,39,76,25,1066,58,103,108,36,149,126,0,930
2,6,4,6,11,7,5,0,117,5,5,10,0,17,24,11,86
66,35,58,8,35,15,53,0,408,69,52,89,13,48,45,9,353
28,10,20,20,59,36,36,0,686,43,39,28,6,91,84,23,581
57,23,30,29,75,31,61,4,736,58,40,100,10,97,82,0,659
12,16,9,5,12,5,11,14,118,12,13,34,12,9,22,0,100
4,5,4,8,26,12,17,0,261,27,13,12,1,38,32,4,210
23,15,6,8,13,5,15,0,220,17,8,34,7,23,22,6,188
3,3,5,3,10,8,6,12,65,10,13,3,1,11,11,0,66
27,16,19,10,35,15,29,5,364,36,30,35,8,38,52,0,321
2,0,5,1,7,1,7,1,50,6,7,1,2,7,8,0,43
6,6,4,5,6,5,7,0,33,16,4,7,0,11,6,4,24
7,7,4,0,15,3,8,0,118,17,3,8,2,17,15,2,98
4,1,2,8,11,3,5,0,62,8,6,2,0,19,9,4,48
4,3,4,3,7,0,7,0,51,10,1,0,0,4,18,7,39
16,6,4,6,22,7,14,0,251,16,10,13,2,32,28,10,215
16,8,24,12,33,15,23,0,300,23,25,34,8,57,37,1,246
6,14,7,3,7,1,13,4,72,9,10,5,8,8,15,0,72
33,17,26,20,26,4,39,20,597,55,40,50,18,43,61,0,515
85,56,83,27,91,25,92,0,939,78,88,133,41,115,97,20,826
35,27,40,29,65,16,40,47,690,47,61,54,13,92,77,0,645
8,3,2,2,14,5,3,0,113,3,4,9,1,13,15,2,103
24,11,14,10,18,1,13,12,139,15,17,28,4,26,23,0,129
13,13,5,6,26,6,15,11,296,10,18,26,5,37,23,0,272
24,22,23,7,17,3,19,0,273,39,28,37,13,27,35,0,209
12,3,4,3,5,2,11,2,197,11,10,11,2,12,16,0,177
32,24,34,10,23,6,43,14,266,47,48,60,10,36,38,0,213
4,3,4,3,3,1,5,0,51,8,6,7,0,4,8,0,41
42,24,25,6,23,7,35,0,393,45,46,64,22,35,32,1,310
20,8,9,8,20,6,13,0,163,12,9,45,4,26,17,1,133
14,21,21,15,17,7,41,26,432,34,29,50,7,35,61,0,378
7,7,11,3,12,3,12,0,91,6,14,15,5,10,12,1,83
24,5,7,6,18,5,21,16,347,20,16,39,9,24,40,0,301
13,8,5,4,14,4,18,13,141,19,9,36,3,12,17,0,124
26,14,18,3,13,5,16,14,171,29,24,43,3,12,22,0,147
61,37,40,29,51,16,51,8,842,53,77,126,24,90,84,0,681
35,13,24,17,35,23,26,0,378,20,26,50,18,42,54,13,328
120,107,126,33,66,11,106,11,962,176,140,163,59,95,85,0,824
10,11,18,0,31,8,24,0,251,23,26,14,7,49,27,4,203
38,6,37,5,51,9,37,7,458,28,39,56,9,86,47,0,383
16,12,10,4,13,12,32,0,182,27,23,14,12,25,29,10,141
1,5,2,3,5,6,5,0,48,5,1,1,3,6,9,1,49
16,11,18,6,29,19,25,2,271,17,25,36,6,21,57,0,235
4,5,8,0,6,2,9,0,86,6,9,14,1,13,5,7,65
24,9,16,29,41,16,43,0,351,29,33,35,7,48,66,2,309
35,22,28,12,30,21,54,0,495,43,43,61,19,53,55,5,418
15,11,12,4,10,0,10,0,105,7,22,26,2,15,9,3,83
23,8,27,9,19,9,22,0,279,16,23,24,9,39,46,0,239
92,69,88,22,66,13,70,0,807,180,102,114,36,84,67,0,644
78,62,55,25,59,16,77,0,799,142,81,87,28,64,49,8,712
122,122,79,20,53,6,83,32,698,196,104,167,39,65,65,0,579
3,2,2,8,13,6,6,0,131,4,8,1,1,21,8,2,126
16,21,20,4,21,9,25,16,284,42,32,40,9,29,37,0,227
32,35,35,8,25,6,24,3,265,38,33,43,13,37,24,0,245
10,15,11,1,31,9,18,8,260,11,28,23,11,31,20,0,239
16,4,1,7,9,5,12,1,59,3,2,7,3,17,23,0,59
12,17,22,13,16,18,11,6,276,15,21,37,9,19,27,0,263
23,22,18,9,25,15,25,0,261,17,29,37,8,33,46,10,218
9,11,14,0,11,1,19,0,71,15,5,15,10,13,12,2,64
46,57,43,8,37,3,27,0,354,73,76,71,22,30,37,4,262
46,42,59,12,46,2,67,15,410,96,75,62,16,66,39,0,345
41,22,47,16,44,16,48,0,455,50,59,94,10,60,61,2,353
26,22,32,21,53,25,45,10,525,39,40,50,15,73,75,0,467
37,33,26,25,46,33,52,22,672,51,49,65,20,69,99,0,593
20,7,11,4,7,2,5,5,165,12,21,36,0,19,10,0,128
7,3,6,6,14,7,14,4,128,24,14,14,2,8,18,0,109
8,5,3,6,14,9,8,0,99,15,11,11,2,19,22,2,70
21,17,18,5,27,3,26,7,125,26,18,21,3,17,19,0,145
29,22,27,14,35,21,40,10,333,66,35,32,10,56,43,0,289
4,2,13,2,11,8,10,2,111,11,13,7,8,7,12,0,105
13,8,12,4,13,1,17,0,112,6,11,16,7,15,6,4,115
3,5,4,0,12,3,15,1,224,12,15,15,1,25,22,0,177
0,5,8,4,8,10,12,0,67,5,6,2,5,13,15,4,64
38,45,32,30,43,16,60,11,660,62,54,73,31,68,93,0,554
17,14,17,6,20,7,36,0,223,36,32,25,8,32,26,0,181
9,2,1,0,2,5,7,7,64,5,7,10,2,2,6,0,65
10,4,10,2,8,1,14,0,107,13,6,20,4,11,18,4,80
53,55,59,15,57,13,64,5,390,90,75,93,29,57,47,0,320
1,1,9,3,9,2,9,0,41,4,5,2,4,5,8,3,44
39,37,28,25,66,62,48,3,860,107,66,58,12,164,97,0,664
4,5,13,4,16,14,24,0,333,12,14,16,3,32,50,11,275
6,9,12,0,8,5,12,2,93,9,10,11,3,16,22,0,76
18,8,4,1,8,3,8,1,103,11,11,24,5,11,16,0,76
51,28,43,11,61,13,68,0,772,39,48,74,16,72,71,26,701
44,24,25,25,43,27,35,0,598,35,29,75,14,62,82,10,514
54,33,41,25,67,28,58,0,756,36,47,101,14,102,90,17,655
76,51,74,33,91,59,107,18,1167,112,108,110,44,136,167,0,999
13,4,7,3,13,4,16,0,127,34,8,17,6,15,9,2,96
32,7,22,6,19,3,13,12,197,52,28,40,13,24,26,0,128
37,22,36,22,53,11,49,0,621,39,63,44,23,62,85,9,526
64,45,44,28,38,10,38,0,504,41,63,72,26,54,77,10,428
49,40,45,30,47,12,46,0,613,49,62,67,32,52,78,7,535
81,56,72,40,29,21,77,0,4682,73,115,128,56,39,137,0,4510
33,23,46,20,38,20,44,0,588,32,74,48,19,49,83,2,505
32,30,47,25,39,10,49,0,759,46,68,44,28,51,81,20,653
40,32,24,14,31,6,32,0,391,37,51,49,21,35,47,4,326
20,17,29,31,48,12,29,0,602,31,47,37,4,58,79,12,520
32,14,19,25,54,25,49,0,628,27,36,60,10,99,76,28,510
65,57,76,31,107,17,87,0,844,88,111,115,38,102,126,7,697
31,17,38,22,75,31,64,0,696,42,52,43,9,96,81,16,635
16,21,41,19,51,13,61,0,691,38,63,27,30,55,87,7,606
18,13,27,33,61,16,30,0,716,21,48,28,20,74,90,25,608
31,24,37,33,33,27,50,32,809,46,70,36,22,63,92,0,747
58,23,48,30,62,18,39,0,624,47,62,81,19,84,105,5,499
47,39,30,25,51,11,39,4,513,33,52,64,15,78,52,0,465
16,16,26,22,32,22,23,0,444,25,32,28,12,42,65,12,385
57,45,42,12,64,19,64,0,650,72,51,84,23,76,76,5,566
47,29,55,22,42,14,37,2,595,60,63,48,18,67,80,0,507
34,22,36,26,41,22,36,7,577,39,59,45,17,53,74,0,514
26,13,27,14,45,20,29,3,684,31,49,23,8,57,57,0,636
25,20,24,22,35,11,24,0,574,37,42,43,8,66,74,9,456
25,16,34,24,37,14,28,0,678,35,38,32,14,35,59,11,632
37,29,42,28,47,20,57,0,764,31,80,66,14,56,115,17,645
45,41,44,18,48,11,75,6,523,66,56,70,33,51,84,0,451
29,31,39,20,55,14,28,0,467,36,56,47,21,69,71,15,368
32,34,35,13,55,13,36,0,530,44,39,42,20,66,56,13,468
15,12,32,20,48,24,29,0,490,19,38,26,8,59,83,0,437
13,15,25,13,36,22,35,0,535,40,47,26,8,47,57,8,461
42,35,40,24,38,18,54,3,653,49,67,48,30,48,83,0,582
24,39,64,33,52,17,74,38,750,71,88,59,22,75,100,0,676
74,48,41,37,55,32,67,0,659,68,94,123,39,81,94,0,514
76,61,41,24,53,25,65,0,750,97,69,75,41,73,119,1,620
37,10,33,23,36,25,34,16,745,25,67,55,18,54,85,0,655
52,30,47,21,67,31,48,48,819,60,75,78,34,82,125,0,709
33,17,33,19,50,24,38,0,655,24,64,62,10,57,102,7,543
12,11,23,12,31,9,24,9,451,27,41,26,15,31,62,0,380
15,8,18,14,20,16,30,8,641,29,31,21,5,32,71,0,581
4,4,7,10,21,6,9,8,257,4,27,14,5,35,36,0,205
20,15,31,32,46,14,41,0,751,34,45,35,8,50,91,7,680
26,17,31,21,47,14,40,0,686,36,39,55,13,57,72,4,606
28,17,44,36,77,17,62,43,1021,42,58,49,15,100,97,0,984
19,14,15,17,30,12,38,0,626,31,31,33,14,43,70,22,527
17,24,26,26,35,8,36,11,737,37,45,32,9,63,61,0,673
25,4,36,19,50,17,35,1,703,32,59,36,9,71,74,0,609
20,12,34,19,43,20,32,0,620,29,44,27,10,55,73,14,548
25,22,38,26,54,18,40,0,765,31,50,52,24,72,83,21,655
21,15,29,19,31,14,56,0,573,38,39,39,10,42,72,7,511
13,16,8,25,52,14,28,13,724,21,41,28,10,56,70,0,667
25,13,31,26,44,23,29,0,606,18,40,25,11,72,80,14,537
40,37,49,45,57,21,69,1,970,58,65,61,19,73,125,0,888
13,10,24,25,37,16,39,0,720,26,26,23,16,65,74,15,639
14,14,21,28,56,16,28,0,616,33,42,35,7,54,75,7,540
15,22,33,16,30,16,27,0,538,37,46,25,13,33,56,6,481
24,22,25,16,40,13,33,0,537,33,52,25,7,49,77,12,455
35,14,27,27,54,24,44,0,558,29,31,33,7,79,76,13,515
20,20,24,11,42,23,36,0,550,21,34,26,5,51,76,6,507
17,14,16,15,23,3,29,8,346,50,28,37,4,43,37,0,272
14,7,24,6,5,3,11,1,64,8,20,18,6,13,18,0,52
16,10,7,5,14,3,19,7,200,20,12,27,3,23,22,0,174
1,2,2,0,21,1,10,0,30,12,2,1,0,18,3,0,31
9,8,9,5,14,23,16,9,151,18,11,7,9,18,37,0,144
63,46,63,37,84,38,75,62,1076,77,104,98,31,109,142,0,983
66,41,52,14,68,14,50,11,540,69,70,99,39,79,64,0,436
0,2,7,1,4,3,5,0,83,10,7,4,3,8,4,1,68
17,3,4,3,11,1,12,0,42,10,8,26,1,8,11,1,28
35,18,24,23,28,18,38,1,467,38,42,60,9,49,69,0,385
8,4,8,3,3,1,10,1,33,16,6,6,0,10,6,0,27
31,12,33,8,22,11,25,18,324,35,24,46,17,24,51,0,287
56,44,67,32,59,20,56,0,680,71,71,82,32,76,108,1,573
56,64,51,19,47,22,67,32,708,84,91,94,40,55,69,0,633
13,19,18,8,22,12,26,0,372,30,20,37,11,45,35,5,307
31,21,14,17,30,25,24,0,402,26,48,35,11,38,66,3,337
5,5,13,3,8,4,12,0,152,21,17,12,6,12,13,13,108
4,2,8,4,5,6,11,0,114,5,11,2,0,13,17,1,105
10,4,3,7,5,5,12,0,98,8,14,12,2,11,15,6,76
11,8,13,11,21,5,16,1,398,18,16,14,4,36,46,0,350
57,59,66,23,75,18,55,15,678,106,80,88,35,93,65,0,579
72,49,70,32,65,32,57,29,884,70,152,99,23,86,115,0,745
2,1,0,2,3,2,6,0,11,7,2,2,0,3,4,0,9
3,1,2,1,3,3,11,3,28,12,1,8,0,1,10,0,23
11,10,6,1,2,6,4,0,50,15,2,5,5,5,4,11,43
47,51,52,14,72,21,55,0,529,83,75,60,15,82,71,0,455
10,13,8,13,18,18,20,0,252,16,17,13,10,26,35,5,230
6,6,10,10,24,10,7,14,176,10,13,12,4,38,29,0,157
10,4,7,1,6,4,0,1,48,11,7,12,0,10,7,0,34
50,24,30,18,47,18,50,25,273,37,41,76,19,62,52,0,248
22,4,5,3,10,3,11,0,149,19,21,21,2,18,14,0,112
5,4,6,6,8,6,16,0,379,17,14,7,7,26,30,3,326
75,37,37,25,48,8,74,63,641,59,82,94,37,50,93,0,593
3,1,5,1,10,0,8,0,55,6,4,5,4,7,5,1,51
21,10,20,2,15,8,28,0,224,18,30,34,10,15,24,10,187
9,15,8,9,33,6,26,6,292,26,20,26,11,29,37,0,255
71,57,86,21,94,13,88,0,1121,102,90,122,54,101,125,6,951
6,0,7,10,10,6,21,0,37,13,5,8,0,11,16,8,36
4,7,8,1,11,8,17,19,141,14,16,6,6,12,26,0,136
10,4,9,1,13,12,12,0,166,10,17,20,3,23,10,1,143
16,16,4,6,13,5,18,4,244,28,9,25,5,17,27,0,215
17,8,14,4,17,3,13,0,135,14,19,22,5,21,17,4,109
1,3,9,1,7,0,11,0,55,13,7,6,0,12,7,4,38
26,19,30,27,52,21,55,14,764,53,40,46,14,84,94,0,677
59,38,58,26,80,51,74,6,1015,63,85,94,24,96,140,0,905
3,1,2,4,4,0,5,0,81,3,7,2,1,12,18,1,56
13,11,30,18,36,17,29,0,559,12,38,32,6,53,82,10,480
5,7,11,9,11,1,7,0,174,15,9,14,7,9,22,0,149
20,17,13,13,25,5,27,20,325,32,27,38,9,28,36,0,295
4,8,24,11,28,10,28,0,355,18,27,8,10,39,30,12,324
2,1,3,1,9,2,9,0,23,2,3,3,0,8,5,3,26
4,2,3,1,5,3,3,3,42,2,2,1,2,7,10,0,42
32,15,45,8,42,11,30,2,308,29,54,46,10,42,33,0,279
6,17,12,17,32,15,12,0,275,28,19,20,1,40,46,8,224
4,0,0,8,13,2,7,0,69,11,9,2,2,8,14,0,57
14,21,11,2,10,1,10,0,170,53,8,14,6,14,12,8,124
6,4,6,8,13,6,36,0,113,36,12,9,3,16,16,10,90
48,29,43,20,63,33,60,8,1000,85,83,68,22,87,115,0,844
27,23,34,44,46,37,45,0,915,63,64,35,24,76,72,3,834
19,25,26,16,44,15,42,3,238,21,28,44,14,53,51,0,217
14,9,7,8,10,5,14,6,116,18,9,11,5,16,22,0,108
2,1,4,0,2,1,13,0,37,17,2,3,1,4,5,1,27
6,1,3,8,9,0,9,3,45,3,7,12,0,14,8,0,40
28,16,28,16,20,10,22,4,215,27,39,28,6,24,38,0,197
27,11,36,16,23,9,27,26,229,15,39,53,19,28,42,0,208
7,5,7,12,21,9,16,0,158,21,11,14,2,22,30,2,133
6,4,3,1,15,1,9,0,68,2,5,9,2,11,9,2,67
9,0,10,9,14,12,10,1,146,9,16,7,2,13,24,0,140
16,2,7,5,13,8,18,0,267,23,18,16,2,20,19,0,238
19,29,18,10,31,9,40,8,278,36,50,39,9,26,43,0,239
38,19,18,21,40,17,30,0,422,39,26,38,12,77,60,0,353
2,5,14,4,11,0,8,5,63,24,10,4,0,10,4,0,60
4,1,14,1,3,8,13,1,100,8,16,12,2,6,17,0,84
9,7,5,10,13,11,8,0,224,6,21,5,3,29,40,2,181
38,20,43,40,68,39,60,17,936,69,84,79,16,106,138,0,769
32,9,20,11,23,10,22,15,306,35,40,46,10,32,24,0,261
0,0,7,0,0,0,14,0,27,11,5,0,0,7,2,2,21
8,1,11,6,12,9,12,6,194,13,12,18,1,23,35,0,157
4,2,9,0,6,2,4,1,49,11,3,4,0,15,15,0,29
13,4,11,4,21,10,13,8,190,10,10,23,7,44,27,0,153
5,9,13,4,20,4,14,1,233,29,15,24,5,26,27,0,177
66,50,50,7,31,10,64,18,365,89,47,79,28,43,38,0,337
11,7,17,6,9,5,12,0,228,29,13,26,5,9,29,2,182
13,11,13,12,15,3,12,4,173,25,36,17,1,12,25,0,140
59,49,33,22,29,15,47,0,1021,56,53,122,17,47,72,11,897
34,22,29,12,47,23,38,0,560,33,31,75,13,69,47,26,471
32,18,22,13,36,4,32,15,555,31,25,70,3,45,36,0,517
12,15,15,17,41,16,23,11,468,34,31,58,2,49,41,0,403
23,12,13,18,42,21,37,0,540,26,35,47,11,51,70,16,450
50,42,30,17,41,7,27,0,451,40,33,115,6,51,50,3,367
30,15,20,11,48,30,23,0,486,20,27,49,3,52,53,4,455
31,23,22,18,39,13,37,24,321,38,32,76,13,55,53,0,261
40,26,27,19,49,11,42,0,511,40,27,70,13,59,61,7,448
2,2,5,1,3,0,6,7,33,5,8,0,1,3,8,0,34
5,2,0,4,2,5,5,0,110,1,4,6,0,6,9,8,99
20,14,9,16,30,13,34,0,479,21,30,76,13,50,49,6,370
31,21,27,15,54,10,32,0,459,30,43,59,7,55,44,6,405
1,1,5,0,4,0,2,0,69,2,0,5,0,7,5,0,63
14,7,5,3,13,4,19,9,226,13,12,63,3,22,25,0,162
1,3,0,0,3,0,1,0,39,2,1,8,1,7,4,0,24
23,12,31,19,32,14,36,0,651,20,45,50,5,53,68,10,567
15,14,29,11,16,19,17,0,433,30,31,44,5,25,46,8,365
37,37,40,18,40,14,41,67,575,57,60,110,19,61,67,0,495
23,19,24,18,42,19,30,1,464,35,26,57,5,50,55,0,412
33,22,19,18,54,11,25,0,298,19,18,58,6,56,38,6,279
4,10,3,11,14,3,8,10,126,19,11,13,8,19,13,0,106
12,17,14,11,39,17,21,7,335,37,23,24,4,44,51,0,290
25,19,27,12,29,14,52,0,642,67,29,44,7,36,54,8,575
28,19,26,13,37,19,24,0,614,84,22,39,11,35,53,1,535
3,0,1,1,3,0,3,0,41,8,4,5,0,9,2,0,24
32,19,36,18,34,22,39,22,460,39,55,51,17,34,56,0,430
6,6,11,5,11,6,11,13,216,21,20,12,2,16,28,0,186
11,4,7,8,16,8,15,3,150,25,9,13,1,19,21,0,134
13,22,10,11,34,18,30,0,478,31,13,17,8,61,58,16,412
14,11,11,16,21,14,31,0,487,21,29,16,2,37,60,5,435
13,5,11,20,41,17,43,8,803,45,28,23,5,57,91,0,712
11,9,22,24,30,32,36,0,699,48,28,22,12,46,73,10,624
25,31,29,22,68,22,52,25,613,98,47,40,17,94,81,0,510
2,2,4,0,6,0,0,0,30,10,4,3,1,3,0,0,23
6,5,5,1,15,3,4,0,111,28,8,12,1,20,8,5,68
22,16,14,10,42,13,20,18,429,37,25,34,6,55,57,0,370
9,2,0,2,7,6,11,0,100,9,3,10,4,10,16,0,85
32,29,18,8,39,8,42,0,414,57,26,52,9,46,47,4,349
2,1,3,0,2,1,1,2,12,5,3,0,0,1,3,0,12
2,1,7,1,12,0,10,2,142,26,12,1,1,8,10,0,119
17,13,18,14,31,14,24,8,342,22,26,27,6,49,62,0,289
14,9,4,3,11,3,11,1,134,5,13,31,2,20,18,0,101
9,10,9,9,31,16,25,0,308,28,18,12,4,37,44,11,263
23,8,12,7,21,23,16,0,202,24,28,30,1,25,49,5,150
37,60,44,20,62,33,41,9,591,130,60,61,13,77,80,0,476
45,55,24,25,39,18,35,7,566,104,28,62,19,39,64,0,498
59,43,43,18,46,26,60,0,597,74,49,98,27,56,79,8,501
9,3,15,4,5,4,18,6,234,22,14,12,3,22,30,0,195
31,20,11,14,21,4,18,16,203,20,21,40,24,27,26,0,180
75,79,75,30,71,20,82,0,619,64,74,86,108,73,86,0,560
65,84,57,26,60,20,81,0,848,70,84,91,109,80,91,4,712
65,52,44,23,60,16,89,0,693,54,65,70,61,68,78,15,631
80,52,65,31,112,24,81,24,938,96,121,140,46,135,128,0,741
32,33,47,42,39,23,52,4,534,60,59,58,25,55,65,0,484
17,2,3,2,11,7,3,0,102,5,7,15,2,14,11,3,90
10,1,8,5,9,4,12,0,133,4,17,10,1,14,14,2,120
31,43,42,10,62,22,61,2,781,86,45,48,17,77,72,0,709
42,26,35,31,52,30,68,0,810,66,47,54,19,102,110,23,673
11,18,15,16,31,19,36,8,450,29,28,27,7,49,78,0,386
22,7,20,20,34,18,39,4,477,29,45,43,11,40,62,0,411
6,1,2,3,8,8,10,6,51,9,2,6,1,11,12,0,54
10,13,10,5,33,17,33,0,382,30,11,22,6,30,57,43,304
4,0,5,3,8,9,23,11,121,36,6,3,3,17,27,0,92
3,15,21,5,17,5,15,0,139,36,14,6,4,16,11,16,117
19,29,23,14,15,19,39,0,311,30,35,17,24,26,48,3,286
24,14,13,14,14,6,16,25,251,30,23,45,10,29,27,0,213
5,8,2,4,7,2,4,0,106,10,2,12,2,9,20,0,83
10,14,15,19,21,13,29,0,584,25,22,36,7,46,58,18,493
10,6,15,15,38,21,18,26,629,11,24,26,3,56,72,0,586
6,0,6,4,4,6,2,2,72,2,6,4,2,9,11,0,68
1,2,1,3,4,1,3,0,77,3,2,5,0,9,10,2,61
26,15,28,16,29,15,41,0,545,29,39,32,8,62,64,21,460
25,21,27,14,33,18,39,3,484,56,45,48,7,50,60,0,398
1,1,3,1,13,1,11,5,58,0,7,10,2,22,10,0,43
21,5,7,8,26,7,14,31,317,6,11,79,3,73,25,0,239
39,38,38,24,42,13,34,96,1548,136,39,33,11,52,45,0,1556
25,57,34,29,62,23,38,16,638,194,33,24,11,80,57,0,523
39,51,31,29,46,15,32,0,779,139,34,25,8,54,53,4,705
52,72,45,38,77,22,64,34,616,213,38,39,9,114,63,0,544
19,36,13,13,31,8,31,0,508,91,22,17,10,38,43,7,431
51,86,53,32,59,17,54,0,687,228,30,58,11,66,62,8,576
27,43,19,19,21,7,27,0,285,78,21,27,9,29,18,17,249
37,95,40,19,73,30,59,14,856,260,30,43,10,109,86,0,685
10,32,14,11,12,4,19,0,257,78,6,13,2,13,22,9,216
16,42,18,32,72,24,35,0,554,139,26,15,3,77,64,0,469
15,64,29,32,72,19,39,0,738,192,31,11,11,88,81,8,586
22,41,15,26,53,13,40,0,472,106,22,22,2,56,47,27,400
21,38,14,24,62,19,38,0,460,131,10,18,2,58,62,19,376
21,42,22,11,64,21,38,0,503,121,14,18,11,61,49,13,435
23,24,21,19,59,25,29,0,559,101,22,17,6,63,52,19,479
26,30,18,19,50,22,30,7,550,95,17,17,9,59,67,0,488
12,20,24,12,42,15,22,0,589,101,25,11,3,57,47,22,470
6,15,3,4,13,3,9,5,96,34,3,3,0,12,10,0,92
20,44,20,17,32,10,34,20,359,133,23,17,5,60,34,0,284
42,75,30,13,32,17,41,0,599,173,27,42,4,35,51,70,447
49,85,41,34,98,17,47,13,775,234,44,44,4,103,97,0,633
38,79,31,18,91,20,44,0,623,189,30,42,5,94,62,5,517
68,96,55,30,58,22,52,15,701,269,44,65,20,76,81,0,542
31,40,36,30,55,19,56,0,763,168,31,29,9,66,63,25,639
39,67,26,19,51,18,36,0,602,178,20,37,8,73,55,6,481
37,56,19,18,36,10,32,2,454,138,13,35,6,37,45,0,390
42,44,37,43,56,9,35,0,725,156,38,41,5,62,54,22,613
17,37,23,18,43,14,41,0,388,111,17,18,12,53,37,3,330
30,58,30,22,66,16,48,0,800,162,22,19,13,83,56,53,662
8,9,11,0,19,4,16,2,130,20,16,7,7,22,18,0,109
4,5,4,3,5,0,2,0,44,10,2,4,2,4,4,1,40
3,9,6,3,6,2,5,7,55,9,7,3,0,6,11,0,60
9,12,12,7,20,10,5,0,156,25,8,5,4,22,17,4,146
12,13,16,9,41,9,22,5,313,42,9,11,1,29,35,0,313
7,4,8,5,21,10,10,7,161,18,10,4,1,18,27,0,155
46,26,36,6,15,1,22,27,310,27,38,122,20,19,13,0,250
46,19,36,22,32,6,30,76,515,23,38,174,23,26,32,0,466
27,16,32,16,33,11,34,0,337,13,23,91,7,30,32,1,309
20,20,26,11,24,8,31,47,518,23,30,100,8,26,53,0,465
69,55,47,25,46,18,58,7,921,51,53,231,18,56,74,0,763
25,14,26,9,21,5,23,4,684,8,21,89,2,20,24,0,647
69,41,52,23,62,20,69,65,774,55,57,269,15,63,77,0,639
50,26,34,27,50,23,38,0,793,19,30,151,3,58,61,21,698
5,1,6,2,8,2,7,0,55,10,11,8,0,9,8,2,38
6,3,8,5,16,3,9,0,112,18,7,5,2,19,9,1,101
21,16,25,9,21,7,34,17,442,45,38,40,13,26,57,0,373
25,29,11,14,26,11,25,17,317,80,10,17,3,40,33,0,292
4,2,12,6,11,5,19,0,131,14,7,1,3,15,29,2,119
45,24,35,35,93,28,70,8,849,90,40,60,16,110,87,0,784
7,5,17,6,17,7,15,2,210,22,12,8,10,25,18,0,191
23,54,16,18,35,19,23,23,511,98,29,42,8,51,61,0,433
34,48,32,18,51,13,27,19,514,138,39,43,5,65,49,0,417
52,48,61,26,48,11,61,38,666,114,57,78,49,55,70,0,588
53,40,55,27,51,13,56,16,789,87,68,100,34,75,73,0,663
6,0,1,3,6,3,7,0,32,1,4,4,2,7,10,5,25
5,8,12,2,9,2,21,1,161,21,12,18,19,5,12,0,134
21,24,19,10,33,11,42,15,455,49,43,39,22,34,44,0,399
62,76,71,18,42,20,78,0,504,89,65,95,51,47,68,29,427
38,19,41,17,42,9,35,0,441,47,39,55,34,58,38,12,359
54,39,39,21,25,4,36,16,768,48,48,66,37,41,37,0,725
26,24,24,11,24,27,20,0,452,68,33,34,17,43,53,0,360
7,6,4,0,12,1,8,0,42,8,5,3,1,10,7,2,44
4,5,9,1,3,3,3,0,50,14,6,2,1,4,5,0,46
3,4,4,1,9,5,8,0,164,9,4,6,4,9,18,4,144
39,18,30,14,38,9,24,79,374,64,40,73,17,46,38,0,347
6,2,1,0,10,2,4,0,64,1,4,4,2,5,12,1,60
11,18,13,2,13,5,18,0,327,51,10,23,11,19,28,6,259
6,6,6,8,18,3,23,4,203,8,13,20,4,29,13,0,190
18,21,7,11,27,14,15,0,274,56,16,20,8,41,28,5,213
3,4,1,0,5,0,15,0,85,5,6,1,5,12,14,1,69
11,7,11,3,20,7,15,0,131,22,6,8,5,27,10,5,122
6,3,8,15,12,2,10,0,175,10,11,5,2,12,23,10,158
20,29,19,11,25,4,17,7,253,72,15,13,4,26,28,0,227
66,46,23,11,23,6,44,6,354,52,39,78,48,45,20,0,297
8,5,4,6,7,2,2,15,119,14,14,8,1,13,14,0,104
8,11,4,1,11,2,20,0,110,25,6,13,7,12,10,0,94
12,12,17,11,21,9,21,0,382,36,29,14,10,42,33,6,315
10,31,24,19,27,11,21,9,571,95,30,23,10,38,39,0,488
1,2,5,15,8,7,7,0,84,15,6,5,0,14,7,5,77
4,6,4,6,12,5,8,0,117,19,3,1,2,11,13,1,112
0,12,8,9,18,7,6,0,156,28,14,7,0,11,19,2,135
9,5,16,5,14,0,9,2,101,18,15,8,3,12,14,0,91
51,32,49,29,44,30,45,0,615,80,52,73,26,57,68,2,537
56,47,42,21,38,24,55,35,629,111,44,88,37,57,48,0,562
53,36,50,17,42,22,35,0,665,80,52,52,21,36,58,23,598
33,34,35,15,30,17,45,0,560,78,39,50,5,42,52,7,496
29,20,25,11,55,26,41,61,481,82,20,36,6,60,61,0,484
52,29,37,20,25,4,42,0,466,76,59,81,9,35,54,1,360
2,0,1,2,1,0,7,3,61,4,2,3,1,6,10,0,51
24,11,23,13,40,17,35,12,429,71,26,24,3,58,43,0,379
8,17,12,6,25,15,16,0,218,17,14,13,8,33,31,0,201
16,16,15,8,18,16,20,0,286,57,12,10,10,29,29,0,248
3,3,9,8,10,7,11,0,226,19,8,3,1,16,23,35,172
11,12,7,8,22,9,7,3,158,31,6,7,3,13,22,0,155
5,13,6,0,11,4,19,0,193,35,6,7,2,17,9,10,165
7,1,4,7,4,0,7,2,52,14,4,4,0,5,12,0,45
4,3,10,2,12,9,16,6,122,24,11,7,1,22,22,0,97
8,32,9,8,22,16,10,1,162,65,17,8,3,37,31,0,107
9,14,13,5,9,3,15,0,208,42,14,11,4,16,19,2,168
34,38,28,23,58,14,45,29,748,165,29,33,12,87,67,0,624
4,7,11,4,10,1,33,0,231,32,14,19,4,21,24,4,183
3,12,2,6,10,1,14,6,190,24,9,5,2,14,26,0,164
11,3,2,5,11,3,9,0,97,13,7,11,2,15,12,9,72
5,6,5,6,7,0,4,4,108,7,8,5,6,14,5,0,100
2,0,1,2,17,4,14,0,84,8,2,1,1,17,12,1,82
17,16,13,6,24,6,15,0,259,19,17,15,11,30,21,14,229
24,33,12,15,43,22,34,0,444,61,11,23,5,84,52,0,391
38,44,36,53,67,31,39,28,1095,132,33,47,17,108,104,0,990
18,43,40,13,40,10,21,0,352,101,24,23,8,47,35,1,298
10,5,2,8,23,6,24,10,118,10,14,6,12,30,23,0,111
30,23,39,10,25,7,32,12,443,85,47,51,21,36,30,0,351
30,42,24,19,45,36,50,18,694,161,27,31,19,77,85,0,558
12,18,19,6,23,9,17,6,199,64,15,16,6,19,25,0,164
7,7,12,8,21,13,22,8,321,32,16,17,6,36,29,0,283
2,6,3,5,10,1,7,0,43,17,4,1,3,16,2,5,29
18,25,18,18,22,7,11,1,265,50,14,28,6,53,37,0,197
25,14,19,7,11,7,22,8,287,34,20,40,10,15,29,0,252
52,38,56,18,30,12,51,10,450,52,75,83,20,38,64,0,385
6,6,12,6,13,2,7,4,107,15,7,11,2,15,10,0,103
22,23,11,12,30,16,31,5,364,83,17,24,5,43,41,0,301
27,25,25,32,44,18,29,0,568,79,32,44,5,60,58,9,481
29,15,16,8,14,0,10,8,98,30,10,17,6,14,9,0,112
5,2,6,1,13,3,9,7,119,13,12,4,5,10,7,0,114
27,27,35,10,45,15,37,6,568,99,49,38,22,66,46,0,450
7,7,5,7,23,9,19,1,382,32,9,12,6,36,33,0,332
2,7,7,1,2,1,3,0,58,10,5,7,5,3,6,1,44
17,10,11,5,13,8,16,3,238,8,11,19,7,25,15,0,236
1,5,1,3,7,2,11,7,71,20,3,1,3,12,6,0,63
2,8,8,4,7,3,16,8,121,24,15,7,4,8,12,0,107
19,24,14,7,26,9,19,22,280,45,13,22,7,41,44,0,248
21,43,26,31,52,24,58,4,527,120,32,26,8,76,77,0,447
8,10,14,1,15,2,20,5,298,26,21,20,13,25,24,0,244
7,16,22,8,8,5,24,5,130,30,25,12,9,22,18,0,109
25,9,35,23,30,4,35,7,363,63,37,30,11,36,46,0,308
9,3,8,5,3,4,10,3,53,9,7,27,1,5,11,0,38
2,7,5,6,9,6,15,4,112,13,15,1,5,20,14,0,98
6,6,6,0,10,3,4,0,109,17,9,5,3,18,15,0,77
22,25,24,12,35,20,35,0,398,67,28,28,5,46,45,18,334
28,25,27,17,27,25,30,0,616,82,40,31,6,46,60,10,520
2,1,4,8,17,4,7,0,77,10,6,3,0,15,17,0,69
5,4,2,7,26,2,9,3,123,17,4,5,2,31,19,0,103
6,11,6,8,14,4,12,3,142,32,5,2,3,20,14,0,130
13,12,3,2,15,1,11,0,118,38,8,4,0,22,9,4,90
34,63,38,28,43,22,59,0,638,141,50,44,15,80,71,6,518
23,21,29,12,35,6,26,0,482,92,19,18,8,41,33,1,422
63,67,65,41,95,32,115,25,1393,222,84,75,33,141,120,0,1221
10,30,10,22,22,7,11,6,228,52,12,16,5,33,35,0,193
26,21,26,28,47,20,29,12,618,107,27,30,2,61,57,0,543
7,2,2,2,10,10,3,0,53,6,2,8,2,9,13,4,45
2,5,5,4,6,1,10,0,109,8,12,5,2,10,7,3,95
3,8,12,3,21,8,10,0,204,21,5,10,2,23,32,3,173
14,9,12,3,10,13,14,0,291,14,13,14,7,24,20,4,270
18,10,10,1,5,2,10,0,106,24,8,19,1,11,13,1,85
12,8,2,7,24,5,15,10,334,38,8,15,3,35,26,0,292
6,8,8,15,20,19,10,8,204,18,11,6,1,16,44,0,202
57,35,25,15,49,10,26,21,314,62,29,70,23,53,31,0,284
17,7,12,8,6,0,20,0,66,8,13,28,9,9,10,2,57
2,3,4,3,6,4,3,2,71,7,8,3,2,8,4,0,66
11,0,3,6,1,9,8,0,84,4,5,12,2,6,15,1,77
2,0,5,2,6,2,6,0,108,7,3,4,0,10,13,0,94
28,23,15,12,23,7,38,0,489,65,15,29,2,36,47,3,438
18,18,16,7,22,21,29,4,426,65,18,16,4,37,56,0,365
4,4,11,0,5,2,5,1,50,13,10,4,0,4,3,0,48
35,30,26,33,58,22,36,14,875,80,31,27,8,80,57,0,846
0,3,3,0,3,0,10,1,109,7,7,1,0,4,14,0,96
29,44,40,16,25,9,35,5,348,69,43,44,11,36,42,0,306
35,15,16,10,39,12,25,18,330,44,19,49,4,46,39,0,299
23,32,26,27,40,4,22,0,373,51,18,49,6,61,47,8,307
47,39,41,21,40,10,62,3,510,119,37,82,9,59,61,0,406
24,20,22,23,60,21,30,0,587,41,31,27,10,72,83,2,521
28,15,25,29,54,29,44,19,516,52,39,32,3,75,73,0,485
24,20,28,19,68,19,30,0,644,54,34,24,6,82,62,5,585
27,21,17,30,44,16,34,0,689,54,18,47,10,51,63,3,632
4,7,4,4,12,4,9,2,103,12,11,10,2,13,14,0,87
30,35,24,15,22,4,21,1,235,67,16,58,1,36,28,0,181
32,43,49,16,46,12,62,0,545,104,59,43,5,65,77,0,452
60,40,42,35,49,24,61,6,550,104,57,66,12,83,83,0,462
102,82,70,49,98,33,96,0,751,180,73,142,17,107,129,1,632
34,38,29,8,12,5,33,0,1066,51,20,56,11,16,26,7,1038
21,31,17,10,19,7,49,0,298,71,27,31,6,18,31,21,247
17,28,13,13,32,8,22,0,296,42,22,32,9,32,29,13,250
49,51,41,12,47,11,53,33,452,105,44,74,9,55,56,0,406
24,23,29,19,38,14,39,1,463,70,39,34,6,43,68,0,390
59,35,47,34,50,25,72,0,624,114,65,76,13,56,74,18,530
19,23,23,39,51,20,36,0,563,64,25,25,3,68,62,23,504
21,7,15,16,47,10,31,0,299,40,24,20,3,41,33,17,268
18,22,23,21,31,13,43,0,475,49,39,35,9,43,55,6,410
31,23,28,16,41,12,23,0,402,45,36,38,3,41,39,28,346
6,6,3,3,12,0,14,0,66,11,6,4,2,15,3,3,66
3,1,1,1,8,7,6,0,89,7,6,6,1,19,14,7,56
6,2,0,6,7,3,5,0,80,13,3,4,1,15,7,2,64
2,9,5,9,30,8,10,0,210,17,8,2,5,49,11,12,179
7,4,7,14,14,10,16,5,258,25,10,9,3,35,27,0,226
21,21,16,9,38,18,34,4,347,45,29,23,3,27,83,0,298
28,15,21,9,36,9,42,0,372,60,36,26,5,41,83,8,273
15,6,21,26,47,10,26,0,510,71,19,13,3,45,67,18,425
34,28,23,27,49,10,57,5,722,92,22,42,11,49,67,0,672
43,46,38,38,66,33,63,0,793,104,42,46,17,98,113,6,694
28,15,21,29,36,17,38,4,668,87,16,23,7,74,79,0,570
42,24,26,26,55,25,57,4,554,94,34,42,3,56,83,0,501
31,35,31,26,43,21,58,0,614,90,41,48,5,56,96,20,503
72,52,48,28,68,19,92,15,933,184,46,116,18,87,132,0,744
24,18,34,17,40,8,59,17,604,102,32,40,3,61,70,0,513
19,19,13,19,29,14,27,0,448,53,20,13,6,34,41,8,413
3,7,6,5,11,6,9,1,57,12,3,4,0,11,16,0,59
0,2,1,2,3,2,1,0,29,4,4,4,0,3,5,0,20
6,13,3,6,16,1,13,0,132,14,7,2,3,14,11,11,128
20,19,17,16,28,21,38,0,400,56,25,20,0,43,31,10,374
11,13,9,11,24,1,10,0,294,39,19,14,3,31,18,15,234
15,6,16,10,14,6,5,3,146,16,17,28,6,12,22,0,120
8,8,16,15,31,5,11,0,243,38,16,12,1,27,16,4,223
8,1,6,1,12,8,23,6,145,21,8,13,0,18,21,0,129
6,8,12,11,17,3,14,1,176,20,9,18,3,28,20,0,150
16,4,14,1,22,6,9,9,136,29,13,13,1,22,9,0,130
5,12,4,8,8,8,16,2,205,22,3,9,1,15,23,0,195
4,7,10,6,13,17,12,0,279,35,14,12,3,16,34,1,233
22,12,26,17,35,13,28,0,434,46,22,17,11,72,60,0,359
4,8,12,5,7,6,11,0,87,2,10,9,4,7,16,2,90
35,38,34,21,44,8,36,0,432,94,24,31,4,52,41,28,374
3,6,4,4,12,1,4,0,22,3,4,6,0,12,2,4,25
4,1,1,3,6,2,8,0,31,6,7,2,0,5,10,1,25
11,4,12,13,15,4,10,5,212,25,13,5,0,25,21,0,197
8,8,6,12,8,2,20,4,114,6,9,19,7,10,27,0,104
3,4,3,0,3,0,2,5,35,8,2,0,0,11,4,0,30
11,10,4,4,15,8,13,4,208,27,10,9,3,21,19,0,188
12,7,25,11,31,7,36,3,408,52,28,24,3,40,38,0,355
4,13,12,6,16,2,8,3,90,24,13,6,2,15,12,0,82
8,5,4,4,5,2,2,0,43,14,2,11,1,5,8,0,32
20,36,33,14,44,21,35,0,542,84,45,34,6,62,71,1,442
5,3,2,1,12,0,4,3,80,12,9,7,6,12,5,0,59
9,10,9,4,13,6,6,4,163,11,9,11,6,25,24,0,138
16,10,11,6,17,27,5,0,270,26,13,15,4,37,46,4,217
4,8,4,3,7,0,4,1,16,13,7,4,1,4,3,0,15
9,9,10,2,7,2,7,4,72,23,8,15,2,7,12,0,55
19,17,16,5,10,5,24,0,181,43,23,45,3,17,23,1,122
1,23,20,5,21,9,18,0,302,50,22,11,3,38,17,2,256
5,8,5,3,5,2,9,1,49,3,11,6,2,8,8,0,49
6,1,11,5,5,4,14,8,117,17,6,7,1,11,19,0,110
4,0,7,3,5,3,9,0,51,9,5,8,2,12,9,2,35
25,26,23,10,32,8,31,0,547,86,23,39,5,37,42,2,468
1,0,6,1,5,6,8,2,122,6,10,4,1,11,22,0,97
6,13,11,0,11,6,10,5,69,10,14,18,6,15,17,0,51
8,7,8,2,23,2,16,0,176,24,6,9,3,25,10,8,157
13,6,4,2,7,8,18,2,118,19,11,12,3,12,22,0,99
4,7,9,1,16,1,13,3,94,10,4,6,1,26,11,0,90
3,0,5,15,9,8,10,1,84,12,5,5,0,20,22,0,71
19,3,13,10,17,6,12,2,162,26,9,20,3,18,19,0,149
11,9,8,1,6,1,13,3,61,16,8,12,0,5,13,0,59
13,7,20,25,26,11,22,0,391,35,18,15,4,60,62,3,318
5,11,12,15,9,5,17,0,245,20,7,8,1,18,25,5,235
17,21,12,12,38,4,20,0,323,51,21,25,3,25,38,2,282
4,4,7,12,18,7,8,0,140,18,8,5,1,21,16,4,127
8,3,3,7,12,6,15,12,80,19,3,8,0,16,14,0,86
4,5,5,5,15,2,8,7,80,14,9,4,0,9,17,0,78
31,32,37,17,49,10,32,3,394,86,25,44,16,47,43,0,344
28,14,26,11,23,9,28,16,314,50,28,32,3,37,42,0,277
33,26,35,28,54,14,44,9,600,79,54,40,15,72,65,0,518
28,18,37,22,56,29,53,0,772,67,47,33,12,63,69,46,678
2,0,1,1,4,1,2,3,50,1,2,1,0,10,6,0,44
3,5,5,1,4,1,2,0,50,4,6,0,1,3,0,7,50
2,3,4,7,8,1,7,0,66,7,1,8,2,13,3,8,56
11,10,7,8,20,7,22,0,131,24,9,16,1,29,31,4,102
9,17,4,2,15,3,19,13,179,21,20,13,5,20,17,0,165
39,35,45,13,74,28,36,2,665,107,43,50,13,93,72,0,559
25,13,42,14,31,7,42,5,340,21,46,55,11,53,60,0,273
12,3,9,1,11,3,8,2,139,7,11,17,4,10,7,0,132
3,11,15,10,11,3,15,0,138,11,27,14,10,21,21,3,99
7,9,10,3,40,1,11,0,253,15,17,12,2,46,24,13,205
10,22,10,9,20,8,22,0,425,44,28,14,6,49,30,1,354
32,45,43,19,48,13,47,11,662,92,52,51,5,75,56,0,589
15,12,23,12,42,9,14,9,551,59,27,25,6,58,39,0,473
19,23,30,41,73,11,49,0,655,102,31,40,7,81,67,21,552
8,4,2,1,6,1,11,0,85,25,10,5,2,12,6,0,58
2,4,2,0,6,0,6,0,60,11,5,4,0,12,2,3,43
4,1,0,1,12,0,6,0,28,8,6,1,0,12,1,0,24
5,0,7,3,10,0,17,0,115,16,6,0,0,9,26,5,95
7,6,19,7,30,9,17,5,182,31,29,7,3,30,20,0,162
6,6,15,6,20,4,11,0,189,17,17,3,2,33,14,8,163
6,11,7,17,36,6,21,4,320,30,12,7,4,41,28,0,306
3,0,4,2,4,0,7,6,46,6,4,7,2,4,5,0,44
5,1,4,1,4,4,5,3,42,14,5,0,0,5,5,0,40
9,2,1,0,6,1,2,0,42,9,8,9,1,4,1,2,29
5,5,11,1,18,4,19,0,142,19,8,5,3,20,15,4,131
3,2,3,2,16,0,4,1,170,12,7,5,1,16,16,0,144
16,5,21,6,20,6,24,2,290,35,15,10,3,25,24,0,278
3,1,3,1,9,4,9,0,32,8,1,3,0,9,4,1,36
2,4,0,3,10,2,5,0,105,6,6,4,3,18,10,1,83
14,10,8,4,22,5,27,7,232,34,16,18,11,28,25,0,197
7,1,4,7,8,11,3,3,128,9,9,5,1,7,37,0,104
6,4,5,6,13,3,16,3,201,25,17,3,1,15,31,0,165
16,20,14,22,34,27,31,10,499,55,27,27,8,84,53,0,419
40,29,33,26,47,16,38,24,1047,81,47,35,18,63,81,0,975
4,4,4,2,17,3,4,0,73,6,11,5,1,26,15,1,46
15,14,21,6,26,25,43,13,397,60,47,20,6,42,49,0,336
9,6,14,13,20,3,18,0,295,36,10,10,2,18,31,5,266
0,0,0,1,9,2,2,0,23,0,0,0,0,5,4,1,27
8,2,3,1,5,3,3,3,89,3,4,7,1,6,15,0,81
41,40,39,24,43,10,62,22,721,80,48,52,11,67,57,0,687
4,2,3,3,7,3,9,0,63,8,3,5,0,16,12,1,49
10,13,20,11,49,16,23,0,292,33,11,18,7,48,36,8,273
28,28,41,29,70,9,60,31,644,133,50,30,18,68,42,0,599
42,25,29,27,61,16,53,0,833,90,37,39,23,62,65,18,752
1,0,2,0,4,0,4,3,51,12,2,2,0,8,3,0,38
0,1,6,4,2,0,9,0,34,5,1,1,0,0,4,7,38
2,4,3,8,6,2,5,0,50,14,4,1,0,8,11,1,41
24,16,32,25,45,23,34,0,564,65,23,33,6,60,58,12,506
11,12,30,31,58,16,50,6,657,69,37,14,4,99,55,0,593
0,0,1,0,10,3,4,0,57,8,1,2,0,11,6,4,43
7,9,9,4,10,5,12,2,158,17,12,8,0,21,15,0,143
4,1,5,1,9,0,7,6,28,5,1,3,3,11,4,0,34
26,18,25,7,23,4,30,15,423,80,28,38,11,30,37,0,347
4,1,6,2,7,6,7,0,85,13,5,3,0,9,6,8,74
16,13,7,33,23,8,11,3,432,15,11,21,7,49,59,0,384
9,7,10,16,24,5,10,5,343,22,6,18,6,26,43,0,308
42,27,26,10,59,14,36,0,464,46,32,71,17,53,51,16,392
40,37,21,16,54,21,41,30,601,40,32,76,17,63,59,0,574
32,16,35,26,63,24,37,6,666,29,50,51,14,76,58,0,627
21,16,44,28,40,5,40,0,472,25,43,50,18,32,60,2,436
80,56,36,23,75,21,51,24,758,74,65,135,12,78,78,0,682
34,30,28,16,34,10,52,21,523,37,45,80,16,55,67,0,448
36,24,31,12,38,14,38,2,588,34,52,60,5,39,52,0,541
20,7,16,13,21,14,35,0,373,8,19,24,9,41,41,10,347
27,19,28,23,31,20,46,0,535,40,28,44,17,63,67,7,463
37,21,38,13,40,13,41,0,440,23,52,45,17,44,40,22,400
43,20,32,21,51,34,45,2,557,32,42,77,10,71,81,0,492
46,28,27,18,57,13,35,0,321,34,35,88,7,46,47,20,268
48,41,34,12,53,17,46,3,387,42,34,93,6,43,63,0,360
44,39,42,11,26,4,31,19,1076,46,39,87,20,23,34,0,1043
80,37,44,26,62,36,57,4,841,60,99,138,16,78,115,0,681
82,46,51,24,71,24,34,17,568,58,63,140,22,66,76,0,492
22,21,24,6,28,7,17,3,270,25,18,47,13,29,32,0,234
37,31,37,18,44,7,26,19,485,38,40,56,12,43,46,0,469
23,7,18,24,21,8,25,0,448,17,19,39,6,40,53,26,374
42,31,26,19,57,11,36,0,479,31,35,67,8,58,58,46,398
23,16,17,4,28,0,20,0,141,20,17,43,9,37,12,3,108
6,10,5,2,26,8,20,4,102,6,5,7,2,24,20,0,119
1,0,6,0,12,0,10,5,40,7,4,2,1,13,5,0,42
12,4,6,7,21,6,29,17,190,13,18,17,8,19,32,0,185
59,25,35,27,51,12,48,4,795,54,63,96,18,66,79,0,680
30,19,35,32,40,19,45,34,707,56,48,52,10,54,79,0,662
16,14,17,9,14,5,18,14,430,19,36,33,13,45,37,0,354
7,4,10,9,10,2,12,0,120,8,8,10,1,26,17,1,103
7,10,4,13,13,2,15,1,188,10,6,8,3,38,33,0,155
46,8,30,17,53,19,35,22,716,37,38,41,9,55,81,0,685
11,7,14,3,17,1,13,5,307,15,26,13,2,36,19,0,267
43,18,33,9,41,1,34,13,545,41,49,84,9,60,35,0,459
1,2,5,5,3,3,12,0,82,2,16,2,4,3,15,1,70
41,12,18,19,54,20,44,0,645,29,33,44,14,68,65,3,597
6,2,1,2,7,9,12,5,63,4,4,11,1,7,18,0,62
13,4,9,4,20,9,20,0,156,3,8,13,4,29,19,8,151
15,7,9,8,14,3,12,22,244,19,14,31,6,23,15,0,226
10,7,15,3,34,12,18,0,287,14,12,17,5,40,35,9,254
6,10,6,5,17,3,8,0,127,8,8,16,2,19,20,2,107
11,5,10,11,20,9,5,0,186,10,15,9,1,22,19,0,181
10,16,16,14,18,7,13,0,339,22,15,26,9,49,40,8,264
2,10,8,1,15,4,8,16,63,6,8,3,9,19,8,0,74
19,2,15,4,20,8,15,0,113,13,18,21,1,29,27,0,87
21,8,7,9,12,8,19,5,153,23,17,23,5,26,20,0,128
5,5,6,6,11,2,10,0,89,12,11,6,3,19,13,2,68
49,35,48,21,55,13,38,8,884,65,62,91,21,59,88,0,765
7,1,1,1,3,4,5,0,56,4,1,2,2,4,8,4,53
14,7,10,4,8,7,26,0,155,20,11,13,3,9,30,3,142
5,10,12,6,5,0,14,8,130,13,9,14,3,6,13,0,132
24,8,24,5,25,1,11,0,281,17,28,51,5,30,26,3,219
37,26,60,14,37,5,39,15,645,48,72,103,25,49,38,0,543
58,35,26,27,32,22,44,0,644,27,35,99,10,44,81,14,578
56,20,38,20,40,6,32,7,772,28,51,97,20,52,49,0,694
8,14,12,3,18,2,15,0,173,23,20,9,1,33,18,6,135
34,10,28,15,28,12,37,10,352,42,25,37,10,31,37,0,344
13,23,21,12,40,12,31,0,405,42,30,39,10,42,38,5,351
43,25,19,19,37,20,30,0,571,62,25,76,3,50,42,15,491
54,41,44,28,41,25,46,0,955,76,55,90,12,48,75,6,872
17,28,20,22,44,9,33,0,520,41,22,45,6,53,50,16,460
29,21,38,21,50,14,43,0,445,48,46,55,4,59,52,10,387
33,35,56,13,38,26,51,0,652,79,64,49,10,70,60,10,562
35,22,28,23,34,7,46,1,1159,68,52,61,12,32,60,0,1070
19,11,27,5,28,15,24,0,388,31,39,32,4,34,59,0,318
46,40,32,15,39,15,28,0,633,65,55,59,10,55,63,10,531
30,29,27,8,37,16,21,2,580,37,41,46,6,49,68,0,503
26,21,24,24,55,18,31,0,497,36,28,41,10,80,46,5,450
24,25,27,12,42,22,30,69,522,63,38,52,10,64,56,0,490
57,60,58,20,47,29,46,0,573,100,54,90,22,64,75,10,475
46,35,30,14,45,17,50,0,552,82,38,101,8,61,57,7,435
23,17,10,8,32,13,28,9,300,22,19,40,6,55,28,0,270
52,40,48,14,42,9,28,32,583,110,60,88,13,42,51,0,484
53,52,44,15,33,10,55,0,591,72,60,108,32,54,75,1,451
22,3,11,2,18,1,12,2,152,11,9,42,7,17,11,0,126
20,8,21,7,29,7,37,5,388,24,20,30,7,40,40,0,361
36,19,20,2,17,1,19,0,260,20,33,74,6,32,25,5,179
14,7,4,1,8,9,7,0,109,19,2,10,2,16,13,7,90
2,6,3,4,9,1,5,0,76,7,2,4,1,3,18,7,64
16,16,33,7,31,12,39,0,582,30,50,31,9,37,45,10,524
11,16,16,3,15,7,20,0,174,26,26,23,5,18,24,2,138
53,24,28,22,40,28,40,0,912,31,35,69,9,76,67,13,847
12,13,18,8,22,4,28,7,227,40,16,28,1,28,17,0,209
23,27,11,17,26,4,20,0,375,44,19,48,6,30,39,10,307
12,5,17,12,17,15,12,0,229,16,17,13,0,24,42,1,206
17,9,11,9,10,16,20,11,347,15,20,30,8,19,34,0,324
62,47,40,20,68,6,66,0,872,70,44,77,43,80,63,8,796
6,11,9,7,20,3,30,3,254,11,9,17,6,26,23,0,251
18,24,36,3,17,4,26,2,326,43,43,34,13,9,28,0,286
14,12,25,11,29,17,18,0,300,39,40,19,4,47,37,3,237
38,28,16,19,33,17,36,15,436,64,39,55,15,45,61,0,359
26,9,29,29,51,14,40,10,657,30,43,49,10,67,70,0,596
23,15,18,20,50,13,41,0,632,29,26,42,5,74,62,6,568
29,7,39,28,58,23,37,9,2055,22,33,50,14,89,85,0,1992
65,22,43,23,67,24,65,6,771,32,50,138,23,91,73,0,679
17,6,23,4,31,8,17,0,356,9,30,29,7,51,31,4,301
2,5,7,7,4,0,6,1,127,4,10,13,1,7,12,0,112
6,8,8,7,4,9,12,0,252,11,6,28,3,12,26,0,220
31,20,26,12,21,6,31,11,407,25,35,53,15,41,33,0,363
83,53,55,22,78,25,54,0,721,60,46,164,19,101,78,14,609
43,34,54,32,84,23,42,6,689,48,50,109,14,89,58,0,639
34,22,34,16,53,7,48,0,565,30,51,85,6,66,48,7,486
24,21,29,26,61,12,49,0,607,30,48,58,13,56,61,9,554
42,12,35,36,50,18,43,0,549,34,28,87,4,65,68,12,487
30,17,26,18,62,13,39,0,579,52,40,51,7,76,51,4,503
32,32,39,36,38,13,51,0,645,29,68,94,24,58,69,1,543
3,7,0,7,12,2,8,1,64,7,4,6,1,12,3,0,71
11,5,6,9,15,6,15,8,109,12,7,23,2,25,15,0,100
2,13,14,16,18,6,19,0,154,29,13,12,3,21,21,2,141
18,8,16,11,29,10,19,0,238,23,17,18,2,31,28,3,227
9,11,12,6,13,4,10,9,149,23,14,18,4,27,21,0,116
6,5,9,1,12,4,11,0,104,9,6,7,1,14,19,0,96
74,36,35,30,50,22,37,34,799,58,55,146,17,76,84,0,681
18,15,10,6,26,3,18,0,301,28,24,37,4,32,44,3,225
2,0,3,2,6,5,4,0,83,5,2,5,3,7,12,3,68
8,1,1,5,10,2,6,0,79,11,2,10,2,14,9,6,58
21,15,10,9,37,4,18,0,292,39,11,25,3,45,25,1,257
14,6,12,6,20,4,11,25,301,16,22,16,8,24,42,0,271
6,3,14,0,9,5,9,0,62,14,4,12,2,8,10,1,57
3,10,12,9,22,3,10,0,200,21,7,9,2,33,18,2,177
18,17,18,17,21,8,35,6,337,28,34,31,5,33,51,0,295
35,8,24,18,53,21,23,24,666,27,39,81,11,53,117,0,544
23,9,13,7,27,6,10,5,358,13,20,37,6,42,38,0,302
25,26,19,7,31,17,45,4,504,52,29,46,7,47,64,0,433
6,7,3,4,7,6,5,0,112,11,5,15,3,7,17,2,90
17,5,7,8,5,8,13,0,78,11,2,24,3,7,22,5,67
18,11,24,14,35,12,24,5,415,36,23,52,1,42,56,0,348
74,73,91,42,75,18,114,85,1124,155,133,138,24,134,143,0,969
28,4,8,14,33,11,26,9,440,31,25,35,1,55,57,0,369
8,6,7,2,13,9,5,3,116,14,9,14,1,19,16,0,96
1,2,1,7,5,4,5,0,44,6,0,0,0,8,19,0,36
12,5,10,8,20,11,22,10,362,22,16,31,2,37,37,0,315
19,13,12,7,11,6,9,10,203,19,22,31,4,17,19,0,178
28,15,22,12,27,12,24,10,399,37,29,47,14,36,55,0,331
49,32,31,21,79,24,53,11,910,48,60,86,16,96,63,0,841
15,9,11,4,26,0,15,0,240,15,12,25,7,27,11,3,220
23,12,16,11,23,9,27,9,258,16,18,23,6,27,39,0,259
6,7,12,13,22,2,10,1,224,12,12,24,1,18,31,0,199
48,26,37,23,34,10,51,7,530,106,48,69,17,56,63,0,407
16,12,12,13,22,5,15,2,273,23,14,26,8,34,32,0,233
11,12,26,6,28,4,28,0,298,15,17,25,6,26,33,6,285
40,18,29,29,70,14,58,0,726,49,46,61,24,86,95,16,607
43,33,21,11,60,15,38,0,465,36,27,44,19,73,50,28,409
75,42,46,30,80,17,63,0,655,76,62,85,36,82,85,12,570
43,38,32,22,50,10,36,6,465,40,54,61,22,60,55,0,410
22,5,13,10,26,7,27,0,283,21,18,30,10,31,31,20,232
30,13,19,16,20,6,31,0,332,27,22,34,16,29,39,16,284
43,22,27,27,62,24,51,7,512,47,35,58,40,81,61,0,453
22,7,17,19,52,9,20,0,584,33,24,25,8,76,50,8,506
55,49,52,24,51,18,42,3,558,52,69,76,31,63,90,0,471
26,23,13,11,16,7,24,0,250,18,22,37,14,33,33,6,207
70,26,34,19,22,6,21,7,1475,24,53,75,38,42,55,0,1393
57,43,34,25,36,7,50,0,712,76,56,91,44,77,58,20,542
24,12,11,18,33,16,18,0,454,21,27,38,20,43,46,8,383
8,6,17,16,27,7,22,0,451,28,28,22,14,40,49,23,350
26,16,26,21,52,13,38,0,667,47,33,38,19,72,73,17,560
23,10,28,25,44,7,46,0,694,23,34,41,17,61,78,23,600
31,22,28,22,64,13,44,0,604,33,29,45,14,76,72,27,532
29,9,35,22,44,15,31,0,790,33,41,43,25,75,63,51,644
43,22,38,17,31,4,39,0,640,53,63,45,35,44,59,15,520
28,21,20,25,55,12,42,0,610,38,39,48,20,78,62,17,511
61,50,55,23,105,23,85,4,803,72,58,105,46,130,114,0,684
21,14,15,17,40,15,25,0,526,34,26,31,12,55,63,25,427
37,13,20,34,80,16,38,0,557,25,32,41,18,87,67,26,499
47,24,22,18,61,16,25,0,506,35,35,58,33,75,60,13,410
23,11,19,31,41,16,27,0,554,28,26,37,18,51,67,18,477
22,15,27,21,43,18,36,7,479,41,20,31,22,63,57,0,434
10,2,9,11,27,10,18,2,526,8,8,14,7,38,43,0,497
32,11,25,20,42,5,30,0,478,34,26,48,12,65,46,18,394
63,30,30,24,53,19,35,0,615,62,48,65,37,77,64,13,503
18,11,20,16,45,13,38,0,413,23,23,35,16,53,60,23,341
11,11,14,22,59,14,19,0,418,21,30,16,16,74,49,5,357
10,17,13,12,21,19,22,0,313,21,11,18,22,26,33,28,268
41,39,10,14,39,15,34,0,370,42,26,63,35,32,72,11,281
37,30,17,9,26,6,23,36,377,46,41,80,19,53,47,0,275
12,10,3,9,7,1,6,0,85,12,3,9,7,12,20,0,70
13,5,16,2,15,0,7,1,168,25,14,25,8,22,13,0,120
2,0,5,4,1,3,5,2,94,5,7,3,1,6,9,0,85
15,4,7,2,9,0,6,10,93,8,8,20,5,18,9,0,78
16,14,9,10,13,2,10,20,306,24,16,29,13,25,21,0,272
78,43,56,30,82,16,72,0,701,72,73,97,59,104,99,6,568
34,34,34,13,40,11,44,0,456,42,36,65,32,62,43,8,378
35,23,22,22,41,8,29,0,407,47,21,54,12,46,52,30,325
32,18,19,20,39,21,48,0,413,53,20,52,15,55,74,10,331
73,45,37,21,75,22,54,21,537,96,51,114,36,93,99,0,396
5,7,6,0,4,0,1,2,29,5,1,3,20,0,4,0,21
0,8,2,1,0,0,2,0,57,7,2,3,1,3,2,0,52
15,11,7,4,11,0,11,15,153,20,12,23,16,23,19,0,114
10,2,3,1,4,4,5,0,33,6,4,10,3,9,7,0,23
7,8,5,0,17,2,8,0,81,17,4,10,6,23,12,0,56
18,8,8,9,30,8,39,7,358,21,18,19,21,40,44,0,322
52,38,26,25,72,25,42,0,661,80,50,74,36,94,74,11,522
21,27,26,17,49,12,43,0,475,65,29,26,20,58,61,16,395
47,45,42,21,78,32,60,0,962,94,50,62,54,100,86,24,817
1,1,7,0,9,3,16,6,111,4,18,3,4,17,23,0,85
8,7,15,16,31,6,18,0,446,22,19,21,10,37,37,1,400
30,17,25,8,24,6,34,29,593,44,38,47,21,53,51,0,512
28,22,28,49,52,8,49,1,742,34,42,39,20,69,52,0,723
43,26,44,36,119,33,68,0,957,63,62,63,29,186,111,38,774
25,4,10,5,24,10,9,8,185,11,10,51,2,27,19,0,160
19,9,9,17,12,8,21,2,286,24,22,50,7,32,39,0,209
63,24,44,55,49,17,47,0,785,35,35,153,27,91,80,46,617
62,26,46,40,75,24,68,11,956,40,54,160,18,100,101,0,835
53,20,36,25,58,15,43,0,723,28,28,160,11,74,58,13,601
90,63,62,39,76,17,61,0,1120,64,58,237,30,91,76,14,958
20,7,22,9,33,25,34,0,553,121,15,22,6,61,52,21,405
14,7,8,6,23,24,15,5,191,16,9,21,11,27,28,0,181
4,2,1,0,6,2,8,2,78,0,0,6,0,12,11,0,74
4,3,0,4,15,3,9,3,76,10,5,4,3,20,4,0,71
28,15,15,13,40,0,15,1,257,47,18,30,3,40,23,0,223
19,17,29,21,42,14,24,0,664,34,35,41,9,68,69,10,564
30,13,18,5,27,3,22,0,213,45,28,31,3,28,26,3,167
39,23,31,11,39,22,45,8,535,65,37,63,26,67,79,0,416
16,14,21,7,42,4,27,2,410,34,29,22,14,43,52,0,349
4,2,13,5,17,4,10,7,181,7,10,4,3,15,22,0,182
13,8,11,3,22,16,17,6,359,14,16,28,2,22,40,0,333
35,11,23,20,20,14,23,10,469,48,28,52,6,31,59,0,401
20,11,13,5,16,4,18,5,237,41,22,32,11,28,28,0,167
11,5,7,2,17,3,6,2,86,8,13,11,6,24,10,0,67
14,4,4,2,14,2,11,5,141,16,10,16,6,20,21,0,108
2,1,12,4,15,6,11,2,76,10,8,13,1,23,20,0,54
10,3,1,9,5,1,8,0,55,12,6,6,3,9,14,1,41
4,3,1,1,10,1,17,0,75,7,2,11,4,7,18,1,62
7,4,2,5,31,9,9,0,132,7,5,6,4,36,34,2,105
54,18,33,15,66,15,66,12,653,35,49,64,34,82,98,0,570
29,21,22,14,40,7,25,1,423,38,45,37,9,51,49,0,353
15,6,16,7,21,6,21,0,177,24,16,16,2,27,43,2,139
8,3,6,0,6,2,6,0,87,6,10,3,2,9,13,15,60
3,4,3,3,13,0,10,0,124,16,7,5,4,14,15,11,88
1,8,6,1,15,3,9,6,121,12,7,9,6,28,11,0,97
44,17,34,11,48,12,35,24,608,75,45,59,8,88,68,0,490
18,17,24,9,60,10,24,14,662,56,43,52,15,78,48,0,546
6,0,4,4,5,7,17,0,146,13,9,4,2,9,29,5,118
11,9,6,2,30,2,13,1,205,22,12,30,1,29,18,0,167
2,4,9,3,14,6,24,5,161,21,10,10,2,23,18,0,144
16,11,13,4,33,4,28,7,326,14,23,27,9,39,31,0,299
7,7,13,2,13,1,8,0,142,19,14,5,1,14,22,2,116
38,9,16,11,32,15,20,9,368,36,16,40,12,35,66,0,313
3,1,5,2,3,3,4,0,46,4,3,7,3,0,11,1,38
3,11,17,3,11,9,16,3,202,24,31,12,1,17,23,0,167
5,0,1,2,8,3,8,5,119,5,11,7,0,14,8,0,106
19,19,14,13,36,18,30,72,611,33,40,45,21,48,45,0,600
20,8,12,11,24,7,27,0,250,19,15,27,7,38,42,7,204
11,2,15,6,32,6,23,0,271,32,26,16,11,47,39,0,195
17,4,21,11,42,12,19,6,510,38,29,15,7,53,61,0,439
32,22,27,4,33,6,40,0,564,75,51,28,12,36,58,13,455
10,3,14,2,3,6,9,5,160,13,19,9,3,12,24,0,132
1,0,5,0,3,0,4,0,68,7,6,2,1,0,9,0,56
5,4,7,7,17,2,10,3,114,22,6,3,5,21,14,0,98
65,30,65,21,83,14,55,0,821,108,68,85,30,113,78,4,668
16,7,5,16,29,6,15,0,269,19,7,39,9,39,21,12,217
7,13,7,15,17,4,2,0,106,11,7,2,8,21,13,8,101
13,9,27,7,19,11,21,3,276,26,33,32,6,35,41,0,213
13,13,21,6,31,4,28,0,239,14,16,62,1,49,13,0,200
1,2,3,4,15,6,9,0,110,4,4,9,0,21,22,2,88
34,24,20,10,24,9,19,47,287,29,40,39,12,22,34,0,298
4,2,3,1,6,0,5,0,64,8,2,4,1,9,9,3,49
4,1,8,6,8,1,6,10,157,4,5,7,0,16,12,0,157
6,6,3,2,12,3,10,2,177,10,8,8,5,14,13,0,163
5,12,4,10,18,4,9,1,135,12,10,5,5,22,13,0,131
6,2,1,0,2,2,2,0,31,3,4,9,1,3,9,1,16
16,11,18,7,29,9,18,4,192,29,21,17,4,43,29,0,161
2,1,2,1,3,1,6,10,96,13,0,1,6,6,11,0,85
18,10,12,4,20,5,19,7,173,37,15,26,14,29,19,0,128
22,16,27,14,27,1,25,0,600,37,54,28,14,42,50,16,491
6,4,2,5,8,1,7,0,53,4,5,6,0,8,19,1,43
22,14,23,13,36,18,30,18,671,48,47,34,10,64,68,0,574
21,30,27,16,73,15,38,0,443,93,28,37,9,58,52,1,385
33,29,30,20,43,5,30,8,332,86,36,38,11,41,31,0,287
63,55,31,19,36,6,34,51,617,177,53,48,24,50,59,0,501
36,31,27,24,32,6,32,0,737,90,27,44,10,38,51,24,641
16,17,21,18,38,11,30,12,354,82,13,17,6,34,31,0,334
4,16,7,4,8,4,12,0,92,33,11,9,5,8,5,0,76
18,8,26,4,18,6,21,0,209,44,20,21,2,29,19,7,168
12,6,12,10,17,4,16,0,165,35,11,10,2,23,20,0,141
50,36,45,22,64,29,51,0,665,127,45,78,13,92,65,17,525
27,26,36,17,55,22,55,3,610,103,41,26,9,66,66,0,540
29,39,25,29,55,11,49,0,596,110,37,41,5,62,53,21,504
6,16,2,5,11,2,13,1,92,17,6,9,7,14,24,0,71
34,25,6,7,27,9,12,0,209,28,7,40,11,24,34,6,179
10,7,13,7,22,2,18,9,133,15,19,12,17,34,22,0,102
5,5,3,10,17,2,11,0,151,13,9,6,1,34,24,7,110
7,5,12,0,21,7,8,7,175,15,35,17,5,41,21,0,108
34,14,20,18,41,12,32,31,493,39,40,62,15,53,81,0,405
12,11,15,7,21,11,20,5,269,21,23,27,5,41,37,0,217
37,15,28,7,25,6,13,7,425,21,27,68,8,43,19,0,377
40,23,43,6,36,11,39,0,349,34,38,40,31,69,41,1,293
20,25,28,4,29,14,32,1,411,50,38,33,17,47,47,0,332
17,7,13,4,16,5,21,0,225,35,24,18,2,23,19,1,186
29,20,15,8,35,10,23,8,420,40,26,43,7,59,40,0,353
28,14,29,7,23,8,29,6,288,25,25,42,5,44,27,0,264
11,7,18,5,24,3,11,11,145,19,25,17,7,27,20,0,120
2,4,5,6,14,1,10,2,100,19,13,2,1,13,9,0,87
7,11,10,4,24,2,19,0,217,26,17,15,6,31,29,5,165
2,1,0,3,4,4,5,0,70,6,4,2,0,4,9,9,55
1,6,6,0,15,5,20,5,116,17,6,2,3,18,24,0,104
18,22,19,11,28,14,24,13,408,36,33,22,13,33,56,0,364
31,23,27,18,58,10,50,0,464,76,36,32,11,73,55,7,391
14,13,10,8,11,0,14,0,122,24,14,18,2,10,17,4,103
11,7,8,14,20,0,15,0,172,25,10,13,2,21,17,3,156
17,5,17,6,15,14,14,4,241,15,28,27,7,21,33,0,202
14,4,8,4,18,9,10,6,198,22,10,20,3,27,38,0,151
33,20,8,18,39,7,22,9,334,45,10,43,15,41,25,0,311
45,50,30,14,44,19,46,1,508,66,52,65,32,53,47,0,442
55,48,49,26,85,23,56,0,614,106,50,69,33,93,79,14,512
45,43,35,27,51,18,59,0,1142,83,46,54,21,76,70,17,1053
32,14,25,11,35,16,39,0,319,45,34,30,10,42,32,5,293
29,23,21,5,35,13,35,0,361,40,34,31,13,40,34,0,330
29,34,30,19,42,18,35,2,418,62,35,34,13,59,54,0,370
78,64,57,8,47,10,67,0,586,100,79,104,55,59,69,0,451
54,37,28,25,38,19,52,17,706,83,36,75,17,60,85,0,620
41,42,45,17,58,16,46,18,594,94,59,66,22,78,68,0,490
35,33,18,28,65,13,36,0,542,63,33,42,17,75,66,9,465
20,16,30,16,45,11,40,4,560,51,38,28,14,64,61,0,486
21,16,24,21,56,19,39,0,499,42,37,32,10,67,53,14,440
14,17,32,14,40,21,22,0,544,27,42,34,7,63,54,6,471
20,17,37,27,42,17,29,0,607,41,41,23,10,68,77,3,533
1,0,1,0,3,2,6,0,29,3,2,1,0,3,7,0,26
1,5,2,3,10,2,6,1,29,5,4,3,8,10,7,0,22
5,2,4,4,8,7,8,0,140,11,4,4,0,16,25,2,116
1,0,1,0,2,1,1,0,40,4,5,2,0,3,4,2,26
9,6,4,4,25,9,16,0,296,26,23,12,2,33,18,4,251
12,3,4,4,16,2,14,2,113,15,5,18,5,27,19,0,81
20,19,16,23,31,10,29,12,346,36,26,30,3,42,61,0,308
18,6,10,5,25,3,21,11,175,23,22,17,5,34,25,0,148
0,5,11,0,13,2,9,0,84,8,10,2,10,14,10,6,64
15,9,23,8,21,7,19,6,268,35,29,30,6,39,31,0,206
17,12,20,5,21,14,25,0,304,18,28,11,26,39,32,5,259
13,19,9,4,10,3,10,0,127,17,12,17,9,25,10,0,105
18,12,8,8,8,4,14,0,113,15,8,22,2,16,26,0,96
9,11,17,6,22,12,22,7,217,18,25,9,10,41,36,0,184
7,3,15,1,14,2,5,0,82,6,11,5,2,23,15,1,66
30,42,8,11,31,5,28,2,529,23,18,24,88,52,35,0,446
28,23,42,13,41,7,39,3,432,66,48,31,22,71,45,0,345
3,12,9,3,14,1,8,4,166,16,15,9,5,26,14,0,135
44,24,22,9,28,5,23,26,354,47,26,75,12,25,28,0,322
32,14,24,11,32,7,20,1,216,30,39,36,8,37,26,0,181
8,9,10,8,28,5,14,0,198,9,11,8,21,25,16,12,178
24,9,20,2,23,3,10,2,320,18,23,34,13,37,26,0,262
6,3,6,5,25,9,29,7,176,11,8,10,5,25,23,0,184
18,16,17,4,19,2,25,2,194,26,30,22,13,23,20,0,163
24,5,20,6,25,12,33,0,298,27,19,20,9,43,34,12,259
3,0,6,1,8,2,4,0,21,2,1,1,0,7,7,2,25
8,3,4,2,2,1,3,1,18,4,6,9,1,3,5,0,14
3,15,19,4,24,5,17,8,244,24,24,2,6,18,28,0,237
1,3,2,1,12,1,3,5,47,8,3,3,3,12,2,0,44
26,51,24,15,56,9,45,1,446,81,37,38,6,70,40,0,401
2,1,5,4,10,1,9,0,19,7,3,3,0,8,6,0,24
3,1,0,2,10,2,3,0,44,2,3,2,1,12,4,0,41
8,9,2,9,13,5,12,0,117,4,10,8,8,17,19,9,100
75,27,43,19,87,22,69,55,707,80,96,105,39,108,71,0,605
8,10,16,3,16,1,15,4,160,27,20,9,5,22,12,0,138
26,5,16,11,24,8,20,5,345,37,23,23,7,28,28,0,314
16,7,11,21,36,14,24,1,472,36,20,19,9,67,67,0,384
27,13,11,5,30,7,18,14,202,35,26,21,11,36,35,0,163
3,5,2,4,6,5,9,0,36,5,2,2,5,10,12,0,34
2,1,6,1,3,5,4,0,30,4,5,3,2,3,7,10,18
32,8,24,22,66,19,45,22,643,48,40,24,15,101,82,0,571
6,4,5,2,17,1,7,0,34,5,5,8,6,19,5,9,19
33,28,38,23,76,23,52,0,746,85,58,45,14,114,89,2,612
5,2,9,2,9,1,8,0,35,5,8,3,2,9,3,2,39
20,8,10,7,22,6,14,1,239,13,32,20,14,27,25,0,196
33,29,32,18,38,22,48,0,500,45,51,50,14,50,70,17,423
26,37,51,16,44,13,70,0,830,140,46,35,11,20,46,41,748
55,55,47,24,43,13,58,10,579,199,60,64,29,62,58,0,412
39,33,46,11,38,28,51,0,520,123,49,37,12,44,67,19,415
41,44,57,33,47,21,56,18,699,198,55,51,23,68,83,0,538
77,55,69,16,33,16,83,6,681,265,85,49,19,56,68,0,494
63,92,85,39,61,20,114,20,744,343,70,69,25,85,84,0,562
68,80,88,42,61,23,83,5,679,276,80,75,22,80,88,0,508
5,3,5,6,5,4,11,1,70,13,9,4,0,10,10,0,64
18,0,5,2,4,2,6,5,50,23,8,19,0,4,6,0,32
13,6,10,8,32,4,16,12,209,25,10,12,6,36,16,0,205
20,13,15,5,59,21,19,0,502,35,33,25,9,57,41,14,440
28,20,27,12,47,7,24,0,635,35,25,34,16,52,35,28,575
33,11,39,7,67,6,23,0,553,35,52,36,17,58,37,4,500
4,2,2,1,5,1,6,2,47,7,7,6,0,11,10,0,29
0,0,2,5,5,1,5,1,28,1,3,0,0,5,6,0,32
10,17,8,5,13,6,9,7,165,28,8,8,3,17,15,0,161
9,2,6,11,11,5,16,3,162,18,13,12,3,8,29,0,142
27,32,34,13,21,5,43,18,596,72,59,62,10,24,58,0,504
34,44,46,25,34,12,58,0,1769,110,71,78,32,40,93,17,1581
41,34,36,28,55,15,61,31,788,51,65,103,24,81,95,0,670
39,27,43,30,36,13,42,10,897,57,69,71,20,68,89,0,763
23,15,17,14,21,5,24,58,790,68,35,42,19,36,72,0,695
34,29,53,30,46,18,56,104,1319,80,102,55,18,70,120,0,1244
15,1,2,11,17,2,17,3,195,14,11,16,3,29,22,0,168
4,1,7,4,10,7,8,0,117,12,6,2,0,24,22,3,89
9,6,8,9,32,8,23,0,278,16,16,15,5,40,42,12,227
2,1,0,4,11,2,3,1,33,5,5,4,2,10,4,0,27
3,2,5,2,17,2,8,0,106,21,8,5,0,13,7,1,90
9,0,10,0,18,8,9,4,98,11,15,11,2,24,10,0,83
15,6,23,3,24,3,30,0,259,33,22,11,6,30,28,8,225
17,14,10,10,31,4,28,12,339,33,32,17,10,56,45,0,272
29,21,35,18,31,6,20,9,274,52,21,36,19,34,40,0,241
31,20,35,15,38,11,28,9,375,59,51,40,17,59,59,0,277
33,22,20,25,38,34,25,9,425,54,23,39,3,53,45,0,414
22,33,26,18,39,33,23,6,443,57,28,19,11,71,85,0,372
16,5,13,8,21,8,19,14,266,32,17,14,5,43,34,0,225
34,30,27,20,40,15,46,10,637,67,31,36,19,72,72,0,562
19,35,25,25,47,28,31,0,329,75,32,27,2,58,57,15,273
52,29,25,27,39,16,41,0,433,80,31,72,13,58,65,0,343
15,7,12,5,19,8,15,6,306,36,15,11,14,23,26,0,268
8,10,16,19,37,9,25,5,216,25,15,10,7,67,45,0,176
12,2,4,2,4,4,7,0,40,5,7,7,0,4,12,1,39
6,21,12,10,22,14,22,11,270,55,15,18,3,35,25,0,237
60,49,55,34,49,8,52,0,385,79,55,77,16,51,50,9,355
52,33,48,25,55,8,60,0,445,61,52,55,16,55,51,18,418
60,43,41,25,47,9,46,0,789,76,51,68,19,42,37,44,723
61,44,38,20,61,9,49,6,364,66,61,70,21,63,47,0,324
52,45,33,3,29,9,29,23,252,69,36,81,12,43,22,0,212
81,64,47,21,68,20,69,0,552,134,70,93,23,69,58,9,466
60,39,65,27,91,25,55,0,910,109,81,65,29,96,80,15,797
69,66,73,29,44,10,72,112,583,153,98,85,18,64,79,0,561
9,12,17,13,19,5,21,0,176,30,10,13,9,14,34,6,156
40,32,24,5,35,4,23,2,330,56,32,58,12,52,33,0,252
43,19,14,19,31,7,15,0,256,43,26,41,9,52,30,2,201
48,23,41,20,30,7,50,10,401,67,52,76,11,57,45,0,322
67,60,50,38,77,10,66,0,475,107,45,100,26,78,70,18,399
92,42,44,31,48,17,75,0,573,63,49,111,28,47,59,66,499
72,54,48,26,66,25,51,0,543,98,65,82,16,77,85,5,457
60,39,55,35,77,17,77,3,799,110,79,82,26,94,112,0,659
52,46,52,15,62,19,48,3,599,121,58,53,16,71,49,0,528
16,22,11,15,17,5,18,7,357,44,24,19,8,21,47,0,305
43,28,23,28,81,17,54,13,1011,61,52,51,26,109,76,0,923
52,7,28,16,53,7,45,0,573,43,39,59,13,72,57,1,497
39,33,31,17,57,35,40,0,583,66,43,51,21,80,58,2,514
40,24,29,22,44,24,41,0,709,61,37,55,21,59,62,12,626
14,17,20,10,36,6,27,21,297,40,21,24,3,37,30,0,293
38,26,28,10,41,6,34,12,568,54,51,53,14,59,44,0,488
7,6,2,0,20,5,13,3,104,9,9,11,5,29,19,0,78
0,1,3,2,5,0,5,0,34,4,4,0,1,7,2,2,30
4,1,5,1,5,2,8,0,74,4,2,2,0,12,9,6,65
6,5,8,4,25,4,18,0,200,21,17,3,3,26,16,2,182
31,12,25,15,68,10,40,17,622,68,44,43,9,80,84,0,512
17,6,11,11,36,8,25,14,344,51,40,47,8,57,59,0,210
12,8,11,8,24,9,16,0,327,28,22,13,8,42,32,4,266
26,8,19,8,28,9,18,27,322,28,39,35,8,32,29,0,294
18,11,21,6,23,22,39,0,345,44,27,20,13,31,47,6,297
29,22,25,16,41,8,38,17,479,50,38,52,11,48,47,0,429
7,10,5,16,21,3,5,0,196,18,12,9,3,22,22,10,167
6,7,13,10,20,8,14,4,168,16,12,10,6,22,31,0,153
4,9,3,3,4,2,8,12,35,12,5,5,9,9,7,0,33
21,7,13,11,16,1,25,6,314,40,37,18,8,28,22,0,261
13,15,29,30,39,11,26,0,449,46,39,23,16,56,80,3,349
8,9,11,6,15,12,14,4,233,11,13,19,11,29,36,0,193
5,17,7,10,28,5,17,0,274,39,14,9,5,36,26,3,231
72,39,52,29,44,9,56,53,473,126,62,79,20,54,58,0,428
105,79,67,17,70,12,98,43,1051,47,62,414,17,61,98,0,843
62,26,44,19,44,14,52,2,382,18,43,169,9,50,35,0,321
55,42,41,16,35,7,47,22,517,70,46,116,23,45,58,0,424
28,32,26,19,20,7,24,25,928,39,42,74,16,30,40,0,868
87,100,88,20,59,11,72,4,771,147,107,149,36,65,58,0,650
4,2,5,8,2,11,4,0,36,3,4,4,1,6,14,4,36
79,72,31,52,75,23,66,0,643,101,45,119,22,90,98,9,557
83,53,56,26,57,9,77,0,581,90,63,129,26,64,39,8,523
38,46,44,24,55,27,50,25,585,61,60,98,31,73,67,0,504
56,23,39,16,43,4,63,0,522,62,48,110,23,51,49,1,422
86,54,67,17,76,26,70,26,861,103,92,161,25,91,83,0,728
28,27,26,7,42,7,35,0,488,46,32,79,18,43,35,16,391
66,53,72,31,43,10,94,31,802,144,95,144,31,48,61,0,679
51,36,44,34,78,36,81,0,754,69,79,80,22,96,116,19,633
22,32,40,11,38,11,35,1,570,64,42,43,18,59,45,0,489
29,23,33,22,38,19,50,0,545,58,40,63,17,49,52,10,470
95,47,59,22,52,12,54,12,577,85,60,132,21,65,61,0,506
29,25,30,15,45,7,23,4,371,23,46,58,13,56,35,0,318
56,36,29,17,66,11,53,0,718,32,49,120,23,79,50,6,627
68,40,29,14,47,12,42,0,468,40,43,123,14,46,42,5,407
85,60,52,20,59,9,76,1,534,55,72,180,29,49,57,0,454
84,64,75,27,53,22,80,0,633,75,77,167,28,72,77,1,541
86,43,48,25,57,15,76,14,497,76,55,153,10,60,84,0,423
55,41,52,22,66,10,52,22,949,56,66,124,24,56,66,0,877
53,50,66,12,27,9,45,15,387,50,50,119,29,43,62,0,311
18,10,14,3,17,4,11,2,213,10,22,34,8,23,16,0,179
31,18,26,10,40,10,34,0,347,15,28,56,5,41,51,19,301
48,45,52,36,60,27,52,14,701,57,69,127,26,73,77,0,606
47,39,41,15,40,7,38,0,502,40,51,100,16,44,35,4,439
29,25,39,14,57,6,44,0,305,44,59,41,7,73,20,1,274
36,59,48,6,39,9,40,31,472,61,45,68,34,52,44,0,436
30,32,33,9,27,10,33,0,402,55,33,60,17,28,28,13,342
21,19,18,11,17,3,27,0,265,36,30,37,10,24,18,2,224
59,39,50,24,21,6,38,26,385,60,59,104,23,31,55,0,316
175,116,84,58,91,24,116,23,1043,100,78,411,43,102,99,0,897
48,33,39,13,22,6,44,16,403,142,48,41,10,33,44,0,306
96,108,111,24,65,15,96,18,531,128,103,211,36,55,56,0,475
52,44,37,14,21,7,61,71,474,78,56,125,32,31,40,0,419
77,58,23,15,44,6,44,18,493,81,39,121,21,44,56,0,416
72,39,60,34,35,12,53,22,389,77,64,96,20,33,83,0,343
34,33,37,11,23,3,39,0,318,61,42,58,25,26,27,0,259
8,6,2,7,8,0,4,5,121,23,9,8,0,9,7,0,105
7,3,4,1,7,0,8,3,50,22,6,4,1,6,2,0,42
139,116,87,51,102,13,114,70,1116,208,117,184,59,119,102,0,1019
135,93,128,40,97,24,104,0,995,185,147,171,48,110,111,10,834
130,89,130,30,53,23,97,10,921,113,74,368,31,62,76,0,759
75,61,66,29,42,19,51,14,625,78,57,187,21,40,64,0,535
26,5,6,8,15,2,15,41,199,14,12,44,8,15,21,0,203
36,28,22,13,45,14,35,10,419,41,32,68,9,55,57,0,360
44,32,33,9,26,9,55,4,338,83,61,55,25,57,32,0,237
31,6,9,2,7,2,11,6,116,14,10,52,6,13,16,0,79
90,74,56,27,63,8,57,71,720,165,73,153,32,64,77,0,602
268,85,90,37,75,21,111,75,1156,38,54,823,19,86,103,0,795
91,72,67,23,74,7,61,8,432,153,67,97,21,79,59,0,359
10,10,15,4,21,11,21,3,214,20,23,41,3,27,36,0,159
106,79,78,24,65,18,88,0,1036,68,63,368,19,85,84,81,726
62,53,44,29,42,8,64,11,627,195,56,64,20,62,44,0,499
34,34,21,6,12,2,30,0,195,103,22,35,5,20,9,1,139
44,33,39,9,31,4,47,1,232,173,13,29,8,22,21,0,174
69,47,42,20,49,13,66,21,525,247,39,27,22,51,32,0,434
104,91,57,26,45,10,81,22,721,345,50,66,28,46,44,0,578
39,28,38,23,42,7,43,2,566,50,42,72,19,58,67,0,480
62,41,37,28,52,18,36,0,628,50,39,160,19,54,76,10,494
159,139,86,44,92,26,148,35,1132,255,133,182,57,136,122,0,976
61,47,55,16,47,10,44,60,532,70,78,93,41,54,54,0,482
87,75,64,25,79,15,82,9,865,126,97,136,35,73,82,0,752
65,38,55,20,32,2,30,27,638,38,56,180,16,34,48,0,535
23,25,16,2,28,7,14,4,248,38,23,50,9,24,17,0,206
45,40,45,23,62,28,77,0,556,68,53,80,16,82,97,14,466
34,44,55,26,76,31,73,0,682,55,53,80,24,86,70,10,643
99,89,115,33,82,28,124,81,1226,136,149,215,46,102,122,0,1107
53,49,40,22,29,16,47,11,436,72,48,104,16,43,57,0,363
24,14,9,3,17,0,7,19,81,27,15,10,5,16,11,0,90
14,7,16,12,11,3,12,5,161,34,21,14,2,16,23,0,131
55,55,51,28,47,9,85,0,520,170,56,60,14,44,74,0,432
38,28,22,8,19,4,36,11,291,41,25,86,10,40,29,0,226
37,17,30,6,18,8,28,3,263,73,35,45,11,25,22,0,199
19,9,20,15,26,10,26,20,304,31,30,35,10,48,36,0,259
9,6,20,4,5,0,12,37,166,17,12,33,4,17,14,0,162
54,35,27,25,31,6,29,73,652,59,63,112,29,45,62,0,562
72,34,61,4,26,3,32,40,488,40,41,205,19,29,28,0,398
117,107,80,23,48,11,64,97,743,87,100,239,54,67,85,0,658
36,22,31,6,13,1,12,11,157,54,24,33,8,21,13,0,136
93,64,74,25,48,12,84,60,745,184,86,162,21,77,79,0,596
40,20,14,10,33,2,22,17,205,31,23,49,8,24,27,0,201
48,31,31,14,47,10,44,10,488,63,48,94,15,52,29,0,422
33,19,23,5,24,4,9,7,246,34,33,37,3,30,18,0,215
47,46,42,7,26,1,26,38,304,108,32,79,25,30,24,0,239
103,97,76,24,40,7,94,21,526,165,84,122,45,46,42,0,484
50,34,30,14,18,7,24,16,219,55,45,61,13,12,33,0,193
10,3,5,2,10,3,4,5,89,3,10,23,2,13,5,0,75
16,3,8,2,7,3,17,16,136,13,15,14,4,17,19,0,126
10,0,8,1,16,1,8,10,74,20,12,7,2,11,5,0,71
110,71,76,19,65,17,74,48,706,156,90,151,36,82,42,0,629
45,49,54,18,75,18,52,6,529,91,46,56,23,74,61,0,495
78,82,52,22,50,6,58,0,520,163,69,89,23,44,53,11,416
67,82,68,20,42,8,51,2,464,131,74,93,35,43,59,0,369
127,130,92,18,64,15,89,34,599,228,80,168,45,62,51,0,534
66,88,54,20,70,26,79,6,478,133,69,110,19,81,49,0,426
141,105,104,23,61,10,75,34,711,168,119,181,39,52,59,0,646
75,82,62,23,44,9,57,0,456,151,53,109,28,43,42,5,377
100,90,67,20,68,15,84,27,845,179,93,139,55,79,48,0,723
97,85,59,21,72,13,47,0,547,166,46,88,35,64,62,0,480
64,37,21,13,31,3,26,15,416,60,48,67,18,41,39,0,353
28,23,22,10,37,5,32,12,386,25,22,97,14,50,28,0,319
21,9,31,8,23,4,14,36,300,32,42,35,13,39,43,0,242
136,91,112,43,88,14,108,33,1154,308,110,151,51,100,98,0,961
49,46,55,7,31,4,42,35,438,127,43,71,13,40,31,0,382
14,13,13,6,14,1,16,18,87,31,22,30,9,15,10,0,65
73,46,46,16,41,7,36,95,382,87,74,109,20,47,33,0,372
50,40,47,8,30,9,25,23,357,73,53,89,21,36,24,0,293
93,83,68,23,50,10,66,32,505,176,73,130,22,51,55,0,423
51,39,52,15,42,3,51,50,538,133,58,80,36,55,45,0,434
125,108,78,31,29,8,71,32,759,156,89,187,52,45,67,0,645
125,100,96,31,74,10,66,37,867,168,103,189,49,82,82,0,733
108,83,100,18,71,15,83,91,768,175,100,161,42,91,73,0,695
65,39,66,17,33,7,23,35,411,115,69,97,23,31,33,0,328
82,40,36,25,41,19,64,2,724,91,66,112,12,78,77,0,597
136,128,92,31,69,14,103,81,1225,317,130,145,65,74,101,0,1047
121,105,106,32,73,11,110,7,821,188,106,164,66,90,82,0,690
142,173,133,37,86,30,149,53,905,268,150,212,114,107,94,0,763
80,41,72,32,68,8,71,50,692,85,87,160,23,88,77,0,594
26,8,15,7,15,0,12,17,183,16,27,62,5,11,18,0,144
50,44,32,11,30,6,27,15,483,100,43,77,25,28,33,0,392
102,83,58,29,73,9,85,41,871,200,76,115,33,91,69,0,767
26,25,32,10,28,8,29,1,302,24,20,88,7,33,42,0,247
54,31,38,18,38,14,41,17,412,114,40,57,23,28,52,0,349
16,17,19,3,19,10,15,10,396,29,28,33,7,39,25,0,344
186,146,197,39,130,11,133,72,1495,247,161,439,60,120,207,0,1175
108,132,59,17,69,10,65,12,648,161,73,159,46,59,64,0,558
101,82,64,13,51,17,63,7,597,117,76,142,59,47,70,0,484
47,29,29,10,24,5,47,71,262,9,29,196,8,16,40,0,226
29,22,30,7,30,9,21,11,281,65,34,39,4,50,49,0,199
8,2,6,2,8,1,4,0,16,4,5,8,0,7,6,4,13
4,4,12,3,8,1,10,3,58,11,15,4,1,10,7,0,55
11,13,12,10,16,9,17,3,142,29,12,13,9,23,31,0,116
43,44,27,4,10,6,17,12,198,47,36,45,44,6,23,0,160
170,186,85,27,39,10,100,0,599,310,71,202,63,56,56,0,458
109,125,82,20,58,19,94,79,521,215,74,176,52,56,67,0,467
96,112,100,32,55,9,75,23,585,170,90,153,54,65,74,0,481
130,141,70,11,57,12,90,0,484,182,55,124,69,49,33,118,365
106,128,71,19,42,8,96,173,462,143,76,165,90,45,50,0,536
20,16,18,9,18,2,11,0,145,23,15,23,10,23,9,2,134
7,13,15,5,13,2,9,5,164,18,19,15,11,10,14,0,146
19,37,34,19,32,8,46,0,421,57,44,45,22,31,45,4,368
38,48,30,9,20,11,36,8,171,43,41,28,14,23,34,0,188
78,47,38,22,59,12,62,17,580,123,62,94,28,80,36,0,492
26,19,23,13,35,14,40,0,266,28,36,35,18,39,51,8,221
17,22,16,0,23,5,19,0,153,33,28,22,13,32,16,7,104
100,95,60,10,38,15,69,0,404,70,69,174,48,45,37,7,341
110,144,93,21,48,9,84,21,618,121,100,241,64,52,47,0,523
100,120,80,16,47,8,52,0,413,92,64,186,48,48,32,7,359
26,44,54,8,56,22,37,15,448,78,49,54,22,67,61,0,379
57,46,27,16,29,6,33,48,380,152,28,67,12,31,35,0,317
174,320,158,39,104,21,127,42,1248,773,89,135,51,100,82,0,1003
97,96,104,36,48,21,69,49,826,126,118,135,50,65,84,0,768
116,103,120,30,68,17,93,88,908,163,135,172,61,83,78,0,851
113,103,84,17,62,23,87,9,838,134,93,132,55,78,49,0,795
77,63,83,17,39,11,70,74,944,107,96,121,56,48,75,0,875
94,79,50,19,62,10,95,98,587,136,74,141,51,67,57,0,568
76,76,58,28,50,16,106,0,731,124,71,105,40,54,71,35,641
66,74,68,24,53,13,86,0,870,109,91,117,43,77,78,19,720
112,129,64,27,53,18,101,39,725,162,85,148,63,52,71,0,687
29,22,12,8,16,8,16,0,169,49,15,19,6,20,23,21,127
26,20,17,15,20,2,23,0,178,15,24,44,4,15,18,2,179
80,58,63,23,84,22,77,22,699,91,91,126,24,70,64,0,662
30,39,38,6,27,4,28,3,237,48,50,35,23,37,24,0,195
16,25,20,3,13,0,12,3,187,28,22,29,7,22,9,0,162
34,38,41,8,33,2,34,21,465,48,51,56,22,42,44,0,413
88,93,82,25,30,17,94,241,842,251,94,137,58,43,93,0,836
49,74,38,24,42,4,61,22,461,158,53,73,26,34,55,0,376
39,37,46,24,56,29,60,1,718,56,85,67,35,80,94,0,593
67,42,33,23,39,7,63,0,350,89,49,78,19,47,44,1,297
106,93,73,18,80,6,71,80,676,189,84,125,48,86,49,0,622
103,97,54,20,35,9,51,22,590,185,46,113,43,28,55,0,511
56,65,42,19,42,14,45,13,774,111,65,99,30,51,53,0,661
87,68,58,22,51,8,78,44,705,148,78,104,43,58,71,0,619
86,93,50,18,33,6,77,60,541,151,73,159,56,32,59,0,434
78,64,96,23,40,14,72,0,771,128,102,84,70,43,56,14,661
83,81,74,38,54,17,65,10,793,124,91,82,47,63,72,0,736
17,12,11,6,19,5,25,0,169,16,26,19,15,21,29,2,136
4,5,5,0,2,1,4,1,118,5,14,3,3,3,8,0,104
19,14,15,12,15,3,16,17,225,27,10,27,17,25,33,0,197
37,31,25,13,21,5,18,2,332,57,26,61,19,24,31,0,266
46,25,35,8,28,5,67,0,302,48,37,84,25,27,37,4,254
81,80,88,19,38,11,73,31,906,164,118,107,42,56,67,0,773
57,56,32,30,85,19,55,12,790,113,66,61,24,69,66,0,737
34,29,36,12,34,16,46,0,257,29,33,62,11,46,49,2,232
36,58,54,17,51,9,33,0,418,68,45,76,36,67,43,0,341
122,127,102,19,56,10,90,12,584,145,100,209,69,72,68,0,459
44,66,49,27,35,12,45,0,601,78,59,79,29,41,51,19,523
43,43,46,19,35,13,50,10,496,53,53,79,30,47,47,0,446
72,63,85,30,38,22,58,32,631,86,79,108,39,48,79,0,592
24,30,27,17,30,1,18,10,291,66,17,37,8,20,30,0,270
66,41,32,17,42,6,50,16,399,87,49,59,22,41,33,0,378
52,29,44,10,33,3,45,22,332,52,43,74,26,37,40,0,298
75,87,43,21,71,20,68,0,266,59,41,72,31,57,45,10,336
117,101,64,31,67,16,57,33,552,219,72,93,29,68,66,0,491
34,19,37,16,33,5,34,9,368,68,52,42,16,40,39,0,298
70,66,50,21,35,8,46,4,424,70,61,83,32,64,37,0,377
49,38,48,19,43,1,34,17,321,72,52,47,23,39,36,0,301
20,10,27,4,18,3,19,11,187,30,26,24,9,17,21,0,172
189,153,105,49,126,25,124,0,1027,198,124,226,76,148,99,37,890
212,215,162,70,141,18,227,104,1820,571,142,235,63,124,142,0,1692
94,132,92,29,66,19,79,25,663,110,63,109,165,41,70,0,641
24,27,28,4,18,10,35,0,187,34,17,27,44,15,25,14,157
53,115,82,19,36,14,73,29,537,123,69,80,116,34,44,0,492
75,84,74,14,29,9,88,76,444,106,65,66,175,41,37,0,403
72,110,68,24,60,15,91,0,474,82,50,73,151,76,68,3,411
63,76,68,25,48,21,50,0,447,49,46,64,134,38,65,1,401
90,120,70,24,34,8,82,0,458,96,52,90,177,36,53,8,374
98,94,99,18,73,13,85,1,627,148,97,168,42,76,79,0,498
117,164,116,48,91,14,121,39,870,221,114,235,80,122,116,0,692
78,64,74,21,47,9,67,17,565,103,70,101,45,49,58,0,516
72,33,47,13,47,14,40,0,437,80,43,82,11,61,56,0,370
99,60,78,14,51,6,70,48,633,111,74,132,34,56,55,0,597
62,55,46,21,45,23,70,15,513,86,55,96,29,73,56,0,455
27,34,45,8,28,3,29,36,249,71,35,30,16,15,27,0,265
10,9,9,3,5,5,17,4,109,23,13,13,1,5,16,0,100
60,37,59,22,48,11,57,0,653,87,61,85,18,43,63,8,582
27,12,17,7,5,2,10,6,101,22,13,33,5,10,10,0,94
67,88,56,22,46,9,58,4,552,101,73,131,36,47,56,0,458
96,76,70,26,44,15,88,24,619,106,90,138,37,75,78,0,534
54,25,34,12,31,16,48,4,387,45,41,63,19,34,60,0,349
49,75,53,21,15,9,38,5,279,105,45,70,20,15,28,0,261
161,185,172,58,88,33,159,0,1309,215,169,235,126,96,133,10,1181
48,29,45,2,17,4,18,0,267,42,50,54,11,20,21,4,228
80,65,78,19,60,28,55,9,582,154,67,94,33,74,62,0,492
51,80,72,18,50,14,44,19,675,124,79,80,30,63,52,0,595
108,95,74,39,83,14,94,14,813,173,87,201,35,95,68,0,675
80,78,86,24,41,7,46,36,497,81,107,120,32,60,44,0,451
68,46,45,18,51,15,54,8,711,153,58,90,20,67,43,0,585
128,118,109,32,78,2,78,17,778,260,100,134,57,80,63,0,646
43,52,39,17,62,21,41,0,340,47,45,51,40,67,61,6,298
11,12,18,14,38,13,33,0,503,12,28,22,23,39,49,3,466
15,15,26,19,28,20,29,1,505,25,44,22,19,45,47,0,456
25,11,20,24,17,12,25,0,445,17,37,27,22,31,46,7,392
26,26,22,9,41,16,41,0,442,31,31,32,21,39,56,8,405
11,20,20,14,32,22,23,0,455,33,48,19,18,41,61,6,371
17,12,31,15,29,12,38,0,360,28,36,35,9,30,39,2,335
20,5,23,24,48,25,29,80,454,25,28,28,21,61,79,0,466
18,15,30,18,38,22,29,15,505,27,38,24,15,59,55,0,472
68,47,77,45,88,18,84,0,770,91,83,88,49,100,131,2,653
2,1,2,2,4,0,2,1,26,4,4,2,8,2,3,0,17
38,42,41,30,57,30,47,0,788,45,56,37,40,69,97,16,713
23,19,34,46,65,34,38,0,720,36,38,38,28,82,96,11,650
11,5,13,9,19,6,12,0,158,18,30,13,9,17,29,5,112
30,14,18,16,18,4,19,8,197,28,21,31,21,27,39,0,157
2,3,2,2,15,3,8,0,81,9,4,3,2,12,17,1,68
1,2,3,1,6,6,1,7,54,3,5,3,0,8,9,0,53
39,35,19,12,36,18,37,10,231,41,31,52,26,43,51,0,193
26,19,16,6,24,12,14,6,187,18,19,35,14,33,35,0,156
15,19,32,21,55,21,54,0,398,34,40,23,13,68,86,10,341
31,33,25,24,52,20,34,0,532,44,49,41,37,55,56,5,464
40,37,29,22,60,22,55,0,1943,28,59,56,33,56,89,64,1823
35,30,54,12,47,18,42,1,440,34,65,57,40,39,54,0,390
62,38,39,19,52,9,44,6,422,62,52,70,41,70,57,0,339
43,40,36,30,54,33,48,3,678,47,51,69,49,68,72,0,609
27,13,27,17,37,5,21,0,344,25,32,45,10,47,22,6,304
14,14,30,27,60,14,43,0,605,30,28,23,18,71,74,4,559
29,23,32,21,64,30,44,10,586,38,44,54,24,63,76,0,540
33,21,41,27,76,19,47,0,630,44,46,44,29,48,54,21,608
14,16,17,25,40,11,26,0,532,37,32,36,20,54,52,15,435
14,6,15,24,46,12,11,0,481,16,26,17,10,57,37,20,426
23,29,14,19,50,14,34,0,350,33,32,35,17,64,33,8,311
16,14,25,15,41,18,15,0,443,26,20,21,11,47,52,16,394
18,18,22,20,49,10,29,0,446,23,47,22,16,46,59,27,372
31,50,22,17,33,13,58,11,445,62,51,52,41,41,39,0,394
60,76,39,28,67,14,54,18,576,75,75,89,79,72,78,0,464
45,36,36,17,48,8,38,5,425,51,56,61,26,39,42,0,383
31,27,30,34,38,32,67,0,662,29,45,54,36,62,91,12,592
21,19,26,17,47,33,42,6,617,32,34,43,22,39,97,0,561
26,16,27,29,61,22,42,0,648,35,56,40,17,68,71,6,578
23,21,22,5,28,9,31,7,429,45,47,36,11,52,27,0,357
15,8,15,5,25,10,26,2,206,38,28,18,10,25,23,0,170
16,17,6,5,12,3,18,8,174,17,13,26,7,21,24,0,151
17,12,17,6,39,13,23,0,472,33,38,17,7,51,34,13,406
13,21,18,12,34,18,24,0,599,33,23,32,12,38,60,22,519
28,31,34,22,65,18,63,11,701,65,49,45,18,64,73,0,659
28,17,21,21,31,11,39,0,384,29,31,30,9,44,64,6,339
18,20,9,7,16,12,19,18,185,26,25,22,11,17,37,0,166
35,25,23,9,16,7,19,0,155,30,26,35,17,15,18,8,140
13,7,6,4,25,14,13,0,244,12,27,13,8,27,26,6,207
16,10,18,1,24,4,9,5,162,28,12,14,3,21,10,0,161
16,12,30,8,21,10,18,3,227,37,24,30,8,18,29,0,199
75,53,68,30,62,21,76,0,798,88,101,103,33,77,96,16,669
51,57,86,28,77,20,81,0,745,93,86,90,48,88,80,24,636
39,40,54,27,60,14,72,0,661,58,69,107,23,76,67,11,556
86,66,89,46,80,17,99,1,862,90,124,145,55,102,83,0,747
62,30,51,31,52,19,69,0,980,61,88,70,20,65,62,32,896
89,46,75,28,85,18,78,0,638,73,87,115,35,84,78,48,537
8,5,7,1,6,1,5,6,35,6,8,6,3,8,4,0,39
1,4,3,1,12,4,8,3,61,7,6,5,0,15,12,0,52
15,0,6,1,14,0,15,3,104,17,13,12,0,15,7,0,94
10,8,2,8,34,1,17,0,75,20,16,3,0,29,11,1,75
7,4,11,11,26,9,13,0,173,27,12,7,5,34,30,1,138
6,15,19,9,40,9,37,6,315,31,27,10,20,47,41,0,280
23,4,8,15,28,3,16,0,259,19,23,23,4,39,33,1,214
14,3,14,6,11,2,11,1,200,19,18,20,9,12,17,0,167
14,8,11,2,11,1,11,4,151,15,13,15,7,15,12,0,136
4,3,8,8,14,3,9,3,62,10,9,7,1,25,14,0,48
2,4,11,1,13,0,8,0,72,12,15,4,2,14,6,4,54
26,26,29,6,30,12,29,0,514,52,34,44,13,37,34,17,441
22,14,22,23,36,10,52,0,333,41,41,31,5,53,64,1,276
10,13,15,14,17,4,25,0,243,25,24,16,9,22,18,4,223
5,4,6,5,6,5,10,1,61,24,7,3,2,5,13,0,49
2,8,5,4,10,7,7,0,52,12,8,1,2,6,16,1,49
2,6,0,6,5,0,3,1,35,15,0,0,3,4,10,0,26
13,9,29,7,25,15,31,2,262,90,18,10,4,21,27,0,223
13,7,28,2,19,8,19,15,296,35,33,23,6,28,19,0,263
8,16,14,2,15,0,10,1,143,25,13,18,5,19,2,0,127
2,7,2,3,1,5,5,0,64,4,5,2,5,8,9,1,55
4,12,18,4,12,8,15,7,163,26,14,3,5,26,15,0,154
12,10,18,7,24,5,20,2,348,47,20,18,4,45,26,0,286
0,0,1,0,0,0,3,0,29,2,1,0,0,1,5,0,24
4,2,2,3,4,2,5,1,63,3,4,0,2,7,15,0,55
20,21,29,31,41,34,50,0,709,38,31,33,22,54,92,1,664
5,6,18,18,26,35,33,2,526,17,22,16,6,34,81,0,493
21,38,23,19,42,22,45,0,539,144,29,32,11,46,52,20,415
23,9,17,7,19,7,42,0,255,42,12,22,8,25,36,2,232
31,36,49,30,69,10,63,0,797,108,74,50,15,56,56,4,722
13,6,24,15,27,9,22,0,202,10,19,22,3,25,30,3,206
24,30,44,19,69,18,52,3,626,99,43,24,19,67,74,0,559
16,7,12,3,20,4,13,0,82,24,20,10,5,15,13,9,61
0,5,4,8,3,4,18,0,69,1,8,3,2,23,20,2,52
17,17,29,9,45,11,25,10,325,20,36,43,10,60,29,0,290
31,37,40,18,44,12,49,26,567,64,62,49,19,54,58,0,518
12,6,3,11,28,7,22,0,183,27,15,13,5,19,28,1,164
1,3,3,0,8,2,5,0,32,10,0,1,0,9,8,8,18
11,4,5,1,11,3,15,3,124,11,16,8,1,19,25,0,97
31,27,27,16,41,18,51,7,536,55,53,47,21,58,57,0,463
8,17,28,12,34,18,73,5,529,26,32,16,14,41,50,0,545
20,29,14,5,15,2,26,9,95,22,19,25,30,11,8,0,100
55,46,49,10,38,4,46,21,397,68,66,85,32,42,28,0,345
58,75,80,25,66,21,91,35,766,88,91,120,69,65,70,0,714
52,67,42,21,69,26,79,38,736,70,86,106,80,87,73,0,628
94,87,64,21,49,8,68,13,837,102,98,138,61,42,52,0,748
37,26,44,8,23,10,33,9,409,55,53,31,10,30,55,0,365
19,17,20,17,37,5,20,0,357,45,28,38,9,41,28,0,303
27,22,35,16,49,17,37,0,422,52,44,34,7,50,51,9,378
15,10,13,10,8,5,29,7,275,49,33,22,3,11,19,0,235
1,1,7,1,7,2,14,0,53,11,8,2,0,2,6,0,57
3,6,0,1,5,1,5,3,57,11,3,4,0,11,7,0,45
22,12,20,9,9,0,25,0,269,53,13,28,8,14,18,6,226
76,44,61,12,44,11,53,86,601,88,84,121,44,49,61,0,541
10,13,10,7,5,1,9,4,154,28,16,11,3,7,13,0,135
38,26,39,18,32,7,36,19,571,67,61,33,12,46,52,0,515
27,22,46,21,59,16,58,0,560,62,41,53,5,71,59,8,510
3,2,1,3,20,8,13,0,54,7,10,3,4,26,17,2,35
32,42,30,25,43,24,43,4,669,53,64,40,22,63,60,0,610
15,18,8,7,18,6,13,3,131,26,7,20,12,13,13,0,128
13,19,20,17,44,8,35,18,388,45,23,31,16,35,66,0,346
10,4,17,9,21,1,8,0,167,11,16,21,3,11,28,1,146
17,12,14,1,8,2,14,0,117,20,20,12,11,4,18,1,99
5,6,9,4,16,6,19,4,238,16,15,10,9,29,12,0,216
12,9,6,7,7,4,10,0,77,36,5,4,0,10,9,1,67
4,10,8,3,10,1,22,0,90,39,4,7,0,10,6,5,77
25,56,50,14,48,15,65,0,544,180,57,37,16,55,52,8,412
28,14,13,15,44,15,31,0,341,15,20,35,6,57,54,6,308
18,17,19,9,36,7,42,4,298,58,19,24,8,34,23,0,284
15,9,20,16,14,1,24,4,294,39,37,28,5,22,28,0,238
17,14,32,8,22,16,18,11,530,33,45,31,18,24,55,0,462
3,4,6,1,8,2,7,0,88,11,9,6,1,10,10,8,64
7,2,7,2,12,4,8,1,61,10,12,4,1,8,19,0,50
8,11,6,11,20,6,18,0,133,13,8,8,5,17,18,5,139
9,2,5,10,5,18,10,6,125,19,13,13,0,11,31,0,103
4,2,3,6,6,12,4,6,63,4,2,5,1,12,28,0,54
16,10,15,11,13,6,22,0,189,22,19,12,3,19,39,0,168
1,2,2,2,5,7,13,0,98,5,1,0,0,8,14,16,86
16,30,17,32,40,34,30,0,435,49,36,22,12,42,106,2,365
20,26,21,11,28,24,34,0,366,44,25,23,19,31,58,6,324
27,14,25,16,38,30,26,0,365,25,40,31,14,46,69,4,312
30,21,25,15,33,13,47,0,533,36,37,35,16,39,59,22,473
18,14,27,9,17,6,16,11,228,25,40,27,15,22,27,0,190
8,6,10,3,8,19,12,3,119,8,13,17,6,17,27,0,100
6,1,3,3,5,1,4,1,35,4,2,9,1,9,3,0,31
4,3,3,2,7,0,8,2,105,9,3,16,1,9,5,0,91
2,5,10,2,4,2,10,0,82,18,10,12,4,3,12,1,57
1,3,2,3,10,1,4,3,84,6,7,1,4,7,8,0,78
9,5,9,3,13,3,12,0,122,8,14,15,3,13,15,3,105
68,41,30,24,77,11,64,0,685,89,64,91,18,64,63,8,603
41,24,30,10,19,2,51,0,386,62,46,59,13,38,19,1,325
67,31,68,23,52,6,55,0,608,73,79,104,18,56,51,25,504
6,0,1,1,18,2,16,0,72,3,0,5,0,25,11,12,60
32,19,23,14,53,25,37,0,439,40,36,60,4,51,56,19,376
31,20,24,11,55,10,51,0,472,33,35,51,10,74,30,18,423
29,16,28,7,30,11,37,4,333,42,38,42,5,36,42,0,290
64,30,40,17,48,8,53,0,656,66,60,85,18,60,46,30,551
7,16,15,6,21,7,12,2,113,20,9,11,7,37,14,0,101
10,12,9,10,22,5,15,0,221,18,7,8,3,31,25,8,204
59,43,68,24,65,29,86,13,729,86,88,89,20,81,115,0,637
12,14,19,6,18,12,28,10,175,31,29,24,5,32,28,0,145
30,14,19,6,21,2,18,17,255,38,42,31,10,32,17,0,212
22,11,23,10,18,6,38,9,362,82,25,26,2,22,22,0,320
14,8,14,4,5,4,27,0,201,26,13,12,8,11,22,5,180
1,2,7,2,13,0,3,5,21,3,5,1,0,7,4,0,34
9,15,15,14,33,18,30,0,315,47,23,19,7,35,47,10,261
4,7,16,4,18,2,27,4,125,13,23,15,4,22,17,0,113
3,4,5,9,7,7,5,6,78,9,8,0,1,17,24,0,65
10,9,26,28,27,5,35,0,306,29,15,15,4,31,49,24,279
16,18,19,13,23,3,26,0,415,34,33,29,17,34,39,6,341
5,5,9,2,7,7,15,1,85,22,9,5,0,7,19,0,74
10,24,4,3,8,6,14,0,120,43,16,6,6,7,23,4,84
39,32,29,13,29,1,36,0,331,42,33,56,13,29,28,6,303
6,12,8,5,15,8,23,7,161,19,11,11,3,18,34,0,149
10,12,20,6,30,9,36,17,142,25,29,25,7,41,40,0,115
3,9,6,0,7,1,33,0,52,31,8,6,6,3,10,0,47
7,0,7,2,11,0,9,0,48,16,7,4,1,7,12,4,33
20,29,24,12,29,12,31,0,332,49,25,29,7,25,23,13,318
8,6,5,5,16,6,26,8,184,30,5,21,5,27,28,0,148
30,24,24,12,44,19,33,0,520,30,36,42,14,63,55,19,447
69,24,37,20,80,20,64,0,545,43,43,111,28,79,81,18,456
23,18,27,23,49,24,29,0,515,41,25,31,23,58,47,1,482
3,2,9,4,12,7,15,0,143,20,9,9,0,25,24,5,103
48,34,43,23,57,33,57,0,641,76,32,81,40,86,89,7,525
29,20,30,10,59,18,33,14,683,47,46,55,26,84,41,0,597
26,24,28,26,37,22,38,0,611,51,36,32,20,52,73,0,548
40,25,37,12,41,19,51,0,699,70,49,55,11,51,53,0,635
26,30,33,29,35,17,38,0,778,59,47,38,32,41,74,13,682
24,12,25,27,69,35,51,0,428,35,30,27,15,90,70,6,398
55,19,43,38,41,18,25,0,548,57,39,79,22,54,77,13,446
29,10,17,9,26,14,18,0,397,29,34,33,10,33,46,15,320
44,29,32,20,55,22,45,0,503,54,34,89,23,61,60,14,415
10,13,13,10,27,12,21,6,321,18,20,16,3,43,39,0,294
50,16,32,9,41,4,45,0,929,31,41,73,27,45,42,1,866
20,15,18,16,32,18,19,0,424,35,28,24,14,51,57,5,348
23,16,26,19,44,25,31,0,457,37,29,40,21,50,58,7,399
10,2,8,4,18,9,18,0,116,18,5,6,1,24,17,14,100
0,0,3,3,5,1,3,0,47,0,4,0,0,10,4,0,44
2,2,1,1,3,2,1,1,56,3,2,1,0,6,2,0,55
25,12,13,6,31,25,28,10,441,26,12,33,7,46,59,0,408
10,3,7,3,13,12,16,0,266,20,4,12,4,17,29,7,237
5,3,2,3,22,7,14,0,309,7,9,3,3,23,18,2,300
2,5,0,0,9,3,3,2,17,2,0,5,3,6,5,0,20
5,6,5,11,8,17,9,0,82,9,5,8,2,9,18,1,91
1,0,0,1,1,3,1,0,19,2,0,0,0,2,5,0,17
9,5,6,10,40,32,26,5,338,27,15,17,7,33,54,0,318
7,9,17,11,31,9,17,4,418,23,25,24,8,45,47,0,351
23,19,18,13,39,16,29,19,519,26,25,37,9,65,73,0,460
11,16,12,7,22,8,40,0,512,35,10,26,5,35,44,5,468
27,10,18,21,51,19,28,2,633,49,27,41,7,75,47,0,563
12,14,33,11,33,18,30,0,533,31,32,20,6,54,54,28,459
4,5,10,5,16,17,18,6,338,10,12,9,7,32,47,0,302
6,6,5,1,18,8,20,1,151,52,6,9,2,16,14,0,117
12,8,13,6,18,10,21,2,273,32,18,11,1,32,28,0,241
26,12,13,11,23,11,28,0,355,79,16,13,12,29,32,3,295
26,12,19,18,20,11,27,0,444,37,17,42,14,27,53,16,371
52,49,36,13,34,17,44,52,594,82,41,77,27,50,63,0,551
56,38,35,24,39,18,70,0,558,93,35,56,15,70,65,21,483
5,3,2,5,6,6,5,0,69,10,3,7,0,9,13,0,59
13,12,15,20,13,18,33,0,413,32,18,15,9,37,67,0,359
29,15,36,22,33,18,21,0,601,49,45,46,12,51,64,1,507
15,8,6,25,40,17,27,3,310,23,20,21,11,54,57,0,265
25,28,50,32,56,36,48,0,804,69,54,46,25,59,120,29,677
12,6,19,9,18,1,14,5,281,18,15,19,7,32,18,0,256
9,3,8,7,15,8,7,7,184,23,9,8,1,17,23,0,167
23,16,28,10,59,11,32,0,530,35,40,39,13,51,50,3,478
17,4,14,4,20,6,25,23,268,15,21,24,4,32,24,0,261
4,6,6,4,3,8,10,2,63,8,4,8,4,10,16,0,56
0,3,0,4,3,7,3,0,49,0,0,1,0,5,13,6,44
19,18,24,12,25,12,26,0,455,23,24,21,11,45,55,15,397
8,11,9,6,16,5,15,0,265,29,13,12,2,12,34,1,232
38,32,38,17,61,40,54,0,593,105,75,50,29,106,113,2,393
32,34,51,10,50,18,52,21,877,120,75,67,12,78,111,0,682
28,19,34,8,38,14,53,0,828,89,66,39,26,61,122,3,616
93,50,70,31,77,39,81,4,902,172,128,143,39,108,193,0,564
0,2,11,0,12,4,9,9,83,12,6,6,2,21,8,0,75
45,14,19,14,26,7,33,9,310,61,6,55,4,44,59,0,248
12,7,11,8,12,9,20,0,160,19,12,20,3,21,26,7,131
9,12,3,10,12,6,17,0,157,9,7,7,2,14,42,2,143
5,2,11,1,23,3,12,0,162,26,9,4,2,29,14,6,129
5,3,7,7,15,15,21,4,94,9,6,5,5,19,31,0,96
8,2,5,9,21,4,12,2,174,13,7,18,5,29,13,0,152
9,0,3,1,6,5,7,0,77,10,0,12,0,10,6,3,67
8,20,19,13,43,19,30,8,439,41,20,16,12,60,53,0,397
23,24,34,9,39,30,44,12,569,67,42,41,17,53,68,0,496
0,2,5,1,4,4,3,0,64,6,7,0,1,7,17,1,44
32,21,26,32,60,13,36,16,810,114,31,63,5,105,75,0,653
14,8,10,7,17,8,15,0,131,12,15,20,2,20,20,2,119
5,4,3,4,11,1,11,5,53,12,1,7,1,13,11,0,52
28,29,32,16,32,21,36,18,662,72,38,45,22,63,85,0,549
8,8,6,4,7,5,18,0,78,23,8,10,0,9,16,0,68
0,2,3,2,5,4,7,0,17,3,4,0,1,8,4,1,19
8,0,5,2,14,3,8,0,70,9,6,4,1,8,14,3,65
6,5,2,8,19,10,15,0,253,19,20,11,0,27,24,9,208
1,0,0,5,8,0,5,0,14,2,0,3,0,6,14,0,8
4,3,6,5,5,3,5,7,54,7,6,5,2,2,15,0,55
3,7,6,5,15,5,11,21,205,6,6,4,6,18,14,0,224
5,4,7,4,12,6,16,13,207,13,7,20,5,16,19,0,194
21,10,21,13,27,11,27,19,308,19,18,24,13,38,38,0,307
25,8,14,8,9,14,22,10,316,31,29,43,7,22,48,0,246
3,1,0,2,10,6,12,1,86,14,3,1,1,13,12,0,77
14,10,7,7,20,3,12,0,331,30,14,14,3,38,23,8,274
5,5,11,9,14,5,12,5,163,13,15,13,4,28,20,0,136
4,11,7,2,11,7,6,0,208,14,18,2,9,20,20,6,167
13,5,8,2,13,4,11,1,196,12,16,18,0,18,27,0,162
12,9,12,3,9,2,11,0,152,15,9,22,6,5,20,0,133
17,6,15,5,23,3,23,0,169,23,11,22,2,29,14,1,159
7,6,12,4,7,5,3,0,122,14,10,14,2,16,10,4,96
0,0,4,2,7,0,2,1,23,1,2,0,0,8,4,0,24
5,3,3,4,10,6,9,0,68,8,4,2,4,11,18,4,57
11,12,28,7,43,16,18,0,410,50,27,28,2,57,45,0,336
20,15,14,1,16,2,16,1,272,36,21,27,4,29,20,0,220
2,7,0,1,1,1,7,2,22,15,1,0,0,2,4,0,21
1,2,2,6,8,0,11,7,112,13,9,1,1,6,18,0,101
8,12,11,2,14,1,16,0,78,6,10,28,7,18,11,0,62
30,14,27,6,23,3,30,9,198,31,23,50,6,32,28,0,170
4,1,5,1,23,6,15,0,118,14,2,6,2,36,20,1,92
3,4,7,2,10,9,11,5,116,13,11,8,3,20,22,0,90
4,4,3,7,2,0,0,3,30,6,11,3,1,5,1,0,26
1,7,5,1,16,4,11,1,123,11,18,7,1,22,9,0,101
1,4,4,1,0,0,6,0,65,5,4,7,0,4,9,2,50
0,2,2,6,4,2,6,3,25,2,1,1,2,8,8,0,28
3,2,8,4,6,4,10,3,134,6,12,11,4,10,14,0,117
8,5,2,2,8,2,5,0,51,6,2,8,4,6,6,5,46
7,5,5,0,6,0,10,0,53,11,9,11,2,11,8,0,34
3,1,5,5,8,4,9,0,79,0,7,2,3,15,13,0,74
7,2,5,4,0,2,8,0,40,7,7,3,1,1,0,7,42
12,3,4,4,12,2,30,0,108,20,9,6,7,15,15,1,102
5,1,8,3,10,5,18,6,82,14,19,9,6,9,12,0,69
4,6,4,0,23,4,12,3,93,5,7,7,2,17,16,0,95
2,4,7,7,13,3,9,3,87,9,10,7,3,16,13,0,77
9,8,9,6,13,9,16,0,156,13,18,15,12,16,25,1,126
37,35,36,21,31,19,56,20,633,56,64,52,35,60,96,0,525
19,18,20,5,18,8,18,10,146,18,20,30,11,21,23,0,139
5,1,8,14,6,8,8,0,142,6,9,10,5,13,16,2,131
9,6,3,9,7,5,11,5,117,7,6,15,4,10,20,0,110
7,2,5,1,9,10,11,0,63,8,4,9,0,13,17,2,55
3,0,1,1,8,3,11,0,102,15,2,2,2,24,10,3,71
1,3,3,4,11,3,2,4,48,5,1,2,2,10,9,0,50
16,7,8,4,9,2,23,0,72,22,13,16,3,11,25,1,50
1,3,5,1,7,8,7,0,40,9,4,5,2,6,10,0,36
10,7,7,6,6,7,10,3,152,20,14,11,0,9,8,0,146
9,5,3,3,3,2,3,10,45,5,7,11,3,3,8,0,46
4,14,6,4,11,1,10,0,161,15,16,7,2,7,9,5,150
1,3,3,3,4,1,1,1,43,8,7,3,0,13,10,0,19
3,4,6,0,3,0,12,6,95,10,6,8,1,11,9,0,84
21,18,13,7,18,1,30,10,237,49,31,30,9,14,23,0,199
8,5,12,2,10,4,22,0,156,5,12,37,5,6,17,3,134
20,22,23,8,14,3,27,18,270,42,43,33,16,21,24,0,226
31,22,19,9,17,7,24,3,230,46,25,43,14,20,40,0,174
49,46,53,14,31,8,51,13,701,113,73,72,29,61,53,0,565
40,30,22,16,23,1,21,62,292,62,28,60,21,29,25,0,282
49,24,30,7,37,5,35,3,428,52,39,86,13,41,25,0,362
109,100,81,25,44,7,98,146,617,168,98,159,50,57,74,0,621
64,35,41,9,29,4,37,31,349,61,68,84,27,32,44,0,283
22,13,10,5,15,0,17,15,135,50,11,15,9,15,8,0,124
7,2,11,6,5,1,8,0,64,12,14,5,0,7,4,1,61
3,0,2,1,6,5,4,3,61,7,3,1,0,8,11,0,55
3,2,2,2,2,1,6,1,146,6,3,4,0,9,9,0,134
3,0,6,3,5,3,5,0,94,2,0,5,2,20,10,8,72
11,4,8,0,9,3,2,0,27,7,9,7,1,8,3,0,29
9,5,5,1,10,2,17,0,126,18,6,10,1,16,18,2,104
7,4,4,7,13,2,8,8,64,15,4,13,1,15,17,0,52
3,7,2,0,11,5,5,1,74,7,5,3,2,11,16,0,64
1,0,6,1,5,3,2,1,21,2,4,5,0,2,8,0,19
3,0,2,1,4,7,8,3,103,4,2,2,1,11,11,0,100
4,1,5,2,3,0,20,0,70,3,8,6,1,4,30,1,52
4,2,0,1,8,0,9,3,32,4,0,2,1,10,5,0,37
5,2,4,4,6,3,8,3,44,5,5,10,0,7,10,0,42
3,2,1,1,13,6,9,2,35,12,5,3,1,10,8,0,33
4,4,3,1,7,1,5,3,30,7,4,2,1,3,6,0,35
0,1,4,1,7,2,2,5,29,6,8,0,2,13,7,0,15
6,3,0,1,10,2,7,0,57,12,1,9,2,3,8,0,51
6,11,12,10,15,4,7,3,83,19,11,8,6,12,14,0,81
1,4,6,4,6,0,10,0,58,6,2,2,1,8,15,0,55
0,2,2,5,4,0,2,0,40,9,4,0,2,5,1,0,34
10,5,7,8,17,5,14,0,177,44,8,14,3,25,14,7,128
18,9,11,7,6,6,29,0,188,23,16,19,3,13,66,13,121
18,12,8,5,21,7,20,0,269,13,11,28,9,30,36,21,212
4,6,3,4,12,1,7,16,137,18,11,4,1,15,13,0,128
17,10,15,2,11,17,18,1,147,15,7,27,7,21,55,0,106
8,12,10,5,19,3,10,4,125,20,10,20,7,24,10,0,105
19,10,16,3,23,6,19,0,327,16,14,37,2,47,19,8,280
4,3,5,1,10,0,5,0,27,7,7,6,0,7,2,5,21
5,5,2,2,10,2,2,5,36,4,4,6,2,7,8,0,38
2,0,11,0,16,4,9,0,70,10,5,1,2,25,13,3,53
6,9,7,11,7,7,11,7,98,10,8,8,2,13,29,0,93
6,2,3,3,2,5,12,0,56,17,5,5,2,5,22,0,33
15,6,12,3,17,7,8,15,160,16,14,27,0,17,27,0,142
5,3,6,1,11,0,1,0,42,7,11,9,0,11,1,3,27
4,1,5,5,2,4,8,1,53,3,7,6,2,7,11,0,47
33,11,19,3,22,3,14,6,177,12,25,81,4,27,12,0,127
10,6,14,10,24,2,19,8,175,26,8,24,7,20,23,0,160
6,12,1,3,11,4,14,0,114,17,5,6,2,12,16,0,107
3,1,0,1,6,2,9,3,49,4,2,3,0,2,4,0,59
1,1,4,4,11,3,1,0,64,2,7,1,0,9,11,2,57
9,5,8,4,11,0,8,12,106,14,10,8,2,16,9,0,104
105,66,53,22,59,14,40,13,556,98,64,140,48,101,69,0,408
13,5,7,4,8,4,11,8,123,13,14,26,6,14,21,0,89
13,20,7,4,34,7,17,7,201,45,13,38,7,29,29,0,149
71,42,58,47,104,40,78,0,1125,115,85,100,28,140,154,14,929
120,57,67,38,96,26,84,11,987,117,84,165,69,166,106,0,779
5,4,2,7,9,8,11,4,160,17,10,4,5,13,23,0,138
8,3,13,6,16,2,16,9,102,12,8,14,3,31,27,0,80
12,4,4,1,11,6,7,0,54,11,5,8,2,21,12,4,36
9,11,15,7,15,2,17,10,131,17,14,18,12,37,17,0,102
16,12,7,2,17,7,21,11,189,27,16,31,15,30,42,0,121
23,9,12,2,28,7,13,9,175,14,15,45,2,40,23,0,139
2,2,7,0,15,1,10,3,69,7,11,10,1,16,9,0,55
11,1,10,1,7,8,11,2,104,7,12,9,4,25,14,0,84
6,4,3,3,7,0,12,5,74,9,7,11,4,12,2,0,69
5,11,5,1,4,1,10,0,29,7,6,3,5,4,5,4,32
9,3,6,4,30,5,18,0,171,17,12,11,2,25,22,9,148
5,1,0,2,3,2,4,5,93,5,5,5,1,9,6,0,84
4,0,1,0,13,6,3,5,95,12,3,5,0,25,15,0,67
6,4,9,8,7,6,4,1,60,13,12,6,3,8,21,0,42
11,10,19,4,16,0,10,0,84,12,16,14,9,14,10,2,77
43,51,33,11,37,7,37,10,331,77,54,48,26,50,37,0,268
38,49,38,8,33,2,38,0,217,75,34,29,19,29,26,6,205
25,20,25,8,16,1,10,10,135,36,23,36,9,16,11,0,119
24,7,6,10,12,2,12,6,103,15,28,26,6,7,15,0,85
1,7,3,0,5,4,10,0,66,3,4,1,1,3,5,2,77
13,15,15,4,12,0,21,0,119,23,15,17,12,19,16,9,88
19,12,3,0,2,1,5,0,50,3,3,20,2,2,3,14,45
21,16,10,5,11,5,8,6,155,21,8,22,9,19,19,0,139
30,47,49,11,42,12,40,5,355,77,48,42,34,34,35,0,321
2,6,4,0,2,3,8,2,20,16,1,4,0,0,1,0,25
19,11,9,1,15,5,18,14,51,21,14,16,4,17,14,0,57
3,0,4,3,12,8,3,0,147,2,4,4,1,14,16,13,126
6,1,4,1,4,6,12,0,53,8,3,4,4,12,10,2,44
7,3,2,1,9,1,0,2,107,10,5,7,1,10,9,0,90
7,1,3,1,8,5,4,0,53,7,2,3,0,11,11,1,47
1,4,2,0,8,0,8,0,73,4,5,8,2,8,5,2,62
12,8,26,4,6,4,20,8,182,17,20,28,5,23,34,0,143
12,9,10,6,21,6,8,3,219,40,8,9,2,34,19,0,182
12,3,9,3,9,4,11,19,90,22,11,12,1,14,19,0,81
2,6,5,5,5,1,7,0,62,8,6,1,3,6,8,7,54
2,11,10,4,10,1,12,0,59,21,5,0,0,10,15,3,55
8,11,10,8,13,2,13,0,121,8,9,16,9,9,15,5,115
0,0,8,4,2,4,13,5,83,12,9,2,0,6,9,0,81
118,40,62,57,112,14,89,3,1262,81,93,192,27,153,115,0,1096
21,12,27,7,12,8,25,0,241,21,24,35,6,20,20,2,225
3,14,1,9,28,3,13,2,151,15,6,12,14,39,21,0,117
30,7,24,11,38,8,25,8,306,27,31,56,4,51,40,0,248
3,1,7,1,16,1,14,0,119,12,10,15,3,20,24,1,77
10,12,10,2,9,6,17,7,96,24,7,16,0,16,13,0,93
4,5,13,1,6,7,9,0,57,21,7,3,0,9,15,1,46
9,11,9,13,11,3,15,1,152,38,8,14,7,16,16,0,125
8,12,6,7,8,3,11,0,148,38,5,12,4,22,19,1,102
24,16,12,8,21,4,14,5,298,5,17,77,1,33,33,0,236
11,5,4,1,16,1,7,3,64,13,5,10,0,17,7,0,60
11,6,17,9,16,1,14,0,152,24,17,18,3,32,19,1,112
3,0,4,5,6,0,5,7,26,9,3,3,1,7,10,0,23
7,0,2,0,5,0,5,0,83,6,2,4,0,10,9,2,69
2,2,2,4,14,5,2,0,99,5,4,6,1,11,18,6,79
5,0,5,2,2,1,9,0,33,7,2,3,0,0,13,2,30
23,22,22,3,15,5,15,0,246,44,21,22,11,23,20,8,202
33,24,17,13,19,2,17,29,126,18,18,99,7,15,20,0,103
29,30,32,1,20,7,23,12,352,24,30,108,13,28,22,0,281
32,16,23,6,20,0,17,9,191,24,18,59,17,27,17,0,152
25,11,20,8,20,3,32,17,120,28,26,29,9,20,26,0,118
2,4,0,0,8,4,6,6,57,15,3,1,3,8,6,0,51
3,6,7,7,7,7,6,0,63,15,4,4,6,10,11,1,55
24,13,17,24,20,7,21,24,242,35,35,24,15,37,38,0,208
17,14,21,5,38,8,22,0,271,20,31,19,13,45,26,0,242
25,26,16,8,13,16,27,16,221,33,32,29,29,22,40,0,183
8,9,8,6,8,4,4,0,69,15,5,4,6,5,13,4,64
9,11,16,10,10,4,8,2,192,40,17,10,6,20,11,0,158
14,6,15,5,13,3,13,2,144,24,18,11,2,30,10,0,120
7,8,6,3,19,1,7,0,126,14,10,7,5,17,11,7,106
6,2,4,3,21,2,13,1,86,13,2,11,0,23,11,0,78
3,1,2,0,14,3,4,0,72,1,4,5,0,9,4,3,73
1,3,3,2,3,7,4,0,57,5,2,1,0,4,10,0,58
32,31,32,15,64,27,53,0,600,52,45,47,21,61,58,30,540
7,7,5,2,1,1,4,1,31,8,6,10,2,0,6,0,27
5,3,10,5,11,8,1,0,33,1,6,6,2,10,11,5,35
4,7,6,3,6,1,14,4,53,13,9,8,2,7,5,0,54
31,18,16,4,20,0,20,15,164,38,17,32,6,23,12,0,160
3,3,6,8,4,7,6,1,93,12,10,7,7,8,14,0,73
3,6,2,5,8,3,5,8,69,13,4,9,1,14,12,0,56
8,3,4,0,5,1,12,2,75,20,8,8,1,13,7,0,53
8,9,3,1,11,2,4,4,47,9,4,8,4,11,3,0,50
3,6,5,3,22,5,15,0,161,11,8,4,1,23,24,15,134
1,1,3,3,6,2,6,7,25,10,3,5,1,5,6,0,24
14,11,12,6,13,11,11,0,129,13,11,22,3,11,21,16,110
1,2,2,1,19,4,13,0,106,5,7,0,1,18,13,3,101
31,36,29,14,20,5,30,3,271,76,38,37,14,22,26,0,226
0,2,1,3,5,8,1,1,75,2,1,5,0,10,9,0,69
2,2,4,3,7,0,15,0,37,19,4,1,0,8,1,4,33
2,7,4,3,10,8,5,0,96,8,4,3,1,7,8,2,102
4,11,10,7,7,3,4,0,46,11,2,0,1,12,15,5,46
4,4,5,2,10,4,4,5,76,12,7,5,3,12,13,0,62
14,5,7,5,14,5,14,0,183,22,17,18,6,11,16,5,152
6,7,7,3,14,7,5,4,72,12,12,12,7,23,16,0,43
10,9,6,2,6,0,8,15,187,23,11,21,4,23,10,0,151
6,2,11,4,5,0,4,2,36,13,10,6,0,6,9,0,26
12,3,2,2,11,4,6,1,55,20,3,5,4,9,8,0,47
2,8,3,3,10,2,12,6,115,5,12,5,7,10,9,0,113
9,4,5,5,18,3,17,1,87,10,8,8,6,21,10,0,86
8,18,18,5,20,4,16,9,252,28,29,19,7,24,31,0,212
10,14,26,8,25,5,20,11,357,28,25,19,15,49,25,0,315
4,1,4,0,8,1,13,0,29,5,3,8,0,7,8,1,28
8,10,5,4,9,0,13,3,81,22,10,10,1,20,10,0,60
4,5,6,1,20,2,8,2,135,9,8,6,3,19,20,0,118
9,4,6,9,10,3,16,3,126,7,6,16,3,19,18,0,117
50,14,24,12,35,5,32,0,290,37,24,72,9,34,26,3,257
58,30,20,11,20,9,34,3,190,44,23,76,18,22,27,0,165
83,90,46,17,50,15,56,38,556,165,70,89,32,43,65,0,487
8,1,1,5,6,0,10,1,33,7,1,9,4,8,4,0,32
1,1,7,1,2,6,12,0,105,9,13,8,1,6,15,1,82
