OBEC,OKRSEK,VOLICI,HLASY,HLASY_1,HLASY_2,HLASY_3,HLASY_4,HLASY_5,HLASY_6,HLASY_7,HLASY_8,HLASY_9
504301,1,326,201,7,26,17,3,0,0,87,22,39
504807,1,204,155,6,26,10,2,1,0,60,18,32
504921,1,236,165,3,15,9,0,2,0,97,7,32
504955,1,117,82,6,7,1,3,0,1,28,13,23
505005,1,339,231,12,25,9,1,0,0,109,16,59
505030,1,161,101,1,9,5,1,0,0,44,11,30
505145,1,1291,693,29,71,41,8,3,2,317,57,165
505391,1,304,202,6,15,7,2,3,1,129,7,32
530697,1,108,78,4,8,3,4,0,1,32,7,19
530794,1,171,109,3,12,4,2,0,1,64,11,12
547794,1,69,50,0,3,12,3,0,0,26,3,3
547808,1,220,134,4,12,7,0,2,0,64,23,22
547816,1,365,270,6,11,44,6,1,0,98,27,77
547824,1,99,63,1,2,4,0,0,0,22,8,26
547832,1,197,146,7,21,12,0,1,0,57,13,35
547841,1,162,129,0,6,7,0,1,7,70,8,30
547859,1,96,58,1,9,1,2,0,1,25,8,11
547867,1,116,79,4,1,12,0,0,0,28,4,30
547875,1,201,128,3,6,10,2,0,0,59,15,33
547891,1,315,220,2,18,31,2,0,0,91,22,54
547905,1,646,429,18,32,44,4,7,2,194,49,79
547921,1,61,43,3,2,0,1,0,0,30,4,3
547964,1,191,128,0,10,16,1,0,0,52,11,38
547972,1,78,46,0,1,5,3,0,1,21,3,12
547981,1,376,221,0,28,10,0,1,2,106,33,41
548006,1,82,47,1,5,3,1,2,0,16,4,15
548014,1,1031,722,31,62,95,13,0,2,276,53,190
548022,1,151,115,4,11,23,1,1,3,27,17,28
548031,1,634,411,4,44,49,2,3,1,129,51,128
548049,1,382,286,13,35,20,2,3,1,98,29,85
553719,1,547,380,18,48,36,4,1,2,96,43,132
553760,1,348,234,10,26,16,5,2,1,74,33,67
554847,1,289,192,13,15,23,1,2,0,81,22,35
554952,1,227,153,1,18,7,0,0,0,58,15,54
555240,1,478,279,12,12,20,2,2,2,138,35,56
556882,2,174,125,5,11,6,1,0,1,55,16,30
556882,1,442,332,20,38,26,6,1,2,95,41,103
571164,9,802,587,42,68,41,6,1,2,182,53,192
571164,23,802,567,26,63,43,11,6,1,194,56,167
571164,22,556,393,14,35,41,2,3,1,169,31,97
571164,21,637,471,24,52,42,8,0,2,187,34,122
571164,20,533,316,7,27,31,6,1,3,128,33,80
571164,19,498,327,12,29,13,4,1,0,152,29,87
571164,29,99,54,4,8,1,0,1,0,19,4,17
571164,28,162,117,2,15,10,4,0,0,35,8,43
571164,27,454,317,14,35,17,2,5,2,132,30,80
571164,26,606,439,16,41,44,3,3,1,165,45,121
571164,25,125,82,3,10,9,3,0,0,39,11,7
571164,24,505,340,10,26,23,6,0,1,146,32,96
571164,2,1134,685,32,74,82,11,2,3,248,63,170
571164,1,1073,632,21,55,48,5,7,1,233,79,183
571164,5,575,385,19,34,32,5,1,3,177,35,79
571164,4,664,473,20,52,40,6,0,1,159,45,150
571164,3,903,606,36,56,57,8,4,2,208,66,169
571164,14,558,397,22,43,47,7,0,1,106,40,131
571164,13,802,516,25,47,27,12,5,5,212,38,145
571164,12,737,521,21,57,64,9,6,1,151,43,169
571164,8,511,320,21,34,24,2,0,3,98,22,116
571164,7,626,415,17,36,54,5,1,3,153,31,115
571164,6,971,729,32,50,90,9,2,4,219,76,247
571164,18,529,324,11,19,38,3,0,1,144,26,82
571164,17,515,334,16,36,16,7,1,0,132,30,96
571164,16,556,375,19,25,22,3,2,2,170,27,105
571164,15,654,335,15,25,26,6,0,2,145,28,88
571164,11,573,367,13,40,26,7,0,2,124,42,113
571164,10,1306,453,31,60,42,11,4,1,130,47,127
571181,1,441,285,10,16,18,5,1,4,133,28,70
571202,1,529,367,14,23,41,7,3,1,155,39,84
571229,1,153,87,6,5,3,1,0,0,39,12,21
571237,1,170,109,3,10,5,3,0,0,62,5,21
571245,1,300,212,10,15,11,4,3,2,111,12,44
571253,1,222,158,2,6,17,1,1,2,93,11,25
571270,1,268,143,5,14,6,1,2,2,65,16,32
571296,1,88,66,3,2,4,2,1,0,33,4,17
571300,1,116,81,2,4,10,0,0,0,44,9,12
571377,1,196,122,7,17,6,1,0,0,59,8,24
571385,2,430,264,12,16,17,2,2,1,110,32,72
571385,1,810,427,32,42,52,7,2,1,122,41,128
571385,7,276,195,1,19,22,5,1,0,89,16,42
571385,6,701,489,13,45,52,6,3,1,198,42,129
571385,5,626,398,19,38,31,8,4,1,128,50,119
571385,4,542,347,6,37,31,7,1,0,149,36,80
571385,3,552,340,8,38,17,7,5,4,165,16,80
571393,5,642,395,12,26,44,7,3,2,178,43,80
571393,4,925,493,19,38,71,3,1,0,220,39,102
571393,3,830,571,27,45,60,5,2,3,249,54,126
571393,2,491,301,11,17,31,0,2,4,132,21,83
571393,1,594,414,21,33,43,9,3,1,171,28,105
571393,15,86,55,0,3,10,0,0,0,25,2,15
571393,14,193,145,8,10,8,0,0,0,79,6,34
571393,13,197,111,0,3,6,1,0,1,76,4,20
571393,12,793,534,14,41,50,5,0,2,249,46,127
571393,11,510,331,3,22,20,2,4,4,178,20,78
571393,10,479,300,8,16,48,7,1,0,150,9,61
571393,9,538,376,5,32,23,2,1,4,166,28,115
571393,8,548,368,8,25,27,0,2,1,221,21,63
571393,7,553,386,13,26,32,4,2,0,213,16,80
571393,6,552,337,7,27,38,2,0,0,162,24,77
571407,1,161,123,2,2,22,0,1,0,59,7,30
571440,1,651,413,15,35,19,4,2,0,211,33,94
571458,2,51,32,0,10,1,0,0,0,16,2,3
571458,1,90,51,0,10,6,0,0,0,24,3,8
571466,2,53,27,2,0,0,0,0,1,19,2,3
571466,1,258,199,12,23,7,1,2,0,78,27,49
571474,1,380,267,11,27,13,6,0,0,136,18,56
571482,1,108,70,1,4,2,0,0,1,42,8,12
571491,3,96,68,9,9,3,0,0,0,18,4,25
571491,2,476,327,11,22,23,6,0,0,162,31,72
571491,1,978,533,15,48,46,4,1,0,213,40,166
571504,1,286,178,4,18,8,2,3,1,83,4,55
571539,5,58,43,0,0,12,0,0,0,17,3,11
571539,4,180,122,4,9,7,0,0,0,68,8,26
571539,3,256,136,3,4,12,2,1,0,77,12,25
571539,2,1005,606,30,52,30,4,6,2,275,57,150
571539,1,962,604,28,48,32,6,1,2,272,54,161
571547,2,177,108,2,17,1,2,0,0,49,7,30
571547,1,835,511,25,40,24,7,2,4,232,41,136
571563,2,86,51,1,6,4,0,0,0,20,7,13
571563,1,257,167,8,17,22,0,0,0,62,18,40
571571,2,98,62,0,3,14,2,0,0,14,5,24
571571,1,523,387,8,35,75,5,4,1,157,27,75
571580,1,205,155,1,6,18,4,5,0,78,5,38
571610,1,486,345,13,38,11,6,1,0,152,45,79
571628,1,276,185,12,16,13,2,0,1,67,13,61
571652,1,126,104,1,9,7,0,3,0,48,7,29
571661,4,86,58,0,1,10,0,0,0,27,4,16
571661,3,92,61,0,4,3,2,0,1,26,6,19
571661,2,167,125,1,3,20,0,0,2,65,7,27
571661,1,772,513,11,58,65,5,0,2,207,39,126
571695,1,254,157,4,16,13,4,1,2,68,19,30
571709,1,126,80,1,12,3,0,1,0,33,4,26
571725,1,78,60,3,1,9,0,1,0,23,8,15
571733,1,121,98,2,5,8,2,1,1,48,7,24
571750,1,134,94,2,4,7,1,1,0,40,8,31
571768,1,685,491,16,40,30,3,4,2,233,43,120
571776,4,191,126,4,14,14,0,0,2,44,9,39
571776,3,225,136,8,12,4,0,0,0,82,9,21
571776,2,850,611,14,62,58,10,3,0,234,46,184
571776,1,744,403,13,28,46,2,3,0,139,38,134
571776,6,115,70,0,4,5,0,1,0,24,6,30
571776,5,104,86,3,4,16,2,0,1,27,6,27
571822,1,238,138,4,5,9,2,1,1,83,7,26
571831,2,243,163,1,13,7,4,0,0,88,10,40
571831,1,798,504,16,58,32,4,1,6,217,32,138
571857,1,277,200,3,8,23,4,1,0,77,23,61
571873,1,254,166,2,16,18,2,1,0,73,11,43
571873,3,68,53,0,3,3,1,1,0,35,3,7
571873,2,183,128,2,12,2,2,1,1,56,8,44
571873,4,60,44,1,4,2,0,1,0,16,12,8
571890,1,97,61,1,0,9,0,1,1,35,4,10
571903,1,366,219,5,16,17,3,3,0,115,16,44
571903,2,106,74,2,5,2,0,1,0,43,4,17
571911,1,1334,911,29,68,73,17,7,4,412,79,222
571920,1,256,154,11,5,18,4,3,0,50,10,53
571962,1,625,445,9,32,29,4,2,0,207,38,124
572004,1,206,153,0,12,9,1,0,1,78,19,33
572039,1,233,136,2,5,4,1,1,1,72,18,32
572063,1,199,128,0,8,7,0,0,0,65,6,42
572071,1,1123,544,9,38,22,5,5,2,295,57,111
572080,4,91,67,2,3,8,0,0,0,31,4,19
572080,3,178,109,2,4,9,5,0,0,44,14,31
572080,2,429,296,5,14,26,2,0,0,138,15,96
572080,1,1037,703,7,42,115,8,9,0,230,41,251
572098,1,645,438,3,40,27,4,1,2,203,41,117
572101,1,357,229,6,21,34,1,2,0,83,24,58
572110,1,180,102,4,3,1,2,2,0,48,9,33
572152,3,61,46,0,4,9,0,0,0,24,0,9
572152,2,57,41,0,1,3,0,0,0,24,5,8
572152,1,179,138,10,4,12,0,0,0,76,9,27
572161,3,159,94,2,7,8,0,0,0,53,3,21
572161,2,625,401,9,23,30,6,1,3,209,42,78
572161,1,563,365,16,28,25,6,1,1,163,38,87
572179,4,100,57,0,7,1,1,1,0,24,4,19
572179,3,94,58,0,4,2,2,0,0,29,5,16
572179,2,103,66,3,6,5,0,0,0,36,8,8
572179,1,798,489,17,34,38,2,2,6,212,37,141
572195,1,29,20,1,1,0,0,0,0,12,1,5
572209,2,39,31,4,3,0,1,0,0,9,2,12
572209,1,237,148,3,17,5,2,0,1,62,19,39
572209,3,37,29,0,1,2,0,1,0,13,2,10
572217,1,375,251,10,26,15,2,2,0,126,18,52
572225,3,200,137,9,12,8,0,0,0,64,19,25
572225,2,230,138,4,4,12,0,2,0,89,5,22
572225,1,1081,643,27,44,45,5,8,1,317,55,141
572233,1,59,43,5,3,6,0,1,0,7,4,17
572241,1,906,456,16,24,45,6,1,0,212,32,120
572241,14,256,158,0,5,17,2,0,1,80,10,43
572241,13,45,31,0,0,0,0,0,4,14,1,12
572241,12,36,24,3,2,1,1,0,0,10,2,5
572241,11,45,36,0,1,3,0,0,0,20,3,9
572241,10,49,27,3,1,3,0,0,0,12,0,8
572241,9,93,62,0,2,5,0,2,2,31,3,17
572241,8,98,60,1,5,1,1,0,0,32,5,15
572241,7,92,69,0,5,5,2,0,0,30,8,19
572241,6,129,90,0,4,5,0,1,0,34,11,35
572241,5,182,138,2,13,20,3,1,0,62,14,23
572241,4,711,448,16,25,33,3,4,2,230,31,104
572241,3,644,377,14,31,34,2,0,2,182,28,84
572241,2,891,558,22,36,48,7,5,1,234,35,170
572250,1,107,74,3,5,3,1,0,0,33,17,12
572268,6,127,94,2,9,9,5,0,0,32,12,25
572268,5,178,133,5,17,11,2,0,0,54,12,32
572268,4,389,280,9,45,29,0,3,1,103,30,60
572268,1,861,510,10,48,33,5,3,6,211,47,147
572268,2,966,549,6,43,56,2,4,4,252,43,139
572268,3,853,614,25,33,56,11,4,3,243,61,178
572276,1,708,526,16,55,69,7,6,3,172,59,139
572284,1,45,37,0,3,0,2,0,1,16,3,12
572292,1,58,42,5,7,1,1,0,0,13,7,8
572306,1,158,97,2,14,4,4,1,1,49,8,14
572314,1,149,91,3,11,14,1,1,0,34,6,21
572322,1,373,250,5,15,28,1,0,1,124,21,55
572331,1,359,259,20,19,12,1,2,0,107,30,68
572349,1,707,522,27,27,48,2,4,4,238,38,134
572357,1,266,218,0,11,66,0,3,1,47,16,74
572365,1,327,244,3,19,61,1,1,0,60,32,67
572373,1,366,275,9,12,71,1,1,2,65,31,83
572381,1,266,168,6,11,18,6,0,0,80,6,41
572390,1,753,518,15,23,48,4,5,2,274,43,104
572403,1,152,93,3,10,5,3,1,0,38,7,26
572411,3,660,407,23,46,33,1,1,4,166,34,99
572411,2,561,335,10,28,17,3,5,2,167,34,69
572411,1,1008,630,16,53,47,4,1,1,280,56,172
572411,4,223,132,3,9,3,2,4,0,72,8,31
572420,1,490,337,10,31,17,2,0,0,165,31,81
572438,1,55,37,2,4,5,0,2,0,14,4,6
572446,1,395,224,13,9,20,0,0,1,109,18,54
572454,1,194,131,3,17,10,2,0,0,66,12,21
572462,1,450,297,7,18,24,4,3,0,141,33,67
572471,1,262,172,6,8,9,9,1,0,88,10,41
572489,1,104,72,0,2,7,2,2,0,39,7,13
572497,1,371,254,12,19,22,2,2,3,125,18,51
572501,1,337,240,5,17,20,1,0,2,113,10,72
572519,1,368,244,17,19,15,3,2,1,137,18,32
572527,1,205,128,3,9,16,0,2,0,71,5,22
572535,1,280,206,4,11,22,4,2,1,116,8,38
572543,1,127,93,2,4,5,0,2,0,62,1,17
572551,4,121,89,2,10,14,2,0,2,30,10,19
572551,3,98,69,1,5,1,0,0,0,34,14,14
572551,2,76,48,4,2,2,0,0,0,31,0,9
572551,1,292,214,5,6,9,2,4,0,128,18,42
572560,1,258,160,2,5,16,1,2,0,83,11,40
572578,1,853,564,20,35,38,3,5,4,291,52,116
572586,1,414,262,4,23,21,2,1,0,154,18,39
572594,1,65,51,1,5,0,1,0,0,18,8,18
572608,1,180,120,3,8,20,1,1,0,46,17,24
572616,1,144,93,3,6,13,0,0,1,31,13,26
572624,1,223,146,6,19,9,3,0,2,64,15,28
572632,1,139,95,1,4,2,5,0,0,61,7,15
572641,1,221,172,11,7,14,1,0,0,77,15,47
572683,1,166,110,1,1,7,1,1,1,74,6,18
572691,1,1348,773,17,74,43,11,9,3,407,58,151
572713,1,316,214,6,21,13,2,0,0,107,18,47
572721,1,533,339,11,33,23,7,0,8,127,36,94
572730,1,155,112,4,15,10,2,0,1,38,16,26
572748,1,335,176,2,12,9,2,5,0,109,15,22
572764,1,81,54,1,7,2,1,0,0,22,3,18
572799,1,168,111,6,13,9,1,0,0,31,19,32
572802,1,105,75,2,9,4,2,1,0,33,9,15
572845,1,117,80,4,9,6,0,0,0,42,5,14
572853,1,82,47,2,3,5,0,1,0,20,6,10
572861,1,207,134,5,9,7,5,2,2,63,3,38
572870,1,437,322,15,37,39,1,2,2,59,32,135
572888,1,147,88,7,7,4,0,1,0,35,5,29
572896,1,367,248,11,32,20,1,2,2,76,28,76
572934,1,182,136,5,9,12,0,0,0,57,15,38
572942,1,74,57,0,2,9,0,1,0,26,5,14
572951,1,136,101,2,13,5,1,0,0,37,11,32
572977,1,208,162,6,19,8,4,0,2,53,12,58
572985,1,173,121,4,10,10,1,1,0,36,15,44
573019,1,48,35,0,2,2,2,1,0,15,5,8
573027,1,104,73,5,8,4,2,2,0,36,4,12
573035,1,73,43,1,1,0,1,0,0,32,1,7
573078,1,132,84,6,10,5,0,1,0,35,3,24
573426,1,149,67,2,5,5,3,0,0,34,3,15
573515,1,254,168,5,25,14,2,0,1,55,18,48
573787,1,302,214,7,35,16,3,0,1,94,18,40
573817,1,96,73,4,4,8,0,0,0,24,15,18
573876,1,226,177,2,9,17,1,0,0,72,10,66
573949,1,52,31,0,3,2,0,0,0,19,2,5
574007,1,128,89,0,11,2,1,1,1,59,4,10
574091,1,98,65,5,11,5,1,0,0,28,5,10
574104,1,156,86,4,7,4,2,2,0,53,6,8
574198,1,403,313,27,33,26,3,2,0,93,29,100
574309,1,176,119,0,8,11,0,0,0,61,10,29
574325,1,173,121,2,12,9,1,2,0,66,10,19
574333,1,99,58,1,1,2,0,0,0,41,3,10
574392,1,448,298,6,14,25,6,3,2,122,36,84
574449,1,137,102,4,15,11,2,1,1,31,7,30
574724,1,170,120,3,10,7,1,0,1,45,16,37
574741,1,247,170,12,13,15,0,1,0,65,31,33
574767,3,716,487,24,33,57,3,1,1,191,49,128
574767,2,1041,681,24,85,63,9,3,0,248,50,199
574767,1,1090,750,55,91,88,8,8,4,241,74,181
574783,1,221,159,9,15,10,3,0,1,54,24,43
574791,1,195,142,6,15,11,2,1,0,60,9,38
574805,1,821,562,20,41,36,7,6,1,247,52,152
574813,1,189,138,3,16,10,4,0,0,55,18,32
574821,1,69,49,1,3,4,1,0,0,30,2,8
574830,1,306,222,10,24,24,1,5,1,78,22,57
574848,4,71,55,1,2,7,0,0,0,31,4,10
574848,3,226,169,3,23,16,1,0,1,51,18,56
574848,2,175,128,9,12,17,4,0,1,41,10,34
574848,1,674,484,29,73,71,4,4,1,106,35,161
574856,1,885,621,22,75,50,4,0,4,223,72,171
574864,1,333,233,13,15,21,1,1,1,99,33,49
574899,1,680,417,15,43,36,8,1,0,168,47,99
574899,3,251,173,5,18,31,0,2,1,50,17,49
574899,2,693,392,12,22,24,0,2,2,199,30,101
574902,1,309,204,7,27,15,5,1,0,97,17,35
574911,4,148,103,2,9,9,5,0,0,39,11,28
574911,3,210,129,5,5,9,1,0,0,59,14,36
574911,2,484,295,7,30,8,9,1,0,140,20,80
574911,1,770,441,24,41,35,2,0,3,168,52,116
574929,1,723,463,15,53,27,5,1,3,166,51,142
574953,1,324,208,11,25,24,5,1,2,59,34,47
574961,1,226,145,8,20,7,2,0,3,80,8,17
574988,9,192,123,1,23,13,2,0,0,44,11,29
574988,8,245,180,10,17,18,1,0,0,87,7,40
574988,7,614,392,14,47,32,8,0,1,148,42,100
574988,6,632,407,17,53,16,9,9,1,138,52,112
574988,5,994,547,26,59,34,6,5,1,207,50,159
574988,4,524,342,8,27,27,2,1,2,144,32,99
574988,3,622,421,21,38,31,3,0,3,148,39,138
574988,2,764,497,16,60,65,3,4,0,164,44,141
574988,1,655,427,7,36,29,3,0,1,171,45,135
574996,2,113,64,1,4,5,0,2,3,34,9,6
574996,1,1524,968,30,91,103,11,10,5,381,92,245
575011,1,803,515,13,71,44,7,2,0,153,58,167
575046,1,168,108,9,9,8,2,0,1,43,9,27
575054,1,885,577,26,48,44,11,5,1,231,51,160
575062,1,260,173,4,20,9,0,3,1,78,13,45
575071,2,1177,746,29,69,45,14,5,10,340,71,163
575071,1,1205,621,9,51,26,11,6,2,303,57,156
575071,3,77,54,1,3,3,0,0,0,30,7,10
575089,1,537,358,11,33,44,4,2,2,122,31,109
575097,1,171,123,7,7,11,2,0,0,53,12,31
575101,1,252,158,7,10,8,1,1,0,88,12,31
575119,1,191,146,8,19,2,2,2,0,52,11,50
575127,1,133,73,1,3,2,1,0,0,36,15,15
575135,1,185,111,4,8,8,0,0,0,55,7,29
575143,1,310,223,12,22,18,1,0,0,98,20,52
575151,1,154,82,3,7,6,1,0,0,32,8,25
575178,4,93,62,1,3,5,2,1,1,32,3,14
575178,3,52,26,2,4,5,0,0,0,11,1,3
575178,2,91,61,3,6,1,3,0,0,33,4,11
575178,1,293,172,6,23,6,2,0,1,94,7,33
575194,1,349,206,12,21,7,3,0,0,84,24,55
575232,1,413,268,6,19,23,7,2,0,94,30,87
575259,1,159,96,7,12,8,0,0,0,38,14,17
575305,1,440,285,8,36,12,1,3,1,132,27,65
575313,1,331,212,9,20,15,2,4,0,85,23,54
575330,1,116,73,3,3,2,0,1,0,36,8,20
575372,1,953,656,43,76,44,7,3,2,236,64,181
575381,1,148,106,2,9,7,1,0,1,46,7,33
575399,5,115,77,7,7,3,0,0,0,41,5,14
575399,4,208,143,6,11,14,0,0,0,57,16,39
575399,3,85,76,1,6,11,0,0,0,37,6,15
575399,2,1104,725,22,65,45,8,6,1,353,71,154
575399,1,34,25,1,4,2,0,0,1,5,4,8
575429,3,408,293,11,34,24,1,3,0,124,20,76
575429,2,734,412,19,60,37,2,2,1,140,45,106
575429,1,809,510,24,55,59,8,1,1,153,68,141
575437,1,841,575,26,72,46,10,4,1,203,56,157
575445,2,134,100,1,6,12,1,1,0,33,15,31
575445,1,634,404,16,37,28,4,4,2,164,32,117
575461,1,205,136,9,18,10,2,0,0,48,17,32
575470,1,79,58,4,2,2,0,2,0,30,6,12
575500,14,48,37,0,4,2,2,0,1,18,2,8
575500,13,133,88,2,9,4,2,2,0,30,12,27
575500,12,92,61,3,1,2,1,0,1,31,2,20
575500,11,151,89,3,13,7,0,0,0,35,5,26
575500,10,178,108,9,5,10,3,1,0,51,7,22
575500,9,209,141,4,10,8,4,1,1,65,16,32
575500,8,60,37,1,3,0,3,0,0,24,2,4
575500,7,844,571,18,50,54,10,0,2,229,45,163
575500,6,867,515,20,56,43,9,6,4,202,57,118
575500,5,575,369,10,33,24,4,2,3,168,27,98
575500,4,851,547,36,54,38,13,4,2,217,57,126
575500,3,916,529,21,43,34,10,3,3,213,64,138
575500,2,1370,712,26,65,66,17,4,1,288,71,174
575500,1,905,625,28,56,38,7,5,4,277,51,159
575518,1,171,114,0,8,9,2,1,2,53,18,21
575526,1,68,54,1,5,0,0,0,0,34,5,9
575534,1,467,313,23,34,34,4,0,0,106,38,74
575542,1,138,91,3,7,12,1,1,1,44,6,16
575551,1,465,299,5,45,20,4,3,0,111,38,73
575569,1,226,161,1,11,2,2,0,1,81,12,51
575577,2,147,104,3,7,10,6,0,0,38,8,32
575577,1,542,335,14,38,25,3,4,1,113,32,105
575593,1,1141,651,20,76,44,12,5,3,292,74,125
575607,2,172,121,4,13,5,2,0,0,58,9,30
575607,1,927,625,32,60,39,9,3,3,242,68,169
575615,1,100,56,2,2,2,1,0,1,40,1,7
575623,1,480,310,5,31,19,2,4,1,136,27,85
575640,8,220,173,9,26,10,0,0,0,46,17,65
575640,7,145,93,1,5,14,0,3,0,34,5,31
575640,6,48,29,0,1,1,3,0,0,16,4,4
575640,5,138,98,2,11,10,1,2,0,30,13,29
575640,4,95,66,1,9,2,0,0,0,26,8,20
575640,3,854,588,28,53,54,6,1,5,223,50,168
575640,2,695,458,22,44,26,4,4,1,171,58,128
575640,1,792,494,24,48,43,5,0,6,179,36,153
575658,1,344,232,11,31,12,2,1,2,93,27,53
575666,1,220,113,5,11,12,0,1,0,43,8,33
575682,1,983,739,59,74,63,10,2,1,202,88,240
575682,2,218,166,3,22,15,3,1,0,72,17,33
575704,2,394,253,28,34,20,4,4,0,84,18,61
575704,1,1008,736,53,89,57,13,2,3,225,69,225
575712,1,302,240,9,20,21,10,0,1,88,32,59
575721,1,482,291,20,31,18,2,1,0,150,32,37
575739,1,436,310,9,44,20,7,0,2,99,34,95
575755,1,179,113,2,13,4,1,1,2,55,15,20
575763,1,260,182,3,13,11,3,1,1,61,21,68
575771,1,357,236,13,15,28,2,0,3,103,16,56
575780,1,209,140,7,15,9,1,1,0,69,21,17
575810,1,140,96,2,9,1,0,1,0,59,5,19
575828,1,169,117,1,3,4,0,0,0,69,7,33
575844,1,220,116,5,13,4,0,2,1,47,10,34
575861,1,130,86,4,7,3,4,0,2,39,11,16
575879,1,223,159,9,17,5,0,1,0,63,18,46
575887,1,223,141,7,6,7,1,0,0,82,10,28
575909,1,148,100,3,8,4,1,2,0,50,8,24
575917,1,62,44,0,5,2,0,1,0,18,3,15
575925,1,394,259,14,29,9,2,1,0,110,19,75
575933,1,104,54,2,5,2,0,0,0,29,3,13
575941,1,378,238,7,28,19,0,3,0,84,21,76
575968,1,284,211,8,27,5,6,1,2,92,21,49
575984,1,254,173,4,8,14,3,1,1,106,8,28
575992,1,289,213,3,13,15,1,4,0,84,26,67
576000,1,326,209,3,12,16,5,3,0,87,27,56
576018,1,206,140,7,8,13,0,0,1,50,14,47
576026,2,113,71,1,3,2,1,1,0,49,1,13
576026,1,369,214,3,16,21,4,3,0,103,24,40
576042,1,111,88,2,4,4,0,1,0,54,10,13
576051,2,113,77,3,4,7,0,1,1,37,8,16
576051,1,652,430,14,40,28,10,5,0,188,34,111
577731,18,586,37,2,4,3,0,0,0,13,5,10
577731,17,591,408,28,38,51,5,0,2,114,48,122
577731,16,685,392,6,39,23,0,3,0,225,20,76
577731,15,600,366,17,32,24,6,1,0,187,25,74
577731,14,720,464,23,48,37,5,8,0,208,36,99
577731,13,775,357,3,32,28,4,2,1,172,29,86
577731,12,1092,620,14,54,55,12,15,2,268,53,147
577731,11,839,475,11,39,43,12,4,2,200,46,118
577731,10,933,542,13,51,64,12,4,3,231,44,120
577731,9,918,540,26,54,47,9,2,2,220,64,116
577731,8,693,459,16,45,40,8,2,2,198,42,106
577731,7,737,464,10,33,26,2,1,1,233,38,120
577731,6,629,420,14,30,29,3,0,0,198,34,112
577731,5,777,566,20,49,48,6,2,1,262,45,133
577731,4,935,589,21,62,46,10,4,4,262,60,120
577731,3,749,430,22,32,27,3,2,2,209,32,101
577731,2,666,394,18,29,49,4,2,2,172,32,86
577731,1,538,254,15,27,17,2,1,2,103,30,57
577774,1,281,212,10,26,28,5,6,0,56,23,58
577812,1,128,92,4,13,16,1,1,0,32,6,19
577821,1,95,59,4,6,4,0,2,0,23,7,13
577839,1,789,580,12,39,58,6,2,3,242,59,159
577863,1,1079,615,6,57,27,10,2,2,351,44,116
577871,1,290,196,5,7,6,2,0,0,126,12,38
577898,1,115,81,0,3,16,0,0,0,42,8,12
577910,1,366,259,9,21,37,0,1,0,86,21,84
577928,1,1236,896,28,61,167,13,3,3,239,98,284
577936,1,645,429,17,35,44,5,2,1,171,37,117
577944,1,774,476,16,35,65,3,4,0,182,43,128
577961,1,260,156,5,18,16,3,2,0,73,11,28
577987,1,440,249,3,17,15,6,0,1,159,17,31
577995,2,720,520,19,38,148,5,5,1,128,46,130
577995,1,847,601,16,34,101,5,3,2,155,65,220
578037,1,236,166,2,10,47,1,2,0,59,8,37
578053,1,91,76,8,9,11,1,0,0,24,4,19
578096,1,731,430,10,26,45,4,3,2,203,48,89
578100,1,107,78,0,2,11,1,2,0,20,11,31
578118,1,111,80,1,12,25,0,0,0,20,4,18
578126,1,184,121,10,4,7,2,1,1,58,7,31
578134,1,755,442,17,43,58,4,1,0,137,60,122
578142,1,48,35,1,0,6,0,0,0,18,2,8
578151,1,978,598,9,36,44,4,1,2,329,40,133
578169,1,135,106,4,6,10,3,1,0,44,5,33
578185,1,837,457,16,33,60,5,0,0,197,37,109
578193,3,1167,672,30,38,77,6,3,3,311,46,158
578193,2,1103,739,24,45,48,14,1,4,364,53,186
578193,1,53,36,2,1,0,0,0,0,24,5,4
578207,1,425,283,1,22,40,5,2,3,105,24,81
578215,1,253,128,3,6,5,0,1,0,97,3,13
578231,1,566,366,13,24,38,4,4,1,182,36,64
578258,1,644,452,13,21,44,5,6,3,190,45,125
578266,1,110,61,3,8,3,0,1,0,35,3,8
578274,1,316,190,4,13,11,0,3,0,117,15,27
578282,2,289,173,5,10,17,0,1,0,90,15,35
578282,1,807,436,14,37,32,14,4,4,194,60,77
578291,1,318,188,4,17,22,2,2,1,87,19,34
578304,1,97,63,0,3,2,1,1,0,46,4,6
578339,1,503,326,9,25,21,8,3,2,152,26,80
578347,14,192,133,3,16,23,0,0,0,35,20,36
578347,13,69,50,0,4,5,0,0,0,30,4,7
578347,12,100,63,1,6,10,1,0,0,31,4,10
578347,11,227,167,5,15,37,2,0,0,44,12,52
578347,10,414,314,29,25,60,4,2,0,66,17,111
578347,3,613,295,8,32,49,0,1,0,86,19,100
578347,2,689,460,11,37,50,3,7,2,143,35,172
578347,1,1377,953,28,90,151,13,7,2,271,94,297
578347,5,717,508,13,60,88,5,0,1,125,49,167
578347,4,269,172,11,21,22,2,0,0,48,20,48
578347,6,514,363,15,31,66,2,3,2,85,32,127
578347,9,897,620,27,56,73,4,4,1,200,57,198
578347,8,989,753,23,69,141,9,3,6,192,66,244
578347,7,688,503,23,50,101,5,8,1,105,50,160
578347,16,93,57,3,1,8,1,1,0,25,2,16
578347,15,122,76,12,12,7,0,2,2,10,6,25
578355,1,811,601,13,32,136,9,3,1,193,50,164
578363,1,249,202,2,23,37,5,0,0,62,18,55
578371,1,77,50,1,3,1,0,0,0,32,6,7
578380,8,52,30,2,1,0,1,0,0,16,3,7
578380,7,43,37,1,0,2,0,0,0,25,0,9
578380,6,79,51,0,1,3,0,0,1,28,6,12
578380,5,40,26,3,3,2,2,0,0,15,0,1
578380,4,52,28,0,6,0,0,0,0,14,1,7
578380,3,751,496,16,42,37,5,1,1,214,41,139
578380,2,118,83,2,9,5,1,1,0,34,7,24
578380,1,39,26,0,3,2,0,0,0,14,1,6
578398,1,186,137,4,15,5,0,3,0,86,13,11
578401,1,354,215,2,15,14,1,1,0,134,17,31
578428,1,446,303,4,18,39,7,1,2,125,21,86
578428,2,134,103,2,12,11,0,3,0,30,11,34
578444,7,453,286,7,49,17,4,1,1,119,24,64
578444,6,620,345,14,23,23,4,6,2,167,22,84
578444,5,788,540,19,41,52,3,5,4,238,42,136
578444,13,181,108,2,3,7,1,3,1,76,5,10
578444,4,231,155,8,19,8,3,0,5,85,5,22
578444,3,692,454,12,49,31,3,7,2,205,51,94
578444,2,839,499,16,45,20,8,1,3,273,37,96
578444,1,928,556,16,45,45,5,5,2,265,44,129
578444,12,710,469,13,45,51,5,1,2,197,45,110
578444,11,1037,342,17,17,22,2,8,3,159,35,79
578444,10,669,412,15,43,29,8,4,0,193,44,76
578444,9,650,364,7,25,33,4,2,4,179,26,84
578444,8,567,300,5,16,20,0,3,2,180,25,49
578452,1,181,134,3,12,27,1,0,0,44,10,37
578479,1,526,347,4,14,68,4,3,5,124,21,104
578487,1,933,527,8,43,32,7,4,0,269,36,128
578509,1,816,605,33,61,90,1,3,1,189,49,178
578550,1,260,147,5,5,7,1,1,0,100,6,22
578576,8,1144,847,25,69,138,12,10,1,288,80,224
578576,7,701,487,12,31,63,5,5,2,177,48,144
578576,6,661,319,13,29,33,4,4,2,95,28,111
578576,5,451,299,22,22,32,4,0,0,119,24,76
578576,4,608,404,12,30,50,9,10,1,169,14,109
578576,3,780,525,20,44,85,0,1,3,188,42,142
578576,2,683,460,24,45,55,3,0,2,157,32,142
578576,1,697,484,25,38,69,4,2,0,202,39,105
578576,12,155,100,1,2,25,0,0,1,43,10,18
578576,11,165,114,2,6,22,0,1,0,39,15,29
578576,10,130,81,9,5,3,0,0,0,37,12,15
578576,9,954,583,20,50,86,6,5,4,203,56,153
578584,2,546,365,18,30,31,2,2,2,151,34,95
578584,1,426,238,3,13,29,3,1,0,106,18,65
578622,1,133,109,0,8,20,2,1,2,36,5,35
578631,1,270,204,4,19,11,5,1,0,69,11,84
578649,1,129,93,2,5,13,1,1,1,35,8,27
578657,1,897,510,15,30,44,3,3,4,257,53,101
578673,1,539,348,10,19,29,1,0,0,185,38,66
578681,1,260,186,13,10,25,1,2,1,78,8,48
578690,1,192,141,4,8,4,1,1,2,91,12,18
578703,1,131,82,2,11,4,0,0,1,52,3,9
578711,1,499,266,4,29,15,6,1,0,141,20,50
578720,1,403,290,10,39,46,5,2,2,77,24,85
578738,1,753,566,9,35,199,5,3,1,139,54,121
578746,1,191,134,0,11,23,0,1,1,50,20,28
578754,1,189,94,1,4,4,4,0,1,57,7,16
578762,1,123,81,0,3,5,4,0,0,40,8,21
578789,1,771,451,17,24,26,5,4,1,262,48,64
578801,1,204,118,0,9,6,3,0,0,61,14,25
578819,1,191,136,1,14,24,2,1,0,33,22,39
578835,1,78,56,1,5,3,0,0,0,20,1,26
578843,3,114,94,2,5,11,1,0,0,37,10,28
578843,2,91,67,7,4,6,1,1,0,26,7,15
578843,1,113,82,5,7,5,4,0,1,27,4,29
578851,1,333,223,8,22,49,1,2,1,56,29,55
578860,1,105,68,0,2,6,0,0,0,39,8,13
578878,1,322,220,6,8,27,2,2,0,80,25,70
578886,1,344,256,2,14,64,0,1,1,101,15,58
578894,1,394,263,3,19,36,2,1,2,108,29,63
578908,1,735,333,2,26,18,3,4,0,178,28,74
578916,1,79,58,5,6,2,2,1,0,28,9,5
578932,1,752,423,11,42,30,3,1,4,212,28,92
578941,1,238,181,7,12,20,0,2,0,64,17,59
578959,1,135,71,1,6,2,2,1,0,48,5,6
578967,1,328,208,4,8,12,7,3,0,122,15,37
578975,1,369,210,7,18,11,0,1,0,121,13,39
578991,1,33,21,2,1,4,0,0,0,5,1,8
579891,2,631,424,17,49,56,7,3,0,133,43,116
579891,1,1070,471,20,43,94,9,2,1,143,46,113
579891,17,365,196,5,18,22,2,0,1,86,19,43
579891,16,244,162,3,11,3,3,4,0,75,16,47
579891,15,708,429,17,31,69,6,5,4,142,36,119
579891,14,946,589,17,81,85,10,3,1,184,53,155
579891,11,901,640,16,62,76,3,3,1,258,58,163
579891,10,569,370,17,41,40,4,1,0,153,21,93
579891,9,552,393,7,43,42,3,2,3,174,27,92
579891,8,568,385,9,38,38,7,3,1,162,25,102
579891,7,756,521,13,44,36,6,3,0,242,41,136
579891,6,775,537,27,60,76,7,0,2,204,34,127
579891,5,615,454,19,49,76,5,1,2,141,34,127
579891,4,709,401,13,39,64,2,2,1,159,25,96
579891,3,595,354,11,37,56,5,1,1,108,40,95
579891,13,728,449,13,49,56,7,3,1,142,45,133
579891,12,602,433,16,49,77,1,0,1,121,36,132
579947,1,1126,786,26,68,84,15,3,5,279,78,228
579963,1,188,141,2,15,21,3,1,1,34,13,51
579971,1,896,657,10,57,107,5,5,2,214,68,189
579980,1,318,154,5,18,11,0,5,0,61,18,36
579998,1,238,187,8,27,20,1,2,0,42,15,72
580015,7,83,57,0,3,7,0,0,0,23,7,17
580015,6,484,188,5,16,16,1,6,1,79,17,47
580015,3,493,283,7,22,18,4,1,1,120,26,84
580015,2,96,67,0,5,1,1,0,1,25,6,28
580015,1,161,94,5,6,3,0,0,0,50,8,22
580015,5,330,171,9,9,15,2,2,0,88,13,33
580015,4,802,446,10,40,37,10,4,1,206,26,112
580023,1,303,199,5,15,18,3,4,1,84,30,39
580031,8,832,562,12,53,85,7,2,3,188,56,156
580031,7,748,496,8,37,46,6,2,1,239,48,109
580031,6,851,574,21,53,57,4,3,2,266,37,131
580031,5,862,574,21,61,43,9,4,1,226,47,162
580031,4,1074,751,35,78,87,5,1,2,277,87,179
580031,3,944,593,21,86,77,12,5,4,181,71,136
580031,2,987,676,25,68,49,7,3,7,287,59,171
580031,1,1060,750,35,67,95,15,1,0,251,91,195
580031,17,521,129,3,28,14,1,0,0,53,15,15
580031,16,108,80,3,4,3,0,0,0,41,6,23
580031,15,88,78,3,7,6,1,0,0,34,7,20
580031,14,179,107,1,18,3,0,1,0,46,21,17
580031,13,1021,610,21,72,61,5,6,1,227,68,149
580031,12,379,265,9,37,32,3,1,0,100,26,57
580031,11,820,520,9,55,48,7,4,0,244,44,109
580031,10,962,650,25,66,73,5,3,4,248,80,146
580031,9,1198,510,26,53,41,6,6,3,200,61,114
580040,1,452,317,7,47,53,1,4,1,95,21,88
580058,1,474,311,13,29,34,4,6,2,122,22,79
580066,1,143,103,2,7,5,0,0,1,34,4,50
580074,1,542,339,3,34,12,2,2,1,185,22,78
580091,1,386,287,12,25,24,1,4,2,114,39,66
580112,2,93,34,2,2,5,0,0,0,11,3,11
580112,1,985,731,17,70,129,17,5,3,175,72,243
580121,4,207,118,2,4,11,6,1,0,69,10,15
580121,3,981,707,15,45,181,11,4,4,177,76,194
580121,2,775,571,18,46,111,11,5,3,166,49,162
580121,1,91,70,1,4,13,3,0,0,30,9,10
580147,2,547,408,17,28,42,5,3,1,166,41,105
580147,1,777,565,37,62,57,4,4,2,220,61,118
580163,1,449,359,16,39,55,2,1,0,89,28,129
580210,1,271,175,7,11,24,2,2,0,63,18,48
580228,1,172,130,3,17,24,0,0,0,36,11,39
580261,1,684,456,12,58,57,9,2,0,165,46,107
580279,1,832,595,19,69,74,6,3,0,181,40,203
580295,1,391,255,3,19,28,6,0,1,103,24,71
580325,2,745,524,8,63,59,2,10,0,175,45,162
580325,1,640,428,8,36,44,7,2,1,165,45,120
580333,1,502,367,14,45,50,11,3,2,114,28,100
580341,1,300,204,12,20,11,3,1,0,90,17,50
580350,7,139,102,8,5,31,0,0,0,24,11,23
580350,6,1907,1115,52,119,160,21,4,14,320,96,329
580350,5,1152,827,35,74,88,7,3,3,322,96,199
580350,4,925,623,21,55,57,5,7,2,229,53,194
580350,3,770,508,11,44,53,2,2,4,191,46,155
580350,2,868,567,11,67,50,9,0,3,200,61,166
580350,1,837,584,19,59,80,9,4,1,184,65,163
580350,9,100,69,6,9,8,0,0,0,24,7,15
580350,8,172,129,3,11,23,3,1,0,31,19,38
580376,1,594,414,6,28,63,11,2,6,132,37,129
580376,4,642,463,4,42,77,9,1,2,150,40,138
580376,3,502,350,2,35,38,7,3,5,132,38,90
580376,2,557,361,14,39,50,4,0,2,105,38,109
580392,1,541,393,4,42,50,7,1,3,122,38,126
580406,1,210,142,4,19,10,1,2,0,59,10,37
580414,1,264,195,11,19,14,2,1,1,66,34,47
580422,1,263,172,10,18,17,5,0,6,46,11,59
580431,1,715,477,19,54,50,3,7,2,167,50,125
580465,1,286,208,11,29,16,5,0,0,73,18,56
580481,7,119,77,0,6,3,0,0,0,48,6,14
580481,6,94,54,0,3,4,1,2,0,24,7,13
580481,5,161,97,2,8,7,1,0,0,46,9,24
580481,4,76,53,0,1,2,0,0,2,41,2,5
580481,3,1025,679,15,62,55,9,2,2,325,63,146
580481,2,961,482,14,36,27,4,6,4,276,33,82
580481,1,749,471,18,34,34,6,6,2,215,53,103
580481,10,65,55,2,1,3,0,0,0,25,8,16
580481,9,100,64,2,2,11,0,3,0,28,3,15
580481,8,117,72,2,1,17,2,0,0,25,5,20
580490,1,249,133,8,12,8,0,0,0,78,2,25
580503,1,807,594,16,78,54,12,12,3,146,83,190
580511,5,1048,744,30,60,61,7,8,5,298,58,217
580511,4,1333,944,39,109,99,8,11,8,313,83,274
580511,3,877,596,25,51,49,9,5,2,227,40,188
580511,8,772,515,18,42,67,5,2,2,180,48,151
580511,2,870,568,16,51,48,5,3,2,243,52,148
580511,1,940,433,8,40,38,4,0,2,186,35,120
580511,7,988,640,29,56,57,14,2,10,223,58,191
580511,6,852,549,29,64,46,4,4,1,203,44,154
580538,3,1270,891,26,88,146,11,13,5,262,93,247
580538,2,1000,731,26,55,99,4,5,7,244,65,226
580538,1,948,609,26,55,100,2,6,0,154,56,210
580538,6,119,85,3,9,13,3,0,0,25,6,26
580538,5,742,592,8,69,128,8,5,3,147,52,172
580538,4,862,636,15,58,145,4,6,0,129,62,217
580562,1,138,94,4,2,7,0,2,2,57,2,18
580571,1,410,230,6,20,13,2,1,1,127,22,38
580589,1,596,426,18,37,46,5,1,1,126,52,140
580619,1,256,184,5,15,20,3,1,1,76,23,40
580627,1,891,618,17,77,114,5,6,2,176,74,147
580635,1,599,357,6,31,28,2,1,0,192,36,61
580643,1,471,334,10,35,66,11,1,1,91,37,82
580651,2,93,64,1,6,6,4,0,0,21,7,19
580651,1,347,231,5,18,20,5,2,0,116,21,44
580660,1,190,141,4,14,9,2,0,1,62,8,41
580678,1,106,81,1,3,14,1,1,0,28,6,27
580686,1,755,565,13,55,93,9,4,1,177,42,171
580694,2,197,136,1,19,18,3,0,0,46,13,36
580694,1,561,396,17,34,34,4,5,2,182,29,89
580708,2,67,55,1,7,3,2,0,0,11,13,18
580708,1,179,126,4,10,13,2,0,0,44,17,36
580716,2,254,173,7,24,21,0,0,1,69,8,43
580716,1,269,210,11,9,55,1,1,2,61,21,49
580724,1,239,138,3,20,15,0,0,0,52,10,38
580732,1,513,264,7,26,29,2,7,2,98,23,70
580741,1,188,140,3,30,18,3,1,0,30,14,41
580759,1,289,209,6,27,42,5,3,1,67,13,45
580767,1,197,166,2,17,47,1,3,0,42,12,42
580775,1,420,314,16,64,46,4,1,1,78,35,69
580783,1,59,38,0,1,3,1,0,0,14,5,14
580805,1,225,174,6,20,34,5,1,0,35,23,50
580821,1,284,214,2,17,32,1,2,4,80,24,52
580830,1,58,40,0,3,4,0,0,2,16,2,13
580848,1,1385,696,18,62,46,4,5,4,304,82,171
580872,1,558,416,8,54,58,9,6,0,164,28,89
580881,1,228,156,5,13,26,4,1,0,48,11,48
580902,1,124,98,6,10,7,0,1,1,23,14,36
580929,1,325,208,1,10,15,7,1,1,77,19,77
580945,1,346,255,5,26,31,5,1,0,107,33,47
580961,1,724,467,16,32,49,8,4,1,194,42,121
580970,1,467,327,28,18,40,7,4,3,113,38,76
580988,1,86,66,0,9,5,2,1,0,32,8,9
580996,1,155,110,7,11,16,3,0,2,18,12,41
581003,1,104,64,2,13,5,1,0,1,13,12,17
581011,1,155,105,3,7,15,2,2,0,30,21,25
581038,1,162,136,3,9,40,2,1,1,33,20,27
581046,1,685,457,11,52,43,10,3,0,177,31,130
581054,2,400,299,4,21,24,7,1,0,139,22,81
581054,1,94,70,2,5,10,1,1,0,31,8,12
581062,1,459,332,7,35,56,9,5,2,107,22,89
581071,1,627,392,8,31,28,4,0,3,202,43,73
581089,1,263,147,9,12,7,2,1,0,46,13,57
581101,1,228,154,6,10,20,5,0,2,45,14,52
581119,1,565,416,9,24,104,1,1,2,141,36,98
581127,1,79,59,2,5,3,0,0,2,22,4,21
581143,2,93,76,4,2,12,0,0,0,29,7,22
581143,1,191,132,9,10,14,2,1,0,39,20,37
581151,2,138,81,1,6,2,2,1,1,42,9,17
581151,1,455,326,16,28,35,1,1,1,92,39,113
581178,1,768,518,8,38,65,9,5,2,223,42,126
581186,1,1177,582,27,56,68,8,5,7,175,75,161
581186,10,993,639,18,34,47,13,2,1,292,41,191
581186,9,422,299,9,40,25,1,1,3,96,31,93
581186,8,942,557,17,46,55,7,6,2,189,55,180
581186,7,1070,793,24,79,81,15,8,4,258,88,236
581186,6,1470,813,19,87,67,12,4,7,344,78,195
581186,5,779,564,14,67,46,7,2,2,172,66,188
581186,4,1010,726,17,71,70,14,4,8,234,70,238
581186,3,909,629,12,56,56,14,9,9,248,68,157
581186,2,888,551,11,37,55,4,1,3,201,64,175
581194,1,77,59,1,3,6,0,0,0,26,10,13
581208,1,570,371,10,42,21,3,6,2,130,53,104
581216,1,188,119,5,12,15,1,0,0,44,8,34
581224,1,591,382,8,43,22,4,5,3,162,46,89
581232,1,154,113,3,11,13,0,1,0,33,12,40
581259,5,1121,754,23,93,67,7,3,3,227,97,234
581259,3,1118,737,26,92,82,17,9,1,221,73,216
581259,2,874,467,21,67,39,8,3,4,118,61,146
581259,1,1083,715,28,87,91,9,1,1,208,65,225
581259,4,735,515,12,53,47,7,2,1,171,55,167
581267,1,246,114,4,18,11,0,1,0,36,14,30
581275,1,770,529,14,58,48,7,3,2,192,42,163
