A7,A9,A997,A998,A999,B1114,B1350,B53,B768,B1450,B997,B998,B999
280,170,0,22,256,29,48,25,69,33,32,0,492
118,65,0,0,91,10,18,5,19,6,13,4,199
44,5,0,0,31,1,4,0,11,0,5,0,59
58,15,0,2,63,4,6,2,19,4,6,0,97
60,7,0,4,27,2,3,3,18,5,3,0,64
43,12,0,0,31,0,5,1,6,1,11,6,56
157,45,0,4,207,8,7,10,29,11,13,0,335
336,239,0,0,343,15,45,39,108,60,70,0,581
321,320,0,3,198,17,95,59,121,97,75,0,378
239,259,0,0,263,20,80,27,54,59,45,0,476
241,287,0,0,208,16,50,39,91,73,47,55,365
379,199,0,0,260,28,53,21,99,44,63,58,472
248,223,0,0,271,22,52,12,36,45,34,62,479
261,199,0,11,203,22,44,19,92,53,44,0,400
322,270,0,0,290,31,60,17,58,57,49,32,578
415,334,0,0,387,31,75,39,69,72,91,50,709
154,119,0,0,112,18,34,13,39,35,15,9,222
235,258,0,11,261,19,78,50,70,60,58,0,430
145,100,0,25,108,13,24,21,42,22,38,0,218
367,314,0,30,196,35,80,58,87,86,109,0,452
309,348,0,125,312,38,111,55,92,97,89,0,612
337,364,0,0,219,15,81,43,113,84,81,56,447
195,408,0,17,183,10,104,66,80,134,56,0,353
357,255,0,0,368,30,67,24,99,76,54,31,599
456,613,0,143,388,44,186,73,150,198,102,0,847
182,266,0,5,187,19,73,41,62,71,44,0,330
288,236,0,5,238,29,53,20,72,58,54,0,481
325,239,0,0,243,24,72,21,99,52,68,24,447
323,281,0,0,293,30,76,26,72,59,65,57,512
420,425,0,101,365,49,133,66,101,110,96,0,756
106,222,0,0,189,8,50,17,27,76,33,46,260
122,345,0,0,180,15,63,27,22,106,27,110,277
322,267,0,0,215,42,72,23,79,60,57,13,458
530,482,0,0,477,36,136,38,109,113,128,51,878
395,279,0,0,299,15,59,22,116,55,63,20,623
365,254,0,0,291,33,57,27,116,74,48,13,542
327,277,0,0,248,16,63,17,110,92,46,18,490
356,243,0,93,312,25,71,28,106,58,75,0,641
276,273,0,0,221,17,51,16,111,43,55,30,447
268,179,0,12,277,22,51,20,66,47,55,0,475
98,91,0,3,94,2,26,18,24,30,19,0,167
378,382,0,0,281,44,104,48,137,101,70,4,533
214,291,0,0,242,13,69,45,50,102,45,1,422
86,265,0,0,162,4,46,11,15,81,27,66,263
323,452,0,0,3285,39,90,32,32,57,59,151,3600
188,215,0,0,298,20,49,17,24,50,41,57,443
249,340,0,41,331,13,86,55,94,115,55,0,543
294,398,0,2,283,24,92,48,102,122,71,0,518
348,172,0,0,279,27,44,21,108,33,55,18,493
236,393,0,49,216,26,121,56,82,135,62,0,412
162,275,0,0,206,14,62,30,33,60,39,77,328
377,327,0,0,301,23,90,45,102,76,56,109,504
280,248,0,2,255,16,69,23,98,52,52,0,475
243,233,0,19,186,14,51,38,86,72,59,0,361
389,315,0,0,313,26,85,38,118,85,68,37,560
313,457,0,39,328,21,141,68,98,127,51,0,631
264,212,0,0,208,20,54,17,72,47,51,41,382
193,190,0,0,189,14,50,20,59,35,40,16,338
157,227,0,0,157,7,49,20,64,76,39,11,275
224,343,0,0,245,15,84,25,83,121,44,60,380
181,306,0,0,238,17,55,26,50,94,43,55,385
242,362,0,32,214,14,103,58,62,122,65,0,426
213,463,0,0,240,19,97,51,52,131,39,152,375
337,301,0,0,256,22,89,40,107,90,59,2,485
222,255,0,0,231,16,82,28,55,99,27,4,397
228,243,0,54,284,20,80,36,56,103,39,0,475
219,201,0,2,183,12,59,21,67,68,53,0,325
289,364,0,0,230,13,100,35,84,116,81,49,405
240,364,0,13,217,27,98,53,76,117,65,0,398
346,398,0,7,319,25,113,45,103,124,67,0,593
427,425,0,0,709,30,135,39,81,111,64,33,1068
286,377,0,0,330,22,80,25,72,99,59,36,600
250,346,0,0,284,16,100,30,62,96,47,22,507
318,252,0,0,308,27,70,20,119,59,48,38,497
382,310,0,57,329,27,109,48,105,89,59,0,641
478,452,0,4,402,33,139,42,133,129,104,0,756
146,149,0,0,92,12,46,14,59,32,21,10,193
296,326,0,0,248,26,106,48,65,82,62,9,472
96,99,0,30,75,14,25,7,33,42,34,0,145
220,230,0,0,132,23,43,31,67,65,45,6,302
214,289,0,0,126,14,81,40,60,79,45,18,292
335,402,0,36,270,31,96,66,116,123,69,0,542
277,279,0,47,367,12,80,29,99,72,50,0,628
137,110,0,3,126,8,32,9,41,22,32,0,232
186,195,0,7,161,18,51,29,61,56,29,0,305
244,252,0,0,178,26,59,23,70,78,46,5,367
238,345,0,3,249,38,88,33,55,123,51,0,447
348,308,0,36,365,36,112,45,63,82,81,0,638
376,302,0,0,325,31,92,24,98,67,78,69,544
315,287,0,0,256,28,73,32,99,87,58,9,472
309,414,0,0,247,28,110,59,105,125,76,8,459
193,296,0,8,218,16,65,45,60,93,41,0,395
181,240,0,0,266,17,66,26,55,71,38,20,394
202,305,0,0,179,22,64,28,48,70,27,95,332
334,256,0,0,275,20,60,24,101,61,60,49,490
166,166,0,0,172,18,45,19,56,49,38,15,264
231,225,0,0,156,23,48,20,63,66,34,3,355
235,396,0,0,282,15,106,39,57,104,64,14,514
196,261,0,0,156,19,66,29,64,72,40,9,314
306,353,0,10,301,23,107,47,67,95,77,0,554
385,337,0,0,340,51,92,45,122,88,83,55,526
277,259,0,0,334,32,61,37,65,102,62,10,501
698,532,0,17,543,41,120,57,142,140,102,0,1188
50,18,0,3,26,0,7,2,5,2,7,0,74
79,34,0,14,47,10,14,4,16,7,18,0,105
89,66,0,11,74,4,27,2,28,9,20,0,150
36,11,0,0,28,3,5,0,8,1,9,6,43
59,26,0,2,24,1,10,5,8,18,10,0,59
51,40,0,0,21,3,9,0,9,7,7,3,74
60,24,0,0,63,1,10,1,12,13,11,3,96
202,150,0,6,150,16,56,16,54,30,45,0,291
818,689,0,24,529,30,172,88,212,157,160,0,1241
69,33,0,6,47,3,13,2,10,3,10,0,114
40,24,0,0,27,2,7,3,6,2,9,9,53
24,18,0,0,14,1,2,2,4,8,6,0,33
166,164,0,5,174,11,34,14,34,72,60,0,284
43,32,0,0,19,2,3,1,8,17,14,4,45
53,29,0,3,27,5,9,0,24,5,5,0,64
30,24,0,2,13,1,8,1,9,6,14,0,30
40,33,0,3,35,4,15,5,7,7,14,0,59
27,21,0,0,19,2,5,3,7,8,10,2,30
243,206,0,0,189,19,42,45,51,44,57,3,377
57,35,0,0,54,11,15,17,12,3,6,1,81
297,173,0,24,313,15,59,43,69,23,53,0,545
228,151,0,0,242,12,41,24,39,13,39,6,447
80,49,0,4,54,3,16,3,24,22,27,0,92
89,44,0,0,83,8,14,4,28,20,6,3,133
552,618,0,56,496,50,197,117,144,185,95,0,934
65,13,0,2,38,1,6,1,24,3,8,0,75
102,56,0,0,66,7,15,1,44,17,19,4,117
155,73,0,2,86,5,17,0,27,31,30,0,206
285,185,0,42,274,23,67,11,78,43,66,0,498
499,320,0,1,441,33,55,17,129,172,69,0,786
472,368,0,35,352,45,98,35,132,82,96,0,739
70,55,0,0,100,3,14,3,19,12,16,14,144
496,280,0,0,483,40,56,33,122,39,85,39,845
187,112,0,0,295,13,27,12,49,26,32,4,431
606,387,0,4,473,32,100,35,173,107,75,0,948
498,489,0,14,372,46,122,49,125,149,89,0,793
180,137,0,0,167,22,27,22,48,27,24,17,297
406,314,0,18,249,30,89,52,131,79,69,0,537
397,266,0,3,310,33,90,24,138,66,50,0,575
271,151,0,1,155,18,40,12,60,72,44,0,332
198,113,0,5,153,14,35,11,45,26,27,0,311
262,220,0,14,186,13,72,22,71,80,43,0,381
150,125,0,0,130,4,25,16,29,17,42,16,256
356,231,0,0,657,32,62,37,82,39,82,20,890
46,36,0,0,34,4,2,1,12,20,6,3,68
80,42,0,2,31,5,21,5,15,5,20,0,84
449,317,0,0,353,19,90,33,96,64,100,26,691
387,227,0,0,346,18,51,31,87,44,92,13,624
297,177,0,0,204,9,44,21,69,25,68,19,423
129,97,0,0,96,2,36,8,43,31,12,0,190
95,30,0,20,39,2,12,2,19,24,31,0,94
62,44,0,0,67,3,17,4,16,9,16,5,103
99,94,0,0,98,1,36,6,30,40,21,1,156
82,48,0,0,56,7,21,4,12,14,19,5,104
473,320,0,0,455,31,84,42,106,67,97,35,786
166,101,0,0,127,10,23,11,59,31,21,8,231
41,24,0,0,15,1,5,6,4,8,8,4,44
79,51,0,0,88,10,13,6,14,15,13,0,147
101,70,0,0,75,8,19,7,43,18,26,0,125
58,28,0,0,30,3,6,0,8,19,12,1,67
204,90,0,31,139,14,23,14,49,24,37,0,303
34,25,0,0,24,4,6,7,8,7,4,7,40
26,18,0,1,12,1,6,4,2,2,4,0,38
263,157,0,24,133,15,46,14,40,57,36,0,369
278,146,0,3,262,23,39,11,55,24,53,0,484
233,100,0,0,168,10,28,5,82,13,32,16,315
286,211,0,0,323,13,52,19,76,49,45,7,559
409,246,0,27,286,28,82,29,96,89,78,0,566
82,37,0,0,77,5,5,10,14,10,22,0,130
161,69,0,0,200,6,32,8,31,21,26,50,256
44,25,0,0,32,3,18,1,11,3,2,4,59
112,80,0,0,77,9,55,5,39,11,20,4,126
343,218,0,4,237,18,132,14,103,60,53,0,422
45,27,0,6,24,1,15,1,7,8,7,0,63
294,211,0,34,197,11,71,36,47,65,53,0,453
333,243,0,12,275,21,61,32,64,74,64,0,547
448,277,0,0,391,10,65,46,75,58,50,100,712
286,243,0,7,267,12,108,27,75,48,67,0,466
155,36,0,3,57,10,26,3,33,9,27,0,143
78,48,0,0,50,0,26,8,25,16,5,1,95
434,335,0,0,328,23,138,36,77,80,69,8,666
111,31,0,0,56,2,5,14,19,9,16,2,131
160,70,0,10,76,6,18,11,39,15,43,0,184
506,297,0,31,174,44,69,28,107,88,76,0,596
159,88,0,0,116,20,23,8,29,29,18,7,229
356,242,0,38,448,44,88,15,84,45,46,0,762
401,315,0,17,232,28,95,27,110,62,72,0,571
209,94,0,0,156,11,35,9,61,28,22,11,282
570,324,0,0,414,42,59,74,144,64,98,1,826
335,304,0,0,369,21,70,77,113,41,44,26,616
363,228,0,0,309,35,52,42,93,32,56,6,584
335,179,0,0,440,28,50,32,97,20,32,41,654
357,356,0,23,399,22,76,82,96,83,44,0,732
51,32,0,0,35,8,4,11,11,5,5,2,72
426,354,0,0,428,38,90,55,95,56,85,16,773
481,466,0,0,399,43,106,120,117,71,81,0,808
518,368,0,128,954,45,103,107,116,73,82,0,1442
312,253,0,0,209,26,38,31,68,49,63,86,413
57,28,0,0,63,3,7,3,19,1,12,1,102
24,29,0,0,22,5,9,2,7,5,2,4,41
42,13,0,0,26,2,3,1,11,1,8,4,51
120,42,0,7,92,6,11,21,38,12,7,0,166
409,289,0,0,403,22,51,106,109,44,43,15,711
206,167,0,0,198,7,38,26,52,38,30,4,376
117,84,0,14,82,12,24,11,36,39,11,0,164
63,68,0,16,30,5,17,7,16,29,11,0,92
89,40,0,4,43,1,21,16,19,6,10,0,103
56,75,0,0,37,6,30,12,16,11,7,2,84
505,312,0,0,356,31,93,55,103,61,80,11,739
47,23,0,0,30,5,7,0,9,13,11,4,51
43,11,0,2,15,6,0,0,14,5,1,0,45
49,39,0,4,19,2,7,0,18,13,5,0,66
369,192,0,24,279,13,61,19,91,57,59,0,564
31,21,0,6,40,4,10,6,7,5,6,0,60
468,228,0,16,458,21,75,46,120,46,58,0,804
40,40,0,0,31,1,7,17,11,6,6,4,59
45,15,0,1,34,5,6,2,7,1,5,0,69
90,40,0,1,70,7,2,19,24,8,17,0,124
337,242,0,0,301,29,61,83,98,22,53,10,524
362,360,0,11,275,23,106,138,93,73,51,0,524
184,140,0,43,559,10,48,78,35,14,39,0,702
76,55,0,2,39,6,21,9,20,10,7,0,99
129,114,0,0,103,5,22,29,22,33,17,7,211
112,72,0,5,57,3,16,39,35,5,12,0,136
34,17,0,0,47,0,3,10,6,1,5,2,71
67,34,0,1,53,2,5,12,8,10,13,0,105
375,259,0,0,340,22,63,72,95,37,63,12,610
192,192,0,0,185,8,31,80,68,11,36,20,315
293,186,0,7,226,20,38,52,86,31,64,0,421
179,128,0,3,120,6,35,38,57,24,30,0,240
293,198,0,4,296,20,64,73,71,22,50,0,491
296,175,0,0,277,15,42,57,87,20,53,4,470
331,203,0,10,381,34,48,73,67,14,52,0,637
444,510,0,59,346,19,112,82,122,187,75,0,762
418,424,0,52,404,17,90,62,106,148,83,0,792
85,64,0,20,58,7,16,14,20,26,21,0,123
121,85,0,10,54,16,34,2,47,23,21,0,127
642,540,0,95,514,55,147,57,165,170,117,0,1080
424,284,0,0,347,31,74,28,94,90,69,9,660
115,144,0,0,116,7,30,15,14,47,30,11,221
83,60,0,5,58,8,21,15,23,10,18,0,111
166,141,0,0,104,0,42,26,59,26,42,4,212
364,191,0,0,281,25,51,40,83,71,63,6,497
397,268,0,0,249,32,59,67,112,69,54,17,504
404,191,0,0,282,29,52,19,88,33,57,7,592
207,110,0,0,356,14,17,23,76,21,23,21,478
270,181,0,0,221,23,46,50,73,37,36,0,407
246,166,0,33,168,36,48,46,68,26,29,0,360
224,95,0,0,177,8,19,18,53,11,46,9,332
139,101,0,0,367,14,27,22,32,23,34,2,453
100,60,0,4,83,5,10,2,15,17,16,0,182
221,103,0,11,129,13,17,23,59,33,32,0,287
297,184,0,17,158,22,46,46,94,35,55,0,358
87,48,0,18,42,4,17,19,16,10,24,0,105
228,187,0,0,214,25,55,41,54,29,28,11,386
355,179,0,4,1848,34,37,41,66,27,40,0,2141
395,225,0,0,371,35,39,73,90,42,42,6,664
348,202,0,0,251,26,52,47,73,40,64,11,488
424,313,0,8,307,37,65,77,98,77,70,0,628
338,240,0,0,260,26,60,48,103,34,59,35,473
257,146,0,42,192,23,26,35,78,33,43,0,399
289,150,0,0,218,18,25,24,74,24,29,27,436
292,133,0,0,226,22,33,17,76,16,37,11,439
373,184,0,0,248,34,43,40,86,27,54,10,511
290,173,0,0,223,26,26,38,72,25,33,64,402
350,202,0,2,328,33,51,42,101,30,48,0,577
312,169,0,0,207,30,27,44,76,30,28,14,439
220,136,0,0,181,21,23,13,73,30,32,9,336
217,109,0,0,164,12,27,32,66,21,34,2,296
357,230,0,0,237,35,51,47,108,50,68,16,449
322,156,0,4,193,27,33,35,88,39,59,0,394
250,111,0,0,170,20,25,23,54,19,22,4,364
506,237,0,0,277,30,59,59,124,39,71,4,634
354,217,0,0,265,35,52,40,107,32,58,13,499
457,208,0,0,321,28,53,45,137,33,67,20,603
353,203,0,0,254,29,34,55,79,35,55,5,518
369,141,0,0,253,40,37,19,93,42,59,26,447
354,163,0,0,247,39,33,33,100,37,44,10,468
334,161,0,0,263,27,46,32,94,43,54,19,443
415,167,0,0,209,29,48,29,99,37,61,22,466
293,196,0,45,136,27,41,74,59,42,44,0,383
221,151,0,4,111,10,52,56,54,30,26,0,259
200,96,0,0,134,19,25,25,38,20,30,6,267
210,100,0,0,294,15,16,13,49,19,20,16,456
303,144,0,0,180,16,27,21,80,21,41,17,404
271,158,0,0,216,25,25,19,61,29,29,49,408
252,103,0,0,292,32,25,23,73,11,37,0,446
210,131,0,0,205,16,29,29,47,31,34,3,357
72,33,0,0,50,9,10,9,23,6,15,1,82
185,118,0,0,137,7,30,16,57,40,39,19,232
271,146,0,0,144,17,30,27,82,45,47,5,308
125,71,0,2,91,7,16,19,30,17,29,0,171
367,200,0,0,337,20,49,52,72,24,45,78,564
63,15,0,0,41,5,3,5,11,3,10,0,82
29,16,0,1,31,5,3,2,4,6,3,0,54
101,42,0,0,66,5,7,4,20,11,13,11,138
416,195,0,25,426,23,42,21,74,59,49,0,794
275,120,0,16,145,14,39,20,72,30,41,0,340
66,40,0,12,37,2,11,9,8,22,15,0,88
349,184,0,10,253,15,38,29,71,45,39,0,559
67,33,0,0,52,2,4,6,17,12,14,0,97
311,164,0,0,212,18,51,23,98,43,47,5,402
298,193,0,0,268,21,53,10,69,66,37,8,495
157,73,0,1,85,9,11,9,58,18,14,0,197
162,85,0,0,72,7,18,7,37,22,23,2,203
195,144,0,0,118,11,51,6,50,45,19,19,256
47,16,0,4,29,2,4,2,21,2,11,0,54
71,79,0,2,48,6,19,9,14,19,18,0,115
172,141,0,3,139,19,33,10,39,52,26,0,276
69,61,0,8,52,5,36,10,10,13,10,0,106
126,44,0,10,56,8,16,5,20,13,14,0,160
161,41,0,1,96,18,16,5,38,17,18,0,187
183,117,0,2,151,11,22,17,35,52,23,0,293
196,118,0,6,123,19,11,14,38,30,56,0,275
529,256,0,33,427,51,43,26,105,59,53,0,908
263,113,0,0,194,22,28,17,49,47,43,9,355
320,193,0,33,261,31,41,53,68,48,54,0,512
112,79,0,10,55,12,13,9,32,23,30,0,137
113,68,0,7,55,5,11,9,27,34,18,0,139
282,317,0,7,189,25,64,51,83,86,48,0,438
425,264,0,0,365,32,64,18,70,49,65,3,753
359,231,0,0,270,22,71,26,100,53,59,16,513
49,13,0,5,37,8,3,3,12,1,8,0,69
108,56,0,3,57,13,14,5,20,16,18,0,138
50,33,0,0,40,3,9,6,6,3,13,2,81
517,377,0,2,357,43,65,43,106,94,82,0,820
358,240,0,0,283,25,66,23,98,24,66,26,553
286,160,0,0,176,28,46,18,74,36,43,12,365
209,103,0,14,186,18,23,15,49,21,23,0,363
331,192,0,0,379,29,49,24,72,46,56,75,551
366,209,0,0,312,17,72,13,86,31,54,21,593
293,244,0,0,313,23,51,36,71,53,45,3,568
205,115,0,10,131,12,41,10,38,25,33,0,302
283,151,0,0,210,13,38,11,89,28,36,26,403
252,276,0,0,240,17,39,36,92,62,57,2,463
197,169,0,13,722,20,42,24,37,32,25,0,921
360,217,0,0,445,23,61,14,65,26,65,4,764
336,218,0,0,273,23,40,21,82,38,47,55,521
313,357,0,0,250,17,100,43,87,66,71,6,530
60,76,0,0,30,7,13,6,14,54,8,0,64
60,62,0,0,47,4,11,5,12,31,9,4,93
387,369,0,14,300,10,87,26,92,169,51,0,635
133,148,0,12,94,6,38,13,42,59,25,0,204
89,69,0,0,53,8,34,9,23,7,13,3,114
68,9,0,1,42,7,4,1,6,1,9,0,92
46,30,0,0,53,3,2,6,8,4,2,10,94
382,183,0,0,319,38,41,39,64,29,38,16,619
266,146,0,0,571,29,19,16,41,28,51,11,788
335,164,0,1,279,23,29,21,93,16,46,0,551
247,130,0,0,213,15,26,18,52,23,22,23,411
285,167,0,1,334,16,35,26,43,22,31,0,614
235,134,0,0,257,24,18,18,69,22,31,18,426
396,227,0,0,292,19,38,18,90,92,35,52,571
74,47,0,0,58,8,16,5,10,9,14,5,112
205,107,0,0,157,21,39,17,40,9,28,14,301
137,61,0,0,70,5,13,4,36,20,21,5,164
17,14,0,7,15,2,9,4,4,4,6,0,24
31,29,0,0,29,0,4,3,3,10,5,1,63
84,32,0,12,49,13,6,2,16,15,18,0,107
121,58,0,0,79,11,7,5,25,15,22,9,164
208,62,0,0,120,8,15,11,55,21,33,4,243
215,122,0,1,178,24,31,20,34,40,41,0,326
296,151,0,3,244,16,29,10,55,32,54,0,498
332,238,0,0,362,18,35,36,63,81,85,37,577
278,225,0,0,228,20,33,19,60,57,78,19,445
403,245,0,0,271,32,39,41,74,74,103,12,544
359,165,0,0,316,24,37,23,73,47,61,40,535
211,163,0,86,610,23,33,26,31,33,45,0,879
108,57,0,0,71,9,13,2,17,22,14,5,154
84,55,0,15,58,9,12,7,19,14,14,0,137
245,126,0,0,229,11,25,9,52,18,20,7,458
146,71,0,12,75,16,20,2,35,43,12,0,176
168,74,0,11,99,13,19,8,32,18,31,0,231
86,72,0,3,46,8,13,7,18,33,13,0,115
57,36,0,0,65,6,6,2,25,22,5,3,89
37,21,0,0,37,4,2,2,7,9,4,6,61
248,204,0,19,199,23,44,30,45,36,38,0,454
41,19,0,0,16,1,4,4,19,6,6,6,30
425,290,0,12,275,40,56,34,104,89,65,0,614
112,108,0,9,98,7,27,13,25,37,15,0,203
174,129,0,0,96,3,28,10,39,42,27,0,250
284,161,0,0,151,26,42,12,34,53,37,18,374
73,49,0,2,46,9,9,10,10,8,10,0,114
159,97,0,0,151,10,21,12,34,21,18,12,279
90,24,0,19,91,11,6,1,15,10,9,0,172
28,11,0,1,33,0,4,4,12,2,4,0,47
57,19,0,4,40,4,7,1,12,1,1,0,94
46,28,0,0,27,1,11,1,15,5,3,8,57
28,28,0,0,22,0,4,2,9,3,2,0,58
238,136,0,0,243,2,30,25,39,21,34,2,464
317,147,0,1,199,13,52,19,80,49,45,0,406
44,33,0,14,31,3,1,1,14,19,21,0,63
110,39,0,0,75,5,11,5,18,13,26,0,146
70,30,0,1,22,5,9,0,27,5,7,0,70
106,27,0,11,62,4,3,8,35,16,17,0,123
64,25,0,0,41,10,10,2,11,11,5,8,73
79,34,0,0,35,4,11,5,30,25,10,0,63
401,221,0,10,293,28,34,31,87,68,40,0,637
97,49,0,3,79,1,4,20,27,21,9,0,146
143,72,0,8,106,7,34,11,28,19,16,0,214
558,240,0,53,371,51,44,27,122,132,76,0,770
88,56,0,4,64,5,26,8,21,9,15,0,128
166,80,0,0,148,14,23,7,33,22,27,1,267
137,158,0,27,191,10,43,19,51,38,16,0,336
61,28,0,5,43,2,9,5,30,10,10,0,71
240,115,0,0,130,20,23,7,45,41,23,4,322
206,100,0,6,191,23,25,14,31,34,29,0,347
269,230,0,16,177,16,61,25,56,72,29,0,433
136,64,0,0,76,11,9,10,44,25,19,9,149
382,220,0,0,392,22,44,35,80,75,46,5,687
444,260,0,2,326,30,48,50,100,82,46,0,676
377,207,0,0,229,12,73,18,125,46,29,0,510
371,227,0,0,240,10,59,16,92,47,46,13,555
178,99,0,4,74,13,32,19,59,21,18,0,193
153,160,0,4,128,8,42,4,43,70,32,0,246
308,191,0,1,222,16,34,24,61,70,64,0,453
305,212,0,2,210,16,52,15,44,61,45,0,496
59,64,0,0,72,2,9,3,20,36,12,13,100
96,36,0,2,51,9,7,9,23,14,9,0,114
205,117,0,16,119,9,32,18,79,15,46,0,258
262,259,0,6,164,19,70,72,82,36,28,0,384
266,161,0,0,260,21,45,17,85,29,26,10,454
261,189,0,0,336,20,59,30,71,31,54,24,497
320,258,0,21,273,27,84,38,77,45,59,0,542
308,226,0,10,350,29,73,30,61,26,45,0,630
313,139,0,0,251,29,47,17,87,26,43,17,437
189,181,0,0,173,14,45,25,70,30,24,19,316
267,317,0,0,239,31,75,73,90,35,56,14,449
236,178,0,9,223,25,52,39,80,29,50,0,371
205,230,0,0,187,15,51,41,64,55,30,23,343
273,218,0,0,231,19,67,35,89,37,30,6,439
250,187,0,17,255,29,51,35,70,37,21,0,466
291,167,0,0,286,33,60,17,80,21,28,6,499
199,124,0,0,265,18,47,16,27,21,31,13,415
273,294,0,0,204,24,71,63,108,76,33,26,370
298,195,0,10,241,38,61,24,93,23,38,0,467
186,211,0,0,145,17,61,29,51,48,27,30,279
295,239,0,0,279,34,59,41,73,37,33,20,516
236,226,0,0,280,20,57,46,54,53,32,22,458
291,247,0,3,262,34,74,40,93,39,45,0,478
311,197,0,0,245,33,47,23,86,22,33,21,488
276,256,0,0,1076,29,85,43,63,51,36,24,1277
265,154,0,0,275,27,39,19,71,19,32,4,483
286,163,0,0,257,26,40,26,72,38,35,9,460
268,124,0,0,234,17,35,14,72,27,41,18,402
299,218,0,0,253,23,80,14,92,28,45,21,467
261,132,0,0,223,14,38,15,92,19,26,11,401
267,131,0,0,181,22,29,14,82,20,20,29,363
257,156,0,11,192,19,34,29,73,25,45,0,391
128,129,0,0,143,5,32,17,35,16,7,77,211
242,181,0,0,203,15,39,14,49,35,16,83,375
270,156,0,0,192,26,31,26,81,50,35,4,365
283,89,0,0,297,26,38,11,83,23,28,9,451
347,296,0,0,189,24,63,81,97,43,43,4,477
335,217,0,4,301,18,59,58,80,47,33,0,562
348,269,0,0,233,19,64,88,86,45,31,28,489
48,32,0,0,34,2,12,5,7,3,4,3,78
203,84,0,0,125,17,22,13,45,14,25,13,263
235,121,0,4,210,17,29,10,70,24,32,0,388
186,111,0,0,113,17,36,2,41,24,36,7,247
276,128,0,0,198,25,39,15,70,28,44,2,379
226,121,0,4,183,8,38,11,46,36,51,0,344
139,106,0,0,82,6,34,1,43,25,19,6,193
187,95,0,0,198,6,32,6,34,11,19,23,349
161,90,0,42,142,12,16,9,45,15,24,0,314
390,224,0,20,229,22,88,32,90,95,52,0,484
398,161,0,0,289,14,33,7,130,14,45,25,580
433,155,0,0,506,27,29,15,104,22,40,67,790
264,116,0,0,309,14,31,6,64,13,22,24,515
99,94,0,6,89,2,17,44,24,27,11,0,163
154,100,0,0,74,8,23,4,49,36,26,0,182
300,141,0,0,257,23,35,14,69,23,38,13,483
73,11,0,6,73,4,12,3,15,4,3,0,122
124,40,0,0,88,12,5,3,37,3,18,17,157
400,163,0,14,355,40,33,16,131,36,45,0,631
420,203,0,0,443,22,48,35,142,34,40,11,734
190,163,0,0,197,10,55,21,43,39,22,2,358
246,128,0,0,197,26,44,16,54,21,22,10,378
464,311,0,0,304,32,82,34,136,96,37,8,654
300,153,0,0,306,25,34,10,78,54,30,36,492
365,277,0,50,347,38,86,34,83,88,56,0,654
339,214,0,0,321,30,55,28,97,63,35,7,559
351,227,0,0,416,22,61,23,94,61,53,6,674
198,150,0,0,192,22,48,16,46,35,25,40,308
374,262,0,0,830,25,73,33,94,75,33,15,1118
451,258,0,0,437,36,61,37,129,63,46,58,716
236,220,0,0,205,17,49,30,55,58,48,9,395
47,20,0,0,33,0,4,1,11,1,2,6,75
161,116,0,25,136,9,31,6,41,64,16,0,271
56,17,0,0,66,2,4,0,5,2,12,12,102
42,37,0,0,44,4,1,2,6,8,7,19,76
335,117,0,0,343,19,28,7,74,17,13,59,578
197,78,0,0,163,11,15,5,38,7,59,10,293
41,25,0,0,29,1,10,10,17,3,14,0,40
201,106,0,2,113,4,37,18,43,14,28,0,278
249,167,0,0,183,20,49,20,84,37,32,13,344
102,59,0,0,90,4,18,10,20,18,10,1,170
237,139,0,0,151,7,36,9,62,48,37,6,322
456,266,0,0,315,18,88,15,110,64,53,14,675
80,23,0,0,70,3,10,1,18,1,11,14,115
197,121,0,0,114,6,40,27,47,20,23,2,267
208,153,0,6,219,9,27,19,41,15,38,0,437
411,227,0,0,417,26,62,40,94,33,54,36,710
184,103,0,12,189,14,38,14,44,11,26,0,341
69,36,0,1,53,3,21,2,11,8,5,0,109
244,156,0,0,188,21,30,32,41,19,25,62,358
518,365,0,0,533,35,99,53,113,55,57,123,881
148,65,0,21,80,11,30,12,26,9,30,0,196
55,17,0,7,41,3,10,4,10,3,9,0,81
316,183,0,7,243,14,58,26,92,37,44,0,478
53,48,0,2,53,4,25,8,8,12,22,0,77
303,224,0,14,228,14,66,28,86,38,51,0,486
253,162,0,0,223,12,44,22,61,47,40,6,406
195,148,0,0,68,12,26,15,43,15,13,13,274
87,25,0,0,53,3,27,3,27,4,10,0,91
223,113,0,3,207,10,42,6,55,31,31,0,371
61,41,0,0,31,6,13,4,9,5,17,19,60
41,17,0,0,32,2,12,1,10,1,5,8,51
45,26,0,0,37,2,3,5,22,1,3,8,64
62,19,0,0,53,1,8,4,19,2,17,3,80
146,40,0,11,125,7,19,9,33,4,17,0,233
147,45,0,0,114,15,16,7,23,12,15,44,174
789,263,0,65,701,58,100,27,181,88,120,0,1244
82,65,0,7,48,4,8,7,36,17,9,0,121
73,45,0,7,45,4,16,3,12,13,16,0,106
93,85,0,7,109,7,26,6,16,14,20,0,205
357,242,0,0,291,19,61,19,120,26,47,31,567
399,280,0,0,273,21,64,32,104,41,53,9,628
439,313,0,45,775,14,102,29,111,40,54,0,1222
330,178,0,0,316,15,51,14,101,30,50,17,546
415,244,0,0,358,26,86,36,104,44,76,18,627
499,335,0,40,319,29,99,49,152,66,80,0,718
69,17,0,0,39,0,3,2,3,10,5,4,98
44,32,0,4,39,7,17,1,18,5,8,0,63
53,37,0,2,35,3,13,6,11,5,5,0,84
61,49,0,0,33,2,11,7,18,27,8,3,67
77,46,0,0,49,3,16,3,16,10,8,2,114
340,276,0,1,259,19,108,22,90,72,41,0,524
78,36,0,3,43,9,8,3,19,7,9,0,105
478,434,0,64,346,43,150,60,107,91,43,0,828
438,366,0,76,390,40,121,67,134,70,53,0,785
75,57,0,0,60,3,14,6,21,9,6,11,122
259,172,0,10,259,33,56,13,62,50,40,0,446
49,29,0,2,30,5,5,1,12,8,5,0,74
64,35,0,0,23,4,12,7,21,4,5,18,51
67,47,0,0,41,0,18,9,14,5,5,3,101
314,130,0,0,271,17,31,24,69,15,54,2,503
147,53,0,1,80,10,10,9,42,10,21,0,179
34,12,0,2,22,6,5,2,11,4,2,0,40
32,17,0,2,25,6,5,2,8,2,7,0,46
49,32,0,0,31,1,0,13,13,7,6,2,70
140,45,0,12,62,4,16,4,30,11,38,0,156
40,14,0,0,32,1,2,7,13,1,0,2,60
220,92,0,0,171,17,14,15,46,55,30,0,306
345,163,0,33,296,40,65,25,59,57,44,0,547
71,39,0,0,63,8,15,4,18,3,8,4,113
479,368,0,0,440,24,144,18,124,92,55,39,791
509,329,0,0,363,36,125,28,144,97,62,10,699
152,148,0,17,91,12,38,9,46,77,18,0,208
393,184,0,3,315,18,69,24,143,25,50,0,566
306,219,0,0,263,25,59,17,128,33,26,4,496
331,240,0,0,359,16,56,31,119,40,33,10,625
30,20,0,0,21,2,5,1,8,7,1,4,43
53,17,0,0,41,2,11,4,12,4,9,13,56
123,84,0,1,148,4,30,4,26,22,32,0,238
276,192,0,17,167,24,93,14,62,49,30,0,380
28,23,0,0,11,0,3,0,1,5,2,10,41
60,53,0,0,68,2,15,7,9,15,9,5,119
158,99,0,0,88,9,17,4,38,26,18,5,228
234,151,0,0,175,14,45,15,55,29,34,13,355
357,225,0,7,325,23,51,22,90,57,35,0,636
40,20,0,0,33,8,6,1,17,3,4,10,44
321,194,0,0,383,19,46,22,81,16,30,30,654
248,52,0,2,190,10,12,13,40,31,16,0,370
524,395,0,0,568,23,46,19,122,43,64,238,932
349,196,0,7,376,21,53,21,111,36,41,0,645
256,82,0,7,206,11,23,7,51,31,22,0,406
133,117,0,7,89,7,26,9,44,50,36,0,174
165,95,0,0,164,10,22,10,42,16,11,16,297
406,214,0,0,339,19,70,29,97,39,53,1,651
436,174,0,1,426,23,41,19,115,48,36,0,755
23,28,0,3,17,0,5,3,7,4,6,0,46
67,15,0,0,40,7,4,0,8,1,7,16,79
393,288,0,0,353,36,55,18,91,44,70,93,627
435,286,0,0,333,25,50,23,98,37,65,131,625
65,29,0,0,50,5,4,4,14,6,18,9,84
444,159,0,0,428,28,49,16,89,19,49,8,773
151,57,0,9,122,8,17,0,33,29,13,0,239
343,222,0,0,262,18,73,24,97,60,46,21,488
447,262,0,1,328,26,93,26,150,58,66,0,619
449,232,0,0,334,27,69,23,139,60,65,6,626
63,53,0,0,44,3,7,3,10,24,9,1,103
36,17,0,0,7,3,0,0,12,12,3,0,30
70,47,0,0,66,4,17,0,19,27,2,7,107
342,246,0,0,244,11,86,23,85,62,31,32,502
260,243,0,0,313,21,81,19,47,73,24,25,526
326,198,0,0,211,23,78,9,61,76,49,28,411
211,135,0,3,117,11,25,8,61,53,29,0,279
250,246,0,31,185,21,63,22,70,82,32,0,422
283,326,0,0,679,17,81,39,63,81,44,3,960
498,400,0,0,295,35,129,50,134,130,75,10,630
329,210,0,0,306,22,44,18,99,55,40,37,530
349,257,0,51,373,23,87,15,79,60,52,0,714
297,183,0,8,185,19,58,16,91,41,34,0,414
94,22,0,0,56,4,9,0,20,5,16,13,105
371,151,0,0,332,22,50,19,87,25,69,15,567
82,25,0,2,81,12,3,2,24,4,4,0,141
42,40,0,0,26,4,11,4,13,13,5,6,52
211,36,0,8,160,30,18,2,33,6,24,0,302
50,29,0,4,39,4,12,1,7,5,19,0,74
214,116,0,13,144,12,58,9,58,38,36,0,276
280,290,0,1,207,18,69,49,88,92,53,0,409
317,473,0,10,274,44,137,64,103,140,75,0,511
15,13,0,0,14,1,4,0,5,3,4,4,21
85,55,0,0,38,8,7,9,17,8,10,3,116
297,150,0,7,123,31,41,24,101,50,33,0,297
74,63,0,4,91,9,18,3,12,22,12,0,156
69,39,0,10,30,4,6,8,22,13,23,0,72
32,41,0,13,13,0,6,5,7,31,5,0,45
61,29,0,0,38,1,7,0,14,12,14,6,74
244,170,0,45,166,16,65,22,54,45,62,0,361
204,270,0,32,155,21,72,44,35,71,121,0,297
51,44,0,0,77,3,23,5,18,16,10,5,92
65,62,0,0,46,6,30,2,16,33,12,0,74
69,58,0,0,59,5,18,2,18,32,5,1,105
166,200,0,16,122,11,54,35,56,53,44,0,251
438,291,0,27,371,28,53,42,111,98,64,0,731
370,258,0,16,299,33,96,22,83,60,57,0,592
326,172,0,24,252,32,69,23,61,57,57,0,475
155,116,0,0,106,13,15,13,30,99,19,9,179
457,344,0,0,391,31,81,30,141,89,84,47,689
62,33,0,0,57,2,15,5,12,20,8,2,88
157,120,0,27,110,8,31,17,46,30,31,0,251
217,176,0,0,146,12,53,16,59,52,46,8,293
90,37,0,0,65,5,14,4,26,12,21,4,106
142,66,0,4,78,11,34,13,28,23,21,0,160
66,36,0,0,41,4,9,3,11,5,8,5,98
98,77,0,13,82,5,19,15,36,12,13,0,170
52,56,0,7,55,4,16,7,11,23,17,0,92
218,134,0,6,205,26,43,26,44,23,28,0,373
171,97,0,4,97,10,37,16,66,14,25,0,201
133,110,0,11,91,13,32,17,26,37,29,0,191
29,36,0,13,13,2,7,8,5,22,6,0,41
60,11,0,3,69,0,8,4,27,3,7,0,94
69,35,0,5,86,1,11,4,31,4,27,0,117
347,199,0,0,302,13,49,37,140,49,44,11,505
241,172,0,0,225,13,104,17,68,19,24,9,384
79,72,0,0,37,6,19,8,16,26,11,5,97
167,217,0,10,132,12,63,26,38,86,36,0,265
432,313,0,0,429,26,86,32,98,73,66,6,787
67,28,0,14,66,6,14,6,18,11,9,0,111
177,91,0,0,120,5,36,15,47,34,40,3,208
214,136,0,7,140,14,43,9,49,34,21,0,327
111,22,0,0,48,8,12,6,23,12,13,1,106
124,63,0,0,92,3,11,7,20,31,31,13,163
159,81,0,0,94,15,21,7,38,43,19,3,188
61,28,0,0,49,2,5,5,6,9,9,5,97
83,39,0,10,65,4,8,3,13,17,10,0,142
162,110,0,21,111,20,25,16,35,31,15,0,262
199,79,0,6,170,19,14,12,54,19,21,0,315
67,56,0,0,76,5,19,6,11,12,11,0,135
169,101,0,0,234,11,25,12,36,13,30,19,358
104,22,0,2,54,8,9,5,24,7,10,0,119
58,51,0,3,20,4,14,4,21,9,12,0,68
22,17,0,6,9,2,5,2,5,5,5,0,30
144,32,0,14,87,9,17,2,34,13,20,0,182
25,7,0,0,6,0,3,1,7,3,8,3,13
211,158,0,17,130,15,61,19,40,33,29,0,319
78,37,0,15,96,8,11,3,18,6,7,0,173
56,23,0,0,37,5,5,3,8,4,6,3,82
61,44,0,0,79,8,11,18,12,9,5,4,117
145,82,0,0,86,5,34,4,45,18,12,5,190
67,37,0,13,56,7,10,3,28,15,5,0,105
126,73,0,0,69,8,28,8,45,12,9,5,153
511,299,0,34,283,46,194,27,151,33,62,0,614
38,68,0,13,10,5,12,13,6,20,10,0,63
67,32,0,1,55,7,3,6,24,6,8,0,101
244,81,0,0,280,18,23,10,64,13,30,9,438
180,169,0,26,171,15,68,18,54,41,24,0,326
284,93,0,4,231,11,19,6,46,31,49,0,450
78,42,0,3,41,2,12,9,24,7,7,0,103
60,55,0,13,47,5,9,9,28,18,10,0,96
431,418,0,51,327,43,123,44,132,120,78,0,687
216,164,0,0,174,11,45,16,67,44,37,8,326
222,136,0,9,186,15,17,22,63,45,38,0,353
92,52,0,0,87,6,17,8,29,10,14,12,135
118,57,0,0,158,1,12,7,34,26,15,1,237
451,338,0,32,330,49,90,94,135,66,48,0,669
403,346,0,28,293,27,93,41,107,118,63,0,621
277,201,0,10,202,18,47,8,72,98,31,0,416
68,63,0,3,81,2,10,3,21,44,13,0,122
161,106,0,4,84,4,22,8,33,48,33,0,207
195,140,0,10,165,23,53,17,45,24,19,0,329
56,27,0,4,43,5,9,3,10,9,8,0,86
135,48,0,1,66,7,10,6,25,25,9,0,168
140,95,0,1,130,11,18,10,29,33,18,0,247
129,48,0,0,87,3,7,4,25,21,28,0,176
64,29,0,0,41,1,9,5,10,3,6,6,94
93,38,0,0,75,7,6,2,17,22,21,1,130
93,47,0,0,48,6,11,5,28,20,23,5,90
97,35,0,3,46,5,13,4,17,22,8,0,112
48,25,0,0,45,6,2,4,11,13,8,1,73
149,158,0,2,145,13,44,17,52,65,12,0,251
440,202,0,13,442,44,88,18,98,72,35,0,742
372,199,0,0,298,28,73,19,120,47,35,96,451
59,19,0,2,70,3,8,3,8,2,9,0,117
188,140,0,25,171,12,43,23,49,18,17,0,362
343,314,0,0,261,32,104,47,101,59,45,8,522
323,277,0,21,320,22,113,54,105,45,40,0,562
247,44,0,0,173,13,14,9,47,10,34,15,322
177,107,0,8,68,15,25,6,43,48,15,0,208
49,51,0,2,38,3,13,6,13,23,9,0,73
119,34,0,10,113,11,13,2,26,19,15,0,190
101,77,0,11,128,9,21,24,29,18,15,0,201
106,70,0,0,48,3,11,4,30,28,16,2,130
286,173,0,6,228,25,37,46,54,55,56,0,420
75,55,0,1,57,9,5,8,11,12,5,0,138
7,20,0,0,8,3,4,2,2,6,1,1,16
155,58,0,0,64,9,18,5,61,21,13,8,142
52,17,0,0,43,4,6,3,12,0,4,4,79
62,68,0,1,44,0,13,15,21,14,10,0,102
346,356,0,45,248,40,113,83,103,81,59,0,516
483,289,0,18,303,58,58,49,154,75,60,0,639
455,274,0,0,348,40,70,41,63,38,35,193,597
330,349,0,71,330,45,101,77,66,100,49,0,642
312,227,0,0,245,22,53,35,83,49,43,6,493
297,134,0,0,381,25,43,28,60,24,50,12,570
398,279,0,0,249,27,64,71,114,53,74,5,518
276,153,0,0,236,35,50,26,67,33,49,3,402
179,105,0,7,178,15,18,13,47,24,30,0,322
288,169,0,0,245,15,33,19,68,45,47,23,452
261,173,0,0,172,27,28,28,93,26,49,3,352
304,186,0,3,1522,40,50,45,42,32,34,0,1772
293,179,0,0,261,21,33,25,81,21,51,1,500
307,258,0,60,244,42,62,55,106,58,58,0,488
291,199,0,0,238,28,62,25,80,38,49,26,420
366,305,0,0,277,25,70,52,106,46,45,16,588
349,215,0,0,226,32,46,42,99,30,56,6,479
302,182,0,29,278,51,52,24,65,38,66,0,495
414,182,0,0,354,29,53,28,89,27,56,9,659
407,231,0,0,295,18,46,20,84,44,59,15,647
249,156,0,0,241,15,36,25,47,30,43,33,417
284,136,0,0,227,21,28,19,61,20,38,6,454
350,234,0,19,256,39,56,31,73,64,37,0,559
347,213,0,0,335,33,47,21,72,33,59,40,590
346,166,0,0,275,42,49,19,66,30,51,3,527
420,219,0,0,272,35,57,26,107,40,51,88,507
330,251,0,11,347,28,76,50,94,45,43,0,603
224,177,0,1,184,12,55,45,52,38,46,0,338
361,250,0,31,427,39,65,47,103,48,66,0,701
336,206,0,0,283,15,54,36,73,32,46,45,524
235,161,0,0,193,24,47,27,108,31,36,10,306
224,207,0,0,235,21,66,26,51,50,37,18,397
322,267,0,4,203,33,89,49,94,50,37,0,444
335,182,0,9,226,34,46,29,110,30,62,0,441
279,283,0,0,314,23,86,42,57,64,40,17,547
318,283,0,0,226,26,53,79,72,67,54,5,471
290,240,0,0,250,45,71,49,90,36,58,10,421
227,213,0,0,290,24,43,38,58,37,25,20,485
276,243,0,0,363,42,51,48,51,45,37,13,595
196,147,0,25,236,16,30,23,70,34,31,0,400
291,173,0,0,256,24,30,28,76,41,45,27,449
330,159,0,1,214,27,48,30,92,42,45,0,420
398,153,0,26,281,40,47,33,105,30,65,0,538
72,30,0,1,31,14,8,1,22,11,13,0,65
133,58,0,8,99,7,8,1,42,24,23,0,193
91,50,0,4,99,13,13,13,22,14,14,0,155
162,98,0,0,105,13,22,7,33,50,27,3,210
48,40,0,0,33,3,2,3,12,6,20,15,60
33,14,0,0,23,2,4,0,10,0,8,3,43
306,145,0,0,178,14,48,13,63,38,42,7,404
40,28,0,20,34,7,3,7,12,4,1,0,88
453,254,0,0,405,23,63,33,101,48,46,4,794
73,45,0,0,61,2,11,6,18,26,8,4,104
159,70,0,5,99,8,24,5,39,25,19,0,213
120,61,0,0,88,1,11,5,29,20,13,1,189
200,104,0,8,116,12,28,22,56,15,35,0,260
371,193,0,17,243,23,56,17,97,50,96,0,485
227,71,0,0,140,13,32,19,50,11,46,7,260
51,33,0,4,44,8,14,9,11,9,4,0,77
36,18,0,0,49,0,7,1,6,7,4,4,74
372,163,0,16,287,29,54,24,121,32,48,0,530
172,144,0,0,107,14,23,18,72,42,29,8,217
119,71,0,3,78,4,31,6,40,17,16,0,157
244,94,0,6,285,31,23,8,31,47,22,0,467
196,69,0,0,189,18,14,11,45,10,36,1,319
229,80,0,0,118,17,22,2,43,22,39,8,274
173,77,0,7,127,13,26,5,56,23,23,0,238
109,46,0,0,55,2,12,2,24,21,12,14,123
124,63,0,2,101,3,24,4,25,13,19,0,202
41,15,0,2,13,2,0,0,4,3,14,0,48
334,132,0,0,201,11,33,9,70,53,62,20,409
71,31,0,0,58,9,9,1,15,5,7,5,109
63,39,0,0,65,7,6,4,25,8,9,4,104
81,42,0,0,59,12,11,7,16,3,9,6,118
256,150,0,32,199,28,45,30,56,46,42,0,390
36,13,0,4,20,2,2,1,5,3,7,0,53
154,110,0,14,94,6,15,10,28,51,24,0,238
153,87,0,0,145,13,17,10,49,36,20,11,229
100,55,0,8,76,6,9,5,20,22,25,0,152
108,83,0,0,105,8,16,1,15,26,16,9,205
262,127,0,0,281,20,26,11,66,37,40,0,470
109,73,0,1,55,7,16,8,20,22,47,0,118
61,19,0,0,24,4,7,3,8,5,12,3,62
55,20,0,0,39,8,6,2,8,3,12,3,72
67,39,0,0,42,8,10,2,9,10,17,7,85
79,24,0,0,26,1,13,1,18,12,6,5,73
322,217,0,18,305,7,84,23,70,88,53,0,537
404,257,0,0,281,32,73,21,82,85,64,9,576
388,266,0,17,293,36,74,46,71,67,115,0,555
493,331,0,7,511,25,69,31,117,110,132,0,858
127,43,0,0,69,7,4,6,24,15,21,13,149
526,322,0,24,422,28,84,90,114,76,80,0,822
214,108,0,24,139,17,42,5,33,37,29,0,322
44,18,0,0,17,1,4,1,20,3,8,2,40
181,107,0,11,112,17,24,9,48,55,29,0,229
140,58,0,0,114,9,21,4,39,29,10,8,192
32,28,0,7,14,3,7,2,5,13,6,0,45
72,52,0,3,30,5,7,1,18,30,25,0,71
158,114,0,0,94,5,18,20,49,45,20,3,206
32,33,0,3,48,2,3,1,9,26,3,0,72
34,9,0,0,24,5,3,2,6,2,4,9,36
38,17,0,0,17,2,2,0,10,10,7,5,36
92,45,0,0,89,5,7,6,15,14,7,10,162
142,78,0,0,89,9,21,10,34,31,31,0,173
196,71,0,0,155,14,43,3,44,13,26,7,272
599,328,0,43,328,49,83,78,164,67,82,0,775
63,50,0,0,44,2,16,2,14,0,27,17,79
64,22,0,0,20,2,10,1,11,3,20,9,50
139,76,0,0,96,10,25,10,42,11,26,7,180
383,205,0,28,330,22,47,34,58,43,78,0,664
336,104,0,0,216,32,19,14,68,26,66,13,418
421,263,0,29,428,42,72,30,80,61,78,0,778
134,46,0,9,74,2,10,4,20,18,31,0,178
78,36,0,15,89,0,6,2,16,11,13,0,170
155,130,0,18,83,25,32,25,40,52,20,0,192
57,53,0,0,36,1,16,8,14,42,8,4,53
72,23,0,3,37,3,11,1,25,11,11,0,73
523,318,0,12,419,44,77,37,131,80,72,0,831
128,65,0,0,93,4,19,4,28,21,16,6,188
471,235,0,16,314,48,53,73,116,72,46,0,628
86,75,0,2,63,7,16,1,26,26,12,0,138
276,120,0,0,195,15,39,7,62,43,32,1,392
236,176,0,10,149,25,66,14,80,71,28,0,287
64,27,0,0,37,4,4,6,10,6,4,19,75
75,48,0,5,47,6,14,7,9,18,10,0,111
109,69,0,0,65,7,20,9,34,21,17,7,128
262,188,0,69,242,22,46,24,76,67,55,0,471
263,200,0,0,196,10,52,30,66,59,33,35,374
96,62,0,0,91,6,15,9,18,13,11,2,175
381,223,0,9,203,28,42,23,60,103,56,0,504
44,36,0,0,34,1,10,2,12,12,8,5,64
384,222,0,1,296,28,45,27,92,64,72,0,575
89,58,0,0,45,5,21,3,17,15,10,8,113
266,174,0,27,240,18,31,11,53,82,31,0,481
75,37,0,9,45,3,22,2,13,19,4,0,103
49,20,0,0,14,3,10,0,21,4,9,0,36
41,18,0,0,23,0,6,1,20,3,10,2,40
184,99,0,1,133,12,14,19,36,24,22,0,290
75,72,0,4,63,11,17,8,35,18,12,0,113
139,42,0,0,93,9,9,0,15,11,22,1,207
179,155,0,19,115,12,43,27,39,47,38,0,262
543,318,0,0,447,28,85,54,158,84,83,7,809
37,10,0,0,27,4,7,0,6,1,8,3,45
72,26,0,0,30,6,14,2,13,13,7,0,73
157,58,0,0,97,10,5,10,43,20,22,3,199
51,40,0,0,33,0,6,6,10,16,9,1,76
181,68,0,10,93,11,25,6,45,28,27,0,210
22,21,0,0,9,2,3,4,3,10,8,6,16
63,66,0,0,38,5,12,1,10,24,15,2,98
112,106,0,0,54,5,21,9,26,55,27,1,128
86,33,0,10,82,3,7,7,18,8,16,0,152
179,62,0,0,145,36,11,9,42,14,18,7,249
103,47,0,0,97,6,7,3,25,20,10,7,169
210,130,0,0,216,25,38,17,34,29,20,3,390
213,151,0,11,164,11,32,24,51,37,53,0,331
171,68,0,0,128,22,17,6,41,9,33,12,227
186,97,0,8,119,14,21,14,39,24,21,0,277
64,27,0,0,54,1,4,25,8,9,4,2,92
94,84,0,2,82,8,24,9,40,20,15,0,146
105,69,0,0,65,10,13,2,41,27,17,0,129
105,48,0,8,82,10,25,4,21,22,7,0,154
139,118,0,25,126,10,30,22,41,30,30,0,245
286,200,0,0,210,16,60,31,88,51,58,11,381
219,89,0,0,159,21,29,8,54,18,31,0,306
154,150,0,0,123,20,20,21,46,72,29,10,209
149,125,0,3,122,8,21,19,51,48,31,0,221
152,58,0,8,79,8,22,3,28,20,17,0,199
209,85,0,12,135,14,33,9,50,16,43,0,276
50,15,0,0,57,3,6,2,8,1,5,19,78
154,45,0,0,158,9,13,5,19,14,20,4,273
34,10,0,0,36,1,1,2,4,0,9,7,56
377,172,0,0,318,14,48,24,94,14,70,20,583
249,199,0,0,442,23,37,9,60,8,56,35,662
174,59,0,23,219,9,20,8,22,11,30,0,375
25,5,0,0,5,1,2,1,5,1,2,0,23
38,15,0,0,43,4,3,1,1,3,3,8,73
53,13,0,0,51,1,0,3,13,2,5,9,84
60,11,0,0,46,7,3,1,21,3,8,1,73
335,84,0,0,286,21,38,8,69,18,43,11,497
294,137,0,0,271,19,47,19,43,20,38,3,513
271,112,0,0,505,17,24,12,60,15,47,12,701
106,43,0,0,89,5,13,2,34,4,5,6,169
253,106,0,0,212,15,26,14,49,23,27,15,402
