OBEC,OKRSEK,VOLICI,HLASY,HLASY_53,HLASY_7,HLASY_1080,HLASY_768,HLASY_721,HLASY_166,HLASY_47,HLASY_1114,HLASY_1141,HLASY_344,HLASY_1170,HLASY_1139,HLASY_98,HLASY_93,HLASY_600,HLASY_1102,HLASY_1166,HLASY_1167,HLASY_55,HLASY_79,HLASY_83,HLASY_1137
504301,1,305,99,6,27,2,22,1,4,17,1,4,9,1,5,,,,,,,,,,
504807,1,207,94,,18,1,24,2,4,1,5,1,28,2,,1,2,5,,,,,,,
504921,1,240,118,1,24,4,34,1,2,7,14,1,15,11,,,1,,2,1,,,,,
504955,1,126,56,2,7,8,12,1,1,5,2,4,9,,,1,,1,2,,1,,,,
505005,1,342,127,17,16,1,30,8,3,18,4,8,10,2,1,,3,3,2,,,1,,,
505030,1,152,47,3,6,,9,3,2,10,2,4,6,,,,,,1,1,,,,,
505145,1,1314,349,26,89,16,57,10,10,25,19,1,44,23,,,2,6,1,,12,,4,1,3
505391,1,305,126,2,41,1,23,4,6,25,1,2,12,3,,,,3,,,,,,2,1
530697,1,103,46,6,3,7,7,2,2,2,3,4,9,,,,,,1,,,,,,
530794,1,171,52,,9,2,10,,24,2,,,2,1,,,,,1,,1,,,,
547794,1,70,25,,5,,2,,1,,2,2,13,,,,,,,,,,,,
547808,1,223,67,2,8,1,17,3,4,7,7,5,4,3,,,2,1,2,,1,,,,
547816,1,362,142,6,22,,38,4,8,6,1,1,52,2,,,1,,,,,,,,1
547824,1,94,48,4,24,2,3,2,1,,,3,9,,,,,,,,,,,,
547832,1,199,91,7,11,4,15,4,9,2,3,10,16,,,,1,,7,,1,1,,,
547841,1,156,83,6,15,1,32,2,4,9,3,1,8,,,,,1,,,,,,,1
547859,1,97,33,,3,2,3,,5,8,1,,9,,,,1,,,,1,,,,
547867,1,118,53,7,14,1,7,2,4,2,3,1,7,3,,,,1,,,1,,,,
547875,1,200,81,,13,1,22,,8,14,7,,13,2,,1,,,,,,,,,
547891,1,314,133,5,16,4,49,4,15,14,2,4,13,3,,,,2,,,,1,,,1
547905,1,652,201,2,96,7,26,15,12,5,7,5,15,1,,1,1,1,3,,3,,,,1
547921,1,61,20,1,2,2,7,2,3,3,,,,,,,,,,,,,,,
547964,1,200,87,6,20,2,12,2,4,9,8,,17,2,,,,1,3,,,,1,,
547972,1,85,28,2,2,3,6,,1,6,1,1,3,,,,,1,2,,,,,,
547981,1,368,98,6,25,8,29,1,1,10,9,1,3,1,,2,,1,1,,,,,,
548006,1,80,10,3,,,3,1,,,1,1,,1,,,,,,,,,,,
548014,1,1035,359,16,125,10,51,28,30,10,30,4,32,13,1,,1,3,4,1,,,,,
548022,1,153,80,11,5,,9,2,26,5,6,,11,2,,,,1,,,,,,,2
548031,1,641,227,20,40,4,58,6,18,24,11,1,30,5,,,1,3,4,,1,,1,,
548049,1,383,182,13,27,14,30,13,10,18,12,1,28,2,,,2,6,3,,,,,,3
553719,1,549,198,29,14,7,56,17,11,19,2,4,17,7,,,,2,1,3,7,1,,,1
553760,1,360,117,21,12,4,20,3,4,11,9,3,14,4,,,,3,3,,5,1,,,
554847,1,286,94,16,12,3,8,1,3,12,5,,27,1,,,2,,1,,3,,,,
554952,1,228,82,4,27,1,20,3,2,5,1,4,9,,1,,,1,,,4,,,,
555240,1,482,152,7,86,2,13,5,8,10,6,1,3,6,,,2,,,,1,,,,2
556882,2,177,66,4,6,5,16,3,5,3,2,3,10,5,,,,1,2,1,,,,,
556882,1,425,183,13,18,10,48,9,9,15,3,7,39,6,,,,1,3,,1,,,,1
571164,9,835,343,41,40,22,50,35,11,34,14,18,57,4,,3,1,7,1,2,1,,,,2
571164,23,776,303,33,41,12,57,18,1,21,21,11,72,6,,,,2,2,,3,,,,3
571164,22,563,223,26,43,7,57,8,4,21,9,11,26,5,1,,1,,2,,2,,,,
571164,21,641,262,20,37,12,76,8,3,21,6,20,37,12,1,1,2,2,3,,1,,,,
571164,20,558,186,14,21,14,36,9,3,23,11,12,27,5,1,2,,2,3,,2,,,1,
571164,19,497,184,18,22,9,38,3,2,25,15,3,28,10,1,,2,1,1,,2,2,,,2
571164,29,102,35,4,4,3,12,,,3,1,,5,,,,,,1,,2,,,,
571164,28,157,89,4,3,2,8,4,,7,3,,53,2,,,,1,1,,1,,,,
571164,27,454,176,10,31,9,58,8,3,9,16,6,16,1,,,,2,,,4,1,,,2
571164,26,608,272,25,30,11,63,10,11,28,14,16,50,4,,,,2,1,,3,1,,,3
571164,25,123,51,2,6,1,16,,,7,2,,11,4,,,,1,1,,,,,,
571164,24,514,189,18,31,10,55,1,2,19,8,1,31,3,1,,1,,5,1,1,,,,1
571164,2,1147,302,21,57,13,50,17,4,28,16,19,58,7,,,2,3,2,,2,1,,,2
571164,1,1089,322,23,55,24,68,15,2,21,15,13,57,10,,1,,4,7,1,3,,,,3
571164,5,593,222,17,39,9,60,7,,24,12,10,37,3,,,1,1,,1,1,,,,
571164,4,678,273,27,46,8,69,11,3,15,1,15,67,6,,,,,2,1,1,,,,1
571164,3,925,325,25,41,25,58,11,10,33,18,15,70,6,,1,,3,2,,2,,,,5
571164,14,588,240,22,33,6,53,22,2,20,5,9,53,9,,1,,2,1,,2,,,,
571164,13,807,258,17,47,9,50,9,5,13,24,11,55,5,,1,2,5,,,4,,,,1
571164,12,708,309,33,49,24,61,17,9,9,8,17,60,8,,,,1,2,,6,2,,1,2
571164,8,544,190,23,19,20,44,6,4,13,4,8,29,7,,,1,4,2,1,3,,,,2
571164,7,626,263,33,38,12,70,9,2,19,19,8,41,3,,1,1,3,3,,,,1,,
571164,6,941,405,34,41,21,92,32,4,25,12,16,113,6,,,2,,1,1,4,1,,,
571164,18,531,193,18,24,10,44,6,6,24,6,5,38,4,,,2,2,,,2,2,,,
571164,17,511,183,12,30,8,39,13,3,22,10,15,23,3,,,2,,1,,,,,,2
571164,16,578,202,13,28,12,45,5,3,23,10,9,39,2,,1,2,1,3,1,3,,,,2
571164,15,657,164,12,23,15,32,5,6,14,12,6,31,3,,,2,,,,2,,,,1
571164,11,573,185,21,29,13,38,9,8,20,5,5,26,1,,,2,2,3,,2,,,,1
571164,10,1311,279,42,35,23,51,8,,16,22,25,45,4,,,,2,3,,,2,,,1
571181,1,427,156,14,23,2,52,2,6,21,3,6,22,,,,2,1,,1,,1,,,
571202,1,529,184,6,33,2,18,8,10,16,5,33,41,2,,,4,,1,,3,,,,2
571229,1,143,56,6,11,,6,,,11,1,2,8,8,,,1,1,,,,1,,,
571237,1,174,42,1,3,,17,,8,4,3,1,3,1,,,,,,,1,,,,
571245,1,308,129,16,18,8,29,,3,13,,1,22,6,1,,1,1,9,,1,,,,
571253,1,224,80,3,14,4,14,,,16,7,,7,5,2,,2,3,1,2,,,,,
571270,1,261,93,4,13,4,26,2,3,9,8,2,16,,,,,4,,,,1,,,1
571296,1,86,50,9,21,3,7,,,2,,1,6,1,,,,,,,,,,,
571300,1,117,62,,12,,17,,,11,,,15,,,,,3,4,,,,,,
571377,1,203,71,13,18,1,23,,,4,,,5,2,,,1,,2,,,,2,,
571385,2,421,135,11,26,7,25,6,2,8,8,1,31,1,1,,2,,3,2,1,,,,
571385,1,797,266,42,29,21,43,10,6,9,12,9,59,11,,,2,3,1,1,8,,,,
571385,7,279,122,3,23,5,42,8,3,10,4,4,11,5,,,,3,1,,,,,,
571385,6,730,279,27,33,15,73,10,7,21,7,7,60,5,,,,1,4,,7,,,,2
571385,5,642,219,31,26,12,46,11,5,11,16,15,38,3,,,,1,2,,1,,,,1
571385,4,562,169,8,35,8,47,4,4,16,7,5,24,,,,2,3,,,4,,,,2
571385,3,527,173,21,29,6,41,4,8,16,6,2,26,1,,1,4,2,1,2,1,1,,,1
571393,5,663,228,21,38,5,64,15,2,25,4,7,32,13,,,,1,,,,,,,1
571393,4,884,311,25,42,10,62,10,6,40,18,3,65,19,1,,,1,2,,4,,,,3
571393,3,834,354,34,70,2,90,15,4,28,8,10,63,15,,1,3,2,5,,1,1,,1,1
571393,2,504,195,24,33,7,46,5,1,16,6,2,34,18,,,,2,1,,,,,,
571393,1,584,233,21,37,6,50,5,,15,6,11,47,27,,,1,1,1,,2,2,,,1
571393,15,88,30,3,5,,3,,,6,1,,8,3,,,,,,,,,,,1
571393,14,186,85,7,16,1,16,4,1,11,1,,15,11,,,,1,,,,,,,1
571393,13,201,61,5,15,,12,1,,1,3,1,22,1,,,,,,,,,,,
571393,12,806,269,34,44,14,54,6,1,15,14,5,51,21,1,2,3,,2,,1,1,,,
571393,11,545,208,16,45,3,67,5,1,18,5,1,23,17,,,,1,3,,2,1,,,
571393,10,490,156,8,41,,26,4,1,20,8,3,31,10,1,1,,,1,,1,,,,
571393,9,548,191,12,46,2,69,2,,13,6,8,20,7,,2,1,,,1,1,,,,1
571393,8,568,231,16,69,3,59,2,4,28,9,,24,13,,,,,2,,1,,1,,
571393,7,563,233,15,61,1,48,2,3,28,6,6,37,24,,,,,1,,1,,,,
571393,6,574,184,14,41,9,27,2,1,14,3,5,47,14,,,,3,,,2,,,,2
571407,1,165,82,1,13,4,8,2,4,2,4,3,36,4,,,,,,1,,,,,
571440,1,640,244,29,42,5,54,13,6,20,14,4,30,19,1,,2,,3,,1,,,1,
571458,2,53,16,1,4,1,3,,1,4,1,,,,,,,1,,,,,,,
571458,1,92,43,2,3,,17,,3,2,1,1,10,2,,,,1,,,,,1,,
571466,2,52,20,,6,,3,2,,1,1,,,,,,,1,4,,2,,,,
571466,1,279,105,12,15,3,21,8,9,8,3,3,15,1,,,,4,,,3,,,,
571474,1,388,148,17,36,5,21,3,,28,7,6,3,20,,,1,,,,,1,,,
571482,1,109,51,1,3,1,18,1,4,12,2,1,7,,,,,,,,,,1,,
571491,3,101,44,1,4,,9,3,1,1,,,21,2,,,,,,,1,,1,,
571491,2,483,169,9,25,8,23,1,2,24,6,4,28,27,,,,2,7,,2,1,,,
571491,1,981,293,16,41,6,45,9,11,14,12,7,84,28,,,1,9,4,,5,,,,1
571504,1,283,84,13,7,3,19,2,8,7,6,2,4,1,,,2,3,1,,4,1,,,1
571539,5,58,26,,4,,4,,,4,,1,12,1,,,,,,,,,,,
571539,4,183,50,,6,4,9,1,3,4,2,3,3,2,,,,,,,12,,,,1
571539,3,264,72,,15,1,15,,6,8,7,1,3,3,,,,1,,,10,2,,,
571539,2,1025,313,23,43,5,40,6,19,34,23,5,25,7,1,,1,4,4,,66,6,,,1
571539,1,978,365,19,45,12,56,11,10,60,20,7,31,8,,,3,8,7,,53,13,1,,1
571547,2,176,56,2,13,2,18,1,8,2,5,,5,,,,,,,,,,,,
571547,1,849,258,17,60,5,67,4,18,31,9,7,21,4,,,2,2,4,,4,,,,3
571563,2,86,34,2,8,1,3,1,2,2,,2,8,1,,,,3,,,,,,,1
571563,1,257,101,4,15,2,19,9,14,5,2,8,12,5,,,,1,,,,,1,,4
571571,2,99,40,,1,,6,1,,1,,,31,,,,,,,,,,,,
571571,1,545,214,9,37,4,39,6,4,9,4,2,90,2,,,,3,4,,1,,,,
571580,1,199,94,10,16,,6,,1,14,3,2,28,8,,,3,2,1,,,,,,
571610,1,498,222,11,17,13,47,4,52,21,24,6,14,2,,1,,5,2,1,1,,1,,
571628,1,280,118,3,15,1,32,12,5,14,5,7,11,5,,1,,4,1,,1,1,,,
571652,1,128,64,1,10,4,7,2,2,8,2,,9,17,,,,,,,2,,,,
571661,4,90,29,,1,2,13,,2,,,1,9,1,,,,,,,,,,,
571661,3,92,27,5,,1,3,1,2,5,3,1,4,,1,,,,,,,,,,1
571661,2,166,85,2,18,1,17,5,1,14,1,3,16,3,,,,,1,,2,,,,1
571661,1,785,246,24,37,5,54,10,3,15,7,4,67,13,,,,3,2,1,,,,,1
571695,1,235,89,3,19,1,8,2,10,7,7,1,19,,,,,3,5,,3,,,,1
571709,1,129,38,1,11,,10,2,1,5,,1,7,,,,,,,,,,,,
571725,1,74,34,,5,1,7,8,2,,,3,5,1,1,,1,,,,,,,,
571733,1,117,59,,10,4,12,4,2,3,5,6,10,3,,,,,,,,,,,
571750,1,130,44,3,7,1,6,1,5,11,5,,3,,,1,,,,,1,,,,
571768,1,692,244,9,43,5,72,8,3,33,5,4,42,3,,2,2,4,4,,4,,,,1
571776,4,189,66,2,8,1,10,,1,12,1,2,24,,,,,,,,5,,,,
571776,3,233,62,,8,,21,,1,4,4,4,12,,,,,5,2,,1,,,,
571776,2,472,192,20,46,6,30,25,6,23,10,2,19,1,,,,,,,3,,,,1
571776,1,952,292,33,45,7,53,10,5,44,10,9,60,3,,1,,2,4,2,4,,,,
571776,6,116,32,5,2,3,5,1,,1,2,,13,,,,,,,,,,,,
571776,5,103,44,4,5,1,4,1,,1,2,3,20,,,,,,,,1,2,,,
571822,1,245,81,5,5,,19,,3,18,10,2,2,15,,,,,,1,,,,,1
571831,2,231,79,4,21,1,15,1,1,9,2,10,12,1,,,,,1,,1,,,,
571831,1,801,258,15,39,8,65,4,10,29,12,11,49,2,,,,,6,,6,1,,,1
571857,1,277,123,13,21,8,25,2,7,12,,12,21,1,,,,,,1,,,,,
571873,1,252,89,1,12,2,16,,2,2,4,3,42,,1,,1,,2,,,,,,1
571873,3,68,39,1,3,2,4,,3,6,3,,15,,,,,,2,,,,,,
571873,2,181,70,2,11,6,15,2,,13,3,,14,3,,,,,,1,,,,,
571873,4,58,39,1,2,,11,,,,7,4,12,,,,,,1,,,,,,1
571890,1,98,36,,4,2,4,,,11,1,,11,,,,1,,2,,,,,,
571903,1,368,118,5,27,5,38,4,3,18,1,2,6,7,,,,1,,,1,,,,
571903,2,103,43,2,9,,25,2,,2,,,3,,,,,,,,,,,,
571911,1,1334,393,28,53,16,98,13,9,62,17,14,61,12,,1,3,1,1,1,1,,,,2
571920,1,245,91,12,11,2,16,1,9,3,7,2,15,3,,,,,9,,1,,,,
571962,1,629,255,15,40,7,65,7,11,34,10,7,39,7,1,,,9,,,1,2,,,
572004,1,202,96,,12,1,16,1,2,16,5,1,27,1,,,,1,1,,12,,,,
572039,1,232,58,1,14,3,20,2,1,3,6,,3,2,,,2,,,,1,,,,
572063,1,206,65,2,11,2,11,3,1,15,1,1,15,2,,,,,,,1,,,,
572071,1,1111,224,10,30,,55,6,53,22,12,,10,2,,,2,6,8,,2,3,1,,2
572080,4,87,36,,7,1,4,,1,2,7,,11,3,,,,,,,,,,,
572080,3,167,68,7,25,,6,,3,5,5,1,7,2,,,,2,1,,3,,,,1
572080,2,446,176,6,22,,53,2,10,29,4,1,37,4,,,,1,,,6,,,,1
572080,1,1040,397,29,59,10,79,9,27,21,15,5,124,4,2,,1,4,1,1,5,,,,1
572098,1,641,184,21,49,2,27,10,6,16,7,1,30,7,,1,,3,1,,1,,,1,1
572101,1,353,161,6,13,2,16,,2,10,4,1,96,6,1,,,2,,1,,,,,1
572110,1,183,63,1,6,3,13,5,3,9,3,1,12,2,,,,,,,3,1,,,1
572152,3,67,36,,11,,4,1,,1,,,18,,,,,1,,,,,,,
572152,2,51,25,,3,,7,,2,9,1,,3,,,,,,,,,,,,
572152,1,179,95,3,16,3,22,4,2,12,5,,26,,,1,,,,,1,,,,
572161,3,158,42,4,4,1,11,1,5,7,3,,5,,,,,,,,1,,,,
572161,2,646,207,19,27,4,47,10,19,50,7,2,14,,,,,2,,,2,3,1,,
572161,1,562,176,9,23,1,48,7,28,31,7,7,8,2,,1,,,,1,,3,,,
572179,4,96,37,,5,,8,,19,3,,,,,,,,,,,1,,,,1
572179,3,85,40,,1,,12,,8,8,1,,6,,,3,,,1,,,,,,
572179,2,99,36,,7,2,1,,16,3,3,,3,,,,1,,,,,,,,
572179,1,804,304,13,42,8,52,3,109,24,11,3,26,2,,1,2,2,1,1,1,1,,,2
572195,1,26,16,,5,1,,,3,3,2,,,,,,,,,,,1,,,1
572209,2,37,19,5,4,,2,,7,,,,,1,,,,,,,,,,,
572209,1,244,64,1,10,2,13,3,6,3,6,3,11,1,,,,5,,,,,,,
572209,3,41,23,1,3,2,1,,8,,,1,1,,,,,6,,,,,,,
572217,1,387,143,8,28,3,20,3,2,15,18,3,24,8,,,,6,,,4,,,,1
572225,3,200,65,3,9,1,20,2,5,15,2,2,5,,,1,,,,,,,,,
572225,2,235,71,4,14,,8,4,,29,2,1,4,2,,,,,1,,1,1,,,
572225,1,994,305,27,71,8,54,17,2,42,20,15,23,6,,1,4,2,7,,5,,,,1
572233,1,59,29,10,4,1,3,1,4,,1,,3,1,,,,,1,,,,,,
572241,1,882,247,18,40,4,50,3,1,32,15,5,39,19,1,,1,7,,,10,,,,2
572241,14,268,96,4,10,6,22,3,1,21,6,,18,,,,,1,1,,1,2,,,
572241,13,47,23,,1,,4,,1,4,,,13,,,,,,,,,,,,
572241,12,36,12,1,1,,,,3,3,,,4,,,,,,,,,,,,
572241,11,49,19,,1,,7,,,7,,,3,1,,,,,,,,,,,
572241,10,51,12,,1,,4,1,1,,2,,3,,,,,,,,,,,,
572241,9,92,31,2,,,5,1,1,4,4,,12,,,,,,2,,,,,,
572241,8,101,19,1,4,2,7,1,,1,1,,,,,,,,,,2,,,,
572241,7,94,45,2,8,1,14,,3,2,5,,7,,,,,1,,,2,,,,
572241,6,132,34,4,10,,4,1,1,3,1,,7,1,,,2,,,,,,,,
572241,5,181,72,2,12,,17,6,1,10,,1,19,1,,,,,,,3,,,,
572241,4,736,247,10,51,4,48,5,1,59,18,,21,12,,,3,2,2,,8,1,,,2
572241,3,632,181,19,34,3,21,2,5,33,15,6,31,2,1,,,,1,,5,,,,3
572241,2,895,307,22,40,12,63,6,6,41,9,2,62,14,,,1,3,2,,19,1,2,,2
572250,1,109,39,,10,1,1,,5,4,3,,11,,,,,4,,,,,,,
572268,6,127,58,3,11,2,9,4,,8,1,4,14,1,,,,,,,1,,,,
572268,5,178,67,2,15,3,14,5,3,5,2,,14,,,,1,1,,1,1,,,,
572268,4,380,144,10,17,15,40,1,,13,7,9,25,1,,,,,3,,2,,,,1
572268,1,882,311,11,30,18,61,8,12,31,11,11,102,3,3,,1,5,3,,,,,,1
572268,2,984,350,23,55,14,69,13,10,33,17,8,77,11,1,,2,5,6,,4,,,1,1
572268,3,879,349,16,40,27,72,22,4,23,20,19,72,6,1,,2,8,7,,6,,,1,3
572276,1,698,274,28,31,15,46,12,14,11,14,7,63,9,2,,,5,2,,7,2,1,,5
572284,1,43,19,2,6,4,4,,1,,,,2,,,,,,,,,,,,
572292,1,58,34,,3,3,7,1,2,4,2,1,9,,,1,,,,,,,,1,
572306,1,166,43,4,,,13,,11,7,1,2,2,,,,,,,,3,,,,
572314,1,157,56,7,13,4,9,3,2,,,,16,,,,,,,,2,,,,
572322,1,385,186,3,19,2,24,5,,9,6,,44,69,,,,2,2,,,,,,1
572331,1,360,146,14,19,11,36,4,4,15,2,8,15,6,,,3,2,2,3,2,,,,
572349,1,703,297,10,42,7,45,2,13,42,4,2,119,3,,,6,,,,1,,,,1
572357,1,260,147,5,10,,15,,75,4,,,34,,,,,1,1,1,1,,,,
572365,1,337,168,3,17,12,15,1,57,3,11,,48,1,,,,,,,,,,,
572373,1,366,199,19,22,8,17,1,55,8,4,8,54,,,,1,,,,,,,,2
572381,1,270,79,2,18,4,16,,,9,,3,19,3,,,,1,1,,3,,,,
572390,1,750,356,14,37,9,35,7,4,22,13,10,30,164,4,,1,2,1,,3,,,,
572403,1,153,60,4,8,,7,7,5,2,4,4,15,,,,,,,,1,1,,,2
572411,3,689,223,15,17,12,50,11,3,34,4,2,69,,,,1,,2,1,2,,,,
572411,2,587,174,10,31,5,39,4,4,22,1,1,42,,,1,2,4,1,1,4,1,,,1
572411,1,1026,371,20,35,6,60,9,10,59,14,9,134,,2,2,,2,3,,3,2,1,,
572411,4,224,82,2,13,1,15,1,3,17,6,4,17,,,,,,3,,,,,,
572420,1,495,188,5,36,1,47,3,12,27,16,4,17,5,,,3,,3,,5,1,3,,
572438,1,56,22,4,1,1,6,1,2,1,,,4,,,,,,,,2,,,,
572446,1,380,136,11,15,2,38,2,14,12,12,1,16,8,,,,1,,,4,,,,
572454,1,190,76,1,11,4,17,,4,14,,2,11,9,,,2,,1,,,,,,
572462,1,439,161,5,53,3,30,2,7,20,7,2,20,7,,,,3,1,,1,,,,
572471,1,271,109,10,7,5,29,6,10,2,3,3,20,10,,,1,,,1,2,,,,
572489,1,103,42,,8,,8,1,10,4,2,,7,,,,1,,,,1,,,,
572497,1,375,128,4,17,1,36,2,,15,5,4,21,18,,,1,1,3,,,,,,
572501,1,334,143,9,23,3,22,3,1,11,5,2,59,,,,2,2,,,1,,,,
572519,1,356,127,8,36,2,11,,17,15,2,1,19,,,,2,11,3,,,,,,
572527,1,206,77,3,23,2,13,4,,4,2,,13,4,,,2,6,,,1,,,,
572535,1,284,130,7,23,2,40,,3,8,5,4,29,2,,1,,1,1,1,1,1,,,1
572543,1,124,54,,7,,11,2,,10,1,1,9,9,1,,,,3,,,,,,
572551,4,119,69,2,8,,7,,,1,,,8,42,,,,,,,,,1,,
572551,3,95,41,1,6,2,5,,,4,1,,4,16,,,1,,,,,,,,1
572551,2,77,37,,4,,5,1,,3,2,,4,17,,,1,,,,,,,,
572551,1,289,180,3,2,6,12,1,,7,,1,8,138,,,,,,,,,,,2
572560,1,262,106,5,19,1,15,,9,9,4,3,29,2,,,,4,2,,1,,2,1,
572578,1,859,284,13,52,4,97,3,6,36,9,3,28,7,1,,8,3,4,2,5,2,,,1
572586,1,421,123,4,22,5,23,6,3,17,5,1,24,2,1,,,,2,,7,,1,,
572594,1,61,34,7,4,3,11,2,5,,1,,1,,,,,,,,,,,,
572608,1,185,68,4,8,,14,,23,1,3,1,13,1,,,,,,,,,,,
572616,1,144,43,7,8,2,4,1,7,1,1,,11,,,,,,,1,,,,,
572624,1,220,91,10,26,3,23,,1,6,4,4,3,2,,,,5,1,,1,,,2,
572632,1,146,42,3,4,,5,2,2,11,5,2,4,,,,,1,3,,,,,,
572641,1,220,105,16,15,,20,7,3,19,7,,5,4,,,,3,2,,3,1,,,
572683,1,170,61,1,10,3,17,1,4,17,6,,1,,1,,,,,,,,,,
572691,1,1364,348,16,61,10,70,5,8,54,33,4,58,7,1,,1,9,1,2,3,,4,,1
572713,1,308,106,11,15,1,18,2,,18,8,1,31,,,,,1,,,,,,,
572721,1,538,171,11,35,1,22,5,12,14,12,2,49,2,,,,,2,,2,1,1,,
572730,1,152,45,1,12,,3,1,4,4,4,1,13,,,,,1,,,,,,,1
572748,1,337,83,3,16,2,14,,1,22,13,,8,2,,,1,1,,,,,,,
572764,1,81,38,2,8,2,10,2,2,6,2,,3,,,,1,,,,,,,,
572799,1,165,73,11,16,1,14,2,12,5,1,1,3,,1,,1,2,2,,,1,,,
572802,1,111,56,6,7,,13,1,6,1,2,1,9,2,,,3,,1,,3,,,,1
572845,1,112,51,7,10,,15,1,2,5,2,2,4,2,,,,,,1,,,,,
572853,1,85,35,2,8,1,9,2,2,4,,,1,4,,,,,1,,,,,,1
572861,1,211,97,7,6,2,14,9,2,6,3,3,36,2,1,,,,,1,2,,3,,
572870,1,424,164,19,14,11,33,21,10,6,6,5,31,2,,,,1,,,5,,,,
572888,1,138,46,1,6,3,15,4,1,1,2,,7,,,,2,2,2,,,,,,
572896,1,345,92,7,12,5,21,2,11,10,1,5,10,3,,,,1,,,4,,,,
572934,1,188,90,4,10,4,27,3,6,6,8,,16,,,1,,3,1,,1,,,,
572942,1,76,37,,6,3,14,,11,,,,3,,,,,,,,,,,,
572951,1,137,45,6,8,3,10,2,3,1,1,1,3,2,,,,4,,,1,,,,
572977,1,205,108,3,24,3,27,2,1,7,4,7,6,16,,,,,1,4,3,,,,
572985,1,165,75,3,16,9,14,3,3,4,1,3,13,5,,,,1,,,,,,,
573019,1,43,14,1,,2,4,1,2,,,,1,,,,2,,,,1,,,,
573027,1,110,30,5,6,,,1,1,3,4,3,4,,,,,,,,,,,,3
573035,1,77,38,,3,3,13,,,10,1,1,4,,,,1,1,1,,,,,,
573078,1,134,44,3,4,,8,2,18,4,,2,3,,,,,,,,,,,,
573426,1,153,47,,10,3,12,,,9,1,,8,1,,,,1,,1,,,,,1
573515,1,246,103,7,7,9,18,6,2,5,17,1,21,2,,,1,1,2,,4,,,,
573787,1,299,102,5,13,5,24,3,8,14,7,2,11,7,,,,,2,,1,,,,
573817,1,93,44,2,7,1,8,3,1,4,5,1,4,1,,,,,,,6,,,,1
573876,1,225,115,3,22,3,18,1,6,5,3,2,31,4,,,,,,,17,,,,
573949,1,50,22,,4,,13,,,1,3,,,,,,1,,,,,,,,
574007,1,124,44,1,3,2,10,2,,14,2,,6,1,,,,2,,,1,,,,
574091,1,102,44,4,8,1,13,2,2,1,,,11,2,,,,,,,,,,,
574104,1,165,52,4,7,,10,3,10,7,1,,8,,,2,,,,,,,,,
574198,1,391,196,34,17,10,37,22,12,7,10,2,30,4,,,,1,,3,4,1,,,2
574309,1,178,71,6,19,2,15,4,4,5,5,2,7,,,,,1,,,,,,,1
574325,1,160,56,1,16,,10,1,4,9,6,,2,,,,2,2,3,,,,,,
574333,1,96,28,,5,,9,,2,10,,,1,,,,,,,1,,,,,
574392,1,453,146,10,19,9,44,7,4,15,14,1,19,1,,,,1,,,,1,,,1
574449,1,135,56,6,10,1,13,,6,4,2,,9,2,,,,,1,,,,,,2
574724,1,163,54,,5,5,14,3,4,8,2,1,8,1,,,,1,1,1,,,,,
574741,1,247,91,9,14,6,36,4,3,6,,1,2,1,,,,1,1,1,5,,1,,
574767,3,652,235,16,36,10,38,11,54,11,9,2,26,5,,,,1,6,2,7,,,,1
574767,2,1045,352,32,51,17,87,29,42,19,14,4,29,7,1,2,3,8,3,,2,1,,,1
574767,1,1091,384,33,45,20,73,22,53,20,16,12,50,6,,1,,5,7,2,18,,,,1
574783,1,218,91,17,10,1,16,3,20,3,8,1,7,2,,,,,2,,1,,,,
574791,1,194,84,5,12,1,15,1,12,6,7,1,12,8,,,1,,,,1,,,,2
574805,1,826,288,29,55,17,70,14,8,29,14,5,32,9,,,,2,1,,3,,,,
574813,1,182,66,2,5,5,13,,10,11,6,2,10,1,,,,,,,,1,,,
574821,1,64,26,3,3,1,5,,2,3,2,1,4,,,,,1,,,1,,,,
574830,1,315,121,8,17,8,17,8,17,5,7,3,25,5,,,,,1,,,,,,
574848,4,71,44,2,8,4,4,6,13,1,,1,5,,,,,,,,,,,,
574848,3,220,103,10,12,9,16,5,11,7,6,6,13,,,,1,4,,,2,,,,1
574848,2,168,82,10,4,5,15,4,21,6,4,4,4,4,,,,,,,1,,,,
574848,1,682,246,18,17,15,41,24,60,11,9,14,28,3,,,2,1,,1,,1,,,1
574856,1,882,343,32,53,22,106,15,17,22,19,7,24,3,,,,7,5,,6,2,,,3
574864,1,330,101,15,18,8,17,10,3,8,3,4,13,2,,,,,,,,,,,
574899,1,684,208,21,40,3,50,6,13,29,3,5,16,2,,1,,6,1,,11,1,,,
574899,3,240,116,5,7,3,21,17,24,12,3,2,7,10,,,,,1,2,1,,,,1
574899,2,698,203,8,23,10,45,2,22,36,8,3,29,8,1,,,,3,,3,,,,2
574902,1,302,77,2,7,,19,5,16,11,1,1,5,,,,,3,4,,2,,,1,
574911,4,137,49,6,13,5,3,,1,5,4,,11,,,,,,,,1,,,,
574911,3,208,54,2,7,,14,,,,1,4,23,2,,,,,,,1,,,,
574911,2,481,147,10,30,3,42,1,1,10,6,4,28,1,1,,1,3,3,3,,,,,
574911,1,773,220,11,41,12,31,7,6,11,17,23,44,4,2,,,5,1,3,,,1,,1
574929,1,722,219,13,40,6,48,11,20,20,11,7,23,5,1,2,,,3,1,6,,,,2
574953,1,313,126,13,12,5,17,4,33,6,2,5,20,1,,1,,3,1,,3,,,,
574961,1,221,73,11,20,2,14,1,3,10,6,,2,3,,,1,,,,,,,,
574988,9,193,52,3,10,6,10,4,1,4,4,6,3,,,,,,,,1,,,,
574988,8,240,86,10,17,1,16,4,2,6,7,14,2,2,,,,1,2,1,,,,1,
574988,7,617,235,11,53,13,50,18,9,11,10,20,23,3,,,,1,3,,8,,2,,
574988,6,627,222,15,36,8,55,9,4,21,11,28,16,7,,,1,1,7,,1,,1,1,
574988,5,998,329,21,49,17,79,25,7,23,20,31,28,12,1,,3,,4,,4,1,,,4
574988,4,515,187,11,32,6,59,5,6,22,4,21,12,3,3,,1,,1,,1,,,,
574988,3,614,244,19,66,14,38,11,2,8,15,24,23,8,2,,,1,4,1,6,,,,2
574988,2,778,267,12,48,10,61,20,7,14,7,53,19,9,,,,,1,,3,,1,,2
574988,1,654,209,13,55,6,54,8,3,16,10,27,5,7,,,,3,2,,,,,,
574996,2,110,43,,6,,1,,4,1,5,2,1,21,2,,,,,,,,,,
574996,1,1514,635,29,68,7,97,16,11,42,32,13,44,250,,1,,6,5,1,11,,,,2
575011,1,819,230,14,37,6,66,9,22,17,16,15,11,6,1,,1,3,2,1,2,,,,1
575046,1,170,73,8,7,2,21,3,5,4,8,2,12,,,,,,,,,1,,,
575054,1,872,302,12,44,16,60,12,67,30,11,10,25,6,,,,1,2,2,3,,1,,
575062,1,260,90,5,26,,26,3,2,6,10,4,6,,,,,1,,,,1,,,
575071,2,1198,364,18,73,10,106,14,29,37,18,7,18,7,1,,6,6,6,2,2,,2,,2
575071,1,1234,279,14,49,9,68,5,21,38,15,2,14,13,,1,5,11,5,1,5,,,,3
575071,3,76,19,2,6,1,1,,,1,1,,4,,,,1,,,,,1,1,,
575089,1,530,178,9,19,11,37,11,42,6,3,7,19,3,,2,1,3,1,,2,1,,,1
575097,1,173,67,2,13,5,13,2,5,6,11,2,1,3,,,2,2,,,,,,,
575101,1,254,84,6,15,3,19,3,6,9,1,2,2,8,,,3,3,,,1,,,,3
575119,1,183,91,5,9,,25,2,7,8,5,2,1,25,,,,2,,,,,,,
575127,1,131,52,,11,6,17,1,2,4,4,,3,2,1,,,,1,,,,,,
575135,1,180,67,4,7,1,20,4,3,6,3,2,9,1,,2,,,1,,4,,,,
575143,1,310,115,10,7,2,32,7,3,14,3,6,22,2,,,,3,3,,1,,,,
575151,1,157,48,1,13,3,4,1,8,7,4,,3,,,1,,1,,,,,,,2
575178,4,92,46,,7,,13,1,5,5,1,,7,1,2,,,,1,,1,1,,,1
575178,3,55,20,,3,,,,3,3,2,,7,,,,,2,,,,,,,
575178,2,101,40,,5,1,15,1,4,4,1,,4,,,,,,,,3,,,,2
575178,1,299,78,,20,1,11,2,1,15,3,1,21,1,,,1,,,,1,,,,
575194,1,349,103,15,14,2,29,4,2,15,7,,3,1,,,,5,3,2,,,,,1
575232,1,424,140,15,12,3,36,13,4,12,7,2,18,,,1,,1,,2,13,1,,,
575259,1,152,38,,9,,7,,1,8,6,1,3,,,,,2,,,1,,,,
575305,1,406,118,6,17,7,38,3,7,8,6,1,17,,,2,,2,1,,,,2,,1
575313,1,344,114,11,18,6,17,9,5,8,10,5,7,10,,1,,2,3,,2,,,,
575330,1,118,35,1,5,1,13,3,,3,2,,4,,,,,2,,,,,,,1
575372,1,947,326,30,56,9,60,25,13,21,13,10,49,15,,,,6,4,6,8,,,,1
575381,1,144,61,3,10,2,17,1,9,3,6,1,8,,,,,,,,1,,,,
575399,5,123,48,3,4,,20,5,1,3,2,2,4,2,,,,,,,2,,,,
575399,4,213,66,2,16,4,19,2,5,4,4,,4,5,,,,,,,,,,1,
575399,3,85,43,,9,1,14,3,2,1,5,1,6,,,,1,,,,,,,,
575399,2,1090,397,30,78,16,110,8,15,45,18,5,34,20,,,1,1,6,2,5,2,,1,
575399,1,34,20,1,2,1,5,,,4,1,,4,,,,,2,,,,,,,
575429,3,410,166,10,46,5,38,5,1,20,9,5,11,6,,,,2,3,,3,,,,2
575429,2,772,179,17,23,15,40,17,9,14,13,4,14,1,1,,4,,5,1,1,,,,
575429,1,769,256,37,42,17,60,19,8,23,5,7,11,7,,,,4,10,,6,,,,
575437,1,853,306,21,35,18,72,23,15,30,10,10,42,10,,1,4,1,3,5,6,,,,
575445,2,131,71,5,8,1,24,7,12,3,4,,,,,,1,2,1,1,1,1,,,
575445,1,633,228,10,33,4,38,5,48,24,12,11,21,19,,,2,,,,1,,,,
575461,1,202,88,10,20,2,21,,6,7,4,9,3,3,,,,2,,,1,,,,
575470,1,76,40,7,6,,16,3,1,4,1,,2,,,,,,,,,,,,
575500,14,44,22,1,6,,5,1,4,4,,,,,,,,1,,,,,,,
575500,13,132,47,4,6,,7,4,3,10,2,,7,2,,,,1,,,1,,,,
575500,12,91,40,5,7,3,8,2,1,6,5,1,,1,,,,1,,,,,,,
575500,11,155,48,3,13,,4,3,5,5,4,3,7,1,,,,,,,,,,,
575500,10,178,67,7,18,3,8,2,,10,6,,5,1,,,,1,4,,2,,,,
575500,9,207,64,10,18,2,9,,4,6,3,2,7,1,1,,,,,,,,,,1
575500,8,45,18,4,6,,1,,,1,,,3,,,,3,,,,,,,,
575500,7,859,323,39,45,12,71,13,26,33,12,7,41,7,1,,4,,10,,1,,,,1
575500,6,879,242,27,46,11,58,6,20,16,18,6,24,4,,,1,1,2,,1,,,,1
575500,5,589,199,24,40,6,50,5,15,13,3,3,29,1,,2,2,1,,1,2,,,,2
575500,4,826,274,29,51,14,45,7,28,32,18,5,25,4,2,,,4,2,1,6,,,,1
575500,3,918,243,42,45,7,32,16,20,18,22,3,19,9,,,,1,4,,4,,,,1
575500,2,1388,360,49,53,9,67,13,35,45,19,9,39,6,,,1,4,4,2,3,1,,,1
575500,1,910,303,39,48,11,58,18,21,40,13,5,27,9,,,,2,8,,4,,,,
575518,1,176,61,1,15,3,8,,3,8,1,3,12,3,,,2,1,,,1,,,,
575526,1,68,47,1,7,3,9,1,4,5,6,2,8,,,,1,,,,,,,,
575534,1,478,210,22,22,15,58,19,2,12,6,12,29,7,,,,,3,1,2,,,,
575542,1,135,59,,10,5,11,,4,9,2,1,10,5,,,,2,,,,,,,
575551,1,465,175,11,29,2,30,6,55,4,3,2,21,3,,,1,1,3,,4,,,,
575569,1,214,77,3,11,4,19,8,6,6,6,3,6,3,,,,,2,,,,,,
575577,2,139,54,3,11,5,10,1,9,3,1,,10,,,,,,,,1,,,,
575577,1,552,197,13,20,18,45,4,41,12,6,5,19,2,3,,,3,2,1,2,,,,1
575593,1,1179,318,16,63,13,76,8,25,38,24,4,20,5,3,2,2,3,5,1,7,,1,,2
575607,2,173,89,1,3,,13,,56,3,2,4,1,2,,,2,2,,,,,,,
575607,1,918,403,32,35,6,50,10,201,23,8,5,11,5,1,,2,6,3,2,3,,,,
575615,1,102,29,,6,,9,,2,6,1,,3,,,,1,1,,,,,,,
575623,1,481,263,11,9,3,14,2,7,16,7,4,186,1,,,2,,,,,,,1,
575640,8,214,106,18,12,2,22,15,7,3,1,,23,1,,,,,,,2,,,,
575640,7,150,55,1,12,5,17,1,8,2,1,,6,1,,,,,1,,,,,,
575640,6,52,23,,3,,1,1,10,,1,,7,,,,,,,,,,,,
575640,5,131,65,3,8,1,24,6,4,3,1,2,6,1,,,,,1,,5,,,,
575640,4,93,42,2,1,,11,,8,5,,4,8,,1,,,,1,,1,,,,
575640,3,839,332,12,48,9,61,18,45,18,18,8,56,10,,,,,6,2,18,2,1,,
575640,2,689,230,15,28,11,50,20,40,14,13,9,19,,,,2,,4,,5,,,,
575640,1,777,267,27,32,10,55,17,43,20,16,6,24,2,1,,2,,1,3,8,,,,
575658,1,363,122,5,17,8,29,6,4,6,7,4,20,1,,2,5,1,3,3,1,,,,
575666,1,230,66,2,13,1,20,1,8,2,4,4,5,,,,2,1,,,3,,,,
575682,1,960,398,36,34,39,85,34,33,27,13,18,45,12,,,1,,4,,16,,,,1
575682,2,218,85,,17,3,27,2,1,11,3,4,4,3,,2,,5,,1,2,,,,
575704,2,394,153,13,19,3,30,19,10,10,12,5,16,2,,,2,,2,5,4,1,,,
575704,1,977,390,31,29,30,101,46,10,22,16,15,56,8,1,,1,,4,5,14,1,,,
575712,1,302,148,12,26,2,37,9,5,10,11,7,7,6,1,,1,2,3,1,7,,,,1
575721,1,499,152,19,30,3,25,6,11,18,11,5,14,2,,,1,3,,,3,,1,,
575739,1,419,182,19,24,7,52,9,8,7,,19,20,6,,1,,,3,5,1,,,,1
575755,1,186,49,4,6,2,12,3,4,4,3,,7,2,,,1,,,,1,,,,
575763,1,260,116,8,27,5,13,3,10,5,,1,41,1,1,,,,,,,,1,,
575771,1,354,91,6,11,1,22,2,1,14,5,3,22,2,,,,,,,2,,,,
575780,1,206,70,5,17,,10,2,11,6,5,,7,1,,,1,1,1,,2,1,,,
575810,1,136,72,7,6,1,18,2,2,9,6,6,8,2,,,,1,1,,,1,,,2
575828,1,177,83,3,25,5,21,1,7,12,1,,4,3,,,,,1,,,,,,
575844,1,219,67,9,12,3,26,1,4,6,1,,,2,,,,,2,,1,,,,
575861,1,133,61,6,10,1,13,1,10,2,4,,1,11,1,,,,,,,,,,1
575879,1,221,84,11,17,5,17,2,2,6,3,2,15,1,,,,2,,,1,,,,
575887,1,216,81,1,9,6,19,3,7,13,4,3,10,3,,,,,,,3,,,,
575909,1,151,50,2,14,1,9,1,3,2,,2,14,,,,1,,1,,,,,,
575917,1,62,15,1,4,,4,,,3,,,2,,,,,,,,,,,,1
575925,1,395,137,8,31,10,42,5,5,10,7,4,7,4,,,,1,1,,1,1,,,
575933,1,109,30,2,4,1,10,,6,3,,,1,,,,,,,,1,1,,,1
575941,1,365,119,7,8,4,25,5,3,9,10,10,19,5,,,,1,6,,6,,,,1
575968,1,285,111,4,22,1,21,6,11,19,6,3,8,5,,,3,,,,1,1,,,
575984,1,246,90,1,22,1,23,2,4,7,,,27,1,,,,,,1,,,,,1
575992,1,277,116,11,12,3,30,,9,2,4,1,34,1,,1,,5,,1,2,,,,
576000,1,322,87,3,16,5,11,3,9,9,5,4,15,,,,,1,,,6,,,,
576018,1,202,58,5,7,5,9,3,20,2,2,1,3,,,,,1,,,,,,,
576026,2,135,37,1,3,,6,1,,9,7,,1,3,,,,1,1,,2,,,,2
576026,1,365,114,4,17,3,20,5,12,17,5,1,22,,,1,2,,1,1,1,,2,,
576042,1,108,39,,7,,16,,2,1,5,2,6,,,,,,,,,,,,
576051,2,107,48,4,7,,8,2,3,4,6,2,9,,,,,1,,1,,,1,,
576051,1,666,250,39,45,6,41,11,22,32,13,1,24,6,,,3,1,2,,4,,,,
577731,18,555,13,,,,1,,,1,4,1,2,3,,,,1,,,,,,,
577731,17,607,230,35,24,9,20,20,3,10,11,4,75,1,1,,,2,6,,2,,7,,
577731,16,701,252,10,45,3,45,4,3,45,9,5,63,1,,,3,7,1,,3,1,4,,
577731,15,612,209,8,24,6,42,7,1,17,10,24,45,,,,2,2,1,,13,,6,,1
577731,14,722,216,14,29,7,34,5,4,32,12,6,57,2,,,,1,5,,4,,3,,1
577731,13,812,210,8,41,11,20,,2,15,20,3,72,4,,,3,2,2,,2,,3,,2
577731,12,1128,301,35,37,4,55,5,12,31,26,,73,4,5,,,4,1,1,3,,4,,1
577731,11,849,270,16,39,6,35,2,13,29,16,3,89,4,1,1,1,4,,1,6,,3,,1
577731,10,949,300,23,57,6,49,3,5,16,14,4,105,3,,,,3,2,,7,2,1,,
577731,9,901,283,20,31,9,50,10,8,20,16,3,98,6,1,,,2,,,6,,3,,
577731,8,722,284,22,47,8,49,5,6,34,4,1,95,,,,1,,4,,4,1,3,,
577731,7,757,256,18,53,5,30,3,1,35,10,2,88,1,,,1,,5,,2,,,,2
577731,6,657,260,12,62,8,50,1,3,25,11,,75,3,,,2,3,,,5,,,,
577731,5,806,348,26,49,13,48,5,7,43,14,8,115,6,,,,1,2,,8,,1,,2
577731,4,915,303,27,46,9,60,5,7,36,10,4,87,4,,,1,,,,5,,1,1,
577731,3,778,238,13,39,3,51,1,3,34,11,3,70,1,,,,1,1,,1,,1,,5
577731,2,680,220,7,29,17,35,3,2,23,19,1,70,,,,1,4,,,4,,,,5
577731,1,554,147,15,21,12,20,3,7,10,10,3,37,6,,,1,1,,,,,1,,
577774,1,290,116,29,15,4,11,4,15,5,4,2,26,,,,,,,,1,,,,
577812,1,134,64,1,9,1,9,1,1,9,4,1,19,,1,,,,,,8,,,,
577821,1,94,40,1,13,3,,,5,2,2,,7,1,,,,2,1,,,,1,2,
577839,1,788,306,36,86,6,53,7,4,25,5,6,57,9,,1,,3,3,2,,,1,,2
577863,1,1085,379,15,123,5,82,,4,36,28,3,32,24,,,1,1,2,2,12,1,3,1,4
577871,1,305,119,4,30,2,32,2,2,29,5,1,5,4,,,,2,,,,,,,1
577898,1,120,52,10,13,,6,2,1,8,1,,6,2,,,,,,,,,1,2,
577910,1,358,161,22,20,9,30,8,25,12,10,3,21,1,,,,,,,,,,,
577928,1,1244,586,131,91,7,81,14,10,50,7,5,175,3,1,,2,3,3,,,1,1,,1
577936,1,649,224,34,31,6,49,9,31,13,9,5,20,3,,,1,3,4,,5,,,,1
577944,1,761,240,24,58,11,36,3,17,25,19,8,32,3,,,,1,,,1,,,,2
577961,1,270,76,,6,1,22,,3,14,8,6,10,,,1,1,1,,,,1,2,,
577987,1,447,126,7,52,1,27,,,23,5,2,4,1,,,1,2,,,,,,,1
577995,2,737,322,21,39,7,25,13,102,6,6,2,96,,,1,,2,,1,,1,,,
577995,1,861,377,32,37,11,30,5,155,29,8,1,55,5,,,,1,6,,,2,,,
578037,1,232,116,11,34,4,18,,,4,,1,41,1,,,1,,1,,,,,,
578053,1,89,53,4,5,5,9,1,17,1,5,,4,1,,,,1,,,,,,,
578096,1,718,205,7,40,9,17,5,19,22,26,4,43,2,,1,2,,5,,,,1,,2
578100,1,107,52,3,5,,4,2,12,4,,,17,,,,,1,3,,,,,,1
578118,1,105,59,2,5,,3,5,7,1,,,32,2,,,,2,,,,,,,
578126,1,195,62,6,16,,10,,2,8,4,,9,1,,,1,1,1,,3,,,,
578134,1,764,195,21,39,7,23,10,17,14,13,6,36,3,,,,,1,,2,,,,3
578142,1,42,27,1,5,,8,,3,6,1,1,1,1,,,,,,,,,,,
578151,1,1013,302,8,93,4,58,4,6,28,11,33,42,3,,3,,1,2,1,,1,,1,3
578169,1,136,78,8,13,3,8,,18,7,5,1,15,,,,,,,,,,,,
578185,1,848,215,24,77,5,36,3,4,25,6,4,22,,,,1,1,,1,2,1,,,3
578193,3,1160,391,19,103,3,53,6,2,15,24,6,135,3,,,1,9,4,,,1,,3,4
578193,2,1080,392,8,116,10,62,2,6,34,20,7,115,,,,,2,7,,2,,,1,
578193,1,49,27,,2,,6,1,,11,1,,3,1,,,2,,,,,,,,
578207,1,421,134,22,16,2,24,,3,11,11,2,40,,,,,1,2,,,,,,
578215,1,249,62,1,19,,16,,8,8,4,1,2,1,,,1,1,,,,,,,
578231,1,547,217,2,32,2,29,5,75,20,8,3,30,,,1,,3,2,4,,1,,,
578258,1,634,217,69,36,4,29,4,5,20,9,1,32,4,,,,1,,1,,,2,,
578266,1,109,29,1,7,2,3,,1,9,2,,2,,1,,,,,,,,,,1
578274,1,330,106,2,28,2,33,1,,14,12,2,6,2,,,,,1,1,1,1,,,
578282,2,297,87,12,31,1,12,1,4,18,2,,5,1,,,,,,,,,,,
578282,1,795,185,11,56,,48,7,7,19,6,5,17,1,1,,1,2,1,,,2,,,1
578291,1,305,88,5,42,2,7,,2,7,6,2,13,,,,1,,,,,1,,,
578304,1,100,34,,7,,12,,,5,5,2,1,1,,,,1,,,,,,,
578339,1,516,180,11,26,8,52,3,6,35,12,2,9,3,,2,,4,1,,3,,2,1,
578347,14,195,80,15,6,1,5,1,4,10,8,3,23,1,,,1,,,,2,,,,
578347,13,75,23,,8,,3,2,,1,5,,4,,,,,,,,,,,,
578347,12,98,36,2,5,2,9,2,2,3,3,,3,2,,,,,2,,,,,,1
578347,11,226,113,6,23,1,10,3,12,7,11,,34,1,,,,3,,,,2,,,
578347,10,417,163,47,14,2,24,16,7,11,3,4,29,2,,,,3,1,,,,,,
578347,3,621,173,60,20,3,29,9,6,9,5,3,25,,,,,2,2,,,,,,
578347,2,682,270,59,52,15,36,11,9,14,7,3,55,,,,1,5,1,,,,,1,1
578347,1,1366,539,115,76,28,67,33,30,39,24,12,90,12,,,1,4,2,,2,,1,,3
578347,5,727,338,103,44,7,62,10,8,16,16,1,57,8,,1,,,,1,4,,,,
578347,4,273,105,42,7,1,8,4,4,7,11,4,12,2,,,,1,1,,1,,,,
578347,6,497,229,70,27,5,21,14,13,14,10,1,49,,,,,3,1,,1,,,,
578347,9,938,371,70,72,11,58,18,19,20,19,8,60,2,,,,1,6,1,3,,1,,2
578347,8,1004,485,161,36,17,63,45,27,21,15,5,86,3,,,2,1,2,,1,,,,
578347,7,688,331,100,37,5,39,20,21,13,15,2,73,3,,1,1,,,,,1,,,
578347,16,89,35,9,2,1,8,6,4,1,2,,1,,,,,1,,,,,,,
578347,15,121,39,5,3,3,6,3,1,1,3,,10,1,,,,,,,1,,,1,1
578355,1,819,395,27,43,21,33,9,45,36,10,8,155,1,,3,2,,,1,,1,,,
578363,1,261,136,10,7,4,16,2,41,6,5,3,42,,,,,,,,,,,,
578371,1,80,30,1,8,,3,,,16,1,,1,,,,,,,,,,,,
578380,8,49,17,,11,,2,,1,2,1,,,,,,,,,,,,,,
578380,7,40,15,,3,1,6,,,1,,,1,,,1,,,,1,1,,,,
578380,6,69,23,1,9,,,,,1,1,,11,,,,,,,,,,,,
578380,5,44,15,4,1,,6,,1,2,,,,1,,,,,,,,,,,
578380,4,60,23,1,9,,8,,,5,,,,,,,,,,,,,,,
578380,3,760,275,10,80,9,45,11,9,46,13,5,38,1,1,,1,3,1,,1,1,,,
578380,2,116,30,,6,3,3,,2,3,4,1,6,,,,,1,1,,,,,,
578380,1,42,17,,4,,5,,,3,,,4,1,,,,,,,,,,,
578398,1,198,58,,2,1,7,2,7,2,16,,14,,,,,2,3,1,,,1,,
578401,1,357,99,2,46,2,17,,1,20,3,,7,,1,,,,,,,,,,
578428,1,457,229,7,17,6,23,5,119,12,4,4,22,2,1,1,,2,2,,,,1,1,
578428,2,126,63,9,2,3,4,1,27,5,1,,10,,,,,,1,,,,,,
578444,7,464,140,14,29,1,43,6,5,22,4,,5,2,1,,,3,3,,1,,,,1
578444,6,629,166,15,45,,30,2,9,34,10,2,6,3,,2,,4,2,,,,,1,1
578444,5,796,314,22,69,8,60,12,13,71,9,3,38,1,,,,,6,,1,,,,1
578444,13,168,75,3,22,2,9,1,1,16,3,,12,1,,,2,,,1,,1,,,1
578444,4,230,71,2,21,3,16,4,1,8,2,,5,1,1,,,1,5,,1,,,,
578444,3,721,252,16,58,16,50,11,14,34,9,1,33,2,,1,,1,3,,,,,1,2
578444,2,886,270,19,78,3,63,4,11,36,13,1,18,8,2,1,,6,4,,,,,2,1
578444,1,969,295,14,78,10,61,6,10,46,16,4,36,1,,,2,3,5,,1,1,1,,
578444,12,722,241,24,39,6,62,12,11,37,8,2,25,4,,,1,1,6,,,,1,,2
578444,11,1054,176,13,35,7,40,10,8,18,8,2,16,,2,,6,5,3,,1,2,,,
578444,10,696,264,16,57,10,60,10,9,64,4,7,19,2,,,,3,2,,,,,1,
578444,9,662,212,9,63,1,35,4,6,18,14,3,51,,,,2,2,1,,1,,,,2
578444,8,582,160,3,41,5,39,3,4,24,14,,14,2,,,1,6,2,2,,,,,
578452,1,184,71,9,27,1,18,1,3,2,1,,7,,,,,,1,1,,,,,
578479,1,531,210,24,30,3,36,6,8,12,7,,75,3,,,1,2,1,,,,1,1,
578487,1,932,237,9,55,2,27,3,64,25,16,,25,2,,,3,3,2,,,,1,,
578509,1,826,351,73,42,3,46,19,24,39,15,8,74,1,1,,,1,4,,1,,,,
578550,1,264,146,1,16,1,13,,,10,4,,6,87,,,2,2,,1,,,2,,1
578576,8,1140,521,228,69,10,57,11,7,23,17,5,78,4,,1,,3,2,,1,,5,,
578576,7,720,295,102,33,9,37,8,9,21,14,3,51,1,,,,4,1,,,,1,,1
578576,6,654,195,80,20,7,34,8,3,5,8,1,23,2,,,,2,,,,,2,,
578576,5,426,165,74,24,4,16,4,,12,4,2,19,2,,,1,1,1,,1,,,,
578576,4,622,238,63,52,6,36,3,1,23,11,7,25,3,,,1,,2,1,3,,1,,
578576,3,795,300,135,29,6,29,5,4,25,12,4,38,5,,,,3,2,,,2,1,,
578576,2,693,268,94,46,12,34,9,1,29,4,6,29,2,,,,1,1,,,,,,
578576,1,726,274,96,45,13,38,5,4,21,9,7,25,5,,,,,1,,,,4,,1
578576,12,154,51,9,5,4,6,,2,4,1,2,15,,,,,1,1,,,,,,1
578576,11,162,60,17,5,3,2,,2,4,4,,20,,,,1,,2,,,,,,
578576,10,130,47,21,5,1,5,,1,6,2,,5,,,,,,1,,,,,,
578576,9,960,279,110,32,13,36,11,5,12,9,3,29,4,1,,1,3,5,,3,1,,,1
578584,2,554,198,58,41,5,37,7,2,19,4,5,11,,1,1,,1,2,,2,1,,1,
578584,1,427,123,19,25,7,18,2,5,16,7,2,13,2,2,,2,1,1,,,,,,1
578622,1,134,76,2,13,1,7,1,23,3,3,1,16,2,,,1,1,,,2,,,,
578631,1,268,111,4,27,1,23,4,7,11,2,3,22,,,,,3,,2,,,,,2
578649,1,132,58,11,9,7,13,2,,4,3,1,4,1,,,,,,2,1,,,,
578657,1,913,287,6,38,5,41,3,59,27,18,11,33,27,,,2,5,,,6,1,3,1,1
578673,1,546,163,8,48,4,32,2,8,19,16,4,15,1,,,1,3,,,,1,,,1
578681,1,262,109,9,18,,28,6,3,14,8,1,19,1,1,,,,,,1,,,,
578690,1,194,73,1,15,,21,,7,16,2,1,6,1,,,1,,1,,,,,,1
578703,1,139,45,,13,1,3,,1,7,2,,4,9,,,,4,,,1,,,,
578711,1,483,120,5,32,1,24,4,9,9,7,4,9,4,,,1,2,2,,2,,,1,4
578720,1,409,135,22,17,2,22,10,3,3,9,2,42,2,,,,,,,,,1,,
578738,1,757,363,13,44,11,25,11,83,15,12,7,134,,1,,1,1,2,,,1,1,,1
578746,1,192,71,4,9,1,20,5,9,1,3,1,10,3,,,,2,,,3,,,,
578754,1,189,62,2,4,1,13,,2,5,6,,4,24,,,,,,,,,,,1
578762,1,122,68,,29,1,10,1,8,4,4,2,7,,,,,,1,1,,,,,
578789,1,792,221,11,59,4,59,8,2,40,18,3,6,1,,,,3,2,,2,,,,3
578801,1,198,51,7,9,,13,3,2,4,3,,6,,,,,1,,,,,2,1,
578819,1,186,78,10,11,2,12,2,5,4,10,1,15,,,,,1,4,,,,,,1
578835,1,73,43,2,9,,6,,20,,,,3,,,,,2,,,1,,,,
578843,3,113,57,7,11,3,6,,5,3,5,,15,1,,,,,,,1,,,,
578843,2,96,40,6,6,,6,,,5,3,2,5,,,,,2,,,5,,,,
578843,1,105,44,5,7,2,18,2,1,2,2,1,4,,,,,,,,,,,,
578851,1,324,104,17,11,5,18,9,2,1,2,,32,,,2,,2,,,2,,,,1
578860,1,105,44,1,10,1,9,,6,8,3,,3,,,,,1,,1,1,,,,
578878,1,339,129,17,37,5,25,7,3,1,1,4,20,2,,,1,2,,1,,,2,,1
578886,1,343,147,10,41,1,12,2,2,13,5,,54,2,,,,,,,5,,,,
578894,1,414,153,17,30,7,20,4,21,12,4,3,30,1,,,,,2,1,,,,,1
578908,1,727,134,6,45,3,30,2,5,19,9,,4,4,,,,1,2,,1,,,,3
578916,1,75,28,4,4,,1,,8,2,,,7,,,,2,,,,,,,,
578932,1,765,211,10,43,11,32,4,14,26,13,6,41,2,2,1,,2,,,3,,,,1
578941,1,231,120,8,6,6,16,5,29,15,6,,23,2,,,,2,1,,1,,,,
578959,1,140,45,,22,1,1,,5,3,4,3,4,,,,,2,,,,,,,
578967,1,337,128,3,19,3,17,,1,15,4,2,14,,,,,,,,48,,,,2
578975,1,381,111,3,37,5,17,4,3,15,15,,6,,,,2,,4,,,,,,
578991,1,26,17,2,2,,1,,1,,,,10,,,,,,,,1,,,,
579891,2,601,249,14,34,12,29,26,7,17,17,9,56,3,,,1,7,3,,9,3,2,,
579891,1,1093,276,18,47,9,42,28,9,8,7,15,68,11,,,,5,5,1,2,,1,,
579891,17,369,97,2,20,4,14,5,,12,7,4,22,1,,,,2,,,4,,,,
579891,16,254,111,15,29,7,14,5,3,13,3,,14,2,,,1,2,1,,1,,1,,
579891,15,713,231,12,64,9,31,18,8,24,10,3,35,4,,,3,4,2,,4,,,,
579891,14,976,320,16,63,19,45,28,8,16,16,14,70,4,,,1,7,3,1,6,1,,1,1
579891,11,915,372,21,90,8,58,33,12,48,9,6,60,3,1,,3,3,6,,7,1,,,3
579891,10,579,201,9,58,8,31,16,2,25,7,6,26,1,,,2,4,1,,5,,,,
579891,9,558,237,14,59,6,41,23,12,31,9,5,26,1,,,,2,4,,4,,,,
579891,8,578,237,19,65,7,49,15,5,28,9,3,25,3,,,1,1,2,,4,1,,,
579891,7,755,313,28,73,7,63,27,6,30,13,1,40,6,,,,5,3,,9,,,,2
579891,6,825,338,34,73,14,63,31,8,27,14,3,53,2,,,,7,4,,5,,,,
579891,5,642,265,37,46,13,40,31,6,13,10,3,46,2,,,1,6,4,,7,,,,
579891,4,720,220,12,70,12,39,15,4,19,5,3,20,3,,2,3,5,4,,3,1,,,
579891,3,625,194,10,38,5,29,22,7,9,12,7,38,5,,1,,3,6,,2,,,,
579891,13,756,244,17,57,15,27,43,4,19,7,,35,1,,,1,2,,3,10,,3,,
579891,12,599,246,23,66,12,33,23,2,16,10,5,45,1,,,,5,1,,1,1,,,2
579947,1,1113,443,33,115,22,75,22,21,34,22,10,43,15,,1,2,6,8,,8,2,2,,2
579963,1,186,73,7,12,2,10,2,19,2,1,,14,,,,,1,,,,,,,3
579971,1,906,338,34,49,25,67,9,9,14,17,3,91,5,,,,7,4,2,,1,,,1
579980,1,304,47,2,5,2,15,1,1,6,1,1,8,1,,,,,4,,,,,,
579998,1,155,46,2,7,1,14,3,3,2,4,,10,,,,,,,,,,,,
580015,7,83,24,6,1,,2,4,,4,1,,6,,,,,,,,,,,,
580015,6,464,81,5,8,,12,4,1,17,14,3,13,,,,1,1,,2,,,,,
580015,3,480,180,69,25,1,10,13,3,27,3,1,22,1,,2,2,1,,,,,,,
580015,2,95,44,13,7,1,8,6,1,3,,,2,,1,,1,,1,,,,,,
580015,1,146,39,7,5,,10,4,,3,5,1,1,,,,,2,,,1,,,,
580015,5,353,100,21,26,1,10,7,1,10,7,1,14,1,,,,,,,,1,,,
580015,4,812,242,56,46,5,21,17,8,15,12,5,43,4,,,5,1,2,,1,1,,,
580023,1,304,92,1,23,3,14,2,6,10,15,1,9,1,,,,1,3,,1,,,,2
580031,8,863,405,19,188,9,50,28,8,20,12,5,46,11,,,3,,5,,1,,,,
580031,7,778,310,13,162,6,49,15,1,19,16,,14,6,,,1,1,6,,,,,,1
580031,6,880,396,16,167,7,56,40,6,24,19,7,35,4,1,,2,2,4,,4,2,,,
580031,5,885,358,18,164,12,46,29,10,13,16,7,17,12,,,1,6,7,,,,,,
580031,4,1052,500,19,256,13,48,43,19,19,25,9,30,,,,,4,5,,1,4,,1,4
580031,3,946,363,25,165,13,41,34,8,13,22,5,23,8,,,,2,3,,,1,,,
580031,2,999,417,19,205,8,55,42,7,19,24,4,17,4,1,,5,1,4,,,,,,2
580031,1,1070,484,39,212,16,43,48,5,21,26,4,46,7,,,1,1,11,,3,,1,,
580031,17,520,75,5,25,5,6,7,2,3,8,1,5,,,,,1,4,,,,,1,2
580031,16,105,51,1,28,4,,,2,4,2,,7,1,,,,,,,,,2,,
580031,15,75,49,2,31,2,2,5,1,3,,1,1,,,,,,1,,,,,,
580031,14,187,50,2,18,1,9,2,4,1,8,1,3,,,,,1,,,,,,,
580031,13,1059,306,15,146,9,34,26,3,17,23,2,13,5,,1,1,4,4,,1,2,,,
580031,12,380,142,10,48,4,14,14,4,4,17,4,18,,,,,1,2,1,,1,,,
580031,11,912,353,12,188,1,45,29,3,29,8,4,19,6,,1,,1,4,,,1,,2,
580031,10,904,401,17,196,16,41,30,7,22,16,4,24,8,,,1,2,9,2,1,3,,,2
580031,9,1224,269,36,108,12,35,24,9,5,16,,11,3,,,3,4,3,,,,,,
580040,1,452,251,10,2,1,16,10,160,8,1,2,32,2,,,3,,3,1,,,,,
580058,1,465,156,13,31,1,32,13,13,11,6,7,21,1,,,,,1,,4,1,,,1
580066,1,128,55,7,13,2,5,,5,6,2,,15,,,,,,,,,,,,
580074,1,543,151,5,40,7,23,10,14,19,10,6,11,,,,3,1,1,1,,,,,
580091,1,386,166,13,12,2,46,7,9,15,10,4,28,14,,1,,2,2,,1,,,,
580112,2,84,14,,1,,,,4,2,,,4,,,3,,,,,,,,,
580112,1,983,450,28,50,15,40,23,91,24,23,5,134,3,2,,1,3,4,,1,,,3,
580121,4,208,46,2,9,3,6,,1,4,,,13,3,,,,,3,,,1,,,1
580121,3,985,411,21,58,9,51,14,13,13,20,4,130,64,,2,1,4,3,1,2,,1,,
580121,2,780,326,9,40,7,44,19,12,7,23,8,88,53,,,,3,10,,2,1,,,
580121,1,92,43,,17,1,2,,4,4,2,,6,4,,,,,3,,,,,,
580147,2,543,187,14,28,3,37,10,24,16,8,6,25,2,1,,1,5,3,,2,2,,,
580147,1,793,303,23,40,13,51,11,36,39,7,16,43,5,,,3,1,8,,4,2,,,1
580163,1,243,113,9,16,1,18,,1,5,10,1,45,4,,,1,1,,,,,,1,
580210,1,275,103,7,10,3,23,6,14,5,13,,9,8,,,,2,1,,,,1,,1
580228,1,170,73,6,20,1,16,1,4,3,4,2,11,1,,,,1,1,,1,1,,,
580261,1,701,237,15,44,15,37,8,10,15,11,7,51,8,,1,2,1,6,,6,,,,
580279,1,828,377,18,51,51,57,7,21,13,26,9,107,3,,,2,1,4,,,,6,,1
580295,1,402,148,14,29,7,28,8,4,13,9,,29,1,,,2,1,3,,,,,,
580325,2,739,290,11,37,6,25,7,104,6,19,2,58,3,,2,1,3,2,,,2,,,2
580325,1,661,242,13,45,4,37,5,59,6,11,5,39,3,,1,3,4,4,,1,2,,,
580333,1,504,195,33,21,21,46,7,5,4,12,7,32,1,,,,3,1,,,,1,,1
580341,1,285,125,13,19,1,16,4,11,19,9,2,12,3,,,1,7,3,,1,1,,,3
580350,7,141,66,21,2,7,3,1,,3,5,,17,3,,,,3,,,1,,,,
580350,6,1940,657,190,74,25,112,25,21,29,23,21,95,10,,,3,9,8,,7,,1,,4
580350,5,1158,509,148,69,19,73,18,14,41,23,4,68,12,,1,4,5,5,,1,,,,4
580350,4,978,327,65,64,18,52,1,12,31,11,7,33,12,,,11,3,1,4,1,,,1,
580350,3,806,274,56,40,7,56,4,8,15,12,11,36,11,,,2,7,3,,,,2,,4
580350,2,914,336,79,59,9,40,17,12,27,16,7,43,14,,,2,3,4,,1,,,,3
580350,1,873,346,73,53,15,55,16,10,12,17,2,74,5,,1,,2,6,,4,,,,1
580350,9,92,29,7,7,,6,,2,1,2,,,1,,,1,2,,,,,,,
580350,8,177,73,19,7,5,11,1,9,3,,2,14,,,,,,1,,1,,,,
580376,1,587,246,19,42,5,60,8,15,15,10,4,58,1,,1,,3,3,,2,,,,
580376,4,662,243,20,40,9,49,12,4,20,13,5,61,1,,,4,,2,,2,1,,,
580376,3,511,196,14,34,5,38,11,11,18,15,2,35,2,,,1,3,5,,1,,,,1
580376,2,576,209,26,26,6,33,13,4,13,8,2,66,1,,1,,3,2,1,,3,,,1
580392,1,554,215,9,33,5,37,7,7,23,16,2,63,5,,,,3,2,,2,,,,1
580406,1,212,76,12,15,3,14,4,8,4,,3,4,5,1,,1,,2,,,,,,
580414,1,257,85,2,12,,17,11,10,10,12,1,6,2,,,,1,,,1,,,,
580422,1,260,110,19,21,5,26,10,6,1,7,2,7,3,,,1,,,,1,,,,1
580431,1,710,241,15,36,3,45,7,7,18,27,8,63,1,,,3,3,2,,,1,,,2
580465,1,279,111,26,10,1,24,2,6,12,8,4,13,1,,,1,1,1,,,,1,,
580481,7,121,46,,19,,9,1,2,7,,1,2,2,,,2,,,,1,,,,
580481,6,92,28,,5,1,7,2,,3,3,,5,2,,,,,,,,,,,
580481,5,157,44,4,13,1,6,2,,8,4,1,2,1,,,,2,,,,,,,
580481,4,73,24,,7,,3,3,1,4,3,1,2,,,,,,,,,,,,
580481,3,1064,378,23,88,3,61,21,28,38,37,3,47,17,1,,2,3,3,,1,,,,2
580481,2,981,261,16,65,6,43,2,12,29,25,2,33,16,1,,1,2,1,,1,,1,1,4
580481,1,768,310,10,85,2,48,7,13,55,20,4,34,20,,,2,,2,,2,,,4,2
580481,10,53,14,2,2,3,2,1,1,,1,,2,,,,,,,,,,,,
580481,9,92,27,2,6,,2,3,7,1,3,,1,,,,,,,,2,,,,
580481,8,121,46,3,9,5,5,5,2,4,2,,9,1,,,1,,,,,,,,
580490,1,262,71,5,19,1,25,,2,2,4,1,7,3,,,,,,,1,,,,1
580503,1,805,292,18,62,16,22,19,12,31,19,5,72,3,1,1,,3,2,,2,,1,,3
580511,5,1055,370,41,83,48,62,10,5,29,28,11,36,3,,,1,1,6,2,,,1,,3
580511,4,1374,489,72,76,50,97,13,20,28,26,11,59,5,,1,5,4,9,1,,2,,,10
580511,3,900,352,58,59,42,72,9,10,22,22,6,33,7,,,1,,5,,,1,,,5
580511,8,756,233,30,37,20,41,6,2,16,16,3,48,4,,1,2,1,3,,1,2,,,
580511,2,893,312,55,61,46,50,14,5,23,15,10,19,3,,2,2,1,1,,1,1,2,,1
580511,1,946,210,30,43,16,41,1,,22,18,9,14,5,,,2,3,4,,,,,,2
580511,7,1006,308,35,57,47,61,14,7,18,20,1,28,6,,,4,2,3,,1,,2,,2
580511,6,855,285,44,57,32,67,8,6,16,11,1,33,1,,,2,2,1,,1,,2,,1
580538,3,1282,624,20,251,18,73,34,7,33,44,5,120,4,,,1,4,5,,3,,1,,1
580538,2,1026,504,30,219,7,74,22,13,21,25,2,68,9,,,3,,6,,2,,,1,2
580538,1,962,434,24,167,16,60,27,3,17,21,1,84,1,,1,,2,9,,1,,,,
580538,6,119,51,1,29,2,6,2,1,2,,,7,,,,1,,,,,,,,
580538,5,745,405,10,113,11,47,18,12,21,14,8,132,4,,2,,1,5,,3,,,1,3
580538,4,880,485,29,145,19,46,27,6,14,12,18,156,4,,1,,2,2,,2,,,,2
580562,1,146,76,2,10,3,9,1,2,14,3,,22,4,,,,1,4,,,,,,1
580571,1,404,108,6,39,3,14,3,3,14,11,,12,,,,,3,,,,,,,
580589,1,595,231,15,27,4,42,17,26,14,13,3,47,10,,3,2,3,3,,1,,,,1
580619,1,263,80,7,13,6,16,,2,12,8,,14,1,,,,,,,,1,,,
580627,1,889,346,18,83,18,47,27,6,16,12,6,89,10,,,,2,7,1,4,,,,
580635,1,598,198,6,43,18,42,5,6,18,14,4,26,3,,1,3,2,5,,,,,,2
580643,1,466,194,7,15,2,29,12,4,9,16,11,80,3,,,,1,3,,1,,,,1
580651,2,96,40,4,12,,3,1,,9,8,,2,,,,,,,1,,,,,
580651,1,352,151,2,47,3,35,,3,6,22,1,23,1,,,2,2,2,,2,,,,
580660,1,191,83,3,15,4,16,,10,3,10,2,14,3,,,,1,,,,,,,2
580678,1,106,48,6,6,2,11,5,,3,3,,12,,,,,,,,,,,,
580686,1,758,306,11,57,6,30,10,6,11,10,2,150,,,,,3,6,1,1,1,,,1
580694,2,190,71,4,38,,4,3,5,7,1,,8,1,,,,,,,,,,,
580694,1,553,201,13,33,3,24,5,58,12,19,5,19,1,1,,,2,6,,,,,,
580708,2,69,37,1,7,1,8,1,10,2,3,1,1,1,,,1,,,,,,,,
580708,1,171,77,3,19,2,27,4,7,1,1,,12,,,,,,,,1,,,,
580716,2,248,95,4,15,4,14,12,7,8,4,,16,3,,,,3,3,,1,,,,1
580716,1,270,121,6,13,6,21,12,5,6,5,,36,6,,,1,1,1,1,1,,,,
580724,1,231,95,3,19,3,26,7,1,11,7,4,11,1,,,2,,,,,,,,
580732,1,518,100,3,21,7,19,1,6,4,11,2,19,1,,,,1,4,,1,,,,
580741,1,169,61,3,8,1,8,16,4,,3,3,15,,,,,,,,,,,,
580759,1,284,128,11,8,6,18,4,,10,,3,64,1,,,1,,,,1,,,,1
580767,1,201,87,1,8,2,19,,11,,1,1,42,,,,,,2,,,,,,
580775,1,417,170,5,27,14,21,11,18,6,15,9,39,2,1,,,,,,,,1,,1
580783,1,64,24,3,3,2,4,1,,3,,2,2,,,,,3,1,,,,,,
580805,1,225,103,22,12,4,12,8,12,2,1,3,25,,,,,,,,2,,,,
580821,1,289,156,5,114,3,14,5,2,2,1,,8,,,,,1,,,1,,,,
580830,1,56,32,2,4,3,1,2,6,1,1,,6,4,,,,1,,,1,,,,
580848,1,1377,297,19,71,19,63,13,5,37,24,5,26,4,,,2,1,1,,3,,,,4
580872,1,562,216,4,81,7,31,8,10,8,3,6,39,4,,2,,,7,1,3,,,,2
580881,1,221,106,3,33,1,17,9,1,7,6,3,20,1,,,2,1,2,,,,,,
580902,1,128,64,8,10,6,6,2,8,,2,1,14,4,,,,1,,,2,,,,
580929,1,332,100,17,11,1,22,2,4,15,5,3,13,,,,2,2,2,,1,,,,
580945,1,329,122,6,7,8,29,2,16,23,9,1,12,3,,1,,3,2,,,,,,
580961,1,752,223,7,63,9,34,6,11,22,20,3,29,8,,,2,3,5,,1,,,,
580970,1,473,181,23,23,14,30,5,22,10,17,1,19,5,,,,4,5,2,,,,1,
580988,1,80,26,3,5,,5,,1,5,1,,6,,,,,,,,,,,,
580996,1,145,63,3,15,1,7,2,5,5,2,2,20,,,1,,,,,,,,,
581003,1,105,39,2,7,3,5,4,4,2,1,1,3,2,,,1,,4,,,,,,
581011,1,153,52,7,8,4,11,1,5,,1,2,11,,,,1,,,,,,1,,
581038,1,159,99,5,21,2,8,2,2,5,3,2,46,1,,1,,,1,,,,,,
581046,1,694,211,20,46,15,35,5,2,18,16,1,38,,,2,2,2,7,,,1,,,1
581054,2,404,187,4,61,10,36,11,2,21,16,7,13,1,,,1,1,2,,,,,,1
581054,1,80,42,4,12,,9,1,,8,5,,3,,,,,,,,,,,,
581062,1,463,217,9,19,1,28,8,65,4,7,10,46,12,,,,1,3,,2,1,,,1
581071,1,626,185,7,56,,29,6,34,21,6,1,12,2,1,,,3,6,,1,,,,
581089,1,278,49,7,6,,7,2,5,7,4,4,2,3,,,1,,1,,,,,,
581101,1,229,58,3,10,2,9,2,4,6,2,1,12,1,,1,1,2,1,,,,,,1
581119,1,575,248,20,44,8,37,5,15,18,17,4,73,2,,,1,,2,,,2,,,
581127,1,80,44,1,5,,11,2,1,5,5,,11,,,,,1,2,,,,,,
581143,2,96,60,4,2,,7,,20,10,4,,11,1,,,,1,,,,,,,
581143,1,194,75,4,16,,6,3,17,2,7,1,12,7,,,,,,,,,,,
581151,2,141,50,1,2,1,9,,26,,4,,2,2,,,,3,,,,,,,
581151,1,457,213,11,10,8,15,2,128,12,,5,10,11,,,,,,,,,,,1
581178,1,764,306,15,102,16,42,3,6,24,25,6,40,6,,,2,7,7,,2,1,,1,1
581186,1,1215,335,34,36,10,43,33,16,21,22,8,57,44,,,1,2,5,,1,,1,,1
581186,10,1012,363,28,48,16,96,22,18,32,16,4,28,39,,,1,2,6,,5,,,,2
581186,9,429,149,19,21,4,33,6,17,5,1,2,17,18,,1,,1,2,1,,,,,1
581186,8,965,326,45,47,15,53,18,30,13,12,3,37,37,,,,4,9,,2,1,,,
581186,7,1068,480,51,65,17,81,39,37,23,18,3,64,53,1,1,1,6,8,,5,2,1,,4
581186,6,1471,379,20,60,20,83,10,38,30,12,2,22,51,2,,3,10,12,,4,,,,
581186,5,790,311,17,43,9,66,21,19,12,14,4,48,31,,1,,8,13,,5,,,,
581186,4,997,426,49,47,21,88,41,30,24,17,1,41,47,,,5,3,8,,2,1,,,1
581186,3,915,358,26,42,7,64,15,40,29,19,11,40,35,,,4,8,11,1,3,,,1,2
581186,2,905,303,35,44,14,46,13,14,16,20,7,36,34,,1,1,6,10,,5,,1,,
581194,1,70,36,1,9,,7,,8,2,1,1,3,,,,1,,3,,,,,,
581208,1,577,179,14,29,9,28,13,6,9,23,4,25,2,,1,5,5,5,,,1,,,
581216,1,194,69,17,8,,6,2,15,3,2,1,12,1,,,,,,,1,,,,1
581224,1,612,243,10,42,2,48,5,77,23,6,1,6,17,,,,,1,,5,,,,
581232,1,151,65,8,5,4,11,3,7,5,,,15,3,2,,1,,,,1,,,,
581259,5,1134,383,33,80,25,87,31,15,12,28,5,50,3,1,,,3,4,,5,,,,1
581259,3,1119,384,44,64,17,86,24,11,20,28,8,59,7,,2,,,4,,6,2,1,,1
581259,2,880,242,33,16,16,57,21,6,6,16,4,37,6,,3,4,,5,,9,1,,1,1
581259,1,1024,449,54,63,12,88,37,27,15,35,9,93,3,1,,,,2,,7,,1,,2
581259,4,761,250,23,36,12,58,16,7,21,13,1,38,6,,,,1,1,1,16,,,,
581267,1,172,74,1,20,7,16,6,1,6,5,2,7,,,,,2,,1,,,,,
581275,1,781,226,23,29,22,43,13,3,22,7,11,37,7,,,,1,4,,2,1,,,1
