OBEC,OKRSEK,VOLICI,HLASY,HLASY_53,HLASY_7,HLASY_166,HLASY_47,HLASY_137,HLASY_714,HLASY_720,HLASY_1178,HLASY_721,HLASY_768,HLASY_1,HLASY_156,HLASY_1114,HLASY_724,HLASY_1176,HLASY_1182,HLASY_769,HLASY_5,HLASY_1173,HLASY_155,HLASY_1125
500101,1,213,91,4,15,2,7,1,1,5,1,1,22,2,1,25,4,,,,,,,
500127,1,136,74,,4,3,9,2,1,5,,1,36,,,11,,1,1,,,,,
506486,1,232,169,29,6,20,2,3,2,22,1,21,40,4,,8,2,2,2,1,3,1,,
506494,1,287,201,24,7,15,17,,11,14,1,7,69,,8,23,2,,,,1,1,1,
506621,1,143,71,4,2,11,17,2,,9,,1,14,3,,7,,1,,,,,,
511587,1,303,184,13,5,13,21,6,4,23,,4,53,3,1,25,1,1,,5,,,,6
537845,1,92,61,7,2,,2,1,,7,,5,25,1,,10,,,,,1,,,
537870,1,440,263,22,25,15,9,,2,33,1,12,70,7,1,51,2,5,1,,3,2,2,
537918,1,1584,983,125,45,67,64,11,7,109,4,48,323,16,9,117,3,3,3,3,15,1,1,9
537926,1,657,447,103,29,36,18,1,5,54,,34,109,6,1,34,2,5,3,1,2,2,,2
537934,1,253,172,26,11,12,6,3,3,21,,4,60,4,,20,1,,,,1,,,
537969,1,692,506,64,23,32,28,6,8,55,2,27,174,9,5,52,,3,1,12,2,1,2,
538001,1,269,188,17,8,6,13,1,,18,,16,70,2,1,30,3,,,,2,,1,
538019,1,258,155,19,5,8,14,,2,5,,1,61,,1,35,,,1,2,,,,1
538027,1,136,92,24,5,5,,,1,3,,3,34,1,,8,,,,2,5,,,1
538116,1,319,209,25,8,12,15,3,3,33,,3,87,1,,15,,1,,1,2,,,
538159,1,457,306,43,20,15,19,4,9,29,,13,92,9,2,33,1,2,1,11,1,,2,
538337,1,542,329,26,22,19,22,3,4,42,,22,127,5,,28,,,2,1,6,,,
538396,1,255,163,39,5,8,13,1,2,11,,3,54,1,,16,,5,,2,1,,,2
538434,1,1360,745,57,45,27,86,7,11,73,2,23,249,23,2,91,14,5,2,14,6,,4,4
538591,1,1086,598,62,39,27,51,3,11,53,1,29,229,19,5,41,4,3,,15,5,1,,
538663,1,141,75,3,3,3,3,2,,3,,2,36,,2,15,,1,1,1,,,,
538795,1,474,262,5,11,14,20,2,1,20,,7,138,1,,30,,1,,,6,4,2,
538817,1,164,79,8,2,2,7,,3,3,1,1,33,4,,10,2,,,1,1,,,1
538868,1,206,131,8,7,17,16,,1,16,,7,42,3,,11,,3,,,,,,
538906,1,223,141,17,7,14,14,1,5,15,,1,35,6,2,19,1,,,1,2,,,1
538922,1,199,107,7,8,6,12,2,7,7,,,37,2,,15,,1,,,1,1,,1
539023,1,326,203,15,5,13,22,1,1,22,,2,79,7,1,29,1,,1,,2,,2,
539074,1,168,102,3,2,4,13,2,1,6,,2,50,1,,16,1,1,,,,,,
539112,1,389,196,7,11,6,33,1,2,21,,6,60,4,,37,1,1,1,,4,,,1
539279,3,470,270,25,27,11,27,4,2,36,,8,81,10,,32,,,,4,1,1,,1
539279,2,532,266,47,18,13,8,,4,38,1,11,76,6,1,35,,4,,2,1,1,,
539279,1,814,491,58,33,20,43,2,5,80,,19,174,12,1,33,1,2,2,1,4,,,1
539376,1,104,72,1,5,2,8,3,,10,,1,24,6,,6,,1,1,2,,,1,1
539431,1,274,164,27,5,9,10,,2,20,,7,49,13,1,20,,1,,,,,,
539473,1,97,52,7,1,,3,1,,18,1,1,12,2,,1,,,,1,3,,,1
539481,1,384,240,21,9,11,9,2,2,32,,10,100,8,,29,1,3,,2,1,,,
539538,1,92,57,3,1,2,1,1,,12,,1,18,1,1,14,,,,,,1,,1
539554,1,185,99,10,6,11,7,1,2,8,,2,34,,,12,1,,,1,3,,,1
539619,1,110,73,9,5,7,5,,1,5,,1,33,,1,5,,,1,,,,,
551651,1,214,126,14,13,17,5,3,3,10,,3,34,3,,16,,3,,1,1,,,
554481,24,240,149,1,12,14,11,,,16,,,77,2,,13,1,,,2,,,,
554481,23,208,105,5,5,,16,,1,6,,4,42,,2,21,,1,,1,1,,,
554481,22,438,213,24,13,19,15,1,2,17,,7,81,,1,23,1,,1,1,3,2,1,1
554481,21,765,441,25,63,37,46,2,3,29,1,3,155,9,,54,1,3,,3,4,,,3
554481,20,706,420,24,30,28,56,2,3,40,,6,154,14,,54,1,,2,1,5,,,
554481,19,750,361,39,28,28,32,6,4,45,,14,105,9,3,34,,3,,1,9,,,1
554481,30,1049,561,24,31,44,63,5,2,35,,21,211,15,3,90,1,4,1,3,4,2,1,1
554481,29,543,351,24,19,37,39,,4,25,,11,139,7,3,38,,,,1,1,1,,2
554481,28,139,68,3,3,2,12,,,4,2,1,21,,,18,1,,,,1,,,
554481,4,1030,287,26,22,13,27,,2,27,,8,96,5,,48,,7,,3,3,,,
554481,3,696,404,52,23,43,34,5,6,53,,14,104,15,1,41,1,1,,,10,,,1
554481,2,785,394,44,18,31,25,4,7,61,1,26,93,11,2,39,3,3,,3,21,,1,1
554481,1,1624,373,44,16,20,19,4,9,36,3,14,113,12,7,53,1,4,,3,12,1,,2
554481,13,872,398,36,31,41,34,4,3,37,,9,125,4,,60,2,2,,,10,,,
554481,12,728,371,23,41,24,58,,3,15,,11,133,11,,44,,2,,1,5,,,
554481,11,555,288,18,18,14,28,5,2,22,,13,108,8,1,43,,1,,3,3,,,1
554481,10,656,341,28,25,23,24,2,2,44,1,12,121,11,,40,,,,,8,,,
554481,9,659,362,30,28,34,42,1,9,28,,14,125,8,1,26,,4,2,1,7,1,,1
554481,8,720,398,35,30,48,36,3,,38,,7,127,7,1,51,2,1,,4,7,1,,
554481,7,880,487,23,40,27,50,3,2,50,,11,182,10,1,70,3,2,,,8,1,2,2
554481,6,610,344,28,23,29,36,1,,36,,11,122,10,1,37,,3,,2,1,,2,2
554481,5,697,295,25,14,16,22,1,3,27,,8,125,9,2,34,,2,1,1,4,1,,
554481,18,592,306,25,21,31,21,,8,32,,12,95,5,1,41,,4,1,1,6,,,2
554481,17,788,397,41,22,32,38,1,3,40,,18,131,7,,52,,1,,3,6,1,1,
554481,16,1038,644,42,37,62,42,7,15,67,,27,226,23,1,63,4,5,,2,11,5,2,3
554481,15,1487,793,53,77,53,79,2,7,98,,34,234,16,5,106,1,3,4,2,16,,,3
554481,14,1301,652,62,63,35,62,1,9,63,1,21,211,14,2,78,2,1,1,6,8,6,4,2
554481,27,838,535,53,32,56,48,2,4,48,,27,175,21,3,49,1,1,2,5,7,1,,
554481,26,684,397,27,42,28,54,3,2,31,,7,148,10,,34,,3,1,2,3,,1,1
554481,25,790,426,28,31,33,45,2,5,32,,2,169,11,2,59,2,1,,,3,,,1
554481,32,920,487,15,46,27,72,3,4,33,,6,182,7,1,67,1,8,,1,5,,8,1
554481,31,166,105,7,1,6,11,,1,6,,1,59,,,9,,,,1,3,,,
554499,8,676,390,36,15,12,32,9,2,49,,13,142,8,,49,,2,,1,15,2,2,1
554499,7,817,436,36,20,23,23,3,6,36,,16,192,15,1,33,3,3,,6,17,3,,
554499,6,818,313,21,14,11,20,6,,38,4,11,123,7,,43,1,,,3,10,,,1
554499,5,545,171,13,6,8,16,4,4,18,,12,66,1,,13,,,1,,8,,1,
554499,4,714,288,15,23,14,27,2,3,21,,3,124,4,2,33,,,,6,11,,,
554499,3,1049,423,31,14,16,32,6,5,37,,14,173,8,,58,,3,2,3,13,4,1,3
554499,2,561,264,20,12,9,26,5,4,23,,4,113,3,,25,2,,1,2,13,,1,1
554499,1,760,359,26,14,21,32,2,3,34,4,16,127,13,,51,1,,,3,12,,,
554499,14,165,85,5,7,6,12,,,6,,,36,2,,10,,,,,,1,,
554499,13,250,132,2,5,4,13,,1,22,,17,41,1,,16,1,1,,1,6,1,,
554499,12,457,230,14,8,12,25,2,2,8,1,9,102,1,,38,,,,2,3,2,,1
554499,11,1494,429,22,29,19,38,3,7,28,1,14,180,8,,48,1,,,6,18,2,3,2
554499,10,633,339,16,29,7,45,7,2,20,,14,125,5,,49,1,3,,,10,2,1,3
554499,9,827,395,19,23,7,28,4,4,33,,10,163,18,,49,,3,,4,19,3,7,1
554502,1,943,528,31,23,21,93,10,6,52,,16,188,10,4,56,1,5,2,3,3,,,4
554511,1,769,481,49,22,42,31,3,6,51,,11,181,22,3,51,1,3,,2,2,,,1
554529,5,1193,780,107,53,40,58,3,8,81,,44,249,33,1,68,13,2,1,1,7,3,,8
554529,4,857,506,71,24,18,28,7,6,63,1,27,158,10,,73,,4,4,,8,3,,1
554529,3,968,569,50,36,19,42,7,2,69,1,23,202,9,1,84,2,4,2,3,7,1,2,3
554529,2,987,602,63,42,26,47,9,10,70,1,33,209,16,2,49,3,4,2,1,5,5,3,2
554529,1,285,178,17,10,12,12,,,14,1,5,76,4,,21,1,1,1,,2,1,,
554529,6,410,251,32,8,7,18,1,3,40,1,10,73,3,1,33,,1,1,2,7,9,,1
554545,1,1239,626,37,29,25,77,10,12,53,2,10,234,26,,100,,,,1,6,2,1,1
554553,3,291,119,5,15,3,13,1,2,5,,3,43,,1,22,1,1,,2,2,,,
554553,2,582,249,21,27,6,36,7,2,23,,3,89,2,1,19,1,,2,,6,3,1,
554553,1,804,330,15,16,3,30,10,3,39,2,8,157,1,,34,,,,1,8,1,,2
554596,1,210,118,3,17,9,19,2,,2,,1,55,2,,7,,,,1,,,,
554600,1,1228,608,49,46,19,71,3,4,81,,13,210,14,1,77,2,1,1,5,9,,,2
554618,1,592,297,27,22,16,28,2,2,39,,2,112,2,,37,1,,,2,,2,1,2
554626,1,586,297,22,15,18,23,1,8,22,1,10,115,4,4,45,1,1,,2,3,1,,1
554634,2,1174,552,33,44,20,47,9,4,39,1,11,223,23,2,77,2,,1,2,8,,4,2
554634,1,635,291,16,34,14,16,6,,30,1,7,123,11,,21,,1,2,,2,1,6,
554642,5,850,215,28,11,5,16,1,2,21,,18,64,12,,28,,2,,2,5,,,
554642,4,539,304,45,15,13,11,,,57,1,20,99,8,,25,2,1,,3,2,2,,
554642,3,32,25,6,1,,2,,2,2,,,9,1,,2,,,,,,,,
554642,2,633,370,39,28,9,16,2,3,67,,24,128,19,,28,,3,,1,2,,1,
554642,1,613,402,54,16,17,19,6,4,78,,15,146,14,,24,,3,,3,3,,,
554642,17,569,335,33,26,10,38,2,3,65,2,4,105,11,,21,2,8,1,,2,1,,1
554642,16,736,393,43,30,5,38,1,2,62,,12,132,16,1,39,1,2,1,2,3,,,3
554642,15,777,458,64,26,15,41,,5,71,1,25,130,18,1,48,4,2,1,,5,1,,
554642,14,624,357,55,16,13,29,1,5,64,1,13,95,22,,32,2,1,,2,3,,1,2
554642,13,709,365,25,35,8,25,,7,85,1,13,108,4,2,44,,2,1,1,3,,,1
554642,12,544,293,13,31,10,22,,3,55,,7,112,4,1,30,,2,,,3,,,
554642,11,703,426,48,24,6,28,5,5,82,1,20,155,11,,30,1,2,,1,6,,,1
554642,10,812,398,41,21,11,23,2,4,82,,13,120,16,1,51,1,2,,2,5,,2,1
554642,9,714,401,64,21,23,27,7,8,67,,9,105,10,,47,,4,2,1,5,,1,
554642,8,601,349,51,31,9,22,1,6,67,1,17,90,14,,30,,2,,4,2,,,2
554642,7,619,325,43,20,15,17,2,2,62,,33,80,11,,27,,1,,2,7,3,,
554642,6,497,259,34,17,8,17,,4,59,,12,63,7,,32,1,,,2,2,1,,
554651,1,244,82,2,8,4,4,,,3,,,54,,,5,,1,1,,,,,
554677,1,335,135,4,5,4,25,7,1,23,,3,33,8,,17,1,2,,,,1,,1
554693,1,278,159,6,12,19,28,4,4,7,,4,50,1,,20,,,1,,2,,,1
554707,1,410,221,8,38,2,15,2,,12,,7,80,17,1,28,8,,,,2,,1,
554740,1,1565,719,34,101,18,73,9,5,45,,44,281,4,,85,4,1,1,3,5,,6,
554812,1,1511,770,59,83,24,56,5,4,60,,13,325,18,3,107,,1,1,1,7,,2,1
554855,1,301,165,11,5,11,26,1,,20,,1,60,2,,25,1,1,,,1,,,
554880,1,748,384,47,17,4,25,2,4,91,,6,129,14,,38,,2,1,2,,,,2
554961,50,708,472,60,24,43,20,3,9,51,,26,160,10,3,45,3,6,2,1,5,,,1
554961,49,244,166,12,7,10,6,5,,23,,7,53,3,,34,1,,,3,2,,,
554961,48,1058,638,68,48,44,42,2,7,69,1,30,208,24,,78,2,4,1,,7,3,,
554961,47,1001,585,49,49,46,29,5,14,53,2,20,227,11,2,57,2,8,1,1,7,1,,1
554961,46,903,570,35,52,40,42,5,6,48,,23,228,13,1,60,1,5,3,,6,2,,
554961,45,1050,579,53,44,30,30,6,7,60,2,26,222,9,4,68,1,3,4,4,1,4,,1
554961,44,856,534,59,39,38,37,2,6,50,1,30,185,12,1,61,,1,,1,5,5,,1
554961,43,975,594,48,41,25,41,11,8,71,,23,227,9,2,67,,6,2,2,9,2,,
554961,42,1052,620,68,32,38,51,5,15,71,,33,209,6,,68,1,8,1,5,5,4,,
554961,41,824,517,29,37,47,34,3,3,60,,22,196,7,,55,2,8,1,1,8,2,,2
554961,40,870,494,62,16,47,29,1,4,62,2,22,174,13,3,46,1,3,2,,5,2,,
554961,39,637,404,45,20,16,37,7,4,37,,15,157,6,,46,1,4,1,3,4,1,,
554961,38,645,389,35,25,16,24,7,1,44,,16,160,6,,36,1,11,1,1,3,2,,
554961,37,728,433,33,19,29,50,5,1,41,,17,164,8,,44,1,3,4,2,8,1,1,2
554961,36,700,417,35,36,22,33,3,6,41,,25,152,9,,40,,4,2,,7,1,,1
554961,35,635,352,17,22,28,8,9,9,51,,19,116,3,2,57,,1,,2,5,2,1,
554961,34,544,251,12,18,10,15,3,1,35,,11,73,9,,48,1,4,1,2,5,2,,1
554961,19,595,357,42,18,29,25,1,10,42,1,24,94,7,1,46,,8,2,,6,,,1
554961,18,747,482,58,30,39,22,3,5,78,,37,116,19,,50,4,8,2,2,8,1,,
554961,17,485,295,39,14,22,12,,5,46,,36,73,13,1,22,,3,4,1,4,,,
554961,16,498,275,21,29,17,19,,1,28,,12,104,3,,29,,4,2,3,3,,,
554961,15,796,406,39,35,27,36,2,10,44,,16,136,15,2,33,,5,1,,5,,,
554961,14,797,516,54,47,32,33,2,10,89,,15,150,12,,46,1,5,1,4,9,2,,4
554961,33,679,421,43,21,35,32,2,3,51,1,24,130,12,1,51,4,3,1,1,3,2,1,
554961,32,1104,684,67,47,30,43,4,4,59,2,38,239,21,1,102,,6,,4,10,4,,3
554961,31,995,545,42,53,33,51,6,2,67,1,25,174,11,1,60,2,5,2,2,3,4,,1
554961,30,1017,597,50,53,42,44,5,8,72,,23,191,17,,68,4,3,5,1,6,4,,1
554961,29,843,494,81,22,37,36,6,4,56,,21,148,15,2,55,,4,,,6,,,1
554961,5,375,196,25,6,9,9,2,4,34,1,9,59,6,1,28,,1,1,,1,,,
554961,4,474,265,31,9,25,19,1,3,37,,20,70,6,2,25,,6,2,2,4,,1,2
554961,3,311,162,21,13,5,8,,4,30,,6,48,3,,17,,1,1,,4,,,1
554961,2,663,409,51,14,34,14,2,5,76,,40,120,7,,38,,4,,1,2,,1,
554961,1,2573,478,61,18,23,18,4,5,89,2,38,124,3,,78,,,3,1,7,2,1,1
554961,9,635,344,54,26,25,16,,2,49,,22,86,3,,43,2,4,,,10,2,,
554961,8,680,417,63,17,18,17,4,5,63,,36,116,6,,52,1,5,,2,8,2,1,1
554961,7,344,187,23,7,9,16,,1,18,,20,60,6,,18,2,,,4,,1,,2
554961,6,670,365,51,18,17,29,2,8,45,,23,103,10,1,43,2,4,,1,5,2,1,
554961,13,617,408,44,33,23,16,4,4,52,1,18,140,10,2,45,,1,,2,7,6,,
554961,12,409,288,39,12,36,14,1,1,29,,29,77,12,,25,,7,1,1,4,,,
554961,11,559,384,62,11,33,22,2,9,60,,24,104,6,1,32,1,5,1,1,6,1,2,1
554961,10,314,177,36,13,13,10,,3,18,,19,41,3,,16,,1,,,3,,,1
554961,25,733,412,37,30,25,28,2,2,52,,8,174,3,,38,,,2,3,3,3,,2
554961,24,746,512,65,40,42,28,2,4,41,,31,190,14,,34,1,6,2,2,3,1,6,
554961,23,732,434,44,30,22,18,1,7,51,,29,161,12,,43,2,4,,4,4,1,,1
554961,22,1009,593,38,69,42,44,7,8,52,,23,219,14,,57,3,1,3,2,8,2,1,
554961,21,892,487,63,28,33,29,4,7,58,,20,156,8,1,64,,3,,3,7,1,1,1
554961,20,857,424,52,28,29,25,3,5,48,,36,138,11,,34,1,4,1,1,6,1,1,
554961,28,678,303,29,13,14,12,4,5,26,2,23,110,6,2,39,1,9,1,1,4,,,2
554961,27,518,323,39,20,18,18,4,,33,1,26,109,5,2,40,,1,2,2,2,1,,
554961,26,835,527,48,27,41,33,7,2,72,,18,184,18,,50,,9,1,9,7,1,,
554979,1,795,366,39,32,29,24,12,7,36,1,19,96,11,5,44,2,,,2,6,1,,
554995,1,779,437,32,21,25,35,4,6,35,,12,154,53,2,42,1,4,1,9,,,1,
555029,1,1598,819,70,83,31,94,9,6,57,2,33,257,30,2,116,3,2,3,11,7,2,,1
555045,1,476,237,9,19,18,19,7,1,22,,5,89,3,3,33,,2,2,,1,2,,2
555169,1,310,180,51,6,14,11,3,,13,,8,33,3,,29,,3,1,4,1,,,
555185,1,1585,847,71,60,43,76,11,7,73,2,35,270,18,6,154,4,4,5,,4,4,,
555207,1,468,284,15,19,14,20,1,,23,,13,131,4,,34,4,1,1,,3,,1,
555215,3,917,553,52,61,18,44,4,4,39,2,28,198,19,3,51,3,4,,13,7,,,3
555215,2,655,317,27,34,21,34,4,,12,,6,93,12,1,64,2,1,1,3,1,1,,
555215,1,636,224,43,16,6,4,1,3,21,,30,57,15,,17,1,1,,5,4,,,
555258,1,588,366,58,24,20,16,6,2,55,3,37,93,14,,29,1,3,,1,3,1,,
555304,1,340,155,17,2,3,15,3,2,10,,2,69,1,1,23,,1,1,2,,1,,2
555347,1,654,353,29,14,31,30,3,3,24,,15,127,11,2,54,1,,1,2,4,,1,1
555363,1,783,426,42,25,21,35,9,6,42,1,8,144,6,1,53,4,14,,3,11,,1,
555380,13,115,72,7,5,7,3,,,7,,1,20,3,1,5,4,,1,,8,,,
555380,12,647,313,28,15,13,13,5,4,32,,8,133,10,,35,5,2,,1,7,,,2
555380,11,384,181,12,22,7,9,3,2,15,,6,65,8,,24,,,1,,7,,,
555380,10,106,50,4,5,,1,,,1,,1,23,6,,9,,,,,,,,
555380,9,219,123,7,13,2,9,,,19,,2,42,4,,23,,1,,,1,,,
555380,8,439,249,26,22,11,13,2,3,26,,5,90,8,,30,6,2,2,,3,,,
555380,7,614,300,14,25,9,31,8,2,27,,4,140,7,1,25,3,1,,,1,,,2
555380,6,521,320,30,25,17,24,4,1,34,,10,109,4,4,36,9,4,,2,7,,,
555380,5,421,209,20,16,5,15,1,3,17,,9,66,3,3,35,5,2,,1,4,2,1,1
555380,4,667,339,32,27,18,19,2,5,33,,11,124,15,3,36,4,1,1,,7,,,1
555380,3,1118,365,52,16,20,22,6,5,36,1,15,97,10,3,63,6,,,3,8,,1,1
555380,2,426,210,11,21,5,15,1,2,20,,5,82,6,2,29,5,,,1,5,,,
555380,1,571,297,17,20,22,9,3,,32,1,10,126,14,1,28,4,2,,1,6,1,,
555398,2,1393,722,62,46,78,46,8,12,66,,25,260,9,5,80,3,4,5,3,6,,2,2
555398,1,787,512,45,40,54,36,2,7,49,,20,155,6,8,75,2,3,,,9,1,,
555398,4,374,228,30,16,22,11,1,3,23,,8,64,5,,28,5,,,7,3,2,,
555398,3,828,511,26,59,69,19,4,8,40,,12,183,8,3,66,2,1,2,,5,2,1,1
555428,9,1013,603,50,48,34,52,15,5,69,1,32,180,16,,76,1,5,2,3,9,1,1,3
555428,8,1138,647,59,39,28,64,5,5,63,,17,240,21,1,81,2,4,5,2,7,2,,2
555428,7,731,455,34,47,27,36,4,4,41,1,11,169,13,,51,3,4,3,,4,,2,1
555428,6,658,366,33,29,10,31,2,4,43,,19,130,12,1,43,,,2,2,5,,,
555428,5,883,465,40,35,10,40,5,9,36,,8,199,5,,61,1,3,2,2,5,,1,3
555428,4,819,490,36,40,21,42,7,4,52,,15,181,10,,62,,2,4,,6,2,3,3
555428,3,744,418,29,34,24,29,1,6,42,,17,138,10,1,71,1,5,2,,8,,,
555428,14,1243,696,68,25,22,68,24,7,75,1,17,199,13,10,85,19,2,9,18,17,3,10,4
555428,13,959,520,45,35,24,35,8,12,35,,21,196,13,,78,2,3,,2,8,,1,2
555428,12,970,532,48,42,22,38,10,3,51,,16,206,12,,58,5,6,5,,6,2,,2
555428,11,1005,543,45,36,18,54,9,11,43,,19,187,20,3,84,1,1,3,2,4,,1,2
555428,10,1006,632,86,28,25,50,18,16,74,,26,200,20,1,68,2,6,1,2,5,1,1,2
555428,2,1089,554,73,40,28,47,6,5,63,,29,163,14,,68,1,3,4,1,4,1,3,1
555428,1,1832,656,92,22,33,41,3,10,107,3,29,192,12,,90,3,3,,1,8,4,,3
555444,1,394,195,8,15,4,29,5,4,13,1,3,55,30,,20,,4,,,,,2,2
555452,1,535,305,42,14,31,19,5,,34,1,16,93,6,1,34,,2,1,1,5,,,
555479,1,253,142,27,15,9,18,3,2,10,,8,15,,,30,1,,,,2,,,2
555525,1,462,198,6,19,12,19,1,1,15,,,80,9,,32,1,1,,1,1,,,
555533,2,239,119,17,9,7,8,1,,11,,4,38,3,3,13,1,,,,2,2,,
555533,1,752,471,70,20,31,22,5,5,50,2,25,149,10,5,67,1,4,,4,1,,,
555550,1,501,274,25,8,23,21,2,5,25,1,17,102,9,2,27,2,1,,1,1,1,,1
555584,1,391,204,10,10,7,27,2,,16,,7,89,,1,27,2,1,,,5,,,
555584,2,91,51,3,2,3,4,,,6,1,4,25,,,1,,1,,,,,,1
555592,1,450,247,12,4,23,16,4,3,26,,7,109,5,1,31,,3,,,,,1,2
555614,1,517,290,47,13,15,25,4,7,27,2,10,81,9,,32,4,1,1,2,9,1,,
555622,1,467,213,8,10,4,26,8,2,16,1,3,79,4,,43,,1,2,,4,,1,1
555631,3,777,390,31,34,4,70,1,2,39,,5,137,19,1,37,1,2,,1,2,2,,2
555631,2,889,400,38,28,10,65,3,10,46,,8,117,19,2,40,1,2,1,1,5,3,,1
555631,1,699,256,11,18,8,35,4,,17,,9,86,12,,51,,,,2,1,2,,
555657,3,788,422,64,30,20,41,1,9,34,1,10,148,25,2,27,1,1,,1,6,,,1
555657,2,941,446,29,36,10,54,7,1,45,1,10,174,13,,53,,1,3,2,5,1,,1
555657,1,1245,615,37,59,11,70,3,14,60,4,7,256,8,1,71,1,4,1,2,4,,,2
555681,1,460,268,6,15,7,43,3,2,27,,10,97,4,,41,,3,2,1,7,,,
555690,1,286,164,6,6,14,20,5,,25,,1,57,3,,19,,,,,7,,,1
555703,1,433,261,14,17,18,16,4,2,17,,9,98,1,4,49,,4,1,1,3,,3,
555711,1,403,178,4,6,50,33,8,1,5,,3,39,6,1,19,,,,2,,1,,
555738,2,177,113,,9,6,6,1,,15,,5,55,,1,15,,,,,,,,
555738,1,328,153,6,11,6,14,1,,26,1,5,56,2,,21,,,1,,3,,,
555762,2,1051,490,36,29,14,53,4,6,36,,13,175,46,3,60,1,2,1,2,4,2,1,2
555762,1,947,473,22,32,24,44,5,1,22,,26,186,20,1,76,,,2,4,6,,,2
556947,1,410,266,17,32,16,22,3,1,25,1,8,94,7,,27,1,3,,3,5,,1,
560286,3,958,350,40,19,18,20,6,3,26,,20,120,7,1,44,3,5,,10,4,,2,2
560286,2,1619,501,62,31,34,46,2,9,30,,20,173,13,1,64,2,4,1,7,,,2,
560286,1,912,541,51,35,19,38,1,10,46,,31,205,9,1,73,1,3,1,6,6,5,,
560286,19,1155,604,31,57,33,66,1,7,36,,16,235,8,1,75,9,10,3,6,7,2,1,
560286,18,986,513,41,38,17,48,4,13,43,,17,201,11,3,56,2,5,1,6,3,1,,3
560286,17,716,390,29,32,20,45,,4,26,,7,156,3,2,45,1,3,1,11,3,,,2
560286,16,1139,579,53,46,28,52,5,15,60,1,10,194,5,2,71,4,6,1,11,12,1,2,
560286,15,1188,605,30,46,13,60,5,9,49,1,9,248,5,3,89,8,9,1,10,10,,,
560286,14,1453,791,59,79,40,60,6,12,90,2,31,230,13,1,112,2,6,,21,18,2,1,6
560286,13,1093,484,21,45,12,58,9,9,30,,10,195,4,1,61,6,5,3,10,4,1,,
560286,12,1013,513,35,51,13,47,6,13,47,,12,174,4,1,87,2,4,1,9,5,1,,1
560286,11,1025,500,37,39,12,44,3,9,44,1,14,183,16,5,73,3,2,,6,6,,2,1
560286,10,978,461,32,41,20,30,2,2,45,,14,175,7,1,69,6,1,2,5,4,1,,4
560286,9,951,306,10,23,11,23,2,4,21,4,10,125,5,1,46,2,5,,5,7,1,,1
560286,8,825,354,44,29,10,35,3,7,31,,13,109,4,,49,2,1,,14,2,,,1
560286,7,900,538,56,43,27,29,1,6,58,2,27,184,12,1,72,1,2,1,10,5,,1,
560286,6,704,405,32,33,12,38,1,6,47,,16,143,11,1,49,,1,1,6,2,4,1,1
560286,5,683,400,35,38,15,32,2,8,26,,16,148,10,2,45,6,4,,7,5,,,1
560286,4,810,455,38,35,16,34,1,6,37,,16,190,7,3,43,1,12,1,8,5,,2,
560294,2,1178,653,66,58,24,63,5,2,57,,18,247,2,2,75,3,4,1,12,12,,1,1
560294,1,1085,539,46,35,18,45,5,5,49,,9,210,11,4,76,1,4,6,8,5,,,2
560308,1,337,195,19,13,10,13,1,5,22,,9,64,4,3,28,,1,1,,2,,,
560316,1,1253,529,36,29,37,36,2,7,31,,5,207,1,2,103,5,1,,17,8,1,1,
560324,1,723,364,23,28,21,38,7,5,24,,6,146,3,,51,4,1,,,4,,2,1
560332,1,233,94,7,1,14,7,3,5,6,3,,30,,,9,1,,,4,3,,,1
560341,1,272,164,13,5,12,9,3,3,15,,5,49,2,6,30,1,,,2,4,1,3,1
560359,5,495,316,30,17,17,21,2,3,14,,8,127,5,,54,3,5,,5,4,,,1
560359,4,540,296,23,12,14,21,2,12,22,1,7,125,3,2,42,2,1,,2,1,,1,3
560359,3,988,297,12,16,13,43,8,2,14,,5,116,3,2,46,4,2,,9,2,,,
560359,2,874,425,29,45,10,28,10,6,20,,11,173,5,5,62,3,,1,9,4,,,4
560359,1,1126,396,47,30,14,25,3,9,13,2,9,154,4,2,57,5,5,1,11,1,1,1,2
560367,3,833,430,45,18,32,29,3,7,39,1,8,177,4,,48,2,2,,9,5,,,1
560367,1,1134,608,61,25,21,41,20,12,65,,15,244,13,5,55,3,1,3,8,6,,4,6
560367,5,1001,515,35,40,19,31,3,9,43,,13,244,5,1,54,1,2,1,5,5,1,1,2
560367,4,1032,386,24,20,14,45,4,5,34,2,10,156,4,1,56,2,,2,,4,,1,2
560375,1,246,128,8,16,7,3,,3,12,,,56,3,,13,1,1,1,1,,1,,2
560383,10,943,417,37,33,25,28,4,4,40,,11,145,7,1,62,3,4,1,4,7,,,1
560383,9,991,410,34,40,11,23,3,4,25,,7,166,6,5,67,,7,,2,3,,3,4
560383,8,1054,514,29,39,14,31,4,8,43,3,16,217,10,,85,3,4,,,5,,2,1
560383,7,1178,364,18,31,18,46,3,2,34,1,6,109,4,2,72,3,3,1,3,7,1,,
560383,6,1044,540,32,40,27,43,5,11,49,,16,214,12,2,73,1,2,2,1,4,2,1,3
560383,5,894,350,18,38,12,22,7,3,28,3,10,123,11,3,61,,,,5,5,,,1
560383,4,1338,697,49,60,38,57,10,6,53,1,21,269,16,,92,,4,6,2,5,3,1,4
560383,3,1470,494,46,39,36,30,5,11,46,,17,178,5,3,70,,,,2,4,1,1,
560383,2,945,520,47,31,39,27,7,6,44,,8,205,11,1,71,2,5,3,3,6,,,4
560383,1,915,458,46,36,27,41,4,12,28,1,13,171,5,2,59,3,5,1,1,1,,1,1
560383,11,230,138,15,6,3,13,1,,12,,5,56,2,1,17,2,1,1,1,2,,,
560413,1,397,222,12,6,8,17,2,5,12,,4,108,10,2,31,1,,,,2,,,2
560421,1,372,188,6,6,8,13,3,1,9,,3,98,1,3,30,,,1,4,1,,,1
560456,1,748,395,31,16,18,53,2,12,28,,4,140,12,2,64,2,2,1,3,3,,1,1
560464,1,666,348,20,28,17,30,4,10,23,1,8,138,9,1,38,2,4,1,6,4,1,1,2
560472,8,472,238,16,10,8,27,3,5,21,,5,100,2,,36,,2,,1,1,,1,
560472,7,430,222,19,12,13,13,4,4,17,,6,93,5,3,27,1,1,1,,3,,,
560472,6,709,390,29,25,8,27,5,8,27,,9,175,5,1,64,,1,2,,3,,,1
560472,5,590,275,23,23,19,15,1,2,27,,1,105,6,1,40,4,2,,4,1,,,1
560472,4,970,350,23,27,12,25,4,3,22,,13,144,9,1,55,2,2,2,1,4,,,1
560472,3,773,389,20,23,19,28,7,7,31,,6,166,9,3,60,,,2,2,3,3,,
560472,2,793,330,16,19,8,29,9,7,18,,6,152,7,5,46,,,2,1,3,,1,1
560472,1,814,462,49,34,12,56,3,3,32,,16,182,12,2,54,,1,,1,2,3,,
560499,5,730,187,17,12,4,11,3,1,35,1,1,53,8,2,25,1,,1,5,1,,5,1
560499,4,950,533,42,42,10,62,2,8,32,4,13,221,,8,75,3,,,6,2,1,,2
560499,3,726,428,30,34,17,40,1,11,26,2,6,192,11,1,42,,1,4,3,4,1,,2
560499,2,1070,478,28,29,20,37,3,9,44,,8,192,7,2,81,5,1,3,5,3,1,,
560499,1,1043,581,53,58,21,53,2,12,34,,17,206,12,1,91,4,2,,1,11,,2,1
560502,1,485,251,12,9,19,18,2,7,11,,5,99,6,1,46,5,,1,6,2,,,2
560537,2,1274,738,70,57,27,42,8,19,84,2,53,213,15,3,98,4,8,2,11,19,,,3
560537,1,1209,645,82,41,39,26,6,16,84,,80,161,12,3,76,2,3,,6,8,,,
560545,1,1020,556,28,27,24,39,12,15,57,,11,191,15,3,88,1,8,3,21,6,2,3,2
560561,1,180,46,3,4,1,3,,,7,,,17,,,9,,,,1,1,,,
560570,4,497,283,11,20,9,24,4,5,20,,7,106,11,,58,,3,,3,2,,,
560570,3,217,91,4,15,5,5,3,1,7,,2,32,1,1,12,,,,,2,,1,
560570,2,760,257,12,18,10,31,8,7,17,,1,81,,4,54,1,4,3,2,2,1,1,
560570,1,592,293,19,15,9,18,4,6,27,,8,105,4,,62,4,6,,,5,,,1
560588,2,421,210,6,19,11,15,4,7,16,,8,86,2,1,24,2,,2,3,2,1,,1
560588,1,927,334,10,27,13,47,6,2,24,,3,143,4,3,44,,3,,3,1,,,1
560596,1,77,50,4,3,2,13,,1,1,,4,11,,,8,,,,,3,,,
560600,3,214,84,9,4,2,12,,,9,,1,28,2,,17,,,,,,,,
560600,2,937,406,8,65,6,53,11,2,18,,2,148,3,3,73,,1,,4,3,2,2,2
560600,1,1323,607,18,91,11,84,5,2,46,,5,221,18,3,83,1,3,,6,4,,3,3
560618,1,260,95,5,9,4,20,3,,3,,,28,1,1,16,,,,2,,,1,2
560642,1,691,418,40,25,13,33,6,4,30,,11,180,9,,50,,3,,5,8,,1,
560651,1,384,204,7,15,8,9,9,3,11,1,4,84,1,,47,1,,1,,2,,,1
560677,1,270,157,10,25,6,4,2,2,11,,3,67,1,1,20,,1,1,,2,,,1
560685,1,905,378,11,48,19,26,7,2,21,,4,166,3,3,52,1,3,,1,5,,,6
560707,1,334,72,1,1,2,9,2,,5,1,3,20,2,,19,2,1,,1,2,1,,
566675,1,152,63,1,4,7,13,,,1,,1,26,4,,6,,,,,,,,
577979,1,122,79,6,5,9,11,,1,6,,,23,2,,12,1,,,1,1,1,,
578002,1,127,66,5,2,11,11,1,,4,,,20,2,,7,,,1,,1,,,1
578011,1,93,52,1,10,3,3,1,1,2,,1,14,1,1,14,,,,,,,,
578029,1,274,168,9,2,11,14,,,25,1,11,43,6,,33,1,,,2,9,,,1
578045,1,262,176,24,12,13,7,4,5,12,,8,61,4,,17,1,1,,5,1,,1,
579360,1,185,129,8,4,6,7,1,,10,,5,59,5,1,17,1,2,,3,,,,
