A7,A9,A997,A998,A999,B166,B1114,B720,B53,B1478,B768,B47,B1456,B997,B998,B999
102,99,0,6,85,21,3,14,22,1,41,6,11,16,0,157
81,17,0,3,80,10,6,2,5,0,17,2,0,5,0,134
33,70,0,0,28,24,7,6,2,1,8,4,1,4,26,48
53,73,0,4,54,13,3,6,17,0,8,3,10,13,0,111
60,22,0,0,36,5,9,3,0,3,9,5,1,5,12,66
42,17,0,0,15,4,10,1,1,1,5,2,4,4,2,40
100,49,0,9,85,8,5,10,7,0,22,3,2,11,0,175
218,56,0,20,141,16,20,6,12,1,44,10,2,26,0,298
38,8,0,6,25,0,3,0,2,0,8,2,0,5,0,57
143,99,0,50,63,45,14,11,25,3,42,10,10,20,0,175
128,93,0,19,77,14,13,21,25,1,29,19,5,24,0,166
80,109,0,0,65,17,0,17,22,3,21,8,6,10,4,146
32,25,0,0,25,13,0,7,2,0,2,12,1,0,2,43
44,50,0,4,49,3,9,5,13,2,9,0,0,11,0,95
54,46,0,0,65,13,3,7,4,1,10,2,7,20,13,85
59,40,0,0,26,8,4,8,6,1,16,5,3,3,6,65
84,34,0,3,59,8,3,9,10,1,24,3,7,7,0,108
91,69,0,29,91,7,5,14,17,7,21,6,9,8,0,186
51,24,0,3,32,6,7,8,1,5,12,4,1,3,0,63
295,249,0,0,303,27,16,44,45,97,66,14,21,26,0,491
134,115,0,23,75,15,19,22,27,13,33,2,17,25,0,174
431,281,0,19,362,40,29,42,43,22,103,42,20,46,0,706
38,23,0,0,32,1,2,3,2,10,15,7,3,3,0,47
74,54,0,0,42,6,3,7,8,7,13,11,0,28,4,83
368,123,0,48,289,17,25,30,23,7,78,14,8,42,0,584
102,67,0,0,95,17,14,13,8,0,15,5,2,13,11,166
155,65,0,0,84,16,8,6,15,10,35,5,2,15,8,184
92,36,0,0,61,6,4,8,7,3,22,2,0,10,0,127
72,24,0,9,72,8,4,7,1,1,14,3,1,7,0,131
223,122,0,0,212,28,28,12,18,4,34,7,19,19,0,388
98,40,0,0,112,44,6,3,0,1,7,11,0,5,13,160
143,77,0,0,144,13,8,10,17,3,30,4,2,11,8,258
64,61,0,6,34,11,1,18,6,2,14,2,7,5,0,99
214,90,0,12,153,11,21,12,9,4,34,10,5,20,0,343
154,47,0,0,133,15,6,12,9,0,52,6,2,9,12,211
167,55,0,7,111,19,11,3,10,1,42,10,3,14,0,227
147,45,0,0,140,6,16,11,7,9,31,10,3,7,3,229
147,70,0,23,139,14,13,10,10,12,46,20,6,21,0,227
172,60,0,0,98,6,8,7,21,0,37,2,4,25,1,219
99,41,0,24,39,7,6,16,8,3,21,12,1,7,0,122
32,9,0,5,24,5,4,0,1,0,11,4,0,3,0,42
104,37,0,0,48,16,20,7,1,2,18,10,2,8,29,76
69,56,0,0,81,26,6,13,10,0,15,4,7,10,2,113
94,60,0,0,60,19,13,10,10,0,26,6,4,7,8,111
45,28,0,0,31,7,1,2,10,3,4,5,0,5,5,62
54,8,0,9,26,1,2,2,3,0,11,3,0,3,0,72
80,41,0,6,66,16,9,8,4,0,17,5,2,8,0,124
324,162,0,23,230,30,36,25,29,5,57,6,10,32,0,509
61,25,0,2,59,10,6,4,3,0,7,7,0,4,0,106
67,41,0,6,63,5,6,8,13,5,18,5,0,11,0,106
29,19,0,3,19,3,1,8,7,3,8,0,0,0,0,40
45,16,0,2,18,4,2,1,3,0,12,5,4,4,0,46
57,36,0,10,38,9,3,4,12,0,10,3,2,18,0,80
113,39,0,0,98,2,8,20,3,2,23,11,3,11,1,166
45,28,0,4,47,4,1,11,3,2,10,13,4,5,0,71
7,18,0,2,4,1,1,3,4,0,0,0,0,0,0,22
56,69,0,2,50,8,5,26,17,2,9,4,3,16,0,87
519,241,0,20,307,23,40,44,39,60,128,54,24,50,0,625
173,90,0,2,117,11,7,12,4,26,55,13,7,16,0,231
88,48,0,11,58,3,7,9,6,9,36,14,3,7,0,111
39,15,0,9,10,4,0,2,3,4,10,3,0,6,0,41
63,17,0,0,38,4,5,4,2,0,17,1,3,10,0,72
183,69,0,2,141,20,24,15,10,1,46,10,8,16,0,245
89,37,0,11,80,8,10,7,8,4,6,6,1,31,0,136
333,153,0,28,756,47,37,11,12,12,59,40,22,29,0,1001
315,202,0,0,605,70,30,27,21,9,73,22,20,24,2,824
175,85,0,8,155,15,16,16,10,2,47,9,3,17,0,288
68,71,0,12,68,5,6,10,9,4,18,9,11,10,0,137
184,81,0,4,180,11,11,20,15,6,33,13,7,17,0,316
286,260,0,0,241,65,43,39,35,14,70,13,14,33,40,421
202,184,0,20,118,65,30,35,22,8,38,5,12,23,0,286
31,16,0,12,200,4,4,2,1,0,4,1,0,4,0,239
185,212,0,12,126,50,16,30,31,6,44,9,14,38,0,297
318,179,0,50,1622,38,54,44,22,0,60,8,8,46,0,1889
300,158,0,0,400,37,30,30,13,7,45,7,13,35,16,625
179,152,0,0,325,31,23,21,13,3,45,14,20,24,19,443
275,196,0,2,315,35,25,49,20,0,62,11,16,26,0,544
490,211,0,0,518,42,48,35,26,5,135,17,17,43,0,851
301,145,0,0,303,29,31,11,17,4,54,16,13,28,60,486
241,147,0,0,327,22,28,24,25,9,69,8,7,21,14,488
189,138,0,0,277,19,15,17,20,3,44,12,8,24,58,384
464,333,0,0,393,72,37,52,32,19,107,18,15,55,25,758
374,255,0,0,397,62,34,45,30,10,78,9,12,50,8,688
380,194,0,0,351,41,43,36,29,17,71,13,9,38,13,615
193,172,0,0,531,37,12,36,16,2,39,7,12,36,35,664
246,151,0,0,218,35,24,22,18,2,64,12,7,37,8,386
352,153,0,0,343,26,31,24,20,5,92,22,7,42,62,517
341,116,0,46,366,16,39,20,17,1,84,16,3,42,0,631
362,166,0,0,339,50,22,20,20,3,84,13,11,26,26,592
216,188,0,20,134,55,22,35,41,4,45,14,12,20,0,310
279,171,0,4,425,34,32,40,28,5,68,11,8,38,0,615
312,226,0,0,368,63,28,37,32,9,84,10,17,38,22,566
352,351,0,0,239,75,44,52,67,11,110,8,19,60,27,469
196,139,0,4,247,29,24,24,28,4,40,3,11,23,0,400
280,225,0,29,321,52,31,40,33,11,53,5,13,22,0,595
260,136,0,0,225,26,25,23,18,3,73,18,4,27,40,364
332,260,0,0,308,42,30,45,39,10,83,19,13,46,25,548
272,235,0,0,274,39,33,24,29,13,49,18,30,36,40,470
90,56,0,0,88,9,9,8,8,0,12,1,6,7,8,166
50,36,0,1,42,10,9,5,5,1,16,2,3,9,0,69
52,18,0,0,81,8,6,2,3,0,15,5,0,6,3,103
201,130,0,10,152,40,24,32,19,2,41,7,0,15,0,313
117,60,0,0,186,15,9,12,7,4,21,3,1,14,28,249
350,280,0,0,343,62,69,45,56,10,70,23,9,47,8,574
99,30,0,13,53,11,4,2,2,1,10,1,0,3,0,161
109,65,0,0,137,17,15,7,18,2,29,5,5,23,3,187
277,111,0,17,530,28,37,17,12,4,36,4,3,36,0,758
280,158,0,0,671,30,20,17,12,4,37,9,5,66,1,908
265,164,0,0,287,27,21,20,15,2,54,7,10,33,24,503
340,169,0,0,338,46,28,38,15,2,70,11,8,27,33,569
260,156,0,0,212,16,25,34,23,4,70,5,6,34,10,401
314,184,0,24,388,44,35,33,26,5,56,11,11,49,0,640
390,176,0,15,384,39,44,39,19,11,89,30,9,44,0,641
96,59,0,13,342,12,14,14,7,2,17,4,4,21,0,415
349,261,0,0,429,65,34,53,26,3,60,22,8,52,16,700
352,137,0,0,416,28,31,18,8,6,64,15,9,36,25,665
239,139,0,4,226,38,34,25,22,3,44,9,6,20,0,407
107,74,0,0,80,20,15,15,10,2,21,1,1,11,2,163
299,178,0,0,320,44,33,29,25,10,67,9,9,26,29,516
320,226,0,0,365,51,42,34,34,11,61,17,17,35,21,588
159,107,0,17,117,39,18,15,16,4,42,8,11,17,0,230
177,138,0,0,130,30,13,21,31,10,39,1,4,12,0,284
30,32,0,8,17,8,4,5,4,3,6,3,6,8,0,40
184,181,0,9,103,65,23,24,31,5,62,9,16,23,0,219
123,113,0,8,95,22,7,26,6,6,38,4,2,18,0,210
402,191,0,0,344,70,18,28,22,5,106,22,9,28,30,599
343,148,0,0,442,54,35,25,16,8,50,20,2,27,3,693
425,227,0,0,458,66,45,45,34,5,80,14,8,34,31,748
148,103,0,0,168,43,12,14,12,0,22,10,3,8,0,295
379,190,0,0,300,67,32,19,33,8,73,24,11,34,8,560
333,209,0,13,302,35,34,24,23,6,66,17,2,41,0,609
434,266,0,0,408,65,35,28,40,3,85,23,10,38,20,761
321,172,0,6,466,74,29,22,28,2,65,15,6,25,0,699
236,100,0,7,199,23,33,10,13,4,64,7,2,25,0,361
387,192,0,0,361,75,29,31,22,3,89,19,12,33,4,623
80,40,0,0,145,22,9,7,3,1,14,3,1,5,3,197
312,201,0,28,446,167,20,15,18,1,51,16,4,14,0,681
146,44,0,0,96,5,18,3,4,1,31,8,0,13,21,182
42,23,0,1,53,1,1,3,3,0,7,3,1,9,0,91
273,140,0,17,228,62,32,18,6,2,58,10,4,30,0,436
63,44,0,7,81,8,9,5,15,3,13,2,1,6,0,133
37,29,0,0,23,7,3,4,5,3,10,3,0,9,8,37
60,31,0,16,63,7,1,2,7,1,8,0,0,3,0,141
162,65,0,0,175,21,21,8,7,2,37,8,0,12,11,275
444,207,0,0,463,80,26,28,25,15,96,9,10,27,37,761
161,92,0,0,120,25,9,17,15,0,39,13,4,26,6,219
216,114,0,4,145,30,20,11,9,2,38,9,2,24,0,334
550,270,0,0,548,67,54,46,22,2,119,23,7,66,54,908
421,251,0,67,303,64,37,40,61,5,133,17,19,52,0,614
470,299,0,0,578,74,41,33,41,2,98,17,15,53,9,964
164,162,0,0,179,62,12,21,16,0,38,6,18,22,2,308
193,110,0,0,223,50,11,8,4,1,24,5,3,19,28,373
423,176,0,77,554,106,27,15,25,11,89,13,4,27,0,913
383,153,0,3,631,89,31,12,18,3,82,20,5,29,0,881
278,158,0,0,490,102,13,11,9,2,61,12,8,30,63,615
48,75,0,0,43,53,3,4,2,0,15,4,1,8,13,63
77,69,0,0,178,32,4,11,6,2,21,5,7,10,19,207
250,182,0,2,308,122,11,16,11,0,49,14,7,25,0,487
222,123,0,48,316,114,10,11,11,6,42,7,3,20,0,485
121,149,0,11,134,73,6,23,14,1,27,3,4,13,0,251
188,94,0,0,204,118,9,8,3,2,24,8,2,20,11,281
147,98,0,0,127,20,12,12,8,3,31,13,3,23,7,240
345,145,0,74,193,35,37,18,33,4,68,7,8,25,0,522
94,51,0,7,175,33,16,1,10,1,20,5,1,8,0,232
278,190,0,3,481,107,14,17,24,10,42,18,2,35,0,683
138,108,0,0,189,47,4,7,5,2,23,9,1,8,9,320
309,163,0,0,507,51,26,21,21,3,62,15,4,32,44,700
376,229,0,20,342,88,37,37,39,8,90,14,3,42,0,609
349,178,0,19,407,65,51,25,28,2,89,26,2,36,0,629
303,203,0,0,366,68,17,17,37,4,76,9,6,44,0,594
363,255,0,14,599,89,31,20,46,6,87,15,2,40,0,895
370,245,0,0,407,89,29,22,27,9,84,16,2,45,28,671
306,169,0,33,278,76,34,24,15,8,80,7,4,29,0,509
336,221,0,0,318,94,31,16,28,3,64,10,10,39,15,565
381,290,0,34,374,116,27,36,47,4,102,18,8,57,0,664
221,120,0,0,203,60,12,19,20,2,53,9,13,19,12,325
72,22,0,0,133,5,3,5,0,1,18,5,0,14,24,152
306,139,0,0,362,52,22,19,14,3,59,7,2,47,1,581
160,114,0,11,150,25,10,15,10,17,32,5,2,10,0,309
489,235,0,15,613,105,30,20,29,44,100,25,4,27,0,968
223,116,0,57,671,43,11,9,7,23,39,7,5,18,0,905
535,256,0,13,703,118,25,13,16,53,126,14,9,62,0,1071
138,50,0,0,135,6,7,3,1,0,26,11,1,5,5,258
408,219,0,0,363,67,33,25,21,4,97,12,9,37,18,667
82,81,0,7,93,32,6,12,14,1,12,3,2,7,0,174
201,125,0,0,657,49,24,20,9,0,27,11,5,32,17,789
432,223,0,0,439,64,36,31,27,2,85,26,14,46,23,740
425,247,0,1,390,97,33,34,31,2,97,23,9,46,0,691
419,279,0,20,448,107,48,34,33,3,102,10,6,48,0,775
350,182,0,0,419,53,29,18,19,3,95,18,6,38,49,623
262,154,0,0,635,29,28,11,15,2,46,7,5,23,56,829
389,187,0,12,415,78,39,19,23,1,69,23,10,51,0,690
466,315,0,56,363,129,36,32,26,5,106,18,12,50,0,786
437,286,0,0,417,112,43,33,28,2,89,12,8,41,57,715
199,102,0,20,205,40,22,18,22,0,35,4,4,30,0,351
326,217,0,0,440,60,31,31,22,3,66,18,11,36,5,700
146,82,0,14,166,31,6,15,12,5,33,9,2,13,0,282
537,323,0,0,736,147,28,21,20,13,89,24,2,29,19,1204
385,165,0,2,365,28,16,19,23,11,86,11,6,17,0,700
107,75,0,8,107,14,7,13,12,1,34,1,4,14,0,197
294,154,0,0,309,190,25,4,5,0,52,9,3,11,32,426
276,180,0,0,362,21,21,27,24,9,68,14,31,28,52,523
281,228,0,22,378,39,19,24,43,10,73,11,30,39,0,621
307,210,0,0,379,26,19,28,42,12,73,22,22,25,7,620
294,186,0,0,423,21,29,27,41,9,64,20,12,45,20,615
213,143,0,0,411,12,10,23,34,7,56,12,7,32,15,559
220,128,0,25,328,22,16,27,34,4,41,10,13,16,0,518
272,92,0,0,454,2,17,11,9,1,68,13,9,15,10,663
371,123,0,0,486,5,37,22,12,8,74,14,5,29,5,769
357,131,0,0,509,7,39,20,14,14,79,19,2,34,31,738
318,113,0,0,550,6,38,10,17,7,64,13,9,19,20,778
307,99,0,0,582,4,40,15,13,15,52,21,7,25,4,792
325,205,0,25,687,15,41,24,37,10,76,17,15,27,0,980
291,137,0,0,686,5,40,21,14,3,66,20,10,33,18,884
350,254,0,0,403,30,25,48,45,13,91,28,18,39,16,654
237,158,0,0,323,27,38,19,20,8,63,12,10,25,7,489
266,271,0,0,274,28,29,29,52,10,62,14,43,36,14,494
475,301,0,0,417,39,26,38,85,14,126,44,22,52,8,739
374,231,0,0,426,20,24,29,27,9,78,23,10,39,20,752
387,264,0,8,522,18,38,34,56,15,86,26,32,62,0,814
332,204,0,0,1930,10,25,38,53,4,87,21,12,30,33,2153
275,215,0,9,274,29,12,18,48,7,58,18,32,34,0,517
291,193,0,36,455,28,30,26,45,11,80,12,38,31,0,674
297,104,0,0,548,9,28,8,8,9,78,16,3,13,30,747
307,146,0,0,414,8,26,10,9,5,58,18,5,24,47,657
270,121,0,0,463,9,25,17,17,18,70,11,6,22,27,632
295,125,0,0,339,15,23,28,22,6,69,5,10,37,5,539
279,90,0,0,412,4,13,15,24,9,51,18,6,12,4,625
362,142,0,0,276,19,27,21,29,6,94,14,12,26,7,525
421,276,0,0,309,39,26,30,61,16,112,27,30,50,25,590
352,202,0,0,401,33,28,28,47,8,76,27,11,42,38,617
337,209,0,0,322,23,21,43,29,7,97,25,21,45,37,520
362,224,0,0,334,28,40,32,50,5,104,16,11,33,11,590
353,209,0,0,319,13,21,22,41,7,122,25,9,34,13,574
370,142,0,0,267,11,27,28,62,10,63,25,21,26,1,505
287,225,0,0,269,24,27,30,47,15,77,18,26,25,6,486
346,227,0,2,286,20,24,30,51,14,90,33,16,43,0,540
362,302,0,0,318,32,39,37,86,11,111,23,39,40,1,563
307,98,0,11,491,8,25,10,5,5,58,8,10,44,0,734
329,93,0,0,381,3,24,14,11,5,59,13,10,21,22,621
423,264,0,0,431,16,31,27,43,13,89,20,19,42,22,796
90,43,0,11,54,8,11,3,5,1,22,4,2,14,0,128
155,129,0,27,147,21,19,11,23,0,43,11,51,21,0,258
96,62,0,17,68,9,8,6,15,15,12,5,17,11,0,145
461,194,0,14,441,22,35,42,30,23,76,37,10,35,0,800
207,112,0,55,138,9,12,21,34,5,62,2,6,31,0,330
44,23,0,6,73,3,3,9,4,1,12,6,4,5,0,99
251,192,0,0,207,25,12,19,45,6,72,14,9,35,5,408
93,37,0,21,101,5,11,8,5,5,15,2,1,10,0,190
166,48,0,0,198,5,12,6,14,4,39,18,6,13,2,293
228,64,0,17,215,2,11,4,19,3,50,14,4,10,0,407
404,311,0,0,249,29,24,51,79,24,110,14,18,38,10,567
419,207,0,0,609,17,30,37,38,18,91,17,7,60,24,896
412,267,0,29,1197,15,50,35,62,29,65,12,18,47,0,1572
334,152,0,3,504,12,18,29,32,16,49,12,4,23,0,798
416,170,0,0,454,26,39,19,28,13,86,26,8,25,36,734
424,132,0,0,532,8,47,15,16,13,105,21,4,37,18,804
394,232,0,14,452,18,31,28,47,21,95,26,8,34,0,784
454,196,0,3,929,14,48,26,33,19,53,20,4,42,0,1323
470,209,0,0,681,19,34,31,55,14,82,30,19,39,14,1023
387,166,0,11,673,14,27,22,25,25,67,13,11,37,0,996
313,154,0,0,529,12,29,18,25,23,49,8,4,22,32,774
138,160,0,31,127,15,14,33,53,19,33,7,14,29,0,239
321,177,0,0,975,13,17,14,42,9,60,12,7,23,9,1267
561,356,0,0,536,19,36,37,221,9,121,22,14,45,5,924
388,341,0,0,767,20,15,42,203,9,94,14,4,26,12,1057
360,288,0,7,429,6,30,36,176,7,61,10,9,26,0,723
321,319,0,7,401,11,33,32,169,5,70,13,3,20,0,692
363,191,0,28,402,10,14,24,129,6,72,8,7,25,0,689
399,307,0,2,447,7,30,32,168,5,98,14,8,28,0,765
447,248,0,0,404,8,22,24,125,4,103,20,5,17,9,762
393,227,0,0,405,6,23,22,112,3,86,9,5,24,31,704
323,189,0,0,400,4,10,22,77,3,65,14,0,25,49,643
329,135,0,0,686,3,14,13,84,4,67,8,3,16,14,924
363,167,0,0,706,6,20,26,100,8,51,6,8,24,15,972
309,179,0,54,625,10,26,17,100,3,67,11,2,15,0,916
70,54,0,0,87,8,3,6,8,0,15,5,8,8,7,143
336,230,0,0,468,47,27,22,49,2,83,21,10,30,10,733
321,177,0,4,460,31,17,16,36,1,62,20,6,25,0,748
381,282,0,28,513,107,24,24,87,6,97,28,6,23,0,802
377,258,0,23,483,61,29,30,70,3,93,20,3,22,0,810
335,172,0,0,550,48,12,18,34,5,59,15,3,20,24,819
338,166,0,0,476,24,24,17,36,4,60,21,4,23,64,703
302,155,0,0,549,30,25,17,28,6,74,8,9,21,6,782
478,360,0,0,791,119,23,27,88,8,78,21,32,35,32,1166
263,191,0,7,403,34,19,16,46,3,54,10,7,20,0,655
426,165,0,0,461,39,28,14,39,5,90,17,5,27,22,766
320,246,0,24,468,43,18,20,50,4,71,9,8,28,0,807
337,192,0,0,384,15,33,10,31,6,77,23,2,25,101,590
107,65,0,14,136,12,5,4,11,3,22,4,5,11,0,245
111,61,0,0,45,4,2,6,20,3,10,14,5,9,2,142
312,139,0,43,235,14,30,20,55,11,88,36,12,31,0,432
247,63,0,3,161,8,8,10,21,3,55,16,2,16,0,335
51,39,0,0,39,7,5,5,15,1,9,4,1,2,9,71
161,86,0,0,118,16,10,11,18,4,60,11,4,16,10,205
131,68,0,34,81,13,7,8,13,3,33,7,4,14,0,212
213,141,0,16,181,20,22,26,20,7,61,12,7,32,0,344
360,306,0,5,257,36,32,19,115,8,85,17,13,45,0,558
78,27,0,0,64,0,5,3,9,1,10,5,0,1,5,130
46,24,0,11,33,1,3,1,13,4,14,4,3,4,0,67
409,139,0,22,381,13,36,18,35,5,79,52,7,25,0,681
83,38,0,44,103,5,11,10,20,1,20,7,0,5,0,189
471,331,0,34,345,45,46,48,56,17,87,25,26,58,0,773
381,127,0,74,208,51,30,18,27,11,85,23,9,38,0,498
407,247,0,15,315,28,31,24,73,11,81,32,21,54,0,629
287,79,0,0,348,1,13,10,66,1,60,14,4,23,8,514
238,102,0,30,370,7,15,5,96,1,55,13,1,17,0,530
179,124,0,0,672,11,10,11,88,2,25,3,3,21,70,731
109,44,0,7,95,3,8,5,25,1,21,4,0,19,0,169
226,68,0,0,187,8,16,7,22,0,65,21,0,10,0,332
121,34,0,20,79,8,6,8,4,5,31,7,5,14,0,166
80,21,0,10,43,12,4,5,5,1,29,0,2,4,0,92
92,58,0,10,74,4,6,6,15,5,16,9,6,21,0,146
348,280,0,26,242,68,31,49,56,25,93,19,19,46,0,490
259,246,0,0,324,24,20,49,29,0,65,21,25,49,31,516
230,196,0,9,173,19,29,43,29,4,68,12,19,32,0,353
236,197,0,0,252,15,21,31,20,3,40,23,9,46,21,456
206,323,0,7,197,47,7,55,90,3,63,7,22,45,0,394
239,240,0,8,174,22,11,44,42,3,79,31,14,53,0,362
267,255,0,0,218,21,22,60,56,0,83,24,13,54,0,407
306,357,0,36,300,34,21,57,108,7,92,15,21,73,0,571
237,141,0,8,306,12,22,31,24,3,52,11,14,38,0,485
193,230,0,6,127,34,8,31,43,2,82,22,21,57,0,256
198,143,0,7,211,8,15,28,20,1,50,10,10,32,0,385
223,161,0,2,223,8,22,28,21,1,65,12,10,57,0,385
127,285,0,8,180,32,16,61,46,2,42,15,33,39,0,314
157,268,0,0,194,31,9,43,54,1,44,9,24,39,14,351
216,292,0,0,172,29,24,59,47,6,59,16,37,55,24,324
205,179,0,0,191,22,15,42,29,6,56,12,6,38,29,320
182,177,0,0,169,9,12,32,30,4,53,11,20,37,21,299
174,228,0,0,212,34,11,48,44,3,44,14,13,59,3,341
251,308,0,15,260,38,13,64,74,7,62,25,36,69,0,446
230,335,0,54,998,39,11,53,73,7,48,11,24,50,0,1301
199,222,0,0,148,16,22,33,46,4,65,25,22,52,11,273
194,187,0,0,219,15,14,40,35,0,51,10,13,41,19,362
206,187,0,0,195,9,17,22,39,3,52,19,13,38,7,369
209,136,0,0,111,15,21,19,18,0,61,23,10,24,15,250
171,138,0,0,184,11,17,22,17,4,35,17,14,30,1,325
235,181,0,0,244,14,21,32,26,3,43,10,14,44,36,417
92,156,0,1,122,11,10,29,30,0,17,8,4,27,0,235
27,15,0,3,29,2,2,2,1,1,1,1,1,5,0,58
81,72,0,0,61,7,3,6,12,0,34,8,6,21,0,117
235,230,0,0,250,20,19,38,25,2,55,22,12,49,20,453
164,107,0,9,107,7,12,15,18,5,54,7,9,27,0,233
233,144,0,6,226,11,17,16,18,10,59,12,12,24,0,430
279,191,0,0,247,20,30,33,42,5,59,18,4,39,20,447
394,236,0,16,370,35,14,68,44,11,91,35,11,55,0,652
109,67,0,6,74,9,5,15,13,4,33,5,0,24,0,148
129,69,0,1,147,13,12,9,12,3,26,4,7,15,0,245
320,286,0,8,412,36,19,67,61,5,66,20,19,59,0,674
135,86,0,0,115,8,2,13,15,0,23,11,5,20,4,235
22,17,0,3,32,2,2,5,5,4,9,2,2,0,0,43
34,15,0,1,24,0,1,4,5,0,3,4,8,3,0,46
49,32,0,0,19,0,3,12,12,1,11,8,1,12,0,40
48,35,0,0,65,1,4,5,3,1,8,3,0,10,13,100
47,41,0,3,38,4,3,7,10,1,10,4,13,4,0,73
403,274,0,0,443,21,19,63,54,11,69,33,46,33,4,767
99,81,0,24,87,10,6,23,8,1,23,10,6,16,0,188
51,20,0,0,56,8,0,3,3,0,10,2,0,5,0,96
466,173,0,32,466,38,21,34,26,8,124,17,9,61,0,799
132,48,0,15,122,8,5,3,7,3,34,1,4,6,0,246
53,16,0,4,30,2,5,1,3,1,23,5,0,4,0,59
169,159,0,0,128,7,6,17,40,11,44,5,13,56,14,243
119,101,0,27,103,3,6,22,31,0,24,0,8,12,0,244
98,38,0,0,84,1,10,11,6,3,17,12,4,8,3,145
98,90,0,14,109,18,5,10,12,0,19,8,5,56,0,178
95,60,0,9,82,2,4,4,7,0,30,10,3,15,0,171
60,91,0,16,65,18,8,19,14,1,26,4,8,18,0,116
342,253,0,0,293,23,22,36,20,0,48,29,14,38,129,529
550,346,0,21,421,42,45,46,53,49,100,53,18,56,0,876
57,49,0,17,62,6,1,15,2,0,20,1,1,11,0,128
128,106,0,3,110,17,6,11,27,1,17,6,4,33,0,225
97,77,0,0,87,16,5,14,11,0,16,10,1,22,6,160
88,64,0,13,119,12,5,20,15,5,17,6,2,24,0,178
70,23,0,0,37,2,5,3,4,0,14,6,1,6,3,86
145,100,0,16,134,13,6,15,9,2,29,12,13,19,0,277
95,49,0,10,75,14,5,9,11,3,34,9,3,6,0,135
77,50,0,6,43,7,12,9,7,2,12,3,5,20,0,99
121,53,0,4,125,23,7,16,4,0,26,8,3,9,0,207
180,92,0,0,137,10,3,17,12,1,52,10,9,9,8,278
168,138,0,0,116,16,6,20,24,2,36,13,8,29,2,266
135,55,0,0,174,4,3,16,5,2,28,6,2,10,20,268
124,129,0,0,162,9,14,17,16,1,17,5,6,35,11,284
115,116,0,4,80,12,4,15,18,2,21,4,12,26,0,201
113,71,0,7,88,4,4,18,16,1,20,19,4,15,0,178
40,22,0,5,24,2,0,5,3,0,14,5,1,5,0,56
186,134,0,0,220,9,14,28,18,2,52,15,8,37,1,356
114,42,0,9,97,10,5,2,7,1,18,12,9,12,0,186
114,66,0,0,97,8,22,14,12,4,9,4,11,16,5,172
86,92,0,0,55,6,9,6,10,6,16,7,4,29,2,138
54,25,0,7,31,7,1,4,8,0,13,17,2,9,0,56
113,54,0,7,75,19,3,10,6,4,30,1,3,26,0,147
93,67,0,16,71,9,12,15,6,1,12,12,2,13,0,165
348,186,0,0,481,14,27,35,35,10,82,13,2,32,12,753
169,92,0,5,168,17,12,19,14,1,25,7,6,35,0,298
183,120,0,0,163,16,16,23,34,10,40,12,14,33,5,263
78,34,0,0,37,4,2,5,1,0,24,3,0,8,10,92
108,120,0,0,101,12,3,25,12,4,32,4,4,19,8,206
311,198,0,0,227,21,14,22,42,4,100,20,32,59,25,397
308,188,0,0,452,18,19,29,27,2,86,20,6,45,4,692
247,193,0,0,275,24,16,25,25,5,60,13,11,39,5,492
157,105,0,0,85,48,6,18,6,0,52,8,8,12,5,184
206,93,0,0,178,15,9,27,16,2,36,73,7,21,15,256
306,263,0,20,238,36,13,46,49,11,131,17,17,45,0,462
340,159,0,0,252,24,7,19,16,3,112,32,9,25,8,496
283,151,0,0,214,9,13,38,28,5,101,16,10,20,11,397
272,195,0,0,280,28,14,25,37,7,79,17,9,18,13,500
129,67,0,0,125,11,6,5,18,2,45,7,6,13,16,192
309,155,0,0,446,13,17,28,23,8,62,17,10,25,30,677
186,86,0,0,209,12,4,5,7,4,44,12,9,18,24,342
223,118,0,0,232,10,6,21,22,3,64,8,4,23,39,373
347,190,0,0,676,22,17,26,35,9,95,17,14,21,9,948
246,143,0,0,208,18,14,26,10,0,72,6,18,15,38,380
128,62,0,0,93,20,7,6,11,2,44,8,5,13,4,163
240,160,0,19,176,80,10,30,22,8,99,11,2,19,0,314
72,69,0,0,55,2,6,8,11,0,13,5,11,9,2,129
72,67,0,9,43,9,2,17,13,5,16,10,4,9,0,106
85,68,0,13,96,9,3,17,29,1,26,3,7,10,0,157
50,30,0,8,93,9,4,6,3,8,13,8,1,8,0,121
122,204,0,7,104,25,10,27,33,3,20,9,6,36,0,268
45,51,0,31,72,1,5,8,4,0,12,9,3,6,0,151
367,265,0,0,312,21,10,49,52,2,87,39,17,38,18,611
76,41,0,0,42,4,3,15,1,1,25,17,0,9,2,82
40,23,0,8,31,2,3,8,4,1,9,7,2,3,0,63
46,26,0,0,21,4,2,4,5,0,15,5,1,3,5,49
47,35,0,1,31,0,2,6,2,3,13,1,0,18,0,69
75,62,0,0,76,7,0,12,6,1,18,10,1,25,3,130
145,99,0,0,116,17,7,18,19,2,31,13,6,16,8,223
78,36,0,8,34,4,3,9,11,2,30,6,1,11,0,79
186,88,0,6,113,10,19,15,7,4,60,8,7,15,0,248
443,232,0,22,378,22,34,40,29,7,79,34,15,54,0,761
74,55,0,10,52,10,12,9,4,2,19,5,5,14,0,111
143,67,0,0,131,14,11,14,4,3,48,13,3,21,12,198
93,58,0,19,57,4,7,16,7,3,22,3,2,20,0,143
136,76,0,0,69,10,9,12,15,6,31,11,6,25,2,154
153,117,0,34,157,12,6,15,20,6,36,14,6,27,0,319
168,71,0,0,146,8,1,11,9,4,39,10,5,23,5,270
42,21,0,12,22,1,2,3,6,0,14,3,0,4,0,64
225,194,0,0,200,13,8,21,26,9,48,14,21,55,23,381
214,387,0,6,215,25,24,40,108,2,37,7,45,86,0,448
247,320,0,0,195,13,18,37,58,6,49,10,26,83,15,447
259,207,0,0,319,11,13,31,29,1,55,10,18,65,11,541
273,309,0,4,212,27,14,45,67,3,68,13,27,96,0,438
192,229,0,8,190,19,9,32,42,1,35,9,21,87,0,364
223,253,0,47,612,19,25,43,50,3,45,6,26,49,0,869
226,241,0,0,159,22,10,23,58,3,35,17,16,84,0,358
191,226,0,0,178,12,11,37,43,6,28,6,16,63,32,341
261,300,0,59,243,18,15,43,62,9,35,7,35,120,0,519
283,251,0,0,289,18,8,26,15,0,56,17,17,105,21,540
284,264,0,0,308,21,16,16,18,3,49,13,14,70,84,552
312,288,0,0,256,18,12,24,52,5,81,25,17,119,10,493
105,54,0,0,68,16,6,6,5,0,34,7,2,11,9,131
99,50,0,0,70,10,6,4,13,1,31,5,2,8,0,139
118,49,0,0,95,5,9,11,6,2,30,2,1,7,8,181
153,81,0,0,151,4,9,13,16,7,29,9,2,13,8,275
323,236,0,0,275,30,20,24,33,6,74,29,72,48,9,489
269,131,0,0,171,15,9,24,19,3,81,14,7,25,1,373
389,188,0,0,474,11,32,24,37,44,91,30,5,33,3,741
277,187,0,0,345,12,22,25,33,36,67,14,5,22,51,522
382,167,0,0,716,7,31,24,28,30,82,17,2,35,22,987
329,233,0,0,401,19,26,34,28,50,66,18,4,45,51,622
56,47,0,2,68,2,1,4,7,8,11,7,0,5,0,128
116,55,0,0,82,12,9,2,5,13,22,9,1,12,11,157
96,59,0,0,88,5,5,17,15,9,24,14,1,2,5,146
39,23,0,1,36,2,3,4,3,9,10,3,0,5,0,60
56,38,0,0,49,0,6,13,3,15,10,3,0,14,1,78
51,19,0,0,16,2,1,8,3,15,12,2,0,6,2,35
302,223,0,0,281,11,17,36,46,36,55,15,7,35,13,535
324,208,0,0,524,13,30,29,37,47,74,21,3,30,36,736
54,33,0,0,29,4,3,15,6,6,11,1,3,8,3,56
193,121,0,18,120,9,21,16,28,8,47,12,8,24,0,279
120,59,0,0,84,6,8,9,13,2,38,8,5,15,2,157
192,191,0,0,448,20,16,46,28,12,33,17,10,27,52,570
261,148,0,0,302,36,25,42,30,12,56,26,5,23,2,454
175,187,0,0,153,30,6,36,56,4,43,5,10,31,15,279
63,43,0,10,57,10,3,10,6,2,20,4,4,17,0,97
291,212,0,0,183,24,12,35,36,4,54,8,9,50,18,436
258,158,0,0,194,11,10,25,26,7,58,19,4,48,5,397
54,24,0,0,16,8,1,6,5,0,19,3,2,12,2,36
256,138,0,0,208,14,10,25,17,3,82,19,3,26,16,387
151,121,0,0,196,16,7,29,11,3,34,17,5,22,19,305
87,57,0,12,55,5,4,15,10,4,26,8,2,10,0,127
279,211,0,17,199,39,19,21,35,3,48,36,16,32,0,457
280,170,0,0,369,36,18,24,31,2,51,30,19,25,4,579
70,31,0,1,38,6,9,4,2,0,9,4,1,3,0,102
61,15,0,0,41,2,1,0,1,0,9,9,0,2,2,91
59,26,0,0,50,3,2,1,3,5,13,2,3,1,0,102
86,40,0,2,60,9,0,3,5,0,11,6,3,10,0,141
71,43,0,0,39,6,2,7,3,0,13,12,1,3,4,102
238,287,0,19,154,18,12,31,71,8,52,3,16,121,0,366
42,33,0,13,24,7,6,1,11,1,12,4,3,10,0,57
47,13,0,3,25,2,1,2,2,0,5,12,0,6,0,58
38,12,0,0,30,4,1,4,2,0,18,5,0,7,5,34
27,28,0,0,37,3,2,11,8,0,6,1,0,5,1,55
72,47,0,5,43,11,3,8,9,0,14,4,8,15,0,95
120,61,0,1,71,8,6,5,15,2,39,23,7,28,0,120
193,87,0,5,225,21,7,11,27,4,65,20,1,20,0,334
176,95,0,8,116,25,14,23,18,7,62,6,2,26,0,212
91,83,0,0,83,18,5,11,4,3,22,5,7,11,1,170
41,44,0,7,56,12,4,3,9,0,12,7,5,11,0,85
136,89,0,0,110,14,5,13,7,2,27,9,2,46,11,199
159,103,0,9,138,4,11,15,20,57,24,13,5,28,0,232
111,43,0,0,103,2,4,3,2,2,30,4,0,9,10,191
95,41,0,4,112,6,6,10,16,5,15,12,1,5,0,176
85,79,0,9,36,6,5,9,17,2,28,3,2,12,0,125
186,71,0,12,143,11,15,17,20,3,38,22,14,26,0,246
111,92,0,0,94,12,7,7,24,2,32,5,7,19,2,180
72,37,0,5,127,3,18,9,8,4,12,5,1,15,0,166
127,125,0,13,85,16,10,24,15,2,29,7,7,26,0,214
257,199,0,16,197,19,34,57,35,4,55,15,21,32,0,397
33,11,0,0,34,0,2,0,1,5,11,5,2,4,3,45
53,27,0,0,21,1,2,5,4,5,18,5,2,4,7,48
235,219,0,0,472,23,19,40,29,17,53,28,31,27,13,646
298,168,0,0,289,18,15,30,15,22,64,29,13,28,3,518
177,122,0,5,245,15,12,23,28,22,43,11,15,23,0,357
213,123,0,7,252,18,10,16,20,11,50,20,10,19,0,421
269,180,0,0,260,34,15,35,30,12,74,16,17,32,12,432
273,219,0,0,290,36,25,24,61,10,86,13,18,24,38,447
236,191,0,8,242,20,6,33,46,17,50,24,20,29,0,432
275,293,0,42,183,49,6,32,90,24,104,6,51,23,0,408
377,234,0,0,341,24,21,38,34,23,98,30,29,34,45,576
283,264,0,0,322,31,18,33,68,14,65,19,51,31,27,512
290,206,0,0,258,30,13,32,54,11,99,27,26,35,21,406
249,269,0,0,234,24,19,39,55,11,71,14,16,30,15,458
234,226,0,0,209,11,10,28,32,12,62,20,46,40,31,377
281,189,0,0,437,31,18,42,30,24,82,17,31,37,27,568
143,204,0,0,789,12,16,42,67,12,25,10,25,22,11,894
230,132,0,0,268,12,12,20,19,14,53,14,16,25,11,434
280,155,0,0,279,13,15,29,19,14,63,27,12,14,15,493
275,138,0,0,216,14,15,22,15,20,65,8,22,31,18,399
311,177,0,0,294,19,8,38,22,19,75,22,13,28,28,510
126,47,0,13,161,8,9,7,8,7,42,6,5,14,0,241
186,85,0,6,152,12,11,12,11,3,40,26,6,18,0,290
90,41,0,10,64,6,10,8,12,13,18,4,6,10,0,118
46,24,0,9,48,1,2,4,5,1,10,1,1,4,0,98
39,5,0,6,17,3,2,0,1,0,14,2,0,0,0,45
48,14,0,0,30,3,3,4,2,0,12,0,2,2,0,64
78,23,0,0,36,2,5,5,2,0,23,3,0,7,7,83
155,82,0,0,149,7,10,11,9,2,51,6,0,14,1,275
115,20,0,0,128,2,11,3,0,32,17,5,3,14,0,176
68,33,0,7,54,15,7,7,2,0,11,4,0,5,0,111
57,23,0,7,64,5,3,3,5,1,5,4,0,9,0,116
151,70,0,12,160,4,8,9,33,2,37,6,3,11,0,280
50,24,0,0,33,5,3,3,2,0,5,10,1,4,0,74
179,93,0,10,109,16,14,12,17,3,38,13,7,16,0,255
23,11,0,0,21,0,0,2,0,1,5,5,0,2,0,40
113,61,0,13,102,9,4,11,14,9,34,8,2,10,0,188
25,14,0,0,13,2,3,5,3,7,12,1,2,0,0,17
70,46,0,1,42,10,1,6,7,5,16,8,4,9,0,93
121,78,0,0,119,16,9,6,10,9,26,14,3,16,5,204
176,132,0,13,137,15,7,16,17,21,39,11,16,18,0,298
150,68,0,18,214,15,10,10,10,6,31,6,8,23,0,331
18,12,0,3,10,0,0,1,3,0,7,1,2,7,0,22
194,115,0,0,169,25,13,27,15,6,43,19,8,17,11,294
213,135,0,0,203,13,9,14,28,1,46,12,8,33,20,367
331,114,0,0,315,16,30,24,23,1,71,23,12,13,7,540
28,20,0,0,45,0,1,7,0,0,9,3,1,3,5,64
51,34,0,0,37,1,2,7,8,1,13,3,6,10,10,61
81,18,0,5,57,4,18,1,4,0,16,3,3,4,0,108
358,151,0,0,252,35,33,16,44,11,59,28,7,22,4,502
442,257,0,0,449,22,19,51,46,21,114,29,17,34,25,770
303,142,0,0,289,19,22,22,23,14,42,11,5,68,13,495
51,13,0,6,19,5,7,0,1,0,22,5,0,7,0,42
63,18,0,0,41,0,7,5,5,0,16,4,0,4,11,70
50,29,0,12,29,11,8,4,4,0,12,4,0,11,0,66
144,45,0,0,104,7,8,12,12,1,45,5,0,17,4,182
138,37,0,0,120,7,7,6,8,1,45,3,0,4,11,203
24,13,0,0,13,5,4,3,1,0,5,1,0,6,4,21
57,28,0,23,50,1,8,6,5,17,11,0,1,10,0,99
99,47,0,18,92,14,5,2,5,4,35,3,3,27,0,158
93,6,0,0,31,6,10,4,0,2,14,6,0,4,2,82
514,195,0,0,368,31,35,24,23,2,100,54,12,21,46,729
82,36,0,5,72,11,3,9,5,0,29,5,0,8,0,125
73,28,0,0,65,7,5,7,5,1,22,6,1,4,0,108
169,67,0,0,218,11,12,5,18,7,21,12,0,14,11,343
118,58,0,0,148,8,7,1,20,5,33,10,5,9,4,222
42,12,0,10,51,4,8,3,4,0,9,2,0,6,0,79
134,41,0,2,126,10,3,7,2,4,33,3,1,13,0,227
106,120,0,12,126,9,5,6,16,0,20,8,2,90,0,208
100,62,0,18,113,18,4,16,18,2,17,1,2,8,0,207
82,54,0,0,44,27,8,5,5,2,32,4,7,4,7,79
86,27,0,0,49,5,3,9,3,5,26,3,0,6,9,93
79,34,0,13,54,16,5,4,8,0,24,9,1,5,0,108
62,46,0,3,64,3,3,1,13,3,22,2,4,12,0,112
69,42,0,6,36,7,1,9,7,8,20,4,7,12,0,78
267,200,0,7,275,50,18,39,41,10,49,22,15,25,0,480
228,79,0,0,254,20,28,16,13,0,56,18,5,18,21,366
54,12,0,2,31,3,3,2,2,2,6,7,0,4,0,70
97,34,0,9,63,2,4,4,15,2,21,10,2,7,0,136
19,23,0,0,21,2,1,6,1,3,7,0,0,8,2,33
48,9,0,0,20,5,3,3,0,3,10,4,3,5,2,39
44,39,0,1,24,6,3,6,6,1,18,8,4,2,0,54
61,26,0,0,46,1,3,0,10,1,11,6,1,2,5,93
49,6,0,0,57,1,6,1,0,5,6,0,0,2,3,88
88,20,0,9,90,0,5,3,3,0,18,5,1,3,0,169
135,31,0,0,126,0,3,10,3,4,32,6,0,5,5,224
164,96,0,42,160,6,12,17,20,11,38,6,7,18,0,327
261,102,0,0,264,8,11,16,34,5,61,24,0,12,4,452
275,107,0,0,285,8,9,7,18,11,63,23,6,9,49,464
414,131,0,0,558,8,33,13,30,22,80,21,6,22,23,845
321,120,0,0,310,4,17,23,22,11,68,15,4,26,9,552
366,198,0,47,254,22,13,19,51,13,86,23,4,33,0,601
13,9,0,1,18,0,0,0,0,0,2,1,1,0,0,37
297,125,0,0,664,9,17,14,11,7,65,15,4,74,0,870
409,191,0,0,542,19,25,43,26,10,107,16,5,88,25,778
273,97,0,0,298,14,15,14,6,5,95,10,2,50,11,446
35,14,0,0,44,1,4,4,1,0,12,3,2,9,3,54
32,14,0,1,17,2,2,5,0,0,13,1,1,0,0,40
46,11,0,0,57,3,7,3,0,0,7,5,0,7,10,72
47,19,0,5,48,0,0,4,2,0,13,1,2,4,0,93
39,6,0,0,16,3,5,1,1,0,4,2,1,3,3,38
35,20,0,11,74,0,0,6,5,0,13,0,1,3,0,112
26,19,0,4,50,3,5,5,2,0,14,0,0,0,0,70
23,4,0,7,54,0,2,0,0,0,7,4,0,2,0,73
101,41,0,13,49,1,4,9,5,58,28,5,7,8,0,79
24,5,0,3,7,1,2,1,3,2,7,3,0,2,0,18
13,23,0,0,10,2,5,5,7,0,6,0,1,2,1,17
173,102,0,0,114,10,4,13,29,11,37,11,5,25,8,236
160,120,0,29,151,17,9,20,13,11,41,14,9,25,0,301
151,95,0,1,108,16,4,11,17,10,54,6,11,20,0,206
108,41,0,0,95,7,6,3,4,7,29,10,0,8,1,169
37,21,0,1,23,2,2,0,4,4,13,8,1,4,0,44
59,13,0,0,15,0,3,7,0,3,17,5,0,8,1,43
151,97,0,6,148,17,9,13,9,9,37,8,2,12,0,286
98,24,0,16,143,5,15,3,3,1,17,6,5,9,0,217
127,42,0,7,147,3,7,16,6,6,29,6,2,8,0,240
158,113,0,22,157,31,15,14,23,2,38,3,7,18,0,299
82,75,0,15,46,9,6,6,18,12,22,4,1,2,0,138
66,36,0,10,52,6,2,8,10,3,24,3,1,12,0,95
313,148,0,0,338,7,14,28,30,5,88,9,0,25,23,570
337,122,0,0,275,13,26,14,15,4,109,17,2,19,0,515
23,14,0,0,45,0,0,8,1,1,8,2,0,6,3,53
139,65,0,7,119,14,7,10,3,3,40,10,2,28,0,213
28,24,0,8,23,5,3,2,0,10,6,1,5,9,0,42
52,35,0,5,51,5,3,9,2,5,19,7,4,6,0,83
32,19,0,7,21,0,4,2,4,3,8,4,3,6,0,45
241,141,0,0,297,22,24,20,17,9,66,16,3,14,29,459
298,147,0,0,262,31,21,28,32,2,87,18,6,15,19,448
206,186,0,7,846,32,34,40,36,2,52,8,15,14,0,1012
248,190,0,22,376,36,35,33,50,4,61,7,11,30,0,569
346,154,0,0,399,27,26,32,35,5,99,28,5,20,0,622
415,197,0,0,368,35,26,34,33,2,97,30,8,33,20,662
340,172,0,0,366,33,31,26,16,5,84,25,7,38,13,600
252,115,0,17,398,22,10,26,24,1,41,11,14,20,0,613
412,173,0,0,362,19,16,34,37,1,84,30,6,28,54,638
346,227,0,0,314,45,29,40,47,5,70,26,23,34,2,566
282,239,0,0,301,38,16,29,69,0,78,17,5,31,47,492
380,293,0,7,264,79,36,41,62,6,99,30,5,47,0,539
369,198,0,0,333,32,26,28,23,4,62,33,8,35,9,640
275,142,0,0,298,13,31,16,18,2,50,21,3,33,3,525
250,119,0,0,311,15,23,19,27,4,54,8,7,19,17,487
278,165,0,0,293,24,39,24,43,2,74,14,11,9,33,463
248,180,0,3,339,33,21,36,62,0,57,14,5,23,0,519
315,152,0,0,294,19,23,24,30,4,66,24,9,28,16,518
150,41,0,3,145,8,13,21,6,1,17,4,2,12,0,255
424,210,0,0,419,15,31,26,31,66,69,5,8,28,39,735
263,124,0,11,239,13,25,12,11,50,50,13,7,18,0,438
274,147,0,0,374,10,22,19,13,44,60,18,4,22,25,558
146,102,0,18,128,24,3,19,17,30,27,12,5,25,0,232
260,113,0,0,314,10,18,13,18,41,48,12,8,12,3,504
279,126,0,0,341,13,18,13,8,33,58,13,4,30,22,534
220,98,0,0,198,9,16,8,11,33,44,10,7,17,19,342
372,310,0,42,335,60,16,30,67,109,72,22,17,33,0,633
213,128,0,0,265,7,14,15,18,44,46,9,12,23,15,403
148,188,0,14,176,20,16,20,25,56,42,9,14,21,0,303
308,259,0,1,190,36,23,24,42,85,42,20,11,38,0,437
172,186,0,0,184,25,16,23,28,53,31,9,13,16,0,328
200,129,0,15,115,43,17,16,23,36,29,15,11,17,0,252
313,148,0,0,323,14,18,21,18,49,54,21,11,27,43,508
324,143,0,0,361,22,19,9,8,67,63,17,6,24,17,576
343,137,0,0,281,13,19,13,15,68,49,24,2,20,17,521
310,187,0,0,385,16,25,25,12,57,48,18,10,31,20,620
335,177,0,0,471,16,19,33,9,57,68,15,6,25,52,683
406,239,0,9,430,22,27,28,24,84,83,32,15,31,0,738
386,222,0,32,426,24,20,27,30,77,67,12,13,46,0,750
378,162,0,0,556,15,33,14,15,57,70,9,12,36,40,795
356,174,0,0,472,30,20,20,11,44,69,16,15,24,13,740
430,211,0,0,443,15,30,26,18,61,80,17,13,44,13,767
412,213,0,0,465,31,31,24,18,70,65,27,18,35,85,686
300,143,0,3,404,11,20,9,16,48,50,23,9,9,0,655
414,218,0,0,625,21,38,19,10,94,52,24,9,35,62,893
352,171,0,0,447,15,41,17,8,47,56,12,6,22,28,718
399,157,0,0,503,13,33,26,11,49,49,10,9,38,6,815
413,199,0,0,424,15,17,21,29,75,72,18,15,24,34,716
299,111,0,37,554,7,19,14,12,40,44,20,6,30,0,809
15,72,0,4,678,0,0,30,1,2,0,1,0,2,0,733
94,32,0,17,51,2,8,5,13,33,27,1,0,9,0,96
412,168,0,11,675,18,29,20,15,64,51,10,6,33,0,1020
496,249,0,0,571,23,28,24,31,108,73,24,11,40,62,892
346,371,0,106,342,57,39,28,74,160,55,21,21,39,0,671
453,126,0,20,402,22,20,18,6,72,115,19,10,15,0,704
348,131,0,0,369,11,27,18,10,77,78,5,7,25,17,573
387,177,0,0,495,9,42,15,17,68,78,10,10,39,15,756
276,105,0,5,206,14,19,8,9,32,56,15,5,17,0,417
350,138,0,0,426,12,30,15,10,57,51,19,8,26,23,663
313,76,0,10,369,10,13,9,7,53,79,16,2,22,0,557
239,79,0,13,531,3,18,13,2,35,28,16,4,18,0,725
263,185,0,0,404,19,14,19,16,53,40,14,18,31,32,596
334,129,0,0,411,13,14,21,15,45,43,13,4,31,26,649
338,130,0,0,276,11,16,16,20,60,68,14,10,23,10,496
292,181,0,0,360,27,22,25,25,54,49,11,6,29,14,571
310,128,0,0,2031,8,30,11,11,43,47,7,5,32,70,2205
243,178,0,0,340,17,18,27,16,40,48,10,14,28,9,534
271,149,0,19,325,18,13,19,21,56,48,11,7,20,0,551
168,71,0,14,522,10,6,7,9,20,36,3,2,17,0,665
204,128,0,6,678,13,20,23,14,41,26,13,10,36,0,820
258,214,0,0,409,22,20,22,31,64,54,29,10,41,16,572
139,70,0,13,452,5,13,4,7,14,9,2,5,7,0,608
137,190,0,28,531,18,14,13,21,49,22,3,13,16,0,717
146,280,0,17,111,46,13,30,47,78,33,4,12,33,0,258
203,159,0,0,145,24,7,10,29,42,42,6,7,14,40,286
383,173,0,10,366,23,23,21,20,94,63,13,9,37,0,629
319,206,0,0,328,20,35,24,16,65,59,12,13,36,11,562
328,160,0,23,417,24,22,13,11,35,43,23,17,34,0,706
403,186,0,0,494,16,29,17,7,53,56,15,8,21,11,850
239,85,0,0,331,11,19,10,13,26,65,10,11,16,22,452
224,22,0,0,328,4,17,5,1,12,37,7,8,13,35,435
445,121,0,0,410,19,20,25,15,33,96,25,6,25,6,706
87,49,0,18,66,17,6,7,7,16,25,6,3,7,0,126
37,41,0,0,16,12,2,3,7,3,10,4,0,5,13,35
32,5,0,4,16,1,4,2,1,5,6,2,0,1,0,35
182,92,0,1,155,9,10,5,8,37,37,4,5,13,0,302
101,122,0,0,140,21,10,17,17,19,29,9,8,9,2,222
86,38,0,12,73,1,2,3,4,6,24,3,15,8,0,143
259,128,0,1,343,7,8,8,13,18,63,12,34,9,0,559
311,176,0,46,293,35,10,16,18,48,77,11,46,19,0,546
42,70,0,0,36,7,8,10,11,12,5,4,4,2,19,66
59,53,0,29,48,10,14,18,8,22,17,2,4,16,0,78
59,37,0,11,73,2,0,3,13,13,19,3,1,5,0,121
226,102,0,0,185,25,18,13,14,23,58,15,4,25,9,309
53,34,0,14,119,19,7,3,2,9,16,0,0,3,0,161
197,128,0,14,160,25,21,19,27,25,69,2,5,15,0,291
193,205,0,5,247,48,19,16,23,37,53,12,10,17,0,415
339,187,0,19,257,29,21,15,33,33,74,16,13,23,0,545
214,62,0,0,332,6,16,8,12,34,28,10,5,15,16,458
262,95,0,0,318,8,20,6,12,32,63,10,13,13,15,483
296,221,0,0,328,40,25,15,26,44,63,21,18,22,42,529
211,129,0,5,277,26,20,12,7,26,60,21,10,12,0,428
267,174,0,0,247,30,20,12,16,31,66,11,14,22,6,460
275,214,0,8,251,32,19,19,17,26,87,11,16,40,0,481
213,86,0,0,210,12,17,10,10,16,65,13,10,11,0,345
286,148,0,52,348,30,16,14,21,33,59,15,16,21,0,609
298,127,0,22,338,28,22,9,8,16,86,27,5,19,0,565
282,151,0,117,1326,17,23,27,17,25,57,25,13,10,0,1662
335,140,0,4,329,31,17,14,23,16,87,32,8,23,0,557
236,91,0,6,284,25,14,7,9,24,57,15,7,17,0,442
274,78,0,0,687,6,16,9,10,17,29,11,7,7,20,907
154,39,0,0,295,9,14,1,5,29,31,2,1,10,69,317
148,76,0,0,237,11,5,6,6,36,42,6,6,9,55,279
142,102,0,0,218,17,15,12,6,18,26,12,6,13,10,327
283,237,0,3,302,41,18,23,42,51,88,13,23,22,0,504
217,227,0,0,230,28,17,24,22,32,59,6,24,36,9,417
327,230,0,0,294,41,25,34,22,49,111,15,25,24,31,474
294,227,0,0,311,55,26,30,29,40,87,20,29,35,21,460
276,177,0,25,227,37,23,27,19,35,78,15,10,12,0,449
295,165,0,6,297,18,18,22,28,26,31,14,10,154,0,442
241,94,0,0,478,8,11,12,6,14,38,8,10,89,7,610
291,203,0,16,182,31,25,20,46,46,42,24,16,77,0,365
351,144,0,0,248,12,27,9,18,43,66,17,10,86,3,452
226,108,0,0,246,20,23,16,15,28,54,5,1,18,12,388
213,97,0,20,113,19,13,9,12,31,42,16,9,46,0,246
87,36,0,0,58,14,10,0,5,7,20,1,1,5,13,105
167,52,0,22,125,11,12,19,16,6,30,15,2,10,0,245
400,211,0,23,533,26,34,22,25,44,78,18,10,45,0,865
415,205,0,8,318,35,25,32,31,45,88,21,12,57,0,600
384,163,0,33,376,15,31,15,16,41,78,30,12,40,0,678
412,188,0,7,325,37,19,22,17,38,93,20,14,47,0,625
124,97,0,14,172,23,17,13,12,15,34,12,4,11,0,266
98,40,0,0,64,2,9,10,7,18,14,5,1,7,0,129
163,59,0,89,630,1,5,2,37,15,24,23,1,12,0,821
101,21,0,0,408,1,4,5,13,4,14,4,0,11,25,449
150,87,0,0,137,11,9,4,30,18,59,9,3,26,4,201
84,45,0,0,62,8,5,3,7,17,24,2,2,4,6,113
87,62,0,33,46,13,8,7,3,21,25,1,2,2,0,146
201,62,0,0,152,9,16,5,8,22,44,16,3,15,14,263
314,192,0,22,432,16,26,32,31,11,67,15,24,29,0,709
160,142,0,53,651,6,19,15,35,3,29,4,23,15,0,857
235,229,0,49,402,10,13,27,40,3,67,6,52,30,0,667
300,166,0,0,1244,4,20,12,33,7,63,14,21,25,2,1509
249,303,0,0,270,11,22,20,78,5,75,9,88,30,23,461
310,305,0,50,512,23,49,22,82,4,84,16,67,110,0,720
225,224,0,27,267,15,20,21,53,7,45,4,57,38,0,483
283,217,0,16,298,14,35,22,45,13,59,8,56,29,0,533
323,284,0,2,244,14,42,29,58,6,86,9,56,52,0,501
208,190,0,24,439,13,19,16,43,0,34,1,48,21,0,666
213,234,0,0,380,21,29,34,30,5,41,4,48,17,21,577
266,251,0,0,277,18,15,14,27,5,60,9,47,26,100,473
308,189,0,22,350,10,25,23,26,6,87,14,26,36,0,616
245,142,0,0,328,7,14,14,37,6,59,7,29,17,55,470
252,138,0,0,473,1,15,18,22,7,57,9,24,30,1,679
278,136,0,0,265,8,16,13,22,4,47,14,20,37,30,468
282,176,0,0,243,7,7,13,28,2,73,23,30,33,15,470
287,218,0,3,281,12,29,15,48,7,64,10,47,18,0,539
160,107,0,0,165,4,7,15,40,5,49,2,12,15,0,283
288,262,0,0,324,10,26,28,62,6,59,13,54,38,35,543
314,186,0,0,282,8,14,13,40,3,73,17,25,29,31,529
102,187,0,49,206,5,12,26,37,8,45,7,47,20,0,337
222,218,0,23,427,9,20,33,50,1,39,9,45,19,0,665
186,281,0,18,197,13,14,28,75,5,42,9,79,30,0,387
224,275,0,0,222,24,12,23,63,2,60,14,53,23,28,419
300,228,0,0,513,7,22,27,49,2,64,12,34,22,12,790
280,121,0,24,401,10,17,24,15,0,57,23,16,25,0,639
375,256,0,0,318,18,34,36,58,8,91,18,47,35,1,603
202,94,0,0,540,3,15,9,14,2,23,1,17,19,0,733
212,181,0,0,203,11,14,15,34,10,52,9,29,22,24,376
250,204,0,0,206,10,15,21,55,5,85,13,49,18,3,386
199,170,0,0,390,7,15,31,35,3,44,1,44,8,13,558
227,258,0,6,212,16,24,31,54,7,55,10,67,21,0,418
236,145,0,17,336,12,15,27,37,2,60,16,21,24,0,520
298,162,0,0,286,6,27,14,18,6,69,14,25,18,8,541
298,151,0,4,393,6,32,16,28,5,85,8,15,20,0,631
266,234,0,0,393,16,33,24,38,6,57,14,29,40,25,611
388,185,0,0,504,3,35,23,29,10,71,17,24,41,32,792
278,159,0,55,441,8,15,14,42,4,48,14,28,19,0,741
361,242,0,12,521,18,25,38,53,9,59,6,29,34,0,865
369,187,0,0,400,8,23,27,27,12,50,4,36,41,44,684
396,217,0,0,456,16,38,17,30,8,89,17,29,38,20,767
254,148,0,14,599,5,20,19,44,7,26,6,22,37,0,829
265,173,0,29,258,12,21,23,50,5,66,20,39,33,0,456
303,185,0,0,242,11,17,35,28,2,83,12,25,25,6,486
274,162,0,0,213,7,26,10,32,3,88,15,24,26,19,399
284,211,0,0,347,13,19,19,44,7,67,17,32,38,9,577
135,23,0,0,645,1,9,7,3,3,31,9,0,21,16,703
280,83,0,0,423,10,19,14,14,7,55,23,7,14,5,618
260,182,0,7,297,16,20,25,49,8,57,17,16,31,0,507
337,92,0,1,362,5,18,8,16,4,61,11,9,31,0,629
210,105,0,0,262,11,9,12,21,11,67,12,14,20,13,387
430,173,0,9,340,13,31,30,18,7,108,21,22,22,0,680
348,215,0,5,410,17,24,22,48,4,91,13,22,33,0,704
282,165,0,0,690,17,20,21,29,7,55,11,20,49,7,901
357,118,0,0,305,12,33,23,20,5,58,10,18,29,20,552
255,53,0,0,277,4,26,5,15,5,44,12,5,22,9,438
251,69,0,9,410,4,21,8,6,10,43,17,3,15,0,612
287,91,0,0,341,6,16,16,9,8,71,8,16,20,22,527
223,90,0,9,331,8,23,9,5,8,48,13,7,18,0,514
404,147,0,0,390,12,32,10,34,16,90,27,22,53,8,637
150,39,0,0,506,0,4,5,2,2,16,10,2,9,2,643
119,106,0,24,90,11,11,13,10,5,28,5,17,13,0,226
238,155,0,4,227,11,18,16,24,6,55,13,26,42,0,413
369,231,0,3,378,24,26,29,36,5,78,13,37,49,0,684
87,44,0,5,58,3,4,7,12,0,29,2,9,10,0,118
226,122,0,18,167,16,20,16,18,2,40,17,18,37,0,349
214,118,0,17,215,11,16,13,21,3,43,5,29,71,0,352
265,134,0,15,621,2,16,11,15,5,54,7,13,54,0,858
402,262,0,4,424,19,26,29,51,5,86,20,31,88,0,737
313,210,0,19,254,15,24,24,28,1,76,14,30,74,0,510
325,177,0,0,282,15,38,19,18,8,77,7,17,50,15,520
382,186,0,0,569,9,29,20,19,5,68,32,34,72,0,849
301,208,0,0,346,13,30,26,31,4,50,22,41,52,24,562
396,143,0,36,307,12,22,27,23,29,74,17,10,27,0,641
260,159,0,0,746,1,23,13,26,37,51,9,10,27,1,967
221,117,0,93,679,8,12,12,18,22,52,6,13,59,0,908
430,126,0,31,376,7,25,14,36,46,77,18,10,32,0,698
371,145,0,1,437,11,16,17,18,23,54,15,9,29,0,762
342,169,0,0,380,7,28,12,18,22,55,12,3,24,27,683
436,173,0,1,286,5,32,16,30,52,99,15,17,34,0,596
356,206,0,105,358,48,29,28,29,12,67,12,21,38,0,741
327,150,0,0,495,14,22,18,10,11,74,22,13,25,4,759
162,100,0,6,119,10,6,7,21,3,30,9,9,21,0,271
267,142,0,18,231,38,27,28,32,0,61,16,12,34,0,410
241,114,0,20,212,23,16,12,14,4,53,17,9,17,0,422
401,135,0,15,352,83,30,19,21,1,57,16,14,20,0,642
271,151,0,16,292,13,22,21,36,13,52,7,20,32,0,514
104,66,0,46,94,9,10,13,16,2,26,2,10,16,0,206
339,133,0,44,259,20,36,16,20,6,67,22,19,41,0,528
264,138,0,4,259,6,18,25,24,3,38,7,10,26,0,508
187,97,0,19,187,22,19,5,9,0,33,7,13,25,0,357
237,84,0,32,306,3,22,14,6,4,48,9,6,21,0,526
216,115,0,22,179,6,16,12,26,10,50,14,17,24,0,357
60,49,0,0,98,2,10,6,6,0,13,1,9,6,2,152
100,38,0,14,89,3,10,5,6,10,41,2,0,10,0,154
406,304,0,67,330,21,27,35,66,54,100,23,45,44,0,692
160,79,0,5,814,1,15,16,15,15,31,2,7,12,0,944
225,116,0,0,715,7,23,23,23,18,39,5,20,34,26,838
409,193,0,0,368,12,39,21,13,32,90,11,11,35,31,675
400,177,0,4,444,19,30,18,29,27,80,12,25,31,0,754
432,181,0,0,468,10,42,26,22,59,72,23,32,37,39,719
440,314,0,20,741,33,35,40,58,82,80,15,47,45,0,1080
396,219,0,2,414,18,24,28,45,34,84,17,28,37,0,716
284,175,0,5,255,13,24,19,38,23,62,12,20,17,0,491
234,148,0,0,255,16,25,23,28,27,39,7,30,27,0,415
234,91,0,14,196,21,9,16,8,5,50,6,13,20,0,387
181,64,0,9,182,7,16,8,2,8,19,6,2,16,0,352
97,51,0,7,110,3,2,7,4,0,9,1,0,41,0,198
72,69,0,2,41,7,7,4,26,2,22,3,8,13,0,92
325,206,0,20,283,16,47,27,37,1,72,2,53,41,0,538
45,75,0,0,41,17,5,2,7,1,3,0,7,11,32,76
327,187,0,0,499,13,27,35,38,7,65,16,23,35,26,728
293,190,0,11,286,21,32,25,38,8,57,17,24,39,0,519
97,50,0,0,66,5,11,10,1,6,20,13,2,18,3,124
142,89,0,2,151,8,1,13,10,2,34,7,5,26,0,278
439,254,0,4,457,16,30,34,24,15,96,18,15,55,0,851
405,271,0,0,589,24,27,40,46,14,102,16,17,45,9,925
327,136,0,0,336,21,17,19,11,3,57,27,9,27,18,590
358,99,0,0,289,12,24,13,5,4,104,15,5,38,31,495
56,74,0,17,49,8,4,5,19,0,20,4,22,11,0,103
294,283,0,2,287,22,27,25,64,6,83,19,45,40,0,535
396,314,0,3,387,25,55,43,74,4,85,12,43,66,0,693
280,121,0,8,233,14,22,18,15,0,40,16,19,29,0,469
132,83,0,33,99,7,24,13,15,1,35,5,11,19,0,217
327,119,0,0,353,7,24,21,25,14,52,24,8,53,5,566
238,133,0,3,360,9,10,13,30,7,55,22,15,24,0,549
418,171,0,20,347,12,26,23,38,9,78,11,21,36,0,702
149,133,0,7,141,15,11,11,26,3,41,9,9,21,0,284
68,39,0,5,48,4,7,7,6,0,30,1,5,5,0,95
197,138,0,24,126,25,17,15,29,8,47,19,8,38,0,279
83,29,0,1,62,3,5,7,3,1,23,6,1,5,0,121
149,79,0,0,87,11,8,12,13,3,40,12,4,10,18,184
299,220,0,0,248,26,19,27,49,7,80,9,26,27,13,484
351,217,0,0,471,25,29,29,49,10,57,21,44,42,5,728
88,46,0,12,77,10,3,10,10,1,27,4,15,11,0,132
93,54,0,0,71,7,1,8,16,6,20,4,6,5,5,140
340,240,0,17,313,43,27,37,17,10,77,20,21,37,0,621
418,242,0,0,362,31,23,34,26,13,82,33,22,47,29,682
502,386,0,0,575,67,38,44,58,9,99,20,42,66,61,959
63,40,0,7,60,7,6,4,15,4,11,4,14,8,0,97
244,220,0,33,213,44,27,32,54,12,70,11,26,33,0,401
43,19,0,2,47,0,1,8,1,0,13,0,1,3,0,84
140,72,0,0,129,11,10,13,21,9,41,8,0,10,16,202
38,12,0,4,33,3,2,2,2,0,5,0,1,3,0,69
146,130,0,18,120,21,12,24,19,6,41,8,14,26,0,243
39,25,0,6,15,4,4,4,6,0,10,1,1,2,0,53
22,30,0,0,38,1,1,6,0,1,13,4,5,5,2,52
32,27,0,9,40,2,10,2,2,2,14,0,1,5,0,70
177,100,0,0,211,7,22,17,12,7,33,14,11,15,8,342
85,53,0,10,138,6,4,7,6,1,26,0,4,5,0,227
180,106,0,0,209,17,22,17,7,8,41,11,12,9,7,344
368,231,0,39,427,48,15,34,47,14,94,19,35,38,0,721
219,122,0,14,206,19,18,17,14,7,36,22,19,32,0,377
118,94,0,26,105,22,21,8,13,8,33,4,14,30,0,190
103,63,0,13,62,13,7,9,11,4,33,12,4,13,0,135
56,21,0,5,28,4,3,5,2,1,15,2,2,14,0,62
257,129,0,0,196,21,21,25,10,5,74,17,12,57,3,337
252,293,0,5,205,27,13,32,59,4,55,20,141,34,0,370
187,144,0,20,159,23,16,14,37,5,59,8,16,41,0,291
569,291,0,21,438,52,44,43,77,20,154,27,22,50,0,830
101,54,0,0,52,8,5,12,6,2,16,23,2,10,12,111
