OBEC,OKRSEK,VOLICI,HLASY,HLASY_7,HLASY_9
500101,1,172,76,67,9
500127,1,131,85,63,22
506486,1,557,500,96,404
506494,1,287,267,145,122
506621,1,148,80,54,26
511587,1,301,170,100,70
537845,1,91,64,34,30
537870,1,427,278,167,111
537918,1,1578,1013,508,505
537926,1,662,492,164,328
537934,1,253,166,75,91
537969,1,680,515,233,282
538001,1,268,199,116,83
538019,1,262,168,104,64
538027,1,143,96,58,38
538116,1,321,210,101,109
538159,1,459,308,159,149
538337,1,555,361,207,154
538396,1,255,188,96,92
538434,1,1338,813,507,306
538591,1,1064,636,359,277
538663,1,144,86,56,30
538795,1,478,295,199,96
538817,1,158,97,61,36
538868,1,216,148,82,66
538906,1,225,146,92,54
538922,1,203,133,83,50
539023,1,320,212,145,67
539074,1,167,100,82,18
539112,1,388,220,134,86
539279,3,468,291,162,129
539279,2,535,308,145,163
539279,1,789,484,268,216
539376,1,104,71,46,25
539431,1,268,184,90,94
539473,1,94,50,30,20
539481,1,381,247,126,121
539538,1,91,61,42,19
539554,1,190,106,71,35
539619,1,112,77,50,27
551651,1,218,143,72,71
554481,24,240,158,108,50
554481,23,208,137,104,33
554481,22,440,256,146,110
554481,21,757,466,317,149
554481,20,685,448,300,148
554481,19,747,433,206,227
554481,30,1029,597,414,183
554481,29,544,357,235,122
554481,28,131,69,62,7
554481,4,1028,348,199,149
554481,3,690,445,198,247
554481,2,789,407,172,235
554481,1,1626,424,225,199
554481,13,867,460,269,191
554481,12,727,406,277,129
554481,11,547,290,172,118
554481,10,641,379,239,140
554481,9,658,400,221,179
554481,8,725,429,257,172
554481,7,879,496,343,153
554481,6,598,364,219,145
554481,5,717,345,236,109
554481,18,590,346,209,137
554481,17,767,427,249,178
554481,16,1036,681,388,293
554481,15,1472,863,490,373
554481,14,1261,687,422,265
554481,27,817,560,285,275
554481,26,680,436,278,158
554481,25,790,471,320,151
554481,32,912,534,385,149
554481,31,166,121,78,43
554499,8,654,422,252,170
554499,7,813,481,276,205
554499,6,814,377,245,132
554499,5,537,212,125,87
554499,4,715,326,205,121
554499,3,1041,480,327,153
554499,2,555,297,179,118
554499,1,744,411,232,179
554499,14,163,108,74,34
554499,13,253,140,85,55
554499,12,459,282,198,84
554499,11,1436,523,355,168
554499,10,635,379,252,127
554499,9,813,459,280,179
554502,1,933,541,380,161
554511,1,775,523,270,253
554529,5,1055,690,308,382
554529,4,850,559,293,266
554529,3,952,596,366,230
554529,2,979,638,329,309
554529,1,285,190,120,70
554529,6,412,263,143,120
554545,1,1209,692,466,226
554553,3,290,162,106,56
554553,2,593,294,204,90
554553,1,804,360,240,120
554596,1,213,150,120,30
554600,1,1223,687,408,279
554618,1,586,337,231,106
554626,1,592,339,216,123
554634,2,1152,612,415,197
554634,1,630,321,181,140
554642,5,872,179,74,105
554642,4,583,378,129,249
554642,3,33,26,12,14
554642,2,638,401,174,227
554642,1,611,435,215,220
554642,17,563,368,194,174
554642,16,721,446,253,193
554642,15,794,499,244,255
554642,14,621,407,181,226
554642,13,708,413,226,187
554642,12,542,329,188,141
554642,11,692,446,250,196
554642,10,795,441,190,251
554642,9,712,452,218,234
554642,8,665,419,173,246
554642,7,605,322,133,189
554642,6,480,258,97,161
554651,1,244,116,105,11
554677,1,342,144,90,54
554693,1,278,176,116,60
554707,1,417,219,149,70
554740,1,1558,802,556,246
554812,1,1505,842,502,340
554855,1,298,177,128,49
554880,1,743,433,233,200
554961,50,708,525,245,280
554961,49,240,177,96,81
554961,48,1038,679,364,315
554961,47,987,627,352,275
554961,46,903,640,363,277
554961,45,1056,633,355,278
554961,44,848,564,287,277
554961,43,902,618,304,314
554961,42,1115,690,347,343
554961,41,822,530,263,267
554961,40,882,554,284,270
554961,39,616,429,271,158
554961,38,641,439,219,220
554961,37,721,480,252,228
554961,36,714,472,254,218
554961,35,626,381,206,175
554961,34,553,279,146,133
554961,19,588,380,167,213
554961,18,754,522,213,309
554961,17,463,328,129,199
554961,16,488,280,150,130
554961,15,792,435,203,232
554961,14,790,506,262,244
554961,33,663,433,242,191
554961,32,1092,711,415,296
554961,31,979,592,339,253
554961,30,997,645,345,300
554961,29,822,513,252,261
554961,5,356,188,84,104
554961,4,475,301,139,162
554961,3,324,200,90,110
554961,2,649,430,186,244
554961,1,2576,548,259,289
554961,9,613,361,153,208
554961,8,667,408,158,250
554961,7,342,206,107,99
554961,6,665,392,196,196
554961,13,605,437,225,212
554961,12,361,259,88,171
554961,11,559,395,181,214
554961,10,288,165,57,108
554961,25,729,439,268,171
554961,24,751,534,225,309
554961,23,701,454,212,242
554961,22,962,637,344,293
554961,21,895,555,279,276
554961,20,862,458,209,249
554961,28,682,336,170,166
554961,27,512,374,172,202
554961,26,831,555,270,285
554979,1,911,543,248,295
554995,1,766,473,278,195
555029,1,1622,889,581,308
555045,1,478,269,172,97
555169,1,368,232,92,140
555185,1,1574,921,530,391
555207,1,478,326,214,112
555215,3,969,639,298,341
555215,2,680,386,244,142
555215,1,834,336,101,235
555258,1,570,393,152,241
555304,1,339,192,114,78
555347,1,648,403,230,173
555363,1,792,489,269,220
555380,13,120,86,43,43
555380,12,652,390,197,193
555380,11,391,222,133,89
555380,10,103,53,34,19
555380,9,215,130,80,50
555380,8,448,276,154,122
555380,7,604,316,209,107
555380,6,528,332,201,131
555380,5,408,235,115,120
555380,4,661,359,212,147
555380,3,1109,382,195,187
555380,2,424,223,141,82
555380,1,552,324,179,145
555398,2,1373,781,455,326
555398,1,769,517,285,232
555398,4,368,265,132,133
555398,3,839,564,331,233
555428,9,1001,626,370,256
555428,8,1120,696,403,293
555428,7,720,476,260,216
555428,6,650,402,246,156
555428,5,776,490,333,157
555428,4,798,517,288,229
555428,3,715,462,269,193
555428,14,1318,892,417,475
555428,13,941,554,325,229
555428,12,966,576,330,246
555428,11,1001,574,344,230
555428,10,1015,690,372,318
555428,2,1068,553,302,251
555428,1,1847,731,350,381
555444,1,383,212,152,60
555452,1,697,509,181,328
555479,1,257,159,85,74
555525,1,460,238,167,71
555533,2,239,132,60,72
555533,1,752,490,241,249
555550,1,504,295,158,137
555584,1,386,233,150,83
555584,2,92,61,34,27
555592,1,454,273,161,112
555614,1,529,310,159,151
555622,1,479,248,164,84
555631,3,790,449,301,148
555631,2,885,444,289,155
555631,1,673,305,218,87
555657,3,796,487,268,219
555657,2,928,484,310,174
555657,1,1236,661,461,200
555681,1,452,272,171,101
555690,1,285,181,116,65
555703,1,435,286,189,97
555711,1,392,204,170,34
555738,2,180,121,71,50
555738,1,331,189,107,82
555762,2,1030,559,362,197
555762,1,931,515,353,162
556947,1,405,300,170,130
560286,3,940,372,208,164
560286,2,1649,591,327,264
560286,1,913,605,354,251
560286,19,1133,681,440,241
560286,18,989,584,354,230
560286,17,717,420,275,145
560286,16,1114,632,350,282
560286,15,1174,686,488,198
560286,14,1432,839,484,355
560286,13,1086,548,390,158
560286,12,1016,545,338,207
560286,11,1014,547,365,182
560286,10,964,499,300,199
560286,9,949,346,225,121
560286,8,831,393,213,180
560286,7,933,571,298,273
560286,6,691,434,246,188
560286,5,665,435,254,181
560286,4,814,517,292,225
560294,2,1157,678,423,255
560294,1,1074,585,370,215
560308,1,391,263,120,143
560316,1,1247,580,411,169
560324,1,721,418,263,155
560332,1,223,111,69,42
560341,1,273,168,106,62
560359,5,499,343,196,147
560359,4,528,298,182,116
560359,3,982,367,271,96
560359,2,872,457,307,150
560359,1,1112,465,303,162
560367,3,817,435,267,168
560367,1,1369,646,315,331
560367,5,997,576,325,251
560367,4,1033,442,289,153
560375,1,247,158,98,60
560383,10,928,482,308,174
560383,9,985,490,310,180
560383,8,1057,587,386,201
560383,7,1177,477,288,189
560383,6,1041,595,380,215
560383,5,888,402,262,140
560383,4,1336,801,493,308
560383,3,1459,537,291,246
560383,2,940,555,319,236
560383,1,912,518,305,213
560383,11,234,163,95,68
560413,1,399,256,159,97
560421,1,368,212,143,69
560456,1,755,443,314,129
560464,1,665,382,247,135
560472,8,469,265,182,83
560472,7,426,248,140,108
560472,6,693,419,268,151
560472,5,590,313,189,124
560472,4,959,377,241,136
560472,3,749,427,284,143
560472,2,787,374,224,150
560472,1,807,519,289,230
560499,5,572,242,92,150
560499,4,934,542,353,189
560499,3,732,489,341,148
560499,2,1058,493,333,160
560499,1,1033,603,410,193
560502,1,479,255,189,66
560537,2,1253,775,413,362
560537,1,1209,697,302,395
560545,1,1039,648,399,249
560561,1,181,66,47,19
560570,4,510,330,222,108
560570,3,195,100,53,47
560570,2,786,345,242,103
560570,1,585,327,218,109
560588,2,424,248,177,71
560588,1,926,401,283,118
560596,1,72,45,27,18
560600,3,224,79,56,23
560600,2,939,387,312,75
560600,1,1324,626,449,177
560618,1,259,106,93,13
560642,1,692,469,282,187
560651,1,394,238,145,93
560677,1,274,181,112,69
560685,1,899,427,323,104
560707,1,310,100,68,32
566675,1,157,84,63,21
577979,1,121,75,55,20
578002,1,125,72,45,27
578011,1,87,52,37,15
578029,1,277,164,81,83
578045,1,258,187,115,72
579360,1,193,125,76,49
