A2,A3,A7,A8,A9,A997,A998,A999,B166,B720,B53,B7,B768,B1058,B766,B997,B998,B999
7,4,38,6,5,7,15,81,3,4,3,6,10,5,0,4,0,128
6,5,14,2,12,5,7,17,7,4,6,3,6,3,1,4,0,34
11,4,51,9,19,12,0,51,1,6,12,8,13,4,1,4,10,98
0,5,17,8,13,1,0,15,1,4,1,7,5,0,0,6,1,34
3,6,17,6,12,4,0,18,3,5,7,4,9,0,0,11,1,26
6,3,22,4,24,4,0,32,1,3,4,7,5,4,1,13,3,54
13,22,129,24,35,8,16,125,0,7,13,8,20,20,3,45,0,256
10,8,20,8,24,3,0,35,1,7,4,5,4,9,1,4,0,73
6,7,55,9,31,3,0,50,2,4,2,4,24,1,3,12,8,101
18,20,42,12,33,4,3,43,2,11,9,5,25,11,14,8,0,90
19,27,102,44,72,10,0,211,9,27,4,14,32,14,7,49,9,320
2,23,44,6,25,2,2,36,0,3,8,7,12,9,0,11,0,90
21,31,92,14,58,24,7,87,6,17,21,11,25,8,9,34,0,203
1,8,9,1,16,3,1,29,2,5,5,1,5,1,9,3,0,37
29,21,99,29,72,11,6,114,9,22,24,12,26,11,11,44,0,222
20,11,70,19,51,4,8,61,7,17,20,8,15,9,2,28,0,138
5,22,50,13,22,5,0,51,0,10,2,7,16,14,2,16,2,99
21,14,94,27,28,9,0,82,4,19,15,2,27,4,1,48,0,155
13,5,27,9,24,4,0,77,3,11,12,7,15,1,0,12,4,94
5,6,19,7,17,3,11,25,2,9,1,6,9,7,0,9,0,50
4,3,22,10,10,4,0,27,5,3,5,1,10,1,2,4,5,44
13,11,75,22,45,12,12,90,4,21,16,6,9,15,6,22,0,181
2,8,16,2,31,4,0,20,1,5,12,3,2,8,5,3,3,41
8,10,38,12,36,5,3,51,11,11,8,2,7,11,2,7,0,104
18,26,64,15,60,20,5,116,9,19,20,14,33,14,1,26,0,188
7,5,21,4,20,7,11,26,6,8,15,5,8,4,1,7,0,47
1,1,23,4,9,7,2,16,0,3,2,4,7,3,2,7,0,35
3,6,28,8,15,5,0,21,1,2,5,2,7,2,10,11,3,43
4,0,25,3,11,7,0,9,4,3,3,7,0,0,1,4,1,36
1,5,22,9,20,1,0,19,2,2,3,16,3,6,0,13,2,30
14,9,18,9,7,4,0,22,6,7,1,1,7,3,1,6,13,38
2,3,22,2,7,3,0,15,4,2,3,0,6,0,1,5,0,33
2,4,32,6,16,2,0,38,2,9,5,0,6,6,1,8,0,63
8,7,37,6,28,6,0,47,4,9,5,8,6,8,1,10,10,78
16,5,33,13,22,9,0,59,3,6,9,5,11,5,0,11,4,103
21,18,54,18,34,14,24,106,6,17,31,3,23,13,6,22,0,168
2,3,22,5,17,5,0,10,8,1,5,2,5,2,3,5,3,30
20,12,54,8,38,8,20,57,8,10,32,10,15,9,3,16,0,114
91,92,233,79,241,54,0,418,41,66,137,38,65,51,23,59,75,653
69,102,223,46,201,56,0,246,54,44,120,35,74,46,20,68,5,477
5,5,38,9,40,6,0,36,6,8,15,8,12,8,1,11,6,64
25,35,49,8,53,17,2,70,13,9,34,19,25,13,6,19,0,121
9,11,63,18,50,11,0,86,7,15,14,13,29,11,2,19,6,132
22,31,74,18,89,24,4,82,13,27,41,12,20,29,12,16,0,174
2,4,62,9,23,13,0,58,3,8,15,11,12,3,2,16,4,97
6,10,46,19,34,11,0,43,16,15,10,8,12,3,0,15,4,86
22,15,81,15,47,9,0,107,16,19,18,8,23,15,7,13,1,176
6,17,12,8,15,1,3,14,4,9,8,3,1,14,1,1,0,35
17,24,80,16,84,27,9,125,17,22,35,9,35,12,55,24,0,173
17,8,35,5,12,4,0,52,4,11,6,6,7,5,1,15,2,76
18,17,39,17,40,15,18,70,18,22,19,2,8,16,7,30,0,112
10,4,19,3,21,11,5,13,11,13,15,6,12,2,3,4,0,20
25,16,43,20,39,6,8,61,15,6,19,10,7,18,0,32,0,111
7,6,33,7,20,7,0,21,9,4,7,2,17,12,1,17,1,31
45,40,148,36,103,35,37,157,20,60,59,21,68,17,13,45,0,298
16,39,56,16,47,12,2,50,13,25,28,9,17,17,9,30,0,90
6,11,23,5,24,3,4,34,6,7,17,3,6,10,3,14,0,44
19,21,59,20,36,10,0,82,1,8,4,8,11,7,3,98,17,90
29,63,94,31,84,25,37,124,25,27,67,20,51,26,11,34,0,226
49,29,97,34,72,26,26,138,42,31,47,9,23,18,13,38,0,250
25,21,65,19,25,24,17,89,22,25,36,6,21,8,8,27,0,132
24,22,97,20,51,17,1,93,13,13,42,15,30,9,8,38,0,157
28,25,59,30,55,18,23,81,8,34,38,10,31,5,9,36,0,148
32,22,82,25,69,14,3,168,29,15,45,6,22,13,9,31,0,245
60,58,128,48,132,34,22,230,39,34,94,21,38,21,20,54,0,391
8,7,28,4,13,6,4,18,6,6,5,5,12,4,0,6,0,44
17,5,22,11,26,7,0,38,8,6,11,8,4,10,0,2,4,73
23,23,53,18,52,7,0,100,16,14,17,3,19,17,7,28,3,152
15,25,82,20,73,16,5,112,9,27,31,19,31,10,7,26,0,188
9,31,40,12,31,8,18,52,16,22,10,7,18,19,6,14,0,89
2,4,8,3,8,5,0,10,3,5,3,1,4,1,0,8,2,13
16,6,50,10,23,11,0,53,2,7,4,6,21,2,7,25,0,95
14,24,66,13,45,9,0,97,14,23,15,8,28,23,4,20,8,125
9,5,82,8,31,1,0,109,1,3,7,7,17,2,1,17,6,184
13,16,59,11,36,6,0,69,9,14,17,10,10,12,1,14,11,112
21,15,87,21,53,9,3,104,50,21,10,8,7,10,5,27,0,175
25,25,110,18,68,14,15,117,16,31,24,14,29,16,5,35,0,222
1,0,21,3,9,0,2,16,0,0,4,6,11,0,0,5,0,26
10,15,18,6,35,4,12,38,12,13,26,1,6,7,3,10,0,60
3,17,29,9,17,5,5,59,2,5,10,4,5,12,9,11,0,86
6,9,26,4,18,3,0,29,3,3,6,1,8,11,3,3,5,52
1,5,36,3,17,3,5,18,5,0,2,1,9,2,3,8,0,58
0,2,14,6,16,5,11,49,1,8,9,3,6,1,0,7,0,68
13,7,13,7,18,6,0,13,3,10,13,4,3,11,1,8,8,16
2,8,14,5,20,2,1,22,2,0,1,0,3,22,0,4,0,42
18,8,61,16,44,29,13,65,8,13,34,12,22,6,10,21,0,128
8,2,61,9,20,12,14,125,1,9,13,3,9,3,0,20,0,193
4,3,39,11,20,5,0,59,4,4,5,4,14,4,0,14,7,85
12,9,20,11,38,4,4,19,4,8,9,2,9,33,2,8,0,42
1,8,25,3,10,2,9,29,7,1,4,2,8,8,1,6,0,50
7,8,19,5,12,2,0,9,2,2,0,12,4,9,2,3,4,24
3,1,10,2,2,5,0,10,0,2,5,0,2,1,0,1,0,22
3,0,15,2,7,2,0,7,5,1,1,0,2,5,1,4,1,16
8,13,28,13,18,7,0,159,1,13,8,16,8,3,3,10,3,181
2,5,36,3,11,1,3,29,3,6,4,3,12,4,1,6,0,51
0,2,19,1,6,1,0,25,0,3,0,1,0,4,0,4,3,39
1,0,14,1,11,1,1,18,3,1,4,1,2,5,0,2,0,29
7,8,35,9,15,9,7,69,3,4,5,6,5,3,2,9,0,122
4,3,11,3,15,1,0,29,11,1,5,0,7,1,0,1,8,32
9,3,17,7,19,3,10,38,11,6,8,4,6,2,1,9,0,59
4,7,44,8,18,2,0,34,2,6,6,4,6,6,6,4,3,74
3,10,62,12,26,11,5,58,9,9,4,11,24,11,7,7,0,105
7,6,55,15,40,11,1,58,3,12,15,13,21,8,4,17,0,100
5,20,31,12,23,3,3,34,5,8,6,18,15,6,4,10,0,59
4,5,28,4,11,6,0,22,0,1,0,4,6,4,0,16,0,49
10,8,36,10,11,3,12,44,6,4,9,5,10,13,2,4,0,81
7,1,20,7,16,0,0,12,0,1,5,6,5,4,0,4,0,38
4,2,27,7,11,3,2,25,1,4,4,8,7,3,2,5,0,47
6,6,23,4,11,9,4,24,1,7,11,3,7,5,4,6,0,43
7,4,39,11,24,1,7,40,6,10,7,4,19,11,2,5,0,69
5,4,29,8,10,2,0,37,4,9,5,0,6,4,0,5,1,61
4,10,33,6,16,2,6,50,3,4,7,3,10,4,6,8,0,82
8,10,28,5,12,10,0,31,2,4,10,5,8,3,1,10,1,60
5,3,18,3,11,6,0,22,3,4,7,3,5,0,1,6,5,34
3,3,34,11,13,4,0,68,0,5,0,5,14,7,0,4,3,98
3,3,22,6,16,2,0,45,3,3,0,5,5,3,4,8,2,64
9,5,23,0,10,2,0,24,2,4,3,5,6,3,3,8,2,37
18,23,60,20,89,12,14,110,11,11,32,12,19,23,18,13,0,207
22,13,44,10,39,13,0,52,10,12,16,5,13,11,3,11,0,112
3,2,14,0,8,6,0,24,1,3,1,3,1,2,0,5,3,38
5,11,70,19,58,11,0,74,9,20,19,7,25,7,5,9,0,147
11,6,32,7,12,5,0,32,2,8,2,5,6,5,0,8,4,65
2,1,26,1,1,0,0,10,0,0,0,17,2,1,0,2,6,13
5,1,19,9,8,1,1,16,4,1,4,1,8,2,1,6,0,33
11,4,52,8,30,4,0,73,2,15,8,3,9,3,0,8,8,126
2,11,26,5,11,1,4,15,0,5,1,4,9,21,2,2,0,31
2,13,24,3,5,1,0,13,0,4,2,4,11,5,2,11,3,19
9,21,27,16,29,6,5,61,45,10,3,5,6,7,0,6,0,92
2,1,10,4,15,1,6,10,1,8,4,6,1,6,2,2,0,19
5,4,70,0,12,6,0,60,1,2,7,9,8,0,26,15,0,89
2,3,16,3,13,4,0,7,4,2,9,0,3,3,1,2,5,19
11,11,19,4,12,1,4,15,5,6,7,4,5,7,2,5,0,36
5,8,26,4,18,1,3,16,1,5,2,2,14,1,3,10,0,43
4,6,14,5,12,5,0,15,1,2,3,6,6,1,5,8,0,29
18,18,62,21,46,11,8,69,6,12,16,11,20,11,14,24,0,139
8,6,15,10,15,1,12,29,2,6,10,7,5,3,1,10,0,52
1,2,8,0,7,3,0,14,5,1,1,0,0,4,0,2,0,22
0,0,18,3,3,6,0,16,2,5,6,0,6,0,0,7,4,16
7,8,34,7,22,7,8,41,5,8,7,3,20,3,1,23,0,64
11,3,44,4,9,1,0,76,2,4,3,12,7,1,1,5,6,107
4,19,92,8,47,3,0,63,13,7,18,10,15,7,1,27,4,134
0,2,13,3,10,2,0,8,2,1,7,2,1,1,3,2,2,17
5,1,27,1,8,1,0,26,0,5,5,1,5,2,6,4,1,40
7,6,37,3,11,10,20,29,0,6,9,1,15,3,3,11,0,75
56,93,220,58,198,45,24,246,44,60,122,34,95,57,35,73,0,420
35,51,224,49,120,23,3,233,25,43,62,28,85,22,8,44,0,421
91,107,269,71,273,80,37,338,50,88,149,50,106,78,40,83,0,622
64,81,196,49,197,48,0,243,33,83,92,36,72,54,24,50,32,402
39,69,169,34,123,26,0,230,17,34,72,16,65,32,27,46,24,357
73,98,154,52,200,53,0,197,32,56,123,18,74,57,28,53,11,375
56,67,142,39,128,34,22,224,19,48,79,29,52,53,16,49,0,367
73,77,212,56,154,50,0,291,21,62,76,30,77,22,39,70,23,493
36,56,124,25,79,33,0,174,9,36,35,13,55,26,14,37,23,279
24,16,102,18,49,17,2,95,4,20,29,12,33,11,29,23,0,162
69,99,195,60,163,47,128,308,43,100,120,49,91,46,35,91,0,494
66,82,183,50,161,58,0,267,31,50,85,20,65,40,26,48,83,419
44,55,152,47,125,30,0,271,22,48,63,15,65,34,19,37,33,388
86,97,209,69,193,69,13,260,43,75,105,41,76,57,41,76,0,482
106,154,239,93,358,81,6,368,51,97,216,49,100,78,61,110,0,643
86,86,145,75,171,42,44,375,43,74,85,25,51,53,26,57,0,610
45,93,99,61,125,32,4,273,35,64,82,18,38,56,25,48,0,366
51,88,119,48,140,49,0,318,34,43,62,21,50,40,17,49,44,453
55,48,167,55,132,28,6,315,20,45,56,31,79,30,21,41,0,483
33,55,139,30,92,22,0,203,11,36,55,22,48,26,13,45,1,317
100,105,170,66,157,50,5,3117,24,73,124,22,43,41,21,69,0,3353
43,46,134,35,111,27,0,146,20,33,45,12,30,40,22,34,35,271
42,51,201,53,123,17,0,259,20,30,61,33,70,40,11,53,30,398
75,85,147,45,164,49,0,227,36,42,93,35,60,49,45,49,19,364
55,57,124,35,122,35,36,196,25,50,74,21,41,23,17,37,0,372
70,96,116,55,153,41,41,320,31,84,107,28,42,55,16,62,0,467
75,105,183,67,131,54,106,388,33,77,118,36,56,67,34,56,0,632
37,43,160,52,133,26,0,288,17,39,56,16,40,33,9,58,39,432
22,26,72,13,46,11,0,116,12,21,17,13,23,14,8,25,23,150
62,79,205,69,181,51,0,346,26,51,107,55,66,38,27,64,46,513
43,36,148,27,93,29,19,229,18,22,37,14,70,17,15,48,0,383
45,57,207,36,108,42,0,282,17,48,53,32,60,29,24,71,14,429
42,59,195,32,145,37,18,276,27,50,82,29,70,30,21,47,0,448
36,30,149,28,101,21,11,227,15,34,38,14,44,18,12,42,0,386
43,66,172,49,126,34,30,248,20,62,71,31,57,18,16,67,0,426
36,67,202,45,124,33,13,232,23,54,64,34,62,27,19,48,0,421
50,50,159,43,112,38,19,219,19,37,68,25,61,27,25,49,0,379
49,75,183,45,130,29,38,264,29,54,84,35,54,38,29,59,0,431
55,55,157,44,127,27,19,277,26,45,74,22,45,29,17,44,0,459
34,47,159,37,106,27,6,201,22,35,55,26,60,16,11,48,0,344
57,76,148,46,141,39,45,260,32,43,84,30,67,29,25,50,0,452
34,43,216,28,115,12,0,264,20,36,45,22,64,10,7,46,49,413
37,33,227,34,108,20,0,249,15,33,42,24,62,13,20,52,36,411
50,39,203,42,115,29,0,326,18,39,59,27,76,23,10,54,15,483
52,47,229,42,126,35,0,391,17,42,73,26,69,13,16,47,126,493
45,46,172,50,116,32,0,248,26,27,62,23,54,34,14,48,15,406
63,65,142,46,149,37,0,231,27,67,82,35,52,26,20,55,10,359
63,67,164,41,146,33,0,227,28,36,60,16,50,25,18,50,135,323
68,83,143,51,196,59,0,257,35,67,96,27,64,70,37,69,18,374
32,46,75,37,81,18,0,107,20,31,47,5,29,21,14,35,14,180
46,54,123,43,130,21,0,291,26,51,66,15,41,34,13,35,34,393
58,79,143,37,129,40,0,203,27,56,74,29,53,32,27,32,39,320
45,54,91,39,90,23,0,309,18,48,49,15,31,14,16,54,40,366
34,62,111,38,108,32,0,265,20,42,57,11,34,46,19,45,32,344
48,51,242,49,110,44,0,392,18,42,57,32,56,21,18,82,37,573
52,75,160,68,138,33,0,371,15,52,49,31,35,24,25,68,16,582
59,63,187,73,149,30,0,400,23,66,66,33,64,27,27,58,21,576
62,86,247,65,176,44,0,436,33,59,70,36,72,25,15,85,30,691
50,46,192,37,96,44,9,623,14,37,40,21,36,28,8,58,0,855
56,34,179,42,124,21,0,549,14,33,35,17,46,24,13,60,14,749
86,70,313,67,198,42,0,532,38,54,118,40,107,21,25,98,35,772
49,50,170,58,113,34,0,366,28,42,57,15,53,21,10,40,19,555
46,44,233,56,137,39,61,298,41,41,65,42,93,25,13,67,0,527
112,149,290,89,339,87,222,474,56,146,266,52,118,84,51,106,0,883
46,42,149,35,98,38,0,216,22,24,75,11,59,22,21,31,20,339
90,103,271,79,235,54,0,476,39,85,102,43,70,72,24,90,13,770
53,72,262,70,198,42,0,455,29,67,83,35,80,21,26,91,8,712
44,78,237,48,138,38,0,348,24,62,48,34,64,33,24,67,21,554
86,120,198,62,251,73,2,242,38,68,121,59,69,62,52,72,0,493
32,32,79,29,74,14,0,111,25,12,47,17,54,11,15,16,2,172
41,56,180,58,113,37,0,322,24,40,47,25,40,20,20,64,16,511
57,54,192,30,125,39,0,317,18,47,51,20,70,13,20,47,32,496
44,59,245,36,126,40,0,385,23,36,62,24,72,41,10,77,71,519
35,73,214,53,122,33,0,252,24,44,46,30,90,27,16,57,30,418
24,35,60,25,84,19,41,125,18,27,53,5,35,28,13,26,0,208
44,54,189,47,152,35,0,266,43,37,65,23,74,12,42,62,23,406
40,41,236,38,127,36,0,324,15,27,57,48,78,19,17,63,50,468
31,50,212,54,136,20,0,286,20,47,59,37,79,18,19,43,31,436
43,46,225,49,129,26,0,215,16,37,61,43,67,19,12,63,27,388
41,46,219,43,118,23,0,271,26,38,42,30,62,17,11,57,41,437
36,48,218,32,124,27,0,264,24,42,43,27,61,17,18,78,15,424
26,28,115,26,82,30,8,167,8,33,55,21,36,32,14,28,0,255
25,30,99,21,90,20,0,167,13,39,30,9,35,13,8,30,9,266
37,37,137,26,75,25,0,184,19,36,36,13,46,15,16,39,7,294
46,63,56,37,88,20,0,208,14,47,64,8,22,37,22,20,4,280
39,55,172,34,119,27,0,215,18,36,55,36,62,30,24,51,26,323
64,84,223,64,188,48,0,294,52,57,102,37,89,27,51,72,30,448
59,52,149,52,144,53,28,227,25,58,101,23,55,36,32,65,0,369
67,71,235,58,183,72,0,356,34,62,124,37,76,35,30,86,26,532
80,74,206,77,184,53,0,289,39,55,96,42,84,42,39,61,24,481
124,97,309,87,240,87,28,274,55,85,122,59,106,74,83,103,0,559
8,1,42,12,16,5,0,49,0,6,9,20,12,0,0,7,1,78
7,1,16,4,8,6,0,24,1,5,0,10,9,0,0,2,0,39
6,1,21,11,14,1,0,30,3,2,7,5,4,5,1,5,6,46
19,19,51,15,35,10,0,50,3,17,16,13,27,10,3,23,6,81
6,8,42,4,24,5,0,50,7,8,4,11,8,5,2,9,1,84
14,12,95,24,55,12,15,122,11,11,20,29,21,8,7,38,0,204
72,94,247,72,172,50,0,343,23,31,63,98,71,72,14,75,3,600
65,108,350,60,163,35,3,507,25,49,67,102,115,65,18,126,0,724
28,60,130,41,124,31,43,176,20,26,56,38,45,43,25,39,0,341
13,10,29,15,29,4,2,23,2,14,24,5,12,7,4,11,0,46
52,64,128,71,129,43,21,234,25,45,88,23,63,65,24,55,0,354
20,9,74,22,29,8,14,114,9,12,18,6,23,4,5,16,0,197
30,20,119,23,82,17,0,158,18,18,20,25,24,16,4,42,1,281
1,2,17,1,6,2,0,8,5,0,4,1,2,0,0,1,5,19
4,2,9,5,11,1,0,10,0,0,7,2,2,3,0,2,0,26
2,8,13,4,13,10,0,14,7,4,3,0,7,6,2,6,2,27
8,3,20,0,9,8,1,34,10,2,2,3,3,5,1,8,0,49
7,0,11,2,10,6,0,14,0,3,9,5,1,0,1,11,2,18
8,2,19,6,19,2,3,27,16,3,3,3,7,5,2,6,0,41
57,34,251,62,146,39,0,397,58,45,40,25,64,22,11,63,13,645
24,40,71,28,63,26,0,133,16,20,37,12,22,21,6,26,6,219
1,4,12,4,9,2,6,18,10,3,4,0,3,3,0,6,0,27
3,3,24,2,11,3,0,17,4,5,4,3,5,0,0,6,7,29
1,8,22,3,10,2,5,34,2,4,10,2,8,2,1,7,0,49
13,7,31,6,20,4,4,36,1,10,11,5,10,9,1,17,0,57
2,7,21,6,24,3,0,43,2,9,2,10,6,11,0,5,8,53
9,5,22,14,15,15,1,28,9,5,22,3,7,2,0,15,0,46
40,43,151,48,141,43,42,282,31,32,48,30,42,38,12,72,0,485
11,4,23,3,18,11,0,28,3,2,17,8,5,2,3,11,2,45
22,32,84,19,66,14,24,102,13,25,28,12,23,40,11,27,0,184
50,47,101,42,133,32,4,156,17,35,66,22,36,74,11,36,0,268
12,19,41,12,47,16,39,49,17,20,23,5,14,19,3,18,0,116
16,14,55,15,39,6,2,113,10,14,6,4,13,8,10,16,0,179
7,13,51,6,40,5,2,75,19,3,15,14,8,5,3,16,0,116
17,12,42,10,36,5,0,58,6,23,19,7,15,1,0,20,0,89
16,13,46,17,22,12,14,42,1,8,8,6,24,5,1,30,0,99
24,11,42,15,52,10,2,74,15,12,38,12,17,15,4,23,0,94
123,90,275,82,235,84,34,354,57,63,210,79,96,60,11,86,0,615
74,81,228,61,181,52,62,363,20,68,175,54,66,50,13,78,0,578
69,70,207,80,200,58,0,380,31,48,115,61,65,39,12,64,39,590
15,27,37,20,39,5,4,46,5,17,27,7,13,17,10,20,0,77
79,88,174,66,225,70,50,304,43,81,158,35,61,49,27,66,0,536
5,2,29,3,13,4,10,30,0,5,5,2,12,2,0,17,0,53
36,33,315,53,85,23,0,425,8,28,29,32,73,27,9,146,6,612
21,9,61,15,40,5,1,55,6,8,17,11,15,3,11,18,0,118
39,62,99,22,82,28,25,129,29,15,64,21,30,34,13,50,0,230
11,5,35,4,24,5,0,85,1,10,0,2,7,9,1,4,23,112
100,123,291,76,229,95,5,348,51,88,136,33,109,79,46,97,0,628
6,2,16,2,10,10,7,20,5,2,6,4,4,4,1,10,0,37
2,2,25,3,8,4,0,36,0,0,4,1,5,0,2,9,4,55
6,7,21,5,23,2,4,31,0,3,16,1,8,8,1,6,0,56
13,22,92,18,48,8,15,134,9,16,8,11,30,3,5,10,0,258
15,8,18,10,33,6,1,31,1,11,13,8,7,12,1,25,0,44
12,12,43,14,43,6,3,64,4,14,14,9,19,6,3,22,0,106
10,7,62,2,6,1,1,31,0,13,5,6,6,2,1,9,0,78
0,0,20,4,4,3,0,9,0,0,2,1,11,0,0,7,0,19
0,4,28,4,6,2,0,26,2,0,1,0,6,0,8,6,0,47
5,2,42,11,13,3,9,41,2,9,2,9,6,0,0,22,0,76
21,24,127,33,53,13,22,166,5,19,18,16,37,17,6,63,0,278
64,110,212,75,256,63,31,266,34,58,158,50,91,73,18,72,0,523
15,22,29,15,44,10,0,59,8,17,30,9,14,9,3,7,0,97
54,55,94,45,121,28,39,213,15,43,85,17,42,61,8,38,0,340
8,11,23,16,48,10,3,53,6,14,13,3,12,24,2,14,0,84
17,14,41,9,17,4,0,56,5,9,19,3,10,7,1,7,1,96
109,135,320,79,277,63,2,552,51,90,126,64,99,70,33,97,0,907
13,4,28,3,15,4,0,19,3,3,2,10,6,6,2,12,2,40
7,2,18,5,11,4,4,17,4,2,6,2,5,6,0,8,0,35
9,6,25,2,22,9,7,14,8,4,17,7,2,5,6,12,0,33
5,10,31,20,34,7,0,52,12,10,3,6,5,12,5,13,0,93
6,14,39,10,32,10,3,27,7,14,9,8,8,7,4,16,0,68
26,22,83,17,73,32,0,115,6,20,34,27,29,10,12,21,5,204
27,44,170,22,112,23,43,205,45,22,33,22,41,34,14,48,0,387
15,5,72,13,37,14,0,92,27,13,15,5,19,9,5,22,0,133
83,67,241,60,195,31,23,456,59,34,78,40,59,66,15,76,0,729
110,127,364,84,252,80,0,438,111,78,111,34,102,91,22,106,5,795
60,65,153,54,131,52,29,134,29,58,89,23,49,38,27,51,0,314
82,81,145,91,148,66,0,215,43,70,174,36,59,30,16,61,0,339
34,34,91,29,105,27,26,102,17,23,69,11,24,26,24,20,0,234
9,9,39,7,27,11,3,27,6,14,13,4,19,5,2,15,0,54
30,20,98,22,73,25,22,157,18,13,49,24,38,14,7,20,0,264
0,0,15,5,13,4,0,7,2,3,1,5,4,1,0,6,1,21
6,10,54,13,20,4,0,79,2,10,4,8,19,14,4,21,0,104
11,3,30,6,12,2,0,35,3,6,4,6,10,2,0,10,5,53
23,43,65,29,50,16,0,59,12,26,34,5,23,29,12,9,3,132
9,2,58,12,31,7,4,73,2,3,5,8,17,6,0,23,0,132
64,42,274,69,159,37,17,376,16,61,75,92,92,38,10,101,0,553
39,31,240,24,83,25,0,362,12,35,29,42,48,9,8,82,13,526
4,2,41,4,11,7,0,38,0,1,4,0,14,1,0,20,6,61
27,30,134,19,107,16,22,197,6,22,44,23,40,17,12,43,0,345
1,14,25,2,24,8,5,59,4,2,14,4,9,12,2,12,0,79
40,28,121,21,87,19,0,190,12,17,28,34,21,7,15,42,2,328
11,8,45,5,22,8,2,46,14,1,8,7,20,6,2,4,0,85
79,101,172,58,224,60,44,230,51,56,135,28,63,53,25,77,0,480
10,14,37,5,20,6,0,44,7,6,22,6,13,1,4,12,0,65
48,57,220,64,175,38,60,271,35,45,88,32,72,42,16,73,0,530
65,73,255,68,192,62,0,322,28,60,115,38,71,35,35,90,76,489
43,56,132,63,135,46,19,218,26,59,89,33,40,51,20,67,0,327
2,7,25,4,12,3,5,18,7,12,6,7,6,2,2,8,0,26
9,5,18,5,11,6,6,16,10,10,6,3,4,7,3,2,0,31
12,28,66,19,37,19,1,79,15,16,23,16,24,13,6,15,0,133
5,7,31,8,28,3,12,39,4,12,14,1,10,7,4,20,0,61
17,6,68,19,47,5,6,157,4,15,9,4,26,8,5,25,0,229
4,5,33,2,9,1,0,38,0,5,2,5,7,0,1,6,5,61
58,77,149,45,130,46,67,183,44,51,109,23,54,40,11,48,0,375
85,122,226,79,245,75,93,400,113,76,170,29,83,65,34,82,0,673
74,73,203,64,203,67,25,282,56,76,117,46,60,55,14,81,0,486
22,16,111,30,67,25,20,113,9,19,40,9,38,11,14,50,0,214
13,18,43,15,31,4,0,56,9,9,27,8,9,9,4,10,8,87
29,31,107,39,64,18,16,159,10,32,42,23,42,23,9,32,0,250
77,68,259,61,196,55,23,378,34,69,88,36,88,38,19,81,0,664
59,49,180,25,105,19,29,242,32,23,49,17,47,38,7,45,0,450
5,3,25,3,12,2,0,27,0,11,5,7,5,2,0,6,5,36
5,5,21,3,8,4,0,29,1,8,2,6,3,1,1,8,2,43
10,3,39,3,19,6,0,43,0,7,5,3,10,2,1,19,4,72
3,4,26,2,4,3,4,14,2,3,2,1,7,0,0,7,0,38
16,14,94,12,43,9,7,132,6,11,17,11,18,8,4,32,0,220
32,35,189,35,107,22,14,254,22,44,29,37,80,11,11,53,0,401
45,40,187,51,157,22,22,438,16,43,32,35,66,37,27,64,0,642
31,17,95,13,52,11,0,111,10,10,22,9,37,5,9,20,1,207
29,46,184,42,82,33,0,216,7,21,37,32,63,16,17,77,10,352
30,59,176,30,78,21,0,207,11,24,36,29,51,12,20,54,1,363
17,13,90,20,44,14,21,135,14,19,31,7,21,13,2,31,0,216
4,13,13,16,22,2,0,19,3,2,6,3,6,22,4,9,0,34
3,6,22,4,12,5,5,27,4,2,6,7,7,3,2,8,0,45
7,4,24,3,7,0,0,14,5,0,3,1,6,1,6,11,0,26
5,8,43,10,12,7,6,29,0,4,12,2,8,6,0,33,0,55
11,9,68,18,30,7,12,82,5,17,10,2,19,2,8,34,0,140
26,17,89,22,46,22,0,146,2,13,27,12,23,16,5,38,1,231
51,27,211,35,105,22,0,301,20,30,47,8,64,18,10,67,28,460
40,24,157,33,92,20,5,188,12,22,26,17,43,11,8,40,0,380
42,34,170,29,102,23,0,269,14,24,39,14,41,32,6,60,27,412
75,49,214,60,137,44,0,457,17,53,48,15,45,36,11,90,20,701
39,52,185,46,99,26,8,306,21,44,21,19,25,18,10,82,0,521
73,69,235,68,233,37,0,277,30,50,85,48,92,53,28,80,18,508
3,5,23,1,16,2,1,8,0,4,10,8,7,5,3,5,0,17
3,9,24,5,24,0,0,34,7,7,13,4,8,0,1,7,2,50
1,6,28,5,15,4,8,17,0,5,10,4,3,7,3,13,0,39
20,7,50,9,14,5,15,74,1,10,9,3,10,6,4,24,0,127
38,45,127,38,97,33,7,542,8,26,62,11,35,28,8,48,0,701
116,121,311,100,341,76,145,520,72,125,261,61,139,91,40,118,0,823
47,56,113,68,123,18,22,178,31,53,80,18,36,32,15,58,0,302
12,5,30,6,22,0,1,27,1,8,6,1,27,2,1,4,0,53
5,4,29,8,21,7,0,27,3,9,7,1,8,4,5,5,5,54
35,24,109,32,94,23,27,193,9,34,36,21,56,19,7,25,0,330
17,15,27,14,22,14,0,43,7,19,30,2,7,3,4,10,4,66
20,16,72,11,58,4,28,103,12,20,20,12,14,5,7,24,0,198
56,52,228,49,120,40,0,312,25,28,48,28,71,23,6,74,14,540
93,78,261,90,211,33,0,536,60,65,109,51,88,50,13,76,1,789
38,37,225,50,111,29,0,283,28,37,43,29,66,11,6,81,1,471
32,18,76,22,55,16,16,111,14,15,28,10,23,9,2,28,0,217
13,4,78,18,25,10,4,137,4,11,13,7,30,1,4,35,0,184
0,2,10,1,3,1,2,10,2,2,0,0,6,3,0,0,0,16
3,1,37,4,7,3,3,22,4,2,0,4,9,3,0,12,0,46
11,4,25,4,18,3,1,34,1,7,6,4,11,2,4,14,0,51
2,0,16,2,7,1,1,2,0,0,1,3,7,1,0,4,0,15
10,6,55,12,43,10,1,84,7,11,13,7,16,6,0,15,0,146
1,0,8,1,6,2,0,11,2,0,3,1,1,2,2,3,1,14
2,1,1,2,6,1,3,10,2,2,1,0,0,1,0,5,0,15
39,26,158,35,114,15,0,314,11,28,44,32,58,12,5,45,19,447
34,28,128,21,72,26,0,237,11,39,28,11,51,6,7,28,15,350
27,27,35,18,54,19,0,134,3,29,30,12,12,7,7,20,17,177
49,74,157,34,129,47,7,206,27,42,78,34,42,61,8,38,0,373
37,46,116,51,146,35,0,185,16,37,75,17,27,35,6,28,73,302
42,29,54,29,102,42,0,427,7,28,68,11,17,44,5,41,4,500
44,32,111,27,110,24,0,180,21,36,45,22,38,29,5,22,23,287
41,46,134,50,128,28,5,364,12,45,55,30,29,27,11,63,0,524
49,65,205,55,169,40,0,415,20,57,59,31,68,37,9,78,45,594
33,30,136,31,85,19,0,309,6,38,44,25,53,27,7,33,18,392
53,29,192,26,143,27,2,326,22,45,42,26,66,17,15,62,0,503
23,28,125,36,76,24,2,139,14,19,54,12,47,19,9,42,0,237
63,42,166,38,136,34,0,259,17,51,86,22,47,39,7,60,19,390
44,46,83,24,125,34,0,155,19,28,77,15,30,39,13,38,12,240
30,19,124,27,86,32,0,215,12,23,46,16,30,18,8,54,32,294
53,40,231,48,118,29,0,338,18,31,34,32,57,28,15,62,39,541
61,25,290,39,127,40,18,415,6,21,35,20,95,40,8,73,0,717
41,33,205,31,115,32,0,202,9,19,52,25,55,38,11,48,8,394
37,54,156,48,197,28,14,315,19,39,48,28,54,33,20,57,0,551
28,6,114,27,31,5,0,212,4,15,10,19,37,11,3,34,1,289
41,22,173,29,101,33,0,284,13,31,36,6,42,13,13,58,32,439
68,59,273,42,106,40,0,467,18,22,34,16,60,18,4,63,28,792
6,8,18,5,22,5,2,41,2,1,11,5,13,2,1,4,0,68
83,69,151,49,168,45,42,326,52,48,79,31,49,68,19,64,0,523
75,49,281,50,169,35,0,415,21,100,84,21,93,25,5,73,25,627
47,63,234,77,178,28,18,217,37,50,94,52,60,51,32,74,0,412
22,12,89,14,36,14,0,205,6,6,15,23,15,5,1,13,15,293
66,46,215,45,108,44,0,386,32,23,48,11,54,7,5,44,71,615
51,40,262,32,115,24,19,348,32,25,40,20,75,23,4,53,0,619
39,31,143,21,83,25,35,322,12,28,29,8,50,18,9,39,0,506
57,60,257,51,152,32,0,419,20,45,54,24,94,28,17,57,38,651
62,30,196,33,80,20,0,243,7,35,28,22,53,29,11,64,8,407
43,17,175,29,59,30,8,532,7,26,31,16,44,23,6,57,0,683
59,55,249,42,112,35,37,281,10,42,53,30,83,38,24,60,0,530
21,7,76,11,37,9,10,97,3,14,8,10,17,15,5,28,0,168
27,21,176,20,66,24,0,196,6,16,29,25,46,19,8,51,19,311
17,22,80,17,29,7,10,75,6,5,11,4,19,31,3,16,0,162
37,20,116,33,52,11,12,204,5,21,18,18,44,10,7,48,0,314
57,25,172,34,99,21,0,249,4,27,31,16,51,19,14,54,53,388
50,35,137,39,89,18,0,213,7,20,26,17,36,27,15,45,11,377
13,20,66,16,37,13,0,93,5,17,19,4,17,5,8,13,3,167
57,53,109,59,145,29,10,217,13,40,53,26,34,39,34,59,0,381
78,98,276,90,235,84,0,486,30,87,133,45,94,54,49,72,21,762
21,15,133,34,63,5,12,399,6,13,24,5,33,15,4,33,0,549
28,14,165,42,73,20,0,324,10,27,15,10,57,5,6,40,37,459
96,30,290,47,96,30,4,453,28,43,36,23,74,13,21,62,0,746
8,28,66,10,66,14,11,152,10,17,24,1,11,22,2,20,0,248
20,21,113,19,49,17,0,164,15,20,14,20,29,21,9,29,11,235
36,11,106,22,46,14,0,193,5,16,6,9,47,19,6,35,4,281
9,4,35,11,19,9,9,107,0,4,15,4,11,6,0,13,0,150
19,24,112,23,64,10,0,267,7,15,37,14,28,24,5,26,8,355
14,10,31,14,36,11,0,47,9,13,19,7,10,8,6,6,6,79
26,14,67,15,45,15,13,103,7,13,24,5,29,12,3,12,0,193
19,7,117,23,27,9,3,139,5,10,22,16,31,7,9,42,0,202
17,24,66,25,58,7,9,93,1,7,21,17,18,30,7,15,0,183
7,6,47,3,20,15,0,98,0,3,15,1,8,17,2,23,4,123
51,45,214,40,137,31,12,469,10,49,50,17,79,44,16,63,0,671
59,74,209,58,179,45,2,348,28,54,70,40,69,63,16,58,0,576
66,115,249,76,180,58,18,413,23,73,88,42,75,87,24,89,0,674
52,27,286,38,114,32,0,502,2,31,33,93,78,30,5,96,34,649
54,37,231,46,98,45,9,489,7,34,42,91,47,19,5,81,0,683
48,24,152,24,62,30,0,666,6,24,31,81,40,17,6,45,24,732
85,51,157,56,159,26,0,300,19,51,58,18,54,47,11,39,21,516
64,30,227,42,131,56,0,468,27,46,63,20,53,23,12,58,43,673
34,35,132,57,131,26,4,212,12,23,41,22,36,33,28,49,0,387
19,40,58,15,82,14,0,104,9,14,23,13,9,55,0,12,9,188
31,34,116,39,97,18,0,254,11,28,27,7,42,14,7,81,0,372
20,25,78,25,79,28,13,143,16,19,23,8,25,17,7,51,0,245
43,28,137,56,135,27,0,143,17,31,48,20,29,25,13,84,3,299
56,42,239,35,157,28,14,404,36,45,44,23,51,17,12,129,0,618
33,53,187,42,158,52,8,227,23,48,55,11,73,33,9,120,0,388
75,84,252,74,215,52,27,388,53,37,78,29,87,56,9,196,0,622
45,42,206,42,132,30,0,325,24,24,24,20,65,11,14,124,22,494
10,13,45,18,26,5,1,46,4,11,3,10,13,7,7,30,0,79
11,17,33,15,37,8,7,63,6,6,11,4,18,11,6,35,0,94
23,13,52,12,36,15,2,69,1,11,19,5,13,2,2,48,0,121
10,9,53,9,26,6,8,75,3,8,2,8,10,7,4,20,0,134
6,2,13,3,9,0,0,12,2,3,2,1,6,1,1,5,0,24
4,12,63,15,37,4,2,56,4,4,10,6,12,2,0,58,0,97
13,16,65,30,44,12,0,44,5,8,8,3,21,3,5,62,5,104
33,46,136,60,151,49,0,258,9,35,44,16,38,20,18,102,1,450
46,41,157,52,115,26,0,279,15,39,22,18,29,14,3,106,3,467
34,23,228,32,124,15,4,266,12,26,24,21,44,13,5,108,0,473
46,38,246,34,95,17,0,363,10,14,18,18,50,11,11,103,28,576
35,34,195,41,111,21,0,275,7,18,29,16,69,17,6,111,12,427
21,24,109,31,75,19,0,183,18,20,15,9,29,9,8,47,28,279
68,70,224,59,247,40,0,346,27,45,67,33,68,60,19,143,24,568
42,37,176,54,119,27,0,305,18,36,23,17,37,20,8,101,23,477
60,61,188,53,167,45,49,960,22,39,88,23,43,39,14,140,0,1175
29,41,91,21,83,20,0,190,15,16,31,14,17,21,4,62,17,278
18,20,168,13,73,15,0,219,5,14,18,19,50,9,2,56,13,340
16,26,118,30,66,17,0,174,8,20,9,15,28,9,6,54,9,289
12,18,104,13,57,9,0,198,4,14,9,9,29,8,9,56,18,255
28,24,148,26,86,20,0,167,9,14,23,9,37,21,11,72,45,258
10,21,107,26,88,18,0,155,6,13,19,15,21,5,13,46,20,267
32,36,137,22,120,24,20,186,22,25,28,16,33,24,12,102,0,315
18,17,53,12,32,14,0,81,7,1,12,12,9,3,2,12,8,161
3,12,44,5,17,10,12,74,5,6,13,0,11,16,2,16,0,108
3,17,31,5,24,1,3,41,2,4,2,4,4,9,0,10,0,90
8,41,127,34,72,15,0,173,8,27,20,6,32,41,0,15,33,288
11,17,131,27,60,16,0,181,4,28,15,12,33,18,1,41,7,284
13,14,88,21,37,8,0,270,8,11,7,8,22,7,4,45,23,316
58,43,228,59,159,29,4,397,26,48,44,34,60,14,2,79,0,670
30,51,225,43,99,19,9,531,13,36,16,32,55,22,4,72,0,757
5,6,57,7,22,7,3,37,5,6,3,7,23,5,0,14,0,81
31,40,182,35,112,12,0,212,12,28,34,12,41,33,2,39,11,412
13,14,36,10,27,3,6,66,4,11,1,3,21,3,31,13,0,88
14,12,133,25,49,10,3,177,4,18,5,8,24,8,31,41,0,284
23,58,123,30,86,10,11,184,7,21,43,14,37,50,1,47,0,305
16,26,112,26,83,21,28,138,5,30,37,3,29,29,4,42,0,271
13,41,65,26,48,15,0,116,4,15,23,4,14,11,2,25,2,224
7,32,88,18,53,6,5,101,4,7,6,9,42,22,3,21,0,196
4,20,43,12,23,14,1,118,3,3,9,5,10,13,1,25,0,166
6,34,71,16,34,2,0,70,1,5,2,9,32,33,0,19,4,128
12,44,140,26,70,14,0,127,2,21,19,15,46,29,1,43,34,223
27,44,116,30,52,21,0,157,10,16,23,15,32,35,1,44,13,258
28,58,143,24,83,13,0,169,2,16,30,16,53,46,3,44,27,281
19,69,136,31,84,21,0,221,14,25,41,7,26,54,3,34,12,365
19,32,100,24,49,13,0,132,3,15,14,5,33,29,1,33,10,226
36,49,142,30,91,26,3,149,4,13,33,9,32,46,4,50,0,335
30,44,130,20,80,25,0,317,1,27,26,10,51,38,3,43,8,439
29,98,125,26,70,20,7,151,1,38,38,9,48,83,0,34,0,275
13,14,137,24,57,5,0,258,8,13,10,10,28,6,2,32,9,390
46,30,141,40,114,35,2,197,6,37,70,13,35,21,4,42,0,377
2,3,14,2,17,3,4,6,6,1,6,2,3,0,1,7,0,25
6,0,47,9,22,5,7,33,5,11,7,9,12,4,5,14,0,62
8,2,28,5,12,3,5,11,1,1,2,0,11,12,2,10,0,35
5,5,26,3,17,3,3,25,5,4,4,3,8,3,0,4,0,56
25,14,119,22,61,21,0,142,9,21,15,12,33,8,2,46,8,250
20,8,62,6,42,4,0,65,7,18,3,6,20,2,2,11,3,135
25,10,112,16,30,8,2,133,8,4,9,3,27,12,4,47,0,222
7,45,74,12,53,5,7,65,8,22,9,7,18,41,2,21,0,140
6,7,26,0,14,1,0,24,0,5,2,5,12,2,0,2,7,43
5,6,69,3,15,1,5,32,2,1,3,6,25,4,2,18,0,75
1,5,39,1,10,1,0,25,1,3,10,2,7,6,2,4,3,44
45,49,254,41,121,32,0,340,19,36,25,20,76,22,12,56,18,598
19,21,147,26,68,8,0,198,5,10,26,8,47,10,1,33,6,341
6,9,34,6,36,5,0,34,2,8,3,6,4,4,7,21,2,73
4,0,18,4,7,2,0,30,0,4,2,0,1,1,7,8,1,41
7,6,27,10,2,4,1,13,3,0,4,1,5,4,3,11,0,39
50,34,196,37,105,12,0,204,18,42,26,23,42,23,28,113,2,321
8,15,32,6,26,5,0,46,1,6,6,3,16,2,2,18,0,84
6,3,18,6,19,2,0,14,16,5,0,3,4,1,0,7,1,31
66,92,359,104,251,71,32,623,41,80,85,48,114,36,15,109,0,1070
6,2,17,3,21,4,0,29,2,9,6,1,0,4,2,1,2,55
9,12,9,3,38,5,0,16,2,4,10,1,5,10,6,16,3,35
38,50,206,73,233,53,0,359,29,58,58,27,41,50,22,119,0,608
13,21,125,36,60,12,14,167,3,17,6,18,47,12,5,30,0,310
5,2,47,10,13,9,4,53,1,5,5,0,8,0,2,18,0,104
16,3,135,20,55,11,12,154,11,18,4,8,28,5,2,31,0,299
98,87,345,67,232,59,6,589,18,49,76,75,112,31,43,104,0,975
19,42,88,24,56,16,0,167,5,30,16,9,29,25,2,23,12,261
10,7,61,1,23,3,0,86,5,2,1,3,9,4,1,18,3,145
31,15,177,32,124,14,0,255,13,22,22,25,39,2,10,59,51,405
35,23,155,39,85,28,13,288,11,22,40,19,38,8,9,63,0,456
52,28,324,51,138,45,21,520,19,51,51,30,60,18,18,105,0,827
52,26,231,46,139,24,0,380,8,33,26,19,80,17,2,84,12,617
41,41,228,60,168,21,0,415,14,48,40,21,62,19,9,75,8,678
4,6,37,5,19,4,3,29,1,1,1,6,13,6,10,19,0,50
23,29,91,26,58,12,0,124,8,13,27,6,18,5,50,41,14,181
10,11,113,23,60,14,0,194,11,24,7,15,27,9,0,24,23,285
9,8,21,9,19,2,0,41,1,3,2,1,7,6,3,4,8,74
10,7,28,4,32,5,0,63,3,8,6,1,2,2,2,16,4,105
9,13,71,16,52,9,13,66,5,12,14,11,15,7,0,20,0,165
3,0,25,9,13,0,3,13,1,3,4,3,8,1,2,8,0,36
13,16,110,24,34,6,4,125,11,13,14,9,24,9,3,19,0,230
22,22,113,15,37,18,16,216,7,12,23,22,37,9,3,43,0,303
17,8,33,9,35,4,23,58,8,10,16,3,12,11,7,36,0,84
24,15,97,18,50,15,6,68,4,21,15,11,35,6,4,57,0,140
18,30,186,31,81,27,0,273,17,15,34,10,40,20,2,72,22,414
30,36,268,63,89,22,0,254,24,27,34,19,75,17,2,98,32,434
21,30,150,24,70,16,0,300,20,21,25,6,34,14,4,39,7,441
21,25,99,21,52,7,21,197,5,16,12,3,32,24,4,37,0,310
16,12,128,21,27,7,0,184,2,15,15,6,40,1,1,20,14,281
7,2,41,9,22,0,0,35,1,6,4,3,21,3,8,18,9,43
25,47,118,40,121,23,17,217,12,23,33,16,25,19,38,37,0,405
7,2,53,16,20,7,0,82,8,8,5,3,14,1,1,7,1,139
59,38,221,65,170,55,8,373,62,30,37,14,60,25,1,81,0,679
7,3,25,5,10,3,0,12,4,1,1,2,11,2,0,8,4,32
6,5,41,5,21,2,7,18,0,3,8,6,17,0,3,16,0,52
14,9,79,7,30,6,0,83,0,9,10,4,19,0,3,26,12,145
3,2,16,3,8,4,0,21,0,4,2,0,6,2,2,9,5,27
2,8,8,9,28,0,0,16,1,4,1,0,3,14,5,1,5,37
5,6,19,16,24,3,0,21,6,4,6,2,1,4,0,10,3,58
13,0,24,8,8,4,0,36,3,6,4,1,14,4,1,2,4,54
21,33,94,21,51,11,4,169,6,18,16,6,16,17,24,16,0,285
32,37,184,45,124,32,0,164,21,17,30,8,62,24,19,61,11,365
5,1,43,9,10,3,1,31,1,4,9,0,10,4,0,23,0,52
15,15,113,10,69,12,6,162,3,23,11,11,36,16,13,25,0,264
0,2,6,2,7,2,0,14,0,1,3,1,0,4,1,4,0,19
3,0,9,2,7,1,0,4,0,4,1,2,7,0,0,2,1,9
15,16,70,14,28,6,0,77,0,19,16,16,19,4,2,13,10,127
23,7,68,10,47,12,0,85,5,5,8,4,13,5,5,34,7,166
5,3,31,1,16,11,0,32,1,5,11,7,8,0,1,16,0,50
7,1,13,7,7,0,0,20,2,0,5,4,5,1,0,2,6,30
51,39,239,40,132,21,0,355,12,19,41,25,49,9,4,106,9,603
42,39,201,40,103,40,7,280,9,34,25,20,48,16,4,102,0,494
35,47,136,40,105,24,1,285,9,23,36,28,32,27,6,63,0,449
25,37,101,22,92,19,0,203,15,28,35,16,36,10,5,35,30,289
36,63,70,17,109,30,0,153,12,34,42,14,28,26,6,38,53,225
42,87,179,49,188,28,0,282,36,52,63,44,55,52,10,48,15,480
52,93,213,43,218,61,0,388,18,58,117,28,45,47,9,64,42,640
50,71,226,33,143,49,0,415,6,34,94,39,45,26,12,72,28,631
45,81,158,35,154,37,0,241,30,52,53,22,49,46,10,43,5,441
50,81,155,44,196,44,0,205,31,52,106,24,44,53,21,42,4,398
17,33,82,17,46,6,0,104,7,18,20,8,21,18,10,18,2,183
0,4,41,6,12,7,3,33,0,6,14,7,9,7,2,13,0,48
40,48,173,40,111,30,0,218,12,34,44,31,44,19,14,66,9,387
18,20,53,12,71,9,0,87,2,14,28,12,20,18,3,16,0,157
3,3,24,5,14,5,0,14,0,4,3,0,4,12,0,9,1,35
6,23,31,6,35,4,0,35,6,9,8,10,10,11,0,12,2,72
5,18,28,5,26,5,1,33,2,11,9,4,3,14,0,5,0,73
9,32,57,19,38,16,11,72,6,11,14,7,16,27,4,14,0,155
12,8,62,9,48,5,0,64,8,6,13,9,16,3,12,24,11,106
2,8,38,1,8,1,0,41,0,2,4,2,11,3,4,7,7,59
55,86,269,58,202,54,0,288,24,75,71,44,67,49,29,62,13,578
23,25,79,24,52,20,14,97,14,16,27,8,17,10,8,39,0,195
27,25,111,34,65,18,10,145,15,31,36,6,37,12,21,30,0,247
31,40,192,43,129,23,0,273,14,41,24,17,60,13,15,51,29,467
31,29,179,23,89,19,4,268,6,30,20,24,56,25,14,46,0,421
60,48,114,44,171,35,17,226,28,35,88,23,38,55,27,47,0,374
64,68,218,63,160,42,0,386,18,48,43,34,56,37,23,74,5,663
36,60,258,62,137,29,0,318,12,32,40,32,96,21,17,53,46,551
34,48,162,26,107,26,0,245,11,35,27,22,41,26,12,53,16,405
42,61,186,61,159,28,0,294,16,44,37,29,64,33,23,56,34,495
54,72,291,61,152,63,16,362,22,46,62,33,98,48,23,69,0,670
31,46,62,31,90,22,0,179,14,30,33,14,6,34,9,26,14,281
29,35,165,28,147,35,0,179,14,21,51,18,35,29,10,32,76,332
66,67,206,68,142,41,25,241,21,61,66,31,67,55,32,61,0,462
37,39,127,30,136,24,0,239,13,33,63,17,31,29,19,44,12,371
51,78,102,38,149,35,92,862,29,43,77,22,39,65,26,35,0,1071
58,85,243,100,235,77,39,337,46,84,94,39,88,61,29,84,0,649
67,68,196,63,168,28,0,480,30,65,54,25,40,54,26,67,50,659
49,39,258,50,97,38,0,467,14,24,24,20,57,26,25,88,35,685
37,58,267,57,120,31,0,450,21,39,39,32,58,34,17,60,20,700
66,70,316,68,148,44,0,527,24,68,45,49,85,23,14,87,73,771
27,35,193,48,111,18,8,249,12,24,38,20,50,26,20,54,0,445
34,69,210,47,132,28,0,288,17,35,47,21,63,46,26,54,27,472
71,100,218,70,240,40,9,335,29,66,80,34,66,70,55,59,0,624
66,62,141,45,144,36,4,489,20,48,49,21,41,40,28,64,0,676
53,56,151,53,133,32,0,315,19,34,59,21,33,45,23,32,13,514
36,51,95,33,109,36,0,284,15,33,48,19,22,46,18,37,3,403
53,114,164,47,223,45,0,262,26,48,83,23,39,94,48,48,2,497
4,3,41,8,14,9,8,32,3,5,3,4,8,7,2,16,0,71
8,4,24,3,17,5,12,21,2,4,10,2,4,6,2,36,0,28
4,1,25,3,8,5,10,36,1,2,7,0,5,4,1,13,0,59
28,23,115,24,47,31,6,173,9,22,22,14,23,4,8,53,0,292
3,1,21,6,12,4,0,28,2,2,6,6,4,0,1,7,3,44
2,0,56,4,7,1,0,31,2,2,4,16,7,0,4,12,0,54
71,56,219,52,139,38,20,344,12,47,76,50,51,22,30,39,0,612
23,16,66,36,71,16,0,74,14,22,27,10,11,18,4,12,0,184
17,5,85,30,25,11,0,68,1,13,3,15,7,7,12,38,0,145
7,9,38,12,23,6,5,24,4,11,4,2,15,6,6,11,0,65
4,8,27,2,10,8,0,15,2,2,3,2,6,0,6,6,0,47
38,75,163,60,91,29,0,305,14,30,35,15,40,24,28,44,6,525
54,83,219,68,149,34,41,322,39,47,40,35,54,49,26,55,0,625
2,5,39,5,17,8,2,31,4,4,2,4,15,3,2,3,0,72
6,9,23,9,24,4,13,33,1,6,5,8,12,3,3,8,0,75
22,29,98,21,47,15,3,132,6,17,28,10,41,13,12,41,0,199
5,16,63,11,31,2,16,75,3,6,9,7,17,15,8,28,0,126
6,7,26,5,10,5,0,30,4,3,7,3,9,5,3,3,1,51
8,8,35,11,20,9,0,89,4,9,7,6,11,6,5,11,5,116
8,8,20,6,15,6,6,18,7,3,10,6,6,5,10,7,0,33
4,12,25,14,22,4,6,25,8,6,7,3,6,19,1,7,0,55
19,12,51,13,34,7,9,75,5,13,19,12,20,5,2,11,0,133
20,20,46,21,53,10,0,59,4,16,31,22,3,8,14,13,6,112
7,20,20,7,23,7,4,21,1,3,6,14,7,11,18,2,0,47
14,11,64,25,53,11,7,87,6,18,17,15,11,12,30,9,0,154
10,10,36,12,36,25,0,70,2,7,8,6,5,11,8,6,1,145
16,48,151,64,149,24,0,212,17,29,24,24,54,37,30,28,10,411
8,8,67,22,22,7,6,87,2,14,11,15,21,3,4,30,0,127
10,4,42,4,23,4,13,54,2,8,14,5,14,6,3,20,0,82
20,37,85,24,77,12,0,157,18,26,13,12,22,21,16,29,0,255
27,33,155,20,79,20,10,137,6,15,31,11,32,15,12,26,0,333
3,1,19,2,7,3,0,26,0,2,3,3,2,0,6,1,3,41
1,1,20,6,5,1,0,15,0,2,0,4,1,5,3,1,1,32
13,18,43,10,49,14,0,80,2,9,16,18,15,5,8,8,0,146
17,22,29,4,30,4,0,61,3,5,8,8,4,3,29,6,0,101
9,26,75,17,40,5,0,80,1,20,7,6,15,10,36,9,10,138
44,98,185,63,138,16,0,287,12,38,53,36,32,54,128,23,5,450
13,4,60,6,18,4,0,63,3,6,4,12,19,10,6,16,1,91
13,3,38,9,21,16,1,39,3,3,20,7,8,7,9,17,0,66
11,11,74,13,20,5,0,91,6,10,7,5,12,5,5,14,1,160
8,8,33,4,15,0,0,46,0,5,6,4,5,3,5,3,0,83
6,1,23,6,17,1,1,33,3,2,3,3,8,2,14,2,0,51
29,44,221,40,108,14,0,342,11,35,40,52,68,28,31,32,36,465
79,72,266,65,202,34,0,325,29,34,46,73,108,33,50,33,17,620
59,49,218,58,169,33,0,336,22,25,48,63,60,25,24,41,3,611
48,74,211,67,184,45,0,400,18,35,65,87,57,23,25,47,56,616
56,44,183,64,173,37,21,523,27,36,76,53,37,21,39,42,0,770
46,93,210,61,174,54,0,331,21,36,104,62,54,32,31,45,21,563
59,87,205,52,185,30,0,341,18,28,102,45,33,40,36,44,23,590
3,2,14,7,12,3,3,26,0,2,1,0,3,3,6,2,0,53
5,5,15,14,13,2,5,25,9,11,8,4,5,7,5,5,0,30
40,65,147,33,115,29,0,382,19,33,54,22,49,12,34,28,12,548
7,4,18,6,18,3,6,37,1,6,4,5,3,4,2,6,0,68
49,60,326,50,179,51,0,463,21,31,49,32,80,30,34,67,19,815
8,6,51,6,21,9,12,103,3,9,10,6,10,4,14,11,0,149
0,2,17,2,9,5,0,48,1,2,3,0,2,1,3,13,6,52
36,77,84,34,106,31,0,209,17,28,29,19,28,44,16,30,2,364
14,2,31,9,16,3,4,47,1,1,9,3,10,12,8,7,0,75
16,10,63,11,36,11,5,97,13,9,11,5,24,8,11,14,0,154
1,3,18,6,9,3,0,19,2,1,0,4,1,5,3,5,2,36
26,16,38,20,43,8,0,64,6,3,33,16,10,7,7,12,2,119
20,11,69,9,37,9,0,142,11,12,10,8,17,12,9,17,13,188
8,17,82,9,33,18,12,128,5,20,16,4,19,11,3,22,0,207
54,54,263,55,147,45,0,525,15,47,60,37,74,25,12,58,0,815
53,48,234,46,111,24,0,357,14,37,30,33,75,26,7,52,72,527
82,49,287,65,138,47,0,402,16,44,84,26,84,27,5,57,18,709
6,11,8,2,14,7,1,18,8,3,7,5,2,7,1,3,0,31
2,1,16,0,16,1,0,7,0,3,3,0,8,0,2,4,5,18
14,18,48,14,26,7,0,76,5,9,9,6,18,9,6,13,2,126
6,10,53,15,26,4,0,65,4,2,6,6,12,9,1,10,9,120
5,6,22,6,9,1,0,20,2,4,6,1,7,2,1,3,3,40
6,14,29,6,26,3,0,42,4,4,4,8,2,5,2,3,16,78
1,10,40,8,16,2,1,64,0,4,1,10,8,4,0,14,0,101
3,4,21,4,7,3,0,31,2,4,2,3,6,3,0,9,2,42
17,18,53,22,37,11,1,79,4,7,15,7,15,5,7,10,0,168
22,39,95,31,64,12,19,138,5,26,23,5,42,25,3,46,0,245
16,16,71,14,49,7,4,151,4,16,12,5,29,15,6,18,0,223
7,25,30,9,27,13,3,41,8,2,5,9,8,5,11,11,0,96
69,45,261,68,194,30,14,296,13,28,68,54,63,34,31,42,0,644
9,8,82,10,40,13,14,59,6,7,20,11,23,5,5,27,0,131
14,22,70,14,44,9,5,105,2,16,18,11,33,21,5,14,0,163
9,20,51,10,45,15,0,81,9,12,12,9,23,6,11,10,18,121
3,14,40,10,18,2,2,50,6,11,6,5,5,1,4,16,0,85
6,1,47,13,22,5,1,79,3,5,11,3,8,5,1,17,0,121
8,15,60,29,44,3,1,108,8,11,11,10,22,7,5,15,0,179
9,12,36,6,18,4,15,48,5,13,9,7,5,6,3,9,0,91
27,51,181,37,105,15,0,245,8,30,26,21,52,25,13,39,15,432
12,21,74,20,34,13,13,108,56,17,8,4,15,11,4,14,0,166
3,2,13,3,9,6,0,103,1,2,4,4,5,0,3,1,4,115
14,21,55,24,44,7,2,91,9,16,21,17,17,12,11,12,0,143
17,30,122,16,70,8,0,171,7,20,26,29,27,13,20,16,29,247
58,54,187,44,206,52,24,296,22,39,114,42,61,34,38,41,0,530
73,95,283,88,258,54,0,515,33,66,121,68,63,44,32,59,9,871
40,51,221,54,159,28,0,496,12,28,38,51,68,17,31,60,81,663
35,38,218,31,141,28,0,290,13,39,57,36,39,28,36,58,23,452
51,82,199,61,184,30,0,295,25,51,90,32,68,40,46,41,11,498
37,71,181,65,237,37,0,318,30,74,70,53,44,46,33,64,23,509
70,76,241,69,226,35,26,366,42,73,110,39,97,53,41,61,0,593
62,66,206,51,195,39,15,791,29,64,84,31,60,38,34,57,0,1028
8,14,62,16,37,10,0,108,16,12,6,10,14,7,6,13,2,169
19,12,73,13,46,11,11,95,14,11,12,13,18,14,5,9,0,184
9,4,67,13,31,8,14,80,12,8,9,10,13,4,8,10,0,152
2,7,8,0,5,2,1,13,11,5,0,2,2,5,0,2,0,11
7,1,21,5,12,3,0,33,1,0,8,5,5,1,0,8,7,47
6,11,38,7,13,10,6,26,14,5,12,4,6,7,1,8,0,60
30,78,271,74,160,43,13,379,70,45,63,19,51,32,24,46,0,698
17,10,64,25,38,7,0,151,13,10,6,12,21,6,13,21,2,208
20,10,49,7,43,16,0,166,10,8,8,5,11,4,1,19,10,235
15,29,93,23,47,15,12,169,8,25,18,14,27,18,7,25,0,261
58,82,280,59,143,43,0,438,26,62,62,24,114,43,16,67,1,688
17,17,57,12,49,14,12,106,5,12,20,1,11,10,1,21,0,203
34,13,99,15,59,22,12,172,12,13,27,25,20,11,10,40,0,268
19,16,99,14,38,16,0,197,3,9,17,4,15,7,2,19,10,313
12,13,57,13,47,5,5,95,9,18,7,12,22,8,11,7,0,153
34,23,103,40,75,18,0,273,23,30,33,13,17,13,10,38,9,380
28,56,154,52,90,24,3,238,10,32,56,21,41,34,13,42,0,396
52,54,203,59,146,30,27,368,8,40,84,40,64,37,16,35,0,615
14,12,33,7,48,5,0,42,10,8,18,15,24,9,3,4,7,63
3,6,22,6,20,6,0,26,2,6,8,6,2,5,2,7,3,48
9,4,27,7,18,2,1,37,3,2,4,4,10,8,4,5,0,65
5,4,20,8,15,3,5,28,0,9,5,3,10,1,1,9,0,50
17,16,70,12,41,11,0,76,6,7,13,7,36,9,1,22,2,140
17,15,67,21,41,7,7,114,11,22,12,12,14,5,15,12,0,186
17,19,113,27,98,12,0,178,15,21,29,33,22,11,16,31,0,286
49,47,145,36,98,27,0,243,19,34,41,13,35,26,6,53,17,401
34,31,133,26,81,32,0,172,14,20,36,21,34,17,12,35,7,313
23,31,138,33,48,19,18,258,9,15,33,9,32,24,5,36,0,405
20,17,93,15,54,10,0,165,6,12,21,6,30,3,6,28,25,237
20,22,143,15,53,18,0,159,7,20,24,12,20,7,5,25,36,274
8,7,33,13,17,7,6,45,6,12,3,4,7,9,3,7,0,85
4,3,18,7,8,5,0,34,3,1,4,5,4,5,1,14,0,42
5,5,18,2,18,3,5,35,0,5,6,2,4,8,2,4,0,60
29,20,80,21,89,15,0,104,16,14,29,4,33,17,2,15,4,224
23,21,109,21,109,24,0,132,16,16,21,10,21,15,5,42,7,286
19,12,51,17,40,8,0,62,7,8,11,2,5,4,7,14,34,117
14,8,49,18,42,3,0,118,12,10,3,9,4,3,2,23,35,151
32,51,159,48,128,24,4,280,10,31,31,26,52,46,7,29,0,494
7,4,24,7,17,5,1,37,3,6,11,9,10,6,0,4,0,53
6,12,18,3,19,3,5,33,1,7,4,7,6,11,3,5,0,55
2,3,18,7,9,0,0,28,0,0,4,6,4,10,2,5,2,34
24,26,123,37,83,14,0,163,36,16,32,10,40,18,1,28,0,289
19,31,76,22,77,15,10,89,20,23,18,9,26,14,3,25,0,201
7,21,33,3,17,4,8,33,5,7,5,7,5,16,3,9,0,69
2,14,22,10,16,7,0,53,4,2,4,4,4,10,4,14,2,76
7,1,40,4,17,1,7,26,5,1,1,1,2,3,7,12,0,71
3,4,3,4,16,5,2,12,1,5,6,2,0,2,0,3,0,30
3,7,8,6,18,10,0,96,2,4,15,0,4,2,0,3,12,106
1,10,22,2,10,2,0,28,2,2,5,3,5,1,2,5,6,44
5,4,30,2,13,8,0,36,5,3,5,3,11,3,1,7,3,57
5,10,32,6,21,7,0,38,8,2,6,5,10,3,5,13,6,61
2,5,31,2,17,4,0,30,1,3,10,0,7,4,2,13,3,48
32,25,151,38,128,19,0,230,17,18,66,12,41,17,4,29,9,410
45,47,214,48,114,39,0,453,55,44,33,23,44,12,8,38,10,693
47,44,237,62,116,30,4,592,62,41,37,17,52,19,6,42,0,856
20,30,210,42,88,33,0,308,28,21,22,16,42,13,3,34,12,540
35,52,178,25,85,14,0,336,38,20,31,15,29,13,2,30,14,533
33,87,181,41,133,47,12,360,57,35,64,27,48,48,17,36,0,562
22,32,169,33,59,17,0,188,30,14,24,11,34,14,6,25,10,352
52,82,135,31,138,37,0,603,81,31,70,13,27,37,2,33,3,781
27,19,104,21,70,19,1,133,16,14,19,9,36,11,10,13,0,266
69,95,305,63,239,49,0,543,34,70,76,30,79,55,21,106,16,876
71,46,244,63,110,25,0,605,27,35,41,31,58,32,10,65,38,827
28,24,285,27,94,22,0,453,6,22,25,27,65,16,4,79,18,671
40,34,191,45,101,21,19,474,15,36,18,11,57,30,6,38,0,714
22,15,73,13,33,10,0,125,9,7,19,13,11,4,2,19,11,196
7,3,12,6,15,1,2,15,4,13,0,0,4,1,0,3,0,36
15,12,47,17,42,9,0,59,13,7,21,2,12,5,1,7,1,132
7,6,97,15,24,6,4,114,0,21,10,3,24,8,3,15,0,189
9,13,54,6,27,3,0,44,11,2,7,7,18,11,4,13,7,76
5,7,27,7,11,2,4,36,7,2,5,1,3,5,2,2,0,72
6,9,21,9,27,2,0,17,10,7,9,2,7,1,0,6,15,34
10,13,19,4,19,5,2,29,11,9,5,3,1,6,2,6,0,58
47,48,239,40,169,48,0,386,52,33,56,20,55,25,9,42,17,668
4,1,30,1,9,3,10,41,0,5,4,5,11,0,0,7,0,67
25,25,116,18,84,12,0,138,4,20,29,9,31,30,14,15,14,252
26,41,219,35,104,28,0,324,6,32,41,27,59,21,18,50,7,516
36,52,233,40,118,33,0,307,17,32,54,24,57,32,16,45,16,526
39,44,173,39,92,22,0,233,9,31,39,29,44,24,10,29,32,395
4,14,41,11,33,8,1,82,2,9,12,9,5,10,1,10,0,136
18,33,101,24,54,19,0,94,8,20,41,12,33,19,8,14,2,186
60,60,286,71,181,50,123,333,16,59,75,23,88,59,38,66,0,740
36,70,237,60,165,57,156,338,17,52,108,34,88,58,38,69,0,655
18,15,81,19,43,8,11,87,7,11,21,5,26,9,2,13,0,188
39,41,152,31,107,22,19,174,5,29,47,22,33,29,10,36,0,374
41,54,246,46,100,23,0,315,11,49,29,22,49,25,21,64,26,529
45,35,245,45,120,35,0,376,16,41,45,26,67,38,24,42,20,582
37,35,221,40,124,24,0,365,10,26,35,26,45,28,14,50,14,598
39,46,221,55,102,26,0,281,25,20,30,24,58,21,15,40,12,525
28,26,183,29,69,9,0,239,7,13,16,12,58,23,23,24,10,397
33,39,164,37,108,26,0,253,8,29,37,16,60,24,30,32,18,406
45,52,213,48,109,24,27,292,17,37,50,22,51,31,20,41,0,541
26,34,191,31,77,26,0,267,10,22,39,29,51,24,11,48,5,413
54,61,247,46,127,48,3,309,17,36,68,31,90,41,6,66,0,540
40,52,184,52,126,30,0,735,17,42,46,18,32,41,17,64,19,923
24,42,154,46,126,18,3,249,19,30,43,28,51,31,22,32,0,406
59,51,217,53,119,40,0,289,14,33,26,33,49,38,13,51,32,539
35,27,127,34,101,20,0,212,11,20,30,15,34,29,8,32,16,361
36,71,198,45,81,16,0,303,5,30,43,17,55,39,18,45,39,459
61,73,347,78,140,29,27,556,19,42,45,67,85,35,12,85,0,921
1,3,7,2,13,4,0,18,0,3,4,1,2,2,0,4,6,26
43,36,206,49,93,32,0,317,18,27,22,19,44,23,11,49,14,549
9,7,50,5,21,4,0,69,8,5,9,3,21,5,0,6,8,100
0,4,5,1,1,3,0,2,0,1,5,1,4,1,0,1,0,3
0,5,10,0,4,2,0,29,0,2,2,2,9,0,1,1,3,30
8,0,8,3,9,1,2,7,2,5,3,2,3,0,0,2,0,21
0,8,18,7,7,2,11,16,1,6,2,3,1,5,3,12,0,36
3,5,21,3,13,4,0,17,1,8,1,11,1,4,1,2,1,36
5,4,28,6,15,10,5,17,3,6,12,7,4,0,0,8,0,50
63,72,187,74,189,35,0,421,19,53,72,78,35,28,8,45,27,676
70,115,255,83,213,42,36,307,22,60,114,82,89,58,10,53,0,633
68,99,268,71,172,57,0,353,15,44,82,116,61,28,9,69,7,657
81,98,214,58,158,36,0,404,20,57,99,66,56,54,12,53,38,594
50,31,188,35,129,22,0,301,9,23,32,67,39,22,3,32,50,479
1,0,23,8,8,1,0,14,6,2,1,1,6,0,1,9,6,23
22,12,90,30,59,21,4,105,17,13,16,10,25,10,7,23,0,222
2,7,43,16,7,12,0,52,9,1,2,9,10,1,5,8,0,94
34,36,146,26,72,21,0,262,52,45,6,16,33,24,7,45,2,367
4,10,34,15,21,5,3,67,5,4,8,9,9,5,7,6,0,106
0,5,38,1,14,3,0,32,2,7,1,6,4,1,0,5,6,61
6,15,27,15,18,2,0,32,1,7,12,6,1,6,4,6,1,71
26,49,123,29,100,36,0,170,19,24,31,14,36,30,34,32,9,304
23,10,102,20,54,11,0,160,11,10,20,12,33,8,2,17,20,247
4,4,17,4,7,2,0,12,1,4,1,0,1,4,2,5,0,32
13,11,47,10,25,8,0,68,2,7,3,6,8,12,2,18,4,120
11,23,70,19,45,5,8,118,13,9,6,11,19,18,6,15,0,202
5,6,27,6,12,0,0,26,4,2,6,3,10,6,4,7,4,36
2,1,21,2,7,6,3,13,0,1,7,1,2,0,0,2,0,42
8,0,22,2,13,4,0,20,1,2,2,10,8,0,0,5,3,38
4,2,28,0,7,4,0,18,1,4,1,1,6,0,0,6,5,39
11,8,42,16,30,8,6,29,5,13,6,4,7,5,9,13,0,88
1,3,16,2,7,0,0,14,0,3,0,2,7,0,0,3,3,25
2,2,32,3,11,0,0,12,0,2,2,5,10,0,1,12,3,27
2,0,22,6,11,5,1,30,3,1,6,3,7,0,1,8,0,48
9,0,35,12,24,4,0,46,3,9,3,3,12,7,1,3,1,88
24,19,56,8,60,14,0,94,6,11,18,12,21,11,4,12,4,176
7,6,11,2,5,3,0,7,0,2,4,0,1,9,1,5,3,16
2,7,40,12,36,4,10,68,1,3,19,4,8,21,4,16,0,103
6,6,49,12,14,5,0,69,9,8,4,3,18,7,1,8,3,100
3,2,29,2,21,5,0,24,3,11,1,5,7,2,0,7,6,44
1,1,29,2,12,0,0,19,0,2,3,2,8,0,0,7,3,39
4,6,22,5,14,1,0,11,2,5,4,4,9,3,0,4,1,31
5,0,18,2,28,3,0,48,7,5,2,3,7,3,6,6,9,56
53,81,278,80,170,56,14,363,24,60,149,27,66,53,8,73,0,635
10,10,57,11,22,11,5,67,8,12,12,3,18,4,2,11,0,123
9,3,16,5,17,1,0,22,5,2,3,2,6,3,0,8,7,37
1,23,21,5,11,5,1,33,0,5,8,1,6,7,2,3,0,68
11,14,32,9,32,8,8,92,3,2,4,5,15,12,5,13,0,147
11,17,86,7,44,5,1,56,14,5,14,6,13,21,1,19,0,134
2,7,12,7,13,0,10,29,2,2,2,7,0,13,0,2,0,52
28,25,96,35,58,9,0,261,6,32,20,16,38,9,4,19,13,355
31,40,148,30,94,23,27,174,29,31,35,17,33,24,9,30,0,359
15,8,77,24,18,14,0,70,1,4,5,12,20,10,3,26,10,135
9,7,69,6,21,12,1,93,3,4,5,10,15,8,2,19,0,152
25,17,44,18,48,13,0,71,13,21,15,10,7,15,5,6,6,138
13,15,25,15,54,19,20,40,9,13,20,10,4,21,1,12,0,111
7,13,63,9,28,8,1,73,9,11,6,11,25,9,4,18,0,109
17,12,47,16,26,5,3,121,8,7,13,1,9,10,2,22,0,175
18,19,81,19,49,10,0,115,4,16,36,9,28,21,3,19,12,163
16,7,82,21,44,7,0,116,4,14,22,5,20,16,0,22,5,185
15,13,120,24,41,21,14,290,11,16,19,5,20,32,10,35,0,390
3,6,38,4,5,3,0,29,7,3,2,4,7,3,0,3,3,56
3,6,17,17,28,2,9,23,3,17,4,10,3,9,1,3,0,55
17,12,57,16,53,9,5,48,6,17,25,7,19,11,11,10,0,111
17,8,66,16,25,14,6,117,9,13,15,7,14,13,4,19,0,175
4,1,24,4,2,1,0,17,0,1,0,4,4,0,0,7,1,36
11,7,60,14,30,10,0,79,5,7,7,10,17,2,3,13,9,138
15,7,64,8,24,7,0,92,7,13,4,9,10,5,3,12,11,143
4,5,28,2,19,1,20,32,5,9,8,5,8,3,1,5,0,67
8,12,69,36,46,9,2,91,11,11,13,6,22,18,7,8,0,177
3,3,16,3,9,1,0,7,2,0,2,1,11,5,1,4,2,14
2,2,24,7,17,7,0,10,4,0,2,6,12,7,0,7,3,28
3,4,18,4,2,4,0,18,1,1,2,0,5,7,0,4,7,26
34,51,218,57,117,36,0,347,27,39,46,39,68,112,20,63,11,435
0,4,16,8,10,0,1,18,0,2,3,0,15,1,3,1,0,32
2,15,11,3,12,5,0,34,0,7,4,2,9,13,0,5,2,40
14,29,87,20,89,18,8,109,11,23,30,14,19,19,10,24,0,224
4,1,28,7,11,6,0,51,4,5,2,5,9,3,0,7,0,73
44,57,219,39,141,37,0,373,41,44,35,28,63,37,14,54,5,589
9,16,46,3,20,6,3,76,9,4,11,12,14,10,0,16,0,103
6,18,60,11,30,14,5,77,10,6,11,7,9,11,3,10,0,154
3,6,14,5,3,1,0,16,3,4,1,6,0,0,3,5,1,25
3,1,56,5,11,0,0,27,5,2,1,4,18,0,0,13,2,58
4,2,3,3,6,5,0,23,0,1,2,2,1,2,1,1,1,35
1,3,31,3,9,3,4,17,1,2,3,0,11,2,2,6,0,44
2,2,29,3,11,2,2,41,3,3,6,2,13,4,1,3,0,57
14,28,102,26,78,18,12,224,10,27,31,8,25,12,3,21,0,365
10,17,54,15,50,10,0,98,13,16,12,12,18,6,1,10,3,163
0,6,5,8,10,0,1,12,0,0,10,2,0,1,0,0,0,29
9,4,34,5,13,5,0,31,5,6,4,10,4,2,0,9,8,53
25,47,129,28,62,15,0,255,18,16,23,14,31,19,4,24,16,396
19,3,44,11,21,2,1,29,8,6,2,3,14,4,0,10,0,83
6,13,36,12,18,2,9,32,9,4,2,7,5,21,0,8,0,72
5,5,28,6,15,4,0,43,3,6,10,12,7,3,0,8,10,47
66,65,206,43,164,49,2,329,37,46,71,21,72,35,15,49,0,578
35,39,107,30,78,17,9,201,23,24,36,17,46,22,3,21,0,324
47,27,57,32,88,25,0,370,8,30,38,9,14,28,4,23,15,477
79,64,209,74,168,48,0,317,50,56,85,21,65,61,12,42,15,552
16,19,97,17,79,22,0,105,25,15,11,19,27,20,1,29,25,183
24,17,65,20,49,8,0,163,14,16,20,4,18,16,3,11,6,238
41,52,182,49,99,27,0,353,37,26,51,23,60,34,9,36,14,513
10,24,64,12,30,9,18,104,7,9,11,1,18,17,1,15,0,192
25,14,62,17,41,13,2,92,9,10,14,8,20,14,0,14,0,177
10,6,27,9,24,2,0,33,8,5,8,2,4,1,2,3,8,70
4,11,32,6,21,5,3,49,0,6,1,6,7,7,3,8,0,93
0,0,26,9,18,6,0,40,3,2,0,6,3,12,3,18,3,49
20,24,98,12,43,7,9,132,3,18,26,7,25,14,8,19,0,225
51,39,205,48,137,35,0,254,51,33,45,51,56,42,3,53,20,415
66,50,199,37,122,31,0,283,56,51,50,51,53,42,5,54,24,402
55,47,123,26,98,29,13,323,34,40,39,15,26,26,4,38,0,492
3,9,33,2,12,7,0,35,8,8,5,10,3,1,0,16,2,48
3,3,15,14,11,3,5,23,9,10,6,3,3,1,1,5,0,39
14,13,50,20,40,11,0,114,7,8,4,16,21,3,2,18,1,182
6,9,38,10,37,14,0,153,2,10,8,1,17,6,22,14,2,185
11,12,29,2,26,16,7,36,6,3,10,3,16,18,4,10,0,69
51,65,141,63,201,45,45,214,14,44,75,32,47,56,79,41,0,437
55,46,193,63,187,50,10,240,12,52,72,23,84,28,58,48,0,467
21,12,72,16,62,17,6,98,11,33,25,9,18,19,20,17,0,152
13,9,94,20,30,6,14,81,4,14,19,9,15,8,26,14,0,158
11,23,44,27,65,23,3,63,7,11,28,13,16,7,23,10,0,144
52,57,150,47,191,62,0,278,17,37,80,20,55,29,46,46,6,501
37,46,97,60,134,47,0,197,25,31,53,18,44,33,17,34,33,330
6,15,48,13,45,10,4,54,6,14,10,10,13,7,5,14,0,116
6,5,58,6,35,2,7,55,3,4,12,4,17,9,8,15,0,102
56,80,211,66,273,42,31,310,28,60,100,32,73,50,66,63,0,597
49,51,123,29,98,20,10,113,12,40,39,12,32,36,51,39,0,232
32,30,174,45,108,25,0,228,7,14,23,18,55,15,24,43,8,435
29,29,178,36,75,21,0,332,6,19,24,30,75,11,20,34,27,454
54,42,218,43,106,21,0,255,11,29,28,29,74,17,38,60,29,424
38,39,176,38,177,46,0,260,15,46,53,31,47,33,63,55,2,429
49,31,61,29,99,19,3,94,11,22,24,7,25,37,43,21,0,195
31,40,130,41,139,32,0,283,10,48,38,13,38,30,43,39,43,394
50,59,131,61,149,41,12,306,22,71,52,9,47,39,41,47,0,481
40,21,201,29,102,27,0,317,12,21,26,8,61,12,37,50,29,481
53,40,176,55,119,40,0,332,7,38,32,15,31,19,39,58,26,550
39,28,177,52,127,35,0,356,11,35,27,19,52,6,28,32,29,575
55,44,197,42,144,55,0,319,20,28,56,19,57,11,37,50,25,553
41,39,173,52,93,31,0,342,8,37,18,24,35,7,26,37,7,572
34,38,229,41,121,33,0,359,9,27,32,25,65,16,23,61,5,592
39,30,188,27,92,19,0,165,11,16,29,21,66,7,37,33,14,326
40,35,111,38,126,15,32,269,8,41,34,10,28,13,58,47,0,427
82,85,132,99,201,50,72,994,27,72,96,20,34,56,128,78,0,1204
58,51,181,80,163,45,0,341,19,40,58,24,70,35,49,46,45,533
21,28,158,28,94,22,0,261,8,23,21,9,51,18,25,47,13,397
30,44,225,73,205,48,0,289,19,43,71,22,62,37,69,42,24,525
21,32,224,35,116,27,0,255,10,38,23,19,69,18,26,28,37,442
26,36,177,31,88,16,0,252,13,20,25,31,47,15,25,48,30,372
33,34,184,44,102,35,0,226,12,24,26,9,49,20,25,54,44,395
31,55,302,40,148,30,0,263,8,34,25,28,75,24,36,80,107,452
42,34,227,57,132,24,0,337,16,36,19,27,68,9,37,50,24,567
36,40,162,47,137,30,0,219,17,37,25,23,55,24,47,41,33,369
28,36,128,45,145,26,0,182,17,36,22,12,43,23,39,46,10,342
73,73,191,60,224,37,0,332,21,40,61,34,64,37,83,41,38,571
39,50,106,53,170,29,0,290,11,51,51,7,42,39,49,30,34,423
35,29,207,35,110,28,0,310,34,13,21,18,47,19,18,54,112,418
32,31,171,45,101,24,0,284,55,28,29,14,46,19,9,34,9,445
29,31,182,38,129,30,0,221,40,28,46,13,49,20,8,48,8,400
26,36,117,35,113,16,6,280,28,19,48,8,37,24,10,45,0,410
39,30,165,26,112,30,0,244,37,20,26,16,44,35,8,48,19,393
43,41,252,46,152,48,0,227,60,36,61,20,63,32,7,66,26,438
4,2,28,4,33,4,3,27,11,12,5,5,10,0,3,5,0,54
8,7,48,10,47,10,0,63,8,8,25,2,14,5,6,16,0,109
31,22,134,53,71,17,13,185,24,24,24,9,47,23,18,27,0,330
2,0,14,2,2,0,6,18,1,1,0,0,6,1,1,0,0,34
14,11,52,10,46,4,0,45,14,5,11,8,18,7,4,6,3,106
24,10,77,29,57,11,0,107,13,14,15,6,25,22,7,19,2,192
8,4,30,5,13,5,1,22,4,6,5,8,7,2,9,7,0,40
41,7,53,14,38,9,0,94,8,17,21,10,19,6,11,10,2,152
5,1,46,6,14,2,0,25,3,4,1,3,15,2,3,7,3,58
24,27,223,39,95,15,15,244,7,29,28,16,55,9,6,30,0,502
9,15,77,10,25,11,0,61,5,9,6,16,24,4,11,13,6,114
46,37,167,48,97,30,9,210,12,39,34,24,54,26,28,48,0,379
8,10,20,5,38,7,5,30,4,14,8,2,8,5,1,15,0,66
19,22,59,15,67,25,12,97,11,14,22,6,19,33,3,16,0,192
6,7,17,6,16,6,2,32,0,1,12,4,7,7,3,10,0,48
41,47,166,50,122,31,18,200,26,60,41,30,61,28,26,37,0,366
6,6,35,5,15,11,0,30,4,2,2,1,2,4,1,7,4,81
36,44,133,48,126,20,30,183,19,49,36,11,57,33,9,30,0,376
5,5,26,14,12,4,0,22,3,5,9,5,6,7,1,4,4,44
14,28,71,26,45,18,0,121,10,17,22,10,29,5,5,13,9,203
10,23,73,24,48,4,12,124,18,13,11,8,23,10,11,14,0,210
30,43,188,53,137,39,0,172,21,38,72,26,52,17,12,35,0,389
65,65,206,88,182,49,2,315,37,51,98,17,87,42,25,55,0,560
4,13,41,6,22,11,0,48,4,13,5,6,11,9,1,7,9,80
18,36,95,35,48,17,16,95,11,9,23,21,36,35,7,17,0,201
7,18,74,15,37,4,6,74,6,6,2,10,28,9,11,11,0,152
18,48,93,38,95,29,0,103,6,37,26,21,27,20,13,21,1,252
18,48,108,35,112,17,8,148,15,31,24,21,33,45,14,9,0,302
27,26,148,42,137,16,20,199,17,55,40,13,56,27,26,25,0,356
37,20,140,45,100,11,2,243,2,17,27,20,33,61,9,21,0,408
60,38,182,70,189,35,8,276,23,41,43,20,51,81,22,38,0,539
35,51,152,43,107,33,15,289,6,26,27,16,37,19,16,37,0,541
53,40,144,53,121,29,7,303,12,31,30,15,32,26,14,30,0,560
34,33,183,32,125,28,0,251,10,22,44,17,40,6,21,30,2,494
5,5,30,4,25,4,0,37,5,8,3,2,8,3,3,12,6,60
16,13,93,21,66,13,0,112,7,9,20,10,17,13,17,19,3,219
9,5,38,21,57,15,1,79,7,18,11,4,12,3,10,12,0,148
14,14,53,17,78,16,0,55,9,9,31,6,17,13,15,13,6,128
10,12,60,14,16,15,0,60,2,5,12,12,17,5,10,10,4,110
8,16,29,4,13,1,0,17,4,5,10,5,7,2,3,12,3,37
0,4,21,5,19,5,4,19,3,8,5,2,2,3,3,6,0,45
2,6,16,10,9,0,0,13,1,6,1,7,0,7,5,9,1,19
4,1,37,8,17,9,7,35,2,8,0,2,10,1,3,13,0,79
53,62,220,70,132,30,0,260,25,41,35,23,89,18,52,57,11,476
11,4,47,8,25,4,0,115,3,7,3,3,4,1,3,9,10,171
74,68,250,79,265,60,96,346,113,66,71,21,90,57,58,73,0,689
53,57,226,47,175,47,1,375,75,37,56,15,73,34,30,63,0,598
64,59,152,51,163,45,14,271,82,53,48,17,37,32,39,42,0,469
0,1,26,5,15,4,0,18,1,6,5,0,8,2,2,8,3,34
0,1,41,3,4,3,0,48,2,3,1,3,7,0,0,5,7,72
19,9,57,19,48,6,0,110,4,14,10,3,26,7,4,19,18,163
23,16,104,27,59,18,5,154,14,27,12,12,14,21,7,15,0,284
11,13,35,8,56,10,0,73,13,10,6,3,23,9,15,9,7,111
19,20,78,22,76,17,15,78,5,27,18,13,26,21,29,16,0,170
10,2,44,12,36,8,0,20,5,9,14,18,14,5,10,9,0,48
5,10,46,6,34,4,1,60,8,5,10,7,15,6,4,17,0,94
35,42,168,48,91,25,0,219,17,22,32,9,44,16,29,32,9,418
30,25,111,21,99,17,0,140,4,22,25,14,28,8,55,27,3,257
11,16,56,9,53,16,6,64,6,8,13,11,25,8,7,11,0,142
32,48,93,40,113,36,0,126,8,16,58,16,29,26,40,29,9,257
56,55,260,65,192,39,0,434,12,46,51,11,92,34,90,44,12,709
67,53,234,52,191,29,14,228,27,39,44,27,73,28,108,41,0,481
45,36,138,39,114,24,0,219,13,19,30,17,43,14,53,31,1,394
40,49,151,51,154,30,3,167,15,35,37,18,60,28,72,45,0,335
32,59,148,42,161,37,0,314,22,30,49,18,50,31,66,31,33,463
36,36,135,27,90,28,0,119,5,25,59,9,50,22,48,29,6,218
46,62,197,75,200,50,0,246,18,48,58,30,79,29,103,47,19,445
11,12,68,8,44,1,4,44,10,12,13,6,24,12,4,5,0,106
7,2,33,4,38,3,4,52,9,8,5,1,11,6,6,6,0,91
7,1,24,15,9,3,2,17,7,0,1,6,15,2,2,8,0,37
5,9,11,3,16,6,0,7,4,0,2,3,2,10,1,9,4,22
6,9,26,4,12,5,5,18,5,9,4,1,0,5,6,5,0,50
8,13,103,19,42,11,0,113,8,13,8,8,25,12,8,16,13,198
61,42,140,44,117,21,20,398,23,42,21,19,41,26,24,54,0,593
4,10,45,8,26,6,0,48,1,13,5,10,14,1,0,8,1,94
2,1,28,7,8,1,0,38,1,2,1,4,2,3,3,3,5,61
67,46,226,53,142,27,0,215,15,29,38,28,91,27,61,53,7,427
46,34,176,36,120,37,8,238,13,36,40,25,56,25,34,38,0,428
45,23,152,31,105,32,0,233,6,25,36,16,56,11,15,42,26,388
61,52,255,53,149,37,0,317,8,38,72,39,97,34,27,72,5,532
81,73,228,53,170,44,0,369,21,49,61,19,75,57,33,49,26,628
36,35,170,43,123,35,0,190,11,34,43,25,50,26,23,25,31,364
1,3,27,3,10,5,0,27,4,3,3,7,5,0,2,4,2,46
18,14,82,13,64,11,0,81,21,20,19,13,11,9,5,19,5,161
3,4,16,0,9,2,1,13,2,4,2,1,9,1,0,2,0,27
1,2,12,5,23,1,1,17,12,6,3,4,7,3,1,1,0,25
19,27,62,31,101,14,13,103,19,21,23,11,18,26,16,21,0,215
3,3,20,10,20,6,11,42,4,8,6,5,1,4,2,14,0,71
9,5,53,8,20,8,0,19,3,5,1,8,7,3,1,11,0,83
20,7,69,15,41,13,6,66,5,10,10,6,16,11,5,15,0,159
22,13,41,16,71,13,4,85,12,16,21,23,12,25,4,17,0,135
11,20,90,13,38,19,0,126,3,8,8,7,31,5,6,10,14,225
9,4,45,3,24,2,0,27,5,7,9,1,8,2,7,8,6,61
50,17,113,43,96,22,5,193,20,19,51,7,31,12,20,32,0,347
17,6,60,14,37,9,3,63,9,17,5,15,16,7,3,13,0,124
12,9,51,9,51,20,0,73,4,7,11,6,13,10,10,10,3,151
62,57,249,49,150,39,0,335,17,55,54,45,78,44,25,41,23,559
59,36,202,48,138,30,0,444,9,44,42,34,76,25,26,42,12,647
54,65,191,70,191,48,3,321,12,33,86,32,79,63,44,41,0,553
37,30,161,34,113,27,0,306,6,27,46,30,36,27,7,39,6,484
10,5,61,6,19,1,0,53,2,10,6,6,23,1,3,9,0,95
39,37,191,36,170,33,0,336,20,54,49,39,55,20,22,75,2,506
28,29,166,31,71,11,0,340,8,19,14,23,45,16,11,23,38,479
4,8,37,8,28,4,0,39,5,3,3,4,11,3,7,4,4,84
10,7,78,12,56,9,9,83,10,7,12,12,26,4,3,16,0,174
11,11,28,16,20,11,0,50,5,9,3,13,9,3,5,10,8,82
3,6,53,6,23,9,0,40,4,2,9,6,11,2,7,15,5,79
7,24,64,7,30,10,0,75,5,6,11,3,12,11,5,15,15,134
23,8,89,16,64,17,4,103,11,38,8,15,30,6,6,13,0,197
35,40,122,51,160,30,39,184,31,43,51,15,52,30,25,41,0,373
3,1,23,7,28,0,4,18,0,2,11,9,12,1,2,2,0,45
5,9,16,16,9,5,0,15,1,3,9,3,12,3,6,7,0,31
3,5,8,3,11,1,0,5,2,6,2,3,6,2,1,4,1,9
4,3,17,5,20,5,0,8,3,6,5,0,4,2,0,6,12,24
1,2,23,5,19,6,0,26,5,2,9,2,10,0,1,10,0,43
12,16,27,16,30,0,3,48,2,13,6,6,10,5,4,6,0,100
5,10,23,6,25,6,1,35,3,6,9,2,12,6,1,8,0,64
5,10,77,18,26,2,0,70,6,11,5,8,15,5,3,23,0,132
3,5,13,2,4,1,0,2,2,3,5,2,2,1,3,6,0,6
3,6,45,12,11,4,0,42,6,6,4,3,20,4,0,7,4,69
11,9,27,9,27,6,3,50,6,9,17,0,12,10,8,5,0,75
5,8,40,12,38,6,8,44,4,7,9,7,20,13,5,19,0,77
5,16,32,13,19,7,0,49,6,7,9,4,9,8,10,5,12,71
2,2,29,2,17,2,0,23,5,4,5,1,8,3,8,7,2,34
4,13,40,7,20,1,6,27,5,10,2,6,14,8,5,6,0,62
0,3,22,0,9,0,3,9,1,1,0,9,1,0,2,9,0,23
2,1,27,14,16,1,0,24,0,3,1,2,7,1,5,3,1,62
2,2,27,2,18,5,9,28,2,5,0,14,5,2,0,7,0,58
9,10,23,2,26,6,6,35,3,3,5,7,12,13,1,3,0,70
1,0,12,4,11,2,2,12,0,7,2,0,3,1,0,10,0,21
1,1,16,3,7,1,1,27,4,3,0,2,8,4,1,7,0,28
4,5,21,14,21,10,0,39,5,7,4,12,6,5,1,12,3,59
2,4,27,3,4,6,4,19,3,3,5,2,5,3,0,6,0,42
5,4,37,7,7,9,0,33,0,2,5,2,8,2,8,2,10,63
8,11,46,8,23,6,0,54,3,6,4,1,12,2,1,27,2,98
18,7,26,9,36,11,20,23,16,9,13,3,9,7,1,18,0,74
2,6,30,5,16,11,0,20,5,8,8,3,2,0,5,20,1,38
16,9,39,22,47,6,0,78,10,13,10,6,9,7,8,26,2,126
7,1,16,5,10,5,0,16,1,2,1,1,12,4,5,6,1,27
8,4,27,9,28,14,2,28,0,4,12,12,5,2,13,6,0,66
7,14,30,8,20,5,0,34,4,3,2,1,9,7,12,3,8,69
6,3,16,1,12,2,0,8,2,2,2,2,9,6,1,4,2,18
3,6,31,7,4,0,5,17,2,3,1,3,11,5,0,5,0,43
3,13,34,5,15,8,6,35,11,11,6,3,12,13,0,3,0,60
2,3,20,5,7,1,0,50,3,8,2,0,1,0,1,4,11,58
0,2,8,0,7,0,5,11,1,2,0,1,2,7,0,3,0,17
3,4,23,3,9,2,0,9,1,4,5,2,5,0,0,4,0,32
9,1,57,9,7,6,0,33,0,0,1,0,10,2,3,17,8,81
7,14,65,11,32,11,2,79,6,7,5,7,25,5,4,29,0,133
6,8,27,5,12,8,0,25,1,3,1,1,9,2,0,20,5,49
23,2,72,9,51,17,4,101,6,13,18,12,22,1,6,27,0,174
11,10,57,8,28,4,5,53,4,8,4,7,11,8,10,6,0,118
4,9,25,3,10,11,1,38,1,2,8,3,8,5,3,4,0,67
12,8,31,8,35,5,0,60,11,11,14,3,8,0,5,5,4,98
2,3,6,6,14,1,0,6,1,0,5,2,1,0,4,7,6,12
8,5,22,5,20,3,3,25,2,3,11,4,8,1,11,13,0,38
14,12,55,9,47,9,0,29,3,12,16,9,8,10,6,23,7,81
3,8,36,13,18,18,6,47,2,9,35,1,20,2,8,12,0,60
6,8,29,5,18,4,2,31,1,5,7,7,8,4,6,14,0,51
10,10,60,17,33,8,0,51,2,4,2,14,20,3,10,13,23,98
2,13,39,9,19,6,3,55,3,5,8,3,11,6,2,11,0,97
7,1,29,5,24,6,2,24,0,6,10,6,7,6,0,5,0,58
9,6,23,3,12,5,0,21,1,4,1,1,14,0,0,0,9,49
8,17,47,16,21,8,19,45,3,13,13,8,13,9,4,22,0,96
2,10,36,10,26,4,0,29,2,8,6,3,16,10,1,4,7,60
6,46,42,12,61,6,9,63,3,16,7,7,7,62,1,9,0,133
13,13,82,13,38,4,0,114,6,11,7,3,23,7,3,29,4,184
9,7,60,4,35,11,2,53,4,8,8,11,10,3,3,12,0,122
23,20,84,10,34,11,7,104,9,10,15,2,30,6,4,24,0,193
0,6,14,1,9,1,4,3,0,3,0,2,0,10,0,3,0,20
4,0,11,2,8,0,0,25,1,3,1,3,6,0,0,3,7,26
1,9,27,4,19,10,3,22,5,4,10,3,8,2,5,11,0,47
28,20,45,22,63,19,21,72,17,21,33,3,15,8,6,28,0,159
8,3,58,1,25,22,8,50,3,5,15,6,19,4,9,22,0,92
4,5,26,5,5,3,9,24,2,9,2,3,17,2,0,9,0,37
2,1,16,12,15,3,5,38,6,10,5,3,8,0,3,8,0,49
11,12,59,7,20,6,0,81,2,6,9,8,13,2,3,30,9,114
9,4,33,11,21,4,0,37,4,5,11,7,10,0,3,21,2,56
4,6,30,3,19,5,5,32,0,3,8,0,6,1,5,11,0,70
1,7,41,3,16,2,2,52,3,11,8,5,15,1,3,4,0,74
2,1,18,2,17,0,1,28,4,8,5,5,4,0,0,4,0,39
4,5,22,4,16,9,3,38,2,3,2,2,8,0,4,16,0,64
5,6,51,12,22,2,0,59,2,5,13,3,14,3,8,21,9,79
4,0,16,2,6,0,0,16,4,2,2,1,7,1,0,7,3,17
7,14,9,8,19,8,1,25,3,4,7,1,3,29,4,3,0,37
10,7,24,3,18,6,1,36,2,6,15,3,7,4,0,4,0,64
5,2,29,2,13,3,1,23,1,2,1,0,5,2,0,3,0,64
8,0,35,6,25,5,2,18,6,4,1,2,16,3,2,17,0,48
2,0,31,4,1,0,0,27,1,2,0,1,10,2,0,10,5,34
10,8,48,13,24,11,8,32,4,7,10,11,22,4,1,24,0,71
15,12,36,7,27,10,0,70,3,8,8,6,13,4,4,19,5,107
3,5,20,3,12,2,0,23,0,3,3,10,8,2,0,2,3,37
17,17,75,10,77,9,7,94,16,18,22,12,12,14,6,24,0,182
5,3,38,2,19,2,0,48,4,1,10,5,7,1,0,8,10,71
6,8,32,5,26,1,2,32,5,10,6,5,12,14,0,5,0,55
7,1,18,6,17,4,0,18,8,3,1,1,7,4,10,6,0,31
4,10,8,4,20,2,0,18,4,6,13,3,5,0,7,0,3,25
8,12,25,21,23,8,9,21,7,13,7,6,6,12,6,16,0,54
5,9,50,14,21,4,0,20,5,8,1,6,23,7,6,6,1,60
11,3,19,2,4,7,0,14,3,3,3,1,11,1,3,3,5,27
2,2,17,7,7,2,0,6,2,3,2,7,9,2,0,4,0,14
2,0,23,4,18,7,0,4,0,0,1,4,7,4,8,13,2,19
10,10,32,11,22,5,0,41,2,6,12,4,9,7,5,4,2,80
3,3,27,7,24,4,11,28,0,10,8,4,4,5,6,11,0,59
7,16,49,12,31,6,17,49,2,8,15,11,23,4,15,7,0,102
0,2,20,3,20,7,0,12,1,7,8,5,1,7,1,8,2,24
4,2,23,5,23,0,0,47,7,3,5,1,18,4,1,0,4,61
2,0,33,2,8,2,3,31,4,0,1,5,10,0,2,6,0,53
11,4,31,14,28,3,0,69,3,14,3,3,12,2,2,1,5,115
3,9,31,4,35,1,0,22,3,6,11,5,6,14,3,12,6,39
2,5,35,10,29,11,5,39,2,8,14,5,10,24,5,9,0,59
5,6,17,4,7,7,0,16,6,2,2,3,7,0,1,4,3,34
10,9,27,12,26,6,0,46,5,13,7,2,7,6,8,12,1,75
3,2,32,7,11,1,0,17,3,2,3,1,4,0,3,16,0,41
9,5,40,6,35,6,0,33,12,7,10,10,9,2,9,7,6,62
9,9,67,7,27,13,0,62,6,3,12,3,16,10,12,10,0,122
0,0,14,8,0,2,0,9,0,0,0,2,2,0,0,2,4,23
5,2,14,6,8,3,2,17,5,8,4,1,4,2,2,0,0,31
23,28,131,38,100,29,18,146,11,42,33,16,44,21,20,26,0,300
7,17,40,7,30,10,5,41,3,15,20,5,13,8,3,31,0,59
22,35,53,24,68,15,3,93,13,24,51,12,17,15,6,20,0,155
4,8,15,2,11,4,0,24,2,4,4,0,4,7,2,6,1,38
14,20,52,9,36,12,13,43,0,9,22,3,7,21,23,20,0,94
3,5,14,9,11,0,0,23,1,2,2,3,5,1,1,6,6,38
1,1,12,3,10,2,0,17,0,3,3,0,4,0,0,6,4,26
2,4,39,9,9,3,2,13,1,1,2,2,11,2,0,7,0,55
12,8,63,7,30,5,1,51,1,6,8,24,15,2,9,19,0,93
8,2,33,8,21,1,0,27,2,5,3,9,8,3,1,12,12,45
10,3,15,16,23,6,0,46,6,7,3,6,3,1,13,7,9,64
14,10,69,14,17,5,10,33,1,2,18,12,12,8,9,10,0,100
8,2,42,7,13,3,0,45,2,1,2,12,14,2,1,2,1,83
17,18,50,12,31,3,2,81,8,9,14,9,9,19,1,11,0,134
5,5,18,4,12,5,3,15,1,3,5,3,10,5,3,3,0,34
23,16,79,18,56,11,4,77,14,22,21,20,15,9,1,35,0,147
3,7,14,5,8,8,6,12,6,9,10,3,5,2,2,2,0,24
8,4,16,4,24,0,0,30,1,7,0,8,2,3,0,8,9,48
3,2,13,4,16,1,0,7,2,2,3,5,4,6,2,1,0,21
5,2,39,5,6,2,5,21,2,2,1,1,7,2,3,18,0,49
0,5,14,2,8,5,1,14,4,1,6,1,11,2,0,5,0,19
4,15,38,6,15,8,0,36,0,8,6,7,13,3,3,7,3,72
7,4,18,9,7,2,2,26,4,2,3,0,8,1,3,1,0,53
26,28,102,26,82,12,11,92,11,23,33,15,29,7,22,19,0,220
17,11,69,13,44,5,3,96,9,10,19,12,19,10,9,19,0,151
20,26,65,32,49,15,3,78,12,13,20,6,31,14,16,13,0,163
3,7,24,2,14,2,0,32,1,1,4,1,12,3,0,3,3,56
2,3,20,9,23,1,14,54,3,3,28,7,2,4,3,6,0,70
14,18,62,27,41,1,7,54,11,12,20,5,27,16,9,16,0,108
2,2,32,6,25,3,1,33,1,9,3,4,5,5,3,13,0,61
1,1,6,6,10,4,2,7,5,7,4,1,2,4,1,4,0,9
