A7,A9,A997,A998,A999,B1114,B720,B703,B53,B768,B997,B998,B999
48,45,0,0,38,2,8,23,1,11,11,2,73
31,23,0,0,30,2,1,8,1,8,1,10,53
52,17,0,6,25,2,1,16,2,12,4,0,63
126,49,0,17,145,8,1,18,4,50,14,0,242
57,69,0,11,50,8,7,44,4,19,10,0,95
47,62,0,17,38,10,11,46,13,6,17,0,61
128,63,0,0,109,4,8,42,2,28,12,10,194
257,218,0,14,235,19,21,122,20,49,71,0,422
122,155,0,35,125,10,25,104,23,30,30,0,215
68,30,0,3,85,1,3,27,3,10,17,0,125
69,54,0,0,51,4,4,28,1,8,16,2,111
94,123,0,23,77,20,19,63,10,20,37,0,148
95,55,0,5,79,2,4,66,6,18,23,0,115
517,754,0,16,536,37,78,372,75,187,145,0,929
135,151,0,32,119,11,30,90,16,39,26,0,225
70,107,0,26,51,2,11,63,9,19,25,0,125
29,66,0,6,30,3,10,44,4,9,14,0,47
70,64,0,8,46,6,15,31,5,10,23,0,98
106,109,0,7,48,11,12,58,9,22,20,0,138
116,33,0,0,108,8,0,39,4,22,19,4,161
63,29,0,3,27,1,8,15,2,23,7,0,66
78,43,0,6,62,8,9,21,5,18,14,0,114
98,48,0,0,75,1,5,29,4,25,17,7,133
34,42,0,0,40,4,3,27,6,13,10,4,49
62,87,0,10,46,1,8,99,5,2,15,0,75
111,138,0,11,78,6,26,58,12,24,26,0,186
155,151,0,0,159,8,13,39,4,58,21,55,267
279,156,0,11,267,12,16,104,13,55,41,0,472
214,88,0,13,244,10,9,104,16,28,35,0,357
201,131,0,0,236,13,12,82,8,18,47,1,387
47,38,0,3,45,6,5,33,6,11,3,0,69
87,49,0,1,24,1,9,46,8,18,8,0,71
51,24,0,11,69,4,1,16,1,14,15,0,104
239,129,0,0,184,22,10,46,9,70,46,20,329
214,186,0,0,237,25,22,80,29,70,46,6,359
289,274,0,0,385,16,25,137,30,70,55,7,608
236,130,0,12,203,18,16,66,11,79,36,0,355
251,341,0,11,181,26,39,121,40,101,68,0,389
349,323,0,8,296,32,42,135,29,116,66,0,556
67,107,0,33,144,6,13,50,16,25,25,0,216
195,181,0,0,232,12,15,64,13,55,44,36,369
313,289,0,0,1872,33,26,85,30,68,68,72,2092
248,232,0,0,253,11,28,85,23,77,61,10,438
126,152,0,19,113,4,23,65,13,50,32,0,223
145,98,0,18,374,6,3,26,9,41,19,0,531
293,149,0,0,312,18,16,63,10,58,42,15,532
167,128,0,0,285,14,17,53,7,47,33,8,401
187,142,0,0,286,24,16,48,10,54,27,25,411
177,111,0,0,275,19,20,43,4,50,25,19,383
248,178,0,0,325,25,27,73,12,87,46,21,460
40,24,0,0,15,1,2,16,1,14,6,0,39
365,233,0,0,457,38,27,93,14,64,65,7,747
399,230,0,0,529,33,39,89,17,80,60,44,796
322,254,0,2,397,28,48,95,21,90,77,0,616
89,90,0,12,88,5,15,31,8,25,13,0,182
108,158,0,0,81,11,12,60,31,18,45,1,169
226,94,0,9,152,15,16,46,11,40,22,0,331
77,41,0,23,164,10,5,16,4,23,10,0,237
222,152,0,7,145,15,20,56,20,68,47,0,300
122,68,0,0,231,4,5,29,8,24,19,23,309
302,127,0,31,600,29,34,39,5,65,42,0,846
207,110,0,41,506,20,14,29,7,64,26,0,704
220,127,0,43,449,29,24,47,7,54,30,0,648
176,151,0,0,196,16,6,58,19,45,18,15,346
160,109,0,4,158,7,19,39,4,50,38,0,274
113,79,0,0,126,1,10,30,9,40,34,15,179
256,162,0,0,266,17,20,76,13,69,28,28,433
140,108,0,1,142,8,14,38,12,42,30,0,247
245,191,0,45,233,20,22,61,16,77,58,0,460
126,94,0,0,146,11,7,28,6,24,23,13,254
189,147,0,0,295,29,14,38,12,39,27,5,467
295,208,0,0,442,19,23,81,13,74,45,42,648
225,157,0,0,323,16,23,59,12,70,39,14,472
267,172,0,0,286,23,24,53,7,74,37,19,488
84,47,0,0,123,8,7,20,0,20,22,11,166
299,178,0,0,384,18,19,72,13,82,47,4,606
180,118,0,0,236,14,18,40,5,36,25,35,361
100,89,0,0,110,9,13,27,12,10,25,0,203
41,51,0,0,23,2,9,16,3,17,6,23,39
167,98,0,0,227,6,8,32,16,20,21,20,369
51,44,0,8,70,6,2,35,2,6,7,0,115
130,65,0,0,119,13,2,44,6,23,15,16,195
257,93,0,13,283,11,20,68,4,40,33,0,470
64,18,0,2,42,4,4,9,2,8,7,0,92
360,260,0,0,406,19,34,90,60,56,43,11,713
328,156,0,0,357,22,25,68,39,45,33,34,575
442,297,0,74,532,32,38,127,86,75,69,0,918
93,99,0,7,142,3,13,37,29,16,9,0,234
57,34,0,2,57,6,7,30,4,7,11,0,85
48,42,0,0,48,2,6,16,10,9,5,17,73
66,42,0,3,57,8,3,14,3,22,14,0,104
159,198,0,0,139,13,25,62,21,46,26,21,282
341,369,0,12,282,26,39,135,46,85,84,0,589
348,294,0,10,436,22,40,103,44,60,78,0,741
454,282,0,0,633,29,39,110,30,91,77,45,948
37,21,0,8,54,1,5,11,5,3,2,0,93
60,40,0,0,59,1,5,14,5,10,21,10,93
417,306,0,0,414,33,35,111,43,84,57,23,751
247,112,0,10,160,11,23,94,3,48,32,0,318
163,83,0,0,170,11,13,40,2,36,37,1,276
207,208,0,47,153,22,20,93,32,29,64,0,355
215,143,0,4,189,16,20,72,12,44,55,0,332
74,31,0,4,99,9,5,33,3,7,14,0,137
45,60,0,0,31,4,3,35,7,10,9,1,67
412,262,0,25,509,25,31,152,22,65,50,0,863
40,26,0,0,44,3,8,13,2,2,11,7,64
53,38,0,2,37,9,7,19,0,5,12,0,78
46,40,0,5,22,8,1,23,5,4,3,0,69
28,32,0,3,42,1,13,19,2,4,2,0,64
67,66,0,0,77,0,5,33,18,18,9,12,115
412,252,0,2,386,20,31,160,22,98,65,0,656
47,23,0,3,12,2,3,13,0,14,13,0,40
204,144,0,0,315,22,9,52,10,32,42,48,448
287,151,0,4,261,22,3,162,13,19,25,0,459
147,73,0,0,171,5,12,55,2,17,11,17,272
282,183,0,30,389,16,19,119,20,35,42,0,633
327,191,0,5,313,21,19,163,10,48,34,0,541
115,88,0,2,143,7,8,70,8,14,13,0,228
42,25,0,0,49,2,8,11,7,5,7,2,74
198,124,0,6,185,18,28,46,11,45,32,0,333
49,76,0,0,40,1,7,50,5,15,19,18,50
228,88,0,3,171,5,7,75,10,44,23,0,326
25,27,0,8,21,4,1,6,5,10,5,0,50
85,53,0,0,59,7,4,23,6,21,16,6,114
342,176,0,100,393,34,46,83,9,91,51,0,697
357,240,0,0,693,30,21,60,15,65,51,194,854
417,171,0,51,344,25,26,91,9,95,58,0,679
339,144,0,0,376,15,17,67,12,82,58,45,563
369,185,0,0,418,30,16,79,5,118,54,6,664
113,65,0,0,72,8,11,32,4,22,14,3,156
211,203,0,25,217,13,21,124,25,66,43,0,364
172,217,0,0,236,8,38,109,18,33,28,12,379
194,218,0,0,146,15,22,116,13,53,40,10,289
184,159,0,0,174,8,10,101,13,31,39,17,298
169,146,0,5,146,12,19,77,12,36,25,0,285
231,137,0,1,276,15,13,79,8,56,32,0,442
249,261,0,0,225,29,22,138,27,76,33,1,409
210,201,0,0,238,16,27,132,10,49,30,49,336
191,162,0,10,241,19,15,75,9,43,26,0,417
283,237,0,8,221,30,27,122,13,61,47,0,449
288,243,0,10,220,29,16,153,17,62,41,0,443
190,189,0,0,478,7,25,105,10,39,19,6,646
192,156,0,33,155,14,21,80,4,45,28,0,344
224,201,0,27,236,23,26,129,25,70,39,0,376
213,205,0,0,263,21,26,90,14,38,33,16,443
250,158,0,0,216,19,28,93,10,40,38,1,395
131,54,0,2,70,11,5,34,4,23,24,0,156
161,170,0,0,151,14,15,110,16,44,37,9,237
93,132,0,0,106,1,14,79,8,20,20,3,186
237,135,0,0,241,25,19,35,4,65,45,19,401
126,111,0,24,104,11,10,118,2,32,16,0,176
223,75,0,24,481,7,8,23,4,56,32,0,673
195,47,0,0,266,5,5,16,3,46,34,3,396
96,50,0,13,91,7,7,24,2,42,17,0,151
456,302,0,10,471,23,43,277,20,80,48,0,748
219,179,0,7,194,9,24,105,10,31,28,0,392
215,180,0,0,188,21,12,142,18,63,44,7,276
505,161,0,0,691,35,18,141,8,77,58,31,989
334,193,0,0,419,29,20,124,7,49,44,6,667
82,78,0,0,79,4,3,37,12,24,10,1,148
221,130,0,7,225,14,22,49,14,53,27,0,404
95,58,0,1,100,2,7,19,2,20,31,0,173
175,185,0,0,171,21,20,111,8,31,25,5,310
70,29,0,0,48,3,8,17,2,10,6,11,90
56,46,0,3,52,5,7,15,6,16,18,0,90
192,99,0,4,244,26,9,40,8,40,31,0,385
30,21,0,18,29,4,3,11,0,4,27,0,49
174,163,0,0,228,12,20,54,12,36,33,18,380
115,48,0,9,237,2,10,63,1,10,19,0,304
319,199,0,28,286,18,18,236,15,46,49,0,450
425,229,0,0,420,27,19,239,10,61,57,42,619
35,18,0,0,72,4,0,9,0,6,6,16,84
263,150,0,10,272,9,23,89,15,53,40,0,466
52,29,0,0,61,0,3,12,2,10,7,0,108
228,136,0,4,239,8,17,67,11,25,44,0,435
241,278,0,2,281,37,46,85,67,65,63,0,439
194,287,0,0,286,21,48,80,47,55,51,23,442
231,268,0,0,172,11,44,76,39,69,74,3,355
216,257,0,0,240,15,42,67,39,39,67,29,415
256,192,0,0,239,17,34,56,29,62,54,38,397
178,231,0,0,184,15,24,77,23,62,53,26,313
204,170,0,0,223,17,25,35,25,39,46,76,334
198,161,0,0,325,18,27,34,29,52,42,22,460
205,343,0,0,277,27,46,94,39,61,87,17,454
252,271,0,5,265,27,55,84,39,53,70,0,465
164,263,0,40,382,15,39,76,41,39,69,0,570
194,147,0,0,263,18,20,27,19,49,37,7,427
205,193,0,0,319,28,21,60,32,46,38,18,474
168,283,0,9,363,14,41,61,53,43,66,0,545
173,248,0,119,1475,26,46,31,42,18,47,0,1805
211,242,0,10,217,22,36,88,57,49,60,0,368
192,302,0,0,138,18,40,115,47,54,60,7,291
169,238,0,0,207,31,44,57,43,51,46,25,317
130,217,0,0,134,13,21,58,31,26,66,18,248
211,220,0,14,195,21,34,61,26,65,55,0,378
298,318,0,0,288,23,24,101,48,96,80,5,527
249,198,0,0,307,20,34,38,35,77,55,0,495
222,199,0,10,197,21,21,72,15,49,60,0,390
242,245,0,0,191,26,38,70,28,67,57,12,380
239,317,0,0,305,31,41,85,45,37,74,32,516
306,273,0,0,265,30,58,68,61,79,99,38,411
173,271,0,2,140,11,35,85,62,59,68,0,266
189,198,0,0,293,28,36,55,25,36,55,2,443
167,231,0,12,357,15,44,55,31,46,60,0,516
258,316,0,1,305,29,69,80,57,49,87,0,509
185,166,0,0,253,16,38,39,22,43,42,6,398
50,104,0,14,72,7,13,31,16,14,16,0,143
289,328,0,1,391,43,52,72,38,72,96,0,636
264,246,0,0,244,18,44,90,36,44,72,11,439
263,294,0,3,262,23,31,103,30,66,81,0,488
224,267,0,0,222,27,30,76,47,58,52,33,390
310,266,0,0,334,28,56,67,35,98,66,5,555
250,174,0,0,266,15,34,39,33,61,48,37,423
176,198,0,0,190,19,28,49,23,46,54,14,331
235,212,0,0,265,22,24,59,26,67,55,18,441
192,313,0,13,196,17,39,119,51,45,71,0,372
177,287,0,52,237,30,50,92,48,58,76,0,399
294,274,0,7,241,42,34,90,49,66,84,0,451
201,270,0,0,195,24,37,77,37,52,71,3,365
185,238,0,0,151,20,23,71,27,40,64,19,310
282,385,0,0,245,23,46,109,91,85,82,12,464
224,187,0,0,215,14,29,56,16,45,64,8,394
223,241,0,0,162,13,27,67,34,58,76,26,325
191,124,0,0,285,9,18,78,5,31,42,34,383
388,390,0,0,506,31,38,160,16,92,63,127,757
282,204,0,0,327,24,18,112,10,44,43,20,542
179,158,0,0,152,6,21,64,28,28,41,14,287
69,44,0,0,47,3,9,22,2,18,12,5,89
88,115,0,0,71,5,13,65,8,33,26,4,120
79,120,0,0,80,1,10,86,11,21,20,2,128
307,528,0,0,415,29,74,183,29,56,96,149,634
44,63,0,3,60,4,21,32,9,10,13,0,81
235,286,0,29,185,14,36,170,30,57,55,0,373
78,54,0,0,43,2,5,37,1,11,8,1,110
32,50,0,2,28,2,7,37,9,11,7,0,39
58,83,0,0,46,6,7,36,15,10,13,0,100
178,225,0,0,136,13,17,91,60,44,42,13,259
89,79,0,0,44,4,8,51,5,12,23,5,104
63,82,0,0,45,4,10,47,11,20,14,6,78
23,54,0,0,26,4,8,26,7,2,15,5,36
416,404,0,46,436,49,71,177,38,91,85,0,791
57,46,0,0,36,5,9,38,2,5,6,3,71
36,53,0,6,40,1,14,33,4,8,11,0,64
177,393,0,0,145,7,42,214,33,44,88,13,274
176,166,0,33,124,22,46,69,19,30,47,0,266
217,224,0,0,208,28,51,64,31,39,42,2,392
152,174,0,24,128,13,38,75,18,26,57,0,251
163,112,0,3,137,13,13,52,20,33,35,0,249
73,73,0,3,66,9,18,29,7,12,15,0,125
148,173,0,15,102,8,36,87,8,25,46,0,228
180,95,0,6,128,20,9,59,14,27,27,0,253
117,135,0,0,189,13,8,57,21,22,28,8,284
46,54,0,0,30,0,7,32,10,5,16,2,58
213,281,0,34,186,16,36,147,38,57,71,0,349
633,813,0,30,646,57,86,361,88,124,184,0,1222
167,183,0,7,103,6,31,85,14,40,43,0,241
111,122,0,0,107,14,22,40,31,26,31,4,172
309,302,0,1,325,27,49,101,67,64,80,0,549
351,393,0,0,518,37,53,107,99,81,67,48,770
126,87,0,0,197,23,9,22,14,23,23,7,289
75,66,0,0,65,5,2,41,18,13,9,6,112
439,368,0,0,415,44,38,182,42,84,91,3,738
314,214,0,0,715,34,26,67,7,44,71,22,972
368,191,0,0,372,35,25,89,18,98,58,17,591
356,248,0,0,373,31,23,76,29,72,64,41,641
168,99,0,0,148,14,16,37,15,27,28,20,258
257,181,0,0,168,13,19,76,16,42,40,27,373
280,222,0,0,418,30,33,89,23,48,56,34,607
210,190,0,16,315,19,26,64,9,60,32,0,521
61,31,0,0,18,2,8,27,2,13,10,8,40
216,295,0,0,202,21,26,128,29,38,66,1,404
17,23,0,0,5,6,3,2,2,4,5,7,16
5,20,0,0,6,2,0,8,1,1,2,4,13
144,166,0,0,86,12,21,65,11,25,35,57,170
363,293,0,0,401,17,36,146,26,92,64,10,666
210,295,0,6,276,23,37,121,29,47,66,0,464
109,91,0,3,73,3,8,48,6,27,29,0,155
97,97,0,9,66,4,12,76,7,22,30,0,118
80,90,0,16,43,1,24,54,6,17,16,0,111
31,36,0,0,26,3,11,26,0,4,13,0,36
66,134,0,0,78,5,21,72,5,18,18,1,138
255,262,0,0,285,16,49,106,20,45,54,27,485
348,392,0,0,347,24,46,150,26,59,72,26,684
50,35,0,2,34,7,4,15,1,10,9,0,75
79,74,0,9,34,4,14,52,3,19,15,0,89
47,44,0,7,53,3,8,28,4,12,13,0,83
89,84,0,0,93,9,9,34,9,27,15,7,156
302,215,0,33,271,21,16,219,6,67,41,0,451
80,31,0,0,130,1,2,27,9,14,6,11,171
187,73,0,35,204,13,7,82,17,22,14,0,344
25,34,0,0,31,0,0,16,6,8,7,5,48
14,20,0,0,16,0,0,17,1,4,1,3,24
86,68,0,0,87,5,15,50,1,15,11,3,141
31,32,0,0,22,2,0,15,5,3,6,5,49
23,22,0,0,37,0,5,7,3,5,7,10,45
319,313,0,0,260,18,21,189,20,66,63,24,491
263,269,0,0,266,11,21,171,18,50,56,9,462
184,82,0,8,149,12,6,99,8,28,12,0,258
311,215,0,0,280,10,8,133,70,103,38,5,439
382,298,0,0,359,30,13,142,87,86,48,35,598
262,237,0,18,212,14,11,138,78,51,24,0,413
434,382,0,12,432,22,28,180,139,88,60,0,743
349,246,0,24,705,19,34,103,72,52,51,0,993
282,192,0,0,344,14,15,81,54,54,43,18,539
182,73,0,0,124,11,7,88,5,32,12,12,212
78,73,0,0,70,5,4,70,9,24,17,2,90
141,155,0,0,138,6,5,97,4,28,42,8,244
247,169,0,11,308,27,8,146,13,40,53,0,448
240,267,0,0,335,22,14,191,23,38,46,6,502
76,88,0,0,42,7,4,42,3,12,9,26,103
402,376,0,56,333,23,44,306,32,84,79,0,599
399,301,0,0,427,22,42,203,6,67,77,2,708
70,41,0,7,71,7,1,45,2,9,15,0,110
156,82,0,5,129,9,13,80,2,24,39,0,205
68,61,0,12,84,5,5,45,3,11,6,0,150
88,61,0,0,92,1,1,62,2,7,13,1,154
349,188,0,0,365,9,9,263,1,45,31,12,532
314,212,0,16,259,15,8,249,8,49,33,0,439
67,24,0,4,82,1,2,33,5,4,8,0,124
372,190,0,31,507,21,19,246,6,52,33,0,723
450,200,0,0,360,24,17,302,6,64,45,26,526
423,284,0,49,591,40,18,304,12,65,35,0,873
318,187,0,12,277,13,6,233,5,57,32,0,448
113,77,0,5,102,10,17,43,5,12,16,0,194
368,279,0,0,347,16,27,258,10,60,33,4,586
373,289,0,24,333,11,39,191,24,62,63,0,629
366,326,0,47,647,24,40,207,23,61,46,0,985
430,383,0,0,454,17,23,314,43,74,64,23,709
176,105,0,0,234,2,16,79,8,26,34,11,339
118,91,0,8,74,8,12,62,10,15,18,0,166
178,70,0,8,133,16,2,95,22,24,15,0,215
83,129,0,11,70,13,10,83,24,16,30,0,117
90,48,0,0,72,6,10,34,10,17,14,1,118
124,140,0,0,201,11,14,77,14,28,33,6,282
138,113,0,0,151,9,5,68,10,31,22,42,215
383,442,0,113,329,40,68,237,62,71,88,0,701
51,31,0,7,43,2,5,31,4,17,12,0,61
226,133,0,0,222,20,5,101,8,53,22,28,344
334,159,0,10,648,32,18,87,16,61,39,0,898
417,209,0,10,476,21,13,131,39,67,65,0,776
182,233,0,13,156,13,18,115,9,36,67,0,326
350,267,0,46,288,18,39,128,24,60,99,0,583
183,251,0,7,113,6,41,135,20,39,57,0,256
107,32,0,4,87,3,2,38,5,19,7,0,156
439,285,0,0,311,29,37,124,25,100,69,28,623
177,121,0,0,223,22,6,53,16,38,33,0,353
285,167,0,0,248,24,12,90,11,51,26,23,463
363,226,0,0,482,28,22,203,19,59,54,7,679
55,53,0,0,40,10,10,40,2,8,7,12,59
158,133,0,30,205,19,16,90,1,29,34,0,337
42,48,0,0,39,1,6,31,9,12,11,3,56
232,328,0,0,206,11,29,189,30,46,71,0,390
120,131,0,0,95,6,35,79,6,29,31,2,158
79,93,0,12,76,8,5,80,13,23,10,0,121
25,36,0,4,22,0,8,18,1,2,7,0,51
15,45,0,0,17,0,7,25,5,5,1,0,34
255,386,0,118,198,17,54,272,48,48,82,0,436
212,62,0,0,215,5,9,66,17,46,24,5,317
51,29,0,3,28,4,2,18,8,7,7,0,65
44,42,0,0,41,6,2,16,11,10,10,3,69
108,59,0,0,69,5,4,36,22,13,18,3,135
69,21,0,5,47,1,5,20,5,23,4,0,84
104,106,0,1,47,6,18,56,8,25,34,0,111
26,24,0,3,28,2,2,10,13,5,11,0,38
136,113,0,25,132,2,19,55,10,40,29,0,251
80,57,0,3,91,3,2,47,5,27,16,0,131
44,46,0,0,39,3,3,26,0,9,10,4,74
148,211,0,14,123,20,20,143,11,28,29,0,245
39,23,0,0,19,2,2,26,1,9,6,3,32
44,47,0,0,27,5,3,24,1,9,5,11,60
280,236,0,0,197,24,24,105,16,64,59,3,418
198,128,0,4,271,13,12,51,14,37,39,0,435
257,185,0,0,248,16,28,66,31,51,50,22,426
240,256,0,23,142,15,35,123,50,67,44,0,327
149,141,0,20,379,17,23,33,28,28,39,0,521
325,236,0,0,280,20,34,105,30,79,87,5,481
341,310,0,0,345,24,38,146,17,72,81,37,581
269,249,0,9,193,22,26,116,19,76,82,0,379
138,241,0,0,168,6,37,82,40,19,51,20,292
130,140,0,0,128,6,10,68,16,20,26,16,236
91,84,0,0,49,4,15,47,5,26,11,2,114
55,66,0,0,52,9,8,42,2,8,27,3,74
40,108,0,0,30,8,11,36,12,4,19,16,72
92,129,0,0,53,10,33,54,9,21,27,2,118
224,238,0,13,212,21,43,120,14,58,67,0,364
172,180,0,0,123,11,33,79,18,55,45,8,226
80,74,0,0,44,0,8,26,5,14,19,8,118
53,71,0,3,42,8,5,48,3,9,9,0,87
24,42,0,0,30,1,9,19,2,9,9,2,45
164,175,0,0,121,11,15,74,12,39,17,12,280
195,194,0,0,146,11,34,130,10,19,31,16,284
34,15,0,3,22,1,5,9,4,7,4,0,44
157,257,0,0,150,7,36,106,28,28,27,9,323
336,383,0,0,227,26,72,141,40,70,66,2,529
145,191,0,13,150,7,28,89,26,45,23,0,281
45,61,0,0,22,1,5,33,7,9,9,4,60
181,285,0,6,194,14,20,120,37,29,45,0,401
420,386,0,0,422,21,30,168,41,68,87,32,781
173,125,0,0,114,8,18,91,16,31,25,16,207
35,50,0,2,27,5,5,23,7,2,10,0,62
113,143,0,0,111,10,24,50,12,22,38,8,203
363,564,0,1,420,41,88,159,160,71,122,0,707
226,297,0,0,175,24,49,119,45,49,41,14,357
312,347,0,0,299,21,69,137,46,79,73,7,526
331,417,0,0,302,28,57,140,92,67,78,15,573
55,75,0,0,26,5,20,48,8,12,10,5,48
236,250,0,9,140,14,22,135,31,51,73,0,309
65,51,0,3,39,16,6,33,6,16,25,0,56
106,88,0,0,72,5,8,42,7,22,32,15,135
373,305,0,0,403,17,28,175,17,96,69,25,654
155,147,0,2,88,11,15,116,9,28,36,0,177
271,258,0,6,237,36,29,87,48,78,79,0,415
267,339,0,7,245,16,45,124,42,87,66,0,478
335,427,0,23,408,18,49,184,65,77,105,0,695
327,466,0,0,287,22,49,214,59,73,103,1,559
254,381,0,0,333,16,49,141,50,65,66,31,550
47,35,0,5,45,4,7,24,8,15,17,0,57
21,16,0,0,26,0,3,9,1,8,5,0,37
75,166,0,10,70,5,17,88,20,22,14,0,155
23,29,0,8,17,0,5,28,2,7,4,0,31
124,163,0,0,148,7,18,72,19,25,41,0,253
179,228,0,3,117,6,42,97,32,34,45,0,271
125,158,0,4,58,7,26,95,22,21,29,0,145
154,160,0,13,135,10,21,109,17,26,30,0,249
172,201,0,0,159,19,23,72,21,47,39,20,291
288,377,0,13,240,17,73,176,31,75,64,0,482
55,68,0,8,30,3,13,38,3,15,11,0,78
16,20,0,0,7,0,2,4,4,4,2,7,20
97,94,0,0,74,3,7,38,3,19,27,7,161
62,76,0,10,58,4,6,48,8,13,22,0,105
357,297,0,0,316,11,37,127,18,55,89,48,585
205,333,0,18,179,9,48,166,38,84,75,0,315
101,60,0,0,50,6,11,59,3,16,11,4,101
117,160,0,1,77,9,24,71,21,12,27,0,191
32,23,0,0,20,0,6,18,0,10,8,1,32
94,97,0,0,52,4,9,63,6,17,10,30,104
345,368,0,18,304,14,45,138,49,61,74,0,654
28,47,0,0,17,2,2,17,6,12,3,8,42
262,352,0,0,197,11,41,196,45,57,49,2,410
193,173,0,0,167,13,25,81,7,41,58,0,308
43,26,0,1,16,0,0,13,6,9,10,0,48
188,135,0,2,156,10,23,72,8,55,51,0,262
122,95,0,5,100,8,9,63,8,42,18,0,174
309,574,0,0,262,24,55,277,22,54,176,26,511
66,48,0,0,36,3,10,29,3,11,10,7,77
50,84,0,18,32,5,17,34,6,16,20,0,86
28,36,0,1,21,0,8,14,9,3,15,0,37
140,127,0,0,114,11,20,87,9,39,29,0,186
35,40,0,0,26,5,13,7,3,10,6,17,40
146,171,0,1,162,6,31,81,19,44,33,0,266
270,487,0,3,234,12,84,190,84,71,85,0,468
205,393,0,21,215,24,55,152,57,52,72,0,422
267,525,0,32,583,22,92,220,70,42,95,0,866
255,419,0,0,296,9,56,159,37,60,79,99,471
394,648,0,2,429,37,99,297,67,93,164,0,716
141,199,0,30,143,9,27,92,24,34,52,0,275
275,334,0,0,272,11,61,118,27,35,86,16,527
371,444,0,1,255,19,66,192,55,95,117,0,527
154,222,0,0,172,7,22,82,11,41,37,20,328
327,299,0,0,238,14,46,125,21,86,61,40,471
210,235,0,0,260,8,24,92,21,39,57,56,408
271,408,0,6,231,13,49,207,35,65,84,0,463
68,54,0,4,57,14,8,32,6,14,17,0,92
252,276,0,3,219,22,36,136,16,52,62,0,426
168,178,0,0,139,8,36,82,24,31,42,2,260
115,143,0,11,72,8,11,75,17,34,64,0,132
36,69,0,0,32,0,6,23,3,5,9,19,72
281,410,0,0,162,14,37,210,17,30,62,138,345
129,138,0,0,141,12,27,72,11,37,23,0,226
50,33,0,0,65,5,8,40,0,4,9,6,76
