OBEC,OKRSEK,VOLICI,HLASY,HLASY_1,HLASY_2,HLASY_3,HLASY_4,HLASY_5,HLASY_6,HLASY_7,HLASY_8,HLASY_9
505528,1,286,206,5,36,18,2,0,0,82,18,45
530395,1,179,93,2,12,2,2,1,0,56,3,15
530417,1,114,82,5,5,11,1,1,0,17,7,35
530506,1,179,115,7,14,10,2,0,1,39,15,27
530557,1,119,78,0,9,4,0,1,0,43,5,16
530565,1,75,58,0,9,5,0,1,0,25,7,11
530581,1,237,147,1,13,8,3,0,1,76,13,32
530590,1,418,251,6,17,4,5,0,3,163,19,34
530603,1,68,37,0,3,1,0,0,0,26,3,4
530620,1,307,225,8,24,12,2,3,2,113,18,43
542407,1,295,214,12,20,18,6,2,0,85,11,60
542423,1,251,168,9,47,12,1,1,0,49,17,32
542440,1,82,47,1,13,2,1,0,0,19,4,7
542482,1,145,99,5,44,4,3,0,0,28,1,14
542491,1,163,83,1,6,9,2,0,0,29,12,24
542521,1,124,93,4,9,10,0,2,1,40,8,19
542539,1,176,117,3,18,10,2,2,0,62,4,16
542547,1,252,169,3,43,11,0,1,0,62,19,30
542555,1,109,71,1,5,5,1,0,0,37,9,13
542571,1,850,515,18,69,34,6,1,1,204,56,126
542580,1,332,245,7,29,15,0,2,0,94,30,68
542628,1,1075,665,25,48,34,10,9,4,313,53,169
542636,1,93,60,0,4,1,4,0,0,27,8,16
543012,1,167,122,4,15,8,1,0,0,46,12,36
543128,1,775,439,11,25,33,3,3,0,280,27,57
544647,1,263,175,4,13,7,3,7,1,75,29,36
544680,1,304,200,12,8,11,1,3,1,108,21,35
544701,1,186,124,5,12,11,0,1,0,66,9,20
545538,1,168,92,2,8,0,2,0,0,60,10,10
545678,1,555,339,7,40,30,3,1,2,165,38,53
545708,1,250,128,7,12,1,0,0,0,73,12,23
545783,1,368,219,4,27,9,3,3,1,108,21,43
545791,1,157,106,0,7,22,0,0,2,43,8,24
545856,1,455,289,2,33,12,3,1,2,161,21,54
545899,1,332,189,3,20,9,3,0,1,119,10,24
545929,1,335,198,5,13,4,0,1,0,132,10,33
546011,2,334,175,4,18,10,3,2,0,95,9,34
546011,1,358,210,4,18,10,6,0,0,114,16,42
546062,1,108,71,3,10,3,1,1,1,33,3,16
546071,1,332,201,3,19,4,5,0,2,110,22,36
546160,1,180,125,5,10,5,1,0,0,70,19,15
546178,1,65,45,1,6,1,1,0,0,28,4,4
546186,1,202,130,0,12,4,1,3,0,76,11,23
546330,1,202,120,6,9,7,4,3,0,50,6,35
546348,1,208,138,3,15,9,6,1,0,72,11,21
546429,1,102,75,5,7,4,2,0,1,31,8,17
546437,1,88,52,1,6,0,0,0,0,34,6,5
546453,1,186,111,6,11,7,1,3,0,47,11,25
546496,1,718,434,12,47,21,4,0,2,223,28,97
546518,1,131,88,13,19,7,0,0,0,14,5,30
546691,1,144,75,2,7,6,0,2,0,39,8,11
546721,1,169,111,2,15,4,2,1,0,40,10,37
546755,1,67,40,4,9,2,1,1,0,15,3,5
546763,1,79,59,1,5,4,0,2,2,28,5,12
546771,1,129,94,9,6,7,1,0,1,45,7,18
546780,1,245,131,3,14,5,9,0,0,74,8,18
546810,1,124,77,2,12,8,2,0,0,37,4,12
546828,1,36,24,1,0,1,0,0,0,4,0,18
546852,1,179,115,3,29,12,1,0,0,38,11,21
546861,1,1071,733,24,68,34,5,7,0,397,55,143
546879,1,377,243,5,22,11,2,0,2,125,20,56
546887,1,196,122,1,10,4,2,0,1,62,12,30
546895,1,65,54,4,4,3,0,1,0,24,6,12
546909,1,114,75,0,3,4,2,0,0,54,6,6
546925,1,398,244,14,16,7,0,1,2,142,20,42
553646,1,208,120,15,15,2,2,3,0,64,3,16
553697,2,1247,440,8,39,23,1,2,1,246,27,93
553697,1,1115,474,18,44,27,1,4,3,222,32,123
555193,1,420,230,6,23,13,1,1,1,113,28,44
555223,2,205,125,5,22,3,1,0,0,46,12,36
555223,1,447,243,9,24,11,1,3,0,123,26,46
562335,22,781,523,16,54,45,10,2,1,214,38,143
562335,21,509,356,13,50,28,4,0,6,136,32,87
562335,20,245,43,0,9,0,0,0,0,21,6,7
562335,19,524,374,16,37,37,11,1,1,122,31,118
562335,18,2117,440,21,49,20,8,5,2,216,49,70
562335,17,860,402,12,43,20,6,7,0,200,49,65
562335,16,656,312,9,35,32,5,2,2,125,33,69
562335,15,786,406,10,53,31,0,4,0,173,32,103
562335,14,1221,652,19,61,35,8,2,2,366,47,112
562335,13,749,400,7,35,22,0,5,2,211,32,86
562335,12,714,372,12,31,23,3,3,2,180,40,78
562335,11,597,293,11,27,21,3,4,2,132,20,73
562335,10,1198,710,15,51,42,12,1,6,325,80,178
562335,9,1026,596,18,56,31,10,4,2,264,71,140
562335,8,927,534,17,48,26,5,2,1,264,65,106
562335,7,897,327,14,45,25,4,4,0,126,38,71
562335,29,621,389,12,41,29,1,1,2,185,42,76
562335,28,855,479,14,43,24,5,1,0,288,25,79
562335,27,825,414,13,33,19,5,2,1,254,33,54
562335,26,861,495,9,42,26,5,2,3,279,38,91
562335,25,543,369,15,39,26,3,0,1,148,37,100
562335,24,880,416,14,41,16,9,2,0,194,44,96
562335,23,902,498,19,46,37,10,4,4,206,38,134
562335,6,970,667,23,52,61,8,6,6,233,82,196
562335,5,580,302,12,34,16,5,0,3,141,19,72
562335,4,864,473,21,52,33,12,4,4,182,45,120
562335,3,626,374,15,38,25,5,3,3,189,26,70
562335,2,897,554,10,55,44,9,5,0,260,39,132
562335,1,785,472,16,66,42,5,6,1,184,40,112
562335,41,228,115,4,8,8,2,0,2,54,8,29
562335,40,133,86,3,11,13,1,0,0,35,4,19
562335,39,177,87,0,9,8,0,3,0,41,9,17
562335,38,488,322,15,32,28,1,1,2,138,19,86
562335,37,384,165,6,20,9,3,0,1,82,16,28
562335,36,974,584,31,65,43,10,5,0,250,48,132
562335,55,184,110,3,4,2,1,4,0,66,14,16
562335,54,314,153,10,16,9,1,0,1,75,16,25
562335,53,922,316,5,29,19,2,3,1,160,33,64
562335,52,1111,383,7,66,16,3,9,3,181,21,77
562335,51,719,402,17,52,19,6,1,3,188,37,79
562335,35,851,463,5,40,26,3,0,7,226,51,105
562335,34,627,384,10,34,32,12,5,3,168,28,92
562335,33,884,467,19,44,29,11,2,1,219,43,99
562335,32,966,505,18,51,27,11,3,2,275,38,80
562335,31,494,150,4,22,7,2,3,0,62,17,33
562335,30,1051,550,22,72,37,9,1,2,237,43,127
562335,50,914,424,10,35,24,2,2,0,249,32,70
562335,49,606,353,8,41,24,3,2,2,168,35,70
562335,48,267,175,1,20,20,5,1,0,73,13,42
562335,47,799,439,9,49,30,6,2,2,206,51,84
562335,46,916,500,10,43,55,3,2,0,225,45,117
562335,45,379,238,10,25,17,4,2,1,98,28,53
562335,44,443,315,10,29,19,8,1,3,135,30,80
562335,43,80,59,1,6,2,0,0,0,28,7,15
562335,42,479,362,26,36,35,2,0,1,130,24,108
562343,1,327,223,7,28,14,4,0,0,85,23,62
562351,1,933,546,11,55,24,10,7,5,281,52,101
562351,3,938,464,5,44,27,11,3,3,259,36,76
562351,2,1120,598,14,56,27,10,5,1,297,61,127
562394,5,406,228,3,30,18,7,1,0,98,24,47
562394,4,874,546,12,45,33,3,5,5,295,39,109
562394,3,842,494,12,54,29,10,2,1,256,39,91
562394,2,1123,654,29,63,27,10,2,3,315,68,137
562394,1,976,466,17,60,20,7,3,3,227,39,90
562408,1,535,321,15,27,18,5,2,1,174,25,54
562432,1,938,494,19,43,39,5,7,2,253,44,82
562441,2,266,103,2,8,4,0,0,1,54,8,26
562441,1,960,455,18,58,24,5,10,0,209,38,93
562483,2,283,168,1,12,7,0,2,1,120,4,21
562483,1,119,55,0,7,2,1,0,0,27,3,15
562505,1,636,382,7,45,21,3,0,2,187,43,74
562513,1,193,83,15,9,6,1,0,0,31,5,16
562521,3,87,61,4,4,2,0,0,0,22,8,21
562521,2,159,82,2,7,3,0,0,0,40,4,26
562521,1,403,210,4,26,7,5,1,0,103,28,36
562530,1,1099,563,22,67,25,10,4,1,309,45,80
562556,1,377,232,15,34,10,3,3,1,101,23,42
562564,4,470,272,8,26,14,3,0,0,131,30,60
562564,3,1370,709,21,64,32,13,2,4,374,64,135
562564,2,975,621,11,74,21,9,5,3,295,51,152
562564,1,1353,691,30,86,39,11,3,2,304,72,144
562572,1,513,317,9,40,45,0,2,1,118,22,80
562581,3,539,283,4,33,14,1,1,1,138,33,58
562581,2,1157,530,11,52,18,4,6,2,298,51,88
562581,1,1176,497,18,51,17,7,1,0,286,33,84
562611,1,918,396,10,53,18,1,3,0,186,29,96
562611,5,171,122,7,6,17,5,2,0,40,14,31
562611,4,322,130,5,17,9,1,0,4,53,10,31
562611,3,748,366,9,51,29,9,4,1,150,32,81
562611,2,663,301,6,40,15,2,0,1,146,22,69
562645,1,407,230,5,27,13,2,0,1,82,23,77
562661,1,492,249,6,19,12,1,3,0,125,41,42
562700,1,372,231,4,24,10,2,2,0,104,25,60
562718,1,687,440,13,45,24,7,2,3,229,24,93
562751,3,322,106,3,16,6,0,1,0,46,8,26
562751,2,955,434,6,44,19,6,2,1,192,43,121
562751,1,438,202,3,16,15,0,0,0,86,23,59
562777,7,976,407,12,35,31,5,5,1,210,34,74
562777,6,966,531,15,63,25,2,2,2,239,60,123
562777,5,934,490,10,55,22,9,9,5,241,41,98
562777,4,875,494,20,48,26,11,1,2,220,43,123
562777,3,1220,528,19,71,35,8,0,4,234,39,118
562777,2,1051,562,13,54,31,5,0,2,275,43,139
562777,1,757,432,8,31,27,9,2,1,212,33,109
562777,9,862,486,14,41,38,8,1,2,224,41,117
562777,8,1044,588,31,61,54,4,1,2,245,34,156
562793,1,544,304,15,27,9,5,1,1,157,25,64
562823,2,220,77,0,5,1,2,1,0,47,10,11
562823,1,808,411,19,46,16,4,2,4,206,27,87
562858,4,416,228,10,26,11,3,0,1,95,37,45
562858,3,1350,662,14,68,30,1,3,4,372,50,120
562858,2,1003,305,13,25,19,4,4,0,172,26,42
562858,1,1527,696,18,50,56,6,6,4,365,72,119
562874,1,327,175,6,18,10,1,1,1,99,9,30
562882,1,987,571,19,49,34,9,1,1,293,37,128
562882,13,251,137,9,15,6,1,1,1,48,15,41
562882,12,947,287,11,35,21,4,3,1,133,27,52
562882,11,1095,565,12,51,32,13,5,4,285,49,114
562882,10,1063,618,27,56,36,5,4,4,316,44,126
562882,3,1154,616,28,69,49,3,0,2,287,44,134
562882,2,945,483,14,33,47,3,2,1,270,29,84
562882,9,1057,342,13,42,16,2,1,1,178,33,56
562882,5,997,521,29,52,28,6,3,1,267,40,95
562882,4,1147,706,30,75,47,5,2,11,319,71,146
562882,7,1117,636,31,43,42,9,4,4,300,56,147
562882,6,506,279,11,18,17,3,0,2,145,19,64
562882,8,1002,492,23,34,36,2,3,2,241,35,116
562891,1,395,224,4,30,12,5,2,2,95,27,47
562912,1,1583,784,15,72,56,10,3,7,402,67,152
562921,1,903,459,8,41,23,6,4,3,252,30,92
562939,1,285,155,3,19,5,4,3,1,66,19,35
562947,1,760,419,3,27,28,1,2,2,225,31,100
562971,9,793,420,18,35,27,8,0,0,194,43,95
562971,8,882,467,20,45,34,7,4,0,200,68,89
562971,7,888,461,23,45,23,6,2,2,217,42,101
562971,6,903,437,27,47,15,3,3,2,193,58,89
562971,5,767,317,14,30,7,4,1,1,137,48,75
562971,4,661,332,19,45,13,4,3,2,152,36,58
562971,38,808,313,13,13,11,3,2,1,189,43,38
562971,37,983,411,3,30,16,5,6,1,258,46,46
562971,36,992,436,11,32,13,2,2,1,242,53,80
562971,35,976,379,18,32,13,5,0,0,205,52,54
562971,34,988,352,2,29,9,8,0,2,206,37,59
562971,33,1215,460,12,47,18,7,0,2,212,58,104
562971,32,1107,387,11,47,8,2,1,1,208,44,65
562971,3,1000,539,19,56,18,4,3,2,245,70,122
562971,2,712,375,8,31,12,8,2,1,178,50,85
562971,1,791,488,14,57,39,6,2,2,184,76,108
562971,15,1190,722,38,62,35,15,7,2,344,88,131
562971,14,1027,568,16,40,35,5,5,1,266,82,118
562971,13,1172,577,28,45,25,5,4,6,237,103,124
562971,12,2447,466,29,37,27,8,4,1,223,47,90
562971,11,760,448,27,34,36,4,1,9,179,49,109
562971,10,941,460,16,46,27,7,5,0,202,72,85
562971,30,941,358,9,27,9,2,3,0,213,30,65
562971,29,862,390,4,27,15,4,1,1,210,53,75
562971,28,856,352,3,28,20,3,3,2,190,43,60
562971,27,755,388,9,24,19,1,3,0,218,44,70
562971,26,778,323,8,24,6,1,2,2,183,40,57
562971,25,781,467,16,30,11,2,4,0,292,51,61
562971,24,991,652,40,51,33,4,5,3,303,78,135
562971,23,951,509,12,47,33,5,0,0,257,47,108
562971,22,863,496,14,40,21,9,2,4,234,58,114
562971,21,918,521,35,41,25,7,1,4,250,49,109
562971,20,884,510,22,33,23,8,1,1,264,53,105
562971,19,780,479,20,37,35,2,2,2,206,68,107
562971,18,782,490,22,41,31,2,2,2,203,72,115
562971,17,856,532,9,53,22,3,2,3,256,58,126
562971,16,975,640,26,68,35,8,4,0,250,73,176
562971,40,895,356,4,24,10,5,0,0,227,38,48
562971,39,805,348,8,27,6,7,2,2,208,39,49
562971,31,1108,637,14,41,45,9,1,3,306,85,133
562980,1,189,121,0,10,4,0,0,2,66,16,23
562998,1,436,263,15,15,23,4,0,0,104,34,68
563005,1,224,142,7,8,7,2,0,0,74,10,34
563013,1,1097,610,15,47,22,3,3,1,330,69,120
563021,1,470,290,14,27,21,4,2,1,126,42,53
563048,1,141,69,2,14,0,1,1,0,34,5,12
563056,1,648,408,19,46,8,5,2,0,180,56,92
563064,1,229,127,6,8,7,1,2,1,61,23,18
563072,1,412,196,5,19,7,3,1,2,108,32,19
563081,1,509,245,12,17,6,2,1,0,154,21,32
563099,3,975,665,19,51,32,2,4,1,307,106,143
563099,2,1243,554,13,41,28,9,2,0,300,57,104
563099,1,1888,574,28,61,24,1,4,1,268,62,125
563099,13,993,455,13,34,24,7,4,1,239,66,67
563099,6,1044,521,12,47,19,5,2,0,288,58,90
563099,5,1099,507,6,15,24,4,2,2,290,60,104
563099,4,1079,575,11,63,28,6,1,4,261,73,128
563099,12,1585,566,15,55,30,8,6,2,282,75,93
563099,7,1369,594,16,47,32,11,4,0,321,49,114
563099,11,1238,491,7,46,27,8,6,0,245,59,93
563099,10,999,389,19,36,9,7,9,1,184,35,89
563099,9,426,285,16,30,16,3,1,0,99,46,74
563099,8,1466,449,10,48,25,7,4,2,215,43,95
563102,12,1467,835,35,96,51,5,5,6,389,63,185
563102,11,1510,643,24,85,46,5,4,3,248,72,156
563102,10,1084,587,28,89,33,8,5,5,225,51,143
563102,9,1051,599,28,64,42,11,3,1,228,56,166
563102,8,969,508,17,62,31,5,1,1,251,45,95
563102,7,1170,626,24,57,43,7,2,4,267,65,157
563102,6,1106,599,9,53,27,10,6,7,292,51,144
563102,5,1037,549,13,53,31,5,5,2,275,36,129
563102,4,909,475,16,41,20,3,6,2,238,43,106
563102,3,1159,399,6,38,23,4,5,0,227,23,73
563102,2,1246,445,16,53,25,10,2,0,209,43,87
563102,1,1128,435,14,43,28,2,3,1,212,35,97
563111,1,210,114,9,7,6,1,1,0,50,17,23
563129,8,1044,531,18,49,26,5,5,2,235,58,133
563129,7,960,426,10,26,20,0,5,3,200,37,125
563129,6,1177,602,24,60,31,12,2,4,266,67,136
563129,5,1108,569,31,67,24,3,4,2,259,51,128
563129,4,1059,452,4,53,18,2,3,1,233,43,95
563129,3,978,461,18,35,16,6,6,2,235,33,110
563129,2,1013,436,13,49,19,5,6,3,229,35,77
563129,1,1625,738,40,74,29,11,3,1,320,77,183
563129,11,865,413,11,54,20,5,2,5,187,41,88
563129,10,1049,525,14,38,20,3,4,2,304,45,95
563129,9,1041,503,11,60,26,4,2,2,230,37,131
563137,1,839,409,11,53,36,0,1,1,206,30,71
563161,1,308,157,6,12,5,0,0,1,75,24,34
563188,1,213,160,3,27,6,3,0,0,78,14,29
563200,1,690,428,13,33,9,3,1,1,232,63,73
563218,1,473,273,4,17,8,0,2,3,174,33,32
563226,1,132,79,1,5,6,0,1,0,24,14,28
563242,1,369,243,7,11,11,3,2,0,129,26,54
563269,1,277,179,5,7,5,0,0,2,108,20,32
563277,1,538,342,6,35,18,6,1,1,161,37,77
563285,1,919,596,32,83,44,8,4,3,247,47,128
563293,1,167,101,1,11,0,0,1,0,58,6,24
563315,1,105,67,2,2,5,0,2,2,36,0,18
563323,1,940,489,4,39,18,9,1,3,293,48,74
563331,1,222,107,4,5,3,1,0,1,59,6,28
563340,1,1158,713,32,71,37,9,3,4,308,88,161
563358,1,724,462,15,44,17,2,2,2,248,49,83
563382,1,982,641,29,32,35,15,5,0,296,76,153
563404,3,719,301,6,33,10,1,3,0,189,18,41
563404,2,701,286,7,26,21,3,2,2,157,17,51
563404,1,967,266,13,41,21,1,1,2,117,17,53
563412,1,247,147,5,7,3,1,0,0,84,15,32
563439,1,483,272,6,19,8,5,3,0,161,32,38
563463,1,233,145,2,10,6,1,0,0,90,16,20
563471,1,457,364,57,59,12,3,0,1,153,17,62
563480,1,144,87,1,4,1,1,0,0,64,3,13
563498,1,218,119,5,15,5,1,3,0,51,13,26
563501,1,875,568,18,62,44,5,2,7,217,72,141
564567,27,828,446,14,34,43,11,3,2,155,66,118
564567,26,608,406,9,41,38,9,3,3,147,35,121
564567,25,693,402,9,43,32,10,7,0,149,45,107
564567,24,733,518,20,63,53,13,1,4,140,60,164
564567,23,657,460,9,64,44,5,3,1,172,44,118
564567,22,752,513,18,77,39,2,2,1,201,51,122
564567,21,963,659,37,92,61,9,2,4,223,41,190
564567,20,687,345,7,43,21,5,2,0,159,31,77
564567,19,560,405,26,38,47,3,5,2,140,37,107
564567,18,554,330,9,44,25,2,2,1,137,35,75
564567,6,611,364,18,48,30,9,3,2,151,30,73
564567,5,601,418,18,60,59,9,7,3,122,37,103
564567,4,626,410,20,47,46,2,1,0,110,39,145
564567,3,798,559,48,94,57,6,6,2,169,42,135
564567,17,665,470,34,60,42,6,1,0,158,47,122
564567,16,584,371,10,31,27,5,7,2,153,28,108
564567,15,528,336,10,40,14,6,3,2,143,24,94
564567,14,622,388,23,52,45,3,4,4,110,52,95
564567,2,829,533,26,64,51,7,3,3,184,57,138
564567,1,1567,489,33,66,50,1,1,2,140,49,147
564567,13,563,391,16,42,43,9,1,2,149,22,107
564567,12,603,361,11,51,35,2,2,3,142,44,71
564567,11,591,366,22,29,41,5,7,1,143,29,89
564567,10,459,334,9,27,31,5,1,0,156,25,80
564567,9,497,278,15,40,21,5,0,1,113,32,51
564567,8,665,397,16,36,39,4,2,3,153,40,104
564567,7,379,233,7,23,26,5,0,1,65,31,75
564567,30,71,26,0,6,1,2,1,0,11,0,5
564567,29,209,139,7,13,9,1,1,2,54,12,40
564567,28,724,394,12,54,40,7,2,0,130,45,104
564575,2,375,263,8,71,6,3,0,3,107,26,39
564575,1,601,360,14,78,17,3,1,2,165,26,54
564591,2,729,433,5,60,42,4,2,3,176,35,106
564591,1,1018,607,15,90,41,7,2,6,281,51,114
564591,3,247,155,4,21,15,2,0,1,77,9,26
564613,1,338,184,5,23,21,0,0,0,77,18,40
564621,1,1024,581,15,95,59,1,0,1,217,73,120
564648,1,334,203,8,46,9,2,2,0,85,11,40
564656,7,73,44,1,18,0,0,0,0,14,4,7
564656,6,73,43,0,8,2,0,0,0,23,2,8
564656,5,101,78,6,6,7,1,0,0,42,5,11
564656,4,147,79,5,22,4,1,1,0,32,4,10
564656,3,77,44,2,6,3,1,0,0,19,3,10
564656,2,129,86,2,15,3,1,0,0,28,12,25
564656,1,1123,654,17,113,37,3,4,3,279,57,141
564672,1,267,171,6,45,7,0,2,1,58,13,39
564699,1,127,62,2,5,1,0,0,1,31,10,12
564711,1,1107,601,13,38,43,6,3,0,332,47,119
564729,1,298,162,3,19,4,0,3,0,88,10,35
564737,1,101,66,0,1,2,0,0,0,42,8,13
564745,1,458,312,8,88,25,4,2,0,103,22,60
564753,1,321,196,5,39,24,1,2,0,78,17,30
564770,1,219,124,1,28,8,5,0,0,63,3,16
564818,1,296,185,12,45,11,3,2,4,53,16,39
564834,1,235,150,9,21,5,0,0,0,61,9,45
564842,1,216,141,5,25,8,0,0,0,44,16,43
564851,1,852,557,18,104,30,3,9,2,237,55,99
564877,1,1324,842,29,131,56,21,5,4,372,58,166
564893,2,166,95,2,34,3,0,0,0,36,7,13
564893,1,339,223,14,79,8,3,4,0,67,13,35
564923,2,261,170,5,42,18,4,1,0,63,7,30
564923,1,271,153,6,40,5,2,3,0,64,10,23
564931,1,129,94,1,4,5,3,2,1,53,7,18
564940,1,378,227,11,25,18,7,2,1,100,22,41
564958,1,224,156,6,11,7,3,0,1,81,8,39
564966,1,174,116,1,14,6,2,1,0,51,8,33
565016,1,301,181,2,19,21,2,0,0,90,10,37
565024,1,407,273,0,32,15,5,1,1,132,28,59
565032,1,426,291,9,73,17,3,1,3,109,12,64
565059,1,362,180,2,27,7,3,3,0,96,18,24
565067,2,416,255,14,48,17,3,0,2,96,27,48
565067,1,310,222,3,45,25,2,2,0,79,11,55
565075,1,268,177,3,22,13,0,1,0,89,25,24
565083,2,86,61,4,13,2,0,0,0,31,3,8
565083,1,544,290,8,48,16,7,3,0,113,24,71
565083,4,255,136,1,22,5,3,0,0,80,11,14
565083,3,279,167,1,31,11,0,0,0,79,11,34
565091,1,236,170,9,47,8,1,0,0,61,9,35
565105,1,110,74,2,10,4,0,0,0,40,8,10
565113,1,243,157,5,13,5,3,0,0,85,15,31
565121,2,233,143,3,10,12,0,0,1,65,14,38
565121,1,1029,474,13,61,27,5,3,1,225,39,100
565148,1,431,240,7,42,20,1,2,2,107,21,38
565156,1,461,279,13,25,14,5,0,2,131,23,66
565164,5,148,105,0,12,3,3,1,0,59,7,20
565164,4,325,194,7,29,12,2,0,0,81,14,49
565164,3,740,501,35,41,32,8,3,6,229,43,104
565164,2,936,462,18,79,34,1,3,0,210,47,70
565164,1,715,411,9,68,23,4,1,4,151,42,109
565172,1,343,247,2,41,12,2,0,0,100,30,60
565211,1,469,275,18,26,14,2,2,1,159,17,36
565229,4,807,537,14,53,48,5,1,8,227,41,140
565229,3,762,447,16,38,26,2,4,2,250,21,88
565229,2,656,401,7,29,32,4,1,3,191,37,97
565229,1,745,455,23,49,38,5,4,3,200,40,93
565229,10,325,188,12,19,13,3,1,1,89,12,38
565229,9,908,416,18,38,25,6,0,2,227,23,77
565229,8,475,234,9,26,13,5,0,2,108,26,45
565229,7,569,309,11,20,24,4,5,1,153,31,60
565229,6,1204,477,15,45,41,8,5,0,239,34,90
565229,5,593,335,7,33,22,4,2,0,158,27,82
565237,1,287,170,6,11,8,3,1,1,93,10,37
565245,1,579,389,17,30,27,2,1,1,178,32,101
565253,3,197,125,4,19,5,1,0,0,53,6,37
565253,2,182,140,6,48,7,2,0,0,44,9,24
565253,1,247,150,4,31,11,4,0,2,57,5,36
565296,1,176,83,3,13,2,2,0,0,32,12,19
565300,1,438,334,5,84,30,7,0,0,81,37,90
565318,2,171,94,3,28,3,0,0,0,37,5,18
565318,1,911,580,15,94,21,6,4,1,241,69,129
565318,5,157,110,1,21,3,1,2,0,64,6,12
565318,4,94,62,5,4,3,1,1,0,28,6,14
565318,3,97,73,5,6,7,1,0,0,32,3,19
565342,2,117,85,2,13,5,1,2,1,36,6,19
565342,1,213,129,4,26,6,0,0,0,51,7,35
565393,1,351,223,7,40,7,5,1,0,95,22,46
565415,2,149,112,7,5,7,1,0,0,57,10,25
565415,1,382,258,8,26,16,3,0,0,141,16,48
565431,1,1067,640,24,94,43,9,6,1,310,44,109
565458,2,181,114,2,7,4,1,4,1,55,9,31
565458,1,341,185,3,20,12,2,1,1,105,14,27
565474,1,209,147,3,28,6,3,1,0,67,13,26
565482,1,275,188,6,43,9,3,0,0,86,10,31
565491,1,427,254,5,73,8,3,1,1,98,12,53
565521,1,386,242,6,38,12,1,2,1,122,21,39
565547,1,86,62,3,5,1,1,0,0,30,8,14
565555,7,624,402,8,126,31,7,2,1,144,14,69
565555,6,808,584,38,188,42,8,1,2,126,34,145
565555,9,753,530,10,169,47,5,4,1,160,31,103
565555,8,792,468,11,128,31,5,5,1,173,30,84
565555,2,793,580,21,161,56,7,2,3,183,34,113
565555,1,618,402,11,128,22,4,1,1,127,33,75
565555,5,1093,450,20,150,31,6,0,2,139,33,69
565555,4,634,452,8,160,34,3,5,1,153,24,64
565555,3,596,408,16,122,35,1,0,0,144,22,68
565555,13,803,572,29,188,39,12,2,1,167,35,99
565555,12,827,511,10,148,33,5,2,4,179,35,95
565555,11,865,534,18,155,32,5,3,0,187,37,97
565555,10,864,584,22,162,46,11,1,2,195,32,113
565598,1,225,151,5,11,6,2,0,0,78,9,40
565601,1,215,142,9,24,3,1,0,0,71,19,15
565610,2,265,147,5,19,9,3,2,0,73,12,24
565610,1,389,211,4,38,8,0,1,0,93,27,40
565679,1,846,549,10,134,33,7,8,0,228,28,101
565695,1,567,363,5,30,20,2,0,3,180,40,83
565709,4,1059,562,26,69,22,8,6,2,286,40,103
565709,3,801,434,15,83,13,5,1,2,183,38,94
565709,2,1267,509,20,70,19,6,3,3,247,54,87
565709,1,961,512,20,79,37,7,3,2,212,41,111
565709,12,168,86,3,17,10,1,0,0,34,7,14
565709,11,250,154,5,19,4,2,2,0,73,9,40
565709,10,242,145,7,23,7,5,0,0,72,7,24
565709,9,98,61,1,17,0,0,0,0,27,4,12
565709,8,144,94,2,9,8,4,0,1,44,14,12
565709,7,85,70,2,11,0,0,0,1,41,2,13
565709,6,809,492,15,75,28,8,6,0,196,50,114
565709,5,1053,494,22,72,27,7,1,1,223,39,102
565717,5,115,77,7,10,3,3,0,0,36,9,9
565717,4,436,296,7,35,29,4,1,1,138,19,62
565717,3,261,165,4,14,13,4,2,0,75,16,37
565717,2,832,374,18,66,32,6,3,1,150,35,63
565717,1,716,385,16,45,35,1,7,3,176,41,61
565741,1,517,317,17,43,17,5,2,0,103,46,84
565768,3,164,105,8,7,4,1,0,0,57,9,19
565768,2,683,453,11,35,33,1,2,2,207,35,127
565768,1,606,366,14,43,17,8,0,0,174,42,68
565776,2,95,80,3,11,0,1,2,1,41,8,13
565776,1,603,361,15,46,12,6,3,0,171,48,60
565792,1,456,252,11,41,25,3,1,0,97,23,51
565806,1,201,137,4,12,8,1,4,0,61,14,33
565814,2,691,459,16,48,26,4,6,3,188,32,136
565814,1,799,396,8,52,24,3,3,0,180,41,85
565814,7,141,90,2,4,8,0,2,0,44,17,13
565814,6,115,65,2,4,2,4,0,0,42,3,8
565814,5,133,75,4,9,5,1,0,0,38,2,16
565814,4,189,118,5,8,14,1,1,2,59,9,19
565814,3,153,100,0,4,6,1,0,0,55,16,18
565831,1,685,494,20,142,33,8,2,1,156,23,109
565849,7,98,69,6,5,4,2,0,1,26,10,15
565849,6,85,57,3,8,0,0,2,0,31,5,8
565849,5,81,51,1,4,2,0,0,0,26,8,10
565849,4,90,51,11,10,3,1,0,0,15,1,10
565849,3,159,112,2,18,5,0,0,0,48,5,34
565849,2,251,169,7,4,6,2,0,0,94,16,40
565849,1,507,267,9,24,11,11,3,3,135,25,46
565857,1,384,241,8,24,18,3,0,0,123,22,43
565865,1,259,166,2,20,17,1,0,0,66,10,50
565873,1,137,80,2,11,1,1,0,0,34,7,24
565881,1,337,214,1,49,7,0,1,0,96,24,36
565890,1,414,266,9,59,9,2,6,0,108,22,51
565903,1,258,148,1,26,7,1,1,0,68,13,31
565911,1,248,138,7,18,15,5,1,1,67,9,15
565938,1,201,155,0,44,10,1,2,0,51,12,35
565946,1,404,253,5,35,21,5,1,0,139,11,36
565954,1,296,190,13,41,12,2,0,0,70,7,45
565962,3,235,103,2,6,10,2,2,0,45,13,23
565962,2,345,241,6,34,23,2,0,0,89,28,59
565962,1,657,429,16,57,53,5,3,0,156,54,85
565971,21,76,39,0,7,1,0,2,0,23,3,3
565971,20,100,66,1,6,1,2,2,0,34,4,16
565971,19,936,413,20,57,38,4,2,0,158,38,96
565971,18,780,430,12,42,28,0,0,5,209,35,99
565971,17,549,286,9,33,15,3,5,0,136,23,62
565971,1,590,317,5,34,18,1,0,0,168,21,70
565971,4,712,410,15,54,30,10,2,3,175,28,93
565971,3,779,475,28,43,40,6,3,4,208,37,106
565971,2,680,403,14,46,27,4,5,2,180,33,92
565971,16,753,532,33,63,47,6,2,0,176,49,156
565971,15,937,547,15,63,26,10,4,2,242,62,123
565971,14,871,534,23,66,35,8,4,0,202,58,138
565971,13,758,484,22,49,35,9,3,1,212,44,109
565971,12,754,481,14,35,52,7,5,1,170,54,143
565971,11,653,446,20,42,37,3,4,3,175,55,107
565971,10,902,431,17,48,18,7,2,0,187,36,116
565971,9,1145,317,19,44,25,3,3,1,90,33,99
565971,8,632,341,5,36,18,4,1,0,173,29,75
565971,7,718,387,10,35,28,2,0,1,208,33,70
565971,6,630,370,12,46,17,0,3,1,182,33,76
565971,5,787,453,10,51,30,8,4,2,224,42,82
565997,1,340,152,7,11,6,1,0,0,79,7,41
566004,1,429,272,8,21,17,7,7,0,131,22,59
566012,1,194,121,7,11,4,1,0,0,62,7,29
566021,5,118,62,0,8,4,0,0,0,35,7,8
566021,4,61,43,0,0,2,0,0,0,37,1,3
566021,3,93,57,0,5,0,0,0,0,37,3,12
566021,2,133,85,2,3,2,0,0,0,64,4,10
566021,1,388,206,9,12,8,5,3,2,104,27,36
566063,1,260,114,2,9,0,0,2,0,79,7,15
566128,1,153,83,0,11,7,1,0,0,48,5,11
566152,2,145,89,4,5,7,2,1,1,44,7,18
566152,1,383,214,12,11,13,3,3,2,105,24,41
566187,2,109,58,1,3,2,1,0,0,39,6,6
566187,1,379,242,9,29,8,3,7,0,118,22,46
566195,2,53,31,1,1,0,0,0,0,20,2,7
566195,1,278,177,8,16,10,7,1,1,83,21,30
566217,3,52,39,2,4,4,0,0,0,22,2,5
566217,2,155,108,3,9,4,2,1,3,47,13,26
566217,1,316,187,3,20,10,1,0,1,78,22,52
566233,1,458,308,4,43,24,5,1,1,135,27,68
566241,1,431,201,5,13,8,5,1,0,108,15,46
566284,2,40,33,1,6,2,0,0,0,14,6,4
566284,1,472,289,6,39,15,5,1,0,126,42,55
566306,1,554,333,11,26,13,6,2,0,166,27,82
566314,1,766,398,4,28,25,1,1,0,242,28,69
566314,5,92,36,0,8,2,2,0,0,18,3,3
566314,4,120,74,8,1,3,1,0,0,36,8,17
566314,3,152,88,0,8,2,0,0,1,63,4,10
566314,2,764,443,5,23,22,3,7,2,236,50,95
566322,1,1145,661,32,73,29,9,2,3,312,58,143
566349,1,738,426,20,49,12,3,3,3,213,43,80
566357,4,83,57,1,3,4,3,0,0,34,4,8
566357,3,125,69,1,14,3,0,0,0,38,6,7
566357,2,109,75,5,4,7,1,2,0,31,8,17
566357,1,293,179,5,10,10,1,5,0,99,11,38
566381,1,290,159,0,9,7,0,0,0,103,12,28
566403,3,51,33,0,3,0,1,0,0,19,4,6
566403,2,137,82,3,8,6,5,0,0,46,3,11
566403,1,238,127,4,16,4,1,0,0,64,6,32
566411,1,129,79,2,5,0,0,0,0,66,4,2
566438,2,82,50,2,0,0,0,0,1,35,7,5
566438,1,1100,672,15,38,32,10,1,1,402,49,124
566454,3,189,118,1,7,6,4,3,1,69,6,21
566454,2,172,97,4,3,8,0,1,0,48,8,25
566454,1,454,225,11,22,11,2,0,0,128,12,39
566501,1,319,150,9,18,4,0,1,4,86,12,16
566519,2,104,51,2,7,0,0,0,0,29,1,12
566519,1,705,391,15,99,24,0,8,2,162,14,67
566527,1,302,159,5,20,2,6,1,1,89,13,22
566535,1,356,219,20,21,16,1,0,4,79,17,61
566551,7,279,149,1,29,2,5,0,1,63,21,27
566551,6,179,135,5,7,2,1,1,0,74,8,37
566551,5,166,100,0,13,7,0,0,0,59,8,13
566551,4,170,105,6,7,7,1,0,0,58,7,19
566551,3,176,104,6,18,5,3,1,0,42,10,19
566551,2,144,96,4,14,4,1,1,0,47,7,18
566551,1,743,436,15,59,43,2,5,2,179,35,96
566560,1,552,284,19,26,5,7,6,1,152,25,43
566578,2,97,54,0,3,0,0,0,0,35,5,11
566578,1,194,125,3,13,11,1,0,1,58,15,23
566586,3,62,37,2,3,2,1,0,0,12,3,14
566586,2,79,53,2,4,2,0,0,0,32,5,8
566586,1,109,83,3,14,1,2,0,0,35,3,25
566608,1,132,78,2,2,6,0,0,0,46,6,16
566616,9,111,49,1,1,0,1,0,0,39,2,5
566616,8,198,91,2,10,3,0,0,0,58,11,7
566616,7,288,145,4,9,13,0,2,0,88,5,24
566616,6,418,224,5,20,13,1,1,1,106,17,60
566616,5,660,364,2,21,18,5,1,1,198,29,89
566616,4,645,316,6,24,15,2,3,1,189,27,49
566616,3,1108,482,10,37,24,3,3,4,303,30,68
566616,2,753,389,7,30,16,6,4,1,215,36,74
566616,1,821,513,20,18,34,5,1,3,275,41,116
566624,4,40,19,1,0,0,1,0,0,10,0,7
566624,3,1084,360,16,36,21,3,1,6,190,31,56
566624,2,1131,539,19,51,28,8,2,2,290,48,91
566624,1,670,351,6,26,7,12,0,3,211,33,53
566624,5,96,47,0,7,1,0,0,0,24,2,13
566624,9,56,35,1,5,0,0,0,0,24,3,2
566624,8,115,49,1,8,1,0,1,0,26,5,7
566624,7,115,60,1,5,1,0,0,0,31,9,13
566624,6,61,35,1,4,1,0,0,0,26,2,1
566624,12,131,43,0,0,0,0,0,0,20,7,16
566624,11,96,43,2,0,2,0,0,0,23,1,15
566624,10,81,30,0,2,2,1,2,0,13,1,9
566659,1,193,127,4,11,9,5,1,0,64,6,27
566667,3,37,33,1,4,1,0,0,0,22,2,3
566667,2,46,37,5,8,2,0,1,0,11,2,8
566667,1,385,252,6,30,11,3,1,0,118,23,60
566713,1,431,259,8,25,14,6,1,1,116,27,61
566721,1,346,246,11,30,17,3,7,1,107,18,52
566829,1,244,136,5,16,4,0,2,0,81,13,15
566853,3,79,52,0,8,9,0,1,0,22,6,6
566853,2,85,61,1,2,1,2,0,1,43,5,6
566853,1,394,235,7,23,9,4,1,3,116,27,45
566870,1,264,113,5,10,3,2,2,0,73,7,11
566896,1,319,155,4,17,8,3,2,0,80,10,31
566900,1,430,248,16,32,14,6,0,0,96,30,54
566918,1,205,146,3,16,6,0,1,0,68,9,43
566926,1,153,87,4,13,3,2,1,0,44,4,16
566934,2,783,417,21,39,18,4,1,0,223,31,80
566934,1,734,395,7,28,21,4,2,3,240,28,62
566951,2,82,39,1,5,3,0,0,0,21,3,6
566951,1,323,189,2,15,6,2,4,2,97,15,46
566977,2,80,56,2,3,3,0,0,0,22,4,22
566977,1,137,90,8,11,13,3,0,0,37,5,13
566977,3,74,49,1,4,3,1,1,0,17,10,12
566985,13,692,341,14,34,14,5,2,1,176,23,72
566985,12,712,425,13,37,24,3,2,3,233,25,85
566985,11,1240,335,11,43,23,3,0,3,143,25,84
566985,10,825,397,25,53,30,4,2,2,185,20,76
566985,9,905,446,13,43,33,5,2,7,227,43,73
566985,8,989,556,15,40,30,10,4,1,300,39,117
566985,7,889,467,5,52,20,4,5,3,250,50,78
566985,6,759,323,11,35,20,5,5,1,160,29,57
566985,5,948,498,12,32,40,10,5,2,270,31,96
566985,4,897,511,24,58,42,5,3,0,243,42,94
566985,3,820,452,25,46,28,8,0,2,199,36,108
566985,2,948,645,31,60,52,4,2,2,284,63,147
566985,1,900,516,19,38,21,8,0,2,270,46,112
566985,18,721,392,13,30,23,2,0,1,223,29,71
566985,17,690,329,11,31,22,1,0,3,172,20,69
566985,16,737,412,18,32,23,4,0,0,212,42,81
566985,15,771,397,30,32,34,5,3,3,170,39,81
566985,14,765,410,12,39,28,9,1,2,224,32,63
567019,1,331,171,5,9,6,0,1,0,106,16,28
567027,41,1071,559,11,40,35,7,2,0,300,51,113
567027,40,633,328,11,29,19,7,0,0,180,35,47
567027,39,791,363,15,34,21,4,0,1,195,22,71
567027,38,380,236,11,31,7,6,1,0,102,21,57
567027,37,691,316,7,24,15,4,1,1,184,27,53
567027,36,748,369,13,40,13,8,0,2,201,25,67
567027,35,512,268,7,23,12,2,0,1,162,14,47
567027,6,1031,641,36,66,43,11,2,3,250,86,144
567027,5,612,315,13,28,17,4,3,0,165,25,60
567027,4,515,325,11,49,25,3,1,2,118,36,80
567027,3,771,533,29,60,29,2,3,6,221,49,134
567027,2,543,330,24,44,26,5,1,2,119,36,73
567027,1,445,315,10,30,7,12,0,3,132,55,66
567027,34,791,412,4,44,18,3,1,0,229,40,73
567027,33,827,417,22,37,21,3,3,2,236,31,62
567027,32,763,439,12,26,13,5,0,0,252,42,89
567027,31,890,427,10,51,20,4,1,2,217,41,81
567027,30,995,468,9,39,21,4,4,3,242,29,117
567027,29,1080,581,24,60,26,4,3,2,286,60,116
567027,28,1045,548,18,36,32,7,4,1,280,52,118
567027,27,1102,484,10,35,21,5,7,0,269,43,94
567027,26,1006,497,16,52,18,4,4,4,254,45,100
567027,25,1073,566,14,54,17,5,1,0,310,50,115
567027,24,1105,576,12,59,19,10,3,1,307,60,105
567027,23,851,389,14,37,14,6,3,0,210,31,74
567027,60,1263,545,12,51,20,11,5,1,263,60,122
567027,59,981,458,9,52,37,9,3,1,223,40,84
567027,58,1063,467,11,27,27,4,1,3,266,43,85
567027,22,1038,554,24,45,27,3,0,0,305,48,102
567027,21,960,364,9,31,14,2,1,2,210,29,66
567027,20,765,42,0,29,2,0,0,0,10,1,0
567027,19,179,119,7,14,3,0,0,2,62,12,19
567027,57,1264,492,3,45,25,13,2,1,259,41,103
567027,56,1316,647,37,67,26,10,3,6,311,76,111
567027,55,1073,654,51,93,52,14,2,2,234,55,151
567027,54,1013,528,12,47,17,3,5,2,334,45,63
567027,53,848,444,8,32,26,6,0,4,260,23,85
567027,52,1069,514,18,55,25,13,1,3,255,38,106
567027,51,588,346,13,29,12,3,1,2,196,18,72
567027,50,921,438,18,45,14,8,2,2,262,32,55
567027,49,764,349,10,12,15,1,4,2,239,23,43
567027,48,857,276,11,11,11,2,0,1,167,27,46
567027,47,862,418,17,46,23,6,0,1,191,47,87
567027,46,880,384,7,37,20,8,2,1,226,31,52
567027,18,742,438,17,34,13,5,1,1,258,44,65
567027,17,838,412,16,46,21,3,1,1,201,47,76
567027,16,2481,350,13,48,10,4,1,2,181,27,64
567027,15,767,390,18,44,29,6,1,3,167,31,91
567027,14,750,357,12,31,22,5,2,0,194,24,67
567027,13,762,203,12,21,11,1,0,2,107,15,34
567027,12,1015,280,12,30,21,3,0,1,128,24,61
567027,11,889,428,18,46,38,4,4,1,187,44,86
567027,10,668,179,4,17,7,3,1,0,90,18,39
567027,9,865,301,20,45,28,3,0,1,79,40,85
567027,8,540,385,36,62,28,6,0,2,74,52,125
567027,7,503,325,10,28,33,7,2,1,145,31,68
567027,45,937,510,19,50,20,6,1,2,268,53,91
567027,44,860,493,22,47,21,9,3,3,234,51,103
567027,43,918,436,11,32,21,6,4,1,215,57,89
567027,42,1092,506,15,38,29,3,0,2,276,52,91
567043,2,656,302,7,17,8,3,2,0,183,26,56
567043,1,574,212,4,9,5,0,0,0,166,11,17
567051,1,765,346,26,74,20,1,4,5,111,21,84
567060,1,979,506,8,37,12,4,2,4,306,51,82
567078,1,204,135,2,16,7,1,0,1,65,22,21
567108,1,79,57,1,3,1,1,0,0,31,5,15
567141,2,53,33,1,6,3,2,0,0,16,1,4
567141,1,425,230,12,22,4,2,4,1,113,29,43
567167,1,364,215,11,49,11,2,0,0,65,29,48
567175,3,197,107,4,11,1,2,1,1,52,20,15
567175,2,730,334,13,26,14,3,1,2,180,41,54
567175,1,789,441,11,57,12,7,5,4,190,54,101
567191,1,126,79,4,7,5,0,0,0,27,8,28
567221,1,160,114,1,12,4,4,0,1,49,10,33
567248,1,171,86,3,18,5,2,0,0,39,4,15
567256,12,515,314,10,32,17,2,3,1,172,26,51
567256,11,206,81,2,10,3,2,1,0,29,7,27
567256,10,483,291,12,39,13,6,1,2,124,35,59
567256,9,640,389,16,47,20,5,1,0,155,48,97
567256,8,794,464,20,53,17,8,3,1,243,36,83
567256,7,607,247,10,21,12,2,1,0,154,22,25
567256,6,673,319,11,24,11,2,2,0,205,25,39
567256,22,844,450,16,51,28,5,2,6,197,47,98
567256,21,622,320,12,26,29,3,3,1,153,33,60
567256,20,689,397,15,43,14,6,0,1,202,31,85
567256,19,747,441,16,51,16,3,3,2,204,40,106
567256,18,508,281,6,24,10,2,1,0,173,25,40
567256,17,788,379,12,32,14,6,3,3,203,27,79
567256,16,757,383,12,31,16,2,1,3,233,33,52
567256,15,1759,362,9,49,16,5,2,3,198,22,58
567256,14,797,418,9,38,14,3,3,2,253,29,67
567256,13,609,297,8,32,12,4,0,0,176,22,43
567256,5,1038,296,6,25,11,0,4,1,200,12,37
567256,4,488,20,1,2,3,0,0,0,13,0,1
567256,3,422,42,1,5,2,1,0,0,22,0,11
567256,2,493,162,2,10,3,3,0,1,113,10,20
567256,1,460,199,14,10,8,2,0,1,108,16,40
567256,28,458,227,9,37,15,2,0,1,105,26,32
567256,27,831,483,26,68,29,2,3,4,201,45,105
567256,26,679,403,16,66,25,4,0,0,146,45,101
567256,25,845,479,23,46,23,7,3,5,218,49,105
567256,24,822,482,18,59,30,6,1,2,189,66,111
567256,23,664,395,18,67,23,2,7,0,182,36,60
567264,4,765,430,19,49,20,4,9,0,201,39,89
567264,3,803,278,15,21,9,3,0,0,153,14,63
567264,2,670,454,24,50,22,3,0,3,209,50,93
567264,1,744,455,14,46,19,13,3,1,248,30,81
567272,1,575,293,13,29,9,4,5,1,142,32,58
567281,1,429,291,13,33,10,4,2,2,153,31,43
567299,1,180,119,5,9,4,1,4,1,63,13,19
567302,1,344,195,3,25,2,6,2,0,108,15,34
567311,4,1158,527,15,63,28,5,5,2,264,49,96
567311,3,941,570,10,50,33,6,5,2,314,40,110
567311,2,917,496,13,53,16,5,4,5,292,32,76
567311,1,929,530,11,31,24,3,2,3,286,55,115
567329,1,394,201,6,31,13,1,1,0,93,15,41
567337,3,205,125,6,22,3,0,0,0,66,8,20
567337,2,857,191,13,13,3,1,0,1,126,3,31
567337,1,529,121,1,6,1,0,1,1,84,15,12
567345,1,376,233,9,23,13,1,2,6,101,28,50
567353,1,191,130,7,14,3,2,1,1,66,5,31
567361,1,199,136,4,19,7,1,0,3,60,11,31
567426,1,415,224,4,20,3,2,1,1,139,25,29
567442,19,937,440,17,54,27,4,1,2,194,43,98
567442,18,956,245,19,42,10,3,1,0,99,21,50
567442,17,868,406,23,40,23,6,4,0,157,48,105
567442,16,1717,399,25,38,24,2,2,0,202,33,73
567442,15,812,526,38,58,48,9,3,4,179,44,143
567442,14,1119,572,26,66,46,7,5,3,218,54,147
567442,13,730,427,34,45,47,7,1,1,127,51,114
567442,12,796,460,22,51,28,10,5,2,180,49,113
567442,11,859,560,24,55,35,11,4,4,222,40,165
567442,10,838,366,22,54,28,8,4,0,127,28,95
567442,9,828,416,11,62,30,6,0,5,150,30,122
567442,8,791,482,15,89,33,2,4,5,170,36,128
567442,7,853,449,16,39,28,3,3,4,219,34,103
567442,6,720,345,4,31,24,1,5,3,168,31,78
567442,5,868,356,4,37,22,2,1,2,186,26,76
567442,4,680,384,14,32,24,10,4,0,183,35,82
567442,3,707,418,19,31,28,3,1,3,209,33,91
567442,2,786,451,22,38,42,8,2,2,201,39,97
567442,1,437,238,8,33,11,7,3,1,102,21,52
567442,32,879,494,11,66,35,4,4,2,200,52,120
567442,31,782,482,21,33,29,9,3,2,236,45,104
567442,26,491,285,17,28,27,5,1,0,80,27,100
567442,25,872,386,19,49,29,2,4,1,153,34,95
567442,24,667,439,24,44,34,7,3,2,132,51,142
567442,23,702,447,21,54,37,7,1,2,148,43,134
567442,22,1046,452,17,54,19,4,4,2,192,39,121
567442,21,797,351,7,28,15,6,4,0,198,28,65
567442,47,947,572,33,56,35,5,0,2,258,53,130
567442,20,839,253,5,29,19,6,1,1,121,30,41
567442,30,592,348,17,22,22,1,1,5,167,37,76
567442,29,665,440,9,34,21,5,1,2,200,32,136
567442,28,771,353,5,33,28,5,1,3,141,36,101
567442,27,703,468,21,51,32,3,2,0,177,31,151
567442,46,725,354,9,26,15,4,2,4,172,38,84
567442,45,745,402,19,33,19,3,2,1,203,25,97
567442,44,855,402,8,30,29,5,3,7,207,37,76
567442,43,895,450,20,56,29,6,3,0,184,46,106
567442,42,1084,500,11,45,24,8,1,1,263,41,106
567442,41,885,366,9,34,21,2,2,3,182,30,83
567442,40,1134,503,23,58,33,3,2,0,209,63,112
567442,39,962,488,16,40,24,5,2,4,251,44,102
567442,38,1072,562,14,54,28,2,3,1,279,49,132
567442,37,1008,351,18,32,16,6,0,1,166,45,67
567442,36,700,394,21,29,30,11,1,3,182,23,94
567442,35,738,461,7,40,33,7,1,6,230,30,107
567442,34,658,406,14,43,19,3,2,2,203,21,99
567442,33,822,461,13,46,32,3,2,2,207,37,119
567451,8,806,148,1,13,2,0,0,0,105,4,23
567451,7,777,328,2,14,9,0,4,1,213,29,56
567451,6,739,395,14,53,30,5,4,4,162,26,97
567451,5,790,364,11,21,13,5,1,1,242,16,54
567451,4,579,290,7,27,8,4,1,2,156,23,62
567451,3,959,517,16,52,24,7,3,2,293,39,81
567451,2,989,526,27,43,41,8,1,0,248,42,116
567451,1,1136,395,18,33,27,2,4,1,188,34,88
567451,15,786,417,16,26,22,8,4,0,241,29,71
567451,14,590,253,4,17,9,8,0,0,163,20,32
567451,13,730,260,7,20,9,0,0,0,164,17,43
567451,12,727,331,12,13,13,2,1,1,207,18,64
567451,11,649,290,5,22,10,3,4,3,175,26,42
567451,10,942,501,19,35,21,7,6,4,298,31,80
567451,9,692,173,8,11,4,0,0,0,132,6,12
567469,1,322,213,11,26,17,1,1,2,94,19,42
567477,2,618,365,11,40,21,4,3,2,178,16,90
567477,1,979,546,14,64,23,9,4,3,256,49,124
567485,2,190,115,2,6,4,0,0,1,65,11,26
567485,1,525,315,12,32,29,3,1,3,151,26,58
567507,7,551,301,7,20,16,2,3,1,150,36,66
567507,6,1028,349,10,37,11,5,5,1,170,40,70
567507,5,1091,580,15,42,47,4,8,0,267,48,149
567507,4,778,482,20,44,30,7,0,3,217,37,124
567507,3,786,445,17,43,24,9,3,6,218,30,95
567507,2,1126,495,18,50,24,11,0,2,256,39,95
567507,1,852,444,23,40,25,0,3,3,193,36,121
567515,3,853,499,10,36,12,6,4,4,295,43,89
567515,2,1163,365,19,35,15,7,6,2,167,25,89
567515,1,1017,296,10,31,10,3,2,3,154,21,62
567515,7,937,492,16,42,18,7,2,3,313,33,58
567515,6,958,453,6,45,20,5,1,3,239,48,86
567515,5,881,434,12,29,15,6,4,0,233,35,100
567515,4,898,554,12,49,24,4,4,1,310,51,99
567523,1,912,484,17,35,33,4,3,4,233,52,103
567531,1,969,440,4,46,13,8,2,1,231,47,88
567558,3,380,231,10,30,15,4,4,1,101,23,43
567558,2,643,361,15,42,30,10,5,2,170,24,63
567558,1,570,323,12,25,28,5,6,1,183,16,47
567566,1,885,461,8,31,17,3,4,4,287,42,65
567582,1,717,369,25,42,15,3,1,1,168,26,88
567604,1,263,152,8,18,4,3,0,0,67,15,37
567612,1,734,437,7,35,19,7,0,4,240,47,78
567621,5,668,365,9,32,21,4,6,2,187,39,65
567621,4,471,249,14,16,8,10,3,0,115,27,56
567621,3,626,264,9,17,13,0,2,3,160,11,49
567621,2,506,310,7,29,14,7,3,3,154,26,67
567621,1,207,99,5,15,2,2,2,0,55,5,13
567639,11,230,115,1,15,4,0,1,0,68,8,18
567639,10,1040,658,27,69,29,9,9,5,279,79,152
567639,9,1053,210,3,19,10,1,3,1,116,17,40
567639,8,1063,298,7,45,16,3,4,1,146,25,51
567639,7,974,533,14,49,19,4,6,1,296,51,93
567639,6,1017,503,17,45,20,6,5,4,264,43,99
567639,5,1087,523,14,61,12,11,3,2,279,37,104
567639,4,1482,654,26,57,49,11,7,1,276,41,186
567639,3,1039,572,21,42,32,5,4,1,280,36,151
567639,2,721,408,18,34,18,4,3,1,198,26,106
567639,1,642,335,12,29,30,5,1,0,151,39,68
567647,1,521,289,3,28,20,2,0,0,152,37,47
567655,1,429,215,1,28,7,4,0,1,125,13,36
567698,1,262,146,2,5,3,0,0,1,78,21,36
567701,1,176,126,6,16,9,4,0,0,49,12,30
567710,1,818,473,26,48,35,7,3,1,191,39,123
567728,1,130,75,2,10,10,1,0,0,23,7,22
567752,1,1011,463,9,43,32,6,2,4,219,40,108
567752,2,771,452,10,39,21,2,3,3,217,42,115
567761,2,215,127,2,12,3,1,0,0,75,13,21
567761,1,381,214,3,14,11,10,0,0,95,25,56
567779,4,1153,609,9,54,25,13,2,2,286,77,141
567779,3,1269,637,21,84,37,4,2,0,300,61,128
567779,2,803,411,3,33,19,7,0,2,244,25,78
567779,1,748,401,4,20,11,8,2,1,260,28,67
567787,3,182,127,6,12,11,0,0,2,42,18,36
567787,2,869,549,35,65,36,6,2,3,198,41,163
567787,1,1112,637,31,69,50,4,0,3,265,47,168
567809,1,634,373,12,38,14,2,1,0,202,30,74
567833,1,308,205,10,14,15,1,2,1,98,26,38
567841,1,801,424,5,41,16,10,3,2,243,35,69
567850,1,732,334,15,37,14,2,3,2,165,30,66
567868,1,936,520,23,38,13,6,1,6,290,37,106
567876,1,427,272,11,35,15,2,3,2,111,17,76
567884,1,152,105,0,14,5,0,0,1,53,9,23
567931,1,460,302,11,26,21,4,2,3,149,18,68
567957,1,173,103,2,5,3,3,0,0,60,9,21
567973,1,315,211,6,27,14,1,1,2,118,10,32
568007,3,762,466,28,46,34,4,6,3,199,42,104
568007,2,1044,510,15,55,27,6,1,2,234,57,113
568007,1,211,129,3,11,4,0,0,1,74,15,21
568015,4,215,120,4,14,5,0,0,0,66,2,29
568015,3,892,529,21,52,26,8,3,1,226,54,138
568015,2,1021,595,21,57,22,6,3,0,300,52,134
568015,1,1477,822,39,97,66,10,3,1,333,70,203
568023,2,168,104,9,8,7,1,0,1,50,6,22
568023,1,681,430,34,44,39,6,2,0,178,32,95
568058,1,787,473,18,54,35,8,0,3,182,41,132
568091,2,108,53,5,8,1,0,0,0,29,1,9
568091,1,341,192,10,16,7,3,0,1,103,12,40
568104,3,83,42,0,2,2,0,0,0,21,3,14
568104,2,392,247,14,15,24,4,0,0,99,26,65
568104,1,79,55,0,6,7,0,0,0,29,4,9
568104,4,89,51,1,7,6,1,0,0,19,1,16
568147,2,98,52,2,2,2,0,0,0,25,10,11
568147,1,486,251,7,20,17,7,5,2,116,28,49
568155,3,280,140,7,16,11,1,1,0,65,6,33
568155,2,496,258,6,19,21,2,3,0,121,27,59
568155,1,1035,555,21,53,30,10,5,1,255,67,113
568201,1,549,306,14,31,16,4,2,0,143,28,68
568201,3,316,193,28,22,16,2,1,0,77,10,37
568201,2,226,153,10,21,13,2,3,0,70,7,27
568287,1,106,67,0,7,3,0,0,0,37,5,15
568295,1,570,351,9,34,24,3,2,0,179,31,69
568309,1,753,504,29,67,45,6,1,4,153,52,147
568350,2,490,318,19,34,28,4,3,3,123,36,68
568350,1,1304,792,21,79,53,15,1,0,410,51,162
568384,1,207,140,0,14,3,0,1,0,75,18,29
