A53,A7,A166,A47,A720,A768,A1,A1114,A997,A998,A999,B1458,B166,B1,B1114,B720,B53,B7,B768,B997,B998,B999
35,26,21,9,27,60,37,35,25,0,134,14,26,16,5,43,34,28,26,4,2,211
35,20,17,6,21,76,27,39,28,4,170,22,23,22,18,32,39,19,35,8,0,225
43,38,50,25,50,128,46,70,38,0,262,33,39,22,24,63,44,30,67,15,18,395
111,46,27,48,86,391,105,124,93,39,585,26,58,148,36,113,61,23,156,31,0,1003
106,61,37,62,74,326,83,117,88,0,489,28,49,153,25,78,69,16,122,84,4,815
98,42,39,53,53,278,49,164,82,0,539,22,60,104,67,45,49,30,123,39,37,821
11,7,8,2,3,34,33,13,9,2,51,6,13,30,0,4,3,3,17,1,0,96
2,17,8,16,4,36,43,23,10,0,86,6,19,22,5,15,5,3,7,10,5,148
82,36,49,33,45,212,70,91,63,26,351,30,138,69,29,64,48,22,85,23,0,550
39,39,19,51,37,139,39,67,48,5,404,16,32,64,20,49,24,24,66,30,0,562
69,48,72,55,46,185,56,76,66,15,379,15,69,106,24,47,45,39,81,30,0,611
69,40,33,34,76,105,104,76,90,0,406,12,61,98,31,59,44,34,33,18,60,583
85,29,39,27,53,157,56,55,52,10,229,21,65,74,36,42,65,34,53,20,0,382
26,37,23,36,17,120,21,51,29,0,289,6,34,43,7,14,31,19,41,21,18,415
51,40,24,51,31,136,50,57,46,0,275,6,27,71,14,29,45,25,57,21,18,448
74,33,30,28,33,129,63,91,49,0,384,12,52,61,29,37,32,51,50,19,18,553
55,62,22,27,41,149,36,50,39,0,369,9,28,65,16,32,43,44,60,19,31,503
64,52,33,28,60,113,56,84,58,12,395,18,62,78,25,51,38,45,50,24,0,564
63,53,35,25,54,107,58,79,49,0,464,11,45,75,23,33,41,31,34,21,49,624
54,55,34,42,64,140,32,66,46,0,385,12,48,68,16,40,30,47,58,13,15,571
80,44,41,39,50,173,60,56,77,0,336,8,53,76,30,42,59,40,76,20,2,550
73,21,20,26,32,94,59,57,39,0,198,11,46,78,24,31,45,26,38,10,1,309
46,32,25,29,42,84,40,55,51,0,403,13,44,46,24,34,24,35,35,19,37,496
58,36,32,38,46,110,39,66,62,0,399,10,38,81,23,52,42,24,38,27,27,524
72,42,38,35,52,121,74,56,60,0,261,20,44,93,18,46,59,27,62,25,16,401
28,20,9,17,18,59,17,24,23,22,169,6,21,33,15,17,19,10,22,7,0,256
23,7,17,15,17,47,18,34,25,9,117,4,29,25,19,17,16,8,21,4,0,186
38,43,31,35,59,110,28,80,56,27,1287,9,19,69,28,30,34,30,43,23,0,1509
53,37,33,31,67,128,32,54,50,0,351,8,50,61,22,33,45,23,58,14,13,509
67,57,46,26,44,133,29,56,55,17,355,26,43,64,13,56,40,38,72,20,0,513
48,31,36,37,41,142,65,58,52,0,321,6,40,70,26,32,27,24,60,13,51,482
52,47,28,35,44,142,56,68,58,9,291,13,60,61,15,33,33,40,76,23,0,476
57,50,29,51,58,165,42,57,26,0,302,8,36,89,32,34,29,42,83,27,0,457
72,45,37,49,55,148,48,68,40,0,359,6,64,59,34,38,51,35,48,20,3,563
25,18,14,42,51,156,37,67,43,18,318,13,25,43,18,43,23,9,54,31,0,530
76,35,26,20,57,181,32,61,55,28,271,12,32,67,28,45,133,7,52,12,0,454
88,75,37,54,79,257,171,113,68,0,609,13,63,197,37,71,42,21,100,25,55,927
10,7,9,11,6,26,16,26,9,0,52,0,5,15,7,8,2,3,16,3,4,109
0,0,0,6,0,18,1,5,1,9,21,0,2,2,3,3,1,2,13,2,0,33
5,9,2,5,13,37,9,13,9,3,69,1,7,13,2,12,9,12,20,4,0,94
8,1,2,2,5,12,3,11,3,0,21,1,2,5,5,6,6,2,1,2,1,37
59,41,41,37,62,162,148,87,73,0,527,10,58,125,29,48,29,14,48,11,50,815
55,56,14,32,37,127,90,78,50,0,376,26,35,93,19,39,21,20,41,18,10,593
43,68,12,40,29,133,93,51,33,34,492,10,21,106,19,49,24,34,52,24,0,689
123,94,66,77,107,351,122,217,114,0,848,44,51,169,49,91,45,102,126,40,95,1307
42,38,25,30,59,175,213,83,52,0,382,17,43,176,17,49,22,21,40,25,0,689
106,54,64,56,75,288,114,217,67,36,725,30,63,92,41,85,75,61,90,27,0,1238
60,36,74,29,34,136,116,68,25,13,397,5,72,156,9,24,23,11,56,16,0,616
37,37,57,45,40,189,91,76,37,0,343,19,52,122,22,45,20,27,52,22,6,565
29,51,30,20,44,134,112,61,39,0,390,18,40,118,25,31,17,13,22,6,16,604
50,45,28,36,44,111,42,94,38,0,418,22,37,96,14,33,21,19,28,12,10,614
98,64,47,82,67,295,148,112,78,34,616,39,71,232,30,71,44,9,137,37,0,971
29,25,11,27,32,119,41,44,29,26,242,7,16,55,12,32,16,17,52,19,0,399
113,66,54,58,111,279,79,148,90,19,649,24,65,138,58,93,94,56,105,32,0,1001
37,40,21,16,49,136,29,48,26,0,273,9,20,54,11,41,31,22,77,23,0,387
62,59,21,59,35,169,45,86,43,0,555,6,33,105,18,33,14,27,65,13,94,726
40,68,18,49,37,161,74,110,36,0,434,15,20,110,22,39,19,17,74,22,33,656
44,27,45,34,32,127,40,92,42,0,351,18,65,95,20,46,17,14,42,11,0,506
8,6,2,3,5,21,4,5,2,1,24,0,9,19,1,3,5,0,19,1,0,24
0,9,6,8,5,24,4,9,4,4,48,1,5,11,4,13,0,2,17,4,0,64
3,1,5,4,5,37,28,3,3,2,38,1,5,25,0,7,2,3,9,2,0,75
10,4,6,9,13,44,25,17,7,8,69,5,8,36,1,5,4,1,17,6,0,129
38,36,29,39,35,226,91,77,33,0,357,8,29,112,11,36,18,18,81,19,15,614
14,9,19,25,24,130,133,51,22,17,175,3,16,146,16,15,11,4,36,12,0,360
17,13,7,16,13,83,29,14,16,12,146,12,22,41,5,15,6,5,30,6,0,224
14,17,15,36,46,125,43,43,16,25,143,3,15,89,11,34,10,6,40,17,0,298
18,30,19,21,27,92,143,36,36,4,257,6,39,101,7,33,5,7,36,8,0,441
27,20,32,14,27,81,22,40,23,0,267,4,26,46,7,17,12,4,29,12,4,392
5,5,4,2,4,33,1,7,7,3,34,0,3,12,0,6,0,4,9,1,0,70
6,3,4,2,13,30,6,8,11,0,34,0,4,10,4,7,7,1,8,4,9,63
1,8,7,12,16,22,13,13,4,0,40,2,12,14,3,10,1,4,16,6,1,67
18,11,5,7,15,46,8,13,4,0,68,4,7,14,2,14,9,7,19,4,9,106
9,3,3,5,17,55,22,12,10,0,79,4,10,27,7,11,5,2,25,3,1,120
6,17,5,12,12,89,20,18,17,0,128,3,3,24,6,20,17,5,31,5,8,202
32,20,6,24,42,123,55,31,22,11,201,8,23,82,10,28,15,8,41,11,0,341
39,26,19,24,53,201,426,82,43,37,523,8,51,311,16,62,28,15,48,14,0,920
78,44,43,31,62,178,52,150,76,7,491,31,77,75,56,61,58,27,54,15,0,758
1,3,5,6,1,22,2,9,0,2,29,0,4,7,3,3,0,2,9,3,0,49
40,16,26,16,14,138,29,40,35,0,205,7,25,56,13,25,16,6,29,9,1,372
8,13,27,20,20,86,74,45,17,5,192,9,35,71,9,13,11,2,18,10,0,329
12,21,9,16,24,46,19,15,21,0,93,3,11,34,2,7,17,5,22,7,15,153
41,19,22,23,33,91,22,52,43,1,255,10,31,54,14,31,42,9,28,14,0,369
32,36,9,13,14,60,90,42,32,0,334,2,28,63,9,15,27,15,18,5,26,454
47,28,7,10,27,60,46,37,29,0,262,4,12,71,8,21,29,12,5,3,9,379
38,73,21,35,28,105,74,73,44,6,467,8,32,127,15,42,23,36,35,18,0,628
21,15,18,10,31,105,25,40,18,20,87,4,30,33,8,33,30,10,47,4,0,191
22,10,16,12,32,94,36,42,13,0,168,4,13,37,16,19,10,5,33,12,1,295
15,12,33,29,23,75,59,36,21,0,186,11,37,34,10,23,6,5,26,14,20,303
8,36,22,37,9,86,17,31,24,0,173,8,25,31,17,15,5,18,26,21,27,250
79,45,35,47,65,320,111,166,70,0,518,24,39,124,41,76,46,25,154,25,15,887
34,19,15,24,20,94,33,47,37,0,195,5,20,49,8,28,35,23,30,6,4,310
129,71,54,54,67,261,60,126,87,0,587,30,86,141,31,69,51,30,82,23,26,927
72,30,35,27,55,187,44,78,49,0,402,15,40,75,20,50,44,8,102,16,36,573
99,54,28,20,99,234,88,86,91,31,454,25,69,99,27,94,68,21,140,18,0,723
62,52,23,27,72,202,44,111,50,0,383,27,36,69,28,73,30,19,111,13,25,595
29,29,21,21,35,121,29,40,34,0,171,8,21,50,19,31,10,14,74,6,14,283
56,37,31,24,80,171,29,81,58,0,343,20,38,74,21,79,35,15,93,21,7,507
122,50,31,26,87,223,50,96,90,0,459,13,68,96,22,89,74,19,109,19,17,708
120,30,34,32,90,221,61,113,70,0,830,20,45,94,26,67,63,8,132,16,61,1069
73,34,26,29,106,234,42,118,90,0,645,22,50,77,33,109,48,20,101,16,57,864
65,49,45,35,65,193,50,90,55,0,416,14,27,79,28,56,30,15,100,20,48,646
47,49,18,42,45,171,44,89,66,0,441,16,25,56,26,69,33,29,88,16,15,639
88,24,16,19,53,179,36,98,52,14,268,17,36,79,21,56,62,3,91,12,0,470
22,9,12,7,17,64,42,19,24,2,107,9,11,51,8,25,11,5,30,6,0,169
82,32,30,20,78,178,80,54,58,3,238,21,63,106,18,79,46,14,102,8,0,396
71,33,21,21,47,142,40,35,49,0,289,16,42,59,19,49,42,11,64,11,23,412
35,29,34,25,41,132,38,49,39,0,338,10,22,76,12,50,42,10,33,14,9,482
31,11,13,13,9,46,1,12,21,9,94,7,20,23,1,11,11,3,13,10,0,161
27,29,7,20,10,64,72,39,13,0,214,2,11,63,6,19,9,12,23,3,20,327
36,46,34,24,34,141,48,48,40,0,240,14,51,68,8,35,19,24,63,15,4,390
21,8,12,12,18,53,84,39,25,0,161,9,16,55,9,21,2,3,16,4,10,288
62,72,26,30,70,234,155,78,62,0,517,16,41,236,24,65,45,19,96,10,7,747
23,26,12,16,29,62,82,38,17,0,232,3,22,112,10,22,9,3,37,3,23,293
35,27,70,32,61,176,160,84,62,16,457,15,127,172,30,69,29,13,67,15,0,643
35,16,14,24,48,148,33,52,38,0,313,14,29,45,13,46,22,8,76,12,23,433
9,10,2,3,12,52,28,9,17,2,58,1,12,41,2,10,6,5,22,7,0,96
29,24,8,9,30,93,22,32,20,5,148,9,17,34,11,20,17,12,58,12,0,230
22,20,7,28,14,125,10,23,21,9,195,14,1,31,9,15,18,7,59,14,0,306
20,5,7,6,10,48,42,15,17,13,108,3,8,57,13,16,13,1,21,2,0,157
81,26,20,33,61,272,88,92,83,8,410,15,52,128,18,58,52,17,131,21,0,682
51,33,10,11,53,166,73,68,42,0,273,16,25,97,15,55,27,6,75,16,9,439
32,32,7,32,22,144,29,49,32,0,242,9,22,34,12,11,29,21,80,20,17,366
73,28,12,34,42,155,46,58,63,0,269,18,43,64,18,52,51,8,57,26,30,413
49,29,13,26,40,119,15,74,39,0,974,7,9,26,28,54,24,9,52,16,23,1130
54,29,18,32,53,186,50,57,38,0,229,12,22,75,29,36,32,13,86,16,4,421
45,38,17,28,64,185,34,98,47,0,405,11,27,47,29,64,36,18,70,21,24,614
47,56,21,51,65,235,75,94,57,0,433,20,21,89,32,59,32,27,132,26,20,676
74,48,23,24,73,203,58,80,61,4,415,19,42,99,18,63,50,14,94,26,0,638
33,27,6,22,38,152,58,61,33,0,249,9,17,60,13,34,31,17,63,15,13,407
46,18,11,24,31,144,32,31,43,0,233,13,31,47,11,27,24,13,67,12,41,327
43,28,13,25,40,94,52,46,33,0,182,9,22,66,14,44,29,17,55,14,0,286
103,34,26,13,63,202,73,53,67,27,227,18,44,119,20,69,93,14,97,11,0,403
26,12,8,8,18,66,14,28,18,7,204,6,6,28,8,19,13,4,34,8,0,283
23,15,8,17,25,100,21,42,14,0,200,6,15,27,17,24,17,4,51,13,23,268
18,39,9,34,27,127,27,49,37,0,322,14,8,32,12,25,18,11,59,18,10,482
18,26,13,24,25,148,29,44,23,0,213,13,10,41,17,17,14,6,61,12,21,351
46,26,12,18,33,135,39,50,33,20,233,16,21,52,12,40,32,12,69,12,0,379
29,18,10,29,40,135,24,52,30,0,258,6,20,42,15,34,14,6,65,19,41,363
32,27,17,23,38,165,31,58,47,0,293,13,30,44,10,41,23,9,93,19,31,418
69,28,13,23,50,138,41,55,39,0,260,20,37,50,21,28,44,4,67,16,18,411
15,10,9,11,12,33,35,16,18,0,84,7,23,21,7,8,7,3,11,4,2,150
2,4,1,0,6,23,13,6,3,0,27,3,1,21,3,4,2,0,10,0,3,38
35,5,17,11,15,54,20,23,24,0,126,22,10,45,3,13,27,3,13,5,3,186
73,51,37,33,55,133,86,68,69,0,332,14,46,149,17,34,44,19,46,19,38,511
81,49,40,52,49,135,123,64,75,0,496,8,47,166,10,38,20,17,52,28,108,670
101,73,52,54,95,224,89,124,65,28,507,58,48,105,24,89,52,17,119,24,0,876
109,33,25,20,64,153,50,44,65,6,293,24,50,105,19,64,55,4,63,14,0,464
16,22,4,11,19,76,61,18,21,14,148,3,11,98,7,22,14,5,28,5,0,217
69,27,22,17,50,152,75,46,39,0,375,11,28,117,28,49,40,11,57,10,28,493
58,35,44,26,73,202,94,81,85,54,392,18,49,128,42,69,59,10,85,11,0,673
27,18,15,16,23,102,58,26,26,0,188,7,24,89,7,29,13,4,22,15,10,279
42,24,18,25,34,103,42,35,65,10,248,4,23,59,12,32,30,6,77,12,0,391
67,43,21,36,53,214,71,98,75,16,361,13,27,94,27,71,36,18,110,13,0,646
69,56,27,24,51,213,54,102,59,28,481,22,25,94,25,60,40,15,109,10,0,764
52,53,20,47,63,189,39,80,71,0,245,11,31,65,21,50,21,11,82,13,12,542
22,38,23,38,30,163,38,80,38,0,306,6,16,65,15,22,10,13,84,21,27,497
60,39,39,17,57,216,140,79,103,0,312,80,69,108,14,68,43,28,80,19,45,508
6,10,9,13,17,42,25,34,29,0,100,7,9,20,13,20,7,4,17,13,13,162
6,9,12,16,18,87,19,29,10,0,118,7,15,25,10,10,9,14,33,5,8,188
47,38,25,33,49,113,60,74,55,13,227,14,48,82,7,65,37,29,46,18,0,388
24,27,24,15,47,96,139,44,26,0,182,10,41,102,10,31,4,5,38,10,3,370
9,10,11,3,21,45,5,22,15,0,87,5,8,7,2,6,16,9,13,2,3,157
75,20,22,25,66,132,47,60,43,6,193,35,44,29,18,55,81,19,43,9,0,356
66,39,73,21,50,182,70,91,68,42,360,23,72,107,24,78,37,30,69,26,0,596
5,8,1,11,5,31,14,14,10,11,50,3,7,15,1,4,8,7,20,1,0,94
40,22,29,34,36,159,61,92,54,0,242,25,56,46,32,50,28,25,88,22,0,397
15,10,6,7,10,24,36,12,16,0,56,12,13,19,7,6,8,2,6,5,23,91
49,35,46,33,50,180,47,64,45,0,276,24,43,48,15,44,30,16,83,26,17,479
53,30,51,35,37,115,60,49,31,0,323,24,43,50,13,38,26,21,55,11,10,493
50,53,40,40,56,162,66,57,49,0,425,23,32,62,18,48,45,17,91,26,59,577
70,36,33,37,44,151,60,74,48,0,233,22,44,55,32,51,49,14,95,18,0,406
87,50,51,39,47,146,69,78,57,0,472,28,57,62,13,46,52,22,64,16,28,708
70,36,41,48,55,111,66,76,38,0,297,18,68,65,21,49,41,16,48,18,24,470
121,32,79,49,82,177,193,104,96,0,563,50,168,182,20,75,89,20,73,21,18,780
59,37,60,46,51,188,76,75,60,0,387,42,119,76,24,40,37,18,83,16,2,582
89,45,46,43,70,150,116,92,45,0,358,36,120,134,28,52,36,23,74,25,9,517
62,47,59,62,60,170,102,78,37,0,344,20,123,83,23,40,24,35,87,23,43,520
16,14,13,8,9,44,68,24,27,0,156,5,6,63,8,16,4,4,16,5,26,226
11,11,1,14,9,40,8,67,2,0,73,2,8,18,17,8,6,3,25,12,7,130
47,23,38,24,43,81,17,63,45,0,258,15,35,39,27,41,31,19,40,11,12,369
19,17,13,19,17,42,21,21,6,0,103,5,10,29,9,19,16,12,16,8,0,154
0,0,2,0,3,9,4,0,8,0,30,0,1,2,0,3,0,1,6,4,4,35
14,26,18,21,14,70,38,30,33,15,168,9,24,28,9,9,10,21,27,5,0,305
19,24,8,13,16,65,22,18,16,0,114,15,14,17,2,8,20,17,29,6,0,187
31,11,20,15,18,56,20,64,23,31,85,13,22,27,22,23,26,15,35,11,0,180
14,11,15,3,14,71,17,26,19,0,152,16,14,10,14,27,13,24,28,4,2,190
7,6,3,22,8,58,12,24,20,26,96,3,12,15,10,17,4,25,32,12,0,152
5,11,7,9,0,39,18,15,9,7,87,1,0,24,7,8,4,9,25,1,0,128
58,21,29,24,33,98,27,47,37,2,235,19,41,65,17,31,33,15,41,10,0,339
44,28,27,12,21,98,23,28,26,4,200,7,36,46,15,33,32,19,38,17,0,268
22,18,21,24,53,126,104,42,35,8,250,16,44,133,10,41,29,22,41,4,0,363
112,43,44,21,55,194,82,53,89,30,246,56,71,88,18,76,84,34,87,18,0,437
115,47,51,33,87,271,91,81,87,14,381,46,94,105,32,107,94,46,111,25,0,598
80,34,38,29,80,222,45,64,66,0,295,36,67,49,23,82,60,39,119,12,12,454
138,22,80,24,69,210,43,71,89,12,305,53,93,65,29,93,96,44,91,20,0,479
18,6,21,7,28,54,15,18,23,6,115,7,19,33,7,22,22,3,22,5,0,171
71,47,60,20,58,183,60,59,89,0,306,31,82,90,22,85,87,48,83,18,23,384
43,29,31,31,38,101,31,63,70,0,201,29,40,39,32,61,30,38,59,16,6,288
50,28,37,11,57,120,59,39,77,0,164,21,38,46,15,39,34,26,43,11,101,268
62,22,43,29,69,144,25,50,70,0,378,39,62,35,24,68,53,27,58,21,36,469
53,42,62,26,58,177,42,78,71,0,403,42,77,51,18,87,46,45,115,18,12,501
36,33,55,30,38,162,27,107,68,0,424,26,56,30,26,65,41,24,74,18,22,598
42,34,46,24,41,109,30,62,40,0,191,36,25,44,14,47,41,39,66,12,25,270
43,39,32,24,37,130,22,63,58,0,241,29,41,37,26,58,17,38,75,13,12,343
42,35,27,33,34,118,24,51,63,0,244,32,40,27,22,32,18,31,69,13,46,341
34,28,23,27,27,181,31,65,42,0,228,19,48,37,32,46,33,17,73,10,19,352
62,40,42,26,64,179,37,76,73,0,300,52,50,39,22,65,61,57,90,13,100,350
51,38,55,32,48,190,42,88,72,0,228,56,46,37,27,63,57,54,114,18,20,352
53,31,56,18,43,95,27,49,60,29,247,43,53,59,20,68,50,32,59,15,0,309
7,6,11,8,8,32,11,9,14,0,65,5,9,13,8,9,6,1,9,3,13,95
85,20,42,18,45,151,33,55,76,19,220,32,79,72,12,60,59,20,62,10,0,358
63,44,38,50,63,183,44,92,45,0,310,25,43,80,18,54,31,47,90,25,43,476
100,58,66,50,94,222,70,89,116,60,358,56,103,117,52,97,75,30,97,24,0,632
89,34,47,30,84,221,58,60,93,0,276,28,88,123,23,68,93,44,65,14,2,444
63,41,49,25,54,177,34,77,53,0,272,30,65,49,25,61,44,16,72,13,37,433
50,18,33,25,47,97,40,30,39,0,178,17,53,56,15,57,29,11,41,14,23,241
26,44,21,29,18,154,22,40,55,0,200,14,39,30,8,52,18,27,80,14,29,298
60,23,53,25,49,191,43,39,55,0,252,29,51,44,15,66,50,25,90,15,13,392
51,32,33,37,35,168,23,39,53,0,260,30,49,21,20,44,43,39,97,16,30,342
66,46,41,33,55,193,26,82,79,0,331,30,40,36,22,72,49,39,98,25,30,511
71,28,33,21,45,140,52,51,64,5,233,27,69,50,20,49,49,34,80,17,0,348
60,41,43,27,40,205,50,63,40,22,262,44,52,30,26,67,36,49,127,20,0,402
31,32,33,27,35,156,19,40,59,0,239,24,42,14,14,51,31,42,75,12,29,337
58,42,41,29,46,172,34,52,54,0,266,25,60,25,18,56,46,55,102,14,3,390
73,42,36,11,58,142,57,83,82,0,285,53,51,44,32,80,72,58,77,11,10,381
58,21,29,21,35,115,30,33,33,0,204,18,33,32,9,33,27,30,63,25,26,283
142,34,94,20,101,216,101,83,93,106,369,53,164,101,33,126,108,45,98,11,0,620
33,26,32,18,52,106,45,56,49,22,210,28,49,47,11,75,43,25,48,5,0,318
121,29,65,24,89,232,93,90,112,70,355,83,118,105,35,72,104,63,127,13,0,560
42,28,23,18,41,87,40,56,23,9,157,21,30,29,26,43,39,30,49,15,0,242
17,13,11,15,11,67,5,23,20,0,74,11,12,5,5,20,11,19,34,9,3,127
21,26,24,24,38,81,57,37,28,10,168,28,33,62,7,52,20,26,38,19,0,229
41,29,31,23,52,194,69,63,52,0,258,41,41,69,21,68,22,34,85,20,22,389
60,29,63,20,58,104,42,53,61,0,275,20,58,37,21,85,45,33,77,7,25,357
55,35,36,30,50,149,24,51,56,0,229,25,52,20,25,50,48,32,79,14,42,328
66,38,59,28,41,172,34,45,52,3,264,22,69,32,12,61,59,35,99,17,0,396
39,33,19,22,45,132,28,53,48,0,331,24,39,24,11,50,30,19,79,18,28,428
147,32,43,37,97,185,59,109,123,0,2741,38,89,67,33,89,87,29,77,27,125,2912
36,30,21,19,33,191,35,49,50,0,232,14,40,50,19,47,40,26,83,12,10,355
81,30,40,21,45,171,41,50,60,59,274,40,69,67,9,63,71,41,70,5,0,437
73,20,44,16,54,134,40,58,48,42,209,25,72,61,15,63,58,38,62,8,0,336
75,26,62,22,75,149,36,95,82,16,343,38,88,41,38,91,73,45,67,19,0,481
87,31,65,9,69,143,43,83,67,0,369,40,86,42,32,86,61,53,46,11,22,487
63,33,57,29,80,201,21,67,57,0,442,30,78,35,17,81,45,37,75,12,58,582
48,22,39,21,46,126,28,42,50,31,265,47,64,35,18,50,39,38,74,14,0,339
60,47,42,44,47,167,27,82,64,11,505,30,50,37,44,52,38,33,78,17,0,717
40,23,24,10,26,87,14,52,38,0,135,23,26,23,23,31,31,17,52,4,12,207
68,20,37,14,61,158,39,62,70,9,188,31,54,46,27,65,64,34,79,16,0,310
98,34,70,20,66,173,50,71,79,74,297,44,91,65,28,77,51,44,81,16,0,535
39,44,37,28,71,205,59,76,74,0,365,33,61,51,26,63,31,43,96,14,52,528
18,23,21,21,49,151,22,53,35,0,264,29,24,19,22,44,21,23,70,10,20,375
31,36,29,31,37,161,30,60,28,0,330,32,23,39,20,51,25,38,74,17,24,430
54,32,29,31,56,154,48,74,56,0,322,34,52,65,31,54,34,31,85,14,31,425
50,49,37,27,43,183,36,49,45,0,295,17,58,35,21,52,34,38,103,29,30,397
93,48,51,18,77,195,49,70,88,5,270,50,88,52,32,85,102,45,107,20,0,383
66,32,41,28,69,179,53,55,61,6,316,34,59,41,25,87,40,34,98,19,0,469
77,35,43,19,52,169,46,39,53,4,236,35,64,52,20,59,60,31,92,15,0,345
54,48,59,21,36,180,47,59,47,0,369,41,63,48,13,29,41,43,102,19,18,503
54,30,68,31,47,191,50,54,46,0,323,44,42,74,24,43,40,49,76,22,34,446
21,37,18,22,22,132,33,53,35,16,274,14,18,31,24,30,18,30,65,17,0,416
70,35,42,27,52,191,44,59,55,0,256,34,59,59,37,60,41,38,81,14,12,396
36,31,40,34,42,183,27,52,45,0,220,28,48,39,23,41,33,26,76,15,27,354
56,51,39,32,39,164,30,68,49,0,299,17,41,39,37,62,35,36,83,20,34,423
38,18,9,12,39,143,15,36,23,0,143,19,33,17,19,32,21,18,94,10,22,191
52,24,44,31,44,121,31,45,46,0,151,35,59,40,16,49,37,27,75,14,15,222
17,16,15,34,16,102,38,42,34,3,250,14,17,62,10,34,14,10,58,21,0,327
32,28,36,24,21,125,40,54,37,0,240,17,31,64,22,27,17,31,53,17,15,343
20,34,29,35,35,97,76,55,38,0,221,29,35,60,17,36,15,23,44,27,6,348
7,8,3,4,12,47,14,17,8,0,91,1,10,16,3,4,2,10,20,6,3,136
8,11,27,14,5,37,26,20,6,0,104,1,22,22,7,6,2,7,12,3,11,165
46,49,35,47,53,207,173,88,48,0,501,14,62,127,28,48,28,87,57,12,1,783
58,98,57,66,49,273,188,91,67,0,702,24,75,148,23,38,32,75,116,29,5,1084
39,73,37,28,41,201,94,66,36,0,551,26,54,88,10,29,23,47,70,15,2,802
18,14,16,24,23,71,44,33,18,18,114,27,23,41,8,32,9,16,47,11,0,179
23,18,16,19,36,102,41,74,27,0,211,17,25,29,30,38,12,20,42,11,3,340
2,6,16,7,4,32,19,10,7,0,62,6,16,13,3,11,2,2,16,1,0,95
11,20,4,7,3,38,29,20,11,0,72,5,14,26,3,5,9,8,20,1,0,124
21,17,20,15,23,84,125,27,21,12,151,22,11,81,8,29,18,15,41,8,0,283
38,19,26,10,22,77,15,43,20,12,166,16,34,25,13,37,29,10,47,6,0,231
5,15,24,6,15,51,73,13,14,7,113,9,21,38,6,16,4,23,20,3,0,196
14,15,13,10,13,72,22,27,8,0,105,16,7,19,4,22,8,14,23,4,5,177
36,16,7,4,26,55,16,26,31,0,114,12,10,13,7,41,26,16,22,6,4,174
94,57,32,28,40,213,110,109,66,0,453,32,61,81,45,59,72,67,110,15,16,644
8,6,4,4,5,29,16,9,4,0,45,12,2,9,1,5,6,7,6,1,1,80
27,20,13,8,4,51,15,22,15,0,102,5,22,11,9,16,12,22,15,2,4,159
102,34,45,36,50,188,102,94,75,8,371,56,73,76,24,69,70,54,73,19,0,591
49,47,51,97,70,316,61,124,71,33,616,22,75,111,55,78,27,23,114,32,0,998
0,5,1,5,3,13,5,12,2,0,24,3,3,2,4,1,0,5,8,3,1,40
35,21,20,23,33,68,65,24,26,5,142,16,44,48,6,60,27,14,53,7,0,187
14,6,20,15,17,57,41,43,23,21,150,9,21,42,18,14,7,10,22,6,0,258
24,21,18,11,10,49,40,28,16,6,164,20,19,24,11,29,15,20,25,12,0,212
16,20,17,25,14,92,38,52,9,0,169,11,25,53,10,14,4,10,45,15,8,257
78,60,42,33,76,158,116,85,59,4,309,40,48,72,19,85,70,134,78,8,0,466
54,28,41,36,38,130,33,76,57,19,268,38,49,38,21,39,48,62,63,15,0,407
7,15,8,13,6,22,28,5,11,0,117,0,11,27,4,11,7,10,15,5,5,137
3,8,4,25,13,27,19,34,10,2,82,6,4,23,19,10,4,3,20,6,0,132
30,25,44,23,31,117,111,86,32,25,219,13,60,78,15,38,26,47,56,12,0,398
21,9,16,22,15,68,55,28,16,0,179,10,33,52,13,14,11,9,38,9,32,208
34,36,16,17,48,112,43,45,41,3,183,11,49,41,19,41,28,14,46,7,0,322
11,10,3,4,8,35,29,25,10,1,49,6,5,38,9,9,7,3,15,2,0,91
11,9,9,14,8,37,16,19,15,0,99,7,7,12,8,12,3,0,21,8,4,155
2,7,5,10,8,36,10,22,8,2,61,1,2,16,11,3,2,2,25,4,0,105
94,40,45,50,86,197,92,95,83,0,417,29,66,75,43,74,63,28,86,18,20,697
68,42,36,47,83,180,91,80,106,10,427,39,79,95,33,59,58,18,93,26,0,670
134,61,60,51,76,262,140,85,72,0,502,59,83,105,40,84,105,42,120,30,29,746
14,14,15,21,12,75,8,16,23,11,133,1,24,8,10,22,9,27,31,12,0,198
9,18,18,23,16,106,45,48,24,11,198,10,20,49,21,14,8,13,34,11,0,336
40,17,30,24,26,73,64,50,26,13,139,15,39,102,12,22,21,10,18,12,0,251
22,30,13,41,34,155,24,60,31,0,318,15,11,50,30,24,21,10,63,19,4,481
48,29,16,42,52,215,23,71,42,0,539,19,37,67,22,40,26,20,78,26,11,731
53,46,41,55,74,224,58,97,52,2,334,14,44,106,25,64,31,18,86,21,0,627
78,30,36,39,75,177,36,87,51,24,376,15,51,61,25,88,48,25,73,22,0,601
75,30,25,52,94,250,51,128,72,0,347,16,63,111,43,73,43,15,118,32,12,598
58,32,29,40,80,230,40,83,69,0,352,13,65,86,29,74,37,24,72,34,31,548
11,33,16,13,19,107,99,16,24,0,235,3,25,84,4,17,5,26,48,9,7,345
23,55,22,22,19,178,189,35,26,0,525,7,32,107,8,33,5,27,42,5,14,814
21,25,17,7,6,87,125,19,13,11,228,2,18,84,8,16,9,14,40,2,0,366
12,8,32,14,11,60,29,39,19,0,150,15,30,17,6,18,8,9,31,4,3,233
69,39,46,20,56,182,47,88,48,0,297,14,75,79,31,54,46,39,66,11,9,468
34,45,16,29,47,232,18,70,41,0,381,14,57,41,23,46,17,24,95,21,29,546
51,64,23,50,66,217,20,79,46,0,339,14,38,40,41,64,33,64,99,26,8,528
51,54,43,32,116,228,38,75,94,0,359,30,58,57,28,109,44,56,84,16,27,581
41,64,27,46,67,220,40,122,73,0,532,16,42,48,55,67,37,46,69,28,44,780
41,61,35,48,48,266,50,90,72,0,368,21,55,83,45,58,29,60,109,15,12,592
64,70,41,42,85,229,60,118,63,0,352,28,82,92,33,72,27,52,118,16,24,580
60,59,22,53,71,248,52,159,63,26,1111,27,44,78,53,75,43,57,109,27,0,1411
52,48,38,43,93,245,51,125,60,0,593,24,43,63,44,82,30,46,75,21,12,908
38,64,33,46,50,246,54,113,56,0,401,16,32,72,33,64,22,47,103,17,29,666
45,55,30,37,63,222,37,90,54,0,379,21,57,58,28,64,19,41,101,14,21,588
42,46,18,45,41,227,38,104,50,0,294,12,49,43,38,41,19,43,93,25,19,523
39,57,25,42,50,218,43,99,54,0,491,16,55,61,24,59,19,39,103,19,26,697
14,12,7,14,10,57,27,30,9,0,99,14,9,17,7,16,5,13,30,11,2,155
35,19,29,20,31,136,112,45,34,0,186,12,31,85,18,48,10,18,59,13,10,343
42,24,25,28,40,121,50,54,53,25,191,21,57,56,14,60,29,15,53,10,0,338
30,28,17,11,24,148,69,45,35,18,183,15,33,94,8,38,22,8,29,4,0,357
20,33,21,15,28,92,94,60,27,0,185,15,10,57,19,39,20,24,37,8,7,339
9,23,6,9,17,83,40,24,11,0,183,9,16,33,4,25,9,16,43,4,7,239
11,13,5,16,12,55,18,21,10,0,87,7,14,11,7,8,1,11,20,11,6,152
22,41,19,34,28,132,56,38,33,0,273,9,64,39,14,25,9,20,62,17,17,400
33,53,29,50,44,133,40,40,30,0,337,14,55,22,17,42,18,33,66,25,29,468
20,39,14,36,23,157,45,56,33,0,246,20,53,21,15,20,19,35,60,16,23,387
36,43,29,39,35,130,23,44,40,0,256,14,36,21,9,29,14,32,65,21,53,381
56,59,31,47,50,175,67,58,58,0,457,27,92,65,13,46,25,30,58,16,20,666
80,31,26,30,53,170,67,36,54,0,329,39,78,60,8,31,37,29,61,12,2,519
25,21,28,16,28,62,107,30,24,0,114,22,31,64,13,39,33,14,38,12,1,188
95,36,56,44,83,226,79,93,90,12,484,85,55,80,35,101,53,45,76,14,0,754
76,44,33,28,59,174,102,62,74,0,410,51,57,53,21,61,54,40,84,13,20,608
57,41,41,60,63,306,103,157,84,11,470,26,95,152,34,60,26,19,113,28,0,840
15,16,10,25,10,86,32,18,13,1,168,8,20,22,6,17,8,6,33,18,0,256
17,10,7,7,18,42,7,22,11,2,73,6,13,15,5,14,7,5,24,6,0,121
23,31,15,11,12,58,67,19,21,0,120,6,21,48,2,11,8,22,18,8,2,231
56,70,40,43,58,269,190,79,40,20,541,20,50,165,24,47,39,66,110,21,0,864
42,34,29,40,36,209,37,84,39,17,287,20,29,49,39,50,25,28,106,13,0,495
37,31,25,36,39,190,41,128,53,0,556,29,49,74,35,62,21,25,70,14,18,739
42,34,47,49,23,162,100,74,30,0,370,51,47,53,21,41,19,20,70,19,9,581
20,14,7,14,10,48,7,8,13,6,94,3,20,4,12,21,10,12,20,12,0,127
24,50,81,40,57,119,81,62,47,1,419,18,79,60,17,61,18,18,68,20,0,622
7,13,7,5,6,34,43,26,6,12,68,7,22,25,6,7,3,12,19,5,0,121
1,0,6,2,2,9,27,5,1,5,15,0,15,18,0,8,0,1,5,0,0,26
1,9,11,16,15,27,22,17,15,0,65,2,23,14,0,14,0,5,12,4,6,118
54,45,39,38,55,148,100,39,34,0,285,10,83,57,17,36,19,20,62,21,14,498
76,43,67,27,48,131,90,61,39,0,251,15,135,59,15,41,24,18,40,15,13,458
55,20,54,32,48,175,85,43,43,0,524,16,94,55,12,41,20,20,54,6,7,754
41,22,41,36,50,123,79,43,24,0,361,16,92,46,14,34,24,18,34,11,26,505
45,18,15,26,21,149,55,82,24,0,172,18,41,77,11,37,19,12,49,16,3,324
49,41,30,16,38,125,40,63,40,8,209,30,41,26,14,45,28,35,54,13,0,373
117,47,74,38,90,212,107,83,115,0,622,40,96,68,32,104,107,40,86,22,19,891
17,4,10,5,10,21,11,21,14,6,33,6,14,19,5,20,7,6,5,0,0,70
70,34,60,26,53,176,39,65,45,45,340,32,65,41,21,64,52,40,67,17,0,554
89,44,72,44,97,202,95,104,70,0,496,46,86,71,14,93,80,37,74,23,21,768
10,13,25,23,10,52,36,13,14,10,90,3,30,27,5,21,11,11,17,7,0,164
24,35,85,32,29,182,94,49,35,0,365,16,76,87,10,35,22,22,56,10,23,573
18,16,11,12,16,64,17,31,21,4,122,10,17,25,7,33,3,13,35,2,0,187
39,43,18,24,31,208,122,70,46,0,314,46,40,83,16,38,31,16,89,15,18,523
6,32,61,15,24,103,71,35,18,8,293,18,57,48,8,27,7,19,41,5,0,436
10,8,7,5,8,33,7,8,3,0,67,5,8,5,3,15,2,4,20,4,0,90
65,47,51,39,52,187,19,83,67,24,383,47,70,29,33,68,55,49,80,21,0,565
86,30,25,40,58,211,42,63,66,29,295,12,39,78,14,52,56,41,88,28,0,537
13,7,6,14,14,67,31,31,16,0,90,14,11,26,13,14,6,8,31,19,1,146
17,6,14,8,20,31,18,23,11,0,57,1,28,9,9,6,11,9,10,10,0,112
3,7,11,7,7,11,14,19,3,1,56,5,17,8,3,12,5,0,5,1,0,83
17,9,18,6,5,19,12,8,4,0,91,0,17,5,1,7,7,7,7,7,11,120
11,9,5,8,9,47,20,17,8,0,58,1,9,38,0,6,7,3,15,5,1,107
9,6,7,4,7,28,16,14,2,3,28,0,15,17,5,8,3,7,5,8,0,56
7,9,4,10,21,29,18,16,11,4,68,2,9,17,0,16,6,7,7,3,0,130
9,10,8,19,7,23,9,21,12,11,72,2,3,8,3,8,4,12,11,10,0,140
128,79,36,50,98,287,77,113,124,0,503,26,53,31,31,106,65,204,95,32,130,722
105,89,29,86,84,296,161,108,66,0,513,14,24,136,35,76,58,165,114,40,84,791
73,49,18,43,45,171,70,72,68,0,370,15,23,54,25,67,40,118,77,22,11,527
60,50,27,62,59,185,59,86,78,0,313,13,39,30,19,86,38,161,75,34,5,479
81,56,36,61,63,266,44,79,68,0,351,12,40,20,39,83,44,165,82,23,6,591
27,23,10,16,26,113,14,37,21,19,135,8,10,7,19,37,27,24,51,13,0,245
16,10,10,12,31,54,22,31,23,9,121,12,11,11,14,54,16,29,30,10,0,152
29,28,10,30,26,69,19,28,33,0,222,5,14,17,10,39,15,50,21,20,15,288
8,9,5,9,7,36,8,24,13,1,67,2,3,5,7,15,16,20,17,3,0,99
6,1,0,16,5,22,13,4,6,5,49,2,4,13,1,5,3,16,6,5,0,72
66,29,27,34,69,129,92,80,77,0,456,8,37,59,22,61,33,86,42,32,70,609
89,28,10,50,79,148,47,93,72,0,1127,22,32,33,28,81,58,64,72,28,27,1298
50,42,17,53,42,184,44,74,58,0,369,8,21,33,24,48,24,105,68,31,50,521
39,65,16,80,45,202,36,72,50,0,444,15,21,22,17,35,31,96,94,32,74,612
54,52,14,50,57,225,27,74,35,0,396,6,20,15,22,50,30,107,84,22,61,567
51,47,11,51,52,226,39,77,64,0,329,22,21,17,25,58,32,122,83,19,50,498
17,9,10,9,10,49,6,31,24,7,96,5,4,10,15,33,12,16,21,5,0,147
97,66,26,64,66,277,52,109,82,0,473,18,39,42,34,95,51,131,107,37,41,717
62,43,17,37,61,177,43,76,68,0,289,11,34,24,23,68,40,141,63,27,17,425
41,51,22,74,38,148,40,70,50,0,305,7,24,19,30,52,26,89,78,33,17,464
71,60,28,61,48,200,67,101,64,0,403,12,31,22,31,70,35,141,73,37,28,623
80,72,22,68,72,208,53,121,87,33,680,15,46,29,41,79,62,140,103,29,0,952
52,61,28,70,81,174,41,112,65,0,501,17,41,24,36,66,26,132,82,35,68,658
70,41,32,69,107,278,44,133,100,8,479,24,41,44,29,101,62,123,110,48,0,779
74,53,29,59,73,264,51,120,79,0,466,28,40,41,47,96,47,142,103,40,39,645
4,5,9,17,3,21,3,15,9,0,43,4,3,5,7,7,0,8,10,12,10,63
11,7,13,12,10,33,13,16,10,1,41,3,17,9,4,14,10,16,15,7,0,72
4,13,7,18,7,38,17,30,9,0,65,3,17,13,9,19,1,11,19,10,10,96
25,8,14,20,14,51,9,20,13,7,83,5,17,22,5,20,11,22,21,6,0,135
20,21,1,21,22,86,25,47,21,0,162,8,9,16,17,28,12,35,39,12,9,241
4,9,5,38,25,48,17,36,14,0,105,2,10,19,19,6,11,12,19,23,4,176
59,26,11,32,26,155,85,60,37,18,265,14,31,72,18,25,45,45,66,15,0,443
60,36,23,28,58,123,36,93,40,7,258,4,29,48,24,46,59,22,52,20,0,458
32,13,17,26,19,101,13,83,15,0,239,9,15,33,24,26,34,12,34,25,1,345
2,5,7,10,1,23,11,7,2,0,37,1,1,9,2,1,5,2,9,4,0,71
4,3,2,4,4,49,15,33,8,0,104,1,3,9,5,13,12,4,17,2,6,154
5,10,5,15,13,33,20,32,6,4,113,1,4,14,9,12,9,7,17,10,0,173
39,29,10,36,26,127,27,80,24,0,285,12,22,30,25,34,37,25,51,17,11,419
38,41,16,40,39,168,18,119,36,0,301,10,16,40,22,32,42,19,77,16,2,540
59,35,16,37,35,122,51,89,35,0,530,12,17,38,26,21,46,21,41,12,35,740
31,19,16,40,31,161,32,97,41,0,264,4,13,49,28,25,26,19,61,15,23,469
43,32,18,20,21,118,37,85,25,0,241,4,17,35,26,21,34,21,53,10,8,411
43,16,22,32,20,118,27,65,25,13,171,0,32,47,31,23,47,10,42,15,0,305
33,27,12,27,16,105,46,81,31,0,178,12,23,51,19,16,44,25,43,9,17,297
5,2,6,9,4,27,12,6,8,0,78,1,13,11,3,5,1,8,9,2,2,102
7,22,10,46,7,69,16,31,8,0,141,3,11,15,7,12,6,18,38,31,5,211
13,20,7,21,10,76,13,27,7,0,105,8,28,11,4,9,4,19,48,12,2,154
30,18,4,37,27,88,19,37,17,0,155,8,15,14,16,30,16,23,40,15,2,253
11,14,8,22,15,96,15,36,17,0,125,5,18,18,11,15,9,13,49,11,2,208
14,20,10,11,18,57,41,30,13,12,126,5,25,31,6,14,7,9,24,2,0,229
49,40,15,53,39,138,65,77,61,0,300,18,49,54,23,33,30,29,55,27,0,519
37,60,21,61,37,182,40,76,47,0,300,13,77,33,24,36,20,38,72,36,20,492
26,64,24,66,46,167,47,97,50,0,342,22,55,37,36,43,12,45,75,36,19,549
64,76,24,58,63,175,56,91,51,11,393,37,83,47,37,53,37,59,85,36,0,588
29,50,14,62,25,102,23,53,23,0,242,10,30,23,21,32,17,31,47,30,22,360
49,42,24,24,39,88,28,37,32,0,310,13,45,36,17,28,29,30,33,12,7,423
54,73,38,54,56,185,66,111,62,17,369,31,61,47,27,49,50,52,104,26,0,638
42,44,32,43,42,120,36,74,32,49,628,27,50,26,28,48,18,23,57,24,0,841
42,45,19,42,37,162,53,70,57,8,448,13,58,33,8,37,31,30,76,28,0,669
9,8,5,17,4,32,34,23,7,0,72,5,6,28,15,11,3,8,14,6,1,114
2,9,3,18,2,16,1,28,8,0,38,3,4,4,15,7,0,5,8,14,3,62
51,25,7,42,32,128,33,92,48,0,591,15,11,48,26,36,60,36,84,25,19,689
24,6,5,17,10,63,39,30,19,0,137,7,5,37,12,21,15,5,29,7,1,211
79,42,12,60,36,199,27,119,35,0,448,10,15,24,33,44,69,33,119,24,31,655
71,26,11,53,34,154,21,62,45,0,274,4,18,16,23,33,63,33,68,30,18,445
81,39,15,41,23,163,39,90,38,0,299,9,17,30,26,32,70,34,68,17,12,513
54,32,9,40,29,141,19,72,24,0,336,12,13,8,25,27,50,25,66,21,41,468
59,47,30,48,34,168,35,84,34,0,369,16,27,31,31,43,80,36,88,17,13,526
5,11,4,13,18,68,25,38,9,0,107,4,15,32,12,15,3,9,32,7,3,166
9,11,5,13,2,57,3,20,10,4,49,5,5,6,7,11,4,30,16,4,0,95
55,50,15,61,36,242,20,103,49,0,332,16,18,9,33,44,38,85,104,35,40,541
22,34,13,54,40,175,15,105,40,0,317,9,17,3,26,29,13,67,86,25,21,519
39,36,20,77,34,189,27,100,53,0,414,22,12,6,21,32,25,67,77,37,5,685
50,39,9,75,31,193,29,96,50,0,550,15,16,14,22,37,46,78,73,31,11,779
0,0,0,0,1,17,11,10,10,0,23,2,2,8,0,1,0,2,9,1,11,36
6,3,1,6,5,15,0,14,7,0,31,1,3,3,3,10,6,7,1,1,3,50
14,17,10,24,18,79,13,17,21,0,141,6,22,19,15,17,9,13,39,14,16,184
4,1,3,5,0,0,2,2,5,0,16,0,3,5,2,0,4,1,1,2,4,16
6,6,2,7,10,22,16,15,8,0,69,1,7,12,9,4,5,5,12,7,1,98
14,16,10,12,22,59,16,40,24,18,99,13,27,21,10,25,8,13,26,10,0,177
17,20,1,11,12,45,18,25,15,0,76,8,12,15,9,11,12,30,24,7,3,109
11,23,15,8,10,39,34,21,10,0,87,0,21,39,3,10,2,14,14,5,14,136
15,12,8,14,13,54,8,14,14,0,92,3,18,13,4,6,4,8,15,6,7,160
12,7,6,21,7,27,5,21,2,0,115,2,10,10,6,8,2,2,10,10,10,153
5,15,4,20,3,27,10,18,9,0,58,3,3,12,7,10,1,6,12,7,7,101
26,63,22,87,39,97,27,58,42,0,339,19,27,22,28,40,16,20,41,45,18,524
22,50,30,62,38,115,42,49,30,0,418,7,46,41,8,17,10,20,62,21,17,607
3,4,1,5,5,26,17,12,10,0,45,1,1,12,1,4,4,7,15,1,6,76
36,32,11,44,22,121,62,70,22,9,273,12,17,51,22,27,24,32,57,17,0,443
1,1,1,5,4,10,4,8,2,0,24,1,1,2,2,5,2,2,9,5,4,27
6,9,6,19,2,82,16,8,5,2,63,10,2,17,3,4,6,4,26,11,0,135
44,28,26,49,39,210,43,79,36,0,326,7,29,66,23,34,19,27,59,25,8,583
54,47,27,39,35,173,48,62,45,0,422,16,27,55,25,36,31,25,70,16,4,647
15,10,16,33,14,79,35,24,18,0,159,9,12,16,8,9,6,7,39,19,6,272
6,13,3,7,10,71,23,33,17,7,136,9,7,39,14,19,10,6,42,8,0,172
2,2,10,3,2,12,8,2,8,6,16,4,6,5,3,5,0,3,10,3,0,32
4,15,57,23,13,39,7,18,11,0,132,2,37,17,4,26,4,10,28,10,19,162
2,7,22,7,10,37,19,19,5,0,48,1,9,9,12,4,7,3,17,2,6,106
31,18,34,24,20,75,32,74,28,0,259,4,17,36,17,20,20,14,32,12,17,406
22,5,9,16,14,71,19,50,11,2,148,4,11,24,8,31,12,12,32,10,0,223
21,12,9,16,9,79,34,35,28,0,159,12,12,34,13,10,12,14,38,7,2,248
5,10,7,11,9,28,13,22,3,0,47,0,8,10,4,11,4,10,12,8,4,84
13,11,7,26,9,68,33,19,12,12,127,1,13,28,8,16,4,24,36,20,0,187
26,29,21,27,33,132,48,64,30,29,192,15,24,40,13,35,20,17,71,16,0,380
39,13,19,16,16,94,42,65,25,21,169,7,35,53,14,30,26,5,35,8,0,306
3,7,2,50,12,52,14,34,7,0,123,3,7,7,16,7,4,16,10,26,20,188
34,43,21,117,45,163,26,92,53,2,363,10,29,23,36,40,43,54,69,65,0,590
18,29,24,70,56,179,71,111,36,14,487,16,40,55,29,46,27,51,63,33,0,735
24,13,4,18,12,65,12,25,7,0,116,2,6,13,7,7,12,15,33,6,8,187
6,6,6,15,6,35,5,9,17,0,108,0,15,3,4,7,0,11,10,4,12,147
9,16,13,19,15,87,12,57,14,0,104,10,16,16,7,15,10,14,44,6,0,208
10,6,18,20,14,70,26,40,8,10,156,7,24,19,11,11,9,11,28,9,0,249
6,10,6,13,4,26,13,28,13,0,77,0,10,8,12,9,8,13,13,5,15,103
2,9,1,26,7,33,9,22,7,6,45,1,5,6,8,4,1,14,16,22,0,90
1,15,3,19,10,32,5,20,5,10,50,1,4,7,20,11,1,24,16,6,0,80
7,28,12,28,12,71,23,35,12,0,179,1,7,13,14,13,3,44,31,22,14,245
8,3,1,15,5,33,14,26,8,0,88,1,3,11,7,9,10,15,14,7,0,124
15,7,10,61,15,62,21,29,15,1,162,4,9,29,8,27,7,23,23,45,0,223
21,6,12,11,21,52,54,33,17,0,180,1,17,55,7,24,11,3,25,2,14,248
14,35,11,32,27,142,19,85,27,0,228,16,14,22,27,29,26,19,59,17,20,371
44,39,30,51,47,164,67,121,44,13,360,22,36,69,35,36,30,32,70,20,0,630
15,19,15,39,24,66,39,25,16,0,181,13,15,30,10,21,9,13,31,19,29,249
13,4,3,14,15,32,11,14,17,3,43,4,11,7,2,17,10,12,20,2,0,84
21,23,14,56,38,139,69,79,43,1,254,12,21,48,24,37,16,56,50,31,0,442
12,23,6,35,17,124,49,30,29,5,224,13,19,56,12,18,4,14,56,11,0,351
40,15,12,34,16,88,23,64,22,0,272,8,25,24,22,31,18,24,37,14,22,361
32,26,12,20,18,93,22,67,25,0,204,5,12,27,24,18,13,19,40,8,40,313
24,21,17,15,21,90,45,43,34,4,179,5,22,35,9,30,15,38,44,8,0,287
12,3,9,15,12,84,22,22,14,5,115,4,9,20,9,19,14,24,42,15,0,157
29,9,9,17,31,98,28,62,17,15,206,7,18,28,21,23,29,6,42,6,0,341
2,8,0,10,2,30,10,25,7,2,27,1,7,12,5,5,4,7,13,3,0,66
2,2,5,1,3,10,3,7,2,3,13,1,5,1,5,4,0,1,5,5,0,24
0,13,4,11,5,22,4,7,6,12,40,1,13,7,4,7,0,9,10,4,0,69
25,29,26,38,33,87,26,44,32,0,192,17,23,25,15,32,8,14,53,21,20,304
8,7,9,6,9,27,7,13,15,0,112,3,8,11,2,9,7,6,11,7,6,143
2,2,6,9,9,11,19,21,4,0,46,1,16,14,11,7,0,0,3,4,0,73
1,9,6,17,4,35,9,16,5,0,34,2,6,14,5,5,0,16,21,4,12,51
3,8,3,19,6,29,4,29,19,0,126,2,5,6,13,10,2,15,20,8,0,165
19,7,8,5,5,44,16,18,5,0,92,2,16,10,7,6,15,12,28,3,3,117
4,5,1,23,5,23,1,20,8,0,65,3,0,2,5,9,4,6,8,12,8,98
3,4,4,3,6,7,0,1,8,0,28,0,5,0,7,3,4,1,5,1,3,35
9,9,2,8,11,60,12,27,37,10,94,2,8,14,16,8,1,17,30,11,0,172
15,21,17,13,12,75,23,32,10,0,146,3,9,25,7,11,9,9,23,7,29,232
6,12,4,8,8,63,24,31,14,4,89,1,11,28,8,17,6,5,25,5,0,157
19,21,12,54,21,131,12,59,27,1,233,25,8,14,22,19,14,25,62,34,0,367
6,9,4,5,3,35,5,29,11,2,54,4,7,3,7,3,6,7,19,5,0,102
35,55,33,80,39,160,41,91,33,0,498,11,26,26,19,29,32,55,64,42,17,744
6,6,5,19,6,28,6,18,6,0,45,0,7,10,2,13,3,8,8,7,4,83
5,6,2,20,16,36,8,18,9,0,69,7,13,2,8,21,3,17,7,13,9,89
3,6,9,11,4,7,1,6,2,5,51,1,3,1,1,12,4,7,3,3,0,70
3,1,7,15,5,15,10,17,6,0,53,1,4,6,5,3,1,4,6,9,7,86
34,43,38,70,37,201,57,103,59,7,499,14,47,40,30,50,23,69,91,46,0,738
3,2,2,12,3,32,9,13,7,0,35,1,5,4,5,4,2,9,9,15,13,51
16,8,8,22,23,59,24,27,15,0,182,7,8,21,8,26,7,15,19,14,4,255
23,19,14,19,21,133,44,28,30,0,168,8,21,35,13,18,17,22,43,15,6,301
15,19,20,34,29,97,81,45,33,16,251,20,51,54,14,41,10,15,43,7,0,385
73,29,26,22,64,113,70,47,47,11,202,40,41,55,18,58,46,6,56,30,0,354
124,30,27,49,75,148,50,32,72,166,287,54,80,47,14,76,100,28,79,31,0,551
191,69,69,43,124,179,62,68,134,0,358,63,90,49,17,85,115,39,81,23,194,541
47,14,13,21,28,76,32,43,18,0,175,13,16,31,8,32,59,9,40,14,8,237
96,36,50,30,41,145,112,52,64,0,256,33,65,92,15,47,108,17,64,21,37,383
61,56,29,46,51,167,40,52,43,0,321,45,33,31,11,49,34,31,79,26,25,502
53,34,26,39,54,120,33,48,35,0,325,20,32,35,11,39,28,22,59,31,4,486
45,41,28,53,37,118,34,50,37,0,311,29,26,33,13,29,38,17,70,38,9,452
61,78,23,53,39,117,45,45,40,0,292,32,22,33,9,57,40,40,62,39,17,442
99,41,30,41,57,123,31,53,61,0,315,35,39,23,16,52,59,30,46,25,29,497
108,51,39,51,74,141,43,55,70,66,939,53,79,45,16,71,64,21,60,28,0,1200
63,35,21,31,40,103,50,42,33,38,208,24,43,34,17,35,48,22,63,22,0,356
73,29,20,31,41,90,31,42,43,0,247,24,38,26,12,44,37,22,51,21,8,364
68,40,11,43,58,139,36,64,46,17,307,29,37,30,19,41,43,14,79,33,0,504
51,24,15,36,30,108,34,35,26,0,275,15,20,30,11,31,35,13,52,18,31,378
76,42,32,53,41,151,38,42,38,15,206,20,53,12,18,44,61,37,85,28,0,376
100,57,41,37,66,160,53,59,82,1,333,33,59,48,11,54,74,25,75,26,0,584
108,42,39,35,57,153,37,27,42,0,224,41,39,33,12,57,66,19,70,26,19,382
74,58,33,47,67,150,33,74,63,0,452,39,34,35,15,58,41,36,54,26,175,538
50,31,32,47,41,99,23,57,44,0,279,20,30,26,14,39,40,22,45,33,20,414
79,24,30,48,60,126,45,88,53,0,501,31,46,39,16,53,50,16,44,26,60,673
68,31,27,56,63,146,57,39,66,9,271,39,45,35,9,45,33,22,68,31,0,506
51,56,32,55,44,142,34,45,48,0,316,17,55,37,19,36,30,28,64,21,12,504
81,43,44,24,41,89,41,38,43,0,289,24,52,31,7,39,51,16,40,18,21,434
79,60,55,66,74,254,95,133,50,16,586,19,143,91,45,85,33,43,108,33,0,868
44,44,72,32,37,159,86,75,24,21,305,10,61,78,17,32,78,14,49,13,0,547
48,31,45,30,34,134,62,81,25,0,339,14,44,45,18,24,54,11,56,12,2,549
11,14,13,12,14,73,46,16,14,9,66,14,28,46,6,16,9,7,23,7,0,132
87,53,53,68,76,191,101,76,90,11,399,23,50,115,31,71,64,21,89,32,0,709
11,1,2,9,2,43,6,5,11,0,24,8,4,8,4,5,21,3,17,7,2,35
10,1,1,25,7,23,4,20,7,0,116,0,4,3,5,4,7,5,7,12,13,154
12,19,1,22,5,33,7,18,4,1,140,3,7,7,12,3,14,4,15,11,0,186
97,58,28,71,38,183,79,112,47,0,383,27,25,66,39,45,121,26,103,35,8,601
80,36,28,41,36,130,45,77,35,0,438,32,19,36,20,31,78,23,54,16,7,630
80,50,19,57,46,200,67,90,31,0,364,38,17,47,27,37,85,23,98,29,40,563
49,24,13,59,25,95,73,39,27,8,256,32,14,60,12,26,15,12,31,29,0,437
57,51,30,69,57,144,91,44,39,8,304,31,53,92,12,37,44,31,67,26,0,501
46,23,31,67,38,135,108,64,37,0,353,19,51,89,17,34,19,20,50,23,20,560
49,36,19,33,37,128,27,37,36,26,255,24,35,31,16,42,37,17,40,22,0,419
42,27,23,42,41,94,43,41,36,6,245,20,36,39,18,38,16,27,47,20,0,379
57,37,45,42,39,95,44,71,58,7,237,34,60,42,38,44,34,27,57,21,0,375
44,10,32,51,19,128,59,80,16,0,388,9,43,56,22,11,27,2,33,15,5,604
83,50,17,65,43,156,52,60,49,0,355,18,32,85,18,40,48,33,88,39,16,513
90,57,40,70,80,202,77,71,58,0,410,33,42,92,33,67,71,28,86,32,43,628
25,20,71,31,25,105,40,81,25,3,240,13,49,54,26,21,11,10,51,15,0,416
9,10,6,17,10,64,26,38,15,4,113,3,19,38,8,12,5,10,15,6,0,196
49,47,71,33,56,208,145,114,51,0,554,27,69,139,22,37,12,8,92,30,15,877
71,57,80,34,39,176,90,92,56,0,441,22,55,102,19,35,35,20,69,15,13,751
23,16,6,18,15,61,87,54,27,0,124,11,11,111,5,17,13,9,39,11,15,189
52,39,38,63,39,170,84,75,40,22,383,24,27,82,17,44,36,7,50,40,0,678
91,67,52,54,58,189,133,107,63,0,519,49,33,112,27,52,40,15,95,46,2,862
79,43,41,47,60,201,105,124,57,0,430,35,46,111,23,40,53,20,96,31,17,715
32,31,30,55,21,105,42,82,36,7,247,22,25,55,24,27,10,14,51,17,0,443
1,3,2,6,2,2,12,1,4,0,3,0,4,10,0,5,1,2,1,1,2,10
8,3,9,1,9,44,68,13,19,0,83,4,21,62,6,7,3,0,12,2,6,134
29,21,9,16,18,93,81,46,77,0,163,30,30,85,19,17,7,13,50,12,6,284
37,32,22,51,44,172,62,71,40,3,262,28,45,99,21,40,24,28,63,24,0,424
78,67,71,76,48,289,104,83,48,0,588,36,80,133,28,66,34,19,122,29,19,886
17,21,12,27,18,83,14,37,14,0,137,4,10,21,13,17,12,8,33,9,5,248
12,7,2,8,4,15,21,15,9,2,34,3,9,18,7,11,8,5,4,3,0,61
55,37,27,61,44,180,125,57,41,17,259,40,36,99,19,66,43,15,82,44,0,459
108,18,9,32,16,74,17,31,19,20,125,39,22,31,7,19,11,10,32,25,0,273
22,41,54,51,22,155,51,57,39,0,291,16,59,62,12,29,19,13,81,15,7,470
47,25,26,36,37,139,68,68,27,0,276,24,33,69,21,33,25,15,65,21,17,426
12,9,19,22,18,57,16,35,13,6,133,6,18,12,4,16,10,1,28,13,0,232
42,34,34,31,45,146,39,73,46,3,298,20,42,57,4,41,24,20,60,7,0,516
15,10,6,7,7,25,4,14,16,0,86,1,4,11,2,13,4,0,7,1,14,133
15,12,7,29,16,60,24,32,32,0,157,13,13,20,6,24,7,6,27,12,12,244
8,3,3,11,3,20,9,10,4,0,35,1,3,7,5,3,3,2,7,3,0,72
66,25,29,44,27,149,86,54,29,23,311,22,37,108,26,37,31,14,57,22,0,489
28,20,24,26,33,91,100,34,40,0,174,37,33,78,8,41,18,15,49,15,5,271
23,30,21,68,25,92,99,60,23,6,209,37,24,67,20,23,11,11,48,42,0,373
81,44,56,105,65,230,94,83,61,14,452,70,84,111,12,52,40,15,81,72,0,748
28,40,19,50,34,101,34,40,66,0,210,82,23,22,15,25,12,25,41,39,14,324
64,51,56,36,52,143,79,61,35,28,333,7,134,69,7,37,39,18,37,25,0,565
41,62,57,40,34,123,83,71,52,0,303,18,101,66,15,19,20,15,42,14,8,548
41,47,67,29,40,149,134,73,41,0,288,22,102,88,12,28,22,11,45,14,5,560
42,14,37,21,31,97,69,38,28,16,213,11,42,68,18,24,32,10,39,15,0,347
30,29,13,31,22,105,101,32,15,0,220,21,26,82,9,21,13,13,48,23,12,330
18,19,16,67,21,109,75,46,39,2,204,19,27,69,10,25,17,13,42,33,0,361
41,22,17,34,33,85,58,54,36,34,216,14,21,74,18,47,23,7,50,27,0,349
83,38,37,69,60,178,118,109,61,0,436,21,49,161,22,59,45,21,93,28,0,690
80,36,29,50,48,210,60,82,42,0,391,20,26,105,18,48,43,13,84,24,32,615
33,19,11,46,24,103,26,58,109,12,278,19,23,47,17,33,19,11,60,26,0,464
25,12,24,28,32,141,49,56,30,0,197,25,47,39,19,22,11,6,47,7,22,349
38,29,17,71,37,87,102,55,27,0,282,44,14,71,17,30,20,14,28,44,8,455
43,24,44,26,32,120,35,50,43,4,277,21,37,24,21,32,29,10,43,14,0,467
78,27,49,23,34,141,87,44,39,0,322,23,77,78,8,29,37,14,59,13,13,493
56,38,80,31,36,135,50,49,35,0,262,25,71,65,6,31,25,13,42,14,8,472
46,29,46,66,48,150,96,55,50,0,277,27,50,81,9,45,37,18,72,40,14,470
40,46,25,25,51,133,123,72,46,13,252,25,66,114,19,47,14,11,67,11,0,452
17,20,14,33,23,56,18,34,30,0,129,19,15,20,9,16,9,5,37,12,16,216
19,14,10,27,12,53,22,30,16,9,124,11,17,22,3,20,12,6,32,20,0,193
32,29,12,35,14,122,14,41,26,0,226,25,28,29,19,14,18,9,32,22,14,341
5,6,6,14,9,15,5,8,13,0,35,8,9,4,3,7,1,4,7,6,10,57
30,15,5,54,30,130,64,72,39,0,276,18,7,70,8,7,5,13,62,23,47,455
36,54,19,51,27,133,107,89,39,0,432,16,16,85,24,27,18,14,45,15,18,709
12,32,9,48,21,79,178,62,32,0,368,5,11,110,15,21,10,14,13,12,21,609
40,23,28,45,20,120,243,58,35,0,476,11,18,166,12,32,15,5,16,19,11,783
38,19,6,24,22,49,14,21,23,0,133,30,10,15,3,15,11,20,30,12,4,199
8,6,4,14,8,34,3,15,11,0,37,5,7,2,3,7,4,4,8,15,4,81
8,31,209,31,20,134,77,60,20,13,286,16,252,66,8,18,7,13,60,11,0,438
27,30,19,24,23,119,28,51,29,9,152,8,40,54,4,25,11,13,44,3,0,309
11,9,13,16,10,31,30,10,9,0,74,6,1,22,3,6,7,6,12,2,18,130
21,23,27,33,35,104,98,42,48,26,222,24,50,57,8,30,20,11,31,7,0,441
29,25,12,28,36,115,111,50,28,0,266,15,37,84,16,24,11,9,48,9,22,425
61,44,61,97,81,212,155,90,56,0,485,31,66,185,27,65,17,33,69,53,18,778
44,49,34,61,38,172,58,67,59,1,374,30,46,76,18,36,23,23,53,37,0,615
13,10,8,6,5,31,16,19,13,7,78,10,7,31,8,5,4,15,11,6,0,109
43,36,37,44,49,156,76,77,39,9,341,17,48,91,28,60,14,23,67,34,0,525
50,29,30,24,53,136,146,59,32,4,335,18,50,135,4,41,32,15,38,16,0,549
45,41,36,25,45,136,154,48,56,0,264,23,46,128,16,41,48,19,59,11,18,441
38,30,34,29,36,125,103,69,32,0,262,13,33,92,19,31,31,17,44,20,21,437
61,56,33,51,40,162,95,77,57,0,343,13,40,90,18,41,35,28,74,24,55,557
36,64,23,44,41,179,41,82,44,0,324,17,31,43,17,40,14,19,102,19,41,535
39,59,49,43,56,157,68,89,45,0,408,20,42,56,16,48,35,27,82,24,52,611
38,39,36,38,47,149,52,90,33,0,424,10,33,35,25,36,22,19,69,24,65,608
52,30,21,38,23,109,32,61,35,0,404,9,28,35,16,27,36,12,43,29,20,550
69,67,38,49,72,184,75,118,61,0,422,13,50,96,30,51,39,34,46,16,51,729
56,50,46,49,59,177,92,93,53,3,341,14,53,113,14,38,40,21,72,19,0,635
66,56,40,35,65,159,62,110,65,0,361,26,66,65,24,48,52,15,60,18,47,598
68,42,52,47,72,148,63,91,79,0,700,24,56,78,17,58,43,17,59,29,37,944
97,59,88,60,48,186,92,83,68,154,352,19,104,104,23,53,96,27,60,35,0,766
76,41,51,51,63,146,69,73,67,7,331,38,74,64,27,61,63,19,68,27,0,534
53,91,30,39,75,201,106,101,52,0,467,26,36,71,21,59,25,39,82,19,43,794
36,31,11,30,15,60,23,46,25,0,187,14,11,20,7,23,25,15,28,11,4,306
57,61,23,51,36,124,77,66,41,0,352,11,22,53,17,26,30,41,57,20,10,601
40,58,10,56,60,161,68,69,56,0,451,29,25,55,14,41,26,28,71,23,3,714
1,9,1,12,11,35,12,21,6,8,77,4,3,17,2,11,5,5,14,6,0,126
2,12,5,10,4,22,27,24,6,0,56,7,2,25,3,6,5,5,7,5,10,93
19,9,19,14,14,66,42,28,23,11,111,5,35,39,6,19,19,4,36,9,0,184
62,32,40,76,44,128,134,48,38,0,391,42,47,124,11,48,32,33,48,55,49,504
48,20,16,35,17,54,67,43,32,0,126,10,19,55,20,22,24,11,28,8,3,258
118,56,72,69,64,186,123,95,58,0,418,21,76,109,28,84,49,23,61,33,19,756
118,53,51,45,59,186,99,86,69,0,456,17,66,92,27,57,53,14,59,22,19,796
2,6,2,9,3,11,5,16,7,0,67,1,3,1,4,4,2,0,2,2,12,97
54,42,23,48,42,153,57,81,35,0,343,31,31,47,20,26,36,13,54,22,27,571
13,15,3,11,8,48,34,17,14,4,87,6,5,58,7,12,5,15,10,4,0,132
78,57,36,77,80,276,94,90,40,0,523,38,77,87,22,49,38,24,138,34,17,827
5,5,7,10,7,22,15,13,9,0,47,4,1,14,16,6,4,2,1,1,10,81
