id,name,abbreviation,color,votes
53,Občanská demokratická strana,ODS,#004494,19584
7,Česká strana sociálně demokratická,ČSSD,#F07D00,47373
1,Křesťanská a demokratická unie - Československá strana lidová,KDU-ČSL,#e6ac21,28996
768,ANO 2011,ANO 2011,#261060,72543
47,Komunistická strana Čech a Moravy,KSČM,#8c0000,32631
1138,Koalice Svoboda a přímá demokracie - Tomio Okamura (SPD) a Strana Práv Občanů a SNK,SPD + SPO,#245,20081
,,ostatní,#666,
,,migrace,#444,
,,nevoliči,#222,
