id,name,abbreviation,color,votes
53,Občanská demokratická strana,ODS,#004494,13819
7,Česká strana sociálně demokratická,ČSSD,#F07D00,29407
1152,Starostové PRO VYSOČINU,STAN+SNK ED,#732,10390
1,Křesťanská a demokratická unie - Československá strana lidová,KDU-ČSL,#e6ac21,20368
768,ANO 2011,ANO 2011,#261060,25875
47,Komunistická strana Čech a Moravy,KSČM,#8c0000,17311
1138,Koalice Svoboda a přímá demokracie - Tomio Okamura (SPD) a Strana Práv Občanů a SNK,SPD + SPO,#245,9728
,,ostatní,#666,
,,migrace,#444,
,,nevoliči,#222,
