id,name,abbreviation,color,votes
53,Občanská demokratická strana,ODS,#004494,53828
659,STAROSTOVÉ (STAN) s regionálními partnery a TOP 09,STAN+TOP,#561,44125
720,Česká pirátská strana,Piráti,#000000,47519
1114,Svoboda a přímá demokracie - Tomio Okamura (SPD),SPD,#ea2329,24951
768,ANO 2011,ANO,#261060,60881
47,Komunistická strana Čech a Moravy,KSČM,#8c0000,19929
,,ostatní,#666,
,,migrace,#444,
,,nevoliči,#222,
