id,name,abbreviation,color,votes
2,Michal Horáček,Horáček,#794,71687
3,Pavel Fischer,Fischer,#163,62849
7,Miloš Zeman,Zeman,#874,226678
8,Marek Hilšer,Hilšer,#644,62973
9,Jiří Drahoš,Drahoš,#622,190082
,,ostatní,#666,
,,migrace,#444,
,,nevoliči,#222,
