id,name,abbreviation,color,votes
1458,TRIKOLORA - SOUKROMNÍCI - NEZÁVISLÍ,Trikol+Souk+NEZ,#693,11484
166,STAROSTOVÉ A NEZÁVISLÍ,STAN,#5d8c00,24329
1,KDU-ČSL,KDU-ČSL,#e6ac21,35674
1114,Svoboda a přímá demokracie (SPD),SPD,#ea2329,11606
720,Česká pirátská strana,Piráti,#000000,25411
53,Občanská demokratická strana,ODS,#004494,19250
7,Česká strana sociálně demokratická,ČSSD,#F07D00,16203
768,ANO 2011,ANO,#261060,36627
,,ostatní,#666,
,,migrace,#444,
,,nevoliči,#222,
