id,name,abbreviation,color,votes
53,Občanská demokratická strana,ODS,#004494,38206
7,Česká strana sociálně demokratická,ČSSD,#F07D00,23015
47,Komunistická strana Čech a Moravy,KSČM,#8c0000,29389
720,Česká pirátská strana,Piráti,#000000,33125
721,TOP 09,TOP 09,#723769,16701
768,ANO 2011,ANO,#261060,90930
1,Křesťanská a demokratická unie - Československá strana lidová,KDU-ČSL,#e6ac21,16970
1114,Svoboda a přímá demokracie - Tomio Okamura (SPD),SPD,#ea2329,31034
,,ostatní,#666,
,,migrace,#444,
,,nevoliči,#222,
