id,name,abbreviation,color,votes
53,Občanská demokratická strana,ODS,#004494,84004
7,Česká strana sociálně demokratická,ČSSD,#F07D00,43332
166,STAROSTOVÉ A NEZÁVISLÍ,STAN,#5d8c00,52594
47,Komunistická strana Čech a Moravy,KSČM,#8c0000,47545
720,Česká pirátská strana,Piráti,#000000,77726
721,TOP 09,TOP 09,#723769,39077
768,ANO 2011,ANO,#261060,188415
1114,Svoboda a přímá demokracie - Tomio Okamura (SPD),SPD,#ea2329,59019
,,ostatní,#666,
,,migrace,#444,
,,nevoliči,#222,
