id,name,abbreviation,color,votes
53,Občanská demokratická strana,ODS,#004494,27908
7,Česká strana sociálně demokratická,ČSSD,#F07D00,53408
1066,Otevřený kraj,Piráti+SZ,#252,17666
1144,Starostové pro Jižní Moravu,STAN+SOM,#726,21422
1,Křesťanská a demokratická unie - Československá strana lidová,KDU-ČSL,#e6ac21,54988
768,ANO 2011,ANO 2011,#261060,71951
47,Komunistická strana Čech a Moravy,KSČM,#8c0000,33426
1138,Koalice Svoboda a přímá demokracie - Tomio Okamura (SPD) a Strana Práv Občanů a SNK,SPD + SPO,#245,19560
1162,"TOP 09 s podporou starostů a ""Žít Brno""",TOP09+ŽTB,#436,23065
,,ostatní,#666,
,,migrace,#444,
,,nevoliči,#222,
