id,name,abbreviation,color,votes
1114,Svoboda a přímá demokracie (SPD),SPD,#ea2329,14696
1350,PIRÁTI a STAROSTOVÉ,PIRÁTI a STAN,#162,36470
53,Občanská demokratická strana,ODS,#004494,19362
768,ANO 2011,ANO,#261060,50574
1450,"Spojenci - Koalice pro Olomoucký kraj (KDU-ČSL, TOP 09, Strana zelených, ProOlomouc)",KDU+Z+TOP+ProOl,#236,34364
,,ostatní,#666,
,,migrace,#444,
,,nevoliči,#222,
