id,name,abbreviation,color,votes
7,Česká strana sociálně demokratická,ČSSD,#F07D00,41262
1145,"PRO JIŽNÍ ČECHY - Starostové, HOPB a TOP 09",STAN+HOPB+TOP09,#948,14644
1,Křesťanská a demokratická unie - Československá strana lidová,KDU-ČSL,#e6ac21,12134
768,ANO 2011,ANO 2011,#261060,32309
47,Komunistická strana Čech a Moravy,KSČM,#8c0000,18297
766,JIHOČEŠI 2012,JIH 12,#826,10617
53,Občanská demokratická strana,ODS,#004494,23190
,,ostatní,#666,
,,migrace,#444,
,,nevoliči,#222,
