"","Zeman","Drahoš","ostatní","migrace","nevoliči"
"STAN",4426.68968013356,5110.8988629466,0,401.605704023037,947.169142340039
"ODS+TOP 09",3342.57149286851,13652.7258197964,0,519.623995265196,1101.28219457974
"KDU+SNKED+Nestr",4748.08803178853,12361.0610571659,0,544.98768952738,1029.60384196668
"Piráti",2657.46049759926,11699.2220251556,0,846.840467468763,1358.10858294212
"ČSSD+SproK",12902.9115769957,7224.6505447102,0,214.491654984819,1422.95948979999
"ANO",15114.3826410425,7761.66051737535,0,447.304750958566,2826.98786962624
"ostatní",6920.70447933083,8394.52093011779,0,970.946800260135,6831.84542406243
"migrace",3141.96033424041,756.505781484787,0,43.7370591005596,485.858827653698
"nevoliči",71557.6404543434,41022.9937238703,0,1248.74464173867,87112.2534127364
