"","ODS","ČSSD","KDU-ČSL","ANO 2011","KSČM","SPD + SPO","ostatní","migrace","nevoliči"
"KDU-ČSL",752.874122927529,839.190067278901,16099.6740335936,989.182011313855,558.289909782342,443.225897660055,970.181541547028,584.285146186702,7137.3141379975
"SPD",1004.35461026056,2422.19699651162,508.719432578871,3007.55911304675,3099.76424258154,6176.52060786417,1454.02786543371,346.769475245758,5160.10553600961
"Piráti",3672.94020264969,2006.16047260744,2156.67506157341,7930.3292608248,1820.45784575879,1718.66237904408,7746.46541994583,509.127671561843,7325.53281818431
"ODS+TOP 09",6658.19662989856,1012.86417390336,2435.93730753254,7687.5654930397,686.712114633337,672.417468958029,9729.1405541462,979.537143415158,9874.9516773047
"ČSSD",435.260230574291,8314.329497246,473.182751843479,1617.36866900943,877.715111845274,1499.35227592264,903.569190532226,232.298880634697,6526.65930166536
"ANO",1561.08465797342,9463.26222249767,2834.55539333998,37317.9046254218,8395.72193888293,1993.76755435631,14333.838633659,832.050208782044,12619.5358236811
"KSČM",470.781278176977,964.010868752706,433.390417281494,1352.21509257811,9132.07915553507,571.289833917215,1060.46993920001,184.738953234526,3705.55837073025
"ostatní",1751.22088880325,1974.04687561494,1945.86509335063,7073.80855480041,1497.74056701194,2141.98258532636,14749.6872491559,924.903401929084,8775.0454597254
"migrace",221.019540000683,469.63734849394,237.674402335162,583.734349771451,308.174416672472,257.525534044074,541.058258295837,60.5360982503238,22925.3563225456
"nevoliči",2933.26783873504,19599.3014770934,1698.32610657083,4394.33283019366,5829.34469729629,4440.25586290706,9469.56134808419,4221.75302075986,568913.940552157
