"","Horáček","Fischer","Zeman","Hilšer","Drahoš","ostatní","migrace","nevoliči"
"SPD",558.13619604891,661.324065664717,1362.56399961591,568.645008552526,1515.73939693623,489.126643520406,247.01996955422,1236.4373418873
"Piráti",1065.13299203692,1716.53602717978,1248.27966585952,1857.94528589004,2347.40275765674,944.569436807546,180.172751721962,1063.49892722403
"SLK",3386.28049041304,3189.56949556876,11321.1971875578,3774.59211777053,13915.8086153572,1286.46956642651,432.980488056441,1664.00611566338
"ODS",546.080832324279,1346.93339421856,1081.30209649053,373.937327136346,3613.31706585628,1064.02056895458,113.559408579143,977.869131380254
"ANO",2318.99944204175,872.452178299237,9676.9887941079,1971.96977269849,2237.79197079129,393.038086389633,229.658385881635,1439.36713947391
"ostatní",3521.00331011598,3019.37997360875,1860.49020145697,2459.75764975884,4292.81317726102,1805.51359842095,157.686807687847,1375.43758165859
"migrace",169.795848371873,157.846044000978,920.85618249678,173.084645553396,2068.05079444672,109.955505404341,29.9783972129125,1076.23757739876
"nevoliči",6358.64336206644,1806.37194838123,32754.8888650595,4601.70946193478,10617.0659859277,4575.37142059925,1756.45380634523,97892.8877172369
