"","Horáček","Fischer","Zeman","Hilšer","Drahoš","ostatní","migrace","nevoliči"
"SPD",849.879859417357,765.980402336084,2679.92619395026,1357.3417783996,1826.09618817758,1263.19359957178,272.716682112759,1662.5902479635
"Piráti",3700.31734405324,3632.79374847673,3053.20701135863,3833.02911392461,4597.76534173073,2164.46496582606,432.928713441038,1707.65520569215
"ČSSD",1043.75850772443,701.172785851029,3379.17684169255,665.222411945694,2041.45908634828,511.305414175575,226.792006698933,1429.23705242999
"ANO",3312.18154641399,2087.5058689541,23885.4041209303,1941.03414482125,3270.91180833905,1757.59302812314,582.948611782236,1778.56772989058
"STAN+Z+PROPLZEŇ",2917.8346529006,4111.62159484701,3744.33897220281,2745.82526956748,8206.60242679497,1525.40134760752,415.164980414678,1602.62660048388
"KSČM",691.773970143054,509.48139393928,3764.07102649937,451.325497378999,1739.3222976606,529.124194683368,186.386744990647,1626.03393372845
"ODS+TOP 09",2138.23866479074,3940.7232733288,3541.72944892852,2251.30721961224,18370.1314278493,3367.14388592002,697.00788618635,1558.23499821029
"ostatní",1540.32808228025,4712.02239029935,2881.23737863719,1467.90081561807,2840.40849243671,2144.56158551689,396.41664945009,1511.35189825127
"migrace",328.284628074648,326.02989400609,3867.69315117688,300.192132493413,1568.74209335938,193.132039007101,48.3096103382342,1223.58182587333
"nevoliči",9340.30153569934,2609.07845389403,62618.036951038,8988.68747094168,23633.5078568946,3953.42271897021,2734.35044651361,159691.812828007
