"","SPD","Piráti","ČSSD","ANO","STAN+Z+PROPLZEŇ","KSČM","ODS+TOP 09","ostatní","migrace","nevoliči"
"ODS",564.634268446219,5060.54030054786,520.063864202279,1800.04100690953,2747.34749817224,417.794944848575,16327.2073114914,900.437333181042,298.00745062208,3815.92602157882
"ČSSD",708.316318498746,1010.33822736797,2620.51633849889,2351.62461830057,793.601974655286,374.07388980062,834.809846115412,877.515666075538,289.639818752543,11613.5633019344
"KSČM",428.691378697711,592.075887045003,787.655966904576,2410.59772514334,736.871166904463,4310.493844086,556.11891847152,458.069151214385,299.82213469851,12770.6038268345
"Piráti",590.408904896635,6712.2525687561,526.75979180487,1414.97134869738,1870.17018272192,368.091354884329,3061.6784588627,1238.65018714051,274.650021312047,10847.3671809235
"ANO",1333.4696299555,1680.9512376411,1250.31031057883,24571.2294540251,1287.76121887465,784.309636288987,1302.12628917195,1278.41491288941,628.274565192166,49341.1527453823
"SPD",3767.09470843018,786.858782457376,455.661313077091,1502.39504975233,700.724715071731,463.192656418454,535.965086117569,1890.76512095676,301.240823860602,18077.1017438579
"ostatní",989.927119727149,3638.27879579979,1077.78233696083,1311.59958787394,12963.1469836217,837.983866612294,8821.51515359963,7833.77938868203,729.682882762933,14765.3038843596
"migrace",233.126133922379,474.149587703771,179.887899172961,683.395391609243,624.768878822292,130.651807588291,894.810862688635,436.479810099439,54.0388863639244,2169.69074202907
"nevoliči",2186.85758955983,3342.98176823392,2700.05419506152,2874.27364966072,3820.02814639901,2004.56055218362,3880.88978003604,2785.68247662304,6639.81061786488,152802.861224377
