"","SPD","PIRÁTI a STAN","ODS","ANO","KDU+Z+TOP+ProOl","ostatní","migrace","nevoliči"
"ODS",582.931988563163,2398.17064831238,5131.58424795766,1197.98244011636,1078.92520470609,815.66555184774,203.582645345968,882.157273150641
"ČSSD",947.805657563301,2247.00643311494,675.045130937236,7248.51645759414,1247.01469982778,7587.11799223745,363.206904987716,2864.28672373744
"ANO 2011",2589.87470143869,5400.5162384288,3235.98737838429,14862.287076867,4046.2473411629,5611.97779989503,633.213856024497,3377.89560779882
"KSČM",1423.37476276238,1454.39605812733,357.953078839649,3936.60005695022,587.793478456046,4624.00392535269,256.399145921782,6693.4794935899
"STAN+ProOl",1045.9174770997,5121.1548428494,653.305156985002,2805.46745174208,1327.25804756515,1006.60606555571,290.116231045443,4056.17472715751
"Koalice pro OlK",490.246339157486,1309.57483220141,418.860109115987,2431.41957855441,11382.5240524742,1266.17525849524,197.235878715054,1583.96395128621
"SPD + SPO",2627.72839162261,1118.46709593087,1097.57992986243,1651.74899836068,1457.77901993387,1443.00760028543,209.934960838291,2663.75400316582
"ostatní",1489.54196286227,8903.74192069621,1346.61317535457,2499.61167094737,4649.61566822508,3455.46738416739,463.301754809136,1923.10646293796
"migrace",303.503020732449,436.070843062888,424.907575485908,410.86547457606,800.432653622991,598.312703772278,37.7875456792317,2002.12018306819
"nevoliči",3124.38146368926,7714.12325161001,5377.33358903585,12860.9827844513,7218.10923880477,4802.13824466157,10903.3825285117,293380.548899235
