"","STAN","Piráti","ODS","TOP+Hlas+Zelení","ANO","ostatní","migrace","nevoliči"
"ODS",3259.36726148382,9884.78101283221,27069.1494917957,3130.31773474672,2135.9233501622,2680.89675198602,384.032633709631,4821.89721547249
"STAN+TOP",14500.2158657257,6268.91448043016,6507.93171830452,5351.20213586409,1962.14514916915,2649.30516901269,373.626914654255,6103.25098039919
"Piráti",8737.25090143472,15614.6856653885,7303.81372433826,1630.43211261232,2117.88477719793,2117.51489582224,415.693994585896,8987.59918527394
"SPD",1929.85266050806,1954.75615398652,1691.03587228757,884.712410423404,5335.82352637442,5751.48953238656,297.136706912639,6902.23997717146
"ANO",4130.6012977741,4137.18331539847,1737.8408285345,874.357813507104,32140.749250389,7672.7499439508,442.721446215097,9227.96680057064
"KSČM",876.716018110751,1514.20962857814,883.816590976602,689.387172444996,3788.11625310549,6104.43348866719,239.450148029968,5680.97037642576
"ostatní",11814.5162857702,6432.42961480274,3616.57704945579,2014.70293153723,8022.66638545489,14055.7349030933,482.78401931573,13146.117834922
"migrace",1609.91251343339,1274.26528617076,2431.41804202859,1168.26516442984,963.758093977602,1572.55761838471,115.82462211295,5237.46470945852
"nevoliči",44534.9717489749,12668.0847445586,29981.9880381649,8677.29685063703,20252.7409201994,36865.9637576391,5680.36133391188,561480.447196433
