"","STAN","Piráti","ODS","TOP+Hlas+Zelení","ANO","ostatní","migrace","nevoliči"
"ODS",7621.2920393428,6735.50399410574,40863.0417122823,2493.23417815404,2354.44441771159,3657.80368183315,864.051570447728,18287.5437098284
"ČSSD",1694.04098504839,2510.98851907669,908.501038106542,768.304816623755,2271.55312746062,7721.36116722213,355.972514253045,26487.7987981888
"STAN",29780.4037395264,1550.04647894386,766.125318041124,634.889925099522,1746.24986064047,1905.77102574428,370.055020790506,15274.8059692584
"KSČM",957.65202964035,1304.00308021935,653.087134507095,557.296229076064,6007.77761170992,16495.5687255,336.320656803971,20725.4536823804
"Piráti",8637.44264879049,20379.4190054296,7592.92745817148,1960.5238798071,1536.10558451233,2239.44837381658,620.237274264759,33717.7044421514
"TOP 09",5906.22692287219,6549.83714071506,8571.08560365887,6095.26111641468,1531.5657230356,1261.20095126188,333.716106077405,8367.77819999916
"ANO",4859.83449401006,3229.02674346551,2144.49409610062,1693.23784334926,47034.4059686134,14928.8341345491,962.328450863718,111124.551765892
"SPD",1146.96462892924,2026.30833949032,1050.86073830818,741.319982663995,3469.99647680512,13712.5279630926,377.532205581081,35862.3165795429
"ostatní",7317.28749532033,5252.81875304869,2794.64281236589,1216.38158046967,2444.74772798083,5717.55367688191,457.128304794992,31863.3412926184
"migrace",2128.19822683451,2538.42104394743,2730.4392329949,1032.66326057559,607.866436325402,1452.42254604718,130.978801763122,13305.4558086789
"nevoliči",20439.5969609608,7421.84039185564,12848.2011579357,7127.90583494955,7868.21762409549,9834.33783894025,10588.0990011893,301552.490589623
