"","ODS","KSČM","STAN+TOP","Piráti","SPD","ANO","KDU-ČSL","ostatní","migrace","nevoliči"
"STAN",633.655246748947,279.061727177859,1141.97871577597,781.233916657319,259.647336695409,490.274273786228,398.278449671459,523.179493299483,293.12968925901,6251.43457551929
"ODS+TOP 09",4387.65933177843,267.160633937925,1815.17634530934,2172.4368930112,558.170455007979,1065.2222381561,716.0850218428,1205.25635126979,248.42482484317,6375.4170773075
"KDU+SNKED+Nestr",1460.62743443265,341.392982420656,1123.06311534988,500.513748607954,609.752598881134,751.4362728682,5718.6008369443,1291.91341666426,325.595175056921,6668.17707526447
"Piráti",1465.0704867476,682.58958141912,1376.90422592248,4351.79075986811,744.050575440734,1102.64763313092,693.641408706639,1496.28373613397,454.828593520351,4269.93121837918
"ČSSD+SproK",595.054194368697,465.090449564447,556.722927104498,970.495280356325,550.237029741351,739.570336113123,851.189942596951,2021.97837418474,214.884398522224,14992.9732715286
"ANO",1341.12273524624,1199.65380244611,1071.73643229073,1441.66299522724,975.256738547405,9704.26835094058,486.836424990535,2677.29381522325,337.016022906902,7064.01915825293
"ostatní",1812.70233052576,2324.03855741797,1065.29437472026,1262.62896898745,1553.64196375152,3632.15025824749,369.940086241987,3013.00133644915,500.982781957081,7796.88453662034
"migrace",127.731903476126,104.609674959105,130.967904730104,166.127819473364,109.162771049452,201.979331840409,136.925781707909,178.675246781955,34.0149077607485,2118.85502574426
"nevoliči",956.376336675555,1535.40259065681,694.155958796733,1560.10961781104,2599.08053088501,3560.45130491694,788.502047297424,2395.4182299934,320.123606173592,189464.308061383
