"","ODS","ČSSD","ANO 2011","KSČM","STAN+ProOl","Koalice pro OlK","SPD + SPO","ostatní","migrace","nevoliči"
"SPD",582.931988563163,947.805657563301,2589.87470143869,1423.37476276238,1045.9174770997,490.246339157486,2627.72839162261,1489.54196286227,303.503020732449,3124.38146368926
"PIRÁTI a STAN",2398.17064831238,2247.00643311494,5400.5162384288,1454.39605812733,5121.1548428494,1309.57483220141,1118.46709593087,8903.74192069621,436.070843062888,7714.12325161001
"ODS",5131.58424795766,675.045130937236,3235.98737838429,357.953078839649,653.305156985002,418.860109115987,1097.57992986243,1346.61317535457,424.907575485908,5377.33358903585
"ANO",1197.98244011636,7248.51645759414,14862.287076867,3936.60005695022,2805.46745174208,2431.41957855441,1651.74899836068,2499.61167094737,410.86547457606,12860.9827844513
"KDU+Z+TOP+ProOl",1078.92520470609,1247.01469982778,4046.2473411629,587.793478456046,1327.25804756515,11382.5240524742,1457.77901993387,4649.61566822508,800.432653622991,7218.10923880477
"ostatní",815.66555184774,7587.11799223745,5611.97779989503,4624.00392535269,1006.60606555571,1266.17525849524,1443.00760028543,3455.46738416739,598.312703772278,4802.13824466157
"migrace",203.582645345968,363.206904987716,633.213856024497,256.399145921782,290.116231045443,197.235878715054,209.934960838291,463.301754809136,37.7875456792317,10903.3825285117
"nevoliči",882.157273150641,2864.28672373744,3377.89560779882,6693.4794935899,4056.17472715751,1583.96395128621,2663.75400316582,1923.10646293796,2002.12018306819,293380.548899235
