"","ČSSD","STAN+HOPB+TOP09","KDU-ČSL","ANO 2011","KSČM","JIH 12","ODS","ostatní","migrace","nevoliči"
"STAN",959.927641233547,3108.39074879032,474.528943240283,954.375688412553,425.925623917772,574.638990407302,1126.86506893963,1554.90499606002,737.827983526164,4662.08222415289
"Piráti",3586.42064218846,1895.7329934793,1363.24611022205,3905.60030090302,942.041669953031,868.977448482979,3616.39902885705,3229.42618665967,620.076979443493,5278.55747914019
"ODS",1003.75377773757,2238.06522594971,1081.25664238719,2488.705710556,857.115397046667,1105.10380320152,9770.20197795369,4895.84114875183,1214.19040191965,9656.68389442921
"ČSSD",6043.42787047415,630.315948173606,445.98895265634,1224.68417465924,783.396447333967,1205.64245993963,1208.54413270797,645.17135996827,337.050083640637,4761.40275423899
"ANO",8030.91556448009,2092.26214875336,707.374187182636,9470.31704535041,3501.50552965033,1240.71831596919,1008.75563188058,3325.09069812082,457.473658776096,5928.74147076995
"KDU-ČSL+TOP 09",845.290967224461,2247.05739425104,5462.98905400465,1361.91517787366,582.542895046,1250.50160937905,1647.33255206411,1917.47392940961,805.395099382941,4387.99517857744
"JIH 12",959.77384075488,386.905999239682,277.431483312274,864.280383864998,351.079664926778,2473.64022495661,541.663273485725,785.41830297479,383.61109013999,5834.49760255907
"ostatní",8631.11671675346,680.088729375138,890.995328020598,4247.41492308319,4992.70482749443,401.293169163579,1278.63499636022,6163.39441207883,626.67710264222,8121.89378295596
"migrace",494.404468794402,187.372025877095,211.256407983743,321.010699409618,249.114604401172,159.790030087518,302.697984416276,332.041901577991,60.7687592098327,9475.90613848822
"nevoliči",10415.968510359,1089.80878611076,1130.93289099025,7220.6958958873,5485.57334022987,1275.69394841262,2519.90535333475,7355.23706439813,2926.92884131897,269458.239474688
