"","STAN","SPD","Piráti","ODS","UFO+ProMOST","ANO","KSČM","JP+LES+ED+Z+TOP","ostatní","migrace","nevoliči"
"ODS",1243.77537607429,696.102086912023,3036.03503241582,11120.5260965573,425.342497401397,1054.18842855175,581.470875739382,1268.89018844876,1047.02591603722,281.555323795446,7408.54713323267
"ČSSD",387.854287916422,1025.7463129749,1148.15741692999,488.140646703353,250.779680891803,3751.16315272336,574.739087911925,283.700791191132,2559.38158700715,180.276176583842,9098.90017707441
"KSČM",548.419845804062,816.308207131761,1252.09084343769,438.535794142333,302.628249928088,4080.76007336282,4999.01820296626,559.718979351781,1397.74549003951,233.408667342901,15085.61486861
"Piráti",857.721076457706,720.872783904963,4047.56317646558,758.777866288146,373.674871914629,1963.25235693553,551.924317265733,510.967542412647,3282.36695844853,211.861878390835,10697.9358205567
"ANO",1602.80970898039,1317.14508847862,1246.0494154744,1277.65211166306,813.437315096745,25935.3138773992,975.186931048675,1020.90108965344,2403.32437014468,695.401706932849,74703.9678544801
"SPD",566.166344114667,7017.66787472219,606.150853080036,434.187992563791,378.839938076127,1908.83975085771,463.279951010756,333.785003966942,1735.92521919509,256.934924821339,23829.7202663806
"ostatní",4363.28804565671,934.152106950896,2643.79170063907,1949.46248174039,499.664388561444,2060.61851956301,600.463108862562,950.582146305559,5263.97913715059,395.67561799935,25893.7758626648
"migrace",423.958430065408,224.956495956091,261.860192087432,529.494439897564,163.819489474618,719.27839629414,145.695887870594,131.028356218923,327.516740608537,46.2036510926381,2982.09288700274
"nevoliči",8734.5387876875,2843.06442589079,2940.33590120642,4989.74955502978,6909.58242692658,3937.22626961289,2387.02836593933,4884.80560562137,5264.77415440331,7661.50813804272,221178.874554602
