"","ODS","ČSSD","STAN","KSČM","Piráti","ANO","SPD","ostatní","migrace","nevoliči"
"SPD",538.720774906335,259.205392220847,433.780361210822,323.095622925924,549.481826760888,1104.05278908248,1417.86954997063,450.360633410697,303.260792635131,1327.84616639426
"Piráti",1071.89881109063,422.142370617089,443.479864716587,234.163702789381,4174.91434055278,832.872135173816,300.04259342798,1625.17167087375,225.919262019339,1264.32682670219
"SLK",3251.18279620508,594.007287255462,16489.6795608391,601.830874144756,1521.47171649944,7540.60510994079,528.519021550541,5179.2445305228,478.534709746159,3393.50540174253
"ODS",4016.10253115849,220.588632488383,403.746915921099,231.27541958378,423.798238796619,924.291152422251,278.049854796942,672.259377256281,139.186724888726,2044.7443655809
"ANO",1403.42251158911,1176.88665067668,584.089912092822,910.275597988335,494.185637324847,10799.7599780958,1016.5050147158,592.405481336431,332.391394232815,1957.44765733032
"ostatní",2770.40834341563,1315.49552116756,642.555439871934,1708.44190196147,3452.25012970277,1693.00972173953,1449.04149722352,3480.25907152643,368.141046363505,1866.67682659278
"migrace",255.166354027863,129.969944705584,229.492403519225,134.968850738541,222.776307726815,679.725586318077,180.476875619485,259.191486099697,31.0084806902962,2775.77677295132
"nevoliči",2990.09787760687,4901.7042008684,1378.1755418284,7352.94802986781,6764.12180263584,23129.6835272273,12776.4955926951,6472.10774897393,1082.55758942403,94927.6759827057
