"","SPD","Piráti","ČSSD","ANO","STAN+Z+PROPLZEŇ","KSČM","ODS+TOP 09","ostatní","migrace","nevoliči"
"Zeman",3326.3673015366,3310.74443615354,4440.5532537434,25571.3682786939,5022.62055341188,4371.91246046949,4825.68698040073,3415.94006043199,5323.61872253442,102673.036523945
"Drahoš",3840.51478210832,17856.4218355821,3824.88756867128,10387.094890063,17886.8459768205,2249.41808590572,29006.9890805599,12032.7991319355,709.445147569104,33442.1915332285
"ostatní",0,0,0,0,0,0,0,0,0,0
"migrace",346.595431102495,668.254652035699,318.688027226363,788.796804794042,767.026376118008,236.661075230707,656.274164853511,546.631655501731,49.6706419320248,2145.80545294078
"nevoliči",3172.7364094143,1322.11937182205,1453.29253175479,1943.36809610929,1659.32807156876,2656.80204046996,1439.05531976478,1576.327050859,1009.67299874217,135689.437223994
