"","ODS","ČSSD","STAN","KSČM","Piráti","TOP 09","ANO","SPD","ostatní","migrace","nevoliči"
"STAN",7558.39975817361,1680.06145226132,29534.6504583702,949.749311781033,8566.16490889465,5857.48766942739,4819.73026025872,1137.49966923982,7256.90391466553,2110.63594991678,20270.9257077904
"Piráti",6679.92139619101,2490.26738739204,1537.25521488052,1293.2422108099,20211.2443516389,6495.7866992755,3202.3802304065,2009.58687636243,5209.47154207158,2517.47353410296,7360.5940217772
"ODS",40525.8324968985,901.003923124444,759.8031132674,647.697741280938,7530.26924665938,8500.3554541084,2126.79734272056,1042.18884531652,2771.58091411878,2707.90715430399,12742.1754767819
"TOP+Hlas+Zelení",2472.65955850377,761.964626233293,629.650698538629,552.697319737248,1944.34528194585,6044.96191859437,1679.26493823285,735.202476006939,1206.34377953342,1024.14153646346,7069.0850660294
"ANO",2335.01511628192,2252.80785995932,1731.83949076354,5958.20034360274,1523.42936323279,1518.92696551456,46646.2695385261,3441.36143789719,2424.57322729221,602.850212484439,7803.28766831365
"ostatní",3627.61882388098,7657.64309749971,1890.04425834362,16359.4443070976,2220.9680405525,1250.79329276668,14805.6386935305,13599.3697007214,5670.3713892081,1440.43689234556,9753.18310332763
"migrace",856.921260516977,353.034964643434,367.00125978837,333.545277878517,615.118964030313,330.962220375904,954.387142330151,374.416741496873,453.355999295197,129.897940987132,10500.7240920541
"nevoliči",18136.6315895533,26269.2166888864,15148.7555060477,20554.423487812,33439.4598430456,8298.72577993717,110207.531853995,35566.3742529589,31600.3992338152,13195.6567793957,299064.024863926
