"","SPD","Piráti","ČSSD","ANO","STAN+Z+PROPLZEŇ","KSČM","ODS+TOP 09","ostatní","migrace","nevoliči"
"ODS",478.699555880192,4299.28895470347,400.141432744428,2271.87759471122,2208.31747596208,341.864101495886,10462.5937976176,1655.47671605975,252.851725366579,1000.88864545878
"ČSSD",1101.84458406628,1865.53416292886,4036.7324256287,8030.88494461232,1447.62482811646,543.738997831064,1715.08899311753,2805.17016135613,407.67077677506,5783.7101255676
"ANO 2011",859.111644469421,2969.20220274309,758.801124502325,13191.8547872713,3378.52342555945,550.658249014241,2972.82389353726,1006.52057782006,397.301122456591,8272.20297262628
"TOP 09",475.151222477739,1651.85631901316,315.031209719257,1160.33788473214,2161.27209503541,216.738558857753,2756.1612357141,1437.17074300648,140.094635603564,1006.1860958404
"KSČM",1063.06409881179,1099.79685454265,497.803020630002,3362.43793683829,475.085650756996,4801.90351800081,642.388460332115,852.244497534585,233.161788078968,5463.1141744738
"STANPatrSvobSs",384.29772736493,1554.93287142189,287.841342162173,1153.29575313284,6011.99804569801,235.577446915044,973.917129503755,915.319485282294,189.134069193223,1247.68612932584
"Koalice pro PlK",420.331617386312,989.579402725941,299.711111824064,711.538805063617,1149.53821000692,252.41309510717,1065.9442081722,2722.72791632805,152.478729163952,407.736904221771
"SPD + SPO",2237.53076224133,772.732388564541,294.875187633659,589.767638876349,964.461735873733,232.441025340058,644.832122169964,625.085511602361,140.127609668824,2022.14601802918
"ostatní",739.454184366489,1605.2259877047,507.850306116267,2115.70467584082,1231.66006438405,308.305693143306,1904.10689557961,1910.73963283404,204.301382923258,4138.65117710746
"migrace",208.379654493262,553.266415723478,131.356080803386,898.327397159535,562.740506832268,126.009091306534,923.065005474268,610.404396238608,44.4978737883366,2819.95357818032
"nevoliči",2793.20833735217,5941.72216580546,2680.54787733317,5439.89912470863,5851.81146180317,2085.21914067881,12169.4353655887,3132.90630012977,10191.1685400367,245127.081686563
