"","Piráti","STAN+SNK ED","ČSSD","ODS+STO","ANO","KSČM","KDU-ČSL","ostatní","migrace","nevoliči"
"Horáček",2286.4570202001,1051.94431457898,469.854500463685,3344.2717962242,2583.49181213403,455.834329333114,408.397177065444,2455.82758608825,208.586763924793,5385.02467208692
"Fischer",3312.11127320795,1817.94779202445,1705.88709347633,1543.82449139584,1760.02299663871,791.474035981238,9196.24016270879,1783.75316798996,522.120673021766,9306.75656294002
"Zeman",3176.54171176738,3268.89714884139,6946.39686293112,2850.75168615938,14655.0912661139,2388.2845052033,3057.67839644519,5429.74735085223,2534.71188929902,69090.7477646594
"Hilšer",4339.05477486343,1633.99297946745,1263.32149416901,1164.23293903278,1969.45052768381,623.235109550451,512.573378347901,2750.28539921461,253.307472377967,9690.58596696117
"Drahoš",3591.35913495523,6288.98866475698,5189.54384352112,8196.29501305606,3967.20405612255,2009.52951209618,3533.16002085763,6998.10566448731,2210.48189836146,23817.3108378478
"ostatní",1719.99547084336,915.254392320112,820.404040036159,1680.11256750639,1707.52431093709,689.411821139284,434.590319296707,1656.97906626467,215.651822652687,4549.68971041212
"migrace",480.178784544107,466.710659266719,320.297970298583,298.25064425606,311.053764647318,125.475370865521,194.380248622076,504.995944341318,43.9622681855513,1385.34825043167
"nevoliči",1830.65057907721,1467.41245763594,1830.734344026,1609.03334031589,2080.64460562175,1358.44692897994,1195.41545625729,2151.78892680419,971.923322887834,120054.987120039
