"","Zeman","Drahoš","ostatní","migrace","nevoliči"
"STAN",8883.80127819237,7633.04105637228,0,567.548192734743,1880.06172026889
"SPD",5446.00071391003,7114.98481898452,0,511.709573341002,2683.51173317798
"Piráti",2982.93880928908,12459.2273872735,0,194.573235396863,1806.48311960203
"ODS",4853.37112797404,14963.1265389249,0,294.521956132578,1980.27614620589
"UFO+ProMOST",7103.28809971062,1211.09301764143,0,197.447414906619,1610.86375227149
"ANO",29205.1332499092,13731.0734712927,0,425.742323497587,2588.61113963897
"KSČM",5122.10410339767,4139.2324486257,0,250.589517819156,1862.88819146518
"JP+LES+ED+Z+TOP",4026.68095547984,3974.41731361184,0,228.461227206443,1845.87157563221
"ostatní",5950.49432504828,15254.9156784281,0,565.291992431225,1802.31150131819
"migrace",5377.04847841546,713.843032758989,0,46.3727184155915,1720.06674600369
"nevoliči",126939.138858674,42877.045236086,0,3970.74184811819,221578.054374416
