"","KDU-ČSL","SPD","Piráti","TOP+Z+LES+MZH+I","ČSSD","ANO","STAN+SOL","ODS+Svobod.+SOM","ostatní","migrace","nevoliči"
"ODS",2348.77562156265,1685.52669115374,10749.2512700706,3407.375074489,1176.6083248059,2577.93307389308,3527.24636997456,26848.5710093551,2803.97696266721,631.102979211163,12657.632622817
"ČSSD",846.484698687985,1500.27484123391,1453.86209140903,620.249342102561,6699.36166354963,3290.83721733843,1905.92065118749,684.359697077979,1538.0810358295,403.789159071293,29833.7796025122
"KSČM",587.087568566203,643.053446503711,808.100421799799,442.526327257394,705.160081458853,6304.33256782685,904.645184915316,545.744792720102,13120.5390645181,313.388862985901,22315.4216814477
"Piráti",1285.66452787332,965.611348115938,15467.3299348103,1233.17283944329,982.242213190164,1844.60161999433,4535.664867495,2246.82635114115,2606.22109734667,442.516130222429,20869.1490703674
"ANO",1355.85576659038,1729.69381391185,1640.88015205822,1116.1084105542,1526.06805068502,42124.8551176496,1406.08225991218,1382.84853914508,1830.50627286665,749.895496676694,103431.20611995
"KDU-ČSL",35229.2267611869,841.050533504372,847.493739702344,603.886891733685,529.435642727326,2002.66986990842,1785.35183632472,674.073715081604,1086.73930524835,390.086817929532,7785.98488665284
"SPD",802.261328884579,9014.96341200462,788.635880050392,678.71587451645,840.823707468881,2052.24618746632,791.540125863019,666.354377083292,2184.85981250264,418.408322335545,49167.1909718242
"ostatní",3543.87758448181,1920.0876452008,11255.6249388255,4667.66458264604,1455.80383663262,3661.75912234363,6392.20169273566,5939.12392682739,2213.96413932775,878.395061341315,41409.4974696374
"migrace",455.194889939445,368.026860074245,627.985553496414,415.989692620831,300.700996709204,549.145308332812,788.832026528832,598.145721041464,475.319080810444,68.7981723669829,7100.86169807933
"nevoliči",8930.14819852604,4098.47966433587,5896.12265795725,10404.7429121732,6281.33373330422,6577.06984717596,14681.9711008953,6118.37586961011,5169.82392853637,12845.6148391021,284137.317248383
