"","SPD","PIRÁTI a STAN","ODS","ANO","KDU+Z+TOP+ProOl","ostatní","migrace","nevoliči"
"ODS",781.031540394959,2863.20796067153,4967.71546594546,1519.93878234387,1787.14669530177,1845.71618675408,180.869789766009,625.142353529722
"KSČM",956.212870392864,508.971637684518,659.787676107579,2743.95785080794,939.41475197126,3077.08243024654,142.1307246562,1463.31635467042
"STAN+TOP",533.754662309135,3055.27990499373,1275.25926117681,1415.70899610885,3722.92874624835,807.419664508625,204.477452238581,1204.05916827528
"Piráti",500.367480939364,4945.46017047012,2063.2605371486,2275.24882588838,1528.59862389337,2309.25499168049,213.401649723558,1721.48108240463
"SPD",5633.41269883491,1484.17827259477,841.052733240578,1337.95286449827,804.220006075098,1757.89122969009,188.297233915594,3410.05149264503
"ANO",957.031351355108,4442.94088220068,1044.34526303201,14986.6252427855,1488.20828667069,5318.79972717484,380.585851503204,3336.34565646005
"KDU-ČSL",452.491272356081,996.298135451693,343.72785197392,1278.68166119782,7041.67039705562,1039.67531966924,174.457604150755,1168.16973036575
"ostatní",1441.97571390665,4494.94673146475,818.770146778699,3692.22132245139,1318.56697705364,5448.65314552817,242.054149713779,2520.43103703571
"migrace",211.842899291442,611.437865227886,337.18894409679,437.930063571078,813.888172287213,682.886407052442,38.7901193079683,436.933463214036
"nevoliči",3114.62993894151,12580.3479320058,6715.03152700423,20285.8026913703,14301.847338093,8810.42996303587,3810.71321115206,303851.965186266
