"","ODS","STAN+TOP","Piráti","SPD","ANO","KSČM","ostatní","migrace","nevoliči"
"STAN",3259.36726148382,14500.2158657257,8737.25090143472,1929.85266050806,4130.6012977741,876.716018110751,11814.5162857702,1609.91251343339,44534.9717489749
"Piráti",9884.78101283221,6268.91448043016,15614.6856653885,1954.75615398652,4137.18331539847,1514.20962857814,6432.42961480274,1274.26528617076,12668.0847445586
"ODS",27069.1494917957,6507.93171830452,7303.81372433826,1691.03587228757,1737.8408285345,883.816590976602,3616.57704945579,2431.41804202859,29981.9880381649
"TOP+Hlas+Zelení",3130.31773474672,5351.20213586409,1630.43211261232,884.712410423404,874.357813507104,689.387172444996,2014.70293153723,1168.26516442984,8677.29685063703
"ANO",2135.9233501622,1962.14514916915,2117.88477719793,5335.82352637442,32140.749250389,3788.11625310549,8022.66638545489,963.758093977602,20252.7409201994
"ostatní",2680.89675198602,2649.30516901269,2117.51489582224,5751.48953238656,7672.7499439508,6104.43348866719,14055.7349030933,1572.55761838471,36865.9637576391
"migrace",384.032633709631,373.626914654255,415.693994585896,297.136706912639,442.721446215097,239.450148029968,482.78401931573,115.82462211295,5680.36133391188
"nevoliči",4821.89721547249,6103.25098039919,8987.59918527394,6902.23997717146,9227.96680057064,5680.97037642576,13146.117834922,5237.46470945852,561480.447196433
