"","SPD","SNK1","HNHRM","ANO","KDU-ČSL+ODS","TOP+STAN","Piráti","KVC+VOK","ostatní","migrace","nevoliči"
"ODS",313.15453026706,118.512528476258,104.884625645186,653.7650118665,690.872471404628,1083.16682916164,1079.23265207652,143.981403865063,352.616376419382,72.5868866545917,527.044314167814
"ČSSD",684.877160203138,166.065303291973,134.886947070633,2161.38514325214,260.260189863275,368.49645181318,850.675075467312,219.162253978716,1388.99605206149,149.853102134883,2892.82404532436
"ANO 2011",1111.45168862908,192.892116021195,162.90487226898,7316.0515633043,342.975166673795,379.803976506196,1293.65461004365,246.467048930753,2833.78426638365,175.706032743544,1231.68698798884
"KSČM",409.207286326501,133.262401243732,129.357177231906,1371.97727812781,176.209033976361,274.930275029687,361.847245419086,143.149242702501,1811.75788118948,92.4188309055995,2819.72463138315
"STANKOAKDUTOP09",395.732463276579,243.55951141717,170.074148125205,800.365710602417,694.804336186892,1209.32060425091,589.730498466876,290.586040785831,190.052056647185,146.311730398304,2273.44741840721
"HNHRM",314.206144711561,63.697836588274,810.809243693261,458.738744617736,90.7782003564051,92.2827111403759,185.566668229573,56.9878244373653,335.244028933147,63.0096518482008,1979.89409579139
"SPD + SPO",569.525764112354,83.2246228564137,88.1473232482067,339.362137823984,181.9690330174,456.135323547539,231.320316601619,121.383392751375,575.317101567416,67.6073301155782,1006.27580946151
"Piráti",130.686884422271,102.182215141705,55.868470918786,628.208053265424,615.078748424724,209.752785137228,1023.23541852105,109.512952217931,476.609980349394,64.8254776295505,303.298966323277
"ostatní",475.207777815765,274.554878417745,223.357670879758,1454.30850648017,849.758515113996,1247.96892241301,1162.56674251737,505.380347906924,742.045214160957,168.677942548744,4208.20835986483
"migrace",112.274040654191,84.6864064660713,49.2133746211498,254.062169739882,123.821847963164,372.41200141472,96.9132917613835,100.815221012669,92.3510764729093,14.652640059269,638.580024799072
"nevoliči",1123.21003177117,2793.06963857157,3824.05591416182,3541.37446313781,1723.00913556464,5585.16337916841,2091.29082686154,3101.10942982893,2760.18502942159,6414.52833510286,127678.940099464
