"","Zeman","Drahoš","ostatní","migrace","nevoliči"
"KDU-ČSL",3383.74429974345,48519.4059410032,0,676.606700879858,2485.34631400224
"SPD",12348.2895311848,4595.36601729396,0,538.201684315042,5190.93218451533
"Piráti",3597.18898413261,41626.9667254867,0,1385.28880319058,2751.70657567398
"TOP+Z+LES+MZH+I",1921.97095472602,18725.215361269,0,618.325744618811,2200.31488127299
"ČSSD",9807.05706512988,7209.61180930255,0,416.744911886579,2816.10558166834
"ANO",55008.3020472709,12439.3366625148,0,465.553215123735,2792.60838445009
"STAN+SOL",3673.7337708809,29850.9450894933,0,693.959598574868,2560.64922503738
"ODS+Svobod.+SOM",2450.34702279525,40025.7917016853,0,873.481572280591,2108.0009427134
"ostatní",24321.1350372647,5539.62719602831,0,525.96858401004,2515.81458027378
"migrace",1220.60759015683,11047.6385026348,0,75.0326300631145,1419.68467402521
"nevoliči",209568.623696715,80413.0949932883,0,7145.83655505678,279246.836656368
