"","SPD","Piráti","SLK","ODS","ANO","ostatní","migrace","nevoliči"
"ODS",434.082901135435,471.121951215176,770.281073373292,3278.75695004545,486.90215844177,1046.05674556766,117.164157273454,989.185902117414
"ČSSD",1018.29421332557,629.502861025162,1177.18741381357,233.46552886337,2130.30488307419,1864.73567324994,112.05750641409,510.756529835818
"ANO 2011",508.092828109821,882.443376562738,1899.90814513659,399.598315411051,7084.30187281517,3369.6496139884,186.246827783605,1198.71045257863
"SPD + SPO",813.887291497603,208.36402021119,238.733763804602,198.090230828233,760.888914765845,506.485936714478,78.0240692706348,2066.11740405101
"SLK",495.141765447146,710.147946225422,21506.8414960377,613.631599641796,1662.80278621863,1671.94497374963,342.104763651563,2116.50834082064
"KSČM",316.199109493836,198.693683559553,1083.48596260242,228.0200789113,2316.26219927052,1628.77183365662,119.369915803684,2092.86925933711
"Změna pro LbK",728.321816798648,1136.0103313582,755.372467425815,384.92380930545,227.482615209238,1059.65023720156,81.3144869969127,631.49654278538
"ostatní",392.489912341927,3864.24473519794,1722.46595138829,990.149454454974,941.33578212746,4035.9646873858,170.620920718617,1053.22603145753
"migrace",194.326268564974,289.331756012987,830.427089873309,158.575996817424,279.212172347227,458.289465540542,28.7129040312179,1466.28112770452
"nevoliči",1650.88077106377,2005.81211585418,9052.28616551293,2655.59589822764,2998.10227291743,2771.98945282534,4515.72812222584,147549.183411598
