"","STAN","ODS+TOP 09","KDU+SNKED+Nestr","Piráti","ČSSD+SproK","ANO","ostatní","migrace","nevoliči"
"ODS",628.292263578618,4350.52408627357,1448.26531735215,1452.67076559942,590.017913763105,1329.77205410634,1797.36040423177,126.65083604684,948.281982175364
"KSČM",276.69986975773,264.899502209064,338.503580291369,676.812439264652,461.154125725116,1189.50045299347,2304.36890308373,103.724304043078,1522.4076090866
"STAN+TOP",1132.31350324123,1799.81348002728,1113.5579962528,1365.25070576516,552.011065719437,1062.66571997691,1056.27818518757,129.859449189769,688.280923840878
"Piráti",774.621891634849,2154.05032940962,496.277617329826,4314.95909039846,962.281429240694,1429.46138493465,1251.94262503971,164.721785664711,1546.90552667928
"SPD",257.449794255632,553.446342374586,604.591917354954,737.753254090622,545.580062178414,967.002588514852,1540.49261203848,108.238864702951,2577.08304058255
"ANO",486.124804981778,1056.206659156,745.076442178494,1093.31530182044,733.310933565446,9622.13563269439,3601.40931385063,200.26986638112,3530.31718936276
"KDU-ČSL",394.907593620552,710.024388808715,5670.20107981499,687.770728679569,843.985840113271,482.716052647178,366.809073807821,135.766901280972,781.828507969655
"ostatní",518.751528989203,1195.05558427393,1280.97922185306,1483.61983958124,2004.86522622746,2654.63436160595,2987.50059998013,177.163016990815,2375.14444907031
"migrace",290.648766709587,246.32226487612,322.839478717106,450.979121579656,213.065710175913,334.163665464501,496.742680984123,33.7270203349012,317.414218819597
"nevoliči",6198.52514473506,6321.45831240363,6611.74051671801,4233.79237256338,14866.0792487285,7004.23236400643,7730.89508768035,2100.92195582692,187860.764335163
