"","SPD","Piráti","SLK","ODS","ANO","ostatní","migrace","nevoliči"
"ODS",217.084274232047,1801.21913249872,1282.525512198,2774.72465964527,595.972352640057,2688.87599706497,111.276605520016,721.958138476553
"KSČM",549.169158643048,238.036976146622,596.955473281122,253.463006691662,1212.64944089172,868.027992378676,73.7110482774056,561.229678127671
"STAN+TOP",383.487212447095,438.438996117228,4005.25174233379,631.113790317129,1105.99242375421,1408.23173400287,132.710645309272,1438.15379566637
"Piráti",311.946202573735,3599.50502556718,2936.70029965226,683.071456873159,681.31430257801,1517.99056082728,131.370317253588,775.501225348082
"SPD",1828.36283219106,271.996938546514,1492.05801310499,177.405836300578,1315.64183771389,1909.79184007305,96.2165227826909,752.305235349726
"ANO",662.142994894937,958.330588632951,2408.80994260957,517.853717972278,5755.96914770049,2957.91935521933,189.917577398614,2799.50843720796
"ostatní",708.192253815897,739.60746589991,4465.15879731099,645.242576739226,2321.85406857551,3236.0094034932,183.470034444672,1744.01666247977
"migrace",160.655235898478,195.682742164264,416.515453559218,169.696110504395,435.139583858914,185.078336418184,19.0008650619647,478.204023038277
"nevoliči",1815.30831710949,2257.05938352394,21823.6059656874,3405.49673440209,5742.2464675773,3845.24871098049,1856.15715468034,152181.463657743
