"","SPD","SNK1","HNHRM","ANO","KDU-ČSL+ODS","TOP+STAN","Piráti","KVC+VOK","ostatní","migrace","nevoliči"
"ODS",310.606700514397,117.548308843677,104.031282825627,648.445970347085,685.251523061843,1074.35416829391,1070.45199973002,142.809969096788,349.747484520066,71.9963187029992,522.756274063578
"ČSSD",679.304989798333,164.714193601012,133.789504933362,2143.80008270633,258.14270922328,365.498359392548,843.753970844378,217.379146734917,1377.69516024698,148.633895145215,2869.28798737364
"ANO 2011",1102.40890173878,191.322742996849,161.57947589018,7256.52806278491,340.18471579534,376.713885902376,1283.12941756974,244.461789483345,2810.72855692174,174.2764859394,1221.66596497733
"KSČM",405.877969971984,132.178176434625,128.304725381406,1360.81485130227,174.775394746968,272.693438366232,358.903251037106,141.984578409389,1797.01739306568,91.6669099709518,2796.78331131338
"STANKOAKDUTOP09",392.512778275788,241.577907736702,168.690422415145,793.853923694066,689.151398135809,1199.4815544585,584.932442667508,288.221828587492,188.505790386667,145.12133605991,2254.95061758242
"HNHRM",311.649759008685,63.1795900755972,804.212488049797,455.006439607684,90.039627615452,91.5318976780916,184.056895153595,56.5241706798507,332.516478702308,62.4970044164461,1963.78564901249
"SPD + SPO",564.892094321673,82.5475061304098,87.4301553611644,336.601082600106,180.488530353142,452.424200008679,229.438291185827,120.395815725849,570.636313372083,67.057275907454,998.088735033613
"Piráti",129.623614054987,101.350859172788,55.4139242375636,623.096943527983,610.074458899899,208.046233466969,1014.91036047043,108.62195326695,472.73227470894,64.2980566131779,300.831321580309
"ostatní",471.34148051525,272.321095986512,221.54042966384,1442.47623159914,842.844867639251,1237.81542934935,1153.10808281503,501.268566143109,736.007923648673,167.305576387293,4173.97031625255
"migrace",111.360577448066,83.9973966476397,48.8129738989193,251.995116280565,122.814431631038,369.382052026334,96.1248038287084,99.9949869276047,91.5997067892984,14.5334259694514,633.384528552374
"nevoliči",1114.07157883231,2770.34518390587,3792.94334036115,3512.56178967973,1708.99070850897,5539.72240975695,2074.27605467988,3075.87875900056,2737.7281244079,6362.33964050683,126640.14241036
