"","KDU-ČSL","SPD","Piráti","ODS+TOP 09","ČSSD","ANO","KSČM","ostatní","migrace","nevoliči"
"ODS",475.235245380483,975.268607378369,5188.38156663677,15076.3799331623,607.229752782427,5708.44447108915,575.624212355119,3098.37078728232,272.127690230227,6071.9377337028
"ČSSD",662.904866740839,943.45182011997,1430.74394920709,809.266101966357,6195.25505985872,9784.56867604247,688.440164818818,1236.84656434887,336.822836391287,23824.6999605056
"KSČM",450.344849019078,4359.02913971742,972.208838000016,556.894742546824,1249.3082954654,6569.29356015382,7886.84612329256,2802.13248899145,314.033681091312,20355.9082817221
"Piráti",652.473364145788,1003.84166337435,12995.9417408206,6156.81500495126,1049.36675979127,3658.87329223849,821.94499273839,6751.54963571317,312.197816293364,10654.9957299333
"ANO",1825.61274986815,2365.99748964097,2196.1058093116,2431.14626749501,2034.50934135709,46357.0876875929,1982.59347226786,5109.03970710155,1320.69013484514,118750.21734052
"KDU-ČSL",17888.8010552467,689.248229550977,757.160483628016,2373.07646421658,702.975276276568,1339.12991346563,462.603883694889,2201.40750922205,282.345259129364,6913.25192556927
"SPD",684.35225921889,7558.38187491412,1162.37836329187,802.563967877277,1031.3127518404,4814.69137568739,865.863152331814,1754.08789736173,462.357854866561,53252.01050261
"ostatní",861.963418893628,1032.32226396939,5314.8732221413,5093.22421978768,1174.18856738044,4608.16871365233,817.142177233387,10288.3963148442,392.617977291174,24522.1031248064
"migrace",442.567513468201,318.59008480886,788.781608314366,842.980983945801,286.03169754524,633.573385403837,301.322873186733,857.635204383672,64.838005572702,5294.67864337059
"nevoliči",4947.9757908766,4252.92764749531,4566.01074563922,6031.28533072089,6674.47209829007,7062.00615817351,3740.60025523164,7133.10086577459,12834.2602551231,358518.360852675
