"","ODS","KSČM","STAN+TOP","Piráti","SPD","ANO","ostatní","migrace","nevoliči"
"STAN",740.335017820263,299.897145702179,1200.57234495856,1298.21223240618,746.943262650658,1519.29946620885,1499.65124650849,434.966253255897,11154.220511919
"SPD",311.627827202199,509.291411425049,337.48356155352,376.107974712701,4177.8572238698,3542.7496044129,1876.4151127955,430.578505229646,4005.0674460051
"Piráti",2099.13532547356,678.467108842989,844.222143593533,4677.27782292803,1174.76652689585,986.711617513617,2380.08804769578,257.680127636386,4131.38365556858
"ODS",6507.92529172854,1015.92320072061,1143.81478465006,1371.58678963537,614.777534159625,770.769141861524,1697.68390074658,431.683284893228,8362.05539207988
"UFO+ProMOST",226.605600282504,227.123567113406,229.314159933949,241.136819560406,245.236225335621,397.5924405295,385.487067777647,222.634397672717,7962.54122232841
"ANO",1462.91426668015,2730.47694046221,788.737580226163,1514.77133544789,2082.84687777039,19874.5128564505,4486.48165597938,842.566253133548,11621.7863965993
"KSČM",391.604075349123,3809.77985310977,253.343930253458,341.700593715482,634.605580418593,2004.24833881133,858.683661734783,198.552863205039,2737.64976853902
"JP+LES+ED+Z+TOP",672.924676745279,268.692388525387,1192.09773945641,785.834404725559,308.669477945723,410.803672878339,693.892629525202,208.695221608252,5469.04566894225
"ostatní",1600.53739032067,993.872095467886,1840.21932917476,1389.77437531171,1964.66915741776,3251.52620665865,4373.66196562246,325.112643186704,7655.85811749529
"migrace",164.13670606173,130.22563285774,145.804964682012,152.959000328361,162.372691147198,265.540429860551,224.192863559192,45.3636516071862,4576.57900246069
"nevoliči",1335.93958699152,1000.74308822199,2045.17230886246,1813.7484661019,1620.50351901993,2882.23499165013,4683.32275933508,1134.00986202359,378200.10114054
