"","ČSSD + Zelení","SPD","Piráti","KDU+VPM+Nestr.","TOP 09+HDK+LES","ANO","ODS+STAN+VČ","ostatní","migrace","nevoliči"
"Zeman",6188.07828791975,4801.62706222208,2119.70847287394,1180.79588025044,1737.59346423061,28954.497560352,1892.76323424853,10914.1852610104,812.449436194779,84598.4064261369
"Drahoš",6545.40785701958,2339.99814620245,19630.6119871527,10944.4941923766,9190.58348109961,5534.96484674762,34869.4328689574,2744.88338605512,4013.51651800192,46003.4015081603
"ostatní",0,0,0,0,0,0,0,0,0,0
"migrace",249.019032273291,224.098040969049,608.995346045842,268.904360468361,332.44374131876,273.280181193,725.262810639564,473.999036874531,42.0795476829599,1976.8394210039
"nevoliči",2104.41522537257,2079.83303382606,1896.65944461156,1544.67001257831,1901.44659191396,2252.78360103006,2062.7482030798,1965.20462963814,1730.28310233836,117435.634759929
