"","Horáček","Fischer","Zeman","Hilšer","Drahoš","ostatní","migrace","nevoliči"
"Trikol+Souk+NEZ",674.906979567735,1302.37986875887,2805.74602751307,1185.54849378315,2232.12262922798,620.325567619909,289.826080532692,2245.61704056938
"STAN",1782.4070523103,3951.4505325192,3730.15412249067,819.376137521472,8515.77735101284,1969.23862061021,475.662642657095,2707.86259415747
"KDU-ČSL",1121.97488418913,14467.7825751918,7883.69813803097,1328.02052375197,5082.98554573802,1043.29164588787,558.11033117782,3512.97042193335
"SPD",961.813365432414,969.764939502825,2604.52933374225,1347.50382722625,1613.65772657821,1717.4524750066,348.914171505542,2025.85060483299
"Piráti",4750.96155015933,3557.74217096848,2966.72261471175,3103.68044631402,4717.39858343802,2545.48657969989,475.995993907929,2970.53695472468
"ODS",1628.65590123573,1266.91867652534,3558.15110913289,984.366036834915,5920.98075322401,2681.04082633613,330.716284299956,2593.96817078135
"ČSSD",732.306054877881,1038.67520294993,6796.30356807005,656.413029066416,1979.29870734176,462.685843040199,366.22491239369,3898.71243806271
"ANO",5681.54327884567,2496.10320244614,15429.4718779057,2645.53688385776,5458.87813468781,1152.08140782019,164.037487783641,3156.45945313013
"ostatní",683.130280376043,965.549516774391,2855.94647979295,1448.6911976613,1523.09046760064,1107.74197879039,275.581870617091,2188.79072095417
"migrace",192.301791279977,451.104386394146,2632.90125211962,201.061561712234,931.56573237289,209.192902897682,34.7816208363368,2258.31272910919
"nevoliči",2789.91594779306,9785.66132629992,69236.0877836877,11401.1057227051,33015.9708430144,5638.03880340669,968.405135451936,143962.293563198
