"","STAN","Piráti","ODS","ČSSD","ANO","KDU-ČSL+TOP 09","JIH 12","ostatní","migrace","nevoliči"
"Zeman",2365.4235685202,5574.7117365872,2282.40393177625,9667.20144371747,26947.165009102,2278.09401297689,2617.46269522747,25105.472232564,1408.33175973824,96704.7336097903
"Drahoš",9276.01726606614,15776.2552239429,28905.1390663981,4721.54208632092,5614.0880156476,15408.8590549755,7835.21487338584,6825.20070583125,5058.76394621424,66440.9197612175
"ostatní",0,0,0,0,0,0,0,0,0,0
"migrace",815.281952158013,889.262759516231,1049.68886617724,527.611255722432,791.931382154455,980.31322975681,547.268376197034,1525.95255984703,59.1142072505409,579.575411220215
"nevoliči",2080.65054581408,3114.74682723946,2186.29824576251,2345.66471738156,2425.83460846848,1885.44095138008,1895.59657052756,2496.89848835919,1271.94650786938,143523.922537198
