"","STAN","Piráti","ODS","TOP+Hlas+Zelení","ANO","ostatní","migrace","nevoliči"
"ODS",2675.49461587434,8521.10014632751,21252.3093919595,1175.51619728011,2491.96152719144,4760.40654623449,410.166357794978,3325.04521733761
"ČSSD",2354.94675969181,2581.11262277069,1088.94314286182,962.23344210187,12385.991704532,14120.8321259549,402.877827814889,13086.062374272
"ANO 2011",4729.54264739308,7464.58833739851,6734.73483357581,1613.51897047741,26988.4141416942,14381.7139171263,480.949148708321,8682.53800362642
"TOP 09",2860.42277935806,3226.62224568112,4969.04878789885,6743.0062534658,1130.82709878617,1018.75719266626,277.431980441686,2052.88366170203
"STAN",36787.3461547803,4056.17940996493,3124.1070495707,1003.06847930656,5131.57064826306,2517.64264657987,516.031375341379,10063.0542361933
"KSČM",1303.61703609362,2222.89195574717,874.965302623413,654.805388513768,5318.98546530507,12036.768601596,321.068790460665,12041.8974596602
"ostatní",7662.57081451906,13532.5147067495,4422.33495276691,2038.57607790071,8796.25997964821,11966.8410370708,579.668858204351,10225.2335731405
"migrace",4052.4323056393,3861.11238763968,5409.16947599869,1416.71120694322,964.600919511195,1359.30781733573,145.761911050495,13338.9039758817
"nevoliči",27449.8275037534,12965.716894453,31393.9077984464,8246.56507832673,12500.9587941884,15647.6179348014,14169.3270933551,537122.078902676
