"","ODS","KSČM","STAN+TOP","Piráti","SPD","ANO","KDU-ČSL","ostatní","migrace","nevoliči"
"KDU-ČSL",1439.46675513906,454.601479685874,1558.08990112065,901.023746186518,524.445211388722,916.545238177945,10039.0405947162,872.888872656089,706.511215384021,10909.2079025633
"SPD",1188.36497503378,2318.18424545181,603.794095490354,1222.15227893718,4958.73715300462,3047.68325140241,448.9824101129,3493.4663390655,408.261378544307,5729.93857238064
"Piráti",5594.69407773821,2495.65328880176,999.061942330133,8710.88693146819,3222.52497437958,2545.10197253924,969.119847638381,4077.04845739168,309.050255879138,6275.23109894188
"ODS+TOP 09",9358.39038981389,1032.32440209561,2497.0456974652,3867.23412115802,2139.76065122126,3945.23120296549,2287.16071524304,1888.3033212299,454.546479049855,12499.1165670433
"ČSSD",649.999779678338,827.411392278531,434.502249840314,620.026963515492,1219.71315484236,4282.55058742095,619.585992589963,4032.65319890371,292.773825526942,7994.8737704075
"ANO",3939.64585486837,3842.62707184196,1814.68730427158,2563.34023547798,6243.019261449,24572.9232639315,1773.14215955763,7300.60994196008,613.199390120113,37802.2021616649
"KSČM",593.286983311033,6838.22015644105,560.887013846856,584.032778299102,1348.60979273746,1986.73198981871,342.056873005075,1069.57843779746,334.733069857637,4320.34465089282
"ostatní",3281.53638195135,1645.79444294033,2426.71449412547,2613.29495028387,1814.84560183462,9425.64287399912,1325.35105132681,4865.76221521644,491.004126101041,13426.4664708831
"migrace",220.141899992797,226.939422391201,155.121051882163,216.368926971497,277.769281988014,459.308897514576,163.035181828801,329.094986730603,52.7863065440848,6685.48609174852
"nevoliči",815.472902473166,1934.24409807189,1340.09624962729,1958.63906770214,2885.57491715436,6139.28072223008,997.525173981158,5834.59422904854,2670.13395299286,606710.132713474
