"","STAN","SPD","Piráti","ODS","UFO+ProMOST","ANO","KSČM","JP+LES+ED+Z+TOP","ostatní","migrace","nevoliči"
"ODS",324.711707003001,549.26220957895,1348.7480818644,5479.49232186056,212.005972389874,1584.90041022512,504.795039654101,477.631531115943,1037.9893562854,163.431164682612,2296.07046746133
"ČSSD",555.890606806871,794.370460755192,982.739463245547,760.096455425606,328.834384280697,3266.76380776582,628.15228101695,393.071183345676,2864.81592946316,233.297135827843,8882.13430949046
"ANO 2011",1254.39221492981,2989.24700089702,2732.39435118767,1996.33495649277,510.689604674579,16234.151453195,813.855353166035,889.960402798845,3618.15812370859,367.692055433607,6196.4435255474
"KSČM",653.60442932721,2375.34647452345,1492.19822271189,763.661966480075,414.460084780029,8169.53476824613,4801.07354906001,457.771316752517,1147.62898266202,254.275997632539,5018.67951799392
"SPD + SPO",299.435817728566,2466.80956358287,580.043342994857,433.949373622183,209.125189499848,870.153496818585,641.064883029042,334.10357196071,1199.88916566878,159.053716174683,2654.39371838065
"ostatní",5973.33683933848,2240.71692371627,5351.22999568525,4253.77600479756,714.738918045236,7394.04119138951,935.332520978145,1921.14393870232,6638.40789395741,473.307221685637,17703.3433598307
"migrace",352.098276064527,211.457913224691,285.759001912976,491.350878433014,145.333936684857,505.219380087058,155.097152985343,152.835394996904,560.531181847387,44.1199625469599,3263.82305284316
"nevoliči",9227.40848988238,3785.31960640361,4237.97457513547,7480.52051861284,7445.2031956842,6917.98069461134,2688.6971370015,5278.68670715005,6081.39915338237,12608.6424637476,342181.386047428
