"","Zeman","Drahoš","ostatní","migrace","nevoliči"
"SPD",3058.36608375096,1230.75586286405,0,254.713179571346,1171.30174690183
"SNK1",609.290268731988,712.68300555653,0,85.0997081189844,2722.84484665489
"HNHRM",695.085943737104,547.896607185891,0,92.3721529768062,4233.01486820723
"ANO",10151.3432287504,6342.20146184076,0,286.491102019924,2469.26994353031
"KDU-ČSL+ODS",658.294998860236,3411.20778078207,0,97.1007070675091,1572.68413142259
"TOP+STAN",939.731696550274,5531.27383501911,0,509.618619194117,4353.34442251613
"Piráti",787.119505437002,6413.77482880626,0,265.229374586976,1558.18613850164
"KVC+VOK",697.767692819524,1367.15809886972,0,90.507192521943,2944.62042074381
"ostatní",5460.5454923335,3675.25180266201,0,228.595733291651,2461.37579886356
"migrace",376.744457809956,409.661612931946,0,21.9735388275173,2669.29092850257
"nevoliči",51167.7106312191,23931.1351034816,0,461.298691823226,71243.0667541554
