"","SPD","SNK1","HNHRM","ANO","KDU-ČSL+ODS","TOP+STAN","Piráti","KVC+VOK","ostatní","migrace","nevoliči"
"ODS",347.61589179043,206.797029958251,132.516992893341,363.426084051358,2066.60380003642,1464.81346607492,1302.05483955645,314.042574980579,764.272022702071,119.269562207693,3258.71692606063
"ČSSD",612.012183096007,136.387725126107,122.973430270296,1121.52681187553,158.830400505485,237.578642006766,398.842000269396,151.860808680611,1535.71040722409,92.1812765934507,3670.71180516918
"STAN",544.496187139187,148.161336081927,95.597806180919,624.673209714866,276.319127534039,1161.61048722154,458.796569387518,160.405394340979,292.266703121552,83.0223063605601,2413.07096463886
"KSČM",517.492224054465,169.559051096665,119.232590891008,1205.34753549091,201.42050044991,190.617630743542,233.764688209143,134.707218103865,1827.53097173508,105.895018592983,4934.72561483404
"Piráti",180.895816816946,173.631025338339,143.967497795468,2231.38159268904,377.476442306086,458.025521548057,3738.2457055549,281.224297532776,411.627606562243,145.114157892604,3662.38017573324
"ANO",737.157348903511,351.887820263057,381.247985642519,9352.44266779221,486.078359317784,985.245880110309,560.059402638942,472.722459513315,2252.73421232115,365.982993554279,25706.7231305012
"SPD",768.949940564049,182.262454148386,210.919128430731,821.601149524312,213.319570640873,295.418146241466,340.025155135548,223.38794961508,1282.94942403891,150.898814450998,10283.0272597491
"ostatní",801.63265803192,230.048893299043,180.278503876576,1288.28562312937,496.53018794668,674.74202103832,608.479250453308,252.847847633082,936.541701985925,144.260477239739,9346.60374670585
"migrace",132.834119004312,50.9066609531861,73.9839121235908,287.934493255671,77.3196699169007,311.774356485937,137.07911867771,122.476658325419,181.234133962539,15.5272405547053,834.769528380962
"nevoliči",1083.33047676479,2626.55614736431,4187.71188835254,2026.54918801085,1459.74658146671,5650.29323094126,1324.15137468588,3039.85525971511,2348.26964756943,3330.36244922315,83241.6140430052
