"","Trikol+Souk+NEZ","STAN","KDU-ČSL","SPD","Piráti","ODS","ČSSD","ANO","ostatní","migrace","nevoliči"
"ODS",836.021639729461,1488.33118380262,671.231015035321,488.313002723264,3419.53624322607,5024.82967766281,547.227763284142,1275.20379897989,300.97061375526,160.550952481127,976.784109320038
"ČSSD",204.757390728157,274.81252096496,121.203876637221,712.192835965803,1042.71769573211,596.652720867022,1845.3568258688,777.024319546532,866.239165812127,100.316021649939,775.726626227316
"STAN+TOP",1330.62803407094,3417.10646614159,1082.3035407169,280.91897636639,1393.59253339434,606.619199770102,260.657419851319,990.759722269648,244.465865279827,130.042295698714,956.905946440234
"Piráti",1070.79897328229,2662.75082144546,999.409669386985,815.848038589179,4190.53058416706,1470.41349923611,543.838915642057,1662.42897356119,667.081847372435,174.397454380409,1208.50122293683
"SPD",426.742791326724,395.156203856469,978.885737971023,3331.02896619661,1545.59596554462,427.103361481374,673.074979054922,2778.09701895117,1274.56794391554,141.869343492961,2262.87768820859
"ANO",1020.28660990784,1294.67063871287,994.97305385253,837.704745155188,3471.71199862738,1510.02683953471,1164.68505070791,12726.4785843411,1545.10694310003,268.500142822217,3695.85539323823
"KDU-ČSL",381.21846540917,1330.27693732117,9859.4142912803,401.51707877628,1208.066373442,393.310947306511,395.600966317042,1319.16596483886,614.729465757253,178.742139343945,4129.95737020746
"KSČM",270.85777575928,554.102282440486,319.520344333973,1121.71843218727,914.826385310238,261.212936488668,1037.77409919933,937.037854138934,2284.18656214198,123.672495428877,642.090832570963
"ostatní",904.823171840268,1464.29458454587,879.293050169659,930.059102701404,1848.29391388857,1953.06922230982,624.873105571388,1631.4356143514,678.62865127403,189.634402268864,2542.59518107873
"migrace",106.279285618613,197.267557765982,238.42049989212,277.062794329784,218.101148422298,277.259356441958,210.850042860926,408.776622347597,76.984353897076,28.7190153157827,259.279323107864
"nevoliči",5000.39796263516,11187.3370654801,19331.347454262,2516.18389058533,6149.90672963731,6671.661593484,8821.26858784484,12052.7417321362,2604.10778827487,3138.07628798868,263637.970907671
