"","ODS","ČSSD","ANO 2011","TOP 09","STAN","KSČM","ostatní","migrace","nevoliči"
"STAN",2703.50173017529,2379.59837464181,4779.05156463433,2890.3657242084,37172.436598421,1317.26331709075,7742.78271080471,4094.85322254472,27737.1726742043
"Piráti",8610.29913942285,2608.13174507452,7542.72775040073,3260.39857156292,4098.63955160977,2246.16121919995,13674.1732561341,3901.53056502184,13101.4421965717
"ODS",21474.7788578923,1100.34221460295,6805.23413009892,5021.06485870084,3156.81024497486,884.124451400817,4468.62801565119,5465.79273619463,31722.5396554674
"TOP+Hlas+Zelení",1187.8215169412,972.306114959159,1630.40930917022,6813.59213532567,1013.56861389286,661.659900293448,2059.91592021853,1431.54135927052,8332.89023456832
"ANO",2518.04741460512,12515.6484354188,27270.9292307484,1142.66461235185,5185.28800012636,5374.66467804128,8888.33934964923,974.698375154446,12631.8190021451
"ostatní",4810.23854719174,14268.6491901455,14532.2618954816,1029.42155691899,2543.99736430321,12162.7696602559,12092.110093027,1373.53707019403,15811.4174137603
"migrace",414.459984848835,407.095158437041,485.983730987387,280.336142214566,521.433198849567,324.429742958773,585.736839755165,147.287748732729,14317.6518035289
"nevoliči",3359.85183623538,13223.0474545226,8773.42693042414,2074.37327600314,10168.3944258306,12167.9522072766,10332.2714582993,13478.5358054826,542744.680184747
