"","SPD","Piráti","SLK","ODS","ANO","ostatní","migrace","nevoliči"
"ODS",0.0571646721230393,0.062042369788667,0.10143883780446,0.431781730011075,0.0641204759978318,0.13775592341015,0.015429427460953,0.130266563403823
"ČSSD",0.132654221674823,0.0820059772299505,0.153353400325088,0.0304137916272037,0.277516981336247,0.242921010575516,0.0145978452019642,0.0665367720292068
"ANO 2011",0.0327190686584402,0.0568256897708097,0.122346196612753,0.0257324724821844,0.456199628394786,0.216991445215091,0.0119935224599378,0.0771919764059979
"SPD + SPO",0.167102346723843,0.0427800226319255,0.0490153521141226,0.0406706712099619,0.156221045078089,0.103988586001729,0.016019423343097,0.424202552897232
"SLK",0.0170040064058241,0.0243876826181186,0.738581343945842,0.02107314789271,0.0571034624860423,0.0574174206818329,0.0117484567017708,0.0726844792678594
"KSČM",0.0396057237578452,0.0248875057114663,0.13571273429273,0.0285608023092142,0.290124918320922,0.204012868384187,0.0149517559296293,0.262143691294007
"Změna pro LbK",0.145531280618748,0.226994488570143,0.150936467908957,0.0769144265856252,0.0454549562381909,0.211736422651384,0.0162480391944497,0.126183918232502
"ostatní",0.0298006899955588,0.293401577465976,0.130782148103999,0.0751793511466825,0.0714730619636123,0.306439805711559,0.0129547817796212,0.0799685838329908
"migrace",0.0524475157345919,0.0780889374250219,0.224127382181475,0.0427987278798063,0.0753577213755562,0.123689628440011,0.00774944374264881,0.39574064322089
"nevoliči",0.00953166738697233,0.0115809295645026,0.0522650589513877,0.0153325771671588,0.0173101014673281,0.0160045970173251,0.0260723967626801,0.851902671682645
