"","KDU-ČSL","SPD","Piráti","ODS+TOP 09","ČSSD","ANO","KSČM","ostatní","migrace","nevoliči"
"Zeman",0.0179321703074344,0.0193587607822164,0.01166478787345,0.0137227715407787,0.0243166478876791,0.170738111714712,0.0215532115449306,0.0321339439472436,0.0195299031948216,0.669049691206734
"Drahoš",0.0879624439282534,0.0417072634142796,0.123967753844615,0.144011783448187,0.0383909513611223,0.110420959981124,0.0273501689011216,0.115938390681431,0.00564415551854311,0.304606128921322
"ostatní",NA,NA,NA,NA,NA,NA,NA,NA,NA,NA
"migrace",0.0435567440745873,0.0701341616404243,0.0862282127592816,0.0965559347814861,0.0297534559631453,0.0552386611855521,0.0490024159505063,0.0944635473488511,0.00642913760713582,0.46863772868903
"nevoliči",0.00723572158263411,0.0188752656617526,0.00954832693213115,0.00857240568089435,0.0101757460492767,0.0112734718738005,0.0106301224512726,0.00993916364623408,0.0124382670244747,0.901311509097529
