"","KDU-ČSL","SPD","Piráti","TOP+Z+LES+MZH+I","ČSSD","ANO","STAN+SOL","ODS+Svobod.+SOM","ostatní","migrace","nevoliči"
"ODS",0.0343317979004685,0.0246371603933952,0.157120637151322,0.0498052310124974,0.0171983559623163,0.0376813674670839,0.0515573767061503,0.392442643455361,0.040985426413705,0.00922476363333767,0.185015239904362
"ČSSD",0.0173541771467697,0.0307578334303854,0.0298063040246229,0.0127160207085831,0.137346734394277,0.0674669868449971,0.0390741671522948,0.0140303769620514,0.0315329158379872,0.00827826965724199,0.61163621384079
"KSČM",0.0125741608174385,0.013772830295646,0.0173077837181366,0.00947796802864411,0.0151030216632866,0.135025328075109,0.0193755661793814,0.0116886869291091,0.281013901574602,0.00671211957562435,0.477948633143022
"Piráti",0.0244986476090117,0.0183999570898062,0.294733701762807,0.0234984058279176,0.0187168622342302,0.0351493286837465,0.0864281877988339,0.0428138179298605,0.049662171484721,0.00843225157153203,0.397666668007534
"ANO",0.00856542741095922,0.0109270965034167,0.0103660287317158,0.00705085733226907,0.00964071948832562,0.266117825802933,0.00888272619247844,0.00873595044123643,0.0115639649820375,0.0047373589439694,0.653412044170659
"KDU-ČSL",0.680416153453083,0.0162440229740492,0.0163684668514822,0.0116634520189602,0.0102255029883986,0.0386795015047207,0.0344822279883482,0.0130190380694067,0.0209892480154579,0.0075341242647082,0.150378261871385
"SPD",0.0119019275566653,0.133741260600015,0.0116997875567515,0.0100690721080683,0.0124740187441605,0.0304460461600795,0.0117428734216987,0.00988568342704347,0.0324134322241736,0.006207286032928,0.729418612168416
"ostatní",0.0425241496614008,0.0230397615157648,0.135059935909495,0.0560088384967967,0.0174686677941949,0.0439386489037849,0.0767021249938284,0.0712654962541385,0.0265660819713427,0.0105401504876685,0.496886144011585
"migrace",0.0387432879342451,0.0313241007808533,0.0534501279680325,0.0354063914052967,0.0255937523797093,0.0467397487729008,0.0671403546283796,0.050910351607921,0.0404561308035104,0.00585566195991003,0.604380091759241
"nevoliči",0.024456711786751,0.0112243754175397,0.0161475228965174,0.0284951372543024,0.0172024881711564,0.0180124112251869,0.0402090455492408,0.0167562006720968,0.0141584317524911,0.0351798752785969,0.778157799996121
