"","SPD","Piráti","SLK","ODS","ANO","ostatní","migrace","nevoliči"
"Horáček",0.0311389164977216,0.0594247202256336,0.188923610715968,0.0304663369964666,0.129379048510362,0.196439917063352,0.00947306191847161,0.354754388072025
"Fischer",0.0517856438231073,0.134415074134216,0.249762436333767,0.105472969498458,0.0683182423018072,0.236435575231582,0.0123602926884342,0.141449765988628
"Zeman",0.0226239692490244,0.0207263958115356,0.187976797497695,0.0179539055683281,0.160676413704432,0.0308915200443714,0.0152898667229238,0.54386113140169
"Hilšer",0.0360320576833091,0.117728267560161,0.239176144823064,0.0236944510875358,0.124953402440796,0.155861966939053,0.0109674679965101,0.291586241469571
"Drahoš",0.0373261371896637,0.0578064260576694,0.342686468750395,0.0889804466272504,0.0551071841719755,0.105713511114063,0.0509271896110508,0.261452636477933
"ostatní",0.0458496129780096,0.0885417788668788,0.120590715124645,0.0997388548210906,0.03684249137786,0.169244715680021,0.0103069776189367,0.428884853532558
"migrace",0.0784810750002104,0.0572429478734184,0.1375628627034,0.0360791254154982,0.0729651009160524,0.0500989057808838,0.00952448032561296,0.558045501984924
"nevoliči",0.0115851838941542,0.00996478367785265,0.0155914223858135,0.00916244869648209,0.0134865976924918,0.0128875898346153,0.0100841424191636,0.917237831399427
