"","STAN","ODS+TOP 09","KDU+SNKED+Nestr","Piráti","ČSSD+SproK","ANO","ostatní","migrace","nevoliči"
"Zeman",0.035466743322402,0.0267807625428057,0.0380417945832905,0.0212916369043813,0.103378435372761,0.121096794295788,0.0554488493919498,0.0251734611540041,0.573321522432617
"Drahoš",0.0473300446236107,0.126432578615406,0.114470974112279,0.108341940500247,0.0669046760346156,0.0718777163257929,0.0777383902265766,0.00700570552379342,0.379897974037678
"ostatní",NA,NA,NA,NA,NA,NA,NA,NA,NA
"migrace",0.0766674351439468,0.0991973932570135,0.104039379726273,0.161663756183121,0.0409469409491335,0.0853914863264194,0.185355935165942,0.00834950327744045,0.23838816997071
"nevoliči",0.00918546598501943,0.0106800250198482,0.00998490200500531,0.0131706784299981,0.0137995901759709,0.0274155900522274,0.0662539360209722,0.0047117663946576,0.844798045916301
