"","SPD","SNK1","HNHRM","ANO","KDU-ČSL+ODS","TOP+STAN","Piráti","KVC+VOK","ostatní","migrace","nevoliči"
"ODS",0.0336181381675693,0.0199994628840811,0.0128157966360322,0.0351471511972847,0.19986247386277,0.141662975298928,0.125922492416862,0.03037124287333,0.0739131986298712,0.0115346297916122,0.315152438241659
"ČSSD",0.0742858049120244,0.0165546899570844,0.0149264679735772,0.136130495849166,0.0192787733184689,0.0288372047793201,0.0484112895806292,0.0184328069261008,0.186403942377922,0.0111889281270864,0.44554959619862
"STAN",0.0870021793294759,0.0236739199207642,0.0152750701902173,0.0998132436876722,0.0441515787506065,0.185607624639645,0.0733086885609311,0.0256303335330826,0.0466997579002622,0.013265697275639,0.385571906211704
"KSČM",0.0536801341703739,0.0175885785130412,0.0123681500494141,0.125032250572081,0.0208936076451597,0.0197730120723035,0.0242487118531886,0.0139733530387739,0.189572138871265,0.0109846265157547,0.511885436698644
"Piráti",0.0153249982228416,0.0147095449831924,0.0121965321624607,0.189036537959553,0.0319787704840028,0.0388026678960909,0.31669393909836,0.0238245523624841,0.0348719635978225,0.0122936740657951,0.310266819167397
"ANO",0.0176978861396401,0.00844822423083092,0.00915311154518738,0.224536139683475,0.0116699093768042,0.0236540671156276,0.0134460675920579,0.0113492570840698,0.0540842923859259,0.00878662521455251,0.617174419631829
"SPD",0.0520518842114994,0.01233773963553,0.0142775718833056,0.0556159583960747,0.0144400630070933,0.0199974931149056,0.0230170380026689,0.0151216133511618,0.0868456206918984,0.0102146670454182,0.696080350660444
"ostatní",0.053584172002375,0.0153773419083945,0.0120505000180128,0.0861139048244744,0.0331899639176715,0.0451023198098147,0.0406730645133821,0.0169013106218308,0.0626020049754666,0.00964291829693781,0.62476249911164
"migrace",0.059678200351771,0.022870764938828,0.0332386495549095,0.129359930306308,0.0347373008306986,0.14007043258448,0.0615853454655505,0.0550249183624462,0.0814228079221502,0.00697590182160781,0.37503574786125
"nevoliči",0.00982003075773613,0.0238088586144692,0.037960216600726,0.0183699949232136,0.0132321176556501,0.0512180304238947,0.0120029921674004,0.0275552777196995,0.0212862839744484,0.0301886288507707,0.754557568311991
