"","Trikol+Souk+NEZ","STAN","KDU-ČSL","SPD","Piráti","ODS","ČSSD","ANO","ostatní","migrace","nevoliči"
"ODS",0.0434723605801426,0.0932316459904733,0.0401537625439212,0.0305151334642738,0.0685843560401569,0.351399812979222,0.0268058880259163,0.0540470859801339,0.0184386989986056,0.0108293897959052,0.262521865601249
"ČSSD",0.0211593858244056,0.0299380374386934,0.0212095026728496,0.0431127668885079,0.0487614795900298,0.0147755528366408,0.0825922562625143,0.0431800874034688,0.0226650170863698,0.0105956113243183,0.662010302672202
"STAN",0.0540257936390125,0.475566684282355,0.0369417143737858,0.0273224612146944,0.07917986737307,0.0325112474888722,0.0276460411393119,0.045635917974965,0.0164792995493247,0.011800320376133,0.192890652588475
"KSČM",0.017276342308059,0.0176759185852197,0.0178401906949514,0.0437936444099118,0.0314066364563683,0.0132380620559154,0.0201470052859829,0.0374095741320579,0.216182890908672,0.0114223312122436,0.573607403950618
"Piráti",0.0245994571482697,0.0749006843172793,0.0451634309882632,0.0187921264154619,0.281292024597271,0.0426717509601119,0.0211674923108278,0.127389078192432,0.0254960133371174,0.00908485484276611,0.3294430868902
"ANO",0.0176745806161713,0.0189177857309101,0.0551017733965952,0.0155240262940296,0.0219231835343166,0.0161320720353708,0.0373046361472658,0.235700489343978,0.0128214333239832,0.01201908992476,0.556880929652619
"KDU-ČSL",0.0211230121839969,0.0471000404528592,0.512534526303064,0.0147286971821251,0.0245582990892059,0.0139004620579213,0.0144270625460201,0.0130769991978773,0.0134690929354752,0.00845345090710856,0.316628357144347
"SPD",0.0116731261970174,0.0153244681313662,0.0227589198741641,0.0874547338336542,0.0595690543692841,0.0144900542065141,0.016272007412089,0.0811148741460559,0.0187323535179946,0.00816078963271201,0.664449618679148
"ostatní",0.0651193676878732,0.0468496448075518,0.0362341729288856,0.0297468226509445,0.190262440862555,0.0322704621859406,0.018657102045365,0.102183594513779,0.022669038886917,0.00987121537512315,0.446136138055065
"migrace",0.0678113629459876,0.151354045720312,0.061899388814046,0.0586188689457554,0.123123878024986,0.138081291873537,0.0416498245559291,0.0490989585465149,0.0348580501278298,0.00750821918075313,0.265996111264349
"nevoliči",0.0181453769834113,0.0273585348990884,0.0429838662259343,0.0110729164440858,0.0170455910957312,0.0178631590979259,0.0404708779454822,0.0178209174228726,0.0105704056265401,0.0296517470493046,0.767016607209624
