"","KDU-ČSL","SPD","Piráti","ODS+TOP 09","ČSSD","ANO","KSČM","ostatní","migrace","nevoliči"
"ODS",0.0531541211601885,0.04388187197791,0.206591118412843,0.345570340453229,0.0240020597348081,0.145476380298673,0.0219078683693746,0.121174859936906,0.00812901665347649,0.030112363002591
"KSČM",0.0210307864399461,0.107243904767386,0.115453982642568,0.0477574205262587,0.0382777291024487,0.177767721680327,0.316349933218035,0.0761377888110811,0.0104986779418579,0.089482054870091
"STAN+TOP",0.125753825756308,0.0487323725173813,0.080634539332537,0.201537183007684,0.0350687852978461,0.146463866365745,0.0452693312225065,0.195860733989142,0.012519858908972,0.108159503601879
"Piráti",0.038742045241713,0.0525498679510332,0.374549036052294,0.166282586797868,0.0266597997813773,0.110218009007094,0.0251121287482952,0.112365952198644,0.00930338938691563,0.0842171848347654
"SPD",0.0212886223417383,0.201288295230551,0.130810837198278,0.086858561040035,0.0495113925245528,0.253420712865801,0.0547436489846745,0.0736693972735789,0.0112753920027609,0.11713314053803
"ANO",0.0159896937976997,0.0531687034664854,0.0444008648233499,0.0688269779481427,0.0747117214881273,0.428689716926283,0.0346597580261807,0.164436120688738,0.00801292541153461,0.107103517423459
"KDU-ČSL",0.529345668057803,0.023674263649507,0.0511004401602099,0.120599035868339,0.0326699706084874,0.0934955001084963,0.0180362179280293,0.0698840522713847,0.00859663495010817,0.0525982163976355
"ostatní",0.0258526499424265,0.10346719402516,0.120751346327203,0.0559265288837194,0.119436476688298,0.216224675451963,0.0316780724380244,0.144110952944451,0.00974691940322838,0.172805183895526
"migrace",0.111560274022426,0.0644657158604622,0.0487999772428767,0.0717742742854658,0.0462298792873744,0.096826052442778,0.0528553718391973,0.0775310478605781,0.00833511867110134,0.42162228848774
"nevoliči",0.0153143285738438,0.0080436785868532,0.00880915936192012,0.0175462398095372,0.0112231909887479,0.053066670824247,0.00606489289845458,0.0188480521186591,0.00938507466347235,0.851698712174265
