"","STAN","SPD","Piráti","ODS","UFO+ProMOST","ANO","KSČM","JP+LES+ED+Z+TOP","ostatní","migrace","nevoliči"
"Horáček",0.0299125007515122,0.0170267756524932,0.119785917125403,0.0922854846448496,0.0124242738693047,0.0544953890284666,0.0381069150419633,0.0296972045386753,0.134556945017219,0.00915337489764625,0.462555219432466
"Fischer",0.0834169958501927,0.0810509513758483,0.180342040979318,0.102079435336173,0.0157775035651545,0.0808046985239362,0.0593680299467953,0.0440174774167484,0.126877909255799,0.0106139187965212,0.215651038953513
"Zeman",0.0148761880673906,0.0234336959123478,0.00873121107561178,0.00904195081499078,0.00736283016471984,0.176731278633159,0.0146585892411454,0.00846694752402384,0.019410922202867,0.00610661244873547,0.711179773915009
"Hilšer",0.0206885001154365,0.101411377616655,0.0647720413556779,0.0301284247382332,0.0122400630296539,0.152045223407026,0.0576682462103609,0.019242344303534,0.0593126877798239,0.00730595492677219,0.475185136516826
"Drahoš",0.0478992796329848,0.0411000673261707,0.0324924044524521,0.0936323685677603,0.0117591141703386,0.0944959270597346,0.0199012329469265,0.0237138923394352,0.0903667197546977,0.00841289865799034,0.536226095091509
"ostatní",0.076288313755354,0.0594684476346273,0.0997960074029533,0.151013087680037,0.0148261220130893,0.118892714986407,0.0374151081909317,0.020481344233039,0.108294271084544,0.00883280900145249,0.304691774017565
"migrace",0.0811887226730386,0.0486103651222252,0.0312679406132669,0.0493331405575839,0.0221028992494106,0.119330642144939,0.0262172775458537,0.0239515844070392,0.0659018959961752,0.00760315799696496,0.524492373693503
"nevoliči",0.0328461654975479,0.0136138164830911,0.0120683637314956,0.02339775466797,0.0258062711533353,0.0164061198452911,0.0121912206728268,0.0168955418111275,0.0166845180429819,0.0237890489773226,0.80630117911701
