"","STAN","SPD","Piráti","ODS","UFO+ProMOST","ANO","KSČM","JP+LES+ED+Z+TOP","ostatní","migrace","nevoliči"
"ODS",0.0232284725826143,0.0392918453530008,0.0964836104297012,0.391979206231106,0.0151659912802687,0.113376927690347,0.0361108561396483,0.0341676961003942,0.0742532738534681,0.0116911594072575,0.164250960932194
"ČSSD",0.0282318902905625,0.0403435125967071,0.0499101664443013,0.0386028464540623,0.0167004373650132,0.165908393300242,0.0319018275651459,0.0199628171239312,0.145494757480871,0.0118484087752941,0.45109494260387
"ANO 2011",0.0333585504387977,0.0794942328775757,0.0726636483373587,0.0530893284781951,0.0135809715122155,0.431721238092021,0.0216431786847417,0.0236670704999228,0.0962191161813234,0.00977818088404954,0.164784484013799
"KSČM",0.0255831536461164,0.0929749724662161,0.0584070956211172,0.0298909868806512,0.0162226502045348,0.319769043500008,0.18792192457805,0.0179179231440026,0.0449200881677018,0.00995278126044665,0.196439380531155
"SPD + SPO",0.0304056817307954,0.250487824234754,0.0588994777276628,0.0440646234031853,0.0212352483482407,0.0883582013731836,0.0650958023326381,0.0339259576600414,0.121840628019412,0.0161508289448911,0.269535726225196
"ostatní",0.111444151367841,0.0418049078321812,0.0998375450243856,0.079362418312249,0.0133348368447176,0.137950138744313,0.0174504371427171,0.0358426557320785,0.123852338161059,0.00883046161228499,0.330290109226174
"migrace",0.0570881354592827,0.0342851380274753,0.0463320888481935,0.0796661256611232,0.0235639991113601,0.0819147220186306,0.0251469770824828,0.0247802625735015,0.0908828080504178,0.00715347551965217,0.52918626764788
"nevoliči",0.0226198997026968,0.00927926296244343,0.0103888930393896,0.0183376106130471,0.0182510343762533,0.0169586108200241,0.0065910227813787,0.0129400756462246,0.0149078301944047,0.0309085945669205,0.838817165297217
